<?xml version="1.0" encoding="UTF-8"?>
<kml xmlns="http://www.opengis.net/kml/2.2" xmlns:gx="http://www.google.com/kml/ext/2.2">
    <Document>
        <name>Route</name>
        <Folder>
            <name>Route Request</name>
            <Placemark>
                <Point>
                    <coordinates>114.1718535609,22.4582461722</coordinates>
                </Point>
                <ExtendedData>
                    <Data name="routingVisited">
                        <value>false</value>
                    </Data>
                </ExtendedData>
            </Placemark>
            <Placemark>
                <Point>
                    <coordinates>114.1691330299,22.4518534706</coordinates>
                </Point>
                <ExtendedData>
                    <Data name="routingVisited">
                        <value>false</value>
                    </Data>
                </ExtendedData>
            </Placemark>
            <Placemark>
                <address>Norwegian International School, Kwong Fuk Road, Tai Po Market, Tai Po, Tai Po District, Hong Kong, DD5 1137, PRC</address>
                <Point>
                    <coordinates>114.1710711476,22.4470310633</coordinates>
                </Point>
                <ExtendedData>
                    <Data name="postcode">
                        <value>DD5 1137</value>
                    </Data>
                    <Data name="country">
                        <value>PRC</value>
                    </Data>
                    <Data name="road">
                        <value>Kwong Fuk Road</value>
                    </Data>
                    <Data name="county">
                        <value>Tai Po District</value>
                    </Data>
                    <Data name="suburb">
                        <value>Tai Po Market</value>
                    </Data>
                    <Data name="town">
                        <value>Tai Po</value>
                    </Data>
                    <Data name="school">
                        <value>Norwegian International School</value>
                    </Data>
                    <Data name="country_code">
                        <value>cn</value>
                    </Data>
                </ExtendedData>
            </Placemark>
            <Placemark>
                <address>Sha Lek Highway, Siu Lek Yuen, Shek Kwu Lung, Sha Tin District, Hong Kong, STTL 506, PRC</address>
                <Point>
                    <coordinates>114.2109663489,22.3833013438</coordinates>
                </Point>
                <ExtendedData>
                    <Data name="postcode">
                        <value>STTL 506</value>
                    </Data>
                    <Data name="country">
                        <value>PRC</value>
                    </Data>
                    <Data name="road">
                        <value>Sha Lek Highway</value>
                    </Data>
                    <Data name="hamlet">
                        <value>Shek Kwu Lung</value>
                    </Data>
                    <Data name="county">
                        <value>Sha Tin District</value>
                    </Data>
                    <Data name="suburb">
                        <value>Siu Lek Yuen</value>
                    </Data>
                    <Data name="country_code">
                        <value>cn</value>
                    </Data>
                </ExtendedData>
            </Placemark>
            <Placemark>
                <address>Sun Chui Estate, Hung Mui Kuk Road, Tai Wai, Tin Sam, Sha Tin District, Hong Kong, DD186 490, PRC</address>
                <Point>
                    <coordinates>114.1790337105,22.3707756408</coordinates>
                </Point>
                <ExtendedData>
                    <Data name="postcode">
                        <value>DD186 490</value>
                    </Data>
                    <Data name="country">
                        <value>PRC</value>
                    </Data>
                    <Data name="road">
                        <value>Hung Mui Kuk Road</value>
                    </Data>
                    <Data name="bus_stop">
                        <value>Sun Chui Estate</value>
                    </Data>
                    <Data name="hamlet">
                        <value>Tin Sam</value>
                    </Data>
                    <Data name="county">
                        <value>Sha Tin District</value>
                    </Data>
                    <Data name="suburb">
                        <value>Tai Wai</value>
                    </Data>
                    <Data name="country_code">
                        <value>cn</value>
                    </Data>
                </ExtendedData>
            </Placemark>
            <Placemark>
                <address>Tsing Sha Highway Bus Interchange, Tsing Sha Highway, Sha Tin Heights, Hin Tin, Sha Tin District, Hong Kong, DD186 487, PRC</address>
                <Point>
                    <coordinates>114.1632221027,22.3583060065</coordinates>
                </Point>
                <ExtendedData>
                    <Data name="postcode">
                        <value>DD186 487</value>
                    </Data>
                    <Data name="country">
                        <value>PRC</value>
                    </Data>
                    <Data name="road">
                        <value>Tsing Sha Highway</value>
                    </Data>
                    <Data name="bus_stop">
                        <value>Tsing Sha Highway Bus Interchange</value>
                    </Data>
                    <Data name="hamlet">
                        <value>Hin Tin</value>
                    </Data>
                    <Data name="county">
                        <value>Sha Tin District</value>
                    </Data>
                    <Data name="suburb">
                        <value>Sha Tin Heights</value>
                    </Data>
                    <Data name="country_code">
                        <value>cn</value>
                    </Data>
                </ExtendedData>
            </Placemark>
            <Placemark>
                <address>Construction Industry Council Tat Mei Road Training Ground, Tat Mei Road, Kau Wa Keng, Kau Wa Keng Old Village, Kwai Tsing District, Hong Kong, 852, PRC</address>
                <Point>
                    <coordinates>114.1328733999,22.3354027846</coordinates>
                </Point>
                <ExtendedData>
                    <Data name="postcode">
                        <value>852</value>
                    </Data>
                    <Data name="country">
                        <value>PRC</value>
                    </Data>
                    <Data name="neighbourhood">
                        <value>Kau Wa Keng</value>
                    </Data>
                    <Data name="road">
                        <value>Tat Mei Road</value>
                    </Data>
                    <Data name="hamlet">
                        <value>Kau Wa Keng Old Village</value>
                    </Data>
                    <Data name="county">
                        <value>Kwai Tsing District</value>
                    </Data>
                    <Data name="school">
                        <value>Construction Industry Council Tat Mei Road Training Ground</value>
                    </Data>
                    <Data name="country_code">
                        <value>cn</value>
                    </Data>
                </ExtendedData>
            </Placemark>
            <Placemark>
                <address>Passenger Clearance Building, 33, Shun Fai Road, Pak Mong, Islands District, Hong Kong, 000000, PRC</address>
                <Point>
                    <coordinates>113.9509277474,22.3170090634</coordinates>
                </Point>
                <ExtendedData>
                    <Data name="postcode">
                        <value>000000</value>
                    </Data>
                    <Data name="country">
                        <value>PRC</value>
                    </Data>
                    <Data name="house_number">
                        <value>33</value>
                    </Data>
                    <Data name="road">
                        <value>Shun Fai Road</value>
                    </Data>
                    <Data name="hamlet">
                        <value>Pak Mong</value>
                    </Data>
                    <Data name="county">
                        <value>Islands District</value>
                    </Data>
                    <Data name="address29">
                        <value>Passenger Clearance Building</value>
                    </Data>
                    <Data name="country_code">
                        <value>cn</value>
                    </Data>
                </ExtendedData>
            </Placemark>
            <Placemark>
                <address>Tat Yeung Road, Lai Chi Kok, Sham Shui Po District, Hong Kong, 852, PRC</address>
                <Point>
                    <coordinates>114.1351170626,22.3368527873</coordinates>
                </Point>
                <ExtendedData>
                    <Data name="postcode">
                        <value>852</value>
                    </Data>
                    <Data name="country">
                        <value>PRC</value>
                    </Data>
                    <Data name="road">
                        <value>Tat Yeung Road</value>
                    </Data>
                    <Data name="county">
                        <value>Sham Shui Po District</value>
                    </Data>
                    <Data name="suburb">
                        <value>Lai Chi Kok</value>
                    </Data>
                    <Data name="country_code">
                        <value>cn</value>
                    </Data>
                </ExtendedData>
            </Placemark>
            <Placemark>
                <address>Tsing Sha Highway Bus Interchange, Tsing Sha Highway, Sha Tin Heights, Hin Tin, Sha Tin District, Hong Kong, DD186 487, PRC</address>
                <Point>
                    <coordinates>114.1629957596,22.3604524924</coordinates>
                </Point>
                <ExtendedData>
                    <Data name="postcode">
                        <value>DD186 487</value>
                    </Data>
                    <Data name="country">
                        <value>PRC</value>
                    </Data>
                    <Data name="road">
                        <value>Tsing Sha Highway</value>
                    </Data>
                    <Data name="bus_stop">
                        <value>Tsing Sha Highway Bus Interchange</value>
                    </Data>
                    <Data name="hamlet">
                        <value>Hin Tin</value>
                    </Data>
                    <Data name="county">
                        <value>Sha Tin District</value>
                    </Data>
                    <Data name="suburb">
                        <value>Sha Tin Heights</value>
                    </Data>
                    <Data name="country_code">
                        <value>cn</value>
                    </Data>
                </ExtendedData>
            </Placemark>
            <Placemark>
                <address>Lion Rock Tunnel Road, Tai Wai, Kak Tin, Sha Tin District, Hong Kong, DD186 490, PRC</address>
                <Point>
                    <coordinates>114.1817519767,22.3650930260</coordinates>
                </Point>
                <ExtendedData>
                    <Data name="postcode">
                        <value>DD186 490</value>
                    </Data>
                    <Data name="country">
                        <value>PRC</value>
                    </Data>
                    <Data name="road">
                        <value>Lion Rock Tunnel Road</value>
                    </Data>
                    <Data name="hamlet">
                        <value>Kak Tin</value>
                    </Data>
                    <Data name="county">
                        <value>Sha Tin District</value>
                    </Data>
                    <Data name="suburb">
                        <value>Tai Wai</value>
                    </Data>
                    <Data name="country_code">
                        <value>cn</value>
                    </Data>
                </ExtendedData>
            </Placemark>
            <Placemark>
                <address>Ma Liu Shui PKG, Tate's Cairn Highway, Ma Liu Shui, Tai Shui Hang, Sha Tin District, Hong Kong, DD176 781, PRC</address>
                <Point>
                    <coordinates>114.2128999738,22.4099775250</coordinates>
                </Point>
                <ExtendedData>
                    <Data name="postcode">
                        <value>DD176 781</value>
                    </Data>
                    <Data name="building">
                        <value>Ma Liu Shui PKG</value>
                    </Data>
                    <Data name="country">
                        <value>PRC</value>
                    </Data>
                    <Data name="road">
                        <value>Tate's Cairn Highway</value>
                    </Data>
                    <Data name="village">
                        <value>Tai Shui Hang</value>
                    </Data>
                    <Data name="county">
                        <value>Sha Tin District</value>
                    </Data>
                    <Data name="suburb">
                        <value>Ma Liu Shui</value>
                    </Data>
                    <Data name="country_code">
                        <value>cn</value>
                    </Data>
                </ExtendedData>
            </Placemark>
            <Placemark>
                <address>Kwong Fuk Road, Tai Po, Kwong Fuk Road, Tai Po Market, Tai Po, Tai Po District, Hong Kong, DD5 1137, PRC</address>
                <Point>
                    <coordinates>114.1677221292,22.4480829217</coordinates>
                </Point>
                <ExtendedData>
                    <Data name="postcode">
                        <value>DD5 1137</value>
                    </Data>
                    <Data name="country">
                        <value>PRC</value>
                    </Data>
                    <Data name="road">
                        <value>Kwong Fuk Road</value>
                    </Data>
                    <Data name="bus_stop">
                        <value>Kwong Fuk Road, Tai Po</value>
                    </Data>
                    <Data name="county">
                        <value>Tai Po District</value>
                    </Data>
                    <Data name="suburb">
                        <value>Tai Po Market</value>
                    </Data>
                    <Data name="town">
                        <value>Tai Po</value>
                    </Data>
                    <Data name="country_code">
                        <value>cn</value>
                    </Data>
                </ExtendedData>
            </Placemark>
            <Placemark>
                <address>Tai Po Centre, Tai Po, Tai Po District, Hong Kong, DD5 1119, PRC</address>
                <Point>
                    <coordinates>114.1696354261,22.4535302686</coordinates>
                </Point>
                <ExtendedData>
                    <Data name="postcode">
                        <value>DD5 1119</value>
                    </Data>
                    <Data name="country">
                        <value>PRC</value>
                    </Data>
                    <Data name="county">
                        <value>Tai Po District</value>
                    </Data>
                    <Data name="suburb">
                        <value>Tai Po Centre</value>
                    </Data>
                    <Data name="town">
                        <value>Tai Po</value>
                    </Data>
                    <Data name="country_code">
                        <value>cn</value>
                    </Data>
                </ExtendedData>
            </Placemark>
            <Placemark>
                <address>NT, Chung Nga Road, Tai Po Centre, Tai Po, Tai Po District, Hong Kong, DD5 1119, PRC</address>
                <Point>
                    <coordinates>114.1718535623,22.4582734929</coordinates>
                </Point>
                <ExtendedData>
                    <Data name="postcode">
                        <value>DD5 1119</value>
                    </Data>
                    <Data name="country">
                        <value>PRC</value>
                    </Data>
                    <Data name="road">
                        <value>Chung Nga Road</value>
                    </Data>
                    <Data name="taxi">
                        <value>NT</value>
                    </Data>
                    <Data name="county">
                        <value>Tai Po District</value>
                    </Data>
                    <Data name="suburb">
                        <value>Tai Po Centre</value>
                    </Data>
                    <Data name="town">
                        <value>Tai Po</value>
                    </Data>
                    <Data name="country_code">
                        <value>cn</value>
                    </Data>
                </ExtendedData>
            </Placemark>
        </Folder>
        <Document>
            <name>96.5 km; 02:00 h (OSRM)</name>
            <Placemark>
                <name>Route</name>
                <LineString>
                    <coordinates>114.1720280000,22.4582450000 114.1720290000,22.4584050000 114.1720070000,22.4584510000 114.1719590000,22.4585070000 114.1719090000,22.4585750000 114.1719100000,22.4586740000 114.1719040000,22.4588130000 114.1719750000,22.4588120000 114.1722160000,22.4588140000 114.1722680000,22.4588090000 114.1722970000,22.4587970000 114.1723730000,22.4587660000 114.1724420000,22.4587410000 114.1723830000,22.4585770000 114.1723420000,22.4583480000 114.1722880000,22.4580380000 114.1722520000,22.4577390000 114.1722460000,22.4576010000 114.1722440000,22.4575440000 114.1722810000,22.4574270000 114.1722750000,22.4572780000 114.1722600000,22.4569300000 114.1721800000,22.4559980000 114.1721570000,22.4558730000 114.1721430000,22.4557650000 114.1721400000,22.4557400000 114.1721340000,22.4555800000 114.1721200000,22.4552830000 114.1721250000,22.4549620000 114.1721740000,22.4545350000 114.1722130000,22.4543610000 114.1722400000,22.4542400000 114.1721340000,22.4542050000 114.1716850000,22.4541250000 114.1715980000,22.4541140000 114.1714570000,22.4541030000 114.1713520000,22.4541080000 114.1706920000,22.4541040000 114.1706940000,22.4539880000 114.1706960000,22.4534550000 114.1706910000,22.4521240000 114.1706860000,22.4519950000 114.1700590000,22.4519950000 114.1691330000,22.4519970000 114.1688290000,22.4519980000 114.1687580000,22.4520000000 114.1687310000,22.4520020000 114.1687110000,22.4520060000 114.1686970000,22.4520120000 114.1686860000,22.4520380000 114.1686780000,22.4520660000 114.1686730000,22.4521260000 114.1686750000,22.4527210000 114.1686740000,22.4528760000 114.1685320000,22.4528740000 114.1675160000,22.4528670000 114.1673650000,22.4528640000 114.1673620000,22.4527180000 114.1673690000,22.4522630000 114.1673700000,22.4520710000 114.1673730000,22.4519320000 114.1673760000,22.4518160000 114.1673780000,22.4517570000 114.1673620000,22.4513100000 114.1673950000,22.4512360000 114.1674250000,22.4511440000 114.1674060000,22.4510310000 114.1673630000,22.4508670000 114.1672820000,22.4503560000 114.1672320000,22.4500770000 114.1671640000,22.4497990000 114.1671380000,22.4497070000 114.1671250000,22.4496700000 114.1670690000,22.4495160000 114.1670420000,22.4494570000 114.1669840000,22.4493160000 114.1669370000,22.4492160000 114.1667720000,22.4489130000 114.1667310000,22.4488020000 114.1669800000,22.4486970000 114.1670080000,22.4486860000 114.1678020000,22.4483180000 114.1682540000,22.4481130000 114.1685620000,22.4479680000 114.1686690000,22.4479170000 114.1688220000,22.4478450000 114.1691650000,22.4476640000 114.1695950000,22.4474650000 114.1696340000,22.4474480000 114.1696650000,22.4474330000 114.1697530000,22.4473900000 114.1698630000,22.4473360000 114.1699070000,22.4473160000 114.1700680000,22.4472450000 114.1703370000,22.4471390000 114.1705910000,22.4470450000 114.1707130000,22.4470000000 114.1710440000,22.4469270000 114.1712020000,22.4468930000 114.1716450000,22.4468040000 114.1718730000,22.4467770000 114.1720530000,22.4467520000 114.1721460000,22.4467360000 114.1722710000,22.4467200000 114.1726760000,22.4466330000 114.1735680000,22.4464790000 114.1736330000,22.4464720000 114.1737360000,22.4464510000 114.1738760000,22.4464300000 114.1739840000,22.4464110000 114.1741190000,22.4464010000 114.1741510000,22.4464060000 114.1741840000,22.4464060000 114.1742430000,22.4463900000 114.1742920000,22.4463570000 114.1743210000,22.4463480000 114.1743260000,22.4463090000 114.1744430000,22.4462990000 114.1748040000,22.4462370000 114.1749000000,22.4462480000 114.1754550000,22.4461710000 114.1756040000,22.4461600000 114.1761220000,22.4461230000 114.1763420000,22.4461100000 114.1765220000,22.4460860000 114.1766310000,22.4460700000 114.1767360000,22.4460510000 114.1768380000,22.4460300000 114.1769470000,22.4459930000 114.1770210000,22.4459610000 114.1771120000,22.4459080000 114.1771930000,22.4458450000 114.1772790000,22.4457640000 114.1773690000,22.4456630000 114.1775270000,22.4454620000 114.1777060000,22.4452250000 114.1778320000,22.4450770000 114.1779430000,22.4449560000 114.1780760000,22.4448300000 114.1782390000,22.4446970000 114.1784390000,22.4445460000 114.1786430000,22.4443940000 114.1788020000,22.4442730000 114.1788520000,22.4441910000 114.1801770000,22.4432990000 114.1811020000,22.4426480000 114.1821620000,22.4420570000 114.1824040000,22.4419240000 114.1826560000,22.4417820000 114.1851950000,22.4403700000 114.1859930000,22.4399230000 114.1865110000,22.4396640000 114.1870100000,22.4394620000 114.1875050000,22.4393070000 114.1880500000,22.4392030000 114.1883820000,22.4391700000 114.1887120000,22.4391530000 114.1890950000,22.4391490000 114.1894390000,22.4391670000 114.1897750000,22.4392070000 114.1900750000,22.4392610000 114.1903540000,22.4393220000 114.1912930000,22.4395350000 114.1916580000,22.4395990000 114.1920800000,22.4396530000 114.1924660000,22.4396720000 114.1925880000,22.4396740000 114.1928060000,22.4396700000 114.1929880000,22.4396620000 114.1932400000,22.4396470000 114.1935820000,22.4395880000 114.1939410000,22.4395040000 114.1942000000,22.4394390000 114.1944230000,22.4393580000 114.1946260000,22.4392760000 114.1949000000,22.4391480000 114.1953780000,22.4389170000 114.1957400000,22.4387320000 114.1961480000,22.4384990000 114.1964600000,22.4383090000 114.1967590000,22.4381110000 114.1969590000,22.4379740000 114.1978520000,22.4372830000 114.1981080000,22.4370630000 114.1983880000,22.4368030000 114.1986490000,22.4365400000 114.1990380000,22.4361320000 114.1993710000,22.4357680000 114.1996240000,22.4354670000 114.1998640000,22.4351680000 114.2000750000,22.4348740000 114.2002750000,22.4345280000 114.2004280000,22.4341910000 114.2005620000,22.4337990000 114.2006680000,22.4334130000 114.2008260000,22.4327200000 114.2009020000,22.4323990000 114.2009890000,22.4321330000 114.2011090000,22.4318280000 114.2012040000,22.4316120000 114.2013570000,22.4313130000 114.2015100000,22.4310640000 114.2017170000,22.4307650000 114.2018730000,22.4305680000 114.2020800000,22.4303280000 114.2022480000,22.4301530000 114.2024400000,22.4299780000 114.2026920000,22.4297640000 114.2030040000,22.4295360000 114.2032860000,22.4293450000 114.2040680000,22.4288230000 114.2056530000,22.4277880000 114.2061580000,22.4274700000 114.2070110000,22.4269340000 114.2079110000,22.4263700000 114.2084050000,22.4260570000 114.2094650000,22.4253630000 114.2102390000,22.4248550000 114.2107840000,22.4244810000 114.2109390000,22.4243730000 114.2110950000,22.4242640000 114.2113790000,22.4240480000 114.2116710000,22.4237890000 114.2119490000,22.4235280000 114.2122230000,22.4232410000 114.2124650000,22.4229660000 114.2126550000,22.4227000000 114.2128240000,22.4224430000 114.2130090000,22.4221490000 114.2131220000,22.4219260000 114.2132490000,22.4216450000 114.2134190000,22.4211850000 114.2135150000,22.4208870000 114.2135870000,22.4205720000 114.2136550000,22.4202400000 114.2137050000,22.4199430000 114.2137570000,22.4194380000 114.2137810000,22.4192400000 114.2137510000,22.4184440000 114.2137120000,22.4180770000 114.2136750000,22.4177050000 114.2135360000,22.4170080000 114.2129990000,22.4143340000 114.2130090000,22.4140680000 114.2128130000,22.4130730000 114.2127660000,22.4127720000 114.2127270000,22.4124880000 114.2127030000,22.4121580000 114.2126960000,22.4117710000 114.2127060000,22.4115550000 114.2127390000,22.4112260000 114.2127940000,22.4109760000 114.2128450000,22.4107800000 114.2129380000,22.4105460000 114.2130330000,22.4103490000 114.2131310000,22.4101990000 114.2132710000,22.4100350000 114.2134350000,22.4098600000 114.2136830000,22.4096080000 114.2146610000,22.4087850000 114.2152450000,22.4082940000 114.2164290000,22.4073370000 114.2174520000,22.4065060000 114.2177470000,22.4062450000 114.2178470000,22.4061490000 114.2179560000,22.4060390000 114.2180450000,22.4059320000 114.2181190000,22.4058230000 114.2181940000,22.4056910000 114.2182610000,22.4055560000 114.2183250000,22.4053890000 114.2183470000,22.4052970000 114.2183650000,22.4051910000 114.2183780000,22.4050400000 114.2183810000,22.4048970000 114.2183740000,22.4047280000 114.2183440000,22.4045640000 114.2183150000,22.4044720000 114.2182560000,22.4043210000 114.2181840000,22.4041870000 114.2181130000,22.4040840000 114.2180360000,22.4039710000 114.2179200000,22.4038390000 114.2177430000,22.4036930000 114.2175430000,22.4035400000 114.2172920000,22.4033920000 114.2169440000,22.4032080000 114.2166570000,22.4030600000 114.2164310000,22.4029320000 114.2161650000,22.4027740000 114.2156890000,22.4024820000 114.2155150000,22.4023630000 114.2151960000,22.4021380000 114.2149990000,22.4019880000 114.2148570000,22.4018710000 114.2146710000,22.4017240000 114.2145020000,22.4015780000 114.2143300000,22.4014230000 114.2142090000,22.4013060000 114.2140240000,22.4011200000 114.2137620000,22.4008400000 114.2127810000,22.3998020000 114.2126010000,22.3995960000 114.2124720000,22.3994680000 114.2118760000,22.3987410000 114.2117210000,22.3985150000 114.2115700000,22.3982940000 114.2114550000,22.3981230000 114.2113420000,22.3979240000 114.2111970000,22.3976840000 114.2110310000,22.3973870000 114.2108630000,22.3971000000 114.2107240000,22.3968120000 114.2105710000,22.3965130000 114.2104070000,22.3961210000 114.2102840000,22.3958400000 114.2101620000,22.3955270000 114.2099900000,22.3950030000 114.2098520000,22.3945370000 114.2097560000,22.3942140000 114.2096620000,22.3938580000 114.2096370000,22.3937240000 114.2096120000,22.3935550000 114.2096000000,22.3933870000 114.2095850000,22.3932130000 114.2095880000,22.3930360000 114.2095880000,22.3928670000 114.2095980000,22.3927040000 114.2096240000,22.3923990000 114.2096510000,22.3921930000 114.2096980000,22.3919600000 114.2097490000,22.3917730000 114.2098110000,22.3915490000 114.2098750000,22.3913520000 114.2099490000,22.3911610000 114.2100360000,22.3909630000 114.2100910000,22.3908310000 114.2101480000,22.3907110000 114.2102240000,22.3905480000 114.2103460000,22.3902950000 114.2104760000,22.3900290000 114.2105550000,22.3898690000 114.2106480000,22.3896770000 114.2107760000,22.3894240000 114.2108670000,22.3892400000 114.2109560000,22.3890440000 114.2110510000,22.3887890000 114.2111330000,22.3885190000 114.2111770000,22.3882950000 114.2112240000,22.3880230000 114.2112370000,22.3878200000 114.2112210000,22.3873360000 114.2112150000,22.3871660000 114.2112320000,22.3868530000 114.2111800000,22.3865240000 114.2111050000,22.3859490000 114.2110450000,22.3854520000 114.2109920000,22.3851410000 114.2109570000,22.3849090000 114.2109430000,22.3847630000 114.2109420000,22.3844130000 114.2109710000,22.3839180000 114.2109780000,22.3837280000 114.2109800000,22.3835500000 114.2109650000,22.3833600000 114.2109580000,22.3833020000 114.2109390000,22.3831470000 114.2108500000,22.3828400000 114.2107400000,22.3825900000 114.2105820000,22.3823400000 114.2104600000,22.3821900000 114.2103790000,22.3820980000 114.2102990000,22.3820200000 114.2101700000,22.3819200000 114.2100200000,22.3818220000 114.2098300000,22.3817100000 114.2096200000,22.3816000000 114.2091600000,22.3813800000 114.2087700000,22.3811880000 114.2086500000,22.3811200000 114.2081000000,22.3807800000 114.2052450000,22.3789420000 114.2042090000,22.3782830000 114.2039250000,22.3781380000 114.2038490000,22.3781030000 114.2031510000,22.3778400000 114.2029250000,22.3777710000 114.2026150000,22.3777030000 114.2023580000,22.3776630000 114.2018630000,22.3776110000 114.2012740000,22.3775660000 114.2007970000,22.3775250000 114.2004760000,22.3774810000 114.2002130000,22.3774280000 114.1999550000,22.3773450000 114.1997520000,22.3772420000 114.1995340000,22.3771040000 114.1993630000,22.3769700000 114.1991770000,22.3767840000 114.1990020000,22.3765790000 114.1988330000,22.3763350000 114.1986670000,22.3761120000 114.1984200000,22.3758310000 114.1981880000,22.3756060000 114.1980150000,22.3754440000 114.1976100000,22.3751450000 114.1972670000,22.3749700000 114.1967840000,22.3747360000 114.1966190000,22.3746720000 114.1964520000,22.3746100000 114.1962160000,22.3745370000 114.1956400000,22.3744050000 114.1951230000,22.3742740000 114.1948790000,22.3742010000 114.1946970000,22.3741520000 114.1943860000,22.3740640000 114.1937670000,22.3738970000 114.1934290000,22.3738170000 114.1930050000,22.3736890000 114.1925750000,22.3735590000 114.1923510000,22.3734830000 114.1921490000,22.3734060000 114.1917140000,22.3732300000 114.1911660000,22.3730040000 114.1908430000,22.3728600000 114.1906870000,22.3727790000 114.1905660000,22.3726910000 114.1903360000,22.3725140000 114.1902360000,22.3724150000 114.1900720000,22.3722500000 114.1899420000,22.3720900000 114.1898550000,22.3719560000 114.1897230000,22.3717580000 114.1895250000,22.3713900000 114.1894250000,22.3712220000 114.1893160000,22.3710610000 114.1891550000,22.3708400000 114.1888740000,22.3705330000 114.1886180000,22.3702800000 114.1884270000,22.3701240000 114.1881990000,22.3699460000 114.1880220000,22.3697910000 114.1879310000,22.3697140000 114.1878540000,22.3696320000 114.1877930000,22.3695600000 114.1876990000,22.3694180000 114.1876240000,22.3692590000 114.1875850000,22.3691420000 114.1875430000,22.3689430000 114.1875210000,22.3686250000 114.1874870000,22.3684090000 114.1874470000,22.3682740000 114.1873980000,22.3681560000 114.1873370000,22.3680390000 114.1872730000,22.3679340000 114.1871580000,22.3677990000 114.1870370000,22.3676840000 114.1868830000,22.3675620000 114.1862100000,22.3670260000 114.1859680000,22.3668430000 114.1857160000,22.3666350000 114.1850570000,22.3661260000 114.1847950000,22.3658910000 114.1846620000,22.3657920000 114.1845430000,22.3657210000 114.1844220000,22.3656630000 114.1842460000,22.3655800000 114.1840690000,22.3655180000 114.1838790000,22.3654510000 114.1837440000,22.3654130000 114.1834270000,22.3653190000 114.1823300000,22.3648210000 114.1822800000,22.3647860000 114.1822280000,22.3647380000 114.1822070000,22.3646680000 114.1822120000,22.3644750000 114.1822060000,22.3643710000 114.1822070000,22.3642930000 114.1822020000,22.3642220000 114.1821750000,22.3641400000 114.1821370000,22.3640640000 114.1820910000,22.3639960000 114.1820180000,22.3639400000 114.1819110000,22.3639100000 114.1818010000,22.3639130000 114.1817120000,22.3639370000 114.1816260000,22.3639840000 114.1815570000,22.3640350000 114.1815230000,22.3640740000 114.1814990000,22.3641100000 114.1814490000,22.3641920000 114.1812550000,22.3645140000 114.1810630000,22.3648320000 114.1809360000,22.3650300000 114.1808900000,22.3651140000 114.1808050000,22.3652620000 114.1807740000,22.3653270000 114.1807480000,22.3653960000 114.1806960000,22.3655130000 114.1806800000,22.3657360000 114.1806750000,22.3657680000 114.1806700000,22.3658010000 114.1806500000,22.3659670000 114.1806540000,22.3661980000 114.1806670000,22.3663190000 114.1806850000,22.3664500000 114.1807520000,22.3669080000 114.1807750000,22.3670690000 114.1807970000,22.3673070000 114.1807940000,22.3675680000 114.1807770000,22.3678750000 114.1807340000,22.3682040000 114.1806470000,22.3685730000 114.1804930000,22.3689690000 114.1803770000,22.3692170000 114.1803680000,22.3692340000 114.1802990000,22.3693630000 114.1802660000,22.3694410000 114.1799830000,22.3699090000 114.1798290000,22.3701470000 114.1796310000,22.3703770000 114.1794070000,22.3706280000 114.1792130000,22.3708270000 114.1791590000,22.3708820000 114.1790850000,22.3709570000 114.1789350000,22.3710460000 114.1788640000,22.3710910000 114.1787760000,22.3711480000 114.1787240000,22.3711460000 114.1786530000,22.3711470000 114.1786030000,22.3711540000 114.1785010000,22.3711300000 114.1784100000,22.3711000000 114.1782740000,22.3710510000 114.1780780000,22.3709440000 114.1774200000,22.3704990000 114.1767860000,22.3700760000 114.1762280000,22.3696590000 114.1756300000,22.3691220000 114.1752980000,22.3688210000 114.1751700000,22.3687130000 114.1750420000,22.3686170000 114.1748430000,22.3684800000 114.1746260000,22.3683660000 114.1744600000,22.3682960000 114.1742600000,22.3682340000 114.1740280000,22.3681890000 114.1738030000,22.3681770000 114.1734660000,22.3681750000 114.1731500000,22.3681770000 114.1729480000,22.3681630000 114.1727240000,22.3681040000 114.1725260000,22.3680250000 114.1722300000,22.3678200000 114.1720340000,22.3676650000 114.1715910000,22.3673030000 114.1712410000,22.3671300000 114.1710830000,22.3669950000 114.1705850000,22.3666650000 114.1700580000,22.3663920000 114.1696200000,22.3661870000 114.1693700000,22.3660800000 114.1690900000,22.3659700000 114.1688000000,22.3658700000 114.1679000000,22.3655600000 114.1676500000,22.3654680000 114.1674100000,22.3653700000 114.1671510000,22.3652590000 114.1668800000,22.3651200000 114.1666000000,22.3649610000 114.1663400000,22.3648000000 114.1661110000,22.3646300000 114.1658330000,22.3644190000 114.1655700000,22.3641900000 114.1652900000,22.3639200000 114.1650400000,22.3636500000 114.1647950000,22.3633420000 114.1645700000,22.3630300000 114.1644170000,22.3627720000 114.1642800000,22.3625400000 114.1641500000,22.3622800000 114.1640460000,22.3620400000 114.1638700000,22.3615800000 114.1637210000,22.3611110000 114.1635960000,22.3604240000 114.1634800000,22.3598630000 114.1633900000,22.3593350000 114.1633360000,22.3591380000 114.1634410000,22.3590150000 114.1634710000,22.3588060000 114.1633270000,22.3585370000 114.1631940000,22.3583210000 114.1630480000,22.3580850000 114.1629560000,22.3579940000 114.1628420000,22.3579440000 114.1627680000,22.3578120000 114.1612200000,22.3548600000 114.1609300000,22.3543480000 114.1606500000,22.3538990000 114.1602900000,22.3533700000 114.1598500000,22.3527830000 114.1593800000,22.3522300000 114.1588600000,22.3516800000 114.1582120000,22.3510800000 114.1575320000,22.3505200000 114.1568480000,22.3500100000 114.1560300000,22.3495000000 114.1552990000,22.3490900000 114.1545000000,22.3487000000 114.1540510000,22.3485090000 114.1536090000,22.3483400000 114.1529600000,22.3481200000 114.1525800000,22.3480000000 114.1521900000,22.3478900000 114.1514300000,22.3477100000 114.1502620000,22.3474600000 114.1499190000,22.3473730000 114.1496100000,22.3472800000 114.1491700000,22.3471300000 114.1489200000,22.3470310000 114.1486770000,22.3469230000 114.1484300000,22.3468000000 114.1482100000,22.3466700000 114.1476800000,22.3463200000 114.1473860000,22.3460910000 114.1467400000,22.3455350000 114.1464340000,22.3452630000 114.1459140000,22.3448280000 114.1457500000,22.3446990000 114.1447490000,22.3438260000 114.1443360000,22.3434030000 114.1442250000,22.3432760000 114.1441540000,22.3431810000 114.1439890000,22.3429410000 114.1439780000,22.3427690000 114.1439250000,22.3426380000 114.1438640000,22.3424660000 114.1438170000,22.3423200000 114.1437720000,22.3421500000 114.1437490000,22.3419590000 114.1437310000,22.3417240000 114.1437190000,22.3414800000 114.1437220000,22.3412930000 114.1437030000,22.3411800000 114.1436750000,22.3410510000 114.1436350000,22.3409500000 114.1435730000,22.3408290000 114.1434790000,22.3406990000 114.1433690000,22.3405890000 114.1432500000,22.3405100000 114.1431050000,22.3404250000 114.1425720000,22.3401590000 114.1418900000,22.3398290000 114.1416350000,22.3397170000 114.1414120000,22.3396590000 114.1411690000,22.3396470000 114.1408820000,22.3397130000 114.1404570000,22.3398580000 114.1401430000,22.3400240000 114.1398980000,22.3401760000 114.1391780000,22.3407220000 114.1390790000,22.3408220000 114.1387950000,22.3409890000 114.1384860000,22.3411350000 114.1381500000,22.3412550000 114.1379970000,22.3412930000 114.1378480000,22.3413160000 114.1376760000,22.3413210000 114.1374900000,22.3413090000 114.1372610000,22.3412580000 114.1370550000,22.3411850000 114.1369150000,22.3411080000 114.1367940000,22.3410270000 114.1365860000,22.3408270000 114.1363900000,22.3402970000 114.1362210000,22.3396570000 114.1361060000,22.3391020000 114.1360550000,22.3387210000 114.1360460000,22.3384780000 114.1360890000,22.3380640000 114.1360940000,22.3378930000 114.1360660000,22.3375860000 114.1360230000,22.3373800000 114.1359920000,22.3372220000 114.1358870000,22.3368620000 114.1356660000,22.3362620000 114.1355740000,22.3360490000 114.1355630000,22.3360300000 114.1354450000,22.3358220000 114.1353490000,22.3356940000 114.1352720000,22.3356130000 114.1351930000,22.3355320000 114.1350470000,22.3354150000 114.1348860000,22.3353250000 114.1347640000,22.3352680000 114.1346510000,22.3352280000 114.1345290000,22.3351850000 114.1343880000,22.3351510000 114.1342250000,22.3351310000 114.1340760000,22.3351260000 114.1338890000,22.3351310000 114.1337130000,22.3351580000 114.1335140000,22.3352100000 114.1333480000,22.3352740000 114.1331810000,22.3353580000 114.1330670000,22.3354300000 114.1329760000,22.3355070000 114.1329450000,22.3355330000 114.1328470000,22.3356230000 114.1327460000,22.3357410000 114.1326520000,22.3358750000 114.1325760000,22.3360100000 114.1324940000,22.3361850000 114.1324350000,22.3363490000 114.1323820000,22.3365190000 114.1322850000,22.3368760000 114.1322250000,22.3370820000 114.1321510000,22.3373000000 114.1320370000,22.3376300000 114.1318910000,22.3379940000 114.1317450000,22.3383260000 114.1315600000,22.3387620000 114.1312770000,22.3394790000 114.1311420000,22.3398180000 114.1310790000,22.3401370000 114.1310470000,22.3402070000 114.1308880000,22.3405740000 114.1307190000,22.3409130000 114.1305230000,22.3412450000 114.1302290000,22.3416960000 114.1300150000,22.3419730000 114.1297900000,22.3422150000 114.1296350000,22.3423570000 114.1294840000,22.3425000000 114.1293200000,22.3426370000 114.1291160000,22.3427790000 114.1288580000,22.3429320000 114.1285800000,22.3430670000 114.1282990000,22.3432080000 114.1280790000,22.3433120000 114.1275730000,22.3435180000 114.1272420000,22.3436620000 114.1269010000,22.3438300000 114.1265480000,22.3440350000 114.1261970000,22.3442850000 114.1259420000,22.3444920000 114.1256990000,22.3447270000 114.1254680000,22.3449730000 114.1252700000,22.3452380000 114.1250080000,22.3455860000 114.1248240000,22.3458870000 114.1246430000,22.3463590000 114.1244800000,22.3469000000 114.1244150000,22.3472210000 114.1243800000,22.3475480000 114.1243660000,22.3478910000 114.1243750000,22.3483980000 114.1243460000,22.3492150000 114.1242840000,22.3496110000 114.1241960000,22.3499950000 114.1240920000,22.3503190000 114.1239530000,22.3506300000 114.1237610000,22.3509160000 114.1234880000,22.3512340000 114.1230260000,22.3516520000 114.1228280000,22.3518040000 114.1226080000,22.3519350000 114.1221550000,22.3521050000 114.1217180000,22.3522390000 114.1214310000,22.3523020000 114.1211440000,22.3523490000 114.1207110000,22.3523730000 114.1203330000,22.3523730000 114.1199880000,22.3523650000 114.1194960000,22.3522790000 114.1191870000,22.3522180000 114.1188760000,22.3521210000 114.1185250000,22.3519850000 114.1181990000,22.3518490000 114.1179480000,22.3517290000 114.1175950000,22.3515240000 114.1171200000,22.3512030000 114.1167670000,22.3509350000 114.1163940000,22.3506770000 114.1161560000,22.3505160000 114.1158850000,22.3503530000 114.1156120000,22.3502090000 114.1153200000,22.3500660000 114.1151020000,22.3499700000 114.1123300000,22.3489180000 114.1121710000,22.3488580000 114.1118310000,22.3487140000 114.1114850000,22.3485670000 114.1110020000,22.3483410000 114.1108420000,22.3482640000 114.1067700000,22.3461380000 114.1065040000,22.3460130000 114.1062830000,22.3459150000 114.1060100000,22.3457980000 114.1057500000,22.3456900000 114.1055200000,22.3456000000 114.1053160000,22.3455250000 114.1050600000,22.3454400000 114.1048010000,22.3453580000 114.1045000000,22.3452660000 114.1042000000,22.3451750000 114.1039000000,22.3450920000 114.1036000000,22.3450220000 114.1033000000,22.3449580000 114.1030000000,22.3449000000 114.1026000000,22.3448350000 114.1020600000,22.3447660000 114.1017660000,22.3447330000 114.1014700000,22.3447070000 114.1011840000,22.3446860000 114.1009000000,22.3446750000 114.1003400000,22.3446570000 114.0957200000,22.3446110000 114.0956240000,22.3446120000 114.0943500000,22.3446090000 114.0939100000,22.3446010000 114.0937600000,22.3445980000 114.0932450000,22.3446000000 114.0929810000,22.3446070000 114.0927640000,22.3446250000 114.0924930000,22.3446550000 114.0921460000,22.3447160000 114.0920330000,22.3447350000 114.0918930000,22.3447670000 114.0917140000,22.3448180000 114.0915160000,22.3448850000 114.0912310000,22.3449890000 114.0909600000,22.3451060000 114.0906860000,22.3452240000 114.0903900000,22.3453580000 114.0901860000,22.3454620000 114.0897600000,22.3456670000 114.0895210000,22.3457890000 114.0893050000,22.3459100000 114.0889220000,22.3461740000 114.0885700000,22.3464410000 114.0882590000,22.3467350000 114.0881270000,22.3468140000 114.0878070000,22.3471650000 114.0875500000,22.3475690000 114.0873430000,22.3479580000 114.0871970000,22.3483340000 114.0870280000,22.3489680000 114.0868630000,22.3496330000 114.0867930000,22.3498930000 114.0865870000,22.3504190000 114.0865280000,22.3505640000 114.0864710000,22.3507950000 114.0864130000,22.3509630000 114.0863090000,22.3511870000 114.0860160000,22.3517900000 114.0857050000,22.3523210000 114.0855330000,22.3525550000 114.0852520000,22.3528710000 114.0849440000,22.3532050000 114.0847070000,22.3533890000 114.0845530000,22.3534650000 114.0844510000,22.3535070000 114.0842000000,22.3535790000 114.0840930000,22.3536050000 114.0839280000,22.3536290000 114.0838220000,22.3536690000 114.0836610000,22.3536670000 114.0834020000,22.3536380000 114.0831240000,22.3535860000 114.0828450000,22.3535210000 114.0825230000,22.3534300000 114.0822660000,22.3533590000 114.0818300000,22.3532420000 114.0809620000,22.3530000000 114.0807580000,22.3529290000 114.0628910000,22.3479420000 114.0621920000,22.3477430000 114.0617970000,22.3476210000 114.0613990000,22.3474890000 114.0610110000,22.3473460000 114.0606270000,22.3471880000 114.0602360000,22.3470150000 114.0598750000,22.3468400000 114.0595140000,22.3466480000 114.0591600000,22.3464470000 114.0588470000,22.3462540000 114.0585430000,22.3460600000 114.0525500000,22.3421550000 114.0519850000,22.3418020000 114.0517420000,22.3416520000 114.0514980000,22.3415220000 114.0511970000,22.3413840000 114.0509050000,22.3412690000 114.0504640000,22.3411370000 114.0501150000,22.3410650000 114.0496320000,22.3409870000 114.0488040000,22.3409060000 114.0482030000,22.3408520000 114.0472620000,22.3407500000 114.0466410000,22.3406480000 114.0460530000,22.3405040000 114.0458190000,22.3404340000 114.0456190000,22.3403700000 114.0453110000,22.3402400000 114.0449720000,22.3400670000 114.0440850000,22.3395510000 114.0432940000,22.3391030000 114.0404020000,22.3378420000 114.0397780000,22.3375450000 114.0393360000,22.3373640000 114.0390890000,22.3372750000 114.0387840000,22.3371820000 114.0384720000,22.3371100000 114.0380410000,22.3370070000 114.0375410000,22.3369040000 114.0371380000,22.3368240000 114.0367080000,22.3367090000 114.0364270000,22.3366290000 114.0362160000,22.3365560000 114.0357730000,22.3363950000 114.0352720000,22.3361990000 114.0347250000,22.3359550000 114.0342730000,22.3357320000 114.0338990000,22.3355020000 114.0333890000,22.3351500000 114.0328770000,22.3347490000 114.0324430000,22.3343380000 114.0299060000,22.3319080000 114.0272230000,22.3293370000 114.0265270000,22.3286850000 114.0251240000,22.3273490000 114.0247260000,22.3270220000 114.0244480000,22.3267970000 114.0243000000,22.3266910000 114.0239930000,22.3264980000 114.0235970000,22.3262700000 114.0230920000,22.3260010000 114.0226320000,22.3257790000 114.0218850000,22.3254810000 114.0213490000,22.3253080000 114.0208380000,22.3251670000 114.0203120000,22.3250680000 114.0198860000,22.3249950000 114.0194280000,22.3249350000 114.0189490000,22.3248840000 114.0184730000,22.3248690000 114.0179280000,22.3248690000 114.0157280000,22.3250250000 114.0151360000,22.3250500000 114.0146250000,22.3250580000 114.0140290000,22.3250370000 114.0134250000,22.3249950000 114.0129230000,22.3249450000 114.0124980000,22.3248840000 114.0120280000,22.3247880000 114.0109800000,22.3245210000 114.0104470000,22.3243410000 114.0099940000,22.3241710000 114.0092210000,22.3238440000 114.0073390000,22.3230500000 114.0030460000,22.3210970000 114.0022110000,22.3207110000 114.0018700000,22.3205380000 114.0015450000,22.3203740000 114.0012450000,22.3202230000 114.0009200000,22.3200340000 114.0006410000,22.3198590000 114.0004230000,22.3197030000 114.0001470000,22.3195040000 113.9998380000,22.3192620000 113.9994860000,22.3189590000 113.9992090000,22.3186870000 113.9989500000,22.3184190000 113.9985960000,22.3180270000 113.9983040000,22.3176570000 113.9980000000,22.3172060000 113.9977570000,22.3168210000 113.9974960000,22.3163870000 113.9973020000,22.3160790000 113.9971020000,22.3157770000 113.9968930000,22.3154780000 113.9966240000,22.3151180000 113.9964650000,22.3149000000 113.9961560000,22.3145280000 113.9959240000,22.3142630000 113.9957120000,22.3140280000 113.9954890000,22.3137910000 113.9951210000,22.3134260000 113.9948160000,22.3131480000 113.9944550000,22.3128470000 113.9940660000,22.3125250000 113.9937300000,22.3122730000 113.9933570000,22.3120010000 113.9929640000,22.3117410000 113.9926010000,22.3115140000 113.9877960000,22.3087560000 113.9856810000,22.3074790000 113.9851170000,22.3071400000 113.9844290000,22.3067090000 113.9829960000,22.3058040000 113.9824520000,22.3052550000 113.9814150000,22.3043480000 113.9809100000,22.3039300000 113.9794500000,22.3028000000 113.9787200000,22.3022900000 113.9777300000,22.3017600000 113.9770100000,22.3014600000 113.9763500000,22.3012400000 113.9760700000,22.3011570000 113.9758600000,22.3011090000 113.9756400000,22.3010780000 113.9754300000,22.3010650000 113.9752610000,22.3010700000 113.9750690000,22.3010940000 113.9749000000,22.3011300000 113.9746000000,22.3012100000 113.9730300000,22.3017300000 113.9721740000,22.3021930000 113.9714830000,22.3025690000 113.9700320000,22.3034210000 113.9692830000,22.3038730000 113.9686450000,22.3042280000 113.9602570000,22.3092190000 113.9597550000,22.3094460000 113.9591860000,22.3097390000 113.9585230000,22.3100990000 113.9578700000,22.3104190000 113.9571210000,22.3107980000 113.9567830000,22.3109450000 113.9564340000,22.3110560000 113.9559380000,22.3111630000 113.9553750000,22.3112750000 113.9549110000,22.3113900000 113.9545590000,22.3114980000 113.9539460000,22.3117630000 113.9537640000,22.3119040000 113.9536150000,22.3120250000 113.9534380000,22.3121800000 113.9532760000,22.3123870000 113.9531300000,22.3126170000 113.9529470000,22.3129610000 113.9528290000,22.3131730000 113.9527390000,22.3133320000 113.9526630000,22.3134660000 113.9526070000,22.3135450000 113.9524810000,22.3136250000 113.9521790000,22.3137530000 113.9520570000,22.3137900000 113.9519280000,22.3138230000 113.9517350000,22.3138340000 113.9515820000,22.3138350000 113.9508520000,22.3139930000 113.9497780000,22.3142950000 113.9495940000,22.3143530000 113.9492790000,22.3144580000 113.9491460000,22.3145140000 113.9490060000,22.3145920000 113.9489430000,22.3146720000 113.9488600000,22.3148080000 113.9488030000,22.3149580000 113.9488060000,22.3151360000 113.9488330000,22.3152910000 113.9488990000,22.3154430000 113.9489790000,22.3155770000 113.9490920000,22.3157180000 113.9491880000,22.3158580000 113.9495720000,22.3170230000 113.9496280000,22.3171810000 113.9496780000,22.3173250000 113.9501390000,22.3171990000 113.9504040000,22.3171290000 113.9505550000,22.3170890000 113.9507680000,22.3170320000 113.9508990000,22.3169990000 113.9509070000,22.3169910000 113.9510940000,22.3168030000 113.9518690000,22.3165870000 113.9522530000,22.3164860000 113.9522110000,22.3163350000 113.9520810000,22.3159090000 113.9519740000,22.3155380000 113.9518730000,22.3152100000 113.9518500000,22.3150640000 113.9518300000,22.3149280000 113.9518170000,22.3148070000 113.9518040000,22.3146220000 113.9517870000,22.3144950000 113.9517630000,22.3143990000 113.9517060000,22.3142840000 113.9515850000,22.3141770000 113.9514950000,22.3141040000 113.9513570000,22.3141010000 113.9511220000,22.3141260000 113.9499210000,22.3144440000 113.9498100000,22.3145060000 113.9497090000,22.3145800000 113.9495520000,22.3146520000 113.9494600000,22.3146980000 113.9493200000,22.3147950000 113.9492230000,22.3148720000 113.9491250000,22.3149470000 113.9490130000,22.3150000000 113.9488360000,22.3150500000 113.9486920000,22.3150710000 113.9485540000,22.3150620000 113.9483900000,22.3150140000 113.9482450000,22.3149220000 113.9481940000,22.3146840000 113.9482050000,22.3145570000 113.9482350000,22.3144660000 113.9482780000,22.3143960000 113.9483420000,22.3143340000 113.9484350000,22.3142750000 113.9485380000,22.3142240000 113.9486570000,22.3141840000 113.9487920000,22.3141480000 113.9489400000,22.3141160000 113.9490620000,22.3140900000 113.9491720000,22.3140640000 113.9493820000,22.3140100000 113.9498910000,22.3138880000 113.9506120000,22.3137000000 113.9510150000,22.3135790000 113.9512710000,22.3134980000 113.9514080000,22.3134430000 113.9515840000,22.3133680000 113.9519440000,22.3131620000 113.9524660000,22.3128930000 113.9531640000,22.3125470000 113.9540780000,22.3121270000 113.9544850000,22.3120520000 113.9547020000,22.3120280000 113.9549450000,22.3119970000 113.9551730000,22.3119890000 113.9554450000,22.3119890000 113.9558620000,22.3120320000 113.9565710000,22.3122190000 113.9567790000,22.3122390000 113.9571060000,22.3122680000 113.9575180000,22.3122250000 113.9578440000,22.3121490000 113.9581670000,22.3120470000 113.9585370000,22.3118530000 113.9589250000,22.3115190000 113.9592610000,22.3110290000 113.9595900000,22.3104420000 113.9597550000,22.3101550000 113.9599910000,22.3098730000 113.9602590000,22.3096190000 113.9606130000,22.3093570000 113.9610490000,22.3089490000 113.9683380000,22.3046070000 113.9687760000,22.3043090000 113.9696660000,22.3037900000 113.9704090000,22.3033300000 113.9709300000,22.3030600000 113.9713800000,22.3028700000 113.9716780000,22.3027600000 113.9719500000,22.3026710000 113.9723500000,22.3025580000 113.9727700000,22.3024500000 113.9732400000,22.3023500000 113.9745890000,22.3021080000 113.9748610000,22.3020620000 113.9751700000,22.3020300000 113.9753200000,22.3020270000 113.9755500000,22.3020400000 113.9757300000,22.3020680000 113.9759000000,22.3021090000 113.9760600000,22.3021600000 113.9762200000,22.3022300000 113.9765550000,22.3024100000 113.9787830000,22.3038620000 113.9805060000,22.3047800000 113.9824910000,22.3057870000 113.9837140000,22.3064070000 113.9843200000,22.3067900000 113.9850400000,22.3072450000 113.9856060000,22.3075890000 113.9877310000,22.3088640000 113.9925320000,22.3116130000 113.9928940000,22.3118400000 113.9932800000,22.3121080000 113.9936540000,22.3123690000 113.9939850000,22.3126240000 113.9943640000,22.3129400000 113.9947170000,22.3132380000 113.9950160000,22.3135030000 113.9953880000,22.3138680000 113.9956090000,22.3141060000 113.9958140000,22.3143200000 113.9960710000,22.3146170000 113.9963520000,22.3149690000 113.9965180000,22.3151920000 113.9967760000,22.3155490000 113.9969850000,22.3158460000 113.9971800000,22.3161470000 113.9973750000,22.3164580000 113.9976390000,22.3168830000 113.9978800000,22.3172650000 113.9981960000,22.3177340000 113.9984880000,22.3181120000 113.9988430000,22.3185050000 113.9990980000,22.3187760000 113.9994070000,22.3190820000 114.0000590000,22.3196040000 114.0003390000,22.3198090000 114.0005530000,22.3199570000 114.0008490000,22.3201550000 114.0011770000,22.3203390000 114.0014940000,22.3205080000 114.0018710000,22.3206920000 114.0022100000,22.3208580000 114.0029710000,22.3212190000 114.0091410000,22.3239620000 114.0099340000,22.3243030000 114.0104060000,22.3244710000 114.0109360000,22.3246490000 114.0119840000,22.3249220000 114.0124700000,22.3250190000 114.0129110000,22.3250790000 114.0134120000,22.3251210000 114.0140080000,22.3251570000 114.0146170000,22.3251700000 114.0151360000,22.3251530000 114.0157200000,22.3251290000 114.0179230000,22.3249950000 114.0184700000,22.3249970000 114.0189250000,22.3250100000 114.0194170000,22.3250510000 114.0198690000,22.3251110000 114.0202650000,22.3251710000 114.0207940000,22.3252890000 114.0213080000,22.3254290000 114.0218170000,22.3256010000 114.0225660000,22.3258960000 114.0230280000,22.3261070000 114.0235650000,22.3263960000 114.0239050000,22.3266040000 114.0242100000,22.3268090000 114.0243490000,22.3269190000 114.0246080000,22.3271220000 114.0247390000,22.3272290000 114.0253400000,22.3277860000 114.0260460000,22.3284120000 114.0264620000,22.3287970000 114.0297800000,22.3320070000 114.0323360000,22.3344360000 114.0327820000,22.3348390000 114.0333080000,22.3352490000 114.0338240000,22.3356090000 114.0341940000,22.3358400000 114.0344370000,22.3359930000 114.0347430000,22.3361510000 114.0350240000,22.3362900000 114.0355250000,22.3365430000 114.0360790000,22.3367460000 114.0366460000,22.3369090000 114.0370510000,22.3370060000 114.0374980000,22.3370760000 114.0380100000,22.3371620000 114.0384370000,22.3372490000 114.0388250000,22.3373460000 114.0392640000,22.3374860000 114.0397170000,22.3376620000 114.0403300000,22.3379590000 114.0409450000,22.3382610000 114.0430490000,22.3395020000 114.0438450000,22.3398740000 114.0444670000,22.3401500000 114.0450310000,22.3403730000 114.0457530000,22.3405940000 114.0460570000,22.3406770000 114.0466800000,22.3408170000 114.0473730000,22.3409100000 114.0482450000,22.3409950000 114.0487620000,22.3410670000 114.0496140000,22.3411750000 114.0500720000,22.3412490000 114.0504120000,22.3413120000 114.0508330000,22.3414360000 114.0511730000,22.3415610000 114.0514230000,22.3416710000 114.0516610000,22.3417990000 114.0518850000,22.3419290000 114.0520460000,22.3420240000 114.0524520000,22.3422840000 114.0584460000,22.3461890000 114.0587520000,22.3463840000 114.0590690000,22.3465800000 114.0594270000,22.3467830000 114.0597930000,22.3469780000 114.0601590000,22.3471560000 114.0605560000,22.3473310000 114.0609450000,22.3474910000 114.0613390000,22.3476360000 114.0617410000,22.3477700000 114.0621400000,22.3478920000 114.0628380000,22.3480920000 114.0807100000,22.3530780000 114.0815240000,22.3533110000 114.0817130000,22.3533370000 114.0825070000,22.3535570000 114.0828080000,22.3536310000 114.0830850000,22.3536960000 114.0833800000,22.3537460000 114.0836480000,22.3537770000 114.0838530000,22.3537890000 114.0840990000,22.3538070000 114.0843340000,22.3537900000 114.0845590000,22.3537530000 114.0847590000,22.3536900000 114.0850840000,22.3536160000 114.0853340000,22.3534990000 114.0855760000,22.3533940000 114.0857780000,22.3532990000 114.0860090000,22.3531720000 114.0862760000,22.3529890000 114.0864600000,22.3528230000 114.0865510000,22.3527150000 114.0866880000,22.3524630000 114.0867870000,22.3522310000 114.0868490000,22.3520120000 114.0869280000,22.3516520000 114.0870480000,22.3510910000 114.0872340000,22.3503380000 114.0873310000,22.3499450000 114.0874450000,22.3495580000 114.0875270000,22.3492110000 114.0876060000,22.3488610000 114.0876940000,22.3485230000 114.0877910000,22.3482780000 114.0879050000,22.3480430000 114.0880460000,22.3478070000 114.0881770000,22.3476000000 114.0883540000,22.3473750000 114.0884380000,22.3472640000 114.0887110000,22.3469720000 114.0887280000,22.3469380000 114.0889780000,22.3467510000 114.0892720000,22.3465590000 114.0898710000,22.3462360000 114.0904280000,22.3459560000 114.0909630000,22.3456820000 114.0913410000,22.3455040000 114.0917190000,22.3453490000 114.0921550000,22.3452070000 114.0926230000,22.3450940000 114.0931090000,22.3450000000 114.0933720000,22.3449740000 114.0939120000,22.3449600000 114.0941750000,22.3449550000 114.0952440000,22.3449500000 114.0957200000,22.3449460000 114.1004000000,22.3449930000 114.1010700000,22.3450180000 114.1014000000,22.3450400000 114.1017300000,22.3450680000 114.1020600000,22.3451030000 114.1023900000,22.3451480000 114.1030400000,22.3452500000 114.1033000000,22.3453000000 114.1035300000,22.3453500000 114.1037300000,22.3453950000 114.1038810000,22.3454310000 114.1040300000,22.3454700000 114.1042020000,22.3455180000 114.1043800000,22.3455700000 114.1046900000,22.3456680000 114.1049680000,22.3457620000 114.1051600000,22.3458300000 114.1053500000,22.3459000000 114.1056800000,22.3460270000 114.1060000000,22.3461600000 114.1066070000,22.3464420000 114.1092280000,22.3478020000 114.1094000000,22.3478900000 114.1094990000,22.3479370000 114.1095990000,22.3479820000 114.1098100000,22.3480700000 114.1100000000,22.3481490000 114.1103700000,22.3483000000 114.1107080000,22.3484390000 114.1112560000,22.3486440000 114.1114010000,22.3486980000 114.1121180000,22.3489710000 114.1121940000,22.3489990000 114.1150360000,22.3500680000 114.1152660000,22.3501660000 114.1155460000,22.3503070000 114.1158280000,22.3504570000 114.1160890000,22.3506120000 114.1163380000,22.3507780000 114.1166890000,22.3510310000 114.1170420000,22.3512980000 114.1174180000,22.3515670000 114.1177500000,22.3517760000 114.1179500000,22.3518880000 114.1181630000,22.3519900000 114.1185390000,22.3521520000 114.1187440000,22.3522270000 114.1189890000,22.3523010000 114.1192310000,22.3523660000 114.1195060000,22.3524250000 114.1197310000,22.3524620000 114.1199660000,22.3524930000 114.1204150000,22.3525210000 114.1208080000,22.3525130000 114.1212930000,22.3524700000 114.1214870000,22.3524420000 114.1216850000,22.3524020000 114.1220080000,22.3523000000 114.1223600000,22.3521610000 114.1225800000,22.3520590000 114.1227700000,22.3519640000 114.1230910000,22.3517690000 114.1234160000,22.3514980000 114.1237280000,22.3512190000 114.1239480000,22.3509410000 114.1241480000,22.3506360000 114.1243000000,22.3503120000 114.1244440000,22.3499020000 114.1244990000,22.3496360000 114.1245460000,22.3490950000 114.1245370000,22.3484120000 114.1245330000,22.3480180000 114.1245490000,22.3476170000 114.1246110000,22.3472070000 114.1247310000,22.3467150000 114.1248690000,22.3463550000 114.1250230000,22.3459890000 114.1252280000,22.3456200000 114.1254330000,22.3453410000 114.1256160000,22.3450810000 114.1258580000,22.3448130000 114.1260660000,22.3446100000 114.1265330000,22.3442760000 114.1269240000,22.3440300000 114.1272820000,22.3438400000 114.1276470000,22.3436840000 114.1281270000,22.3434690000 114.1283770000,22.3433460000 114.1286560000,22.3432050000 114.1289710000,22.3430190000 114.1291870000,22.3428750000 114.1294020000,22.3427320000 114.1295670000,22.3426040000 114.1297310000,22.3424680000 114.1298900000,22.3423150000 114.1301370000,22.3420730000 114.1303630000,22.3417950000 114.1306770000,22.3413100000 114.1308700000,22.3409770000 114.1310190000,22.3406270000 114.1311910000,22.3402610000 114.1313730000,22.3398820000 114.1316030000,22.3395690000 114.1317430000,22.3393020000 114.1319650000,22.3389160000 114.1321860000,22.3385200000 114.1323490000,22.3381980000 114.1325610000,22.3378840000 114.1326820000,22.3377160000 114.1328200000,22.3375310000 114.1329340000,22.3373860000 114.1330520000,22.3372410000 114.1331650000,22.3371070000 114.1332900000,22.3369690000 114.1334200000,22.3368390000 114.1335610000,22.3367200000 114.1337120000,22.3366090000 114.1338480000,22.3365500000 114.1340050000,22.3365000000 114.1341740000,22.3364620000 114.1344000000,22.3364560000 114.1345610000,22.3364620000 114.1347270000,22.3364910000 114.1349060000,22.3365550000 114.1350520000,22.3366250000 114.1351610000,22.3366910000 114.1352190000,22.3367330000 114.1352480000,22.3367540000 114.1354760000,22.3369650000 114.1355560000,22.3370680000 114.1356470000,22.3372250000 114.1357230000,22.3373780000 114.1357810000,22.3375990000 114.1358180000,22.3378430000 114.1358070000,22.3382780000 114.1358140000,22.3386480000 114.1358400000,22.3389990000 114.1359170000,22.3392970000 114.1359950000,22.3396130000 114.1362150000,22.3404640000 114.1362940000,22.3406170000 114.1363760000,22.3407570000 114.1364990000,22.3409230000 114.1366610000,22.3410740000 114.1368110000,22.3411900000 114.1369940000,22.3412930000 114.1371900000,22.3413630000 114.1374620000,22.3414190000 114.1376640000,22.3414410000 114.1378490000,22.3414330000 114.1380060000,22.3414150000 114.1381830000,22.3413640000 114.1385290000,22.3413040000 114.1388510000,22.3411530000 114.1391580000,22.3409910000 114.1402440000,22.3403050000 114.1404770000,22.3401560000 114.1407580000,22.3400730000 114.1410040000,22.3400500000 114.1411740000,22.3400520000 114.1414380000,22.3401090000 114.1416410000,22.3402150000 114.1417950000,22.3403170000 114.1422470000,22.3407150000 114.1426830000,22.3410890000 114.1429160000,22.3413110000 114.1430330000,22.3414380000 114.1431130000,22.3415580000 114.1432000000,22.3417070000 114.1434040000,22.3422780000 114.1435310000,22.3426230000 114.1436780000,22.3429290000 114.1438480000,22.3431950000 114.1440010000,22.3433690000 114.1442130000,22.3435190000 114.1446410000,22.3439360000 114.1446680000,22.3439610000 114.1450020000,22.3442660000 114.1456120000,22.3448340000 114.1456970000,22.3449100000 114.1457520000,22.3449590000 114.1459200000,22.3451230000 114.1462480000,22.3454420000 114.1464890000,22.3456780000 114.1466010000,22.3457880000 114.1467590000,22.3459330000 114.1471820000,22.3463170000 114.1472160000,22.3463480000 114.1474870000,22.3465700000 114.1478600000,22.3468200000 114.1480950000,22.3469660000 114.1483600000,22.3471100000 114.1486310000,22.3472480000 114.1488980000,22.3473630000 114.1492700000,22.3475000000 114.1496380000,22.3476140000 114.1500690000,22.3477270000 114.1514100000,22.3480100000 114.1518200000,22.3481100000 114.1522400000,22.3482220000 114.1530420000,22.3484880000 114.1535900000,22.3486900000 114.1539920000,22.3488590000 114.1543900000,22.3490400000 114.1551890000,22.3494300000 114.1558680000,22.3498200000 114.1566010000,22.3503100000 114.1572490000,22.3507900000 114.1579200000,22.3513500000 114.1585400000,22.3519300000 114.1590400000,22.3524600000 114.1595110000,22.3530080000 114.1599400000,22.3535800000 114.1602900000,22.3540900000 114.1605600000,22.3545100000 114.1608500000,22.3550100000 114.1623980000,22.3579800000 114.1625870000,22.3583930000 114.1627360000,22.3588130000 114.1628590000,22.3592180000 114.1629260000,22.3594490000 114.1629340000,22.3595080000 114.1628380000,22.3596780000 114.1628240000,22.3597830000 114.1628270000,22.3599520000 114.1630120000,22.3604470000 114.1631400000,22.3607900000 114.1632260000,22.3609080000 114.1633000000,22.3609980000 114.1634310000,22.3611520000 114.1634400000,22.3611800000 114.1635500000,22.3616200000 114.1637400000,22.3621300000 114.1639800000,22.3626430000 114.1642800000,22.3631500000 114.1646150000,22.3636200000 114.1648070000,22.3638500000 114.1650150000,22.3640800000 114.1653090000,22.3643700000 114.1656400000,22.3646600000 114.1659100000,22.3648700000 114.1661810000,22.3650580000 114.1666820000,22.3653600000 114.1670970000,22.3655600000 114.1675900000,22.3657700000 114.1679900000,22.3659120000 114.1688000000,22.3661700000 114.1690800000,22.3662700000 114.1693300000,22.3663700000 114.1695600000,22.3664700000 114.1699900000,22.3666700000 114.1704540000,22.3668960000 114.1706150000,22.3669890000 114.1709500000,22.3672100000 114.1710980000,22.3673240000 114.1712360000,22.3674760000 114.1714590000,22.3677020000 114.1716430000,22.3679010000 114.1717280000,22.3679900000 114.1718510000,22.3681060000 114.1720130000,22.3682180000 114.1722280000,22.3683260000 114.1723470000,22.3683640000 114.1724710000,22.3683930000 114.1726390000,22.3683950000 114.1729130000,22.3683770000 114.1731390000,22.3683360000 114.1734560000,22.3682850000 114.1737890000,22.3682450000 114.1740190000,22.3682560000 114.1742420000,22.3682990000 114.1744260000,22.3683620000 114.1745730000,22.3684320000 114.1747450000,22.3685620000 114.1749280000,22.3687150000 114.1753210000,22.3691230000 114.1757640000,22.3695940000 114.1760750000,22.3698800000 114.1763310000,22.3700850000 114.1765760000,22.3702330000 114.1769090000,22.3704260000 114.1771300000,22.3705530000 114.1773800000,22.3706870000 114.1775780000,22.3707960000 114.1777620000,22.3709390000 114.1780270000,22.3711130000 114.1782670000,22.3713010000 114.1783410000,22.3713890000 114.1784090000,22.3714600000 114.1784230000,22.3715190000 114.1784530000,22.3715660000 114.1785310000,22.3716230000 114.1786230000,22.3716730000 114.1787270000,22.3716910000 114.1787630000,22.3716950000 114.1788110000,22.3716780000 114.1788830000,22.3716400000 114.1789420000,22.3715860000 114.1789830000,22.3715190000 114.1790240000,22.3714030000 114.1790150000,22.3713710000 114.1790030000,22.3713130000 114.1790780000,22.3711520000 114.1791450000,22.3710430000 114.1792340000,22.3709520000 114.1792860000,22.3709010000 114.1794300000,22.3707590000 114.1797550000,22.3704180000 114.1801260000,22.3699380000 114.1803400000,22.3695770000 114.1803870000,22.3694910000 114.1804200000,22.3694140000 114.1804680000,22.3693230000 114.1805110000,22.3692270000 114.1806060000,22.3690020000 114.1807410000,22.3685820000 114.1808100000,22.3682200000 114.1808620000,22.3678840000 114.1808780000,22.3675670000 114.1808760000,22.3673030000 114.1808560000,22.3670600000 114.1808380000,22.3668940000 114.1807850000,22.3664370000 114.1807730000,22.3663030000 114.1807640000,22.3661890000 114.1807650000,22.3660900000 114.1807660000,22.3659670000 114.1807950000,22.3658080000 114.1808450000,22.3655010000 114.1808670000,22.3654200000 114.1809000000,22.3653250000 114.1809490000,22.3651820000 114.1810880000,22.3650480000 114.1811400000,22.3650010000 114.1811940000,22.3649560000 114.1812630000,22.3649100000 114.1812850000,22.3648960000 114.1813120000,22.3648780000 114.1813390000,22.3648600000 114.1814010000,22.3648450000 114.1814670000,22.3648290000 114.1816050000,22.3648140000 114.1817500000,22.3648120000 114.1817840000,22.3648150000 114.1818920000,22.3648260000 114.1820070000,22.3648750000 114.1821570000,22.3649490000 114.1822880000,22.3650140000 114.1828660000,22.3652010000 114.1834560000,22.3654320000 114.1838280000,22.3655550000 114.1840270000,22.3656150000 114.1841900000,22.3656840000 114.1843330000,22.3657470000 114.1843620000,22.3657590000 114.1844770000,22.3658140000 114.1845980000,22.3658820000 114.1847200000,22.3659720000 114.1848320000,22.3660700000 114.1849960000,22.3662150000 114.1856540000,22.3667190000 114.1859120000,22.3669250000 114.1861480000,22.3671120000 114.1868180000,22.3676420000 114.1869590000,22.3677710000 114.1870620000,22.3678760000 114.1871530000,22.3679990000 114.1872180000,22.3681060000 114.1872640000,22.3682060000 114.1873110000,22.3683470000 114.1873440000,22.3684760000 114.1873780000,22.3686190000 114.1874170000,22.3688730000 114.1874390000,22.3689930000 114.1874840000,22.3691440000 114.1875230000,22.3692610000 114.1875630000,22.3693560000 114.1876210000,22.3694610000 114.1877220000,22.3695970000 114.1877870000,22.3696820000 114.1878770000,22.3697750000 114.1879580000,22.3698500000 114.1881510000,22.3700130000 114.1883100000,22.3701460000 114.1885500000,22.3703390000 114.1886590000,22.3704310000 114.1889390000,22.3707370000 114.1890690000,22.3708760000 114.1891440000,22.3709720000 114.1892440000,22.3711280000 114.1894440000,22.3714560000 114.1896550000,22.3718210000 114.1897640000,22.3720120000 114.1898660000,22.3721650000 114.1900170000,22.3723520000 114.1901590000,22.3725080000 114.1902470000,22.3726040000 114.1904770000,22.3728110000 114.1906040000,22.3728940000 114.1907900000,22.3730040000 114.1910710000,22.3731610000 114.1914620000,22.3733270000 114.1919410000,22.3735240000 114.1923520000,22.3736670000 114.1928250000,22.3738170000 114.1934440000,22.3739780000 114.1938910000,22.3740790000 114.1949150000,22.3743460000 114.1955160000,22.3745530000 114.1962610000,22.3747380000 114.1964970000,22.3748070000 114.1967700000,22.3749350000 114.1969270000,22.3750290000 114.1970890000,22.3751320000 114.1972490000,22.3752340000 114.1974440000,22.3753920000 114.1975980000,22.3755410000 114.1977280000,22.3756790000 114.1978470000,22.3758250000 114.1981870000,22.3762970000 114.1983050000,22.3765060000 114.1984110000,22.3766790000 114.1984830000,22.3767740000 114.1985790000,22.3768740000 114.1986750000,22.3769880000 114.1987880000,22.3770890000 114.1988430000,22.3771460000 114.1989710000,22.3771970000 114.1990130000,22.3772190000 114.1991180000,22.3772910000 114.1992540000,22.3773640000 114.1994650000,22.3774390000 114.1997220000,22.3775020000 114.1999180000,22.3775350000 114.2000840000,22.3775630000 114.2003040000,22.3775810000 114.2008240000,22.3776040000 114.2018560000,22.3776890000 114.2023450000,22.3777390000 114.2027250000,22.3777990000 114.2030850000,22.3779070000 114.2034940000,22.3780590000 114.2038570000,22.3782190000 114.2041540000,22.3783830000 114.2048140000,22.3788000000 114.2051880000,22.3790290000 114.2083500000,22.3810900000 114.2091400000,22.3816000000 114.2092800000,22.3816950000 114.2094000000,22.3817870000 114.2095500000,22.3819100000 114.2097800000,22.3821250000 114.2099400000,22.3823150000 114.2101100000,22.3825850000 114.2102260000,22.3828760000 114.2103370000,22.3831930000 114.2104060000,22.3835690000 114.2104680000,22.3838950000 114.2105440000,22.3842770000 114.2105940000,22.3845440000 114.2107190000,22.3851940000 114.2107920000,22.3853990000 114.2109760000,22.3863920000 114.2110930000,22.3873440000 114.2110970000,22.3875330000 114.2110970000,22.3877150000 114.2110510000,22.3880820000 114.2110260000,22.3882700000 114.2109820000,22.3884920000 114.2109030000,22.3887750000 114.2108270000,22.3889850000 114.2107510000,22.3891670000 114.2106300000,22.3894110000 114.2105050000,22.3896260000 114.2102590000,22.3900050000 114.2101320000,22.3902270000 114.2100130000,22.3904140000 114.2099450000,22.3905420000 114.2098700000,22.3906850000 114.2098480000,22.3907490000 114.2096910000,22.3910970000 114.2096310000,22.3912610000 114.2095650000,22.3914620000 114.2095030000,22.3916800000 114.2094540000,22.3919080000 114.2094030000,22.3921420000 114.2093790000,22.3923090000 114.2093650000,22.3925010000 114.2093420000,22.3926810000 114.2093330000,22.3928410000 114.2093380000,22.3930220000 114.2093380000,22.3932050000 114.2093450000,22.3933860000 114.2093690000,22.3935770000 114.2093890000,22.3937210000 114.2094190000,22.3938870000 114.2094580000,22.3940560000 114.2095090000,22.3942450000 114.2095850000,22.3945390000 114.2097380000,22.3950350000 114.2099260000,22.3956020000 114.2100380000,22.3959000000 114.2101640000,22.3962190000 114.2103200000,22.3965720000 114.2104900000,22.3969110000 114.2106350000,22.3971770000 114.2107910000,22.3974660000 114.2109610000,22.3977650000 114.2110390000,22.3979000000 114.2111200000,22.3980430000 114.2112350000,22.3982320000 114.2113330000,22.3983770000 114.2114900000,22.3986080000 114.2116440000,22.3988240000 114.2118450000,22.3990970000 114.2120290000,22.3993280000 114.2122000000,22.3995360000 114.2124120000,22.3997700000 114.2126170000,22.3999970000 114.2132020000,22.4006480000 114.2135430000,22.4010000000 114.2138280000,22.4012920000 114.2141330000,22.4015620000 114.2143300000,22.4017400000 114.2144840000,22.4018760000 114.2146780000,22.4020320000 114.2148270000,22.4021430000 114.2150380000,22.4023140000 114.2152530000,22.4024750000 114.2154810000,22.4026310000 114.2157580000,22.4028240000 114.2160060000,22.4029810000 114.2162580000,22.4031370000 114.2164660000,22.4032530000 114.2167280000,22.4033960000 114.2169780000,22.4035290000 114.2172280000,22.4036840000 114.2174460000,22.4038400000 114.2175900000,22.4039680000 114.2177130000,22.4041050000 114.2178240000,22.4042840000 114.2179190000,22.4044460000 114.2179950000,22.4046380000 114.2180270000,22.4048080000 114.2180460000,22.4049210000 114.2180490000,22.4050350000 114.2180480000,22.4051550000 114.2180320000,22.4053320000 114.2179830000,22.4055290000 114.2179410000,22.4056710000 114.2178800000,22.4057880000 114.2178300000,22.4058770000 114.2177640000,22.4059710000 114.2177060000,22.4060530000 114.2176400000,22.4061360000 114.2175420000,22.4062470000 114.2173770000,22.4064150000 114.2171260000,22.4066240000 114.2163640000,22.4072380000 114.2134530000,22.4096180000 114.2130510000,22.4099340000 114.2129510000,22.4100260000 114.2126640000,22.4102900000 114.2125340000,22.4104350000 114.2124060000,22.4106090000 114.2122380000,22.4110620000 114.2121910000,22.4112630000 114.2121560000,22.4114270000 114.2121450000,22.4116080000 114.2121650000,22.4118530000 114.2122120000,22.4121490000 114.2122740000,22.4124680000 114.2123890000,22.4130300000 114.2125130000,22.4135700000 114.2125910000,22.4139010000 114.2126300000,22.4140760000 114.2127270000,22.4145110000 114.2128010000,22.4148450000 114.2128920000,22.4151860000 114.2129780000,22.4155150000 114.2130320000,22.4157110000 114.2131750000,22.4160660000 114.2134430000,22.4173780000 114.2135310000,22.4178000000 114.2135780000,22.4181540000 114.2136020000,22.4184860000 114.2136070000,22.4186930000 114.2135840000,22.4193440000 114.2135830000,22.4194480000 114.2135530000,22.4197530000 114.2134810000,22.4202190000 114.2134060000,22.4206010000 114.2132620000,22.4211350000 114.2130910000,22.4215890000 114.2129690000,22.4218630000 114.2127860000,22.4221940000 114.2126640000,22.4223770000 114.2125190000,22.4225910000 114.2123260000,22.4228480000 114.2120810000,22.4231320000 114.2118210000,22.4234110000 114.2115330000,22.4236860000 114.2111640000,22.4239810000 114.2107250000,22.4242980000 114.2101270000,22.4247050000 114.2093830000,22.4251890000 114.2082980000,22.4259060000 114.2078030000,22.4262290000 114.2060680000,22.4273100000 114.2055580000,22.4276280000 114.2039620000,22.4286650000 114.2031650000,22.4291710000 114.2028840000,22.4293580000 114.2025750000,22.4295790000 114.2023220000,22.4298020000 114.2021240000,22.4299860000 114.2019450000,22.4301690000 114.2017340000,22.4304050000 114.2015370000,22.4306540000 114.2013390000,22.4309430000 114.2011730000,22.4312160000 114.2010190000,22.4315220000 114.2009040000,22.4317780000 114.2007920000,22.4320780000 114.2007010000,22.4323740000 114.2006250000,22.4326870000 114.2004720000,22.4333790000 114.2003670000,22.4337690000 114.2002370000,22.4341340000 114.2000930000,22.4344550000 114.1999040000,22.4347880000 114.1997020000,22.4350710000 114.1994690000,22.4353580000 114.1992040000,22.4356650000 114.1989010000,22.4360060000 114.1985080000,22.4364240000 114.1982510000,22.4366840000 114.1979810000,22.4369430000 114.1977340000,22.4371660000 114.1975180000,22.4373490000 114.1972230000,22.4375700000 114.1968960000,22.4378070000 114.1966460000,22.4379850000 114.1963540000,22.4381700000 114.1960330000,22.4383750000 114.1957730000,22.4385240000 114.1954140000,22.4387350000 114.1949510000,22.4389650000 114.1945640000,22.4391350000 114.1943640000,22.4392140000 114.1941380000,22.4392600000 114.1938890000,22.4393270000 114.1936610000,22.4393790000 114.1934510000,22.4394140000 114.1932250000,22.4394490000 114.1929770000,22.4394740000 114.1928070000,22.4394760000 114.1925890000,22.4394800000 114.1924060000,22.4394850000 114.1921560000,22.4394730000 114.1919090000,22.4394490000 114.1915630000,22.4393950000 114.1904170000,22.4391290000 114.1901480000,22.4390710000 114.1898150000,22.4390160000 114.1895410000,22.4389850000 114.1892900000,22.4389650000 114.1890110000,22.4389570000 114.1886980000,22.4389650000 114.1883670000,22.4389790000 114.1880390000,22.4390290000 114.1877120000,22.4391000000 114.1874480000,22.4391270000 114.1873300000,22.4391570000 114.1871920000,22.4391930000 114.1869450000,22.4392900000 114.1868440000,22.4393360000 114.1864500000,22.4395150000 114.1858960000,22.4397590000 114.1851010000,22.4402260000 114.1825760000,22.4416340000 114.1823280000,22.4417760000 114.1820700000,22.4419170000 114.1813220000,22.4423210000 114.1812160000,22.4422970000 114.1810460000,22.4423900000 114.1802280000,22.4428650000 114.1798890000,22.4430500000 114.1796810000,22.4431650000 114.1794590000,22.4432770000 114.1791290000,22.4434410000 114.1790040000,22.4434570000 114.1788620000,22.4435130000 114.1787200000,22.4435670000 114.1785720000,22.4436210000 114.1784050000,22.4436740000 114.1781370000,22.4437570000 114.1779480000,22.4438100000 114.1777850000,22.4438560000 114.1776820000,22.4438870000 114.1775870000,22.4439250000 114.1774900000,22.4439710000 114.1774230000,22.4440080000 114.1773590000,22.4440510000 114.1773010000,22.4441020000 114.1772600000,22.4441430000 114.1772180000,22.4441920000 114.1771850000,22.4442400000 114.1771570000,22.4442870000 114.1771300000,22.4443400000 114.1770890000,22.4444540000 114.1770410000,22.4445960000 114.1770070000,22.4447020000 114.1769620000,22.4448500000 114.1769390000,22.4449220000 114.1769070000,22.4450050000 114.1768730000,22.4450710000 114.1768170000,22.4451540000 114.1767390000,22.4452430000 114.1766490000,22.4453180000 114.1765610000,22.4453760000 114.1764720000,22.4454250000 114.1763320000,22.4454880000 114.1755360000,22.4458220000 114.1753540000,22.4458960000 114.1750780000,22.4460180000 114.1749780000,22.4460230000 114.1747930000,22.4460750000 114.1747060000,22.4460950000 114.1746010000,22.4461030000 114.1744670000,22.4461030000 114.1743190000,22.4460910000 114.1742260000,22.4460980000 114.1741860000,22.4460890000 114.1741440000,22.4460900000 114.1741030000,22.4460990000 114.1740650000,22.4461200000 114.1740350000,22.4461450000 114.1739510000,22.4461710000 114.1738420000,22.4462260000 114.1736640000,22.4463170000 114.1734610000,22.4464000000 114.1731290000,22.4464520000 114.1730770000,22.4464620000 114.1726760000,22.4465320000 114.1722710000,22.4466130000 114.1722460000,22.4466190000 114.1721390000,22.4466410000 114.1720460000,22.4466570000 114.1716320000,22.4467100000 114.1712500000,22.4467820000 114.1711780000,22.4468030000 114.1710080000,22.4468290000 114.1705880000,22.4469650000 114.1705130000,22.4470070000 114.1702830000,22.4471020000 114.1697150000,22.4473420000 114.1696080000,22.4473860000 114.1694810000,22.4474470000 114.1691350000,22.4476120000 114.1689420000,22.4477170000 114.1687350000,22.4477910000 114.1686130000,22.4478480000 114.1682220000,22.4480470000 114.1680900000,22.4481090000 114.1678020000,22.4482370000 114.1677650000,22.4482530000 114.1674690000,22.4483890000 114.1668260000,22.4486730000 114.1667010000,22.4487270000 114.1666180000,22.4487570000 114.1666470000,22.4488430000 114.1666900000,22.4489450000 114.1668170000,22.4491760000 114.1668730000,22.4492860000 114.1668970000,22.4493350000 114.1669600000,22.4494750000 114.1669830000,22.4495440000 114.1670170000,22.4496350000 114.1670420000,22.4496960000 114.1670750000,22.4498360000 114.1671030000,22.4499690000 114.1671080000,22.4499970000 114.1671280000,22.4500890000 114.1671800000,22.4503580000 114.1672600000,22.4508680000 114.1672680000,22.4509290000 114.1672790000,22.4510180000 114.1672840000,22.4511450000 114.1673620000,22.4513100000 114.1673780000,22.4517570000 114.1673760000,22.4518160000 114.1673730000,22.4519320000 114.1673700000,22.4520710000 114.1673690000,22.4522630000 114.1673620000,22.4527180000 114.1673650000,22.4528640000 114.1675160000,22.4528670000 114.1685320000,22.4528740000 114.1686740000,22.4528760000 114.1686750000,22.4527210000 114.1686730000,22.4521260000 114.1686780000,22.4520660000 114.1686860000,22.4520380000 114.1686970000,22.4520120000 114.1687110000,22.4520060000 114.1687310000,22.4520020000 114.1687580000,22.4520000000 114.1688290000,22.4519980000 114.1700590000,22.4519950000 114.1706860000,22.4519950000 114.1706910000,22.4521240000 114.1706960000,22.4534550000 114.1706960000,22.4535330000 114.1706940000,22.4539880000 114.1706920000,22.4541040000 114.1706940000,22.4542010000 114.1713590000,22.4541880000 114.1714400000,22.4541950000 114.1715160000,22.4542030000 114.1716490000,22.4542240000 114.1719200000,22.4542650000 114.1720970000,22.4543160000 114.1720570000,22.4545550000 114.1720230000,22.4548220000 114.1720090000,22.4549980000 114.1720160000,22.4551040000 114.1720110000,22.4554290000 114.1720400000,22.4557400000 114.1720400000,22.4557630000 114.1720550000,22.4558850000 114.1720600000,22.4559960000 114.1721290000,22.4568300000 114.1721800000,22.4572870000 114.1721920000,22.4574310000 114.1722440000,22.4575440000 114.1722460000,22.4576010000 114.1722520000,22.4577390000 114.1722880000,22.4580380000 114.1723420000,22.4583480000 114.1723830000,22.4585770000 114.1724420000,22.4587410000 114.1723730000,22.4587660000 114.1722970000,22.4587970000 114.1722680000,22.4588090000 114.1722160000,22.4588140000 114.1719750000,22.4588120000 114.1719760000,22.4587430000 114.1719720000,22.4586750000 114.1719810000,22.4586060000 114.1720910000,22.4584630000 114.1720950000,22.4579200000 114.1720620000,22.4578720000 114.1720210000,22.4578430000 114.1719600000,22.4578490000 114.1719340000,22.4578900000 114.1719400000,22.4579380000 114.1719630000,22.4579730000 114.1719980000,22.4579950000 114.1720110000,22.4580130000 114.1720270000,22.4580450000 114.1720280000,22.4582720000</coordinates>
                </LineString>
                <ExtendedData>
                    <Data name="duration">
                        <value>02:00:17</value>
                    </Data>
                    <Data name="length">
                        <value>96498.5743865848</value>
                    </Data>
                </ExtendedData>
            </Placemark>
        </Document>
    </Document>
</kml>