<?xml version="1.0" encoding="UTF-8"?>
<kml xmlns="http://www.opengis.net/kml/2.2" xmlns:gx="http://www.google.com/kml/ext/2.2">
    <Document>
        <name>Route</name>
        <Folder>
            <name>Route Request</name>
            <Placemark>
                <address>Heung Fan Liu Street, Sha Tin Heights, Heung Fan Liu New Village, Tai Wai Village, Sha Tin District, New Territories, Hong Kong, China</address>
                <Point>
                    <coordinates>114.1690204765,22.3756043700</coordinates>
                </Point>
                <ExtendedData>
                    <Data name="road">
                        <value>Heung Fan Liu Street</value>
                    </Data>
                    <Data name="village">
                        <value>Tai Wai Village</value>
                    </Data>
                    <Data name="hamlet">
                        <value>Heung Fan Liu New Village</value>
                    </Data>
                    <Data name="city">
                        <value>Hong Kong</value>
                    </Data>
                    <Data name="region">
                        <value>New Territories</value>
                    </Data>
                    <Data name="country">
                        <value>China</value>
                    </Data>
                    <Data name="county">
                        <value>Sha Tin District</value>
                    </Data>
                    <Data name="country_code">
                        <value>cn</value>
                    </Data>
                    <Data name="neighbourhood">
                        <value>Sha Tin Heights</value>
                    </Data>
                </ExtendedData>
            </Placemark>
            <Placemark>
                <address>Fai Shing House, 36, Mei Tin Road, Tin Sam, Tai Wai New Village, Tung Lo Wan, Sha Tin District, New Territories, Hong Kong, China</address>
                <Point>
                    <coordinates>114.1763987386,22.3800689576</coordinates>
                </Point>
                <ExtendedData>
                    <Data name="road">
                        <value>Mei Tin Road</value>
                    </Data>
                    <Data name="village">
                        <value>Tung Lo Wan</value>
                    </Data>
                    <Data name="hamlet">
                        <value>Tai Wai New Village</value>
                    </Data>
                    <Data name="city">
                        <value>Hong Kong</value>
                    </Data>
                    <Data name="region">
                        <value>New Territories</value>
                    </Data>
                    <Data name="country">
                        <value>China</value>
                    </Data>
                    <Data name="house_number">
                        <value>36</value>
                    </Data>
                    <Data name="county">
                        <value>Sha Tin District</value>
                    </Data>
                    <Data name="building">
                        <value>Fai Shing House</value>
                    </Data>
                    <Data name="country_code">
                        <value>cn</value>
                    </Data>
                    <Data name="neighbourhood">
                        <value>Tin Sam</value>
                    </Data>
                </ExtendedData>
            </Placemark>
            <Placemark>
                <address>Tsing Sha Highway, Sha Tin Heights, Luk Hop Village, Hung Mui Kuk, Sha Tin District, New Territories, Hong Kong, China</address>
                <Point>
                    <coordinates>114.1633227414,22.3583372727</coordinates>
                </Point>
                <ExtendedData>
                    <Data name="road">
                        <value>Tsing Sha Highway</value>
                    </Data>
                    <Data name="village">
                        <value>Hung Mui Kuk</value>
                    </Data>
                    <Data name="hamlet">
                        <value>Luk Hop Village</value>
                    </Data>
                    <Data name="city">
                        <value>Hong Kong</value>
                    </Data>
                    <Data name="region">
                        <value>New Territories</value>
                    </Data>
                    <Data name="country">
                        <value>China</value>
                    </Data>
                    <Data name="county">
                        <value>Sha Tin District</value>
                    </Data>
                    <Data name="country_code">
                        <value>cn</value>
                    </Data>
                    <Data name="neighbourhood">
                        <value>Sha Tin Heights</value>
                    </Data>
                </ExtendedData>
            </Placemark>
            <Placemark>
                <address>Container Port Road South, Lai King Hill, Kau Wa Keng San Tsuen, Kwai Tsing District, New Territories, Hong Kong, 682, China</address>
                <Point>
                    <coordinates>114.1321694429,22.3368484340</coordinates>
                </Point>
                <ExtendedData>
                    <Data name="road">
                        <value>Container Port Road South</value>
                    </Data>
                    <Data name="hamlet">
                        <value>Kau Wa Keng San Tsuen</value>
                    </Data>
                    <Data name="city">
                        <value>Hong Kong</value>
                    </Data>
                    <Data name="region">
                        <value>New Territories</value>
                    </Data>
                    <Data name="country">
                        <value>China</value>
                    </Data>
                    <Data name="postcode">
                        <value>682</value>
                    </Data>
                    <Data name="county">
                        <value>Kwai Tsing District</value>
                    </Data>
                    <Data name="country_code">
                        <value>cn</value>
                    </Data>
                    <Data name="neighbourhood">
                        <value>Lai King Hill</value>
                    </Data>
                </ExtendedData>
            </Placemark>
            <Placemark>
                <address>Passenger Clearance Building, 33, Shun Fai Road, Pak Mong, Tung Chung, Islands District, New Territories, Hong Kong, China</address>
                <Point>
                    <coordinates>113.9507028604,22.3172400840</coordinates>
                </Point>
                <ExtendedData>
                    <Data name="address29">
                        <value>Passenger Clearance Building</value>
                    </Data>
                    <Data name="road">
                        <value>Shun Fai Road</value>
                    </Data>
                    <Data name="hamlet">
                        <value>Pak Mong</value>
                    </Data>
                    <Data name="city">
                        <value>Hong Kong</value>
                    </Data>
                    <Data name="region">
                        <value>New Territories</value>
                    </Data>
                    <Data name="country">
                        <value>China</value>
                    </Data>
                    <Data name="house_number">
                        <value>33</value>
                    </Data>
                    <Data name="county">
                        <value>Islands District</value>
                    </Data>
                    <Data name="town">
                        <value>Tung Chung</value>
                    </Data>
                    <Data name="country_code">
                        <value>cn</value>
                    </Data>
                </ExtendedData>
            </Placemark>
            <Placemark>
                <address>Tat Yeung Road, Lai Chi Kok Bay, Lai Chi Kok, Sham Shui Po District, New Territories, Hong Kong, 682, China</address>
                <Point>
                    <coordinates>114.1351170626,22.3368527873</coordinates>
                </Point>
                <ExtendedData>
                    <Data name="road">
                        <value>Tat Yeung Road</value>
                    </Data>
                    <Data name="city">
                        <value>Hong Kong</value>
                    </Data>
                    <Data name="suburb">
                        <value>Lai Chi Kok</value>
                    </Data>
                    <Data name="region">
                        <value>New Territories</value>
                    </Data>
                    <Data name="country">
                        <value>China</value>
                    </Data>
                    <Data name="postcode">
                        <value>682</value>
                    </Data>
                    <Data name="county">
                        <value>Sham Shui Po District</value>
                    </Data>
                    <Data name="country_code">
                        <value>cn</value>
                    </Data>
                    <Data name="neighbourhood">
                        <value>Lai Chi Kok Bay</value>
                    </Data>
                </ExtendedData>
            </Placemark>
            <Placemark>
                <address>Tsing Sha Highway, Sha Tin Heights, Luk Hop Village, Hung Mui Kuk, Sha Tin District, New Territories, Hong Kong, China</address>
                <Point>
                    <coordinates>114.1630421148,22.3607278410</coordinates>
                </Point>
                <ExtendedData>
                    <Data name="village">
                        <value>Hung Mui Kuk</value>
                    </Data>
                    <Data name="hamlet">
                        <value>Luk Hop Village</value>
                    </Data>
                    <Data name="city">
                        <value>Hong Kong</value>
                    </Data>
                    <Data name="region">
                        <value>New Territories</value>
                    </Data>
                    <Data name="country">
                        <value>China</value>
                    </Data>
                    <Data name="county">
                        <value>Sha Tin District</value>
                    </Data>
                    <Data name="country_code">
                        <value>cn</value>
                    </Data>
                    <Data name="footway">
                        <value>Tsing Sha Highway</value>
                    </Data>
                    <Data name="neighbourhood">
                        <value>Sha Tin Heights</value>
                    </Data>
                </ExtendedData>
            </Placemark>
            <Placemark>
                <address>Fai Shing House, 36, Mei Tin Road, Tin Sam, Tai Wai New Village, Tung Lo Wan, Sha Tin District, New Territories, Hong Kong, China</address>
                <Point>
                    <coordinates>114.1763987386,22.3800689576</coordinates>
                </Point>
                <ExtendedData>
                    <Data name="road">
                        <value>Mei Tin Road</value>
                    </Data>
                    <Data name="village">
                        <value>Tung Lo Wan</value>
                    </Data>
                    <Data name="hamlet">
                        <value>Tai Wai New Village</value>
                    </Data>
                    <Data name="city">
                        <value>Hong Kong</value>
                    </Data>
                    <Data name="region">
                        <value>New Territories</value>
                    </Data>
                    <Data name="country">
                        <value>China</value>
                    </Data>
                    <Data name="house_number">
                        <value>36</value>
                    </Data>
                    <Data name="county">
                        <value>Sha Tin District</value>
                    </Data>
                    <Data name="building">
                        <value>Fai Shing House</value>
                    </Data>
                    <Data name="country_code">
                        <value>cn</value>
                    </Data>
                    <Data name="neighbourhood">
                        <value>Tin Sam</value>
                    </Data>
                </ExtendedData>
            </Placemark>
            <Placemark>
                <address>Heung Fan Liu Street, Sha Tin Heights, Heung Fan Liu New Village, Tai Wai Village, Sha Tin District, New Territories, Hong Kong, China</address>
                <Point>
                    <coordinates>114.1690204772,22.3755907096</coordinates>
                </Point>
                <ExtendedData>
                    <Data name="road">
                        <value>Heung Fan Liu Street</value>
                    </Data>
                    <Data name="village">
                        <value>Tai Wai Village</value>
                    </Data>
                    <Data name="hamlet">
                        <value>Heung Fan Liu New Village</value>
                    </Data>
                    <Data name="city">
                        <value>Hong Kong</value>
                    </Data>
                    <Data name="region">
                        <value>New Territories</value>
                    </Data>
                    <Data name="country">
                        <value>China</value>
                    </Data>
                    <Data name="county">
                        <value>Sha Tin District</value>
                    </Data>
                    <Data name="country_code">
                        <value>cn</value>
                    </Data>
                    <Data name="neighbourhood">
                        <value>Sha Tin Heights</value>
                    </Data>
                </ExtendedData>
            </Placemark>
        </Folder>
        <Document>
            <name>66.1 km; 01:17 h (OSRM)</name>
            <Placemark>
                <name>Route</name>
                <LineString>
                    <coordinates>114.1689470000,22.3756910000 114.1689050000,22.3756610000 114.1688250000,22.3756670000 114.1687640000,22.3757420000 114.1687850000,22.3758140000 114.1688410000,22.3758530000 114.1691030000,22.3759320000 114.1696400000,22.3761250000 114.1696540000,22.3761300000 114.1697570000,22.3761690000 114.1701690000,22.3763250000 114.1703630000,22.3764000000 114.1709950000,22.3766390000 114.1720800000,22.3770190000 114.1724510000,22.3771360000 114.1730330000,22.3773200000 114.1732810000,22.3774220000 114.1735390000,22.3774880000 114.1738030000,22.3775270000 114.1738090000,22.3775280000 114.1739580000,22.3775500000 114.1740410000,22.3776080000 114.1741340000,22.3776590000 114.1741810000,22.3776990000 114.1741950000,22.3777270000 114.1742190000,22.3778110000 114.1742120000,22.3778750000 114.1740440000,22.3781970000 114.1739980000,22.3783320000 114.1738520000,22.3787560000 114.1738120000,22.3788640000 114.1737390000,22.3790640000 114.1736990000,22.3792500000 114.1736510000,22.3794640000 114.1736550000,22.3795080000 114.1736700000,22.3796640000 114.1736930000,22.3798140000 114.1737340000,22.3799420000 114.1738810000,22.3801570000 114.1740500000,22.3803310000 114.1742730000,22.3804780000 114.1745200000,22.3805700000 114.1745810000,22.3805860000 114.1746890000,22.3806150000 114.1748630000,22.3806460000 114.1751940000,22.3806510000 114.1755230000,22.3805820000 114.1757630000,22.3804610000 114.1759240000,22.3803330000 114.1761440000,22.3800340000 114.1761770000,22.3800510000 114.1762220000,22.3800640000 114.1762740000,22.3800660000 114.1763240000,22.3800620000 114.1763670000,22.3800400000 114.1763670000,22.3800400000 114.1763970000,22.3800050000 114.1764160000,22.3799680000 114.1764180000,22.3799300000 114.1764090000,22.3798860000 114.1763840000,22.3798370000 114.1763450000,22.3797960000 114.1762400000,22.3799100000 114.1762080000,22.3799490000 114.1761440000,22.3800340000 114.1759240000,22.3803330000 114.1757630000,22.3804610000 114.1755230000,22.3805820000 114.1751940000,22.3806510000 114.1748630000,22.3806460000 114.1746890000,22.3806150000 114.1745810000,22.3805860000 114.1745200000,22.3805700000 114.1742730000,22.3804780000 114.1740500000,22.3803310000 114.1738810000,22.3801570000 114.1737340000,22.3799420000 114.1736930000,22.3798140000 114.1736700000,22.3796640000 114.1736550000,22.3795080000 114.1736510000,22.3794640000 114.1736990000,22.3792500000 114.1737390000,22.3790640000 114.1738120000,22.3788640000 114.1738520000,22.3787560000 114.1739980000,22.3783320000 114.1741090000,22.3782240000 114.1743270000,22.3778350000 114.1743530000,22.3778000000 114.1744330000,22.3776890000 114.1748770000,22.3770330000 114.1751430000,22.3765960000 114.1753400000,22.3762920000 114.1754860000,22.3760660000 114.1756950000,22.3757430000 114.1757740000,22.3756100000 114.1758640000,22.3754770000 114.1760640000,22.3751610000 114.1763750000,22.3746800000 114.1766750000,22.3742330000 114.1765400000,22.3741520000 114.1764540000,22.3740930000 114.1764110000,22.3740620000 114.1761870000,22.3738900000 114.1759750000,22.3737780000 114.1758300000,22.3736750000 114.1757000000,22.3735770000 114.1755860000,22.3734560000 114.1754890000,22.3733460000 114.1753840000,22.3731860000 114.1751430000,22.3728130000 114.1749790000,22.3724690000 114.1748180000,22.3720320000 114.1747600000,22.3718580000 114.1746890000,22.3716530000 114.1746650000,22.3715850000 114.1745040000,22.3711910000 114.1743360000,22.3708080000 114.1742100000,22.3705610000 114.1740260000,22.3702380000 114.1737940000,22.3699260000 114.1734920000,22.3695240000 114.1720690000,22.3679170000 114.1719050000,22.3677360000 114.1718730000,22.3677060000 114.1717540000,22.3675940000 114.1714510000,22.3673010000 114.1712410000,22.3671300000 114.1710830000,22.3669950000 114.1705850000,22.3666650000 114.1700580000,22.3663920000 114.1696200000,22.3661870000 114.1693700000,22.3660800000 114.1690900000,22.3659700000 114.1688000000,22.3658700000 114.1679000000,22.3655600000 114.1676500000,22.3654680000 114.1674100000,22.3653700000 114.1671510000,22.3652590000 114.1668800000,22.3651200000 114.1666000000,22.3649610000 114.1663400000,22.3648000000 114.1661110000,22.3646300000 114.1658330000,22.3644190000 114.1655700000,22.3641900000 114.1652900000,22.3639200000 114.1650400000,22.3636500000 114.1647950000,22.3633420000 114.1645710000,22.3630290000 114.1644150000,22.3627810000 114.1642800000,22.3625400000 114.1641500000,22.3622800000 114.1640460000,22.3620400000 114.1638700000,22.3615800000 114.1637210000,22.3611110000 114.1635960000,22.3604240000 114.1634800000,22.3598630000 114.1633900000,22.3593350000 114.1633360000,22.3591380000 114.1631150000,22.3585280000 114.1630730000,22.3584370000 114.1629250000,22.3581210000 114.1628900000,22.3580470000 114.1628420000,22.3579440000 114.1627680000,22.3578120000 114.1612200000,22.3548600000 114.1609300000,22.3543480000 114.1606500000,22.3538990000 114.1602900000,22.3533700000 114.1598500000,22.3527830000 114.1593800000,22.3522300000 114.1588600000,22.3516800000 114.1582120000,22.3510800000 114.1575320000,22.3505200000 114.1568480000,22.3500100000 114.1560300000,22.3495000000 114.1552990000,22.3490900000 114.1545000000,22.3487000000 114.1540510000,22.3485090000 114.1536090000,22.3483400000 114.1529600000,22.3481200000 114.1525800000,22.3480000000 114.1521900000,22.3478900000 114.1514300000,22.3477100000 114.1502620000,22.3474600000 114.1499190000,22.3473730000 114.1496100000,22.3472800000 114.1491700000,22.3471300000 114.1489200000,22.3470310000 114.1486770000,22.3469230000 114.1484300000,22.3468000000 114.1482100000,22.3466700000 114.1476800000,22.3463200000 114.1473860000,22.3460910000 114.1467400000,22.3455350000 114.1464340000,22.3452630000 114.1459140000,22.3448280000 114.1457500000,22.3446990000 114.1447490000,22.3438260000 114.1443360000,22.3434030000 114.1442250000,22.3432760000 114.1441540000,22.3431810000 114.1439890000,22.3429410000 114.1439780000,22.3427690000 114.1439250000,22.3426380000 114.1438640000,22.3424660000 114.1438170000,22.3423200000 114.1437720000,22.3421500000 114.1437490000,22.3419590000 114.1437310000,22.3417240000 114.1437190000,22.3414800000 114.1437220000,22.3412930000 114.1437030000,22.3411800000 114.1436750000,22.3410510000 114.1436350000,22.3409500000 114.1435730000,22.3408290000 114.1434790000,22.3406990000 114.1433690000,22.3405890000 114.1432500000,22.3405100000 114.1431050000,22.3404250000 114.1425720000,22.3401590000 114.1418900000,22.3398290000 114.1416350000,22.3397170000 114.1414120000,22.3396590000 114.1411690000,22.3396470000 114.1408820000,22.3397130000 114.1404570000,22.3398580000 114.1401430000,22.3400240000 114.1398980000,22.3401760000 114.1391780000,22.3407220000 114.1390790000,22.3408220000 114.1387950000,22.3409890000 114.1384860000,22.3411350000 114.1381500000,22.3412550000 114.1379970000,22.3412930000 114.1378480000,22.3413160000 114.1376760000,22.3413210000 114.1374900000,22.3413090000 114.1372610000,22.3412580000 114.1370550000,22.3411850000 114.1369150000,22.3411080000 114.1367940000,22.3410270000 114.1365860000,22.3408270000 114.1363900000,22.3402970000 114.1362210000,22.3396570000 114.1361060000,22.3391020000 114.1360550000,22.3387210000 114.1360460000,22.3384780000 114.1360890000,22.3380640000 114.1360940000,22.3378930000 114.1360660000,22.3375860000 114.1360230000,22.3373800000 114.1359920000,22.3372220000 114.1358870000,22.3368620000 114.1356660000,22.3362620000 114.1355740000,22.3360490000 114.1355630000,22.3360300000 114.1354450000,22.3358220000 114.1353490000,22.3356940000 114.1352720000,22.3356130000 114.1351930000,22.3355320000 114.1350470000,22.3354150000 114.1348860000,22.3353250000 114.1347640000,22.3352680000 114.1346510000,22.3352280000 114.1345290000,22.3351850000 114.1343880000,22.3351510000 114.1342250000,22.3351310000 114.1340760000,22.3351260000 114.1338890000,22.3351310000 114.1337130000,22.3351580000 114.1335140000,22.3352100000 114.1333480000,22.3352740000 114.1331810000,22.3353580000 114.1330670000,22.3354300000 114.1329450000,22.3355330000 114.1328470000,22.3356230000 114.1327460000,22.3357410000 114.1326520000,22.3358750000 114.1325760000,22.3360100000 114.1324940000,22.3361850000 114.1324350000,22.3363490000 114.1323820000,22.3365190000 114.1322850000,22.3368750000 114.1322850000,22.3368760000 114.1322250000,22.3370820000 114.1321510000,22.3373000000 114.1320370000,22.3376300000 114.1318910000,22.3379940000 114.1317450000,22.3383260000 114.1315600000,22.3387620000 114.1312770000,22.3394790000 114.1311420000,22.3398180000 114.1310790000,22.3401370000 114.1310470000,22.3402070000 114.1308880000,22.3405740000 114.1307190000,22.3409130000 114.1305230000,22.3412450000 114.1302290000,22.3416960000 114.1300150000,22.3419730000 114.1297900000,22.3422150000 114.1296350000,22.3423570000 114.1294840000,22.3425000000 114.1293200000,22.3426370000 114.1291160000,22.3427790000 114.1288580000,22.3429320000 114.1285800000,22.3430670000 114.1282990000,22.3432080000 114.1280790000,22.3433120000 114.1275730000,22.3435180000 114.1272420000,22.3436620000 114.1269010000,22.3438300000 114.1265480000,22.3440350000 114.1261970000,22.3442850000 114.1259420000,22.3444920000 114.1256990000,22.3447270000 114.1254680000,22.3449730000 114.1252700000,22.3452380000 114.1250080000,22.3455860000 114.1248240000,22.3458870000 114.1246430000,22.3463590000 114.1244800000,22.3469000000 114.1244150000,22.3472210000 114.1243800000,22.3475480000 114.1243660000,22.3478910000 114.1243750000,22.3483980000 114.1243460000,22.3492150000 114.1242840000,22.3496110000 114.1241960000,22.3499950000 114.1240920000,22.3503190000 114.1239530000,22.3506300000 114.1237610000,22.3509160000 114.1234880000,22.3512340000 114.1230260000,22.3516520000 114.1228280000,22.3518040000 114.1226080000,22.3519350000 114.1221550000,22.3521050000 114.1217180000,22.3522390000 114.1214310000,22.3523020000 114.1211440000,22.3523490000 114.1207110000,22.3523730000 114.1203330000,22.3523730000 114.1199880000,22.3523650000 114.1194960000,22.3522790000 114.1191870000,22.3522180000 114.1188760000,22.3521210000 114.1185250000,22.3519850000 114.1181990000,22.3518490000 114.1179480000,22.3517290000 114.1175950000,22.3515240000 114.1171200000,22.3512030000 114.1167670000,22.3509350000 114.1163940000,22.3506770000 114.1161560000,22.3505160000 114.1158850000,22.3503530000 114.1156120000,22.3502090000 114.1153200000,22.3500660000 114.1151020000,22.3499700000 114.1123300000,22.3489180000 114.1121710000,22.3488580000 114.1118310000,22.3487140000 114.1114850000,22.3485670000 114.1110020000,22.3483410000 114.1108420000,22.3482640000 114.1067700000,22.3461380000 114.1065040000,22.3460130000 114.1062830000,22.3459150000 114.1060100000,22.3457980000 114.1057500000,22.3456900000 114.1055200000,22.3456000000 114.1053160000,22.3455250000 114.1050600000,22.3454400000 114.1048010000,22.3453580000 114.1045000000,22.3452660000 114.1042000000,22.3451750000 114.1039000000,22.3450920000 114.1036000000,22.3450220000 114.1033000000,22.3449580000 114.1030000000,22.3449000000 114.1026000000,22.3448350000 114.1020600000,22.3447660000 114.1017660000,22.3447330000 114.1014700000,22.3447070000 114.1011840000,22.3446860000 114.1009000000,22.3446750000 114.1003400000,22.3446570000 114.0957200000,22.3446110000 114.0956240000,22.3446120000 114.0943500000,22.3446090000 114.0939100000,22.3446010000 114.0937600000,22.3445980000 114.0932450000,22.3446000000 114.0929810000,22.3446070000 114.0927640000,22.3446250000 114.0924930000,22.3446550000 114.0921460000,22.3447160000 114.0920330000,22.3447350000 114.0918930000,22.3447670000 114.0917140000,22.3448180000 114.0915160000,22.3448850000 114.0912310000,22.3449890000 114.0909600000,22.3451060000 114.0906860000,22.3452240000 114.0903900000,22.3453580000 114.0901860000,22.3454620000 114.0897600000,22.3456670000 114.0895210000,22.3457890000 114.0893050000,22.3459100000 114.0889220000,22.3461740000 114.0885700000,22.3464410000 114.0882590000,22.3467350000 114.0881270000,22.3468140000 114.0878070000,22.3471650000 114.0875500000,22.3475690000 114.0873430000,22.3479580000 114.0871970000,22.3483340000 114.0870280000,22.3489680000 114.0868630000,22.3496330000 114.0867930000,22.3498930000 114.0865870000,22.3504190000 114.0865280000,22.3505640000 114.0864710000,22.3507950000 114.0864130000,22.3509630000 114.0863090000,22.3511870000 114.0860160000,22.3517900000 114.0857050000,22.3523210000 114.0855330000,22.3525550000 114.0852520000,22.3528710000 114.0849440000,22.3532050000 114.0847070000,22.3533890000 114.0845530000,22.3534650000 114.0844510000,22.3535070000 114.0842000000,22.3535790000 114.0840930000,22.3536050000 114.0839280000,22.3536290000 114.0838220000,22.3536690000 114.0836610000,22.3536670000 114.0834020000,22.3536380000 114.0831240000,22.3535860000 114.0828450000,22.3535210000 114.0825230000,22.3534300000 114.0822660000,22.3533590000 114.0818300000,22.3532420000 114.0809620000,22.3530000000 114.0807580000,22.3529290000 114.0628910000,22.3479420000 114.0621920000,22.3477430000 114.0617970000,22.3476210000 114.0613990000,22.3474890000 114.0610110000,22.3473460000 114.0606270000,22.3471880000 114.0602360000,22.3470150000 114.0598750000,22.3468400000 114.0595140000,22.3466480000 114.0591600000,22.3464470000 114.0588470000,22.3462540000 114.0585430000,22.3460600000 114.0525500000,22.3421550000 114.0519850000,22.3418020000 114.0517420000,22.3416520000 114.0514980000,22.3415220000 114.0511970000,22.3413840000 114.0509050000,22.3412690000 114.0504640000,22.3411370000 114.0501150000,22.3410650000 114.0496320000,22.3409870000 114.0488040000,22.3409060000 114.0482030000,22.3408520000 114.0472620000,22.3407500000 114.0466410000,22.3406480000 114.0460530000,22.3405040000 114.0458190000,22.3404340000 114.0456190000,22.3403700000 114.0453110000,22.3402400000 114.0449720000,22.3400670000 114.0440850000,22.3395510000 114.0433240000,22.3391420000 114.0432650000,22.3391110000 114.0432120000,22.3390820000 114.0430710000,22.3390060000 114.0404020000,22.3378420000 114.0397780000,22.3375450000 114.0396710000,22.3375010000 114.0393360000,22.3373640000 114.0391310000,22.3372900000 114.0390890000,22.3372750000 114.0387840000,22.3371820000 114.0384720000,22.3371100000 114.0380410000,22.3370070000 114.0375410000,22.3369040000 114.0371380000,22.3368240000 114.0367080000,22.3367090000 114.0364270000,22.3366290000 114.0362160000,22.3365560000 114.0357730000,22.3363950000 114.0352720000,22.3361990000 114.0347250000,22.3359550000 114.0342730000,22.3357320000 114.0338990000,22.3355020000 114.0333890000,22.3351500000 114.0328770000,22.3347490000 114.0324430000,22.3343380000 114.0299060000,22.3319080000 114.0272230000,22.3293370000 114.0265270000,22.3286850000 114.0251240000,22.3273490000 114.0247260000,22.3270220000 114.0244480000,22.3267970000 114.0243000000,22.3266910000 114.0239930000,22.3264980000 114.0235970000,22.3262700000 114.0230920000,22.3260010000 114.0226320000,22.3257790000 114.0218850000,22.3254810000 114.0213490000,22.3253080000 114.0208380000,22.3251670000 114.0203120000,22.3250680000 114.0198860000,22.3249950000 114.0194280000,22.3249350000 114.0189490000,22.3248840000 114.0184730000,22.3248690000 114.0179280000,22.3248690000 114.0157280000,22.3250250000 114.0151360000,22.3250500000 114.0146250000,22.3250580000 114.0140290000,22.3250370000 114.0134250000,22.3249950000 114.0129230000,22.3249450000 114.0124980000,22.3248840000 114.0120280000,22.3247880000 114.0109800000,22.3245210000 114.0104470000,22.3243410000 114.0099940000,22.3241710000 114.0092210000,22.3238440000 114.0073390000,22.3230500000 114.0030460000,22.3210970000 114.0022110000,22.3207110000 114.0018700000,22.3205380000 114.0015450000,22.3203740000 114.0012450000,22.3202230000 114.0009200000,22.3200340000 114.0006410000,22.3198590000 114.0004230000,22.3197030000 114.0001470000,22.3195040000 113.9998380000,22.3192620000 113.9994860000,22.3189590000 113.9992090000,22.3186870000 113.9989500000,22.3184190000 113.9985960000,22.3180270000 113.9983040000,22.3176570000 113.9980000000,22.3172060000 113.9977570000,22.3168210000 113.9974960000,22.3163870000 113.9973020000,22.3160790000 113.9971020000,22.3157770000 113.9968930000,22.3154780000 113.9966240000,22.3151180000 113.9964650000,22.3149000000 113.9961560000,22.3145280000 113.9959240000,22.3142630000 113.9957120000,22.3140280000 113.9954890000,22.3137910000 113.9951210000,22.3134260000 113.9948160000,22.3131480000 113.9944550000,22.3128470000 113.9940660000,22.3125250000 113.9937300000,22.3122730000 113.9933570000,22.3120010000 113.9929640000,22.3117410000 113.9926010000,22.3115140000 113.9877960000,22.3087560000 113.9856810000,22.3074790000 113.9851170000,22.3071400000 113.9844290000,22.3067090000 113.9830200000,22.3056350000 113.9824930000,22.3051920000 113.9819610000,22.3047570000 113.9815660000,22.3044560000 113.9809100000,22.3039300000 113.9794500000,22.3028000000 113.9787200000,22.3022900000 113.9777300000,22.3017600000 113.9770100000,22.3014600000 113.9763500000,22.3012400000 113.9760700000,22.3011570000 113.9758600000,22.3011090000 113.9756400000,22.3010780000 113.9754300000,22.3010650000 113.9752610000,22.3010700000 113.9750690000,22.3010940000 113.9749000000,22.3011300000 113.9746000000,22.3012100000 113.9735590000,22.3015550000 113.9730210000,22.3017830000 113.9721740000,22.3021930000 113.9714830000,22.3025690000 113.9700320000,22.3034210000 113.9692830000,22.3038730000 113.9686450000,22.3042280000 113.9602570000,22.3092190000 113.9597550000,22.3094460000 113.9591860000,22.3097390000 113.9585230000,22.3100990000 113.9578700000,22.3104190000 113.9571210000,22.3107980000 113.9567830000,22.3109450000 113.9564340000,22.3110560000 113.9559380000,22.3111630000 113.9553750000,22.3112750000 113.9549110000,22.3113900000 113.9545590000,22.3114980000 113.9539460000,22.3117630000 113.9537640000,22.3119040000 113.9536150000,22.3120250000 113.9534380000,22.3121800000 113.9532760000,22.3123870000 113.9531300000,22.3126170000 113.9529470000,22.3129610000 113.9528290000,22.3131730000 113.9527390000,22.3133320000 113.9526630000,22.3134440000 113.9525540000,22.3135460000 113.9524400000,22.3136040000 113.9522650000,22.3137110000 113.9521490000,22.3137600000 113.9520570000,22.3137900000 113.9519550000,22.3138130000 113.9518290000,22.3138230000 113.9516630000,22.3138290000 113.9514130000,22.3138630000 113.9508680000,22.3140050000 113.9497780000,22.3142950000 113.9495940000,22.3143530000 113.9492790000,22.3144580000 113.9491460000,22.3145140000 113.9490060000,22.3145920000 113.9489430000,22.3146720000 113.9488600000,22.3148080000 113.9488030000,22.3149580000 113.9488060000,22.3151360000 113.9488330000,22.3152910000 113.9488990000,22.3154430000 113.9489790000,22.3155770000 113.9490920000,22.3157180000 113.9491880000,22.3158580000 113.9495720000,22.3170230000 113.9496280000,22.3171810000 113.9496780000,22.3173250000 113.9501390000,22.3171990000 113.9504040000,22.3171290000 113.9505550000,22.3170890000 113.9506480000,22.3170640000 113.9507680000,22.3170320000 113.9508990000,22.3169990000 113.9510940000,22.3168030000 113.9518690000,22.3165870000 113.9522530000,22.3164860000 113.9522110000,22.3163350000 113.9520810000,22.3159090000 113.9519740000,22.3155380000 113.9518730000,22.3152100000 113.9518500000,22.3150640000 113.9518300000,22.3149280000 113.9518170000,22.3148070000 113.9518040000,22.3146220000 113.9517870000,22.3144950000 113.9517630000,22.3143990000 113.9517060000,22.3142840000 113.9515850000,22.3141770000 113.9514950000,22.3141040000 113.9513570000,22.3141010000 113.9511220000,22.3141260000 113.9499210000,22.3144440000 113.9498100000,22.3145060000 113.9497090000,22.3145800000 113.9495520000,22.3146520000 113.9494600000,22.3146980000 113.9493200000,22.3147950000 113.9492230000,22.3148720000 113.9491250000,22.3149470000 113.9490130000,22.3150000000 113.9488360000,22.3150500000 113.9486920000,22.3150710000 113.9485540000,22.3150620000 113.9483900000,22.3150140000 113.9482450000,22.3149220000 113.9481940000,22.3146840000 113.9482050000,22.3145570000 113.9482350000,22.3144660000 113.9482780000,22.3143960000 113.9483420000,22.3143340000 113.9484350000,22.3142750000 113.9485380000,22.3142240000 113.9486570000,22.3141840000 113.9487920000,22.3141480000 113.9489400000,22.3141160000 113.9490620000,22.3140900000 113.9491720000,22.3140640000 113.9493820000,22.3140100000 113.9498910000,22.3138880000 113.9506120000,22.3137000000 113.9510150000,22.3135790000 113.9512710000,22.3134980000 113.9514080000,22.3134430000 113.9515840000,22.3133680000 113.9519440000,22.3131620000 113.9524660000,22.3128930000 113.9531640000,22.3125470000 113.9540780000,22.3121270000 113.9544850000,22.3120520000 113.9547020000,22.3120280000 113.9549450000,22.3119970000 113.9551730000,22.3119890000 113.9554450000,22.3119890000 113.9558620000,22.3120320000 113.9565710000,22.3122190000 113.9567790000,22.3122390000 113.9571060000,22.3122680000 113.9575180000,22.3122250000 113.9578440000,22.3121490000 113.9581670000,22.3120470000 113.9585370000,22.3118530000 113.9589250000,22.3115190000 113.9592610000,22.3110290000 113.9595900000,22.3104420000 113.9597550000,22.3101550000 113.9599910000,22.3098730000 113.9602590000,22.3096190000 113.9606130000,22.3093570000 113.9610490000,22.3089490000 113.9683380000,22.3046070000 113.9687760000,22.3043090000 113.9696660000,22.3037900000 113.9704090000,22.3033300000 113.9709300000,22.3030600000 113.9713800000,22.3028700000 113.9716780000,22.3027600000 113.9719500000,22.3026710000 113.9723500000,22.3025580000 113.9727700000,22.3024500000 113.9732400000,22.3023500000 113.9745890000,22.3021080000 113.9748610000,22.3020620000 113.9751700000,22.3020300000 113.9753200000,22.3020270000 113.9755500000,22.3020400000 113.9757300000,22.3020680000 113.9759000000,22.3021090000 113.9760600000,22.3021600000 113.9762200000,22.3022300000 113.9765550000,22.3024100000 113.9788190000,22.3038260000 113.9805060000,22.3047800000 113.9824910000,22.3057870000 113.9837140000,22.3064070000 113.9843200000,22.3067900000 113.9850400000,22.3072450000 113.9856060000,22.3075890000 113.9877310000,22.3088640000 113.9925320000,22.3116130000 113.9928940000,22.3118400000 113.9932800000,22.3121080000 113.9936540000,22.3123690000 113.9939850000,22.3126240000 113.9943640000,22.3129400000 113.9947170000,22.3132380000 113.9950160000,22.3135030000 113.9953880000,22.3138680000 113.9956090000,22.3141060000 113.9958140000,22.3143200000 113.9960710000,22.3146170000 113.9963520000,22.3149690000 113.9965180000,22.3151920000 113.9967760000,22.3155490000 113.9969850000,22.3158460000 113.9971800000,22.3161470000 113.9973750000,22.3164580000 113.9976390000,22.3168830000 113.9978800000,22.3172650000 113.9981960000,22.3177340000 113.9984880000,22.3181120000 113.9988430000,22.3185050000 113.9990980000,22.3187760000 113.9994070000,22.3190820000 114.0000590000,22.3196040000 114.0003390000,22.3198090000 114.0005530000,22.3199570000 114.0008490000,22.3201550000 114.0011770000,22.3203390000 114.0014940000,22.3205080000 114.0018710000,22.3206920000 114.0022100000,22.3208580000 114.0029710000,22.3212190000 114.0091410000,22.3239620000 114.0099340000,22.3243030000 114.0104060000,22.3244710000 114.0109360000,22.3246490000 114.0119840000,22.3249220000 114.0124700000,22.3250190000 114.0129110000,22.3250790000 114.0134120000,22.3251210000 114.0140080000,22.3251570000 114.0146170000,22.3251700000 114.0151360000,22.3251530000 114.0157200000,22.3251290000 114.0179230000,22.3249950000 114.0184700000,22.3249970000 114.0189250000,22.3250100000 114.0194170000,22.3250510000 114.0198690000,22.3251110000 114.0202650000,22.3251710000 114.0207940000,22.3252890000 114.0213080000,22.3254290000 114.0218170000,22.3256010000 114.0225660000,22.3258960000 114.0230280000,22.3261070000 114.0235650000,22.3263960000 114.0239050000,22.3266040000 114.0242100000,22.3268090000 114.0243490000,22.3269190000 114.0246080000,22.3271220000 114.0247390000,22.3272290000 114.0253400000,22.3277860000 114.0260460000,22.3284120000 114.0264620000,22.3287970000 114.0297800000,22.3320070000 114.0323360000,22.3344360000 114.0327820000,22.3348390000 114.0333080000,22.3352490000 114.0338240000,22.3356090000 114.0341940000,22.3358400000 114.0344370000,22.3359930000 114.0347430000,22.3361510000 114.0350240000,22.3362900000 114.0355250000,22.3365430000 114.0360790000,22.3367460000 114.0366460000,22.3369090000 114.0370510000,22.3370060000 114.0374980000,22.3370760000 114.0380100000,22.3371620000 114.0384370000,22.3372490000 114.0388250000,22.3373460000 114.0392640000,22.3374860000 114.0397170000,22.3376620000 114.0403300000,22.3379590000 114.0409450000,22.3382610000 114.0429330000,22.3394340000 114.0429870000,22.3394590000 114.0430440000,22.3394870000 114.0430990000,22.3395140000 114.0438450000,22.3398740000 114.0438770000,22.3398890000 114.0444670000,22.3401500000 114.0450310000,22.3403730000 114.0457530000,22.3405940000 114.0460570000,22.3406770000 114.0466800000,22.3408170000 114.0473730000,22.3409100000 114.0482450000,22.3409950000 114.0487620000,22.3410670000 114.0496140000,22.3411750000 114.0500720000,22.3412490000 114.0504120000,22.3413120000 114.0508330000,22.3414360000 114.0511730000,22.3415610000 114.0514230000,22.3416710000 114.0516610000,22.3417990000 114.0518850000,22.3419290000 114.0520460000,22.3420240000 114.0524520000,22.3422840000 114.0584460000,22.3461890000 114.0587520000,22.3463840000 114.0590690000,22.3465800000 114.0594270000,22.3467830000 114.0597930000,22.3469780000 114.0601590000,22.3471560000 114.0605560000,22.3473310000 114.0609450000,22.3474910000 114.0613390000,22.3476360000 114.0617410000,22.3477700000 114.0621400000,22.3478920000 114.0628380000,22.3480920000 114.0807100000,22.3530780000 114.0815240000,22.3533110000 114.0817130000,22.3533370000 114.0825070000,22.3535570000 114.0828080000,22.3536310000 114.0830850000,22.3536960000 114.0833800000,22.3537460000 114.0836480000,22.3537770000 114.0838530000,22.3537890000 114.0840990000,22.3538070000 114.0843340000,22.3537900000 114.0845590000,22.3537530000 114.0847590000,22.3536900000 114.0850840000,22.3536160000 114.0853340000,22.3534990000 114.0855760000,22.3533940000 114.0857780000,22.3532990000 114.0860090000,22.3531720000 114.0862760000,22.3529890000 114.0864600000,22.3528230000 114.0865510000,22.3527150000 114.0866880000,22.3524630000 114.0867870000,22.3522310000 114.0868490000,22.3520120000 114.0869280000,22.3516520000 114.0870480000,22.3510910000 114.0872340000,22.3503380000 114.0873310000,22.3499450000 114.0874450000,22.3495580000 114.0875270000,22.3492110000 114.0876060000,22.3488610000 114.0876940000,22.3485230000 114.0877910000,22.3482780000 114.0879050000,22.3480430000 114.0879870000,22.3479050000 114.0880460000,22.3478070000 114.0881770000,22.3476000000 114.0883540000,22.3473750000 114.0884380000,22.3472640000 114.0887110000,22.3469720000 114.0887280000,22.3469380000 114.0889780000,22.3467510000 114.0892720000,22.3465590000 114.0898710000,22.3462360000 114.0904280000,22.3459560000 114.0909630000,22.3456820000 114.0913410000,22.3455040000 114.0917190000,22.3453490000 114.0921550000,22.3452070000 114.0926230000,22.3450940000 114.0931090000,22.3450000000 114.0933720000,22.3449740000 114.0939120000,22.3449600000 114.0941750000,22.3449550000 114.0952440000,22.3449500000 114.0957200000,22.3449460000 114.1004000000,22.3449930000 114.1010700000,22.3450180000 114.1014000000,22.3450400000 114.1017300000,22.3450680000 114.1020600000,22.3451030000 114.1023900000,22.3451480000 114.1030400000,22.3452500000 114.1033000000,22.3453000000 114.1035300000,22.3453500000 114.1037300000,22.3453950000 114.1038810000,22.3454310000 114.1040300000,22.3454700000 114.1042020000,22.3455180000 114.1043800000,22.3455700000 114.1046900000,22.3456680000 114.1049680000,22.3457620000 114.1051600000,22.3458300000 114.1053500000,22.3459000000 114.1056800000,22.3460270000 114.1060000000,22.3461600000 114.1066070000,22.3464420000 114.1092280000,22.3478020000 114.1094000000,22.3478900000 114.1094990000,22.3479370000 114.1095990000,22.3479820000 114.1098100000,22.3480700000 114.1100000000,22.3481490000 114.1103700000,22.3483000000 114.1107080000,22.3484390000 114.1112560000,22.3486440000 114.1114010000,22.3486980000 114.1121180000,22.3489710000 114.1121940000,22.3489990000 114.1150360000,22.3500680000 114.1152660000,22.3501660000 114.1155460000,22.3503070000 114.1158280000,22.3504570000 114.1160890000,22.3506120000 114.1163380000,22.3507780000 114.1166890000,22.3510310000 114.1170420000,22.3512980000 114.1174180000,22.3515670000 114.1177500000,22.3517760000 114.1179500000,22.3518880000 114.1181630000,22.3519900000 114.1185390000,22.3521520000 114.1187440000,22.3522270000 114.1189890000,22.3523010000 114.1192310000,22.3523660000 114.1195060000,22.3524250000 114.1197310000,22.3524620000 114.1199660000,22.3524930000 114.1204150000,22.3525210000 114.1208080000,22.3525130000 114.1212930000,22.3524700000 114.1214870000,22.3524420000 114.1216850000,22.3524020000 114.1220080000,22.3523000000 114.1223600000,22.3521610000 114.1225800000,22.3520590000 114.1227700000,22.3519640000 114.1230910000,22.3517690000 114.1234160000,22.3514980000 114.1237280000,22.3512190000 114.1239480000,22.3509410000 114.1241480000,22.3506360000 114.1243000000,22.3503120000 114.1244440000,22.3499020000 114.1244990000,22.3496360000 114.1245460000,22.3490950000 114.1245370000,22.3484120000 114.1245330000,22.3480180000 114.1245490000,22.3476170000 114.1246110000,22.3472070000 114.1247310000,22.3467150000 114.1248690000,22.3463550000 114.1250230000,22.3459890000 114.1252280000,22.3456200000 114.1254330000,22.3453410000 114.1256160000,22.3450810000 114.1258580000,22.3448130000 114.1260660000,22.3446100000 114.1265330000,22.3442760000 114.1269240000,22.3440300000 114.1272820000,22.3438400000 114.1276470000,22.3436840000 114.1281270000,22.3434690000 114.1283770000,22.3433460000 114.1286560000,22.3432050000 114.1289710000,22.3430190000 114.1291870000,22.3428750000 114.1294020000,22.3427320000 114.1295670000,22.3426040000 114.1297310000,22.3424680000 114.1298900000,22.3423150000 114.1301370000,22.3420730000 114.1303630000,22.3417950000 114.1306770000,22.3413100000 114.1308700000,22.3409770000 114.1310190000,22.3406270000 114.1311910000,22.3402610000 114.1313730000,22.3398820000 114.1316030000,22.3395690000 114.1317430000,22.3393020000 114.1319650000,22.3389160000 114.1321860000,22.3385200000 114.1323490000,22.3381980000 114.1325610000,22.3378840000 114.1326820000,22.3377160000 114.1328200000,22.3375310000 114.1329340000,22.3373860000 114.1330520000,22.3372410000 114.1331650000,22.3371070000 114.1332900000,22.3369690000 114.1334200000,22.3368390000 114.1335610000,22.3367200000 114.1337120000,22.3366090000 114.1338480000,22.3365500000 114.1340050000,22.3365000000 114.1341740000,22.3364620000 114.1344000000,22.3364560000 114.1345610000,22.3364620000 114.1347270000,22.3364910000 114.1349060000,22.3365550000 114.1350520000,22.3366250000 114.1351610000,22.3366910000 114.1352190000,22.3367330000 114.1352480000,22.3367540000 114.1354760000,22.3369650000 114.1355560000,22.3370680000 114.1356470000,22.3372250000 114.1357230000,22.3373780000 114.1357810000,22.3375990000 114.1358180000,22.3378430000 114.1358070000,22.3382780000 114.1358140000,22.3386480000 114.1358400000,22.3389990000 114.1359170000,22.3392970000 114.1359950000,22.3396130000 114.1362150000,22.3404640000 114.1362940000,22.3406170000 114.1363760000,22.3407570000 114.1364990000,22.3409230000 114.1366610000,22.3410740000 114.1368110000,22.3411900000 114.1369940000,22.3412930000 114.1371900000,22.3413630000 114.1374620000,22.3414190000 114.1376640000,22.3414410000 114.1378490000,22.3414330000 114.1380060000,22.3414150000 114.1381830000,22.3413640000 114.1385290000,22.3413040000 114.1388510000,22.3411530000 114.1391580000,22.3409910000 114.1402440000,22.3403050000 114.1404770000,22.3401560000 114.1407580000,22.3400730000 114.1410040000,22.3400500000 114.1411740000,22.3400520000 114.1414380000,22.3401090000 114.1416410000,22.3402150000 114.1417950000,22.3403170000 114.1422470000,22.3407150000 114.1426830000,22.3410890000 114.1429160000,22.3413110000 114.1430330000,22.3414380000 114.1431130000,22.3415580000 114.1432000000,22.3417070000 114.1434040000,22.3422780000 114.1435310000,22.3426230000 114.1436780000,22.3429290000 114.1438480000,22.3431950000 114.1440010000,22.3433690000 114.1442130000,22.3435190000 114.1446410000,22.3439360000 114.1446680000,22.3439610000 114.1450020000,22.3442660000 114.1456120000,22.3448340000 114.1456970000,22.3449100000 114.1457520000,22.3449590000 114.1459200000,22.3451230000 114.1462480000,22.3454420000 114.1464890000,22.3456780000 114.1466010000,22.3457880000 114.1467590000,22.3459330000 114.1471820000,22.3463170000 114.1472160000,22.3463480000 114.1474870000,22.3465700000 114.1478600000,22.3468200000 114.1480950000,22.3469660000 114.1483600000,22.3471100000 114.1486310000,22.3472480000 114.1488980000,22.3473630000 114.1492700000,22.3475000000 114.1496380000,22.3476140000 114.1500690000,22.3477270000 114.1514100000,22.3480100000 114.1518200000,22.3481100000 114.1522400000,22.3482220000 114.1530420000,22.3484880000 114.1535900000,22.3486900000 114.1539920000,22.3488590000 114.1543900000,22.3490400000 114.1551890000,22.3494300000 114.1558680000,22.3498200000 114.1566010000,22.3503100000 114.1572490000,22.3507900000 114.1579200000,22.3513500000 114.1585400000,22.3519300000 114.1590400000,22.3524600000 114.1595110000,22.3530080000 114.1599400000,22.3535800000 114.1602900000,22.3540900000 114.1605600000,22.3545100000 114.1608500000,22.3550100000 114.1623980000,22.3579800000 114.1625210000,22.3582490000 114.1625870000,22.3583930000 114.1627360000,22.3588130000 114.1628590000,22.3592180000 114.1629260000,22.3594490000 114.1629340000,22.3595080000 114.1629720000,22.3596720000 114.1631730000,22.3602900000 114.1632390000,22.3604030000 114.1633070000,22.3606700000 114.1634310000,22.3611520000 114.1634400000,22.3611800000 114.1635500000,22.3616200000 114.1637400000,22.3621300000 114.1639800000,22.3626430000 114.1642800000,22.3631500000 114.1646150000,22.3636200000 114.1648070000,22.3638500000 114.1650150000,22.3640800000 114.1653090000,22.3643700000 114.1656400000,22.3646600000 114.1659100000,22.3648700000 114.1661810000,22.3650580000 114.1666820000,22.3653600000 114.1670970000,22.3655600000 114.1675900000,22.3657700000 114.1679900000,22.3659120000 114.1688000000,22.3661700000 114.1690800000,22.3662700000 114.1693300000,22.3663700000 114.1695600000,22.3664700000 114.1699900000,22.3666700000 114.1704540000,22.3668960000 114.1706150000,22.3669890000 114.1709500000,22.3672100000 114.1710980000,22.3673240000 114.1713030000,22.3674350000 114.1715850000,22.3676450000 114.1717410000,22.3677870000 114.1717980000,22.3678320000 114.1719980000,22.3680040000 114.1733920000,22.3695940000 114.1736900000,22.3699800000 114.1739100000,22.3702970000 114.1740480000,22.3705280000 114.1742220000,22.3708570000 114.1743380000,22.3711720000 114.1744830000,22.3716770000 114.1744980000,22.3717300000 114.1746150000,22.3720910000 114.1747560000,22.3725380000 114.1752980000,22.3736760000 114.1754220000,22.3742500000 114.1755410000,22.3746230000 114.1757350000,22.3754690000 114.1757930000,22.3757000000 114.1758790000,22.3759140000 114.1759610000,22.3760750000 114.1760240000,22.3762730000 114.1760190000,22.3763660000 114.1759940000,22.3764690000 114.1759530000,22.3765390000 114.1758990000,22.3765910000 114.1757950000,22.3766380000 114.1756610000,22.3766360000 114.1754940000,22.3766220000 114.1751430000,22.3765960000 114.1750100000,22.3766000000 114.1744140000,22.3775610000 114.1743490000,22.3776540000 114.1742850000,22.3777590000 114.1742120000,22.3778750000 114.1740440000,22.3781970000 114.1739980000,22.3783320000 114.1738520000,22.3787560000 114.1738120000,22.3788640000 114.1737390000,22.3790640000 114.1736990000,22.3792500000 114.1736510000,22.3794640000 114.1736550000,22.3795080000 114.1736700000,22.3796640000 114.1736930000,22.3798140000 114.1737340000,22.3799420000 114.1738810000,22.3801570000 114.1740500000,22.3803310000 114.1742730000,22.3804780000 114.1745200000,22.3805700000 114.1745810000,22.3805860000 114.1746890000,22.3806150000 114.1748630000,22.3806460000 114.1751940000,22.3806510000 114.1755230000,22.3805820000 114.1757630000,22.3804610000 114.1759240000,22.3803330000 114.1761440000,22.3800340000 114.1761770000,22.3800510000 114.1762220000,22.3800640000 114.1762740000,22.3800660000 114.1763240000,22.3800620000 114.1763670000,22.3800400000 114.1763670000,22.3800400000 114.1763970000,22.3800050000 114.1764160000,22.3799680000 114.1764180000,22.3799300000 114.1764090000,22.3798860000 114.1763840000,22.3798370000 114.1763450000,22.3797960000 114.1762400000,22.3799100000 114.1762080000,22.3799490000 114.1761440000,22.3800340000 114.1759240000,22.3803330000 114.1757630000,22.3804610000 114.1755230000,22.3805820000 114.1751940000,22.3806510000 114.1748630000,22.3806460000 114.1746890000,22.3806150000 114.1745810000,22.3805860000 114.1745200000,22.3805700000 114.1742730000,22.3804780000 114.1740500000,22.3803310000 114.1738810000,22.3801570000 114.1737340000,22.3799420000 114.1736930000,22.3798140000 114.1736700000,22.3796640000 114.1736550000,22.3795080000 114.1736510000,22.3794640000 114.1736990000,22.3792500000 114.1737390000,22.3790640000 114.1738120000,22.3788640000 114.1738520000,22.3787560000 114.1739980000,22.3783320000 114.1741090000,22.3782240000 114.1743270000,22.3778350000 114.1743530000,22.3778000000 114.1744330000,22.3776890000 114.1748770000,22.3770330000 114.1751430000,22.3765960000 114.1750100000,22.3766000000 114.1747820000,22.3766100000 114.1745040000,22.3766460000 114.1743400000,22.3767020000 114.1742260000,22.3767600000 114.1741320000,22.3768390000 114.1740570000,22.3769520000 114.1740140000,22.3770710000 114.1739820000,22.3772580000 114.1739730000,22.3772950000 114.1739680000,22.3773120000 114.1739650000,22.3773320000 114.1739150000,22.3774020000 114.1738910000,22.3774180000 114.1738160000,22.3774510000 114.1738080000,22.3774540000 114.1734860000,22.3774080000 114.1730260000,22.3773170000 114.1730330000,22.3773200000 114.1724510000,22.3771360000 114.1720800000,22.3770190000 114.1709950000,22.3766390000 114.1703630000,22.3764000000 114.1701690000,22.3763250000 114.1697570000,22.3761690000 114.1696540000,22.3761300000 114.1696400000,22.3761250000 114.1691030000,22.3759320000 114.1690340000,22.3758820000 114.1690020000,22.3758150000 114.1689750000,22.3757110000 114.1689400000,22.3756860000</coordinates>
                </LineString>
                <ExtendedData>
                    <Data name="duration">
                        <value>01:17:05</value>
                    </Data>
                    <Data name="length">
                        <value>66138.70317474642</value>
                    </Data>
                </ExtendedData>
            </Placemark>
        </Document>
    </Document>
</kml>