<?xml version="1.0" encoding="UTF-8"?>
<kml xmlns="http://www.opengis.net/kml/2.2" xmlns:gx="http://www.google.com/kml/ext/2.2">
    <Document>
        <name>Route</name>
        <Folder>
            <name>Route Request</name>
            <Placemark>
                <Point>
                    <coordinates>114.2246563303,22.2852516245</coordinates>
                </Point>
                <ExtendedData>
                    <Data name="routingVisited">
                        <value>false</value>
                    </Data>
                </ExtendedData>
            </Placemark>
            <Placemark>
                <Point>
                    <coordinates>114.2155576152,22.2845500155</coordinates>
                </Point>
                <ExtendedData>
                    <Data name="routingVisited">
                        <value>false</value>
                    </Data>
                </ExtendedData>
            </Placemark>
            <Placemark>
                <Point>
                    <coordinates>114.1859055943,22.2775140379</coordinates>
                </Point>
                <ExtendedData>
                    <Data name="routingVisited">
                        <value>false</value>
                    </Data>
                </ExtendedData>
            </Placemark>
            <Placemark>
                <Point>
                    <coordinates>114.1754500390,22.2768547263</coordinates>
                </Point>
                <ExtendedData>
                    <Data name="routingVisited">
                        <value>false</value>
                    </Data>
                </ExtendedData>
            </Placemark>
            <Placemark>
                <Point>
                    <coordinates>114.1580196378,22.2830506065</coordinates>
                </Point>
            </Placemark>
            <Placemark>
                <Point>
                    <coordinates>114.1539983853,22.2867318713</coordinates>
                </Point>
                <ExtendedData>
                    <Data name="routingVisited">
                        <value>false</value>
                    </Data>
                </ExtendedData>
            </Placemark>
            <Placemark>
                <Point>
                    <coordinates>114.1688615702,22.3213759292</coordinates>
                </Point>
                <ExtendedData>
                    <Data name="routingVisited">
                        <value>false</value>
                    </Data>
                </ExtendedData>
            </Placemark>
            <Placemark>
                <Point>
                    <coordinates>114.1544969524,22.3366800837</coordinates>
                </Point>
                <ExtendedData>
                    <Data name="routingVisited">
                        <value>false</value>
                    </Data>
                </ExtendedData>
            </Placemark>
            <Placemark>
                <Point>
                    <coordinates>114.1514857771,22.3289165341</coordinates>
                </Point>
                <ExtendedData>
                    <Data name="routingVisited">
                        <value>false</value>
                    </Data>
                </ExtendedData>
            </Placemark>
            <Placemark>
                <Point>
                    <coordinates>114.1556952067,22.3359453437</coordinates>
                </Point>
            </Placemark>
            <Placemark>
                <Point>
                    <coordinates>114.1686415757,22.3235512538</coordinates>
                </Point>
            </Placemark>
            <Placemark>
                <Point>
                    <coordinates>114.1717014954,22.3068947808</coordinates>
                </Point>
                <ExtendedData>
                    <Data name="routingVisited">
                        <value>false</value>
                    </Data>
                </ExtendedData>
            </Placemark>
            <Placemark>
                <Point>
                    <coordinates>114.1578737335,22.2869436748</coordinates>
                </Point>
                <ExtendedData>
                    <Data name="routingVisited">
                        <value>false</value>
                    </Data>
                </ExtendedData>
            </Placemark>
            <Placemark>
                <Point>
                    <coordinates>114.1912021337,22.2822638246</coordinates>
                </Point>
            </Placemark>
            <Placemark>
                <Point>
                    <coordinates>114.2183212632,22.2850624451</coordinates>
                </Point>
            </Placemark>
            <Placemark>
                <Point>
                    <coordinates>114.2247150602,22.2851966864</coordinates>
                </Point>
                <ExtendedData>
                    <Data name="routingVisited">
                        <value>false</value>
                    </Data>
                </ExtendedData>
            </Placemark>
        </Folder>
        <Document>
            <name>43.0 km; 00:55 h (OSRM)</name>
            <Placemark>
                <name>Route</name>
                <LineString>
                    <coordinates>114.2246010000,22.2852010000 114.2250140000,22.2848190000 114.2250140000,22.2847870000 114.2248820000,22.2846650000 114.2248120000,22.2845980000 114.2247150000,22.2845090000 114.2246300000,22.2844180000 114.2246180000,22.2844050000 114.2245920000,22.2843800000 114.2245470000,22.2843370000 114.2246000000,22.2842870000 114.2242920000,22.2839960000 114.2239530000,22.2836760000 114.2235520000,22.2833100000 114.2234700000,22.2832350000 114.2234210000,22.2831890000 114.2233600000,22.2831340000 114.2232320000,22.2830210000 114.2231990000,22.2829900000 114.2230870000,22.2828800000 114.2230710000,22.2828650000 114.2230630000,22.2828560000 114.2230500000,22.2828440000 114.2229740000,22.2827720000 114.2229100000,22.2827240000 114.2227960000,22.2826470000 114.2226230000,22.2825280000 114.2225770000,22.2824960000 114.2224410000,22.2823990000 114.2223970000,22.2823670000 114.2222020000,22.2822340000 114.2221620000,22.2822170000 114.2220490000,22.2821710000 114.2219780000,22.2821440000 114.2218900000,22.2821170000 114.2218650000,22.2821120000 114.2218180000,22.2821090000 114.2217610000,22.2821820000 114.2215420000,22.2824650000 114.2212900000,22.2827900000 114.2212030000,22.2828980000 114.2211280000,22.2829910000 114.2209590000,22.2832080000 114.2208720000,22.2833270000 114.2206720000,22.2835830000 114.2205490000,22.2837380000 114.2200900000,22.2843030000 114.2200800000,22.2843170000 114.2200130000,22.2843980000 114.2199520000,22.2844710000 114.2199080000,22.2845200000 114.2198680000,22.2845620000 114.2198140000,22.2846060000 114.2197520000,22.2846470000 114.2196810000,22.2846880000 114.2196080000,22.2847260000 114.2195070000,22.2847710000 114.2193900000,22.2848080000 114.2192710000,22.2848380000 114.2191350000,22.2848640000 114.2189620000,22.2848800000 114.2188380000,22.2848850000 114.2186930000,22.2848790000 114.2185050000,22.2848580000 114.2183270000,22.2848280000 114.2180130000,22.2847520000 114.2178720000,22.2847160000 114.2174830000,22.2846240000 114.2172680000,22.2845900000 114.2170510000,22.2845630000 114.2167690000,22.2845540000 114.2157680000,22.2845600000 114.2156560000,22.2845690000 114.2155600000,22.2845750000 114.2155520000,22.2845760000 114.2153420000,22.2845930000 114.2149420000,22.2846250000 114.2147470000,22.2846360000 114.2144610000,22.2846360000 114.2142890000,22.2846290000 114.2136740000,22.2846060000 114.2135550000,22.2846010000 114.2130270000,22.2845940000 114.2129870000,22.2845940000 114.2129300000,22.2845990000 114.2128000000,22.2846110000 114.2126900000,22.2846260000 114.2125430000,22.2846460000 114.2124270000,22.2846740000 114.2123310000,22.2847010000 114.2122800000,22.2847170000 114.2121840000,22.2847460000 114.2120790000,22.2847770000 114.2119570000,22.2848190000 114.2118510000,22.2848580000 114.2117960000,22.2848790000 114.2117070000,22.2849210000 114.2116350000,22.2849550000 114.2115690000,22.2849970000 114.2115200000,22.2850330000 114.2114750000,22.2850740000 114.2114250000,22.2851330000 114.2113790000,22.2851950000 114.2111410000,22.2855670000 114.2110610000,22.2856900000 114.2110400000,22.2857230000 114.2110140000,22.2857620000 114.2108180000,22.2860740000 114.2107710000,22.2861480000 114.2105260000,22.2865330000 114.2104800000,22.2866050000 114.2104470000,22.2866630000 114.2104350000,22.2866890000 114.2104290000,22.2867010000 114.2104000000,22.2867620000 114.2103130000,22.2870220000 114.2102970000,22.2870710000 114.2102600000,22.2871620000 114.2102330000,22.2872410000 114.2102120000,22.2873050000 114.2101400000,22.2875460000 114.2101270000,22.2875850000 114.2101170000,22.2876140000 114.2101080000,22.2876390000 114.2100960000,22.2876750000 114.2100300000,22.2878640000 114.2099700000,22.2880490000 114.2099350000,22.2881560000 114.2098500000,22.2884060000 114.2098400000,22.2884330000 114.2097480000,22.2886950000 114.2097240000,22.2887680000 114.2095520000,22.2893280000 114.2093600000,22.2898980000 114.2092590000,22.2901990000 114.2091910000,22.2903930000 114.2091480000,22.2905020000 114.2090960000,22.2906130000 114.2090470000,22.2907030000 114.2090160000,22.2907530000 114.2089830000,22.2908030000 114.2089670000,22.2908250000 114.2089110000,22.2908950000 114.2088700000,22.2909420000 114.2088300000,22.2909850000 114.2087920000,22.2910230000 114.2087190000,22.2910920000 114.2086440000,22.2911540000 114.2085780000,22.2912030000 114.2085130000,22.2912440000 114.2084420000,22.2912850000 114.2083580000,22.2913270000 114.2082580000,22.2913750000 114.2082170000,22.2913940000 114.2081820000,22.2914090000 114.2081390000,22.2914250000 114.2080520000,22.2914560000 114.2078710000,22.2915220000 114.2073340000,22.2917160000 114.2072860000,22.2917340000 114.2071610000,22.2917780000 114.2068080000,22.2919010000 114.2067540000,22.2919160000 114.2066850000,22.2919250000 114.2065100000,22.2919400000 114.2061150000,22.2919710000 114.2059010000,22.2919760000 114.2058780000,22.2919740000 114.2058380000,22.2919730000 114.2057680000,22.2919730000 114.2053830000,22.2919700000 114.2049910000,22.2919640000 114.2049430000,22.2919630000 114.2046920000,22.2919580000 114.2046400000,22.2919570000 114.2045120000,22.2919470000 114.2043640000,22.2919390000 114.2042950000,22.2919310000 114.2040150000,22.2918710000 114.2038270000,22.2918310000 114.2035030000,22.2917660000 114.2033670000,22.2917390000 114.2033410000,22.2917340000 114.2033240000,22.2917310000 114.2033040000,22.2917270000 114.2032910000,22.2917240000 114.2031770000,22.2917010000 114.2031080000,22.2916870000 114.2027420000,22.2916130000 114.2025740000,22.2915780000 114.2023540000,22.2915320000 114.2023230000,22.2915260000 114.2021560000,22.2914910000 114.2021070000,22.2914810000 114.2017780000,22.2914140000 114.2016760000,22.2913940000 114.2013020000,22.2913170000 114.2009440000,22.2912410000 114.2006030000,22.2911730000 114.2004610000,22.2911450000 114.2003230000,22.2911150000 114.1998350000,22.2910140000 114.1995200000,22.2909490000 114.1995030000,22.2909460000 114.1993870000,22.2909220000 114.1993660000,22.2909170000 114.1991330000,22.2908660000 114.1991220000,22.2908640000 114.1990180000,22.2908420000 114.1989490000,22.2908270000 114.1988950000,22.2908150000 114.1987320000,22.2907840000 114.1982720000,22.2906850000 114.1976010000,22.2905490000 114.1970670000,22.2904410000 114.1968590000,22.2904120000 114.1966180000,22.2903630000 114.1965740000,22.2903540000 114.1958210000,22.2902000000 114.1958000000,22.2901950000 114.1957510000,22.2901850000 114.1955490000,22.2901400000 114.1954640000,22.2901190000 114.1954350000,22.2901090000 114.1953600000,22.2900850000 114.1952220000,22.2900220000 114.1951230000,22.2899600000 114.1950440000,22.2899000000 114.1949620000,22.2898250000 114.1947570000,22.2895830000 114.1947000000,22.2895280000 114.1946360000,22.2894580000 114.1946050000,22.2894080000 114.1945520000,22.2893250000 114.1944580000,22.2892190000 114.1944490000,22.2892090000 114.1944390000,22.2891980000 114.1944310000,22.2891880000 114.1944220000,22.2891790000 114.1943110000,22.2890520000 114.1942340000,22.2889650000 114.1938690000,22.2885610000 114.1936620000,22.2883330000 114.1934520000,22.2880920000 114.1933680000,22.2879940000 114.1932260000,22.2878210000 114.1931440000,22.2877040000 114.1930900000,22.2875930000 114.1930560000,22.2875150000 114.1930250000,22.2874440000 114.1930080000,22.2873910000 114.1929920000,22.2873240000 114.1929780000,22.2872280000 114.1929710000,22.2871600000 114.1929670000,22.2870700000 114.1929680000,22.2870230000 114.1929650000,22.2869900000 114.1929670000,22.2869200000 114.1929810000,22.2868530000 114.1929890000,22.2866020000 114.1929910000,22.2865540000 114.1929920000,22.2864730000 114.1930010000,22.2862070000 114.1930060000,22.2859650000 114.1930080000,22.2858200000 114.1930070000,22.2855770000 114.1930010000,22.2854810000 114.1929890000,22.2853700000 114.1929770000,22.2853080000 114.1928810000,22.2847740000 114.1928040000,22.2843680000 114.1927660000,22.2841910000 114.1926440000,22.2836020000 114.1926200000,22.2835040000 114.1925970000,22.2834320000 114.1925410000,22.2832850000 114.1924650000,22.2831050000 114.1923930000,22.2829500000 114.1923570000,22.2828710000 114.1922150000,22.2825790000 114.1921440000,22.2824650000 114.1920560000,22.2823530000 114.1920140000,22.2823010000 114.1919750000,22.2822570000 114.1919140000,22.2821900000 114.1918890000,22.2821650000 114.1918560000,22.2821370000 114.1917750000,22.2820740000 114.1917060000,22.2820260000 114.1914710000,22.2818590000 114.1914570000,22.2818500000 114.1913330000,22.2817660000 114.1909050000,22.2814850000 114.1908100000,22.2814230000 114.1903820000,22.2811300000 114.1896480000,22.2806270000 114.1895030000,22.2805270000 114.1894430000,22.2804860000 114.1889260000,22.2801340000 114.1886970000,22.2799780000 114.1881330000,22.2796030000 114.1879860000,22.2795050000 114.1878300000,22.2794030000 114.1876680000,22.2792970000 114.1873360000,22.2791450000 114.1872690000,22.2790210000 114.1872290000,22.2789720000 114.1870950000,22.2788060000 114.1870360000,22.2787430000 114.1868840000,22.2785920000 114.1867550000,22.2784640000 114.1864490000,22.2781620000 114.1862270000,22.2779420000 114.1861410000,22.2778640000 114.1860680000,22.2777980000 114.1858450000,22.2775630000 114.1856940000,22.2774040000 114.1855020000,22.2772050000 114.1854710000,22.2771870000 114.1854420000,22.2771750000 114.1854170000,22.2771650000 114.1853500000,22.2771380000 114.1852850000,22.2771300000 114.1852150000,22.2771350000 114.1851850000,22.2771450000 114.1850660000,22.2771850000 114.1849380000,22.2772470000 114.1847980000,22.2773200000 114.1846050000,22.2774220000 114.1845360000,22.2774590000 114.1841430000,22.2776660000 114.1840350000,22.2777240000 114.1839010000,22.2777860000 114.1837810000,22.2778120000 114.1836580000,22.2777930000 114.1836000000,22.2777800000 114.1835170000,22.2777570000 114.1834620000,22.2777450000 114.1829150000,22.2773850000 114.1828620000,22.2773500000 114.1827770000,22.2772990000 114.1825700000,22.2771750000 114.1825260000,22.2771590000 114.1824620000,22.2771370000 114.1823440000,22.2770920000 114.1822050000,22.2770340000 114.1821890000,22.2770280000 114.1821690000,22.2769850000 114.1821280000,22.2769680000 114.1820870000,22.2769520000 114.1820400000,22.2769620000 114.1819820000,22.2769380000 114.1819350000,22.2769180000 114.1819010000,22.2768720000 114.1814400000,22.2766880000 114.1813090000,22.2766350000 114.1808880000,22.2764620000 114.1806750000,22.2764120000 114.1805530000,22.2764010000 114.1804540000,22.2764340000 114.1804480000,22.2764380000 114.1803560000,22.2765080000 114.1803200000,22.2765610000 114.1801600000,22.2770820000 114.1800050000,22.2774170000 114.1799050000,22.2776350000 114.1798500000,22.2778070000 114.1798370000,22.2778190000 114.1797650000,22.2778730000 114.1796750000,22.2779120000 114.1796560000,22.2779210000 114.1795920000,22.2779340000 114.1794990000,22.2779380000 114.1794030000,22.2779310000 114.1790440000,22.2778480000 114.1789760000,22.2778330000 114.1788690000,22.2778180000 114.1786010000,22.2778130000 114.1784710000,22.2778020000 114.1783830000,22.2777900000 114.1783490000,22.2777850000 114.1783100000,22.2777760000 114.1781990000,22.2777380000 114.1780990000,22.2776860000 114.1779960000,22.2776210000 114.1778980000,22.2775310000 114.1777860000,22.2774480000 114.1776460000,22.2773630000 114.1776160000,22.2773500000 114.1773670000,22.2772330000 114.1769530000,22.2770600000 114.1766360000,22.2769140000 114.1766010000,22.2769020000 114.1765520000,22.2768900000 114.1764990000,22.2768810000 114.1763760000,22.2768700000 114.1758030000,22.2768090000 114.1754660000,22.2767830000 114.1754580000,22.2767820000 114.1754210000,22.2767790000 114.1753760000,22.2767760000 114.1752400000,22.2767640000 114.1751730000,22.2767600000 114.1751320000,22.2767630000 114.1750780000,22.2767660000 114.1750510000,22.2767550000 114.1750280000,22.2767480000 114.1750080000,22.2767410000 114.1749820000,22.2767330000 114.1749560000,22.2767500000 114.1749290000,22.2767670000 114.1748980000,22.2767860000 114.1748500000,22.2768160000 114.1748420000,22.2768550000 114.1748390000,22.2768730000 114.1748360000,22.2768930000 114.1748330000,22.2769180000 114.1748320000,22.2769330000 114.1748600000,22.2769850000 114.1748370000,22.2771790000 114.1748280000,22.2772470000 114.1748230000,22.2773100000 114.1748010000,22.2774890000 114.1747900000,22.2775700000 114.1747750000,22.2777180000 114.1747610000,22.2778310000 114.1747450000,22.2779530000 114.1747400000,22.2779910000 114.1747120000,22.2781910000 114.1746680000,22.2782210000 114.1746660000,22.2782370000 114.1746550000,22.2783120000 114.1746450000,22.2783860000 114.1746330000,22.2784730000 114.1746300000,22.2785080000 114.1746050000,22.2785720000 114.1745660000,22.2788270000 114.1745290000,22.2790630000 114.1745120000,22.2792200000 114.1745060000,22.2792390000 114.1744930000,22.2792690000 114.1742970000,22.2792510000 114.1731270000,22.2791320000 114.1730000000,22.2791200000 114.1728560000,22.2791080000 114.1722290000,22.2790560000 114.1721000000,22.2790450000 114.1720300000,22.2790430000 114.1717610000,22.2790480000 114.1716390000,22.2790530000 114.1712320000,22.2790850000 114.1709310000,22.2791100000 114.1704380000,22.2791510000 114.1702470000,22.2791720000 114.1700260000,22.2793060000 114.1695590000,22.2793430000 114.1693990000,22.2793690000 114.1690260000,22.2794500000 114.1688970000,22.2794650000 114.1687260000,22.2795050000 114.1686570000,22.2795190000 114.1685610000,22.2795380000 114.1683340000,22.2795780000 114.1681730000,22.2795890000 114.1680620000,22.2795580000 114.1679690000,22.2795330000 114.1678780000,22.2795210000 114.1677650000,22.2795040000 114.1674090000,22.2794490000 114.1672060000,22.2794170000 114.1669640000,22.2793880000 114.1666330000,22.2793610000 114.1665480000,22.2793540000 114.1664120000,22.2793710000 114.1663450000,22.2793740000 114.1661350000,22.2794450000 114.1660530000,22.2794540000 114.1659300000,22.2794660000 114.1657430000,22.2794980000 114.1655310000,22.2795640000 114.1653260000,22.2796530000 114.1649120000,22.2799240000 114.1644970000,22.2801990000 114.1644040000,22.2802570000 114.1642250000,22.2803930000 114.1640590000,22.2805170000 114.1638310000,22.2806870000 114.1632240000,22.2810830000 114.1629860000,22.2812120000 114.1629160000,22.2812320000 114.1627190000,22.2812780000 114.1626100000,22.2813120000 114.1624320000,22.2813680000 114.1623800000,22.2813820000 114.1623190000,22.2813990000 114.1622000000,22.2814480000 114.1619970000,22.2815320000 114.1618950000,22.2815840000 114.1616370000,22.2816570000 114.1614330000,22.2817120000 114.1608800000,22.2818560000 114.1604890000,22.2819560000 114.1602690000,22.2820190000 114.1601700000,22.2820480000 114.1600580000,22.2820810000 114.1600020000,22.2820980000 114.1597900000,22.2821590000 114.1596410000,22.2822440000 114.1589650000,22.2825150000 114.1587780000,22.2825970000 114.1585440000,22.2827100000 114.1583720000,22.2828110000 114.1581740000,22.2829540000 114.1580350000,22.2830670000 114.1578920000,22.2831820000 114.1577880000,22.2832750000 114.1577280000,22.2833330000 114.1576310000,22.2834310000 114.1575640000,22.2835070000 114.1574590000,22.2836200000 114.1573560000,22.2837130000 114.1572720000,22.2837890000 114.1572170000,22.2838640000 114.1571750000,22.2839280000 114.1571260000,22.2839930000 114.1570630000,22.2840670000 114.1570030000,22.2841210000 114.1569650000,22.2841690000 114.1569080000,22.2842420000 114.1567160000,22.2844880000 114.1566630000,22.2845700000 114.1565970000,22.2846560000 114.1565100000,22.2847670000 114.1564190000,22.2848940000 114.1563950000,22.2849480000 114.1563710000,22.2850090000 114.1563480000,22.2850770000 114.1563080000,22.2852050000 114.1562810000,22.2852770000 114.1562610000,22.2853250000 114.1562230000,22.2853940000 114.1561800000,22.2854570000 114.1561320000,22.2855170000 114.1560890000,22.2855640000 114.1560390000,22.2856120000 114.1559870000,22.2856560000 114.1559340000,22.2856940000 114.1558750000,22.2857320000 114.1558270000,22.2857590000 114.1557580000,22.2857950000 114.1556820000,22.2858300000 114.1553360000,22.2859780000 114.1551380000,22.2860610000 114.1549190000,22.2861650000 114.1547930000,22.2862200000 114.1545310000,22.2863710000 114.1541970000,22.2865650000 114.1540350000,22.2866520000 114.1539710000,22.2866820000 114.1539120000,22.2867100000 114.1538060000,22.2867570000 114.1537180000,22.2867940000 114.1536290000,22.2868280000 114.1535140000,22.2868710000 114.1533220000,22.2869390000 114.1532130000,22.2869840000 114.1529020000,22.2870700000 114.1526480000,22.2871460000 114.1525440000,22.2871770000 114.1523260000,22.2872420000 114.1518070000,22.2873960000 114.1510010000,22.2876360000 114.1507380000,22.2877100000 114.1504730000,22.2877840000 114.1500380000,22.2879030000 114.1496450000,22.2880000000 114.1488010000,22.2882260000 114.1483480000,22.2883170000 114.1482760000,22.2883440000 114.1481130000,22.2883980000 114.1480310000,22.2884120000 114.1477010000,22.2884540000 114.1464610000,22.2885810000 114.1463690000,22.2885890000 114.1458940000,22.2886340000 114.1452760000,22.2886290000 114.1452130000,22.2886340000 114.1449270000,22.2886610000 114.1431340000,22.2888430000 114.1429290000,22.2888530000 114.1427240000,22.2888580000 114.1425180000,22.2888600000 114.1421640000,22.2888570000 114.1416570000,22.2888120000 114.1415230000,22.2888160000 114.1414030000,22.2888230000 114.1412830000,22.2888350000 114.1411630000,22.2888530000 114.1410450000,22.2888770000 114.1409610000,22.2889020000 114.1408800000,22.2889360000 114.1408030000,22.2889780000 114.1407310000,22.2890280000 114.1406660000,22.2890840000 114.1406080000,22.2891460000 114.1405650000,22.2892050000 114.1405280000,22.2892690000 114.1404990000,22.2893310000 114.1404750000,22.2893920000 114.1404580000,22.2894540000 114.1404480000,22.2895140000 114.1404430000,22.2895770000 114.1404430000,22.2896440000 114.1404490000,22.2897100000 114.1404610000,22.2897730000 114.1404780000,22.2898340000 114.1405030000,22.2898980000 114.1405360000,22.2899620000 114.1405750000,22.2900230000 114.1406370000,22.2901030000 114.1406880000,22.2901540000 114.1407440000,22.2902010000 114.1408050000,22.2902430000 114.1408760000,22.2902830000 114.1409480000,22.2903160000 114.1410200000,22.2903410000 114.1410970000,22.2903600000 114.1411730000,22.2903710000 114.1412540000,22.2903750000 114.1413400000,22.2903730000 114.1414220000,22.2903640000 114.1414930000,22.2903500000 114.1415690000,22.2903300000 114.1416550000,22.2902980000 114.1417490000,22.2902570000 114.1421090000,22.2900830000 114.1422010000,22.2900160000 114.1424570000,22.2898400000 114.1427260000,22.2896770000 114.1428510000,22.2896110000 114.1429780000,22.2895520000 114.1430950000,22.2895030000 114.1432150000,22.2894610000 114.1433370000,22.2894270000 114.1435660000,22.2893660000 114.1437070000,22.2893400000 114.1438090000,22.2893220000 114.1440550000,22.2892960000 114.1443030000,22.2892900000 114.1445500000,22.2893020000 114.1447950000,22.2893330000 114.1450370000,22.2893840000 114.1452730000,22.2894520000 114.1455020000,22.2895390000 114.1457230000,22.2896420000 114.1459340000,22.2897630000 114.1461330000,22.2898990000 114.1463680000,22.2901390000 114.1554730000,22.2999560000 114.1558600000,22.3003730000 114.1566150000,22.3012230000 114.1568940000,22.3015430000 114.1571420000,22.3018730000 114.1572490000,22.3020230000 114.1575930000,22.3024530000 114.1584030000,22.3034320000 114.1584690000,22.3035120000 114.1585150000,22.3035780000 114.1586210000,22.3037060000 114.1589420000,22.3041780000 114.1591530000,22.3044940000 114.1594820000,22.3050270000 114.1595880000,22.3051940000 114.1596600000,22.3053210000 114.1597240000,22.3054210000 114.1598150000,22.3055560000 114.1598920000,22.3056880000 114.1600100000,22.3058790000 114.1600740000,22.3059830000 114.1602070000,22.3062040000 114.1604750000,22.3067300000 114.1605520000,22.3068960000 114.1606170000,22.3070380000 114.1607670000,22.3073780000 114.1609030000,22.3077770000 114.1609560000,22.3080360000 114.1609830000,22.3081700000 114.1610060000,22.3083060000 114.1610170000,22.3083860000 114.1610230000,22.3084410000 114.1610270000,22.3084780000 114.1610290000,22.3085140000 114.1610290000,22.3085470000 114.1610300000,22.3085810000 114.1610320000,22.3086620000 114.1610330000,22.3087370000 114.1610300000,22.3088130000 114.1610260000,22.3088940000 114.1610240000,22.3090090000 114.1610080000,22.3091180000 114.1609920000,22.3092260000 114.1609650000,22.3093330000 114.1608430000,22.3097530000 114.1608290000,22.3098270000 114.1608210000,22.3098640000 114.1608150000,22.3098940000 114.1608080000,22.3099430000 114.1606470000,22.3104230000 114.1606300000,22.3105070000 114.1606100000,22.3106080000 114.1605140000,22.3110300000 114.1604590000,22.3113170000 114.1604700000,22.3115100000 114.1605040000,22.3116770000 114.1605500000,22.3117630000 114.1606670000,22.3119570000 114.1606940000,22.3119940000 114.1607300000,22.3120310000 114.1607770000,22.3120850000 114.1608930000,22.3121800000 114.1610570000,22.3122930000 114.1611880000,22.3123660000 114.1615390000,22.3124950000 114.1616650000,22.3125090000 114.1619200000,22.3125200000 114.1621030000,22.3125010000 114.1623610000,22.3124540000 114.1626960000,22.3123580000 114.1629870000,22.3122150000 114.1631090000,22.3121550000 114.1633600000,22.3120300000 114.1635460000,22.3119610000 114.1636970000,22.3119180000 114.1638400000,22.3119000000 114.1640010000,22.3118940000 114.1641000000,22.3118960000 114.1643580000,22.3119330000 114.1645600000,22.3119810000 114.1649160000,22.3121260000 114.1651290000,22.3121910000 114.1654210000,22.3122680000 114.1657540000,22.3123320000 114.1663720000,22.3124130000 114.1664780000,22.3123670000 114.1665230000,22.3123720000 114.1665880000,22.3123790000 114.1666530000,22.3123900000 114.1669120000,22.3124360000 114.1669460000,22.3124410000 114.1670050000,22.3124500000 114.1670860000,22.3124530000 114.1672900000,22.3124690000 114.1674660000,22.3124980000 114.1675710000,22.3125150000 114.1680420000,22.3125890000 114.1681430000,22.3126050000 114.1682270000,22.3126180000 114.1683840000,22.3126430000 114.1684270000,22.3126500000 114.1684970000,22.3126660000 114.1688960000,22.3127400000 114.1689660000,22.3127530000 114.1690650000,22.3127700000 114.1693530000,22.3128190000 114.1694300000,22.3128330000 114.1695380000,22.3128510000 114.1697440000,22.3128850000 114.1699910000,22.3129250000 114.1700050000,22.3129350000 114.1700100000,22.3129420000 114.1700130000,22.3129510000 114.1700050000,22.3129880000 114.1698730000,22.3136340000 114.1698600000,22.3136970000 114.1698430000,22.3137800000 114.1697270000,22.3143570000 114.1697110000,22.3144400000 114.1699370000,22.3144850000 114.1701560000,22.3145280000 114.1701760000,22.3145320000 114.1701950000,22.3145360000 114.1702950000,22.3145500000 114.1702810000,22.3146290000 114.1702290000,22.3148730000 114.1702140000,22.3149440000 114.1701980000,22.3150140000 114.1701410000,22.3152830000 114.1701250000,22.3153620000 114.1701060000,22.3154490000 114.1700550000,22.3156900000 114.1700310000,22.3158000000 114.1700030000,22.3159320000 114.1700000000,22.3159450000 114.1699760000,22.3160660000 114.1699310000,22.3162970000 114.1698880000,22.3165000000 114.1698800000,22.3165370000 114.1698520000,22.3166790000 114.1698350000,22.3167630000 114.1698240000,22.3168150000 114.1697860000,22.3170000000 114.1697690000,22.3170790000 114.1697100000,22.3173540000 114.1696980000,22.3174070000 114.1696900000,22.3174430000 114.1696590000,22.3176010000 114.1696090000,22.3178630000 114.1695970000,22.3179270000 114.1695870000,22.3179750000 114.1695630000,22.3180910000 114.1695440000,22.3181860000 114.1695350000,22.3182290000 114.1695090000,22.3183530000 114.1695070000,22.3183660000 114.1695000000,22.3184020000 114.1694730000,22.3185400000 114.1694410000,22.3186930000 114.1694150000,22.3188200000 114.1693650000,22.3190650000 114.1693480000,22.3191440000 114.1693380000,22.3191970000 114.1693200000,22.3192930000 114.1693020000,22.3193700000 114.1692890000,22.3194330000 114.1692790000,22.3194820000 114.1692420000,22.3196620000 114.1692390000,22.3196750000 114.1692070000,22.3198340000 114.1691870000,22.3199350000 114.1691800000,22.3199710000 114.1691580000,22.3200810000 114.1691290000,22.3202290000 114.1690920000,22.3203780000 114.1690610000,22.3205360000 114.1690530000,22.3205760000 114.1690440000,22.3206130000 114.1690380000,22.3206440000 114.1690220000,22.3207200000 114.1690010000,22.3208190000 114.1689870000,22.3208860000 114.1689750000,22.3209440000 114.1689680000,22.3209790000 114.1689040000,22.3212910000 114.1688850000,22.3213800000 114.1688670000,22.3214650000 114.1688500000,22.3215570000 114.1688360000,22.3216670000 114.1688220000,22.3217400000 114.1688180000,22.3217570000 114.1688000000,22.3218500000 114.1687620000,22.3220450000 114.1687450000,22.3221210000 114.1687000000,22.3223350000 114.1686570000,22.3225350000 114.1686130000,22.3227430000 114.1685560000,22.3230110000 114.1684610000,22.3234510000 114.1683840000,22.3238070000 114.1683710000,22.3238680000 114.1683670000,22.3238880000 114.1683550000,22.3239430000 114.1683360000,22.3240360000 114.1683220000,22.3241080000 114.1683100000,22.3241680000 114.1682050000,22.3246610000 114.1681250000,22.3251250000 114.1681210000,22.3251580000 114.1681170000,22.3251830000 114.1681040000,22.3252400000 114.1680500000,22.3254910000 114.1680200000,22.3256280000 114.1680020000,22.3257120000 114.1679910000,22.3257640000 114.1679720000,22.3258500000 114.1679500000,22.3259520000 114.1679450000,22.3259740000 114.1678810000,22.3262720000 114.1678700000,22.3262930000 114.1678600000,22.3263190000 114.1678310000,22.3263800000 114.1677910000,22.3264340000 114.1677440000,22.3264890000 114.1676510000,22.3265740000 114.1676010000,22.3265960000 114.1675660000,22.3266180000 114.1675290000,22.3266450000 114.1675080000,22.3266590000 114.1674070000,22.3267300000 114.1670260000,22.3270030000 114.1669830000,22.3270340000 114.1669290000,22.3270740000 114.1662280000,22.3276050000 114.1661300000,22.3276790000 114.1659480000,22.3278180000 114.1657080000,22.3280060000 114.1656290000,22.3280670000 114.1656070000,22.3280840000 114.1653940000,22.3282510000 114.1653360000,22.3282960000 114.1652950000,22.3283280000 114.1652170000,22.3283940000 114.1648780000,22.3286680000 114.1648190000,22.3287160000 114.1648060000,22.3287260000 114.1644780000,22.3289900000 114.1639060000,22.3294180000 114.1638840000,22.3294340000 114.1637310000,22.3295540000 114.1635750000,22.3296810000 114.1635020000,22.3297380000 114.1631550000,22.3300000000 114.1630810000,22.3300580000 114.1630050000,22.3301180000 114.1629490000,22.3301610000 114.1626790000,22.3303700000 114.1623970000,22.3305890000 114.1623600000,22.3306180000 114.1621770000,22.3307600000 114.1621400000,22.3307880000 114.1618040000,22.3310490000 114.1617140000,22.3311190000 114.1616030000,22.3312060000 114.1615370000,22.3312570000 114.1614790000,22.3313010000 114.1613580000,22.3313950000 114.1611430000,22.3315550000 114.1611080000,22.3315800000 114.1609830000,22.3316740000 114.1608900000,22.3317470000 114.1608040000,22.3318130000 114.1607810000,22.3318300000 114.1604790000,22.3320650000 114.1602090000,22.3322800000 114.1600360000,22.3324040000 114.1598990000,22.3325110000 114.1598130000,22.3325770000 114.1596280000,22.3327220000 114.1594010000,22.3328990000 114.1591190000,22.3331180000 114.1591050000,22.3331290000 114.1590660000,22.3331600000 114.1588810000,22.3333040000 114.1588370000,22.3333380000 114.1585540000,22.3335580000 114.1584870000,22.3336100000 114.1583050000,22.3337520000 114.1580690000,22.3339340000 114.1576580000,22.3342510000 114.1574770000,22.3343960000 114.1574310000,22.3344320000 114.1573110000,22.3345220000 114.1572090000,22.3346010000 114.1570950000,22.3346930000 114.1566940000,22.3350050000 114.1565560000,22.3351120000 114.1563140000,22.3353000000 114.1562730000,22.3353310000 114.1559420000,22.3355880000 114.1558360000,22.3356710000 114.1557120000,22.3357670000 114.1555890000,22.3358630000 114.1554290000,22.3359870000 114.1552420000,22.3361320000 114.1551940000,22.3361690000 114.1551030000,22.3362410000 114.1545100000,22.3366950000 114.1543540000,22.3368140000 114.1543130000,22.3368460000 114.1538210000,22.3372230000 114.1537860000,22.3372510000 114.1536520000,22.3373560000 114.1535670000,22.3372660000 114.1533580000,22.3370430000 114.1532560000,22.3369820000 114.1531510000,22.3369150000 114.1530630000,22.3368570000 114.1523340000,22.3360600000 114.1521710000,22.3358650000 114.1518990000,22.3355480000 114.1518680000,22.3355200000 114.1518130000,22.3354580000 114.1519320000,22.3353560000 114.1529140000,22.3345950000 114.1529650000,22.3345530000 114.1535710000,22.3340840000 114.1536690000,22.3340130000 114.1537420000,22.3339550000 114.1537860000,22.3339200000 114.1542400000,22.3335640000 114.1549650000,22.3329950000 114.1554600000,22.3326060000 114.1555670000,22.3325090000 114.1556570000,22.3324170000 114.1555980000,22.3323100000 114.1555090000,22.3322040000 114.1553800000,22.3320560000 114.1552870000,22.3319500000 114.1547260000,22.3313230000 114.1544950000,22.3310650000 114.1544760000,22.3310440000 114.1544550000,22.3310190000 114.1543820000,22.3309350000 114.1543070000,22.3308630000 114.1542170000,22.3307770000 114.1541640000,22.3307260000 114.1541400000,22.3306970000 114.1541040000,22.3306540000 114.1539070000,22.3304120000 114.1538290000,22.3303290000 114.1537820000,22.3302730000 114.1537390000,22.3302200000 114.1528830000,22.3291500000 114.1528790000,22.3291440000 114.1527650000,22.3290070000 114.1526790000,22.3289040000 114.1525630000,22.3289940000 114.1524430000,22.3290860000 114.1521210000,22.3293210000 114.1519090000,22.3294870000 114.1518860000,22.3295040000 114.1513870000,22.3298800000 114.1513270000,22.3298060000 114.1512890000,22.3297580000 114.1509540000,22.3293770000 114.1509100000,22.3293160000 114.1509000000,22.3292790000 114.1508840000,22.3292260000 114.1508790000,22.3292030000 114.1508770000,22.3291820000 114.1508830000,22.3291780000 114.1509050000,22.3291540000 114.1509170000,22.3291260000 114.1509200000,22.3290950000 114.1509120000,22.3290650000 114.1509430000,22.3290460000 114.1511420000,22.3289190000 114.1511970000,22.3288850000 114.1512550000,22.3288480000 114.1513210000,22.3288070000 114.1513800000,22.3287690000 114.1515040000,22.3289030000 114.1516750000,22.3290880000 114.1516910000,22.3291050000 114.1517320000,22.3291510000 114.1517900000,22.3291080000 114.1518510000,22.3290610000 114.1519090000,22.3290180000 114.1519580000,22.3289820000 114.1520060000,22.3289450000 114.1520190000,22.3289360000 114.1520680000,22.3288990000 114.1520770000,22.3288560000 114.1520710000,22.3288130000 114.1520580000,22.3287970000 114.1519680000,22.3286910000 114.1519220000,22.3286750000 114.1517450000,22.3284790000 114.1517030000,22.3284700000 114.1516870000,22.3284660000 114.1515880000,22.3285210000 114.1512690000,22.3287460000 114.1511780000,22.3288000000 114.1510950000,22.3288490000 114.1508410000,22.3289790000 114.1508030000,22.3290070000 114.1507690000,22.3290170000 114.1507440000,22.3290340000 114.1507240000,22.3290550000 114.1507140000,22.3290830000 114.1507120000,22.3291070000 114.1507180000,22.3291340000 114.1507300000,22.3291580000 114.1507540000,22.3291810000 114.1507860000,22.3291960000 114.1508050000,22.3291990000 114.1508310000,22.3292380000 114.1508440000,22.3292570000 114.1508700000,22.3292870000 114.1509100000,22.3293160000 114.1509540000,22.3293770000 114.1512890000,22.3297580000 114.1513270000,22.3298060000 114.1513870000,22.3298800000 114.1513100000,22.3299420000 114.1512890000,22.3299580000 114.1512610000,22.3299790000 114.1511690000,22.3300310000 114.1510910000,22.3300860000 114.1508130000,22.3302850000 114.1506770000,22.3303950000 114.1505510000,22.3304820000 114.1502430000,22.3306660000 114.1500520000,22.3307730000 114.1499870000,22.3308090000 114.1496870000,22.3309760000 114.1494160000,22.3311250000 114.1491740000,22.3312730000 114.1490440000,22.3313570000 114.1490210000,22.3313720000 114.1487910000,22.3315260000 114.1486470000,22.3316010000 114.1487080000,22.3317170000 114.1487750000,22.3318410000 114.1490650000,22.3322920000 114.1491970000,22.3324960000 114.1495270000,22.3329250000 114.1496600000,22.3330930000 114.1498610000,22.3333490000 114.1499210000,22.3334230000 114.1500090000,22.3335310000 114.1500930000,22.3336210000 114.1501190000,22.3336490000 114.1501350000,22.3336660000 114.1501580000,22.3336910000 114.1503820000,22.3339310000 114.1504050000,22.3339560000 114.1504190000,22.3339770000 114.1505350000,22.3341480000 114.1506810000,22.3342710000 114.1507430000,22.3343240000 114.1507740000,22.3343490000 114.1508230000,22.3343580000 114.1508700000,22.3344190000 114.1509400000,22.3345090000 114.1513970000,22.3350540000 114.1515600000,22.3352220000 114.1515980000,22.3352590000 114.1516460000,22.3352990000 114.1517110000,22.3353580000 114.1518130000,22.3354580000 114.1518680000,22.3355200000 114.1518990000,22.3355480000 114.1521710000,22.3358650000 114.1523340000,22.3360600000 114.1530630000,22.3368570000 114.1531820000,22.3370270000 114.1533990000,22.3372420000 114.1534300000,22.3372800000 114.1535550000,22.3374290000 114.1536440000,22.3375310000 114.1537460000,22.3374520000 114.1539090000,22.3373250000 114.1544210000,22.3369270000 114.1549550000,22.3365120000 114.1552880000,22.3362530000 114.1553260000,22.3362240000 114.1556920000,22.3359420000 114.1556940000,22.3359400000 114.1557410000,22.3359040000 114.1558470000,22.3358220000 114.1559330000,22.3357560000 114.1562810000,22.3354860000 114.1563140000,22.3354610000 114.1564090000,22.3353880000 114.1566870000,22.3351740000 114.1568080000,22.3350800000 114.1571400000,22.3348230000 114.1572250000,22.3347580000 114.1572980000,22.3347010000 114.1574030000,22.3346150000 114.1575920000,22.3344660000 114.1582930000,22.3339220000 114.1586360000,22.3336510000 114.1591120000,22.3332800000 114.1591530000,22.3332470000 114.1592260000,22.3331900000 114.1595490000,22.3329390000 114.1595930000,22.3329040000 114.1596560000,22.3328550000 114.1598020000,22.3327430000 114.1600840000,22.3325260000 114.1603360000,22.3323300000 114.1603510000,22.3323180000 114.1603690000,22.3323040000 114.1605440000,22.3321660000 114.1606160000,22.3321110000 114.1608450000,22.3319370000 114.1608740000,22.3319160000 114.1609770000,22.3318360000 114.1610660000,22.3317690000 114.1611900000,22.3316720000 114.1612160000,22.3316520000 114.1617520000,22.3312370000 114.1617890000,22.3312080000 114.1618810000,22.3311370000 114.1621840000,22.3308960000 114.1622060000,22.3308790000 114.1622910000,22.3308110000 114.1623940000,22.3307290000 114.1625100000,22.3306380000 114.1625910000,22.3305750000 114.1626820000,22.3305050000 114.1627100000,22.3304840000 114.1627630000,22.3304440000 114.1631440000,22.3301520000 114.1632110000,22.3301010000 114.1634510000,22.3299220000 114.1635040000,22.3298820000 114.1636520000,22.3297700000 114.1638180000,22.3296400000 114.1639000000,22.3295750000 114.1645560000,22.3290730000 114.1648340000,22.3288610000 114.1648790000,22.3288240000 114.1652130000,22.3285560000 114.1652350000,22.3285390000 114.1653000000,22.3284880000 114.1653860000,22.3284180000 114.1656100000,22.3282370000 114.1657080000,22.3281580000 114.1657970000,22.3280850000 114.1658310000,22.3280580000 114.1658990000,22.3280350000 114.1660510000,22.3279160000 114.1662660000,22.3277480000 114.1669240000,22.3272440000 114.1669840000,22.3272070000 114.1670160000,22.3271940000 114.1670600000,22.3271750000 114.1671390000,22.3271420000 114.1672000000,22.3271150000 114.1673030000,22.3270630000 114.1674430000,22.3269670000 114.1675730000,22.3268670000 114.1676800000,22.3267770000 114.1676970000,22.3267300000 114.1677070000,22.3267080000 114.1677240000,22.3266890000 114.1677370000,22.3266760000 114.1677710000,22.3266480000 114.1678200000,22.3266240000 114.1678910000,22.3265240000 114.1679130000,22.3264820000 114.1679560000,22.3263890000 114.1679690000,22.3263510000 114.1679810000,22.3263140000 114.1680030000,22.3262340000 114.1680940000,22.3258220000 114.1681120000,22.3257430000 114.1681640000,22.3255030000 114.1681880000,22.3253890000 114.1682160000,22.3252530000 114.1682260000,22.3252060000 114.1682340000,22.3251710000 114.1682380000,22.3251420000 114.1682620000,22.3249920000 114.1683000000,22.3248060000 114.1683140000,22.3247360000 114.1683310000,22.3246630000 114.1683480000,22.3245810000 114.1683660000,22.3245000000 114.1683740000,22.3244550000 114.1684010000,22.3243960000 114.1684140000,22.3243440000 114.1684430000,22.3242190000 114.1684490000,22.3241900000 114.1684600000,22.3241330000 114.1684750000,22.3240600000 114.1684970000,22.3239670000 114.1684910000,22.3239090000 114.1684970000,22.3238880000 114.1685080000,22.3238270000 114.1685680000,22.3235450000 114.1685690000,22.3235380000 114.1685800000,22.3234860000 114.1686040000,22.3233720000 114.1686350000,22.3232270000 114.1686590000,22.3231130000 114.1687020000,22.3229210000 114.1687200000,22.3228230000 114.1687320000,22.3227660000 114.1687860000,22.3224820000 114.1688690000,22.3220630000 114.1689430000,22.3216740000 114.1689770000,22.3214710000 114.1689940000,22.3213860000 114.1690500000,22.3210910000 114.1690590000,22.3210510000 114.1690710000,22.3209960000 114.1690790000,22.3209570000 114.1690900000,22.3209050000 114.1691070000,22.3208330000 114.1691310000,22.3207380000 114.1691440000,22.3206680000 114.1691520000,22.3206260000 114.1691590000,22.3205910000 114.1691670000,22.3205560000 114.1692280000,22.3202610000 114.1692710000,22.3200580000 114.1692770000,22.3200320000 114.1693070000,22.3198910000 114.1693170000,22.3198470000 114.1693440000,22.3197150000 114.1693730000,22.3195730000 114.1693980000,22.3194540000 114.1694040000,22.3194270000 114.1694290000,22.3193120000 114.1694480000,22.3192160000 114.1694590000,22.3191660000 114.1694810000,22.3190710000 114.1695230000,22.3188590000 114.1695720000,22.3186200000 114.1695990000,22.3184880000 114.1696260000,22.3183530000 114.1696620000,22.3181810000 114.1696850000,22.3180640000 114.1697190000,22.3178970000 114.1697390000,22.3177970000 114.1697590000,22.3177000000 114.1697750000,22.3176220000 114.1697870000,22.3175640000 114.1697990000,22.3175010000 114.1698150000,22.3174280000 114.1698730000,22.3171490000 114.1699450000,22.3168020000 114.1699620000,22.3167170000 114.1699920000,22.3165510000 114.1700730000,22.3161650000 114.1700870000,22.3160990000 114.1701160000,22.3159580000 114.1701270000,22.3159050000 114.1702070000,22.3155260000 114.1702180000,22.3154680000 114.1702380000,22.3153660000 114.1703200000,22.3149680000 114.1703390000,22.3148810000 114.1703510000,22.3148220000 114.1703770000,22.3146840000 114.1703840000,22.3146470000 114.1703990000,22.3145700000 114.1704660000,22.3142320000 114.1705160000,22.3139760000 114.1705300000,22.3139010000 114.1705490000,22.3138110000 114.1705840000,22.3136360000 114.1705950000,22.3135840000 114.1706020000,22.3135500000 114.1706090000,22.3135150000 114.1706530000,22.3132960000 114.1706590000,22.3132650000 114.1706660000,22.3132320000 114.1707010000,22.3130540000 114.1707170000,22.3129770000 114.1707380000,22.3128780000 114.1707960000,22.3125990000 114.1708470000,22.3123430000 114.1708610000,22.3122730000 114.1708910000,22.3121250000 114.1709490000,22.3118210000 114.1709590000,22.3117680000 114.1710160000,22.3114630000 114.1710330000,22.3113700000 114.1710580000,22.3112370000 114.1710660000,22.3111930000 114.1711040000,22.3109890000 114.1711200000,22.3109100000 114.1711370000,22.3108120000 114.1711460000,22.3107620000 114.1711580000,22.3106950000 114.1712060000,22.3104150000 114.1712230000,22.3103170000 114.1712320000,22.3102790000 114.1712450000,22.3102310000 114.1712490000,22.3102050000 114.1712540000,22.3101490000 114.1712560000,22.3101280000 114.1712590000,22.3100940000 114.1712630000,22.3100020000 114.1712600000,22.3096970000 114.1713020000,22.3091940000 114.1713130000,22.3090960000 114.1713760000,22.3085660000 114.1713840000,22.3084990000 114.1713870000,22.3083990000 114.1713980000,22.3082740000 114.1714490000,22.3078270000 114.1714730000,22.3075790000 114.1714760000,22.3075520000 114.1714930000,22.3073730000 114.1715150000,22.3071490000 114.1715310000,22.3069820000 114.1715400000,22.3068820000 114.1715490000,22.3067870000 114.1715560000,22.3067060000 114.1715700000,22.3065500000 114.1716070000,22.3061250000 114.1716230000,22.3059470000 114.1716490000,22.3056660000 114.1716500000,22.3056480000 114.1716530000,22.3056150000 114.1716760000,22.3053890000 114.1716810000,22.3053050000 114.1715770000,22.3052680000 114.1714610000,22.3052450000 114.1711220000,22.3051970000 114.1708550000,22.3051850000 114.1707380000,22.3051820000 114.1706990000,22.3051800000 114.1706130000,22.3051790000 114.1703440000,22.3051950000 114.1702030000,22.3052080000 114.1699840000,22.3052380000 114.1699100000,22.3052510000 114.1697430000,22.3052840000 114.1696690000,22.3053000000 114.1694100000,22.3053590000 114.1693740000,22.3053670000 114.1692490000,22.3053980000 114.1690620000,22.3054440000 114.1690200000,22.3054540000 114.1686740000,22.3055420000 114.1686070000,22.3055590000 114.1685340000,22.3055780000 114.1684030000,22.3056090000 114.1681490000,22.3056530000 114.1673390000,22.3057740000 114.1671500000,22.3058050000 114.1670140000,22.3058270000 114.1669510000,22.3058390000 114.1668470000,22.3058560000 114.1660510000,22.3060430000 114.1657230000,22.3061140000 114.1654450000,22.3061820000 114.1653710000,22.3061990000 114.1651490000,22.3062310000 114.1650480000,22.3062540000 114.1645660000,22.3063540000 114.1645520000,22.3063570000 114.1645380000,22.3063600000 114.1643660000,22.3063970000 114.1641690000,22.3064440000 114.1640500000,22.3064760000 114.1637620000,22.3065550000 114.1637800000,22.3066980000 114.1637840000,22.3068690000 114.1637790000,22.3072560000 114.1637050000,22.3073860000 114.1636940000,22.3074130000 114.1636840000,22.3074430000 114.1636680000,22.3075130000 114.1636610000,22.3075920000 114.1636540000,22.3076600000 114.1636400000,22.3079300000 114.1636460000,22.3084780000 114.1636470000,22.3085500000 114.1636500000,22.3086630000 114.1636590000,22.3088560000 114.1636060000,22.3089960000 114.1635820000,22.3090550000 114.1635260000,22.3091690000 114.1633720000,22.3093210000 114.1632990000,22.3093930000 114.1632300000,22.3094400000 114.1630600000,22.3095200000 114.1628700000,22.3095620000 114.1626800000,22.3095720000 114.1625300000,22.3095630000 114.1623890000,22.3095220000 114.1622560000,22.3094600000 114.1621400000,22.3093800000 114.1620300000,22.3092800000 114.1619300000,22.3091600000 114.1618960000,22.3091100000 114.1618570000,22.3090580000 114.1618230000,22.3090070000 114.1615500000,22.3085540000 114.1614530000,22.3084310000 114.1613690000,22.3082830000 114.1613030000,22.3081770000 114.1612580000,22.3081130000 114.1612190000,22.3079850000 114.1611350000,22.3077140000 114.1610650000,22.3074870000 114.1609840000,22.3072940000 114.1608400000,22.3069860000 114.1607610000,22.3068140000 114.1606820000,22.3066440000 114.1606230000,22.3065180000 114.1604320000,22.3061120000 114.1601860000,22.3056400000 114.1601500000,22.3054820000 114.1601260000,22.3053790000 114.1600330000,22.3051960000 114.1598820000,22.3050400000 114.1597500000,22.3049160000 114.1594580000,22.3043950000 114.1590380000,22.3037070000 114.1589210000,22.3035410000 114.1588210000,22.3033850000 114.1587790000,22.3033330000 114.1587290000,22.3032580000 114.1586820000,22.3031860000 114.1584390000,22.3028540000 114.1582710000,22.3026750000 114.1580860000,22.3025020000 114.1578670000,22.3023060000 114.1576670000,22.3021240000 114.1573770000,22.3018260000 114.1573160000,22.3017620000 114.1570200000,22.3014420000 114.1567160000,22.3011410000 114.1561410000,22.3005100000 114.1466970000,22.2902980000 114.1464940000,22.2900780000 114.1462180000,22.2897960000 114.1460110000,22.2896560000 114.1457910000,22.2895310000 114.1455600000,22.2894220000 114.1453200000,22.2893320000 114.1450730000,22.2892600000 114.1448200000,22.2892070000 114.1445630000,22.2891750000 114.1443050000,22.2891610000 114.1440460000,22.2891680000 114.1437880000,22.2891950000 114.1435340000,22.2892410000 114.1434400000,22.2892660000 114.1432930000,22.2893050000 114.1431720000,22.2893380000 114.1430560000,22.2893800000 114.1429890000,22.2894070000 114.1427890000,22.2894970000 114.1424550000,22.2896580000 114.1423480000,22.2897090000 114.1421420000,22.2898940000 114.1420960000,22.2899290000 114.1419130000,22.2900500000 114.1417650000,22.2901340000 114.1416830000,22.2901740000 114.1416110000,22.2902030000 114.1415520000,22.2902230000 114.1414750000,22.2902430000 114.1414010000,22.2902570000 114.1413120000,22.2902670000 114.1412340000,22.2902660000 114.1411520000,22.2902570000 114.1410740000,22.2902410000 114.1409980000,22.2902170000 114.1409280000,22.2901860000 114.1408620000,22.2901480000 114.1408000000,22.2901040000 114.1407410000,22.2900480000 114.1407000000,22.2900020000 114.1406620000,22.2899490000 114.1406280000,22.2898920000 114.1406000000,22.2898270000 114.1405800000,22.2897690000 114.1405680000,22.2897060000 114.1405610000,22.2896430000 114.1405610000,22.2895810000 114.1405700000,22.2895070000 114.1405860000,22.2894330000 114.1406090000,22.2893680000 114.1406370000,22.2893090000 114.1406700000,22.2892550000 114.1407120000,22.2892020000 114.1407600000,22.2891530000 114.1408120000,22.2891100000 114.1408700000,22.2890710000 114.1409310000,22.2890390000 114.1410100000,22.2890100000 114.1410920000,22.2889900000 114.1411640000,22.2889810000 114.1412360000,22.2889780000 114.1413350000,22.2889970000 114.1414320000,22.2890190000 114.1415290000,22.2890430000 114.1416010000,22.2890620000 114.1417210000,22.2890970000 114.1418460000,22.2891370000 114.1419730000,22.2891710000 114.1421020000,22.2891970000 114.1422320000,22.2892170000 114.1423640000,22.2892290000 114.1424960000,22.2892340000 114.1426280000,22.2892320000 114.1428230000,22.2892320000 114.1430190000,22.2892310000 114.1433170000,22.2891960000 114.1433840000,22.2891890000 114.1436430000,22.2891610000 114.1437730000,22.2891450000 114.1438430000,22.2891370000 114.1440640000,22.2890990000 114.1441870000,22.2890640000 114.1442750000,22.2890270000 114.1443640000,22.2889810000 114.1444990000,22.2889040000 114.1445740000,22.2888680000 114.1446490000,22.2888410000 114.1447140000,22.2888250000 114.1447870000,22.2888160000 114.1452310000,22.2887700000 114.1454040000,22.2887520000 114.1456810000,22.2887600000 114.1458200000,22.2887620000 114.1458680000,22.2887630000 114.1459820000,22.2887620000 114.1465690000,22.2887230000 114.1467750000,22.2887040000 114.1469550000,22.2886850000 114.1470650000,22.2886680000 114.1473640000,22.2886250000 114.1477580000,22.2885750000 114.1482620000,22.2884840000 114.1484340000,22.2884570000 114.1496810000,22.2881250000 114.1500790000,22.2880250000 114.1505060000,22.2879080000 114.1507870000,22.2878240000 114.1510070000,22.2877570000 114.1518340000,22.2875020000 114.1523580000,22.2873400000 114.1531290000,22.2871000000 114.1532370000,22.2870710000 114.1533270000,22.2870530000 114.1534360000,22.2870390000 114.1537640000,22.2870110000 114.1539470000,22.2870040000 114.1540900000,22.2870070000 114.1542410000,22.2870160000 114.1545950000,22.2870570000 114.1547710000,22.2870780000 114.1548730000,22.2870910000 114.1551040000,22.2871210000 114.1553890000,22.2871580000 114.1555250000,22.2871760000 114.1556170000,22.2871880000 114.1557410000,22.2872010000 114.1559570000,22.2872610000 114.1560150000,22.2872730000 114.1561980000,22.2872970000 114.1563680000,22.2873140000 114.1565140000,22.2873230000 114.1566810000,22.2873230000 114.1568170000,22.2873140000 114.1569930000,22.2872910000 114.1571780000,22.2872540000 114.1572820000,22.2872290000 114.1574580000,22.2871530000 114.1575320000,22.2871190000 114.1576000000,22.2870900000 114.1578350000,22.2869890000 114.1578850000,22.2869620000 114.1579170000,22.2869450000 114.1579970000,22.2868920000 114.1580960000,22.2868160000 114.1582190000,22.2867120000 114.1585550000,22.2865150000 114.1586590000,22.2864510000 114.1590830000,22.2861850000 114.1601100000,22.2855380000 114.1603830000,22.2853670000 114.1613200000,22.2848360000 114.1631300000,22.2838110000 114.1638350000,22.2834740000 114.1641470000,22.2833390000 114.1644930000,22.2832060000 114.1651340000,22.2829870000 114.1656200000,22.2828430000 114.1661460000,22.2827110000 114.1665970000,22.2826160000 114.1670640000,22.2825310000 114.1677350000,22.2824530000 114.1680670000,22.2824220000 114.1684300000,22.2823990000 114.1690810000,22.2823640000 114.1697510000,22.2823630000 114.1700250000,22.2823730000 114.1702530000,22.2823870000 114.1704380000,22.2824080000 114.1705550000,22.2824250000 114.1706740000,22.2824490000 114.1708100000,22.2824760000 114.1708840000,22.2824970000 114.1709570000,22.2825220000 114.1710650000,22.2825690000 114.1711650000,22.2826210000 114.1712500000,22.2826720000 114.1713390000,22.2827390000 114.1714300000,22.2828130000 114.1715500000,22.2829300000 114.1716430000,22.2830380000 114.1718180000,22.2832790000 114.1718900000,22.2833700000 114.1719490000,22.2834280000 114.1720220000,22.2834870000 114.1720860000,22.2835290000 114.1721490000,22.2835630000 114.1722050000,22.2835890000 114.1722660000,22.2836150000 114.1723530000,22.2836410000 114.1724500000,22.2836600000 114.1728130000,22.2836850000 114.1729660000,22.2836960000 114.1730140000,22.2836990000 114.1732090000,22.2837130000 114.1736400000,22.2837420000 114.1739290000,22.2837630000 114.1739710000,22.2837660000 114.1740380000,22.2837700000 114.1740500000,22.2837810000 114.1740670000,22.2837900000 114.1740840000,22.2837950000 114.1741020000,22.2837960000 114.1741210000,22.2837930000 114.1741370000,22.2837860000 114.1741510000,22.2837760000 114.1741630000,22.2837620000 114.1741700000,22.2837480000 114.1741740000,22.2837320000 114.1741730000,22.2837140000 114.1741670000,22.2836950000 114.1741570000,22.2836800000 114.1742350000,22.2826710000 114.1742670000,22.2825990000 114.1742940000,22.2825290000 114.1743140000,22.2824700000 114.1743240000,22.2824160000 114.1743290000,22.2823720000 114.1743280000,22.2823220000 114.1743330000,22.2821950000 114.1743540000,22.2820670000 114.1743640000,22.2819330000 114.1743750000,22.2817630000 114.1743800000,22.2817190000 114.1743890000,22.2816690000 114.1744020000,22.2816180000 114.1744190000,22.2815650000 114.1744300000,22.2815280000 114.1744480000,22.2814400000 114.1744580000,22.2813460000 114.1744650000,22.2811950000 114.1744790000,22.2810230000 114.1744960000,22.2808170000 114.1745150000,22.2806930000 114.1745300000,22.2805750000 114.1745050000,22.2805400000 114.1745360000,22.2802040000 114.1745950000,22.2797520000 114.1745990000,22.2796730000 114.1745920000,22.2793950000 114.1745930000,22.2790840000 114.1746320000,22.2787920000 114.1746620000,22.2786650000 114.1746740000,22.2785750000 114.1747080000,22.2785100000 114.1747110000,22.2784890000 114.1747230000,22.2783920000 114.1747330000,22.2783180000 114.1747420000,22.2782430000 114.1747440000,22.2782270000 114.1747120000,22.2781910000 114.1747400000,22.2779910000 114.1747450000,22.2779530000 114.1747610000,22.2778310000 114.1749650000,22.2778510000 114.1753690000,22.2778920000 114.1760850000,22.2779650000 114.1765530000,22.2780120000 114.1766260000,22.2780200000 114.1768130000,22.2780390000 114.1770770000,22.2781010000 114.1779220000,22.2783530000 114.1780270000,22.2783840000 114.1787880000,22.2785990000 114.1789170000,22.2786380000 114.1794800000,22.2788040000 114.1795100000,22.2788140000 114.1796990000,22.2788750000 114.1798290000,22.2789260000 114.1804030000,22.2791380000 114.1806000000,22.2792100000 114.1810590000,22.2793860000 114.1811240000,22.2794100000 114.1811380000,22.2794150000 114.1813180000,22.2794790000 114.1814110000,22.2795130000 114.1819580000,22.2797130000 114.1824420000,22.2798890000 114.1824900000,22.2799070000 114.1826560000,22.2799640000 114.1827180000,22.2799930000 114.1830170000,22.2801060000 114.1830290000,22.2801110000 114.1830550000,22.2801200000 114.1831080000,22.2801390000 114.1831670000,22.2801490000 114.1832310000,22.2801550000 114.1832730000,22.2801560000 114.1833330000,22.2801580000 114.1842570000,22.2801810000 114.1843190000,22.2801820000 114.1843560000,22.2801830000 114.1844280000,22.2801840000 114.1845770000,22.2801860000 114.1845980000,22.2801860000 114.1846230000,22.2801840000 114.1846840000,22.2801740000 114.1847820000,22.2801540000 114.1848040000,22.2801520000 114.1848330000,22.2801460000 114.1849070000,22.2801240000 114.1849770000,22.2801000000 114.1850730000,22.2800710000 114.1855430000,22.2799270000 114.1856270000,22.2799110000 114.1856990000,22.2798870000 114.1857230000,22.2798790000 114.1858170000,22.2798480000 114.1858820000,22.2798270000 114.1858960000,22.2798220000 114.1860330000,22.2797770000 114.1861760000,22.2797330000 114.1861930000,22.2797280000 114.1863660000,22.2796810000 114.1869210000,22.2795140000 114.1869570000,22.2795040000 114.1871390000,22.2794510000 114.1872990000,22.2794630000 114.1874440000,22.2794810000 114.1876100000,22.2795380000 114.1878280000,22.2796260000 114.1880330000,22.2797400000 114.1883320000,22.2799260000 114.1886080000,22.2801090000 114.1888300000,22.2802620000 114.1894050000,22.2806560000 114.1896180000,22.2808030000 114.1907300000,22.2815450000 114.1908350000,22.2816170000 114.1909610000,22.2817060000 114.1912010000,22.2818720000 114.1912280000,22.2818910000 114.1912890000,22.2819310000 114.1912600000,22.2819980000 114.1912580000,22.2820770000 114.1912490000,22.2822660000 114.1912390000,22.2824800000 114.1912380000,22.2825130000 114.1912340000,22.2826160000 114.1912320000,22.2826720000 114.1912310000,22.2826750000 114.1912210000,22.2829090000 114.1912180000,22.2829940000 114.1911980000,22.2833720000 114.1911740000,22.2837530000 114.1911600000,22.2839750000 114.1911480000,22.2841510000 114.1911370000,22.2843100000 114.1911270000,22.2843800000 114.1911140000,22.2844460000 114.1910980000,22.2844980000 114.1910300000,22.2846920000 114.1910010000,22.2847700000 114.1909730000,22.2848400000 114.1909220000,22.2849480000 114.1908430000,22.2850990000 114.1908210000,22.2851380000 114.1907780000,22.2852160000 114.1907860000,22.2852330000 114.1907810000,22.2852540000 114.1907650000,22.2852860000 114.1907360000,22.2853280000 114.1907190000,22.2853570000 114.1907090000,22.2853880000 114.1907070000,22.2854080000 114.1907090000,22.2854270000 114.1907230000,22.2854500000 114.1909330000,22.2855920000 114.1909780000,22.2856210000 114.1910630000,22.2856790000 114.1910790000,22.2856890000 114.1913500000,22.2858720000 114.1914040000,22.2859080000 114.1914310000,22.2859190000 114.1914760000,22.2859510000 114.1915150000,22.2859880000 114.1915440000,22.2860340000 114.1915590000,22.2860840000 114.1915600000,22.2861370000 114.1915280000,22.2866830000 114.1915220000,22.2867600000 114.1915280000,22.2868370000 114.1915470000,22.2869120000 114.1915770000,22.2869840000 114.1916140000,22.2870460000 114.1916730000,22.2871190000 114.1918540000,22.2873200000 114.1918710000,22.2873390000 114.1919360000,22.2874170000 114.1919990000,22.2874960000 114.1921490000,22.2876610000 114.1928140000,22.2883870000 114.1928470000,22.2884230000 114.1932230000,22.2888410000 114.1935690000,22.2892020000 114.1935820000,22.2892150000 114.1936850000,22.2893290000 114.1940390000,22.2897420000 114.1940690000,22.2897750000 114.1941280000,22.2898330000 114.1948160000,22.2906000000 114.1948400000,22.2906260000 114.1950170000,22.2908170000 114.1951340000,22.2909430000 114.1952500000,22.2910400000 114.1953390000,22.2910970000 114.1955040000,22.2911690000 114.1955250000,22.2911790000 114.1960580000,22.2914110000 114.1963320000,22.2915170000 114.1963580000,22.2915290000 114.1965580000,22.2915780000 114.1967070000,22.2916090000 114.1967440000,22.2916160000 114.1971080000,22.2916850000 114.1984160000,22.2919430000 114.1984600000,22.2919510000 114.1985700000,22.2919730000 114.1987650000,22.2920130000 114.1988570000,22.2920320000 114.1989210000,22.2920450000 114.1998850000,22.2922530000 114.1999400000,22.2922630000 114.2000440000,22.2922820000 114.2001400000,22.2923020000 114.2008440000,22.2924500000 114.2013000000,22.2925460000 114.2013940000,22.2925660000 114.2015150000,22.2925890000 114.2023880000,22.2927630000 114.2027040000,22.2928260000 114.2027600000,22.2928370000 114.2028370000,22.2928520000 114.2037650000,22.2930550000 114.2038670000,22.2930770000 114.2040090000,22.2931060000 114.2040940000,22.2931020000 114.2041260000,22.2930980000 114.2041660000,22.2930940000 114.2042730000,22.2930730000 114.2043390000,22.2930540000 114.2043960000,22.2930400000 114.2044240000,22.2930320000 114.2044470000,22.2930260000 114.2044750000,22.2930160000 114.2048000000,22.2929270000 114.2048470000,22.2929140000 114.2049510000,22.2928860000 114.2050520000,22.2928610000 114.2052970000,22.2928030000 114.2058490000,22.2926730000 114.2058950000,22.2926630000 114.2059610000,22.2926440000 114.2060510000,22.2926190000 114.2062100000,22.2925510000 114.2063730000,22.2925070000 114.2064940000,22.2924740000 114.2072060000,22.2922730000 114.2072410000,22.2922630000 114.2073230000,22.2922390000 114.2074540000,22.2921980000 114.2077060000,22.2921200000 114.2079130000,22.2920560000 114.2082680000,22.2919460000 114.2082950000,22.2919380000 114.2083200000,22.2919300000 114.2083490000,22.2919210000 114.2083640000,22.2919160000 114.2084430000,22.2918920000 114.2084960000,22.2918750000 114.2085760000,22.2918500000 114.2086760000,22.2918180000 114.2087900000,22.2917810000 114.2089870000,22.2917170000 114.2090310000,22.2917030000 114.2091120000,22.2916770000 114.2091170000,22.2916730000 114.2092060000,22.2915960000 114.2092740000,22.2915050000 114.2093040000,22.2914440000 114.2093250000,22.2913790000 114.2093340000,22.2913080000 114.2093340000,22.2912350000 114.2093270000,22.2911650000 114.2093130000,22.2911020000 114.2092600000,22.2909060000 114.2092460000,22.2908560000 114.2092320000,22.2907690000 114.2092410000,22.2906320000 114.2092840000,22.2905340000 114.2093340000,22.2904190000 114.2093980000,22.2902350000 114.2094930000,22.2899470000 114.2095350000,22.2898200000 114.2096180000,22.2895630000 114.2096450000,22.2894760000 114.2096710000,22.2893920000 114.2096790000,22.2893630000 114.2097850000,22.2890430000 114.2098990000,22.2887200000 114.2099850000,22.2884730000 114.2100990000,22.2881000000 114.2102430000,22.2876710000 114.2102500000,22.2876500000 114.2102600000,22.2876160000 114.2102690000,22.2875870000 114.2102780000,22.2875550000 114.2103080000,22.2874660000 114.2104320000,22.2870870000 114.2105270000,22.2868150000 114.2105580000,22.2867460000 114.2105640000,22.2867340000 114.2105760000,22.2867100000 114.2106090000,22.2866570000 114.2106530000,22.2865830000 114.2107150000,22.2864800000 114.2108730000,22.2862390000 114.2110340000,22.2859930000 114.2111150000,22.2858650000 114.2111360000,22.2858320000 114.2111870000,22.2857520000 114.2113210000,22.2855440000 114.2113460000,22.2854980000 114.2114280000,22.2853540000 114.2114810000,22.2852650000 114.2115260000,22.2852060000 114.2116720000,22.2850900000 114.2117680000,22.2850370000 114.2118790000,22.2849970000 114.2119370000,22.2849770000 114.2121640000,22.2848970000 114.2122930000,22.2848570000 114.2123180000,22.2848510000 114.2123760000,22.2848320000 114.2125620000,22.2847730000 114.2125910000,22.2847660000 114.2127110000,22.2847370000 114.2128970000,22.2847300000 114.2129370000,22.2847290000 114.2130720000,22.2847280000 114.2132730000,22.2847320000 114.2135540000,22.2847330000 114.2136670000,22.2847340000 114.2142410000,22.2847510000 114.2144420000,22.2847500000 114.2146170000,22.2847530000 114.2146900000,22.2847770000 114.2147390000,22.2847980000 114.2147880000,22.2848260000 114.2148290000,22.2848540000 114.2148660000,22.2848850000 114.2148980000,22.2849160000 114.2149170000,22.2849360000 114.2149260000,22.2849460000 114.2149430000,22.2849680000 114.2149470000,22.2849720000 114.2149650000,22.2849990000 114.2149850000,22.2850360000 114.2151070000,22.2853240000 114.2151430000,22.2853960000 114.2151860000,22.2854540000 114.2152400000,22.2855170000 114.2153090000,22.2855800000 114.2154190000,22.2856630000 114.2155300000,22.2857290000 114.2156110000,22.2857640000 114.2156890000,22.2857930000 114.2157840000,22.2858190000 114.2158650000,22.2858370000 114.2159440000,22.2858500000 114.2160350000,22.2858610000 114.2161430000,22.2858660000 114.2162780000,22.2858570000 114.2163480000,22.2858430000 114.2164350000,22.2858200000 114.2165140000,22.2857920000 114.2165920000,22.2857580000 114.2167230000,22.2856900000 114.2170030000,22.2855160000 114.2171440000,22.2854440000 114.2172430000,22.2853970000 114.2173370000,22.2853570000 114.2173540000,22.2853510000 114.2175780000,22.2852570000 114.2176310000,22.2852370000 114.2176410000,22.2852330000 114.2178070000,22.2851730000 114.2179570000,22.2851330000 114.2182640000,22.2850660000 114.2183200000,22.2850560000 114.2185780000,22.2850100000 114.2187810000,22.2849790000 114.2189420000,22.2849780000 114.2190210000,22.2849720000 114.2190980000,22.2849680000 114.2192360000,22.2849470000 114.2193910000,22.2849110000 114.2195190000,22.2848720000 114.2196560000,22.2848180000 114.2198190000,22.2847380000 114.2199030000,22.2846840000 114.2199810000,22.2846250000 114.2200420000,22.2845750000 114.2201230000,22.2844980000 114.2202410000,22.2843540000 114.2206620000,22.2838130000 114.2209860000,22.2834030000 114.2212450000,22.2830700000 114.2213170000,22.2829780000 114.2213770000,22.2830200000 114.2215850000,22.2831620000 114.2216600000,22.2832130000 114.2218290000,22.2833290000 114.2218720000,22.2833580000 114.2219410000,22.2834050000 114.2219920000,22.2834400000 114.2221230000,22.2835410000 114.2221380000,22.2835530000 114.2221560000,22.2835670000 114.2221720000,22.2835790000 114.2222160000,22.2836120000 114.2222670000,22.2836510000 114.2223560000,22.2837240000 114.2223700000,22.2837360000 114.2223890000,22.2837500000 114.2224780000,22.2838170000 114.2226060000,22.2839380000 114.2231380000,22.2844430000 114.2237840000,22.2850610000 114.2240400000,22.2853030000 114.2241030000,22.2853620000 114.2241900000,22.2854430000 114.2242630000,22.2855100000 114.2242980000,22.2854780000 114.2243400000,22.2854420000 114.2246600000,22.2851460000</coordinates>
                </LineString>
                <ExtendedData>
                    <Data name="duration">
                        <value>00:55:33</value>
                    </Data>
                    <Data name="length">
                        <value>43045.24778341305</value>
                    </Data>
                </ExtendedData>
            </Placemark>
        </Document>
    </Document>
</kml>