<?xml version="1.0" encoding="UTF-8"?>
<kml xmlns="http://www.opengis.net/kml/2.2" xmlns:gx="http://www.google.com/kml/ext/2.2">
    <Document>
        <name>Route</name>
        <Folder>
            <name>Route Request</name>
            <Placemark>
                <Point>
                    <coordinates>114.1564628667,22.2406882078</coordinates>
                </Point>
                <ExtendedData>
                    <Data name="routingVisited">
                        <value>false</value>
                    </Data>
                </ExtendedData>
            </Placemark>
            <Placemark>
                <Point>
                    <coordinates>114.1321895500,22.2825453836</coordinates>
                </Point>
                <ExtendedData>
                    <Data name="routingVisited">
                        <value>false</value>
                    </Data>
                </ExtendedData>
            </Placemark>
            <Placemark>
                <Point>
                    <coordinates>114.1368338729,22.2879332303</coordinates>
                </Point>
            </Placemark>
            <Placemark>
                <address>Anchor Street Playground, Oak Street, Mong Kok West, Tai Kok Tsui, Yau Tsim Mong District, Hong Kong, KIL 3348, China</address>
                <Point>
                    <coordinates>114.1652678690,22.3196107112</coordinates>
                </Point>
                <ExtendedData>
                    <Data name="country">
                        <value>China</value>
                    </Data>
                    <Data name="suburb">
                        <value>Tai Kok Tsui</value>
                    </Data>
                    <Data name="neighbourhood">
                        <value>Mong Kok West</value>
                    </Data>
                    <Data name="county">
                        <value>Yau Tsim Mong District</value>
                    </Data>
                    <Data name="road">
                        <value>Oak Street</value>
                    </Data>
                    <Data name="postcode">
                        <value>KIL 3348</value>
                    </Data>
                    <Data name="playground">
                        <value>Anchor Street Playground</value>
                    </Data>
                    <Data name="country_code">
                        <value>cn</value>
                    </Data>
                </ExtendedData>
            </Placemark>
            <Placemark>
                <address>Mong Kok Road Playground, Mong Kok Road, Mong Kok West, Mong Kok, Yau Tsim Mong District, Hong Kong, KIL 3348, China</address>
                <Point>
                    <coordinates>114.1670804997,22.3206436707</coordinates>
                </Point>
                <ExtendedData>
                    <Data name="country">
                        <value>China</value>
                    </Data>
                    <Data name="suburb">
                        <value>Mong Kok</value>
                    </Data>
                    <Data name="neighbourhood">
                        <value>Mong Kok West</value>
                    </Data>
                    <Data name="county">
                        <value>Yau Tsim Mong District</value>
                    </Data>
                    <Data name="road">
                        <value>Mong Kok Road</value>
                    </Data>
                    <Data name="postcode">
                        <value>KIL 3348</value>
                    </Data>
                    <Data name="playground">
                        <value>Mong Kok Road Playground</value>
                    </Data>
                    <Data name="country_code">
                        <value>cn</value>
                    </Data>
                </ExtendedData>
            </Placemark>
            <Placemark>
                <address>Lai Chi Kok Road, Un Chau, Sham Shui Po, Sham Shui Po District, Hong Kong, KIL 3348, China</address>
                <Point>
                    <coordinates>114.1595302739,22.3290778295</coordinates>
                </Point>
                <ExtendedData>
                    <Data name="country">
                        <value>China</value>
                    </Data>
                    <Data name="suburb">
                        <value>Sham Shui Po</value>
                    </Data>
                    <Data name="neighbourhood">
                        <value>Un Chau</value>
                    </Data>
                    <Data name="county">
                        <value>Sham Shui Po District</value>
                    </Data>
                    <Data name="road">
                        <value>Lai Chi Kok Road</value>
                    </Data>
                    <Data name="postcode">
                        <value>KIL 3348</value>
                    </Data>
                    <Data name="country_code">
                        <value>cn</value>
                    </Data>
                </ExtendedData>
            </Placemark>
            <Placemark>
                <address>Dragon Centre, 37K, Yen Chow Street, Un Chau, Sham Shui Po, Sham Shui Po District, Hong Kong, KIL 3348, China</address>
                <Point>
                    <coordinates>114.1596120409,22.3309520372</coordinates>
                </Point>
                <ExtendedData>
                    <Data name="house_number">
                        <value>37K</value>
                    </Data>
                    <Data name="country">
                        <value>China</value>
                    </Data>
                    <Data name="mall">
                        <value>Dragon Centre</value>
                    </Data>
                    <Data name="suburb">
                        <value>Sham Shui Po</value>
                    </Data>
                    <Data name="neighbourhood">
                        <value>Un Chau</value>
                    </Data>
                    <Data name="county">
                        <value>Sham Shui Po District</value>
                    </Data>
                    <Data name="road">
                        <value>Yen Chow Street</value>
                    </Data>
                    <Data name="postcode">
                        <value>KIL 3348</value>
                    </Data>
                    <Data name="country_code">
                        <value>cn</value>
                    </Data>
                </ExtendedData>
            </Placemark>
            <Placemark>
                <address>Yat Ching House, Cheung Sha Wan Road, Om Yau, Sham Shui Po, Sham Shui Po District, Hong Kong, KIL 3348, China</address>
                <Point>
                    <coordinates>114.1596822028,22.3324903553</coordinates>
                </Point>
                <ExtendedData>
                    <Data name="address29">
                        <value>Yat Ching House</value>
                    </Data>
                    <Data name="country">
                        <value>China</value>
                    </Data>
                    <Data name="suburb">
                        <value>Sham Shui Po</value>
                    </Data>
                    <Data name="neighbourhood">
                        <value>Om Yau</value>
                    </Data>
                    <Data name="county">
                        <value>Sham Shui Po District</value>
                    </Data>
                    <Data name="road">
                        <value>Cheung Sha Wan Road</value>
                    </Data>
                    <Data name="postcode">
                        <value>KIL 3348</value>
                    </Data>
                    <Data name="country_code">
                        <value>cn</value>
                    </Data>
                </ExtendedData>
            </Placemark>
            <Placemark>
                <address>Cheung Sha Wan Plaza, Cheung Sha Wan Road, Lai Chi Kok Bay, Cheung Sha Wan, Sham Shui Po District, Hong Kong, STTL 467, China</address>
                <Point>
                    <coordinates>114.1480572428,22.3371331189</coordinates>
                </Point>
                <ExtendedData>
                    <Data name="country">
                        <value>China</value>
                    </Data>
                    <Data name="mall">
                        <value>Cheung Sha Wan Plaza</value>
                    </Data>
                    <Data name="suburb">
                        <value>Cheung Sha Wan</value>
                    </Data>
                    <Data name="neighbourhood">
                        <value>Lai Chi Kok Bay</value>
                    </Data>
                    <Data name="county">
                        <value>Sham Shui Po District</value>
                    </Data>
                    <Data name="road">
                        <value>Cheung Sha Wan Road</value>
                    </Data>
                    <Data name="postcode">
                        <value>STTL 467</value>
                    </Data>
                    <Data name="country_code">
                        <value>cn</value>
                    </Data>
                </ExtendedData>
            </Placemark>
            <Placemark>
                <address>Lai Chi Kok Bay Garden, Lai King Hill Road, Lai Chi Kok Bay, Lai Chi Kok, Sham Shui Po District, Hong Kong, 852, China</address>
                <Point>
                    <coordinates>114.1363362392,22.3412284805</coordinates>
                </Point>
                <ExtendedData>
                    <Data name="country">
                        <value>China</value>
                    </Data>
                    <Data name="suburb">
                        <value>Lai Chi Kok</value>
                    </Data>
                    <Data name="neighbourhood">
                        <value>Lai Chi Kok Bay</value>
                    </Data>
                    <Data name="bus_stop">
                        <value>Lai Chi Kok Bay Garden</value>
                    </Data>
                    <Data name="county">
                        <value>Sham Shui Po District</value>
                    </Data>
                    <Data name="road">
                        <value>Lai King Hill Road</value>
                    </Data>
                    <Data name="postcode">
                        <value>852</value>
                    </Data>
                    <Data name="country_code">
                        <value>cn</value>
                    </Data>
                </ExtendedData>
            </Placemark>
            <Placemark>
                <address>Un Nga House, Cheung Sha Wan Road, Om Yau, Cheung Sha Wan, Sham Shui Po District, Hong Kong, STTL 467, China</address>
                <Point>
                    <coordinates>114.1556491238,22.3361693587</coordinates>
                </Point>
                <ExtendedData>
                    <Data name="country">
                        <value>China</value>
                    </Data>
                    <Data name="suburb">
                        <value>Cheung Sha Wan</value>
                    </Data>
                    <Data name="neighbourhood">
                        <value>Om Yau</value>
                    </Data>
                    <Data name="building">
                        <value>Un Nga House</value>
                    </Data>
                    <Data name="county">
                        <value>Sham Shui Po District</value>
                    </Data>
                    <Data name="road">
                        <value>Cheung Sha Wan Road</value>
                    </Data>
                    <Data name="postcode">
                        <value>STTL 467</value>
                    </Data>
                    <Data name="country_code">
                        <value>cn</value>
                    </Data>
                </ExtendedData>
            </Placemark>
            <Placemark>
                <address>67, Argyle Street, Mong Kok West, Mong Kok, Yau Tsim Mong District, Hong Kong, KIL 3348, China</address>
                <Point>
                    <coordinates>114.1701197916,22.3194194262</coordinates>
                </Point>
                <ExtendedData>
                    <Data name="house_number">
                        <value>67</value>
                    </Data>
                    <Data name="country">
                        <value>China</value>
                    </Data>
                    <Data name="suburb">
                        <value>Mong Kok</value>
                    </Data>
                    <Data name="routingVisited">
                        <value>false</value>
                    </Data>
                    <Data name="neighbourhood">
                        <value>Mong Kok West</value>
                    </Data>
                    <Data name="county">
                        <value>Yau Tsim Mong District</value>
                    </Data>
                    <Data name="road">
                        <value>Argyle Street</value>
                    </Data>
                    <Data name="postcode">
                        <value>KIL 3348</value>
                    </Data>
                    <Data name="country_code">
                        <value>cn</value>
                    </Data>
                </ExtendedData>
            </Placemark>
            <Placemark>
                <address>Centennial Campus, 76-78, Pok Fu Lam Road, Shek Tong Tsui, Sai Wan, Central and Western District, Hong Kong, CENTRAL, China</address>
                <Point>
                    <coordinates>114.1328982832,22.2827093423</coordinates>
                </Point>
                <ExtendedData>
                    <Data name="house_number">
                        <value>76-78</value>
                    </Data>
                    <Data name="country">
                        <value>China</value>
                    </Data>
                    <Data name="suburb">
                        <value>Shek Tong Tsui</value>
                    </Data>
                    <Data name="university">
                        <value>Centennial Campus</value>
                    </Data>
                    <Data name="county">
                        <value>Central and Western District</value>
                    </Data>
                    <Data name="road">
                        <value>Pok Fu Lam Road</value>
                    </Data>
                    <Data name="town">
                        <value>Sai Wan</value>
                    </Data>
                    <Data name="postcode">
                        <value>CENTRAL</value>
                    </Data>
                    <Data name="country_code">
                        <value>cn</value>
                    </Data>
                </ExtendedData>
            </Placemark>
            <Placemark>
                <address>Ovolo Hotel Shek Pai Wan, 100, Shek Pai Wan Road, Tin Wan, Shui Choi Tin Village, Southern District, Hong Kong, AIL 83, China</address>
                <Point>
                    <coordinates>114.1491921082,22.2488987354</coordinates>
                </Point>
                <ExtendedData>
                    <Data name="house_number">
                        <value>100</value>
                    </Data>
                    <Data name="country">
                        <value>China</value>
                    </Data>
                    <Data name="suburb">
                        <value>Tin Wan</value>
                    </Data>
                    <Data name="hotel">
                        <value>Ovolo Hotel Shek Pai Wan</value>
                    </Data>
                    <Data name="hamlet">
                        <value>Shui Choi Tin Village</value>
                    </Data>
                    <Data name="county">
                        <value>Southern District</value>
                    </Data>
                    <Data name="road">
                        <value>Shek Pai Wan Road</value>
                    </Data>
                    <Data name="postcode">
                        <value>AIL 83</value>
                    </Data>
                    <Data name="country_code">
                        <value>cn</value>
                    </Data>
                </ExtendedData>
            </Placemark>
            <Placemark>
                <address>Aberdeen Municipal Services Building, Aberdeen Main Road, Aberdeen, Shui Choi Tin Village, Southern District, Hong Kong, AIL 93, China</address>
                <Point>
                    <coordinates>114.1549832417,22.2495211230</coordinates>
                </Point>
                <ExtendedData>
                    <Data name="address29">
                        <value>Aberdeen Municipal Services Building</value>
                    </Data>
                    <Data name="country">
                        <value>China</value>
                    </Data>
                    <Data name="suburb">
                        <value>Aberdeen</value>
                    </Data>
                    <Data name="hamlet">
                        <value>Shui Choi Tin Village</value>
                    </Data>
                    <Data name="county">
                        <value>Southern District</value>
                    </Data>
                    <Data name="road">
                        <value>Aberdeen Main Road</value>
                    </Data>
                    <Data name="postcode">
                        <value>AIL 93</value>
                    </Data>
                    <Data name="country_code">
                        <value>cn</value>
                    </Data>
                </ExtendedData>
            </Placemark>
            <Placemark>
                <address>Lei Tung Commercial Centre, Lei Tung Estate Road, Ap Lei Chau, Wong Chuk Hang San Wai, Southern District, Hong Kong, AIL 83, China</address>
                <Point>
                    <coordinates>114.1564704832,22.2406882078</coordinates>
                </Point>
                <ExtendedData>
                    <Data name="country">
                        <value>China</value>
                    </Data>
                    <Data name="mall">
                        <value>Lei Tung Commercial Centre</value>
                    </Data>
                    <Data name="suburb">
                        <value>Ap Lei Chau</value>
                    </Data>
                    <Data name="hamlet">
                        <value>Wong Chuk Hang San Wai</value>
                    </Data>
                    <Data name="county">
                        <value>Southern District</value>
                    </Data>
                    <Data name="road">
                        <value>Lei Tung Estate Road</value>
                    </Data>
                    <Data name="postcode">
                        <value>AIL 83</value>
                    </Data>
                    <Data name="country_code">
                        <value>cn</value>
                    </Data>
                </ExtendedData>
            </Placemark>
        </Folder>
        <Document>
            <name>41.3 km; 00:51 h (OSRM)</name>
            <Placemark>
                <name>Route</name>
                <LineString>
                    <coordinates>114.1562850000,22.2407380000 114.1562530000,22.2407120000 114.1562030000,22.2406930000 114.1560940000,22.2406650000 114.1560160000,22.2406480000 114.1559120000,22.2406410000 114.1556660000,22.2406340000 114.1551370000,22.2406400000 114.1550660000,22.2406590000 114.1549800000,22.2406990000 114.1549490000,22.2407290000 114.1549250000,22.2407840000 114.1548980000,22.2410030000 114.1548970000,22.2412130000 114.1548960000,22.2413420000 114.1548950000,22.2414040000 114.1548810000,22.2417730000 114.1549720000,22.2418970000 114.1550850000,22.2420070000 114.1559140000,22.2420180000 114.1561410000,22.2420100000 114.1563570000,22.2420090000 114.1566810000,22.2420160000 114.1568030000,22.2419810000 114.1568730000,22.2419240000 114.1569350000,22.2418390000 114.1569720000,22.2416970000 114.1569720000,22.2413610000 114.1570140000,22.2411520000 114.1571230000,22.2410200000 114.1571480000,22.2409900000 114.1572900000,22.2409200000 114.1574950000,22.2409130000 114.1576620000,22.2409610000 114.1577860000,22.2410670000 114.1578570000,22.2411870000 114.1578900000,22.2413210000 114.1578960000,22.2416750000 114.1578980000,22.2417920000 114.1579000000,22.2418480000 114.1579010000,22.2418780000 114.1579190000,22.2423810000 114.1579070000,22.2427160000 114.1578860000,22.2429900000 114.1578850000,22.2430290000 114.1578730000,22.2431630000 114.1578730000,22.2432530000 114.1578740000,22.2432940000 114.1578740000,22.2433290000 114.1578740000,22.2433790000 114.1577730000,22.2433810000 114.1576890000,22.2433880000 114.1575920000,22.2434050000 114.1575250000,22.2434290000 114.1574230000,22.2434900000 114.1573920000,22.2435170000 114.1573220000,22.2435780000 114.1572650000,22.2436410000 114.1573360000,22.2436920000 114.1574710000,22.2438570000 114.1574940000,22.2438860000 114.1575520000,22.2439590000 114.1576940000,22.2441480000 114.1577800000,22.2442430000 114.1578860000,22.2443300000 114.1580560000,22.2444470000 114.1581240000,22.2444770000 114.1582130000,22.2445170000 114.1583320000,22.2445710000 114.1585940000,22.2446790000 114.1588260000,22.2448160000 114.1588880000,22.2448650000 114.1590380000,22.2449850000 114.1602530000,22.2461210000 114.1603470000,22.2462090000 114.1607350000,22.2465660000 114.1607970000,22.2466350000 114.1608470000,22.2466970000 114.1608920000,22.2467650000 114.1609300000,22.2468370000 114.1609650000,22.2469210000 114.1609910000,22.2470020000 114.1610080000,22.2470640000 114.1610170000,22.2471360000 114.1610070000,22.2472360000 114.1609960000,22.2473480000 114.1609920000,22.2473890000 114.1609300000,22.2475190000 114.1609200000,22.2475370000 114.1608690000,22.2476330000 114.1608000000,22.2477200000 114.1606960000,22.2478000000 114.1605830000,22.2478620000 114.1604810000,22.2479080000 114.1604070000,22.2479180000 114.1603610000,22.2479200000 114.1603110000,22.2479150000 114.1602120000,22.2478940000 114.1601350000,22.2478720000 114.1599420000,22.2478550000 114.1598220000,22.2478100000 114.1595500000,22.2477080000 114.1595210000,22.2476980000 114.1591600000,22.2475730000 114.1586620000,22.2474000000 114.1582370000,22.2472400000 114.1573450000,22.2469330000 114.1571350000,22.2468780000 114.1569170000,22.2468590000 114.1566960000,22.2468610000 114.1565530000,22.2468810000 114.1564380000,22.2469000000 114.1562220000,22.2469640000 114.1559470000,22.2470450000 114.1559100000,22.2470560000 114.1556580000,22.2471300000 114.1552920000,22.2472380000 114.1544870000,22.2474770000 114.1538060000,22.2476890000 114.1536280000,22.2477440000 114.1534900000,22.2477860000 114.1532020000,22.2478780000 114.1530860000,22.2479060000 114.1526650000,22.2479860000 114.1526020000,22.2479980000 114.1524230000,22.2480350000 114.1514710000,22.2481930000 114.1512320000,22.2482430000 114.1502850000,22.2484460000 114.1501730000,22.2484690000 114.1500380000,22.2484870000 114.1499360000,22.2484920000 114.1498240000,22.2484910000 114.1493910000,22.2484690000 114.1492530000,22.2484660000 114.1491510000,22.2484680000 114.1489890000,22.2484800000 114.1488270000,22.2485030000 114.1485200000,22.2485680000 114.1481420000,22.2486580000 114.1473940000,22.2488350000 114.1472300000,22.2488730000 114.1460640000,22.2491370000 114.1457420000,22.2492110000 114.1453920000,22.2492530000 114.1451540000,22.2492660000 114.1449430000,22.2492580000 114.1448070000,22.2492440000 114.1442880000,22.2491720000 114.1436800000,22.2490800000 114.1434190000,22.2490690000 114.1432790000,22.2490720000 114.1431620000,22.2490830000 114.1429500000,22.2491300000 114.1423490000,22.2493480000 114.1421500000,22.2494300000 114.1419400000,22.2495400000 114.1417900000,22.2496500000 114.1416490000,22.2497870000 114.1415500000,22.2499040000 114.1414730000,22.2500130000 114.1413970000,22.2501580000 114.1413400000,22.2502900000 114.1412800000,22.2504700000 114.1411220000,22.2510960000 114.1409450000,22.2517180000 114.1409010000,22.2518280000 114.1408410000,22.2519610000 114.1407260000,22.2521720000 114.1404940000,22.2524210000 114.1399600000,22.2529070000 114.1395700000,22.2532410000 114.1393690000,22.2534040000 114.1392320000,22.2535150000 114.1392030000,22.2535390000 114.1391130000,22.2536210000 114.1390370000,22.2537080000 114.1385770000,22.2542820000 114.1382960000,22.2546590000 114.1380840000,22.2550520000 114.1379370000,22.2553770000 114.1377760000,22.2557490000 114.1375690000,22.2562290000 114.1375040000,22.2564050000 114.1372980000,22.2568220000 114.1371850000,22.2569780000 114.1367120000,22.2574990000 114.1366380000,22.2576510000 114.1365720000,22.2578110000 114.1365530000,22.2580230000 114.1365680000,22.2597220000 114.1365460000,22.2598910000 114.1365050000,22.2601000000 114.1364760000,22.2602390000 114.1364700000,22.2602670000 114.1364610000,22.2603010000 114.1362910000,22.2608870000 114.1362300000,22.2610760000 114.1361330000,22.2614540000 114.1360650000,22.2616210000 114.1358560000,22.2619970000 114.1356240000,22.2623430000 114.1355430000,22.2624590000 114.1354390000,22.2625480000 114.1353370000,22.2626260000 114.1351430000,22.2627350000 114.1348260000,22.2629520000 114.1346990000,22.2630730000 114.1342890000,22.2635430000 114.1340160000,22.2638640000 114.1339000000,22.2640070000 114.1335300000,22.2644180000 114.1334750000,22.2644930000 114.1334280000,22.2645570000 114.1333500000,22.2646830000 114.1333080000,22.2648240000 114.1332570000,22.2657950000 114.1332340000,22.2658950000 114.1331920000,22.2660050000 114.1331520000,22.2661020000 114.1330980000,22.2661930000 114.1329960000,22.2663090000 114.1328710000,22.2664500000 114.1327700000,22.2665510000 114.1323870000,22.2668890000 114.1322790000,22.2669850000 114.1319910000,22.2673090000 114.1318370000,22.2675790000 114.1317420000,22.2677380000 114.1316860000,22.2678120000 114.1315150000,22.2680410000 114.1311100000,22.2685260000 114.1308200000,22.2689380000 114.1307780000,22.2689980000 114.1305080000,22.2694620000 114.1301860000,22.2700180000 114.1301470000,22.2700930000 114.1301180000,22.2701590000 114.1300930000,22.2702390000 114.1300710000,22.2703270000 114.1300610000,22.2704020000 114.1300580000,22.2704890000 114.1300590000,22.2705880000 114.1300670000,22.2706950000 114.1300880000,22.2708020000 114.1301280000,22.2709230000 114.1301570000,22.2710000000 114.1302070000,22.2711250000 114.1303370000,22.2713460000 114.1303950000,22.2714460000 114.1304650000,22.2715620000 114.1306070000,22.2718290000 114.1306470000,22.2719110000 114.1306790000,22.2719940000 114.1306990000,22.2720670000 114.1307090000,22.2721550000 114.1307090000,22.2722240000 114.1307020000,22.2723190000 114.1306880000,22.2723890000 114.1306630000,22.2724790000 114.1306200000,22.2725930000 114.1305770000,22.2726810000 114.1300490000,22.2736490000 114.1299890000,22.2738970000 114.1299660000,22.2742240000 114.1299620000,22.2743800000 114.1299160000,22.2747970000 114.1297110000,22.2753890000 114.1296660000,22.2756560000 114.1296670000,22.2758460000 114.1297070000,22.2760300000 114.1297750000,22.2762700000 114.1298700000,22.2764800000 114.1300530000,22.2767940000 114.1302590000,22.2770640000 114.1304100000,22.2772630000 114.1304970000,22.2773780000 114.1305630000,22.2774570000 114.1306420000,22.2775700000 114.1306940000,22.2776000000 114.1307710000,22.2776450000 114.1309020000,22.2778280000 114.1309920000,22.2780220000 114.1310580000,22.2782230000 114.1310880000,22.2784100000 114.1311110000,22.2785870000 114.1311530000,22.2789080000 114.1312030000,22.2792580000 114.1312710000,22.2795350000 114.1314170000,22.2800300000 114.1315170000,22.2804100000 114.1315610000,22.2805610000 114.1315730000,22.2805990000 114.1315960000,22.2806940000 114.1316660000,22.2809490000 114.1317510000,22.2811270000 114.1318980000,22.2813190000 114.1319720000,22.2814360000 114.1320840000,22.2815980000 114.1321430000,22.2816880000 114.1321920000,22.2817630000 114.1323430000,22.2820080000 114.1323680000,22.2820930000 114.1323910000,22.2822440000 114.1324200000,22.2823860000 114.1324460000,22.2824880000 114.1324810000,22.2826210000 114.1326300000,22.2830040000 114.1327260000,22.2831900000 114.1328430000,22.2833370000 114.1333180000,22.2838100000 114.1334820000,22.2839810000 114.1335140000,22.2840150000 114.1335390000,22.2840400000 114.1336060000,22.2841040000 114.1337040000,22.2841900000 114.1337250000,22.2842100000 114.1337440000,22.2842270000 114.1339160000,22.2843030000 114.1339870000,22.2843230000 114.1340620000,22.2843410000 114.1341590000,22.2843560000 114.1342550000,22.2843630000 114.1343640000,22.2843650000 114.1344700000,22.2843640000 114.1345760000,22.2843490000 114.1346680000,22.2843290000 114.1347660000,22.2843050000 114.1348840000,22.2842660000 114.1350400000,22.2842040000 114.1351910000,22.2841070000 114.1352540000,22.2840600000 114.1354150000,22.2839120000 114.1354800000,22.2838960000 114.1355520000,22.2838950000 114.1356520000,22.2839060000 114.1356990000,22.2839180000 114.1357300000,22.2839320000 114.1357580000,22.2839520000 114.1357890000,22.2839810000 114.1358130000,22.2840090000 114.1358310000,22.2840390000 114.1358430000,22.2840710000 114.1358510000,22.2841020000 114.1358580000,22.2841360000 114.1358630000,22.2841740000 114.1358690000,22.2842350000 114.1358700000,22.2842650000 114.1358990000,22.2849600000 114.1359010000,22.2850270000 114.1358990000,22.2850910000 114.1358920000,22.2851490000 114.1358820000,22.2851940000 114.1358640000,22.2852340000 114.1358350000,22.2852780000 114.1358010000,22.2853160000 114.1357580000,22.2853540000 114.1357150000,22.2853820000 114.1356600000,22.2854110000 114.1356030000,22.2854350000 114.1354200000,22.2855000000 114.1353710000,22.2855220000 114.1353290000,22.2855440000 114.1353020000,22.2855640000 114.1352710000,22.2855930000 114.1352380000,22.2856250000 114.1352100000,22.2856590000 114.1351860000,22.2856970000 114.1351680000,22.2857380000 114.1351560000,22.2857860000 114.1351510000,22.2858240000 114.1351520000,22.2858560000 114.1351570000,22.2858860000 114.1353010000,22.2864250000 114.1353150000,22.2864860000 114.1353270000,22.2865470000 114.1354390000,22.2872260000 114.1354590000,22.2873160000 114.1354890000,22.2874260000 114.1355040000,22.2875280000 114.1355350000,22.2875950000 114.1355700000,22.2876500000 114.1356120000,22.2876970000 114.1356830000,22.2877540000 114.1357500000,22.2877920000 114.1358280000,22.2878220000 114.1359000000,22.2878400000 114.1361100000,22.2878800000 114.1368330000,22.2879460000 114.1368800000,22.2879500000 114.1372540000,22.2879420000 114.1377190000,22.2879630000 114.1381100000,22.2881040000 114.1382660000,22.2881790000 114.1383580000,22.2882300000 114.1384500000,22.2882880000 114.1385290000,22.2883540000 114.1385580000,22.2883790000 114.1385820000,22.2883980000 114.1386800000,22.2884790000 114.1394400000,22.2890300000 114.1396100000,22.2891500000 114.1397650000,22.2892800000 114.1398800000,22.2893980000 114.1399980000,22.2895300000 114.1401000000,22.2896600000 114.1403300000,22.2899800000 114.1403980000,22.2900680000 114.1404700000,22.2901490000 114.1405570000,22.2902280000 114.1406550000,22.2903040000 114.1407200000,22.2903480000 114.1408100000,22.2903970000 114.1408900000,22.2904300000 114.1409700000,22.2904540000 114.1410490000,22.2904710000 114.1411490000,22.2904840000 114.1412500000,22.2904890000 114.1413700000,22.2904800000 114.1414800000,22.2904600000 114.1417000000,22.2904000000 114.1421200000,22.2901300000 114.1424600000,22.2898600000 114.1425830000,22.2897820000 114.1427100000,22.2897090000 114.1428220000,22.2896550000 114.1429370000,22.2896050000 114.1430450000,22.2895600000 114.1431500000,22.2895200000 114.1433550000,22.2894500000 114.1438540000,22.2893380000 114.1443030000,22.2893170000 114.1448240000,22.2893420000 114.1451430000,22.2893800000 114.1452440000,22.2893890000 114.1455740000,22.2894930000 114.1458720000,22.2896760000 114.1461270000,22.2899050000 114.1463680000,22.2901390000 114.1549210000,22.2993610000 114.1554730000,22.2999560000 114.1558600000,22.3003730000 114.1563030000,22.3008510000 114.1566240000,22.3011970000 114.1572490000,22.3020230000 114.1575930000,22.3024530000 114.1577020000,22.3028840000 114.1577620000,22.3030120000 114.1578230000,22.3031200000 114.1579010000,22.3032220000 114.1579530000,22.3033050000 114.1580640000,22.3034560000 114.1584180000,22.3038840000 114.1584960000,22.3040460000 114.1585590000,22.3041980000 114.1586150000,22.3043130000 114.1592010000,22.3050960000 114.1592230000,22.3051260000 114.1593940000,22.3053550000 114.1596750000,22.3056180000 114.1598250000,22.3058060000 114.1599920000,22.3060420000 114.1600830000,22.3062120000 114.1603690000,22.3068550000 114.1605800000,22.3073870000 114.1606170000,22.3074920000 114.1606430000,22.3075640000 114.1606840000,22.3076830000 114.1607090000,22.3077590000 114.1607460000,22.3078670000 114.1608150000,22.3081090000 114.1608500000,22.3083320000 114.1608610000,22.3085380000 114.1608620000,22.3086830000 114.1608400000,22.3089450000 114.1607400000,22.3093580000 114.1606140000,22.3098860000 114.1604450000,22.3105830000 114.1604030000,22.3108410000 114.1603860000,22.3110550000 114.1603810000,22.3112390000 114.1603890000,22.3114090000 114.1604470000,22.3117740000 114.1605150000,22.3122110000 114.1605380000,22.3123550000 114.1606670000,22.3131410000 114.1607660000,22.3137870000 114.1607810000,22.3140190000 114.1607760000,22.3141790000 114.1607590000,22.3143550000 114.1607260000,22.3146350000 114.1606640000,22.3148920000 114.1605100000,22.3153440000 114.1599910000,22.3166690000 114.1598100000,22.3169170000 114.1597150000,22.3170300000 114.1595820000,22.3171140000 114.1594410000,22.3171760000 114.1593190000,22.3172040000 114.1591340000,22.3172240000 114.1585350000,22.3172520000 114.1581900000,22.3173120000 114.1571410000,22.3173320000 114.1570750000,22.3173130000 114.1569920000,22.3172830000 114.1569780000,22.3172490000 114.1569570000,22.3172180000 114.1569100000,22.3171760000 114.1568510000,22.3171490000 114.1567850000,22.3171400000 114.1567210000,22.3171500000 114.1566540000,22.3171840000 114.1566040000,22.3172370000 114.1565780000,22.3173040000 114.1565790000,22.3173740000 114.1566060000,22.3174400000 114.1566570000,22.3174920000 114.1566990000,22.3175160000 114.1567460000,22.3175300000 114.1567950000,22.3175340000 114.1568430000,22.3175270000 114.1568900000,22.3175100000 114.1569300000,22.3174830000 114.1570690000,22.3174430000 114.1571390000,22.3174440000 114.1579100000,22.3174380000 114.1581950000,22.3174090000 114.1585600000,22.3174030000 114.1587100000,22.3174000000 114.1594410000,22.3173960000 114.1598620000,22.3174440000 114.1602280000,22.3175040000 114.1603370000,22.3175340000 114.1605870000,22.3176100000 114.1609180000,22.3176960000 114.1614630000,22.3178940000 114.1618970000,22.3180710000 114.1619690000,22.3181200000 114.1620620000,22.3181970000 114.1621140000,22.3182630000 114.1621480000,22.3183170000 114.1621740000,22.3183570000 114.1622710000,22.3184730000 114.1622710000,22.3185320000 114.1622790000,22.3185900000 114.1622950000,22.3186470000 114.1623190000,22.3187010000 114.1623490000,22.3187530000 114.1623860000,22.3188000000 114.1624300000,22.3188430000 114.1624780000,22.3188800000 114.1625320000,22.3189120000 114.1625890000,22.3189370000 114.1626490000,22.3189560000 114.1627110000,22.3189670000 114.1627750000,22.3189710000 114.1628380000,22.3189680000 114.1629430000,22.3189030000 114.1630570000,22.3188130000 114.1632460000,22.3187440000 114.1633040000,22.3187260000 114.1633650000,22.3187200000 114.1634950000,22.3187230000 114.1637400000,22.3187300000 114.1644730000,22.3187520000 114.1654870000,22.3187810000 114.1654560000,22.3189430000 114.1653250000,22.3196200000 114.1652330000,22.3200960000 114.1656100000,22.3201580000 114.1656460000,22.3201660000 114.1657600000,22.3201830000 114.1659070000,22.3202160000 114.1659160000,22.3202170000 114.1659660000,22.3202600000 114.1659910000,22.3202650000 114.1660560000,22.3202780000 114.1661590000,22.3202940000 114.1661980000,22.3203840000 114.1664630000,22.3204340000 114.1668760000,22.3204990000 114.1671040000,22.3205460000 114.1672110000,22.3205680000 114.1672540000,22.3205760000 114.1673590000,22.3205500000 114.1676930000,22.3206100000 114.1677170000,22.3206140000 114.1677920000,22.3206260000 114.1679060000,22.3206450000 114.1680890000,22.3206760000 114.1683060000,22.3207120000 114.1683450000,22.3207180000 114.1684150000,22.3207300000 114.1686900000,22.3207710000 114.1688560000,22.3207970000 114.1688960000,22.3208030000 114.1690010000,22.3208190000 114.1689870000,22.3208860000 114.1689680000,22.3209790000 114.1688970000,22.3213210000 114.1688490000,22.3215520000 114.1687620000,22.3220450000 114.1687540000,22.3220850000 114.1686850000,22.3221740000 114.1686100000,22.3222700000 114.1685140000,22.3223710000 114.1684040000,22.3224600000 114.1683630000,22.3224880000 114.1678210000,22.3228570000 114.1675100000,22.3230910000 114.1674680000,22.3231230000 114.1672860000,22.3232690000 114.1669370000,22.3235240000 114.1669100000,22.3235450000 114.1668800000,22.3235670000 114.1668120000,22.3236190000 114.1667560000,22.3236630000 114.1666260000,22.3237580000 114.1665170000,22.3238280000 114.1661530000,22.3241170000 114.1660050000,22.3242260000 114.1656400000,22.3245070000 114.1655780000,22.3245570000 114.1654250000,22.3246790000 114.1652750000,22.3248410000 114.1651000000,22.3249750000 114.1650660000,22.3250010000 114.1648720000,22.3251610000 114.1648230000,22.3251920000 114.1647420000,22.3252360000 114.1641850000,22.3256750000 114.1641070000,22.3257310000 114.1640030000,22.3258110000 114.1635230000,22.3261760000 114.1634110000,22.3262610000 114.1633250000,22.3263590000 114.1631440000,22.3264990000 114.1626370000,22.3268870000 114.1620400000,22.3273460000 114.1620060000,22.3273710000 114.1618690000,22.3274780000 114.1617100000,22.3275930000 114.1616410000,22.3276460000 114.1609370000,22.3281900000 114.1608980000,22.3282200000 114.1608060000,22.3282660000 114.1600720000,22.3288380000 114.1600270000,22.3288710000 114.1599590000,22.3289220000 114.1597860000,22.3290610000 114.1596260000,22.3291850000 114.1593110000,22.3294290000 114.1592740000,22.3294560000 114.1591150000,22.3295790000 114.1590170000,22.3296550000 114.1590790000,22.3297340000 114.1591880000,22.3298590000 114.1594340000,22.3301230000 114.1594670000,22.3301510000 114.1597600000,22.3304870000 114.1598650000,22.3306010000 114.1597180000,22.3307100000 114.1597180000,22.3307100000 114.1598650000,22.3306010000 114.1599540000,22.3307030000 114.1600990000,22.3308750000 114.1601600000,22.3309430000 114.1603810000,22.3311920000 114.1607650000,22.3316090000 114.1608020000,22.3316480000 114.1608900000,22.3317470000 114.1608040000,22.3318130000 114.1602940000,22.3322080000 114.1600780000,22.3323710000 114.1597830000,22.3326010000 114.1597500000,22.3326270000 114.1591190000,22.3331180000 114.1591050000,22.3331290000 114.1590660000,22.3331600000 114.1586680000,22.3334690000 114.1586160000,22.3335100000 114.1585460000,22.3335650000 114.1583150000,22.3337440000 114.1575840000,22.3343150000 114.1574770000,22.3343960000 114.1574310000,22.3344320000 114.1573110000,22.3345220000 114.1572090000,22.3346010000 114.1570980000,22.3346960000 114.1563230000,22.3353030000 114.1562790000,22.3353370000 114.1559960000,22.3355550000 114.1559220000,22.3356120000 114.1558520000,22.3356660000 114.1555020000,22.3359410000 114.1554360000,22.3359940000 114.1552620000,22.3361260000 114.1552040000,22.3361700000 114.1551030000,22.3362410000 114.1538210000,22.3372230000 114.1537860000,22.3372510000 114.1536520000,22.3373560000 114.1535550000,22.3374290000 114.1528600000,22.3379970000 114.1528290000,22.3380220000 114.1527240000,22.3381080000 114.1525220000,22.3382400000 114.1523750000,22.3383040000 114.1522810000,22.3383430000 114.1521820000,22.3383830000 114.1520160000,22.3384340000 114.1517580000,22.3384380000 114.1515640000,22.3383970000 114.1513800000,22.3383390000 114.1512640000,22.3382830000 114.1511440000,22.3382560000 114.1510510000,22.3382260000 114.1509290000,22.3381930000 114.1507350000,22.3381350000 114.1506270000,22.3381000000 114.1505920000,22.3380910000 114.1505570000,22.3380820000 114.1496510000,22.3377660000 114.1496120000,22.3377520000 114.1494140000,22.3376830000 114.1492940000,22.3376420000 114.1482860000,22.3372960000 114.1480540000,22.3372150000 114.1480270000,22.3372060000 114.1479910000,22.3371930000 114.1478230000,22.3371340000 114.1475380000,22.3370330000 114.1473700000,22.3369750000 114.1472300000,22.3369260000 114.1467030000,22.3367430000 114.1462130000,22.3365760000 114.1459240000,22.3364740000 114.1457050000,22.3364030000 114.1449850000,22.3361620000 114.1447600000,22.3360930000 114.1445170000,22.3360740000 114.1442060000,22.3361330000 114.1439210000,22.3362200000 114.1434850000,22.3363000000 114.1430170000,22.3364030000 114.1425200000,22.3364870000 114.1424270000,22.3365020000 114.1422030000,22.3365370000 114.1420170000,22.3365530000 114.1418910000,22.3365620000 114.1417120000,22.3365530000 114.1414680000,22.3365370000 114.1413260000,22.3365390000 114.1412600000,22.3365370000 114.1411080000,22.3365480000 114.1410430000,22.3365590000 114.1409290000,22.3365820000 114.1409000000,22.3365890000 114.1407560000,22.3366960000 114.1407070000,22.3367480000 114.1406970000,22.3367590000 114.1406730000,22.3367890000 114.1406560000,22.3368360000 114.1406510000,22.3369290000 114.1406720000,22.3370350000 114.1407100000,22.3371650000 114.1407160000,22.3371830000 114.1407390000,22.3373360000 114.1407590000,22.3374170000 114.1407720000,22.3374530000 114.1407910000,22.3375080000 114.1408050000,22.3375720000 114.1408270000,22.3376360000 114.1408620000,22.3377170000 114.1408750000,22.3378000000 114.1408830000,22.3378540000 114.1409010000,22.3378950000 114.1408920000,22.3379200000 114.1408410000,22.3380470000 114.1407900000,22.3381750000 114.1406940000,22.3384080000 114.1404550000,22.3389680000 114.1404370000,22.3390090000 114.1404240000,22.3390400000 114.1402940000,22.3393520000 114.1402190000,22.3394950000 114.1401060000,22.3396100000 114.1399330000,22.3397180000 114.1391670000,22.3400660000 114.1390540000,22.3401220000 114.1389570000,22.3401860000 114.1388710000,22.3403040000 114.1388120000,22.3404000000 114.1387270000,22.3405360000 114.1387080000,22.3405660000 114.1386660000,22.3406270000 114.1386480000,22.3406520000 114.1384250000,22.3409750000 114.1383080000,22.3411790000 114.1382820000,22.3412500000 114.1382710000,22.3412900000 114.1382510000,22.3414930000 114.1381160000,22.3414940000 114.1378410000,22.3415010000 114.1376270000,22.3414900000 114.1373950000,22.3414670000 114.1372220000,22.3414290000 114.1370540000,22.3413880000 114.1368030000,22.3413180000 114.1365580000,22.3412150000 114.1364720000,22.3411040000 114.1364190000,22.3410750000 114.1363610000,22.3410740000 114.1363270000,22.3410950000 114.1363170000,22.3411360000 114.1363350000,22.3411680000 114.1363650000,22.3411850000 114.1363750000,22.3411910000 114.1364430000,22.3412060000 114.1365580000,22.3412150000 114.1368030000,22.3413180000 114.1370540000,22.3413880000 114.1372220000,22.3414290000 114.1373950000,22.3414670000 114.1376270000,22.3414900000 114.1378410000,22.3415010000 114.1381160000,22.3414940000 114.1382510000,22.3414930000 114.1382710000,22.3412900000 114.1382820000,22.3412500000 114.1383080000,22.3411790000 114.1384250000,22.3409750000 114.1386480000,22.3406520000 114.1386660000,22.3406270000 114.1387080000,22.3405660000 114.1387270000,22.3405360000 114.1388120000,22.3404000000 114.1388710000,22.3403040000 114.1389570000,22.3401860000 114.1390540000,22.3401220000 114.1391670000,22.3400660000 114.1399330000,22.3397180000 114.1401060000,22.3396100000 114.1402190000,22.3394950000 114.1402940000,22.3393520000 114.1404240000,22.3390400000 114.1404370000,22.3390090000 114.1404550000,22.3389680000 114.1406940000,22.3384080000 114.1407900000,22.3381750000 114.1408410000,22.3380470000 114.1408920000,22.3379200000 114.1409010000,22.3378950000 114.1409500000,22.3378580000 114.1409600000,22.3377840000 114.1409500000,22.3376950000 114.1409110000,22.3376010000 114.1408930000,22.3375510000 114.1408850000,22.3374890000 114.1408880000,22.3374470000 114.1409030000,22.3373900000 114.1409210000,22.3373490000 114.1409620000,22.3372880000 114.1410210000,22.3372320000 114.1410890000,22.3371810000 114.1412030000,22.3371410000 114.1412750000,22.3371210000 114.1415820000,22.3370530000 114.1421030000,22.3368700000 114.1426010000,22.3367550000 114.1433400000,22.3366450000 114.1436690000,22.3366000000 114.1438290000,22.3365590000 114.1440080000,22.3365420000 114.1441880000,22.3365240000 114.1447300000,22.3364650000 114.1449900000,22.3364700000 114.1451340000,22.3364710000 114.1453540000,22.3364560000 114.1454690000,22.3364690000 114.1456080000,22.3364980000 114.1457010000,22.3365250000 114.1466080000,22.3368230000 114.1467920000,22.3368780000 114.1470620000,22.3369720000 114.1477910000,22.3372190000 114.1478410000,22.3372360000 114.1478890000,22.3372520000 114.1482660000,22.3373830000 114.1483610000,22.3374160000 114.1484850000,22.3374590000 114.1485360000,22.3374760000 114.1486530000,22.3375170000 114.1487080000,22.3375360000 114.1488680000,22.3375960000 114.1491460000,22.3377030000 114.1491940000,22.3377210000 114.1493720000,22.3377790000 114.1495080000,22.3378230000 114.1496190000,22.3378570000 114.1499280000,22.3379700000 114.1505410000,22.3381900000 114.1505830000,22.3382050000 114.1509590000,22.3383420000 114.1510130000,22.3383620000 114.1514460000,22.3385110000 114.1517420000,22.3386000000 114.1519950000,22.3386010000 114.1521940000,22.3385580000 114.1522950000,22.3385170000 114.1524590000,22.3384370000 114.1527030000,22.3382640000 114.1528030000,22.3381930000 114.1529110000,22.3381080000 114.1533200000,22.3377860000 114.1534750000,22.3376640000 114.1536440000,22.3375310000 114.1537460000,22.3374520000 114.1539090000,22.3373250000 114.1545640000,22.3368150000 114.1550440000,22.3364410000 114.1552880000,22.3362530000 114.1553380000,22.3362150000 114.1555370000,22.3360610000 114.1555370000,22.3360610000 114.1556370000,22.3359840000 114.1557340000,22.3359090000 114.1562810000,22.3354860000 114.1563140000,22.3354610000 114.1564210000,22.3353790000 114.1571400000,22.3348230000 114.1572250000,22.3347580000 114.1572980000,22.3347010000 114.1574030000,22.3346150000 114.1575920000,22.3344660000 114.1582930000,22.3339220000 114.1586490000,22.3336410000 114.1591120000,22.3332800000 114.1591530000,22.3332470000 114.1592260000,22.3331900000 114.1596250000,22.3328790000 114.1596780000,22.3328380000 114.1600840000,22.3325260000 114.1606830000,22.3320590000 114.1608450000,22.3319370000 114.1608740000,22.3319160000 114.1609770000,22.3318360000 114.1610660000,22.3317690000 114.1611900000,22.3316720000 114.1618810000,22.3311370000 114.1625100000,22.3306380000 114.1625910000,22.3305750000 114.1627630000,22.3304440000 114.1634510000,22.3299220000 114.1635040000,22.3298820000 114.1636730000,22.3297520000 114.1638180000,22.3296400000 114.1639000000,22.3295750000 114.1645560000,22.3290730000 114.1648550000,22.3288400000 114.1651310000,22.3286200000 114.1652130000,22.3285560000 114.1653000000,22.3284880000 114.1653860000,22.3284180000 114.1655050000,22.3283210000 114.1658240000,22.3281070000 114.1660600000,22.3279220000 114.1662820000,22.3277600000 114.1669350000,22.3272520000 114.1669910000,22.3272170000 114.1670180000,22.3272030000 114.1670600000,22.3271800000 114.1671390000,22.3271520000 114.1672430000,22.3271250000 114.1673030000,22.3271060000 114.1673530000,22.3270820000 114.1674040000,22.3270560000 114.1674530000,22.3270230000 114.1676480000,22.3268480000 114.1677440000,22.3267530000 114.1677660000,22.3267310000 114.1677730000,22.3267230000 114.1678470000,22.3266350000 114.1679190000,22.3264760000 114.1679560000,22.3263890000 114.1679690000,22.3263510000 114.1679810000,22.3263140000 114.1680030000,22.3262340000 114.1681560000,22.3255460000 114.1682260000,22.3252060000 114.1682370000,22.3251480000 114.1683990000,22.3243410000 114.1684400000,22.3241500000 114.1684440000,22.3241320000 114.1684600000,22.3240570000 114.1684820000,22.3239640000 114.1684910000,22.3239090000 114.1684940000,22.3238980000 114.1685080000,22.3238270000 114.1686590000,22.3231130000 114.1687020000,22.3229210000 114.1687200000,22.3228230000 114.1687320000,22.3227660000 114.1687860000,22.3224820000 114.1688690000,22.3220630000 114.1690550000,22.3210920000 114.1690630000,22.3210530000 114.1690950000,22.3209060000 114.1691120000,22.3208340000 114.1692930000,22.3208660000 114.1695650000,22.3209200000 114.1696490000,22.3209710000 114.1697810000,22.3209970000 114.1699670000,22.3210350000 114.1701890000,22.3210680000 114.1702900000,22.3210920000 114.1703360000,22.3211010000 114.1705710000,22.3211430000 114.1707940000,22.3211800000 114.1709450000,22.3212080000 114.1711620000,22.3212480000 114.1712000000,22.3212540000 114.1712840000,22.3212700000 114.1713820000,22.3212870000 114.1714010000,22.3211890000 114.1714470000,22.3209630000 114.1715850000,22.3203030000 114.1716130000,22.3201580000 114.1716500000,22.3199830000 114.1716590000,22.3199440000 114.1716780000,22.3198540000 114.1716880000,22.3198050000 114.1717120000,22.3197000000 114.1716360000,22.3196880000 114.1715140000,22.3196660000 114.1710860000,22.3195900000 114.1709030000,22.3195590000 114.1706770000,22.3195180000 114.1705260000,22.3194920000 114.1703540000,22.3194600000 114.1702260000,22.3194390000 114.1701200000,22.3194210000 114.1701140000,22.3194200000 114.1699770000,22.3193950000 114.1698420000,22.3193890000 114.1695810000,22.3193390000 114.1695360000,22.3193310000 114.1694290000,22.3193120000 114.1693200000,22.3192930000 114.1692430000,22.3192790000 114.1688230000,22.3192090000 114.1687900000,22.3192030000 114.1687160000,22.3191900000 114.1685700000,22.3191660000 114.1683980000,22.3191380000 114.1682790000,22.3191210000 114.1682470000,22.3191170000 114.1681320000,22.3190940000 114.1680470000,22.3190780000 114.1678410000,22.3190360000 114.1677880000,22.3190280000 114.1676800000,22.3190060000 114.1675610000,22.3189840000 114.1671990000,22.3189160000 114.1669890000,22.3188770000 114.1667760000,22.3188370000 114.1666260000,22.3188090000 114.1662740000,22.3187430000 114.1662220000,22.3187350000 114.1660490000,22.3187110000 114.1654280000,22.3186910000 114.1649530000,22.3186700000 114.1646960000,22.3186640000 114.1642870000,22.3186450000 114.1641230000,22.3186310000 114.1639600000,22.3186090000 114.1637720000,22.3185630000 114.1636480000,22.3185360000 114.1635180000,22.3184940000 114.1634340000,22.3184590000 114.1633990000,22.3184440000 114.1633210000,22.3184080000 114.1631290000,22.3183110000 114.1630450000,22.3182690000 114.1629550000,22.3181870000 114.1628890000,22.3181590000 114.1627870000,22.3181390000 114.1624900000,22.3180800000 114.1623600000,22.3180310000 114.1621560000,22.3179530000 114.1619120000,22.3178690000 114.1617770000,22.3178200000 114.1611740000,22.3176000000 114.1610380000,22.3175270000 114.1609650000,22.3174610000 114.1609180000,22.3174100000 114.1608730000,22.3173480000 114.1608610000,22.3172500000 114.1608660000,22.3171030000 114.1608710000,22.3170190000 114.1609250000,22.3168900000 114.1609700000,22.3167840000 114.1612820000,22.3160930000 114.1615940000,22.3151600000 114.1616210000,22.3150420000 114.1616630000,22.3148470000 114.1617090000,22.3146260000 114.1617180000,22.3145850000 114.1617610000,22.3143630000 114.1617950000,22.3141820000 114.1618090000,22.3139630000 114.1618310000,22.3135180000 114.1619240000,22.3125700000 114.1619440000,22.3123160000 114.1619480000,22.3122100000 114.1619090000,22.3116060000 114.1618880000,22.3113780000 114.1618620000,22.3110430000 114.1617620000,22.3102830000 114.1617280000,22.3100860000 114.1615490000,22.3094110000 114.1614960000,22.3091360000 114.1614770000,22.3090510000 114.1613850000,22.3086340000 114.1612360000,22.3080240000 114.1611580000,22.3077070000 114.1610650000,22.3074870000 114.1609840000,22.3072940000 114.1608400000,22.3069860000 114.1606820000,22.3066440000 114.1604320000,22.3061120000 114.1602290000,22.3055990000 114.1600220000,22.3051640000 114.1595820000,22.3044750000 114.1591920000,22.3038320000 114.1588780000,22.3033830000 114.1588150000,22.3033040000 114.1587600000,22.3032220000 114.1584540000,22.3028700000 114.1582710000,22.3026750000 114.1580860000,22.3025020000 114.1578670000,22.3023060000 114.1576670000,22.3021240000 114.1573610000,22.3018450000 114.1567120000,22.3011290000 114.1561410000,22.3005100000 114.1464940000,22.2900780000 114.1462210000,22.2898010000 114.1459600000,22.2895670000 114.1456370000,22.2893730000 114.1452960000,22.2892670000 114.1448620000,22.2892080000 114.1443140000,22.2891800000 114.1438080000,22.2892140000 114.1432940000,22.2893100000 114.1431250000,22.2893610000 114.1429260000,22.2894330000 114.1426500000,22.2895640000 114.1423940000,22.2897200000 114.1417810000,22.2901180000 114.1416500000,22.2901830000 114.1414900000,22.2902400000 114.1413710000,22.2902560000 114.1412800000,22.2902620000 114.1411800000,22.2902580000 114.1411000000,22.2902450000 114.1410100000,22.2902200000 114.1409380000,22.2901920000 114.1408610000,22.2901480000 114.1407890000,22.2900920000 114.1407280000,22.2900300000 114.1406720000,22.2899600000 114.1406300000,22.2898900000 114.1405990000,22.2898220000 114.1405740000,22.2897400000 114.1405610000,22.2896700000 114.1405570000,22.2896100000 114.1405690000,22.2895400000 114.1405990000,22.2894240000 114.1406340000,22.2893400000 114.1406820000,22.2892580000 114.1407510000,22.2891720000 114.1408220000,22.2891010000 114.1409100000,22.2890440000 114.1410900000,22.2890200000 114.1411910000,22.2890020000 114.1412890000,22.2889980000 114.1413970000,22.2890060000 114.1414890000,22.2890180000 114.1416850000,22.2890580000 114.1420860000,22.2891770000 114.1422080000,22.2892020000 114.1423430000,22.2892190000 114.1425340000,22.2892330000 114.1429670000,22.2891980000 114.1431550000,22.2892220000 114.1433170000,22.2891960000 114.1433840000,22.2891890000 114.1436430000,22.2891610000 114.1437730000,22.2891450000 114.1438430000,22.2891370000 114.1438210000,22.2887930000 114.1438160000,22.2887120000 114.1438090000,22.2886160000 114.1437340000,22.2886180000 114.1426260000,22.2886480000 114.1422640000,22.2886610000 114.1419560000,22.2886450000 114.1417840000,22.2886470000 114.1416680000,22.2886500000 114.1416140000,22.2886510000 114.1415330000,22.2886540000 114.1411980000,22.2886580000 114.1411490000,22.2886570000 114.1409640000,22.2886140000 114.1408850000,22.2885800000 114.1408660000,22.2885250000 114.1408440000,22.2881260000 114.1408420000,22.2880850000 114.1408380000,22.2880100000 114.1408360000,22.2879880000 114.1408340000,22.2879650000 114.1408320000,22.2879360000 114.1408200000,22.2878290000 114.1408050000,22.2874290000 114.1408020000,22.2873620000 114.1407960000,22.2872170000 114.1407950000,22.2871920000 114.1407290000,22.2871210000 114.1406750000,22.2870690000 114.1405250000,22.2870140000 114.1403730000,22.2867500000 114.1403620000,22.2867320000 114.1402740000,22.2865910000 114.1401730000,22.2864220000 114.1400660000,22.2862160000 114.1400160000,22.2860550000 114.1400060000,22.2857850000 114.1400010000,22.2857270000 114.1399940000,22.2856650000 114.1399820000,22.2855550000 114.1399690000,22.2855240000 114.1399540000,22.2855090000 114.1399350000,22.2855000000 114.1398910000,22.2854830000 114.1398160000,22.2854620000 114.1397200000,22.2854450000 114.1395890000,22.2854180000 114.1394970000,22.2853870000 114.1394210000,22.2853370000 114.1393670000,22.2852870000 114.1393100000,22.2851810000 114.1392770000,22.2850800000 114.1392500000,22.2850190000 114.1392340000,22.2850000000 114.1392100000,22.2849880000 114.1391870000,22.2849810000 114.1390900000,22.2849580000 114.1390190000,22.2849570000 114.1389530000,22.2849690000 114.1388480000,22.2850110000 114.1387220000,22.2850630000 114.1386540000,22.2850980000 114.1385950000,22.2851360000 114.1384830000,22.2852110000 114.1384170000,22.2852480000 114.1383590000,22.2852730000 114.1382600000,22.2852860000 114.1381090000,22.2852740000 114.1379370000,22.2852500000 114.1377720000,22.2852190000 114.1376740000,22.2851870000 114.1375820000,22.2851470000 114.1374380000,22.2850840000 114.1373920000,22.2850080000 114.1373520000,22.2849250000 114.1373200000,22.2848490000 114.1373120000,22.2848170000 114.1373100000,22.2847630000 114.1373050000,22.2846550000 114.1372950000,22.2846200000 114.1372680000,22.2845690000 114.1371930000,22.2844850000 114.1369970000,22.2842670000 114.1368230000,22.2840530000 114.1367250000,22.2838980000 114.1366770000,22.2838150000 114.1366000000,22.2836790000 114.1365740000,22.2836380000 114.1365520000,22.2836020000 114.1365290000,22.2835740000 114.1365010000,22.2835480000 114.1364620000,22.2835270000 114.1364200000,22.2835110000 114.1363740000,22.2835030000 114.1363210000,22.2835000000 114.1362640000,22.2835000000 114.1362000000,22.2835060000 114.1361210000,22.2835180000 114.1360400000,22.2835380000 114.1359570000,22.2835650000 114.1358860000,22.2835920000 114.1358040000,22.2836320000 114.1357320000,22.2836720000 114.1356530000,22.2837220000 114.1355630000,22.2837870000 114.1354150000,22.2839120000 114.1352540000,22.2840600000 114.1351910000,22.2841070000 114.1350400000,22.2842040000 114.1348840000,22.2842660000 114.1347660000,22.2843050000 114.1346680000,22.2843290000 114.1345760000,22.2843490000 114.1344700000,22.2843640000 114.1343640000,22.2843650000 114.1342550000,22.2843630000 114.1341590000,22.2843560000 114.1340620000,22.2843410000 114.1339870000,22.2843230000 114.1339160000,22.2843030000 114.1337440000,22.2842270000 114.1337250000,22.2842100000 114.1337040000,22.2841900000 114.1336060000,22.2841040000 114.1335390000,22.2840400000 114.1335140000,22.2840150000 114.1334820000,22.2839810000 114.1333180000,22.2838100000 114.1328430000,22.2833370000 114.1327260000,22.2831900000 114.1326300000,22.2830040000 114.1325590000,22.2828220000 114.1324810000,22.2826210000 114.1324200000,22.2823860000 114.1323910000,22.2822440000 114.1323680000,22.2820930000 114.1323430000,22.2820080000 114.1321920000,22.2817630000 114.1321430000,22.2816880000 114.1320840000,22.2815980000 114.1319720000,22.2814360000 114.1318980000,22.2813190000 114.1317510000,22.2811270000 114.1316660000,22.2809490000 114.1315960000,22.2806940000 114.1315730000,22.2805990000 114.1315610000,22.2805610000 114.1315170000,22.2804100000 114.1314170000,22.2800300000 114.1312710000,22.2795350000 114.1312030000,22.2792580000 114.1311530000,22.2789080000 114.1311110000,22.2785870000 114.1310880000,22.2784100000 114.1310580000,22.2782230000 114.1309920000,22.2780220000 114.1309020000,22.2778280000 114.1307710000,22.2776450000 114.1307680000,22.2775500000 114.1306710000,22.2774020000 114.1306090000,22.2773270000 114.1303210000,22.2769360000 114.1301510000,22.2767390000 114.1299710000,22.2764520000 114.1298690000,22.2762400000 114.1298050000,22.2760080000 114.1297700000,22.2756970000 114.1298050000,22.2754350000 114.1298750000,22.2751120000 114.1299670000,22.2748450000 114.1299970000,22.2747230000 114.1300550000,22.2741830000 114.1300860000,22.2739150000 114.1301540000,22.2736860000 114.1304600000,22.2730840000 114.1307160000,22.2725510000 114.1307510000,22.2724590000 114.1307790000,22.2723560000 114.1307920000,22.2722630000 114.1307920000,22.2721890000 114.1307880000,22.2721080000 114.1307780000,22.2720490000 114.1307680000,22.2720000000 114.1307520000,22.2719420000 114.1307210000,22.2718520000 114.1306700000,22.2717290000 114.1306170000,22.2716250000 114.1303330000,22.2710900000 114.1302930000,22.2710030000 114.1302490000,22.2708950000 114.1302170000,22.2708040000 114.1301940000,22.2707100000 114.1301790000,22.2706130000 114.1301720000,22.2705190000 114.1301740000,22.2704470000 114.1301820000,22.2703780000 114.1301960000,22.2703100000 114.1302220000,22.2702250000 114.1302650000,22.2701170000 114.1303100000,22.2700170000 114.1303700000,22.2698990000 114.1308100000,22.2691410000 114.1309110000,22.2689680000 114.1310160000,22.2688080000 114.1311590000,22.2686080000 114.1317720000,22.2678620000 114.1319710000,22.2675000000 114.1321160000,22.2672820000 114.1323600000,22.2670340000 114.1324520000,22.2669490000 114.1329510000,22.2664880000 114.1331810000,22.2662420000 114.1332720000,22.2660400000 114.1333330000,22.2658410000 114.1333530000,22.2656800000 114.1333810000,22.2649680000 114.1334240000,22.2647210000 114.1334640000,22.2646340000 114.1335880000,22.2644580000 114.1339710000,22.2640550000 114.1340820000,22.2639080000 114.1343530000,22.2636030000 114.1347210000,22.2631680000 114.1348670000,22.2630370000 114.1350850000,22.2628910000 114.1353840000,22.2627310000 114.1355090000,22.2626540000 114.1355860000,22.2625890000 114.1356500000,22.2625320000 114.1357260000,22.2624450000 114.1357930000,22.2623370000 114.1359860000,22.2620260000 114.1360940000,22.2618540000 114.1361040000,22.2618380000 114.1361650000,22.2617200000 114.1362680000,22.2615190000 114.1363790000,22.2610800000 114.1364230000,22.2608510000 114.1365500000,22.2603620000 114.1365630000,22.2603190000 114.1365730000,22.2602770000 114.1365860000,22.2602070000 114.1366090000,22.2600140000 114.1366430000,22.2597670000 114.1366560000,22.2595880000 114.1366410000,22.2581510000 114.1366340000,22.2579970000 114.1366630000,22.2578200000 114.1367570000,22.2576010000 114.1368770000,22.2574330000 114.1372370000,22.2570540000 114.1373800000,22.2568510000 114.1376310000,22.2562970000 114.1378020000,22.2559310000 114.1378550000,22.2558020000 114.1379940000,22.2554620000 114.1383080000,22.2547780000 114.1384640000,22.2545670000 114.1386250000,22.2543480000 114.1391580000,22.2537680000 114.1392300000,22.2536890000 114.1393380000,22.2535910000 114.1396530000,22.2533110000 114.1400430000,22.2529830000 114.1402400000,22.2528110000 114.1405480000,22.2524800000 114.1407350000,22.2522920000 114.1408840000,22.2520880000 114.1410440000,22.2517900000 114.1413920000,22.2504710000 114.1414440000,22.2502830000 114.1414880000,22.2501790000 114.1415670000,22.2500510000 114.1416520000,22.2499310000 114.1417310000,22.2498360000 114.1418250000,22.2497380000 114.1419420000,22.2496530000 114.1420400000,22.2496020000 114.1421550000,22.2495370000 114.1422650000,22.2494890000 114.1424270000,22.2494220000 114.1429730000,22.2492300000 114.1431470000,22.2491830000 114.1433020000,22.2491690000 114.1434930000,22.2491630000 114.1436400000,22.2491740000 114.1443210000,22.2492800000 114.1447420000,22.2493510000 114.1449210000,22.2493680000 114.1450920000,22.2493800000 114.1453760000,22.2493830000 114.1455840000,22.2493570000 114.1457610000,22.2493240000 114.1476210000,22.2488860000 114.1481500000,22.2488230000 114.1482590000,22.2488130000 114.1483780000,22.2488130000 114.1484550000,22.2488240000 114.1485390000,22.2488530000 114.1485890000,22.2488800000 114.1486480000,22.2489360000 114.1488120000,22.2491320000 114.1491360000,22.2489040000 114.1491740000,22.2488770000 114.1492360000,22.2488340000 114.1493440000,22.2487750000 114.1494320000,22.2487450000 114.1495000000,22.2487300000 114.1496300000,22.2487100000 114.1497470000,22.2486930000 114.1498620000,22.2486710000 114.1500430000,22.2486260000 114.1501580000,22.2486100000 114.1502780000,22.2485880000 114.1512630000,22.2483410000 114.1516350000,22.2483380000 114.1517200000,22.2483340000 114.1518190000,22.2483340000 114.1518870000,22.2483430000 114.1519820000,22.2483640000 114.1522770000,22.2484610000 114.1528700000,22.2486910000 114.1529520000,22.2487300000 114.1530410000,22.2487760000 114.1531020000,22.2488150000 114.1531520000,22.2488550000 114.1531930000,22.2488950000 114.1532250000,22.2489430000 114.1532550000,22.2490140000 114.1533520000,22.2494060000 114.1533890000,22.2495380000 114.1534510000,22.2496310000 114.1535420000,22.2496970000 114.1536520000,22.2497640000 114.1537350000,22.2497880000 114.1537950000,22.2497880000 114.1542250000,22.2497130000 114.1543020000,22.2497000000 114.1547270000,22.2496210000 114.1549940000,22.2495780000 114.1552070000,22.2495430000 114.1553510000,22.2495110000 114.1555280000,22.2494510000 114.1556340000,22.2494080000 114.1556830000,22.2493660000 114.1557230000,22.2493120000 114.1557290000,22.2492810000 114.1557440000,22.2489920000 114.1557750000,22.2485530000 114.1557840000,22.2484230000 114.1558100000,22.2480420000 114.1558390000,22.2476340000 114.1558500000,22.2475780000 114.1558740000,22.2475140000 114.1559070000,22.2474610000 114.1559450000,22.2474030000 114.1559730000,22.2473570000 114.1560200000,22.2473010000 114.1561170000,22.2472190000 114.1561840000,22.2471660000 114.1562420000,22.2471390000 114.1562990000,22.2471100000 114.1565360000,22.2470010000 114.1567750000,22.2469760000 114.1569980000,22.2469890000 114.1574090000,22.2470710000 114.1576060000,22.2471360000 114.1583710000,22.2474200000 114.1589880000,22.2476400000 114.1592070000,22.2477240000 114.1593200000,22.2477620000 114.1594840000,22.2478250000 114.1595740000,22.2478760000 114.1596710000,22.2479320000 114.1597430000,22.2479840000 114.1597490000,22.2479900000 114.1597830000,22.2480230000 114.1598170000,22.2480560000 114.1598290000,22.2480750000 114.1598680000,22.2481350000 114.1599070000,22.2482080000 114.1599350000,22.2482770000 114.1599660000,22.2483930000 114.1600150000,22.2485300000 114.1600540000,22.2485880000 114.1600920000,22.2486210000 114.1601120000,22.2486370000 114.1601770000,22.2486700000 114.1602230000,22.2486810000 114.1602520000,22.2486880000 114.1602810000,22.2486870000 114.1603360000,22.2486860000 114.1604050000,22.2486700000 114.1604280000,22.2486600000 114.1604620000,22.2486450000 114.1605060000,22.2486110000 114.1605450000,22.2485650000 114.1605780000,22.2485100000 114.1605990000,22.2483890000 114.1608890000,22.2477630000 114.1609550000,22.2476160000 114.1610820000,22.2474230000 114.1610950000,22.2473570000 114.1611120000,22.2472300000 114.1611110000,22.2471330000 114.1611070000,22.2470660000 114.1610900000,22.2469810000 114.1610620000,22.2468930000 114.1610230000,22.2468010000 114.1609780000,22.2467160000 114.1609320000,22.2466470000 114.1608800000,22.2465890000 114.1608070000,22.2465140000 114.1604110000,22.2461510000 114.1603200000,22.2460660000 114.1591040000,22.2449280000 114.1589530000,22.2447870000 114.1588810000,22.2447330000 114.1586370000,22.2446010000 114.1583740000,22.2444940000 114.1582450000,22.2444340000 114.1581650000,22.2443970000 114.1581010000,22.2443670000 114.1579380000,22.2442630000 114.1578490000,22.2441890000 114.1577490000,22.2440860000 114.1576190000,22.2439220000 114.1575690000,22.2438520000 114.1575380000,22.2438100000 114.1575500000,22.2437010000 114.1575580000,22.2436360000 114.1575750000,22.2435590000 114.1576150000,22.2434810000 114.1576550000,22.2434660000 114.1577090000,22.2434580000 114.1577460000,22.2434560000 114.1577680000,22.2434560000 114.1578720000,22.2434440000 114.1578740000,22.2433790000 114.1578740000,22.2433290000 114.1578740000,22.2432940000 114.1578730000,22.2432530000 114.1578730000,22.2431630000 114.1578850000,22.2430290000 114.1578860000,22.2429900000 114.1579070000,22.2427160000 114.1579190000,22.2423810000 114.1579010000,22.2418780000 114.1579000000,22.2418480000 114.1578980000,22.2417920000 114.1578960000,22.2416750000 114.1578900000,22.2413210000 114.1578570000,22.2411870000 114.1577860000,22.2410670000 114.1576620000,22.2409610000 114.1574950000,22.2409130000 114.1572900000,22.2409200000 114.1571480000,22.2409900000 114.1571230000,22.2410200000 114.1570140000,22.2411520000 114.1569720000,22.2413610000 114.1569720000,22.2416970000 114.1569350000,22.2418390000 114.1568730000,22.2419240000 114.1568030000,22.2419810000 114.1566810000,22.2420160000 114.1563570000,22.2420090000 114.1562870000,22.2419440000 114.1562190000,22.2418710000 114.1561740000,22.2417870000 114.1561770000,22.2414290000 114.1561770000,22.2413460000 114.1561790000,22.2412850000 114.1561850000,22.2412500000 114.1561930000,22.2412250000 114.1562080000,22.2412010000 114.1562270000,22.2411760000 114.1562860000,22.2411030000 114.1562850000,22.2407380000 114.1562850000,22.2407380000</coordinates>
                </LineString>
                <ExtendedData>
                    <Data name="length">
                        <value>41252.01050903493</value>
                    </Data>
                    <Data name="duration">
                        <value>00:51:59</value>
                    </Data>
                </ExtendedData>
            </Placemark>
        </Document>
    </Document>
</kml>