<?xml version="1.0" encoding="UTF-8"?>
<kml xmlns="http://www.opengis.net/kml/2.2" xmlns:gx="http://www.google.com/kml/ext/2.2">
    <Document>
        <name>Route</name>
        <Folder>
            <name>Route Request</name>
            <Placemark>
                <address>Block 7, Sam Shing Street, Sam Shing, Tuen Mun Town, Tuen Mun, Tuen Mun District, New Territories, Hong Kong, China</address>
                <Point>
                    <coordinates>113.9772523647,22.3820817411</coordinates>
                </Point>
                <ExtendedData>
                    <Data name="ISO3166-2-lvl3">
                        <value>CN-HK</value>
                    </Data>
                    <Data name="municipality">
                        <value>New Territories</value>
                    </Data>
                    <Data name="state">
                        <value>Hong Kong</value>
                    </Data>
                    <Data name="country_code">
                        <value>cn</value>
                    </Data>
                    <Data name="building">
                        <value>Block 7</value>
                    </Data>
                    <Data name="road">
                        <value>Sam Shing Street</value>
                    </Data>
                    <Data name="suburb">
                        <value>Tuen Mun Town</value>
                    </Data>
                    <Data name="town">
                        <value>Tuen Mun</value>
                    </Data>
                    <Data name="city">
                        <value>Tuen Mun District</value>
                    </Data>
                    <Data name="country">
                        <value>China</value>
                    </Data>
                    <Data name="neighbourhood">
                        <value>Sam Shing</value>
                    </Data>
                </ExtendedData>
            </Placemark>
            <Placemark>
                <address>Hoi Chu Road, Tuen Mun South, Tuen Mun Town, Tsing Shan Tsuen, Tuen Mun District, New Territories, Hong Kong, China</address>
                <Point>
                    <coordinates>113.9709833484,22.3839615364</coordinates>
                </Point>
                <ExtendedData>
                    <Data name="quarter">
                        <value>Tuen Mun South</value>
                    </Data>
                    <Data name="ISO3166-2-lvl3">
                        <value>CN-HK</value>
                    </Data>
                    <Data name="municipality">
                        <value>New Territories</value>
                    </Data>
                    <Data name="state">
                        <value>Hong Kong</value>
                    </Data>
                    <Data name="country_code">
                        <value>cn</value>
                    </Data>
                    <Data name="road">
                        <value>Hoi Chu Road</value>
                    </Data>
                    <Data name="village">
                        <value>Tsing Shan Tsuen</value>
                    </Data>
                    <Data name="suburb">
                        <value>Tuen Mun Town</value>
                    </Data>
                    <Data name="city">
                        <value>Tuen Mun District</value>
                    </Data>
                    <Data name="country">
                        <value>China</value>
                    </Data>
                </ExtendedData>
            </Placemark>
            <Placemark>
                <address>Wu Boon House, 4, Wu Poon Street, Wu King Estate, Tuen Mun, Tuen Mun District, New Territories, Hong Kong, China</address>
                <Point>
                    <coordinates>113.9647321802,22.3735621101</coordinates>
                </Point>
                <ExtendedData>
                    <Data name="ISO3166-2-lvl3">
                        <value>CN-HK</value>
                    </Data>
                    <Data name="municipality">
                        <value>New Territories</value>
                    </Data>
                    <Data name="state">
                        <value>Hong Kong</value>
                    </Data>
                    <Data name="country_code">
                        <value>cn</value>
                    </Data>
                    <Data name="building">
                        <value>Wu Boon House</value>
                    </Data>
                    <Data name="road">
                        <value>Wu Poon Street</value>
                    </Data>
                    <Data name="town">
                        <value>Tuen Mun</value>
                    </Data>
                    <Data name="city">
                        <value>Tuen Mun District</value>
                    </Data>
                    <Data name="country">
                        <value>China</value>
                    </Data>
                    <Data name="residential">
                        <value>Wu King Estate</value>
                    </Data>
                    <Data name="house_number">
                        <value>4</value>
                    </Data>
                </ExtendedData>
            </Placemark>
            <Placemark>
                <address>Good Harvest Industrial Building, 9, Tsun Wen Road, Shek Pai Tau, Tuen Mun Town, Leung Tin Village, Tuen Mun District, New Territories, Hong Kong, China</address>
                <Point>
                    <coordinates>113.9730431812,22.3986186163</coordinates>
                </Point>
                <ExtendedData>
                    <Data name="quarter">
                        <value>Shek Pai Tau</value>
                    </Data>
                    <Data name="ISO3166-2-lvl3">
                        <value>CN-HK</value>
                    </Data>
                    <Data name="municipality">
                        <value>New Territories</value>
                    </Data>
                    <Data name="state">
                        <value>Hong Kong</value>
                    </Data>
                    <Data name="country_code">
                        <value>cn</value>
                    </Data>
                    <Data name="building">
                        <value>Good Harvest Industrial Building</value>
                    </Data>
                    <Data name="road">
                        <value>Tsun Wen Road</value>
                    </Data>
                    <Data name="village">
                        <value>Leung Tin Village</value>
                    </Data>
                    <Data name="suburb">
                        <value>Tuen Mun Town</value>
                    </Data>
                    <Data name="city">
                        <value>Tuen Mun District</value>
                    </Data>
                    <Data name="country">
                        <value>China</value>
                    </Data>
                    <Data name="house_number">
                        <value>9</value>
                    </Data>
                </ExtendedData>
            </Placemark>
            <Placemark>
                <address>Tuen Mun Hospital, 23, Tsing Tin Interchange, Hung Kiu, Tuen Mun, Tuen Mun District, New Territories, Hong Kong, China</address>
                <Point>
                    <coordinates>113.9745283611,22.4071844724</coordinates>
                </Point>
                <ExtendedData>
                    <Data name="ISO3166-2-lvl3">
                        <value>CN-HK</value>
                    </Data>
                    <Data name="municipality">
                        <value>New Territories</value>
                    </Data>
                    <Data name="state">
                        <value>Hong Kong</value>
                    </Data>
                    <Data name="country_code">
                        <value>cn</value>
                    </Data>
                    <Data name="amenity">
                        <value>Tuen Mun Hospital</value>
                    </Data>
                    <Data name="road">
                        <value>Tsing Tin Interchange</value>
                    </Data>
                    <Data name="town">
                        <value>Tuen Mun</value>
                    </Data>
                    <Data name="city">
                        <value>Tuen Mun District</value>
                    </Data>
                    <Data name="country">
                        <value>China</value>
                    </Data>
                    <Data name="neighbourhood">
                        <value>Hung Kiu</value>
                    </Data>
                    <Data name="house_number">
                        <value>23</value>
                    </Data>
                </ExtendedData>
            </Placemark>
            <Placemark>
                <address>Yoho Mall I, 9, Long Yat Road, The YOHO Hub, Ying Lung Wai, Shan Pui Village, Yuen Long District, New Territories, Hong Kong, China</address>
                <Point>
                    <coordinates>114.0370110454,22.4454120604</coordinates>
                </Point>
                <ExtendedData>
                    <Data name="ISO3166-2-lvl3">
                        <value>CN-HK</value>
                    </Data>
                    <Data name="municipality">
                        <value>New Territories</value>
                    </Data>
                    <Data name="state">
                        <value>Hong Kong</value>
                    </Data>
                    <Data name="country_code">
                        <value>cn</value>
                    </Data>
                    <Data name="building">
                        <value>Yoho Mall I</value>
                    </Data>
                    <Data name="hamlet">
                        <value>Ying Lung Wai</value>
                    </Data>
                    <Data name="road">
                        <value>Long Yat Road</value>
                    </Data>
                    <Data name="village">
                        <value>Shan Pui Village</value>
                    </Data>
                    <Data name="city">
                        <value>Yuen Long District</value>
                    </Data>
                    <Data name="country">
                        <value>China</value>
                    </Data>
                    <Data name="residential">
                        <value>The YOHO Hub</value>
                    </Data>
                    <Data name="house_number">
                        <value>9</value>
                    </Data>
                </ExtendedData>
            </Placemark>
            <Placemark>
                <address>Castle Peak Road – Ping Shan, Fung Chi Tsuen, Shui Pin Wai, Tong Yan San Tsuen, Yuen Long District, New Territories, Hong Kong, China</address>
                <Point>
                    <coordinates>114.0170084758,22.4438550461</coordinates>
                </Point>
                <ExtendedData>
                    <Data name="ISO3166-2-lvl3">
                        <value>CN-HK</value>
                    </Data>
                    <Data name="municipality">
                        <value>New Territories</value>
                    </Data>
                    <Data name="state">
                        <value>Hong Kong</value>
                    </Data>
                    <Data name="country_code">
                        <value>cn</value>
                    </Data>
                    <Data name="hamlet">
                        <value>Shui Pin Wai</value>
                    </Data>
                    <Data name="road">
                        <value>Castle Peak Road – Ping Shan</value>
                    </Data>
                    <Data name="village">
                        <value>Tong Yan San Tsuen</value>
                    </Data>
                    <Data name="city">
                        <value>Yuen Long District</value>
                    </Data>
                    <Data name="country">
                        <value>China</value>
                    </Data>
                    <Data name="neighbourhood">
                        <value>Fung Chi Tsuen</value>
                    </Data>
                </ExtendedData>
            </Placemark>
            <Placemark>
                <address>Tsing Chung Koon Road, Shek Pai Tau, Tuen Mun Town, San Hui Village, Tuen Mun District, New Territories, Hong Kong, China</address>
                <Point>
                    <coordinates>113.9740548343,22.4030396120</coordinates>
                </Point>
                <ExtendedData>
                    <Data name="quarter">
                        <value>Shek Pai Tau</value>
                    </Data>
                    <Data name="ISO3166-2-lvl3">
                        <value>CN-HK</value>
                    </Data>
                    <Data name="municipality">
                        <value>New Territories</value>
                    </Data>
                    <Data name="state">
                        <value>Hong Kong</value>
                    </Data>
                    <Data name="country_code">
                        <value>cn</value>
                    </Data>
                    <Data name="road">
                        <value>Tsing Chung Koon Road</value>
                    </Data>
                    <Data name="village">
                        <value>San Hui Village</value>
                    </Data>
                    <Data name="suburb">
                        <value>Tuen Mun Town</value>
                    </Data>
                    <Data name="city">
                        <value>Tuen Mun District</value>
                    </Data>
                    <Data name="country">
                        <value>China</value>
                    </Data>
                </ExtendedData>
            </Placemark>
            <Placemark>
                <address>Tuen Mun Industrial Centre, 2, San Ping Circuit, Tuen Mun Industrial Area, Yeung Siu Hang, Tuen Mun, Tuen Mun District, New Territories, Hong Kong, China</address>
                <Point>
                    <coordinates>113.9688579148,22.3950477463</coordinates>
                </Point>
                <ExtendedData>
                    <Data name="quarter">
                        <value>Tuen Mun Industrial Area</value>
                    </Data>
                    <Data name="ISO3166-2-lvl3">
                        <value>CN-HK</value>
                    </Data>
                    <Data name="municipality">
                        <value>New Territories</value>
                    </Data>
                    <Data name="state">
                        <value>Hong Kong</value>
                    </Data>
                    <Data name="country_code">
                        <value>cn</value>
                    </Data>
                    <Data name="building">
                        <value>Tuen Mun Industrial Centre</value>
                    </Data>
                    <Data name="hamlet">
                        <value>Yeung Siu Hang</value>
                    </Data>
                    <Data name="road">
                        <value>San Ping Circuit</value>
                    </Data>
                    <Data name="town">
                        <value>Tuen Mun</value>
                    </Data>
                    <Data name="city">
                        <value>Tuen Mun District</value>
                    </Data>
                    <Data name="country">
                        <value>China</value>
                    </Data>
                    <Data name="house_number">
                        <value>2</value>
                    </Data>
                </ExtendedData>
            </Placemark>
            <Placemark>
                <address>Tip Mo House, Wu Chui Road, Butterfly Beach, Tsing Shan Tsuen San Shek Wan South, Tuen Mun, Tuen Mun District, New Territories, Hong Kong, China</address>
                <Point>
                    <coordinates>113.9606690005,22.3756314510</coordinates>
                </Point>
                <ExtendedData>
                    <Data name="quarter">
                        <value>Butterfly Beach</value>
                    </Data>
                    <Data name="ISO3166-2-lvl3">
                        <value>CN-HK</value>
                    </Data>
                    <Data name="municipality">
                        <value>New Territories</value>
                    </Data>
                    <Data name="state">
                        <value>Hong Kong</value>
                    </Data>
                    <Data name="country_code">
                        <value>cn</value>
                    </Data>
                    <Data name="building">
                        <value>Tip Mo House</value>
                    </Data>
                    <Data name="hamlet">
                        <value>Tsing Shan Tsuen San Shek Wan South</value>
                    </Data>
                    <Data name="road">
                        <value>Wu Chui Road</value>
                    </Data>
                    <Data name="town">
                        <value>Tuen Mun</value>
                    </Data>
                    <Data name="city">
                        <value>Tuen Mun District</value>
                    </Data>
                    <Data name="country">
                        <value>China</value>
                    </Data>
                </ExtendedData>
            </Placemark>
            <Placemark>
                <address>Block 3, Hoi Chu Road, Sam Shing, Tuen Mun Town, Tuen Mun, Tuen Mun District, New Territories, Hong Kong, China</address>
                <Point>
                    <coordinates>113.9741876811,22.3838614615</coordinates>
                </Point>
                <ExtendedData>
                    <Data name="ISO3166-2-lvl3">
                        <value>CN-HK</value>
                    </Data>
                    <Data name="municipality">
                        <value>New Territories</value>
                    </Data>
                    <Data name="state">
                        <value>Hong Kong</value>
                    </Data>
                    <Data name="country_code">
                        <value>cn</value>
                    </Data>
                    <Data name="building">
                        <value>Block 3</value>
                    </Data>
                    <Data name="road">
                        <value>Hoi Chu Road</value>
                    </Data>
                    <Data name="suburb">
                        <value>Tuen Mun Town</value>
                    </Data>
                    <Data name="town">
                        <value>Tuen Mun</value>
                    </Data>
                    <Data name="city">
                        <value>Tuen Mun District</value>
                    </Data>
                    <Data name="country">
                        <value>China</value>
                    </Data>
                    <Data name="neighbourhood">
                        <value>Sam Shing</value>
                    </Data>
                </ExtendedData>
            </Placemark>
            <Placemark>
                <address>Block 7, Sam Shing Street, Sam Shing, Tuen Mun Town, Tuen Mun, Tuen Mun District, New Territories, Hong Kong, China</address>
                <Point>
                    <coordinates>113.9772057881,22.3820575361</coordinates>
                </Point>
                <ExtendedData>
                    <Data name="ISO3166-2-lvl3">
                        <value>CN-HK</value>
                    </Data>
                    <Data name="municipality">
                        <value>New Territories</value>
                    </Data>
                    <Data name="state">
                        <value>Hong Kong</value>
                    </Data>
                    <Data name="country_code">
                        <value>cn</value>
                    </Data>
                    <Data name="building">
                        <value>Block 7</value>
                    </Data>
                    <Data name="road">
                        <value>Sam Shing Street</value>
                    </Data>
                    <Data name="suburb">
                        <value>Tuen Mun Town</value>
                    </Data>
                    <Data name="town">
                        <value>Tuen Mun</value>
                    </Data>
                    <Data name="city">
                        <value>Tuen Mun District</value>
                    </Data>
                    <Data name="country">
                        <value>China</value>
                    </Data>
                    <Data name="neighbourhood">
                        <value>Sam Shing</value>
                    </Data>
                </ExtendedData>
            </Placemark>
        </Folder>
        <Document>
            <name>33.6 km; 00:45 h (OSRM)</name>
            <Placemark>
                <name>Route</name>
                <LineString>
                    <coordinates>113.9773230000,22.3819740000 113.9777140000,22.3821950000 113.9778560000,22.3822740000 113.9782210000,22.3824950000 113.9782940000,22.3825390000 113.9782690000,22.3826290000 113.9781820000,22.3828300000 113.9780600000,22.3832050000 113.9780240000,22.3832570000 113.9779940000,22.3832990000 113.9779410000,22.3833480000 113.9778810000,22.3833700000 113.9777870000,22.3834010000 113.9776270000,22.3833300000 113.9773860000,22.3832230000 113.9771330000,22.3831100000 113.9762740000,22.3827270000 113.9756680000,22.3824570000 113.9756210000,22.3824350000 113.9755250000,22.3823930000 113.9754550000,22.3823620000 113.9753980000,22.3823380000 113.9753470000,22.3823150000 113.9753260000,22.3823570000 113.9752760000,22.3824370000 113.9752180000,22.3825780000 113.9751420000,22.3827700000 113.9751060000,22.3828720000 113.9750890000,22.3829700000 113.9750850000,22.3830960000 113.9750950000,22.3832290000 113.9751220000,22.3835910000 113.9750960000,22.3836280000 113.9750860000,22.3836870000 113.9750590000,22.3838090000 113.9750140000,22.3838140000 113.9749610000,22.3838150000 113.9749120000,22.3838160000 113.9746190000,22.3838270000 113.9743490000,22.3838330000 113.9733910000,22.3838810000 113.9733350000,22.3838500000 113.9732780000,22.3838490000 113.9730650000,22.3838600000 113.9729530000,22.3838640000 113.9728770000,22.3838670000 113.9727810000,22.3838720000 113.9726620000,22.3838780000 113.9725340000,22.3838840000 113.9724160000,22.3838920000 113.9723680000,22.3838950000 113.9722920000,22.3838990000 113.9722350000,22.3839040000 113.9721680000,22.3839480000 113.9720760000,22.3839550000 113.9720130000,22.3839610000 113.9719780000,22.3839310000 113.9719370000,22.3839320000 113.9718910000,22.3839330000 113.9718390000,22.3839700000 113.9713680000,22.3839930000 113.9709860000,22.3840110000 113.9707470000,22.3840230000 113.9705960000,22.3840390000 113.9705470000,22.3838080000 113.9704440000,22.3832740000 113.9703740000,22.3827720000 113.9703700000,22.3826510000 113.9703580000,22.3824570000 113.9702990000,22.3816430000 113.9702430000,22.3808850000 113.9702330000,22.3807520000 113.9702250000,22.3806430000 113.9702210000,22.3805870000 113.9702040000,22.3805000000 113.9701730000,22.3804170000 113.9701290000,22.3803300000 113.9700210000,22.3801270000 113.9699350000,22.3799960000 113.9698350000,22.3798830000 113.9696470000,22.3797400000 113.9690120000,22.3793760000 113.9678730000,22.3787100000 113.9675320000,22.3785060000 113.9673270000,22.3783550000 113.9671650000,22.3782060000 113.9669870000,22.3779410000 113.9669190000,22.3777980000 113.9668730000,22.3776960000 113.9668350000,22.3776070000 113.9665990000,22.3770540000 113.9664110000,22.3765040000 113.9663900000,22.3764340000 113.9662890000,22.3761060000 113.9658200000,22.3745750000 113.9657910000,22.3744830000 113.9654650000,22.3734180000 113.9654320000,22.3733160000 113.9654160000,22.3732640000 113.9653110000,22.3732900000 113.9652470000,22.3733240000 113.9652140000,22.3733300000 113.9651770000,22.3733360000 113.9647050000,22.3734040000 113.9646160000,22.3734170000 113.9644420000,22.3734420000 113.9643490000,22.3734570000 113.9636520000,22.3735660000 113.9634090000,22.3736070000 113.9631680000,22.3736470000 113.9626350000,22.3737610000 113.9624820000,22.3738250000 113.9623210000,22.3739110000 113.9619160000,22.3743970000 113.9616900000,22.3746660000 113.9616100000,22.3747670000 113.9615420000,22.3748520000 113.9615290000,22.3748590000 113.9614250000,22.3749730000 113.9613810000,22.3750230000 113.9609810000,22.3755070000 113.9609580000,22.3755340000 113.9607910000,22.3757150000 113.9606570000,22.3758610000 113.9605630000,22.3759670000 113.9604950000,22.3759940000 113.9604750000,22.3760100000 113.9604410000,22.3760500000 113.9604100000,22.3761020000 113.9603910000,22.3761820000 113.9603920000,22.3762700000 113.9603990000,22.3763270000 113.9604270000,22.3763620000 113.9609840000,22.3770450000 113.9618720000,22.3781650000 113.9620010000,22.3783290000 113.9621790000,22.3785600000 113.9622490000,22.3786500000 113.9624430000,22.3788990000 113.9624920000,22.3789620000 113.9625020000,22.3789750000 113.9625650000,22.3790580000 113.9625740000,22.3790710000 113.9626120000,22.3791310000 113.9627950000,22.3794160000 113.9629330000,22.3796750000 113.9630520000,22.3800410000 113.9630950000,22.3802010000 113.9632080000,22.3806470000 113.9633330000,22.3811150000 113.9633720000,22.3812520000 113.9634180000,22.3814020000 113.9634570000,22.3815350000 113.9635070000,22.3817350000 113.9636100000,22.3820560000 113.9636320000,22.3821170000 113.9636660000,22.3822020000 113.9639330000,22.3828510000 113.9640040000,22.3830050000 113.9640340000,22.3830710000 113.9640420000,22.3830890000 113.9640800000,22.3831690000 113.9641390000,22.3832880000 113.9642000000,22.3834070000 113.9642660000,22.3835230000 113.9643350000,22.3836380000 113.9644070000,22.3837520000 113.9644820000,22.3838630000 113.9647370000,22.3842480000 113.9648380000,22.3844080000 113.9648910000,22.3845250000 113.9649340000,22.3846150000 113.9650980000,22.3849600000 113.9652400000,22.3852980000 113.9652780000,22.3853900000 113.9657010000,22.3863980000 113.9659660000,22.3870510000 113.9662050000,22.3876830000 113.9674560000,22.3909320000 113.9675190000,22.3911130000 113.9675550000,22.3912420000 113.9675840000,22.3914050000 113.9675960000,22.3915630000 113.9675930000,22.3921440000 113.9675940000,22.3924920000 113.9675970000,22.3928770000 113.9676000000,22.3933740000 113.9676010000,22.3935600000 113.9676020000,22.3939100000 113.9675760000,22.3952300000 113.9675720000,22.3953050000 113.9675720000,22.3953130000 113.9675670000,22.3954060000 113.9676850000,22.3954070000 113.9679030000,22.3954060000 113.9682180000,22.3954010000 113.9683470000,22.3953890000 113.9684300000,22.3953740000 113.9693510000,22.3951420000 113.9695900000,22.3950840000 113.9700980000,22.3949540000 113.9704620000,22.3948680000 113.9704890000,22.3949480000 113.9707120000,22.3957460000 113.9708560000,22.3962830000 113.9712920000,22.3961820000 113.9715920000,22.3961090000 113.9717250000,22.3960820000 113.9717620000,22.3962270000 113.9720880000,22.3975170000 113.9721370000,22.3976290000 113.9721680000,22.3976970000 113.9721910000,22.3977400000 113.9722190000,22.3977850000 113.9722520000,22.3978290000 113.9722860000,22.3978680000 113.9723400000,22.3979170000 113.9729540000,22.3984400000 113.9730050000,22.3984860000 113.9730520000,22.3985350000 113.9730950000,22.3985870000 113.9730960000,22.3985880000 113.9731330000,22.3986420000 113.9731670000,22.3987000000 113.9731960000,22.3987600000 113.9732200000,22.3988220000 113.9732380000,22.3988850000 113.9732520000,22.3989490000 113.9732600000,22.3990150000 113.9732620000,22.3990800000 113.9732600000,22.3991460000 113.9732460000,22.3992980000 113.9732310000,22.3994780000 113.9731160000,22.4005020000 113.9730710000,22.4007300000 113.9729850000,22.4010510000 113.9729760000,22.4010860000 113.9729380000,22.4012400000 113.9729230000,22.4013220000 113.9729040000,22.4014290000 113.9728100000,22.4020520000 113.9727790000,22.4025810000 113.9727760000,22.4026640000 113.9727750000,22.4026850000 113.9727750000,22.4027610000 113.9727740000,22.4027960000 113.9727730000,22.4028230000 113.9727720000,22.4028650000 113.9728780000,22.4028700000 113.9729890000,22.4028820000 113.9731600000,22.4028920000 113.9734220000,22.4028840000 113.9735660000,22.4028910000 113.9736030000,22.4028930000 113.9736930000,22.4029000000 113.9737880000,22.4029150000 113.9738810000,22.4029390000 113.9739710000,22.4029710000 113.9740580000,22.4030110000 113.9741400000,22.4030580000 113.9742160000,22.4031130000 113.9742870000,22.4031730000 113.9743510000,22.4032400000 113.9743570000,22.4032490000 113.9744080000,22.4033120000 113.9744610000,22.4033940000 113.9745990000,22.4037720000 113.9746490000,22.4039090000 113.9748460000,22.4044480000 113.9748830000,22.4045810000 113.9749120000,22.4047150000 113.9749310000,22.4048520000 113.9749380000,22.4049590000 113.9749360000,22.4050810000 113.9749350000,22.4051250000 113.9749290000,22.4052820000 113.9749150000,22.4056430000 113.9748640000,22.4064390000 113.9748630000,22.4064480000 113.9748420000,22.4066270000 113.9748230000,22.4067460000 113.9747970000,22.4069120000 113.9747820000,22.4070050000 113.9747150000,22.4072310000 113.9746980000,22.4072900000 113.9744850000,22.4076990000 113.9744690000,22.4077280000 113.9744110000,22.4078230000 113.9745740000,22.4079150000 113.9749630000,22.4081740000 113.9754260000,22.4085430000 113.9757570000,22.4088750000 113.9759720000,22.4091550000 113.9761750000,22.4094990000 113.9762000000,22.4095450000 113.9762130000,22.4095720000 113.9762410000,22.4096320000 113.9763920000,22.4099760000 113.9764190000,22.4100350000 113.9764940000,22.4102780000 113.9765330000,22.4104370000 113.9765580000,22.4105920000 113.9765590000,22.4106350000 113.9765710000,22.4109530000 113.9765650000,22.4110650000 113.9764790000,22.4115580000 113.9764490000,22.4117210000 113.9764340000,22.4119530000 113.9764460000,22.4120700000 113.9764760000,22.4121680000 113.9765220000,22.4123400000 113.9765360000,22.4123860000 113.9765480000,22.4124330000 113.9765640000,22.4125000000 113.9765940000,22.4129030000 113.9766930000,22.4133010000 113.9767150000,22.4133880000 113.9768190000,22.4136470000 113.9768450000,22.4137190000 113.9769680000,22.4140590000 113.9770580000,22.4143080000 113.9771050000,22.4144400000 113.9771190000,22.4144750000 113.9771550000,22.4145670000 113.9771930000,22.4146730000 113.9772510000,22.4148300000 113.9774060000,22.4152550000 113.9774530000,22.4153420000 113.9775030000,22.4153980000 113.9776460000,22.4155810000 113.9777100000,22.4156710000 113.9777420000,22.4157300000 113.9777710000,22.4157980000 113.9777770000,22.4158280000 113.9777930000,22.4158690000 113.9778200000,22.4159060000 113.9778530000,22.4159370000 113.9778890000,22.4159620000 113.9779340000,22.4159750000 113.9779720000,22.4159780000 113.9780260000,22.4159700000 113.9780660000,22.4159560000 113.9780970000,22.4159380000 113.9784360000,22.4158330000 113.9786660000,22.4157540000 113.9787890000,22.4157140000 113.9787980000,22.4157110000 113.9788150000,22.4157050000 113.9788400000,22.4156980000 113.9788580000,22.4156930000 113.9789430000,22.4156700000 113.9789870000,22.4156590000 113.9791170000,22.4156350000 113.9791980000,22.4156200000 113.9792260000,22.4156150000 113.9793700000,22.4155960000 113.9794290000,22.4155920000 113.9795790000,22.4155840000 113.9796020000,22.4155830000 113.9797200000,22.4155690000 113.9797780000,22.4155580000 113.9798410000,22.4155470000 113.9799900000,22.4155000000 113.9800580000,22.4154790000 113.9803380000,22.4153810000 113.9804250000,22.4153550000 113.9804680000,22.4153450000 113.9805010000,22.4153380000 113.9805590000,22.4153240000 113.9806500000,22.4153030000 113.9807790000,22.4152910000 113.9808600000,22.4152960000 113.9809090000,22.4153190000 113.9809600000,22.4153410000 113.9810140000,22.4153570000 113.9813000000,22.4155970000 113.9814630000,22.4157340000 113.9815040000,22.4157680000 113.9816030000,22.4158580000 113.9814840000,22.4159680000 113.9814400000,22.4160210000 113.9814200000,22.4160490000 113.9813770000,22.4161090000 113.9813410000,22.4161910000 113.9813210000,22.4162680000 113.9813040000,22.4163380000 113.9812990000,22.4164110000 113.9812990000,22.4164890000 113.9813030000,22.4166680000 113.9813310000,22.4167150000 113.9817070000,22.4174190000 113.9817890000,22.4175730000 113.9818980000,22.4177700000 113.9821380000,22.4182070000 113.9822570000,22.4184220000 113.9822880000,22.4184750000 113.9823680000,22.4186270000 113.9826190000,22.4191010000 113.9827170000,22.4192810000 113.9827500000,22.4193370000 113.9829060000,22.4196030000 113.9829480000,22.4196680000 113.9831160000,22.4199070000 113.9833130000,22.4201480000 113.9834170000,22.4202680000 113.9835000000,22.4203780000 113.9835960000,22.4204830000 113.9837760000,22.4206810000 113.9840050000,22.4209230000 113.9840770000,22.4209890000 113.9841410000,22.4210540000 113.9841990000,22.4211080000 113.9842360000,22.4211480000 113.9842750000,22.4212040000 113.9844100000,22.4213380000 113.9845750000,22.4215040000 113.9847020000,22.4216310000 113.9847510000,22.4216890000 113.9847630000,22.4217010000 113.9848460000,22.4217930000 113.9848730000,22.4218230000 113.9850750000,22.4220450000 113.9851630000,22.4221420000 113.9854630000,22.4224590000 113.9856010000,22.4226110000 113.9865740000,22.4236520000 113.9870070000,22.4241050000 113.9872560000,22.4243650000 113.9872780000,22.4243880000 113.9873350000,22.4244270000 113.9873660000,22.4244600000 113.9873790000,22.4244960000 113.9874130000,22.4245330000 113.9876860000,22.4248210000 113.9878370000,22.4249610000 113.9886720000,22.4258590000 113.9887220000,22.4259120000 113.9888610000,22.4260620000 113.9890960000,22.4263130000 113.9891110000,22.4263530000 113.9891540000,22.4263860000 113.9891870000,22.4264250000 113.9892180000,22.4264730000 113.9892970000,22.4265550000 113.9895090000,22.4267660000 113.9896870000,22.4269510000 113.9898780000,22.4271560000 113.9899140000,22.4271940000 113.9900010000,22.4272920000 113.9900380000,22.4273290000 113.9900830000,22.4273790000 113.9901830000,22.4274890000 113.9902430000,22.4275590000 113.9903680000,22.4276640000 113.9904030000,22.4277000000 113.9904580000,22.4277760000 113.9906450000,22.4279810000 113.9909700000,22.4283250000 113.9911290000,22.4284900000 113.9912660000,22.4286330000 113.9913280000,22.4286980000 113.9913590000,22.4287300000 113.9913800000,22.4287570000 113.9914930000,22.4288380000 113.9915100000,22.4288550000 113.9915340000,22.4288770000 113.9915700000,22.4289370000 113.9916600000,22.4290220000 113.9918020000,22.4291590000 113.9918840000,22.4292410000 113.9922720000,22.4295580000 113.9924920000,22.4297380000 113.9925920000,22.4298100000 113.9931310000,22.4302460000 113.9932410000,22.4303450000 113.9949260000,22.4317030000 113.9951820000,22.4318890000 113.9954720000,22.4321020000 113.9955810000,22.4321810000 113.9962050000,22.4326080000 113.9962540000,22.4326440000 113.9963160000,22.4326880000 113.9966010000,22.4328680000 113.9966720000,22.4329420000 113.9968950000,22.4330990000 113.9969790000,22.4331590000 113.9971440000,22.4332480000 113.9973170000,22.4333780000 113.9973780000,22.4334260000 113.9977610000,22.4337120000 113.9978490000,22.4337750000 113.9979200000,22.4338240000 113.9980620000,22.4339240000 113.9980970000,22.4339500000 113.9982330000,22.4340470000 113.9982760000,22.4340910000 113.9983530000,22.4341420000 113.9983900000,22.4341670000 113.9984950000,22.4342270000 113.9985450000,22.4342600000 113.9985790000,22.4343160000 113.9986780000,22.4343850000 113.9989070000,22.4345380000 113.9991790000,22.4347120000 113.9996490000,22.4350610000 113.9998270000,22.4352120000 113.9998890000,22.4352590000 114.0000900000,22.4354100000 114.0001670000,22.4354680000 114.0002370000,22.4355210000 114.0002760000,22.4355500000 114.0003660000,22.4355910000 114.0004320000,22.4356460000 114.0005120000,22.4357130000 114.0006230000,22.4357900000 114.0007080000,22.4358450000 114.0007500000,22.4358730000 114.0014680000,22.4363520000 114.0018480000,22.4366050000 114.0024810000,22.4370360000 114.0029890000,22.4373590000 114.0030740000,22.4374210000 114.0031230000,22.4374570000 114.0032980000,22.4375630000 114.0034020000,22.4376270000 114.0034320000,22.4376460000 114.0034940000,22.4376700000 114.0035540000,22.4377080000 114.0035900000,22.4377480000 114.0036940000,22.4378130000 114.0040700000,22.4380480000 114.0041670000,22.4381080000 114.0042960000,22.4381700000 114.0043660000,22.4382110000 114.0044090000,22.4382360000 114.0044450000,22.4382580000 114.0068280000,22.4397470000 114.0069050000,22.4398050000 114.0069390000,22.4398320000 114.0070080000,22.4398840000 114.0071840000,22.4399900000 114.0075700000,22.4402310000 114.0077450000,22.4403180000 114.0078820000,22.4404030000 114.0080140000,22.4405020000 114.0081310000,22.4405770000 114.0081940000,22.4406140000 114.0082930000,22.4406770000 114.0083440000,22.4407090000 114.0084120000,22.4407480000 114.0086990000,22.4409250000 114.0089070000,22.4410530000 114.0092040000,22.4412360000 114.0094630000,22.4413950000 114.0102010000,22.4418510000 114.0104170000,22.4419550000 114.0104820000,22.4419940000 114.0105700000,22.4420310000 114.0106270000,22.4420630000 114.0106900000,22.4421110000 114.0109760000,22.4422740000 114.0110160000,22.4422960000 114.0110610000,22.4423200000 114.0110840000,22.4423350000 114.0111560000,22.4423580000 114.0112190000,22.4423910000 114.0112710000,22.4424120000 114.0113590000,22.4424530000 114.0114920000,22.4425170000 114.0118830000,22.4426890000 114.0119260000,22.4427080000 114.0121680000,22.4428060000 114.0122680000,22.4428460000 114.0124190000,22.4429060000 114.0127150000,22.4430230000 114.0129510000,22.4431070000 114.0129840000,22.4431170000 114.0130740000,22.4431680000 114.0132650000,22.4432220000 114.0133480000,22.4432460000 114.0133790000,22.4432550000 114.0134940000,22.4432740000 114.0135530000,22.4432900000 114.0136100000,22.4433200000 114.0140310000,22.4434430000 114.0146250000,22.4435820000 114.0147400000,22.4435930000 114.0147790000,22.4436000000 114.0148680000,22.4436290000 114.0148930000,22.4436340000 114.0150990000,22.4436730000 114.0151190000,22.4436780000 114.0152380000,22.4436920000 114.0152720000,22.4436990000 114.0153330000,22.4437240000 114.0153550000,22.4437280000 114.0154080000,22.4437380000 114.0159910000,22.4438490000 114.0160610000,22.4438620000 114.0161100000,22.4438710000 114.0161690000,22.4438780000 114.0162910000,22.4438870000 114.0163880000,22.4439200000 114.0164730000,22.4439690000 114.0165380000,22.4440360000 114.0165850000,22.4440800000 114.0166830000,22.4441630000 114.0167360000,22.4441860000 114.0167990000,22.4442000000 114.0168950000,22.4442050000 114.0170050000,22.4442060000 114.0171260000,22.4441900000 114.0172580000,22.4441680000 114.0177300000,22.4441540000 114.0180030000,22.4441660000 114.0184080000,22.4442430000 114.0186220000,22.4442750000 114.0187220000,22.4442910000 114.0189990000,22.4443400000 114.0192230000,22.4443780000 114.0193140000,22.4444030000 114.0195150000,22.4444410000 114.0198410000,22.4445010000 114.0205350000,22.4446150000 114.0206390000,22.4446260000 114.0209030000,22.4446440000 114.0211470000,22.4446510000 114.0218890000,22.4446570000 114.0221090000,22.4446670000 114.0221430000,22.4446660000 114.0222010000,22.4446650000 114.0222980000,22.4446630000 114.0223680000,22.4446630000 114.0226340000,22.4446530000 114.0232420000,22.4446380000 114.0232990000,22.4446370000 114.0233860000,22.4446360000 114.0236790000,22.4446320000 114.0236960000,22.4446320000 114.0237560000,22.4446310000 114.0238390000,22.4446300000 114.0240080000,22.4446280000 114.0240710000,22.4446270000 114.0242880000,22.4446210000 114.0244360000,22.4446060000 114.0250310000,22.4446050000 114.0251060000,22.4446020000 114.0251880000,22.4446030000 114.0256380000,22.4446040000 114.0256610000,22.4446070000 114.0257360000,22.4446060000 114.0259050000,22.4446080000 114.0259670000,22.4446080000 114.0262150000,22.4446040000 114.0263570000,22.4446020000 114.0264050000,22.4446010000 114.0269660000,22.4445920000 114.0270090000,22.4445910000 114.0272100000,22.4445880000 114.0273220000,22.4445860000 114.0274930000,22.4445840000 114.0280150000,22.4445750000 114.0283280000,22.4445700000 114.0284090000,22.4445690000 114.0284960000,22.4445680000 114.0285800000,22.4445660000 114.0287320000,22.4445870000 114.0288540000,22.4445860000 114.0291780000,22.4445850000 114.0292970000,22.4445820000 114.0293470000,22.4445810000 114.0295470000,22.4445500000 114.0296740000,22.4445450000 114.0297880000,22.4445380000 114.0298640000,22.4445330000 114.0303900000,22.4445270000 114.0305090000,22.4445260000 114.0307620000,22.4445230000 114.0310040000,22.4445210000 114.0318160000,22.4445130000 114.0319090000,22.4445310000 114.0319590000,22.4445450000 114.0320680000,22.4445910000 114.0321740000,22.4446810000 114.0324160000,22.4449250000 114.0324670000,22.4449690000 114.0325150000,22.4450180000 114.0325450000,22.4450500000 114.0325980000,22.4451100000 114.0326440000,22.4451660000 114.0327520000,22.4452920000 114.0327890000,22.4453340000 114.0328500000,22.4454030000 114.0328780000,22.4454310000 114.0329650000,22.4455250000 114.0330180000,22.4455750000 114.0330930000,22.4456380000 114.0331530000,22.4456830000 114.0332230000,22.4457280000 114.0332850000,22.4457620000 114.0333470000,22.4457920000 114.0334030000,22.4458150000 114.0335180000,22.4458520000 114.0335700000,22.4458750000 114.0336140000,22.4458980000 114.0336770000,22.4459460000 114.0337110000,22.4459830000 114.0337440000,22.4460290000 114.0337660000,22.4460730000 114.0337860000,22.4461190000 114.0338200000,22.4462390000 114.0338320000,22.4462750000 114.0338390000,22.4463040000 114.0339570000,22.4464630000 114.0339870000,22.4464910000 114.0340120000,22.4465100000 114.0340320000,22.4465270000 114.0340480000,22.4465380000 114.0340710000,22.4465500000 114.0341050000,22.4465660000 114.0341490000,22.4465770000 114.0341880000,22.4465860000 114.0342460000,22.4465940000 114.0345190000,22.4465880000 114.0346440000,22.4465770000 114.0346840000,22.4465740000 114.0348920000,22.4465540000 114.0349770000,22.4465440000 114.0350860000,22.4465380000 114.0351560000,22.4465360000 114.0352140000,22.4465330000 114.0352670000,22.4465340000 114.0353060000,22.4465320000 114.0353440000,22.4465320000 114.0353970000,22.4465220000 114.0354410000,22.4465140000 114.0355110000,22.4465020000 114.0356100000,22.4464950000 114.0357550000,22.4464780000 114.0358740000,22.4464550000 114.0360210000,22.4463840000 114.0360520000,22.4463530000 114.0360840000,22.4463200000 114.0361220000,22.4462770000 114.0361730000,22.4462150000 114.0361920000,22.4461750000 114.0361990000,22.4458480000 114.0362070000,22.4454620000 114.0362510000,22.4454400000 114.0362590000,22.4454380000 114.0363170000,22.4454200000 114.0364080000,22.4454120000 114.0366980000,22.4454150000 114.0368260000,22.4454150000 114.0369440000,22.4454100000 114.0370110000,22.4454110000 114.0370550000,22.4454110000 114.0371810000,22.4454120000 114.0372710000,22.4454130000 114.0373360000,22.4454140000 114.0374430000,22.4454150000 114.0374730000,22.4453970000 114.0374920000,22.4453470000 114.0374920000,22.4452850000 114.0374900000,22.4450430000 114.0375930000,22.4450430000 114.0376430000,22.4450250000 114.0376690000,22.4450450000 114.0377110000,22.4450570000 114.0377450000,22.4450540000 114.0377760000,22.4450400000 114.0378020000,22.4450150000 114.0378150000,22.4449860000 114.0378170000,22.4449690000 114.0378120000,22.4449380000 114.0377960000,22.4449100000 114.0377550000,22.4448820000 114.0377220000,22.4448750000 114.0377240000,22.4448140000 114.0377270000,22.4446960000 114.0377320000,22.4446080000 114.0377530000,22.4445860000 114.0377590000,22.4445770000 114.0377680000,22.4445710000 114.0378390000,22.4445250000 114.0378870000,22.4444940000 114.0379920000,22.4445040000 114.0383940000,22.4445350000 114.0384860000,22.4445420000 114.0385650000,22.4445530000 114.0388420000,22.4445350000 114.0389280000,22.4445340000 114.0389660000,22.4445340000 114.0390390000,22.4445390000 114.0390490000,22.4445530000 114.0391090000,22.4446050000 114.0391550000,22.4446400000 114.0391990000,22.4446670000 114.0392440000,22.4446890000 114.0393020000,22.4447070000 114.0393550000,22.4447180000 114.0394100000,22.4447220000 114.0394620000,22.4447200000 114.0395300000,22.4447100000 114.0396000000,22.4446900000 114.0396820000,22.4446520000 114.0397520000,22.4446020000 114.0397830000,22.4445740000 114.0398130000,22.4445400000 114.0398580000,22.4444700000 114.0398730000,22.4444210000 114.0398770000,22.4443700000 114.0398720000,22.4443170000 114.0398600000,22.4442700000 114.0398430000,22.4442320000 114.0398140000,22.4441860000 114.0397880000,22.4441580000 114.0397520000,22.4441230000 114.0396940000,22.4440780000 114.0396290000,22.4440430000 114.0395590000,22.4440250000 114.0394900000,22.4440160000 114.0394200000,22.4440160000 114.0393500000,22.4440200000 114.0392520000,22.4440420000 114.0391870000,22.4440700000 114.0390800000,22.4441400000 114.0390660000,22.4441590000 114.0390520000,22.4441810000 114.0389970000,22.4441900000 114.0388170000,22.4442170000 114.0378870000,22.4442650000 114.0376050000,22.4442930000 114.0374200000,22.4443300000 114.0373030000,22.4443310000 114.0370000000,22.4443340000 114.0368370000,22.4443340000 114.0366320000,22.4443360000 114.0363880000,22.4443380000 114.0363610000,22.4443380000 114.0362560000,22.4443390000 114.0362170000,22.4443400000 114.0361740000,22.4443340000 114.0361030000,22.4443260000 114.0360450000,22.4443270000 114.0358950000,22.4443380000 114.0357770000,22.4443520000 114.0356120000,22.4443540000 114.0352750000,22.4443580000 114.0351050000,22.4443480000 114.0350020000,22.4443490000 114.0349510000,22.4443500000 114.0348280000,22.4443650000 114.0346810000,22.4443670000 114.0345520000,22.4443680000 114.0345190000,22.4443690000 114.0344520000,22.4443700000 114.0343870000,22.4443700000 114.0342160000,22.4443680000 114.0341580000,22.4443720000 114.0341000000,22.4443680000 114.0340270000,22.4443660000 114.0339740000,22.4443660000 114.0337060000,22.4444340000 114.0334530000,22.4445050000 114.0333470000,22.4445490000 114.0332290000,22.4446160000 114.0330300000,22.4447480000 114.0329030000,22.4448380000 114.0328660000,22.4448390000 114.0327950000,22.4448420000 114.0327690000,22.4448430000 114.0327570000,22.4448440000 114.0327350000,22.4448440000 114.0326900000,22.4448460000 114.0326170000,22.4448490000 114.0324030000,22.4446240000 114.0322860000,22.4445330000 114.0322120000,22.4444740000 114.0321470000,22.4444330000 114.0320880000,22.4444080000 114.0320210000,22.4443930000 114.0319550000,22.4443870000 114.0314970000,22.4443880000 114.0314020000,22.4443880000 114.0313040000,22.4443890000 114.0311200000,22.4443920000 114.0310880000,22.4443890000 114.0309620000,22.4443900000 114.0307940000,22.4443900000 114.0306670000,22.4443910000 114.0304670000,22.4443910000 114.0304480000,22.4443920000 114.0302990000,22.4443930000 114.0296980000,22.4443980000 114.0296710000,22.4443980000 114.0294390000,22.4444010000 114.0293320000,22.4444020000 114.0284160000,22.4444120000 114.0283680000,22.4444120000 114.0282970000,22.4444130000 114.0282180000,22.4444140000 114.0281480000,22.4444150000 114.0280700000,22.4444170000 114.0279450000,22.4444190000 114.0278850000,22.4444230000 114.0276250000,22.4444230000 114.0275970000,22.4444150000 114.0272060000,22.4444160000 114.0270450000,22.4444320000 114.0270050000,22.4444330000 114.0267770000,22.4444360000 114.0262530000,22.4444440000 114.0261070000,22.4444460000 114.0259690000,22.4444490000 114.0259470000,22.4444490000 114.0256510000,22.4444530000 114.0256340000,22.4444530000 114.0252560000,22.4444530000 114.0252120000,22.4444530000 114.0251010000,22.4444510000 114.0249210000,22.4444520000 114.0244730000,22.4444480000 114.0243310000,22.4444360000 114.0241770000,22.4444330000 114.0240270000,22.4444350000 114.0239810000,22.4444360000 114.0239150000,22.4444380000 114.0236110000,22.4444450000 114.0234290000,22.4444500000 114.0234060000,22.4444500000 114.0231570000,22.4444620000 114.0226210000,22.4444760000 114.0224050000,22.4444790000 114.0223660000,22.4444800000 114.0222920000,22.4444820000 114.0222020000,22.4444840000 114.0221420000,22.4444850000 114.0218290000,22.4445150000 114.0215220000,22.4445160000 114.0211940000,22.4445230000 114.0209730000,22.4445120000 114.0207000000,22.4444760000 114.0202390000,22.4444020000 114.0195720000,22.4442740000 114.0187350000,22.4441310000 114.0184020000,22.4440700000 114.0179600000,22.4440090000 114.0174590000,22.4439330000 114.0174320000,22.4439290000 114.0172580000,22.4439100000 114.0172290000,22.4439060000 114.0171850000,22.4439010000 114.0170050000,22.4438820000 114.0167790000,22.4438580000 114.0165570000,22.4438340000 114.0163140000,22.4437900000 114.0161890000,22.4437590000 114.0159270000,22.4437020000 114.0158340000,22.4436870000 114.0156410000,22.4436490000 114.0155100000,22.4436370000 114.0153360000,22.4436030000 114.0148870000,22.4435080000 114.0145890000,22.4434490000 114.0140790000,22.4433330000 114.0136590000,22.4432030000 114.0136030000,22.4431850000 114.0135260000,22.4431610000 114.0134210000,22.4431290000 114.0133720000,22.4431130000 114.0131220000,22.4430360000 114.0130120000,22.4430020000 114.0129740000,22.4429900000 114.0127770000,22.4429280000 114.0124620000,22.4428210000 114.0123070000,22.4427510000 114.0122240000,22.4427130000 114.0119640000,22.4426110000 114.0119400000,22.4426020000 114.0115310000,22.4424170000 114.0114200000,22.4423690000 114.0113980000,22.4423580000 114.0113600000,22.4423280000 114.0113170000,22.4423100000 114.0112530000,22.4422890000 114.0111380000,22.4422480000 114.0111160000,22.4422370000 114.0110750000,22.4421990000 114.0110390000,22.4421760000 114.0107600000,22.4420200000 114.0106820000,22.4419710000 114.0106180000,22.4419310000 114.0105390000,22.4418820000 114.0104690000,22.4418390000 114.0102610000,22.4417300000 114.0095560000,22.4412920000 114.0093000000,22.4411300000 114.0089920000,22.4409350000 114.0087780000,22.4408090000 114.0086710000,22.4407420000 114.0086230000,22.4407020000 114.0086020000,22.4406900000 114.0084980000,22.4406340000 114.0084270000,22.4405970000 114.0082270000,22.4404770000 114.0080970000,22.4404000000 114.0079400000,22.4403080000 114.0078930000,22.4402800000 114.0076750000,22.4401530000 114.0070060000,22.4397490000 114.0069650000,22.4397240000 114.0066030000,22.4394920000 114.0062110000,22.4392510000 114.0059740000,22.4391060000 114.0054810000,22.4388030000 114.0054360000,22.4387750000 114.0050680000,22.4385500000 114.0044880000,22.4381840000 114.0044650000,22.4381680000 114.0044210000,22.4381420000 114.0042820000,22.4380610000 114.0042040000,22.4380150000 114.0036620000,22.4376740000 114.0034590000,22.4375490000 114.0031400000,22.4373460000 114.0025420000,22.4369620000 114.0023820000,22.4368610000 114.0021220000,22.4366790000 114.0016800000,22.4363500000 114.0015590000,22.4362620000 114.0013130000,22.4361040000 114.0011080000,22.4359570000 114.0009700000,22.4358550000 114.0008870000,22.4357840000 114.0008460000,22.4357520000 114.0007970000,22.4357160000 114.0007290000,22.4356690000 114.0004980000,22.4355400000 114.0004490000,22.4355090000 114.0003760000,22.4354630000 114.0003030000,22.4354110000 114.0002490000,22.4353720000 114.0001780000,22.4353200000 113.9999680000,22.4351660000 113.9999050000,22.4351240000 113.9996930000,22.4349810000 113.9996040000,22.4349230000 113.9984450000,22.4340570000 113.9983700000,22.4340040000 113.9983090000,22.4339610000 113.9981710000,22.4338630000 113.9978890000,22.4336660000 113.9969960000,22.4330310000 113.9968710000,22.4329370000 113.9965890000,22.4327450000 113.9964780000,22.4326700000 113.9964510000,22.4326520000 113.9958070000,22.4322080000 113.9951540000,22.4317280000 113.9949680000,22.4315820000 113.9948520000,22.4314930000 113.9947670000,22.4314230000 113.9946360000,22.4313130000 113.9944770000,22.4311850000 113.9942810000,22.4310270000 113.9940260000,22.4308210000 113.9938170000,22.4306520000 113.9933750000,22.4302870000 113.9933570000,22.4302730000 113.9933200000,22.4302440000 113.9930270000,22.4299970000 113.9927330000,22.4297690000 113.9926060000,22.4296610000 113.9922690000,22.4293870000 113.9918980000,22.4290950000 113.9915770000,22.4288170000 113.9914030000,22.4286520000 113.9904480000,22.4276230000 113.9902750000,22.4274380000 113.9901090000,22.4272630000 113.9900800000,22.4272320000 113.9899880000,22.4271340000 113.9899550000,22.4270990000 113.9897590000,22.4268910000 113.9894090000,22.4264960000 113.9893360000,22.4264140000 113.9892700000,22.4263390000 113.9892150000,22.4262830000 113.9891910000,22.4262580000 113.9884400000,22.4254940000 113.9879010000,22.4249210000 113.9873260000,22.4242960000 113.9870910000,22.4240380000 113.9858000000,22.4226400000 113.9856130000,22.4224390000 113.9853210000,22.4221580000 113.9849580000,22.4217740000 113.9849230000,22.4217360000 113.9848440000,22.4216430000 113.9847810000,22.4215680000 113.9846690000,22.4214530000 113.9845070000,22.4212850000 113.9841520000,22.4209180000 113.9835380000,22.4202500000 113.9834750000,22.4201690000 113.9834060000,22.4200910000 113.9832070000,22.4198720000 113.9830090000,22.4195990000 113.9828300000,22.4193000000 113.9828110000,22.4192670000 113.9827720000,22.4191930000 113.9825550000,22.4187800000 113.9824600000,22.4186090000 113.9822990000,22.4183020000 113.9820870000,22.4179240000 113.9818740000,22.4175200000 113.9818020000,22.4173830000 113.9817350000,22.4171470000 113.9816920000,22.4170600000 113.9816640000,22.4169980000 113.9816250000,22.4168670000 113.9816020000,22.4166830000 113.9816000000,22.4165360000 113.9816070000,22.4164060000 113.9816360000,22.4162850000 113.9817210000,22.4161140000 113.9817380000,22.4160790000 113.9817950000,22.4159850000 113.9817060000,22.4159060000 113.9816560000,22.4158000000 113.9815380000,22.4156430000 113.9814930000,22.4155740000 113.9814570000,22.4155100000 113.9814000000,22.4153970000 113.9813540000,22.4153120000 113.9813200000,22.4152500000 113.9813230000,22.4152360000 113.9813260000,22.4152210000 113.9813260000,22.4151990000 113.9813190000,22.4151700000 113.9813070000,22.4151400000 113.9812900000,22.4151110000 113.9812590000,22.4150720000 113.9812160000,22.4150370000 113.9811700000,22.4150080000 113.9811320000,22.4149890000 113.9810830000,22.4149690000 113.9810280000,22.4149560000 113.9809720000,22.4149510000 113.9809190000,22.4149560000 113.9808730000,22.4149630000 113.9808380000,22.4149740000 113.9808030000,22.4149940000 113.9807820000,22.4150120000 113.9807630000,22.4150340000 113.9807520000,22.4150530000 113.9806580000,22.4151020000 113.9805860000,22.4151380000 113.9804960000,22.4151840000 113.9804510000,22.4152070000 113.9804190000,22.4152290000 113.9803880000,22.4152460000 113.9803000000,22.4152950000 113.9800300000,22.4154050000 113.9799560000,22.4154350000 113.9798270000,22.4154670000 113.9797660000,22.4154820000 113.9797030000,22.4154890000 113.9795950000,22.4155010000 113.9795710000,22.4155040000 113.9794060000,22.4155120000 113.9793580000,22.4155170000 113.9792190000,22.4155330000 113.9791810000,22.4155380000 113.9790940000,22.4155540000 113.9789800000,22.4155760000 113.9789310000,22.4155910000 113.9788280000,22.4156210000 113.9788160000,22.4156250000 113.9787930000,22.4156320000 113.9787710000,22.4156400000 113.9787570000,22.4156460000 113.9786300000,22.4156960000 113.9783850000,22.4157630000 113.9783270000,22.4157670000 113.9782860000,22.4157630000 113.9782390000,22.4157550000 113.9781510000,22.4157220000 113.9781370000,22.4156810000 113.9781140000,22.4156410000 113.9780790000,22.4156080000 113.9780270000,22.4155800000 113.9779870000,22.4155720000 113.9779430000,22.4155710000 113.9778020000,22.4155440000 113.9777170000,22.4155130000 113.9776090000,22.4154610000 113.9775030000,22.4153980000 113.9774530000,22.4153420000 113.9774060000,22.4152550000 113.9772510000,22.4148300000 113.9771930000,22.4146730000 113.9771550000,22.4145670000 113.9771190000,22.4144750000 113.9771050000,22.4144400000 113.9770580000,22.4143080000 113.9769680000,22.4140590000 113.9768450000,22.4137190000 113.9768190000,22.4136470000 113.9767150000,22.4133880000 113.9766930000,22.4133010000 113.9765940000,22.4129030000 113.9765640000,22.4125000000 113.9765480000,22.4124330000 113.9765360000,22.4123860000 113.9765220000,22.4123400000 113.9764760000,22.4121680000 113.9764460000,22.4120700000 113.9764340000,22.4119530000 113.9764490000,22.4117210000 113.9764790000,22.4115580000 113.9765650000,22.4110650000 113.9765710000,22.4109530000 113.9765590000,22.4106350000 113.9765580000,22.4105920000 113.9765330000,22.4104370000 113.9764940000,22.4102780000 113.9764190000,22.4100350000 113.9763920000,22.4099760000 113.9762410000,22.4096320000 113.9762130000,22.4095720000 113.9762000000,22.4095450000 113.9761750000,22.4094990000 113.9759720000,22.4091550000 113.9757570000,22.4088750000 113.9754260000,22.4085430000 113.9749630000,22.4081740000 113.9745740000,22.4079150000 113.9744110000,22.4078230000 113.9744690000,22.4077280000 113.9744850000,22.4076990000 113.9746980000,22.4072900000 113.9747820000,22.4070050000 113.9747970000,22.4069120000 113.9748230000,22.4067460000 113.9748420000,22.4066270000 113.9748630000,22.4064480000 113.9748640000,22.4064390000 113.9749150000,22.4056430000 113.9749290000,22.4052820000 113.9749350000,22.4051250000 113.9749360000,22.4050810000 113.9749380000,22.4049590000 113.9749310000,22.4048520000 113.9749120000,22.4047150000 113.9748830000,22.4045810000 113.9748460000,22.4044480000 113.9746490000,22.4039090000 113.9745990000,22.4037720000 113.9744610000,22.4033940000 113.9744080000,22.4033120000 113.9743570000,22.4032490000 113.9743510000,22.4032400000 113.9742870000,22.4031730000 113.9742160000,22.4031130000 113.9741400000,22.4030580000 113.9740700000,22.4030180000 113.9740580000,22.4030110000 113.9739710000,22.4029710000 113.9738810000,22.4029390000 113.9737880000,22.4029150000 113.9736930000,22.4029000000 113.9736030000,22.4028930000 113.9735660000,22.4028910000 113.9734220000,22.4028840000 113.9732370000,22.4028270000 113.9730950000,22.4028180000 113.9730500000,22.4028140000 113.9728800000,22.4027940000 113.9728810000,22.4027280000 113.9728840000,22.4026230000 113.9729190000,22.4020650000 113.9730250000,22.4014930000 113.9730340000,22.4014460000 113.9730560000,22.4013370000 113.9730730000,22.4012590000 113.9730960000,22.4011590000 113.9731740000,22.4007590000 113.9732170000,22.4005160000 113.9732780000,22.4000810000 113.9733160000,22.3995300000 113.9733190000,22.3994820000 113.9733420000,22.3992940000 113.9733510000,22.3991510000 113.9733550000,22.3990630000 113.9733510000,22.3989950000 113.9733410000,22.3989270000 113.9733260000,22.3988610000 113.9733060000,22.3987950000 113.9732810000,22.3987310000 113.9732510000,22.3986690000 113.9732160000,22.3986090000 113.9731770000,22.3985510000 113.9731330000,22.3984970000 113.9730850000,22.3984450000 113.9730330000,22.3983970000 113.9729780000,22.3983520000 113.9724500000,22.3979050000 113.9724030000,22.3978640000 113.9723570000,22.3978200000 113.9723180000,22.3977770000 113.9722790000,22.3977240000 113.9722460000,22.3976690000 113.9722150000,22.3976010000 113.9721790000,22.3975000000 113.9718280000,22.3962090000 113.9717960000,22.3960650000 113.9717530000,22.3958990000 113.9716200000,22.3953860000 113.9716020000,22.3953180000 113.9715240000,22.3950220000 113.9714570000,22.3947880000 113.9714450000,22.3947470000 113.9714150000,22.3946240000 113.9713630000,22.3944750000 113.9712640000,22.3944990000 113.9711220000,22.3945340000 113.9706920000,22.3946430000 113.9697080000,22.3948870000 113.9693070000,22.3949820000 113.9688730000,22.3950960000 113.9684470000,22.3952080000 113.9683830000,22.3952230000 113.9682970000,22.3952360000 113.9681010000,22.3952430000 113.9676830000,22.3952330000 113.9676970000,22.3945070000 113.9676840000,22.3937620000 113.9676950000,22.3933790000 113.9676930000,22.3931520000 113.9676980000,22.3924910000 113.9676960000,22.3921790000 113.9677020000,22.3916910000 113.9676990000,22.3915290000 113.9676950000,22.3914570000 113.9676870000,22.3913850000 113.9676640000,22.3912650000 113.9676170000,22.3910950000 113.9676080000,22.3910660000 113.9671740000,22.3898260000 113.9667020000,22.3886900000 113.9663090000,22.3876300000 113.9659990000,22.3868180000 113.9657360000,22.3861840000 113.9656650000,22.3860220000 113.9656300000,22.3859410000 113.9655800000,22.3857910000 113.9655330000,22.3856410000 113.9654910000,22.3854890000 113.9654520000,22.3853350000 113.9654300000,22.3852630000 113.9654070000,22.3851910000 113.9653540000,22.3850480000 113.9652930000,22.3849090000 113.9652240000,22.3847720000 113.9650930000,22.3845530000 113.9650370000,22.3844680000 113.9649860000,22.3843900000 113.9648530000,22.3841820000 113.9647650000,22.3840550000 113.9646740000,22.3839340000 113.9645800000,22.3838040000 113.9645060000,22.3836960000 113.9644710000,22.3836400000 113.9644360000,22.3835850000 113.9643690000,22.3834730000 113.9643050000,22.3833580000 113.9642440000,22.3832430000 113.9641980000,22.3831510000 113.9641580000,22.3830640000 113.9641540000,22.3830570000 113.9641350000,22.3830150000 113.9641330000,22.3830090000 113.9640870000,22.3829090000 113.9640040000,22.3827330000 113.9639270000,22.3825540000 113.9638560000,22.3823730000 113.9638230000,22.3822820000 113.9637900000,22.3821910000 113.9637290000,22.3820070000 113.9635980000,22.3815590000 113.9635210000,22.3813270000 113.9634740000,22.3812150000 113.9633930000,22.3810190000 113.9632470000,22.3804890000 113.9631330000,22.3800540000 113.9630660000,22.3798220000 113.9630060000,22.3796480000 113.9629420000,22.3794990000 113.9628050000,22.3792480000 113.9627610000,22.3791880000 113.9627060000,22.3790990000 113.9626620000,22.3790260000 113.9626530000,22.3790160000 113.9625830000,22.3789330000 113.9625730000,22.3789210000 113.9625210000,22.3788510000 113.9623250000,22.3786140000 113.9622470000,22.3785220000 113.9615290000,22.3775970000 113.9614090000,22.3774400000 113.9613200000,22.3773290000 113.9610360000,22.3769450000 113.9607360000,22.3765730000 113.9605200000,22.3763050000 113.9605080000,22.3762560000 113.9604990000,22.3762200000 113.9604900000,22.3761780000 113.9604880000,22.3761150000 113.9605020000,22.3760790000 113.9605250000,22.3760450000 113.9605440000,22.3760240000 113.9605630000,22.3759670000 113.9606570000,22.3758610000 113.9607910000,22.3757150000 113.9607910000,22.3757150000 113.9609580000,22.3755340000 113.9609810000,22.3755070000 113.9613810000,22.3750230000 113.9614250000,22.3749730000 113.9615290000,22.3748590000 113.9615420000,22.3748520000 113.9616100000,22.3747670000 113.9616900000,22.3746660000 113.9619160000,22.3743970000 113.9623210000,22.3739110000 113.9624820000,22.3738250000 113.9626350000,22.3737610000 113.9631680000,22.3736470000 113.9634090000,22.3736070000 113.9636520000,22.3735660000 113.9643490000,22.3734570000 113.9644420000,22.3734420000 113.9646160000,22.3734170000 113.9651770000,22.3733360000 113.9652140000,22.3733300000 113.9652470000,22.3733240000 113.9653260000,22.3733410000 113.9653530000,22.3734390000 113.9655330000,22.3740270000 113.9656610000,22.3744440000 113.9656830000,22.3745160000 113.9657990000,22.3748940000 113.9660070000,22.3756000000 113.9660310000,22.3756810000 113.9661770000,22.3761480000 113.9662910000,22.3765120000 113.9663370000,22.3766530000 113.9663620000,22.3767310000 113.9664750000,22.3770750000 113.9666420000,22.3775280000 113.9666880000,22.3776520000 113.9667350000,22.3777480000 113.9667970000,22.3778590000 113.9669140000,22.3780660000 113.9670690000,22.3782710000 113.9672470000,22.3784330000 113.9674540000,22.3785760000 113.9678070000,22.3787850000 113.9689560000,22.3794660000 113.9695520000,22.3798190000 113.9697570000,22.3799820000 113.9698230000,22.3800620000 113.9699170000,22.3802010000 113.9700080000,22.3803640000 113.9700730000,22.3805320000 113.9700850000,22.3805710000 113.9701070000,22.3806600000 113.9701240000,22.3807720000 113.9701330000,22.3808930000 113.9701740000,22.3814590000 113.9702180000,22.3820330000 113.9702420000,22.3825170000 113.9702430000,22.3825440000 113.9702500000,22.3826810000 113.9702890000,22.3830190000 113.9703450000,22.3833360000 113.9704750000,22.3838740000 113.9704830000,22.3839050000 113.9705150000,22.3840500000 113.9705960000,22.3840390000 113.9707470000,22.3840230000 113.9713680000,22.3839930000 113.9718390000,22.3839700000 113.9718940000,22.3839950000 113.9719390000,22.3839950000 113.9719660000,22.3839950000 113.9720130000,22.3839610000 113.9720760000,22.3839550000 113.9721680000,22.3839480000 113.9722390000,22.3839720000 113.9723790000,22.3839640000 113.9725330000,22.3839550000 113.9726490000,22.3839490000 113.9728310000,22.3839400000 113.9730050000,22.3839330000 113.9732340000,22.3839190000 113.9732830000,22.3839160000 113.9733340000,22.3839100000 113.9733910000,22.3838810000 113.9741870000,22.3838410000 113.9743490000,22.3838330000 113.9746190000,22.3838270000 113.9749120000,22.3838160000 113.9749610000,22.3838150000 113.9750140000,22.3838140000 113.9750590000,22.3838090000 113.9751390000,22.3838040000 113.9751980000,22.3837980000 113.9752450000,22.3837640000 113.9751940000,22.3831020000 113.9752040000,22.3829790000 113.9752430000,22.3828080000 113.9753160000,22.3826350000 113.9753860000,22.3824860000 113.9755580000,22.3825590000 113.9756230000,22.3825840000 113.9762360000,22.3828450000 113.9763460000,22.3828920000 113.9771690000,22.3832390000 113.9778590000,22.3835310000 113.9778820000,22.3835410000 113.9779470000,22.3835650000 113.9780840000,22.3836020000 113.9781040000,22.3835200000 113.9781360000,22.3833960000 113.9781470000,22.3833510000 113.9781860000,22.3832010000 113.9782260000,22.3830170000 113.9782460000,22.3828820000 113.9782530000,22.3828350000 113.9782570000,22.3827860000 113.9782690000,22.3826290000 113.9782940000,22.3825390000 113.9783440000,22.3824320000 113.9783800000,22.3823700000 113.9787940000,22.3817480000 113.9788130000,22.3817200000 113.9788390000,22.3816800000 113.9790460000,22.3813650000 113.9791980000,22.3811460000 113.9794370000,22.3807850000 113.9793330000,22.3807260000 113.9791020000,22.3805950000 113.9788940000,22.3804750000 113.9787770000,22.3804070000 113.9786150000,22.3803160000 113.9785720000,22.3802920000 113.9784320000,22.3802110000 113.9781340000,22.3800510000 113.9780880000,22.3800380000 113.9780730000,22.3800390000 113.9780230000,22.3800410000 113.9779770000,22.3800680000 113.9779050000,22.3801970000 113.9776790000,22.3805910000 113.9774850000,22.3808940000 113.9773250000,22.3811430000 113.9770380000,22.3815910000 113.9770160000,22.3816240000 113.9770010000,22.3816580000 113.9769920000,22.3817020000 113.9769890000,22.3817520000 113.9770350000,22.3818060000 113.9771500000,22.3818760000 113.9772780000,22.3819490000</coordinates>
                </LineString>
                <ExtendedData>
                    <Data name="duration">
                        <value>00:45:19</value>
                    </Data>
                    <Data name="length">
                        <value>33645.17636485792</value>
                    </Data>
                </ExtendedData>
            </Placemark>
        </Document>
    </Document>
</kml>