<?xml version="1.0" encoding="UTF-8"?>
<kml xmlns="http://www.opengis.net/kml/2.2" xmlns:gx="http://www.google.com/kml/ext/2.2">
    <Document>
        <name>Route</name>
        <Folder>
            <name>Route Request</name>
            <Placemark>
                <address>Block 7, Sam Shing Street, Sam Shing, Tuen Mun Town, Tuen Mun, Tuen Mun District, New Territories, Hong Kong, China</address>
                <Point>
                    <coordinates>113.9772523647,22.3820817411</coordinates>
                </Point>
                <ExtendedData>
                    <Data name="ISO3166-2-lvl3">
                        <value>CN-HK</value>
                    </Data>
                    <Data name="municipality">
                        <value>New Territories</value>
                    </Data>
                    <Data name="state">
                        <value>Hong Kong</value>
                    </Data>
                    <Data name="country_code">
                        <value>cn</value>
                    </Data>
                    <Data name="building">
                        <value>Block 7</value>
                    </Data>
                    <Data name="road">
                        <value>Sam Shing Street</value>
                    </Data>
                    <Data name="suburb">
                        <value>Tuen Mun Town</value>
                    </Data>
                    <Data name="town">
                        <value>Tuen Mun</value>
                    </Data>
                    <Data name="city">
                        <value>Tuen Mun District</value>
                    </Data>
                    <Data name="country">
                        <value>China</value>
                    </Data>
                    <Data name="neighbourhood">
                        <value>Sam Shing</value>
                    </Data>
                </ExtendedData>
            </Placemark>
            <Placemark>
                <address>Tuen Mun Heung Sze Wui Road, Tuen Mun San Hui, Tuen Mun Town, Leung Tin Village, Tuen Mun District, New Territories, Hong Kong, China</address>
                <Point>
                    <coordinates>113.9749219126,22.3976481996</coordinates>
                </Point>
                <ExtendedData>
                    <Data name="quarter">
                        <value>Tuen Mun San Hui</value>
                    </Data>
                    <Data name="ISO3166-2-lvl3">
                        <value>CN-HK</value>
                    </Data>
                    <Data name="municipality">
                        <value>New Territories</value>
                    </Data>
                    <Data name="state">
                        <value>Hong Kong</value>
                    </Data>
                    <Data name="country_code">
                        <value>cn</value>
                    </Data>
                    <Data name="road">
                        <value>Tuen Mun Heung Sze Wui Road</value>
                    </Data>
                    <Data name="village">
                        <value>Leung Tin Village</value>
                    </Data>
                    <Data name="suburb">
                        <value>Tuen Mun Town</value>
                    </Data>
                    <Data name="city">
                        <value>Tuen Mun District</value>
                    </Data>
                    <Data name="country">
                        <value>China</value>
                    </Data>
                </ExtendedData>
            </Placemark>
            <Placemark>
                <address>Tuen Mun Heung Sze Wui Road, Tuen Mun San Hui, Tseng Tau Sheung Tsuen North, Kau Hui Village, Tuen Mun District, New Territories, Hong Kong, China</address>
                <Point>
                    <coordinates>113.9759590699,22.4006319382</coordinates>
                </Point>
                <ExtendedData>
                    <Data name="quarter">
                        <value>Tuen Mun San Hui</value>
                    </Data>
                    <Data name="ISO3166-2-lvl3">
                        <value>CN-HK</value>
                    </Data>
                    <Data name="municipality">
                        <value>New Territories</value>
                    </Data>
                    <Data name="state">
                        <value>Hong Kong</value>
                    </Data>
                    <Data name="country_code">
                        <value>cn</value>
                    </Data>
                    <Data name="hamlet">
                        <value>Tseng Tau Sheung Tsuen North</value>
                    </Data>
                    <Data name="road">
                        <value>Tuen Mun Heung Sze Wui Road</value>
                    </Data>
                    <Data name="village">
                        <value>Kau Hui Village</value>
                    </Data>
                    <Data name="city">
                        <value>Tuen Mun District</value>
                    </Data>
                    <Data name="country">
                        <value>China</value>
                    </Data>
                </ExtendedData>
            </Placemark>
            <Placemark>
                <address>Hung Fuk Shopping Centre, Hung Yuen Road, Tin Sum, Hung Shui Kiu, Shek Po Village, Yuen Long District, New Territories, Hong Kong, China</address>
                <Point>
                    <coordinates>113.9983649025,22.4367766798</coordinates>
                </Point>
                <ExtendedData>
                    <Data name="quarter">
                        <value>Tin Sum</value>
                    </Data>
                    <Data name="ISO3166-2-lvl3">
                        <value>CN-HK</value>
                    </Data>
                    <Data name="municipality">
                        <value>New Territories</value>
                    </Data>
                    <Data name="state">
                        <value>Hong Kong</value>
                    </Data>
                    <Data name="country_code">
                        <value>cn</value>
                    </Data>
                    <Data name="road">
                        <value>Hung Yuen Road</value>
                    </Data>
                    <Data name="village">
                        <value>Shek Po Village</value>
                    </Data>
                    <Data name="shop">
                        <value>Hung Fuk Shopping Centre</value>
                    </Data>
                    <Data name="suburb">
                        <value>Hung Shui Kiu</value>
                    </Data>
                    <Data name="city">
                        <value>Yuen Long District</value>
                    </Data>
                    <Data name="country">
                        <value>China</value>
                    </Data>
                </ExtendedData>
            </Placemark>
            <Placemark>
                <address>Tin Shui Road, Tin Shui Wai Town Centre, Tin Shui Wai South, Tin Shui Wai, Yuen Long District, New Territories, Hong Kong, China</address>
                <Point>
                    <coordinates>113.9981031069,22.4584319624</coordinates>
                </Point>
                <ExtendedData>
                    <Data name="quarter">
                        <value>Tin Shui Wai Town Centre</value>
                    </Data>
                    <Data name="ISO3166-2-lvl3">
                        <value>CN-HK</value>
                    </Data>
                    <Data name="municipality">
                        <value>New Territories</value>
                    </Data>
                    <Data name="state">
                        <value>Hong Kong</value>
                    </Data>
                    <Data name="country_code">
                        <value>cn</value>
                    </Data>
                    <Data name="road">
                        <value>Tin Shui Road</value>
                    </Data>
                    <Data name="suburb">
                        <value>Tin Shui Wai South</value>
                    </Data>
                    <Data name="town">
                        <value>Tin Shui Wai</value>
                    </Data>
                    <Data name="city">
                        <value>Yuen Long District</value>
                    </Data>
                    <Data name="country">
                        <value>China</value>
                    </Data>
                </ExtendedData>
            </Placemark>
            <Placemark>
                <address>Wetland Park Road, Tin Shui Wai North, Kak Tin Tsuen, Yuen Long District, New Territories, Hong Kong, China</address>
                <Point>
                    <coordinates>114.0044547499,22.4669320658</coordinates>
                </Point>
                <ExtendedData>
                    <Data name="ISO3166-2-lvl3">
                        <value>CN-HK</value>
                    </Data>
                    <Data name="municipality">
                        <value>New Territories</value>
                    </Data>
                    <Data name="state">
                        <value>Hong Kong</value>
                    </Data>
                    <Data name="country_code">
                        <value>cn</value>
                    </Data>
                    <Data name="road">
                        <value>Wetland Park Road</value>
                    </Data>
                    <Data name="village">
                        <value>Kak Tin Tsuen</value>
                    </Data>
                    <Data name="suburb">
                        <value>Tin Shui Wai North</value>
                    </Data>
                    <Data name="city">
                        <value>Yuen Long District</value>
                    </Data>
                    <Data name="country">
                        <value>China</value>
                    </Data>
                </ExtendedData>
            </Placemark>
            <Placemark>
                <address>Tin Shui Wai Town Centre, Ka Yan Street, Tin Shui Wai Town Centre, Tin Shui Wai South, Tin Shui Wai, Yuen Long District, New Territories, Hong Kong, China</address>
                <Point>
                    <coordinates>114.0019288532,22.4581660852</coordinates>
                </Point>
                <ExtendedData>
                    <Data name="quarter">
                        <value>Tin Shui Wai Town Centre</value>
                    </Data>
                    <Data name="ISO3166-2-lvl3">
                        <value>CN-HK</value>
                    </Data>
                    <Data name="municipality">
                        <value>New Territories</value>
                    </Data>
                    <Data name="state">
                        <value>Hong Kong</value>
                    </Data>
                    <Data name="country_code">
                        <value>cn</value>
                    </Data>
                    <Data name="amenity">
                        <value>Tin Shui Wai Town Centre</value>
                    </Data>
                    <Data name="road">
                        <value>Ka Yan Street</value>
                    </Data>
                    <Data name="suburb">
                        <value>Tin Shui Wai South</value>
                    </Data>
                    <Data name="town">
                        <value>Tin Shui Wai</value>
                    </Data>
                    <Data name="city">
                        <value>Yuen Long District</value>
                    </Data>
                    <Data name="country">
                        <value>China</value>
                    </Data>
                </ExtendedData>
            </Placemark>
            <Placemark>
                <address>Wetland Park Road, Tin Shui Wai North, Kak Tin Tsuen, Yuen Long District, New Territories, Hong Kong, China</address>
                <Point>
                    <coordinates>114.0019762866,22.4705986409</coordinates>
                </Point>
                <ExtendedData>
                    <Data name="ISO3166-2-lvl3">
                        <value>CN-HK</value>
                    </Data>
                    <Data name="municipality">
                        <value>New Territories</value>
                    </Data>
                    <Data name="state">
                        <value>Hong Kong</value>
                    </Data>
                    <Data name="country_code">
                        <value>cn</value>
                    </Data>
                    <Data name="road">
                        <value>Wetland Park Road</value>
                    </Data>
                    <Data name="village">
                        <value>Kak Tin Tsuen</value>
                    </Data>
                    <Data name="suburb">
                        <value>Tin Shui Wai North</value>
                    </Data>
                    <Data name="city">
                        <value>Yuen Long District</value>
                    </Data>
                    <Data name="country">
                        <value>China</value>
                    </Data>
                </ExtendedData>
            </Placemark>
            <Placemark>
                <address>Tin Shui Wai Sports Ground, 2, Tin Shui Road, Tin Shui Wai Town Centre, Tin Shui Wai South, Tin Shui Wai, Yuen Long District, New Territories, Hong Kong, China</address>
                <Point>
                    <coordinates>114.0033582229,22.4539626023</coordinates>
                </Point>
                <ExtendedData>
                    <Data name="quarter">
                        <value>Tin Shui Wai Town Centre</value>
                    </Data>
                    <Data name="ISO3166-2-lvl3">
                        <value>CN-HK</value>
                    </Data>
                    <Data name="municipality">
                        <value>New Territories</value>
                    </Data>
                    <Data name="state">
                        <value>Hong Kong</value>
                    </Data>
                    <Data name="country_code">
                        <value>cn</value>
                    </Data>
                    <Data name="road">
                        <value>Tin Shui Road</value>
                    </Data>
                    <Data name="suburb">
                        <value>Tin Shui Wai South</value>
                    </Data>
                    <Data name="town">
                        <value>Tin Shui Wai</value>
                    </Data>
                    <Data name="city">
                        <value>Yuen Long District</value>
                    </Data>
                    <Data name="country">
                        <value>China</value>
                    </Data>
                    <Data name="leisure">
                        <value>Tin Shui Wai Sports Ground</value>
                    </Data>
                    <Data name="house_number">
                        <value>2</value>
                    </Data>
                </ExtendedData>
            </Placemark>
            <Placemark>
                <address>Queen Elizabeth School Old Students' Association Primary School, Tin Fuk Road, Kiu Tau Wai, Sheung Cheung Wai, Yuen Long District, New Territories, Hong Kong, China</address>
                <Point>
                    <coordinates>114.0035968871,22.4486022435</coordinates>
                </Point>
                <ExtendedData>
                    <Data name="ISO3166-2-lvl3">
                        <value>CN-HK</value>
                    </Data>
                    <Data name="municipality">
                        <value>New Territories</value>
                    </Data>
                    <Data name="state">
                        <value>Hong Kong</value>
                    </Data>
                    <Data name="country_code">
                        <value>cn</value>
                    </Data>
                    <Data name="hamlet">
                        <value>Kiu Tau Wai</value>
                    </Data>
                    <Data name="amenity">
                        <value>Queen Elizabeth School Old Students' Association Primary School</value>
                    </Data>
                    <Data name="road">
                        <value>Tin Fuk Road</value>
                    </Data>
                    <Data name="village">
                        <value>Sheung Cheung Wai</value>
                    </Data>
                    <Data name="city">
                        <value>Yuen Long District</value>
                    </Data>
                    <Data name="country">
                        <value>China</value>
                    </Data>
                </ExtendedData>
            </Placemark>
            <Placemark>
                <address>Ping Ha Road, Kiu Tau Wai, Sheung Cheung Wai, Yuen Long District, New Territories, Hong Kong, China</address>
                <Point>
                    <coordinates>114.0005745900,22.4462534448</coordinates>
                </Point>
                <ExtendedData>
                    <Data name="ISO3166-2-lvl3">
                        <value>CN-HK</value>
                    </Data>
                    <Data name="municipality">
                        <value>New Territories</value>
                    </Data>
                    <Data name="state">
                        <value>Hong Kong</value>
                    </Data>
                    <Data name="country_code">
                        <value>cn</value>
                    </Data>
                    <Data name="hamlet">
                        <value>Kiu Tau Wai</value>
                    </Data>
                    <Data name="road">
                        <value>Ping Ha Road</value>
                    </Data>
                    <Data name="village">
                        <value>Sheung Cheung Wai</value>
                    </Data>
                    <Data name="city">
                        <value>Yuen Long District</value>
                    </Data>
                    <Data name="country">
                        <value>China</value>
                    </Data>
                </ExtendedData>
            </Placemark>
            <Placemark>
                <address>Hung Fuk Shopping Centre, Hung Yuen Road, Tin Sum, Hung Shui Kiu, Shek Po Village, Yuen Long District, New Territories, Hong Kong, China</address>
                <Point>
                    <coordinates>113.9983575145,22.4367768162</coordinates>
                </Point>
                <ExtendedData>
                    <Data name="quarter">
                        <value>Tin Sum</value>
                    </Data>
                    <Data name="ISO3166-2-lvl3">
                        <value>CN-HK</value>
                    </Data>
                    <Data name="municipality">
                        <value>New Territories</value>
                    </Data>
                    <Data name="state">
                        <value>Hong Kong</value>
                    </Data>
                    <Data name="country_code">
                        <value>cn</value>
                    </Data>
                    <Data name="road">
                        <value>Hung Yuen Road</value>
                    </Data>
                    <Data name="village">
                        <value>Shek Po Village</value>
                    </Data>
                    <Data name="shop">
                        <value>Hung Fuk Shopping Centre</value>
                    </Data>
                    <Data name="suburb">
                        <value>Hung Shui Kiu</value>
                    </Data>
                    <Data name="city">
                        <value>Yuen Long District</value>
                    </Data>
                    <Data name="country">
                        <value>China</value>
                    </Data>
                </ExtendedData>
            </Placemark>
            <Placemark>
                <address>18號海盛大廈, Tak Ching Court, Tuen Mun Central, Tuen Mun Town, Tuen Mun, Tuen Mun District, New Territories, Hong Kong, China</address>
                <Point>
                    <coordinates>113.9745697744,22.3953258650</coordinates>
                </Point>
                <ExtendedData>
                    <Data name="quarter">
                        <value>Tuen Mun Central</value>
                    </Data>
                    <Data name="ISO3166-2-lvl3">
                        <value>CN-HK</value>
                    </Data>
                    <Data name="municipality">
                        <value>New Territories</value>
                    </Data>
                    <Data name="state">
                        <value>Hong Kong</value>
                    </Data>
                    <Data name="country_code">
                        <value>cn</value>
                    </Data>
                    <Data name="road">
                        <value>Tak Ching Court</value>
                    </Data>
                    <Data name="suburb">
                        <value>Tuen Mun Town</value>
                    </Data>
                    <Data name="town">
                        <value>Tuen Mun</value>
                    </Data>
                    <Data name="city">
                        <value>Tuen Mun District</value>
                    </Data>
                    <Data name="country">
                        <value>China</value>
                    </Data>
                    <Data name="house_number">
                        <value>18號海盛大廈</value>
                    </Data>
                </ExtendedData>
            </Placemark>
            <Placemark>
                <address>Block 7, Sam Shing Street, Sam Shing, Tuen Mun Town, Tuen Mun, Tuen Mun District, New Territories, Hong Kong, China</address>
                <Point>
                    <coordinates>113.9772057881,22.3820575361</coordinates>
                </Point>
                <ExtendedData>
                    <Data name="ISO3166-2-lvl3">
                        <value>CN-HK</value>
                    </Data>
                    <Data name="municipality">
                        <value>New Territories</value>
                    </Data>
                    <Data name="state">
                        <value>Hong Kong</value>
                    </Data>
                    <Data name="country_code">
                        <value>cn</value>
                    </Data>
                    <Data name="building">
                        <value>Block 7</value>
                    </Data>
                    <Data name="road">
                        <value>Sam Shing Street</value>
                    </Data>
                    <Data name="suburb">
                        <value>Tuen Mun Town</value>
                    </Data>
                    <Data name="town">
                        <value>Tuen Mun</value>
                    </Data>
                    <Data name="city">
                        <value>Tuen Mun District</value>
                    </Data>
                    <Data name="country">
                        <value>China</value>
                    </Data>
                    <Data name="neighbourhood">
                        <value>Sam Shing</value>
                    </Data>
                </ExtendedData>
            </Placemark>
        </Folder>
        <Document>
            <name>31.4 km; 00:41 h (OSRM)</name>
            <Placemark>
                <name>Route</name>
                <LineString>
                    <coordinates>113.9773230000,22.3819740000 113.9777140000,22.3821950000 113.9778560000,22.3822740000 113.9782210000,22.3824950000 113.9782940000,22.3825390000 113.9782690000,22.3826290000 113.9781820000,22.3828300000 113.9780600000,22.3832050000 113.9780240000,22.3832570000 113.9779940000,22.3832990000 113.9779410000,22.3833480000 113.9778810000,22.3833700000 113.9777870000,22.3834010000 113.9776270000,22.3833300000 113.9773860000,22.3832230000 113.9771330000,22.3831100000 113.9762740000,22.3827270000 113.9756680000,22.3824570000 113.9756210000,22.3824350000 113.9755250000,22.3823930000 113.9754550000,22.3823620000 113.9753980000,22.3823380000 113.9753470000,22.3823150000 113.9753260000,22.3823570000 113.9752760000,22.3824370000 113.9752180000,22.3825780000 113.9751420000,22.3827700000 113.9751060000,22.3828720000 113.9750890000,22.3829700000 113.9750850000,22.3830960000 113.9750950000,22.3832290000 113.9751220000,22.3835910000 113.9751390000,22.3836830000 113.9751390000,22.3838040000 113.9751980000,22.3851500000 113.9752120000,22.3853740000 113.9752470000,22.3865460000 113.9752510000,22.3866390000 113.9752460000,22.3872770000 113.9752460000,22.3873540000 113.9752480000,22.3874820000 113.9752500000,22.3877210000 113.9752500000,22.3877630000 113.9752510000,22.3879250000 113.9752520000,22.3881660000 113.9752530000,22.3884680000 113.9752540000,22.3886410000 113.9752340000,22.3891900000 113.9752120000,22.3897840000 113.9752090000,22.3898760000 113.9752050000,22.3899770000 113.9751590000,22.3910020000 113.9751860000,22.3920090000 113.9751920000,22.3923300000 113.9751880000,22.3925770000 113.9751640000,22.3929480000 113.9750660000,22.3933790000 113.9750120000,22.3935010000 113.9748740000,22.3938170000 113.9748680000,22.3938480000 113.9748570000,22.3939070000 113.9748130000,22.3940100000 113.9747970000,22.3940470000 113.9747510000,22.3941740000 113.9747030000,22.3943000000 113.9746670000,22.3944170000 113.9746480000,22.3944710000 113.9746370000,22.3945010000 113.9745810000,22.3946300000 113.9744990000,22.3949000000 113.9744810000,22.3949790000 113.9744460000,22.3951360000 113.9744200000,22.3952550000 113.9744140000,22.3954310000 113.9744530000,22.3956810000 113.9744560000,22.3957010000 113.9744880000,22.3958100000 113.9745070000,22.3958810000 113.9745350000,22.3959880000 113.9745420000,22.3960120000 113.9746620000,22.3964230000 113.9747560000,22.3967560000 113.9747710000,22.3968150000 113.9747890000,22.3968790000 113.9749910000,22.3976320000 113.9750080000,22.3976960000 113.9750540000,22.3978520000 113.9750750000,22.3979410000 113.9750830000,22.3979760000 113.9751170000,22.3980200000 113.9751450000,22.3981150000 113.9751980000,22.3983320000 113.9753430000,22.3989060000 113.9753750000,22.3990870000 113.9753890000,22.3992410000 113.9753950000,22.3994710000 113.9754110000,22.3995960000 113.9754520000,22.3997640000 113.9755890000,22.3999810000 113.9758720000,22.4003880000 113.9759820000,22.4005310000 113.9760260000,22.4005870000 113.9761120000,22.4006950000 113.9761600000,22.4007550000 113.9762420000,22.4008270000 113.9763060000,22.4008780000 113.9763850000,22.4009270000 113.9764610000,22.4009500000 113.9765360000,22.4009600000 113.9765940000,22.4009670000 113.9766460000,22.4009660000 113.9767120000,22.4009630000 113.9767960000,22.4009580000 113.9769190000,22.4009470000 113.9774910000,22.4008500000 113.9778820000,22.4007750000 113.9779350000,22.4007660000 113.9780020000,22.4007550000 113.9783100000,22.4013650000 113.9783500000,22.4014390000 113.9786970000,22.4020840000 113.9790750000,22.4028580000 113.9791140000,22.4029330000 113.9791150000,22.4029360000 113.9792800000,22.4032670000 113.9793180000,22.4033570000 113.9793500000,22.4034390000 113.9793830000,22.4035320000 113.9794110000,22.4036170000 113.9794290000,22.4036780000 113.9794410000,22.4037340000 113.9794560000,22.4038220000 113.9794630000,22.4038760000 113.9794660000,22.4039320000 113.9794630000,22.4040000000 113.9794550000,22.4040700000 113.9794390000,22.4041600000 113.9794220000,22.4042270000 113.9794000000,22.4042940000 113.9793650000,22.4043740000 113.9793250000,22.4044530000 113.9792810000,22.4045290000 113.9792340000,22.4046030000 113.9791730000,22.4046870000 113.9790430000,22.4048570000 113.9787890000,22.4052410000 113.9786740000,22.4054430000 113.9785770000,22.4056570000 113.9785420000,22.4057770000 113.9785220000,22.4059080000 113.9785180000,22.4061310000 113.9785280000,22.4063250000 113.9785510000,22.4064820000 113.9786860000,22.4072140000 113.9787370000,22.4074620000 113.9787600000,22.4075820000 113.9787640000,22.4076100000 113.9788300000,22.4078330000 113.9788470000,22.4078880000 113.9788760000,22.4079480000 113.9789090000,22.4080310000 113.9789380000,22.4080880000 113.9790150000,22.4081940000 113.9790620000,22.4082440000 113.9790900000,22.4082720000 113.9791990000,22.4083650000 113.9792480000,22.4084050000 113.9792820000,22.4084340000 113.9793520000,22.4084750000 113.9793990000,22.4085030000 113.9796100000,22.4086070000 113.9796350000,22.4086170000 113.9796680000,22.4086280000 113.9797740000,22.4086530000 113.9798810000,22.4086800000 113.9800050000,22.4086990000 113.9801150000,22.4087170000 113.9802110000,22.4087190000 113.9803900000,22.4087230000 113.9806780000,22.4087300000 113.9807070000,22.4087310000 113.9808670000,22.4087400000 113.9810040000,22.4087550000 113.9811260000,22.4087770000 113.9812730000,22.4088220000 113.9814150000,22.4088730000 113.9815620000,22.4089480000 113.9816910000,22.4090320000 113.9818620000,22.4091850000 113.9819990000,22.4093470000 113.9820910000,22.4094800000 113.9821470000,22.4096040000 113.9822010000,22.4097230000 113.9822300000,22.4098290000 113.9822500000,22.4099350000 113.9822730000,22.4101510000 113.9822800000,22.4103970000 113.9822810000,22.4106250000 113.9822840000,22.4110160000 113.9822850000,22.4110280000 113.9822840000,22.4117210000 113.9822800000,22.4119080000 113.9822800000,22.4129600000 113.9822860000,22.4133440000 113.9822940000,22.4134320000 113.9823220000,22.4137360000 113.9823480000,22.4139900000 113.9823900000,22.4143920000 113.9823960000,22.4144450000 113.9824020000,22.4145420000 113.9823990000,22.4146050000 113.9823710000,22.4148610000 113.9823290000,22.4150070000 113.9822800000,22.4151120000 113.9822270000,22.4152010000 113.9821550000,22.4152940000 113.9821100000,22.4153440000 113.9819870000,22.4154480000 113.9817710000,22.4156780000 113.9816560000,22.4158000000 113.9816030000,22.4158580000 113.9814840000,22.4159680000 113.9814400000,22.4160210000 113.9814200000,22.4160490000 113.9813770000,22.4161090000 113.9813410000,22.4161910000 113.9813210000,22.4162680000 113.9813040000,22.4163380000 113.9812990000,22.4164110000 113.9812990000,22.4164890000 113.9813030000,22.4166680000 113.9813310000,22.4167150000 113.9817070000,22.4174190000 113.9817890000,22.4175730000 113.9818980000,22.4177700000 113.9821380000,22.4182070000 113.9822570000,22.4184220000 113.9822880000,22.4184750000 113.9823680000,22.4186270000 113.9826190000,22.4191010000 113.9827170000,22.4192810000 113.9827500000,22.4193370000 113.9829060000,22.4196030000 113.9829480000,22.4196680000 113.9831160000,22.4199070000 113.9833130000,22.4201480000 113.9834170000,22.4202680000 113.9835000000,22.4203780000 113.9835960000,22.4204830000 113.9837760000,22.4206810000 113.9840050000,22.4209230000 113.9840770000,22.4209890000 113.9841410000,22.4210540000 113.9841990000,22.4211080000 113.9842360000,22.4211480000 113.9842750000,22.4212040000 113.9844100000,22.4213380000 113.9845750000,22.4215040000 113.9847020000,22.4216310000 113.9847510000,22.4216890000 113.9847630000,22.4217010000 113.9848460000,22.4217930000 113.9848730000,22.4218230000 113.9850750000,22.4220450000 113.9851630000,22.4221420000 113.9854630000,22.4224590000 113.9856010000,22.4226110000 113.9865740000,22.4236520000 113.9870070000,22.4241050000 113.9872560000,22.4243650000 113.9872780000,22.4243880000 113.9873350000,22.4244270000 113.9873660000,22.4244600000 113.9873790000,22.4244960000 113.9874130000,22.4245330000 113.9876860000,22.4248210000 113.9878370000,22.4249610000 113.9886720000,22.4258590000 113.9887220000,22.4259120000 113.9888610000,22.4260620000 113.9890960000,22.4263130000 113.9891110000,22.4263530000 113.9891540000,22.4263860000 113.9891870000,22.4264250000 113.9892180000,22.4264730000 113.9892970000,22.4265550000 113.9895090000,22.4267660000 113.9896870000,22.4269510000 113.9898780000,22.4271560000 113.9899140000,22.4271940000 113.9900010000,22.4272920000 113.9900380000,22.4273290000 113.9900830000,22.4273790000 113.9901830000,22.4274890000 113.9902430000,22.4275590000 113.9903680000,22.4276640000 113.9904030000,22.4277000000 113.9904580000,22.4277760000 113.9906450000,22.4279810000 113.9909700000,22.4283250000 113.9911290000,22.4284900000 113.9912660000,22.4286330000 113.9913280000,22.4286980000 113.9913590000,22.4287300000 113.9913800000,22.4287570000 113.9914930000,22.4288380000 113.9915100000,22.4288550000 113.9915340000,22.4288770000 113.9915700000,22.4289370000 113.9916600000,22.4290220000 113.9918020000,22.4291590000 113.9918840000,22.4292410000 113.9922720000,22.4295580000 113.9924920000,22.4297380000 113.9925920000,22.4298100000 113.9931310000,22.4302460000 113.9932410000,22.4303450000 113.9949260000,22.4317030000 113.9951820000,22.4318890000 113.9954720000,22.4321020000 113.9955810000,22.4321810000 113.9962050000,22.4326080000 113.9962540000,22.4326440000 113.9963160000,22.4326880000 113.9962530000,22.4327700000 113.9962210000,22.4328100000 113.9962070000,22.4328300000 113.9961930000,22.4328450000 113.9961580000,22.4328910000 113.9960430000,22.4330260000 113.9958550000,22.4333340000 113.9958430000,22.4334700000 113.9956910000,22.4339310000 113.9956280000,22.4341240000 113.9955670000,22.4343430000 113.9955170000,22.4344590000 113.9954360000,22.4345990000 113.9953250000,22.4347820000 113.9953110000,22.4348120000 113.9952880000,22.4348750000 113.9954160000,22.4349140000 113.9957670000,22.4350040000 113.9958320000,22.4350250000 113.9965110000,22.4352510000 113.9967960000,22.4353620000 113.9970260000,22.4354600000 113.9973500000,22.4356420000 113.9973650000,22.4356500000 113.9975070000,22.4357480000 113.9977090000,22.4358810000 113.9977260000,22.4358920000 113.9982570000,22.4362260000 113.9983170000,22.4362650000 113.9983740000,22.4363010000 113.9986090000,22.4364520000 113.9986460000,22.4364760000 113.9988330000,22.4365970000 113.9989740000,22.4366900000 113.9992160000,22.4368400000 113.9993240000,22.4369080000 113.9993440000,22.4369250000 113.9991080000,22.4373400000 113.9990440000,22.4374840000 113.9990160000,22.4375460000 113.9987880000,22.4379760000 113.9985740000,22.4384540000 113.9985400000,22.4386040000 113.9985230000,22.4386960000 113.9984420000,22.4389980000 113.9983940000,22.4391700000 113.9983860000,22.4392080000 113.9983700000,22.4392830000 113.9983510000,22.4393740000 113.9983240000,22.4395210000 113.9983450000,22.4396100000 113.9983480000,22.4396670000 113.9983790000,22.4398790000 113.9984050000,22.4400900000 113.9984270000,22.4403060000 113.9984420000,22.4403980000 113.9984700000,22.4405350000 113.9985690000,22.4411730000 113.9986390000,22.4414170000 113.9986620000,22.4414970000 113.9987040000,22.4416070000 113.9987430000,22.4417550000 113.9987720000,22.4418680000 113.9990670000,22.4430000000 113.9991630000,22.4435320000 113.9991960000,22.4437140000 113.9992570000,22.4442410000 113.9992640000,22.4444450000 113.9992490000,22.4446680000 113.9992430000,22.4447610000 113.9993640000,22.4460480000 113.9993900000,22.4463210000 113.9994200000,22.4463990000 113.9994570000,22.4464850000 113.9994770000,22.4465170000 113.9994870000,22.4465300000 113.9995680000,22.4465980000 113.9996570000,22.4466780000 113.9997020000,22.4466680000 113.9997600000,22.4466550000 113.9998010000,22.4466450000 113.9998360000,22.4466340000 113.9998820000,22.4466210000 113.9999490000,22.4466020000 114.0000580000,22.4465650000 114.0001180000,22.4465470000 114.0001660000,22.4465350000 114.0002450000,22.4465110000 114.0003200000,22.4464950000 114.0006070000,22.4464270000 114.0008020000,22.4464040000 114.0012090000,22.4463810000 114.0014430000,22.4463850000 114.0016620000,22.4464050000 114.0019560000,22.4464470000 114.0022660000,22.4465320000 114.0024860000,22.4466230000 114.0026360000,22.4467100000 114.0027130000,22.4467660000 114.0028710000,22.4468760000 114.0029610000,22.4469480000 114.0031060000,22.4470830000 114.0031360000,22.4471160000 114.0033040000,22.4473170000 114.0034100000,22.4474500000 114.0035570000,22.4476560000 114.0036220000,22.4477550000 114.0036520000,22.4478350000 114.0036610000,22.4478910000 114.0036620000,22.4479000000 114.0036610000,22.4481130000 114.0035780000,22.4483420000 114.0034820000,22.4485530000 114.0032460000,22.4490160000 114.0030090000,22.4494360000 114.0029530000,22.4495350000 114.0027720000,22.4498550000 114.0025810000,22.4501820000 114.0025470000,22.4502390000 114.0023900000,22.4505080000 114.0023440000,22.4505840000 114.0022590000,22.4507410000 114.0021940000,22.4508420000 114.0019210000,22.4513410000 114.0016480000,22.4518660000 114.0015560000,22.4520500000 114.0015200000,22.4521210000 114.0016310000,22.4521750000 114.0017050000,22.4522120000 114.0017360000,22.4522280000 114.0018170000,22.4522690000 114.0022230000,22.4524760000 114.0023160000,22.4525230000 114.0024240000,22.4525780000 114.0026790000,22.4527050000 114.0027580000,22.4527440000 114.0028160000,22.4527710000 114.0029620000,22.4528420000 114.0033730000,22.4530420000 114.0036220000,22.4531650000 114.0037050000,22.4532490000 114.0037370000,22.4533230000 114.0037430000,22.4533880000 114.0037440000,22.4534540000 114.0036590000,22.4536270000 114.0035270000,22.4538470000 114.0034670000,22.4539410000 114.0033690000,22.4540910000 114.0031080000,22.4543490000 114.0030760000,22.4543810000 114.0030070000,22.4544370000 114.0028990000,22.4545260000 114.0027570000,22.4546050000 114.0022510000,22.4547830000 114.0021410000,22.4548180000 114.0015160000,22.4550100000 114.0013700000,22.4550550000 114.0010960000,22.4551430000 114.0008090000,22.4552270000 114.0004510000,22.4553320000 114.0002390000,22.4554110000 114.0001080000,22.4554630000 113.9999590000,22.4555550000 113.9999200000,22.4555880000 113.9998170000,22.4556480000 113.9997790000,22.4556710000 113.9997120000,22.4557690000 113.9995080000,22.4560830000 113.9993260000,22.4563910000 113.9991850000,22.4566370000 113.9990900000,22.4568020000 113.9990050000,22.4569500000 113.9987720000,22.4573710000 113.9986890000,22.4575040000 113.9986030000,22.4576400000 113.9985190000,22.4577640000 113.9983060000,22.4581550000 113.9981300000,22.4584460000 113.9981100000,22.4584780000 113.9979920000,22.4586750000 113.9979620000,22.4587270000 113.9979410000,22.4587640000 113.9979180000,22.4588030000 113.9978870000,22.4588580000 113.9978380000,22.4589470000 113.9977210000,22.4591590000 113.9975740000,22.4594150000 113.9974030000,22.4597090000 113.9973180000,22.4598600000 113.9972370000,22.4600030000 113.9971630000,22.4601390000 113.9971010000,22.4602620000 113.9970690000,22.4603340000 113.9970400000,22.4604160000 113.9970080000,22.4605240000 113.9969760000,22.4606450000 113.9969580000,22.4607490000 113.9969460000,22.4608750000 113.9969440000,22.4614160000 113.9969470000,22.4614770000 113.9969450000,22.4615390000 113.9969370000,22.4615990000 113.9969200000,22.4616700000 113.9968960000,22.4617390000 113.9968530000,22.4617580000 113.9968150000,22.4617830000 113.9967720000,22.4618290000 113.9967450000,22.4618840000 113.9967340000,22.4619440000 113.9967410000,22.4620040000 113.9967650000,22.4620600000 113.9967930000,22.4620970000 113.9968280000,22.4621280000 113.9968720000,22.4622280000 113.9969050000,22.4623310000 113.9969260000,22.4624370000 113.9970640000,22.4630710000 113.9970930000,22.4632310000 113.9971420000,22.4635060000 113.9972530000,22.4640140000 113.9973320000,22.4643060000 113.9973950000,22.4645130000 113.9974520000,22.4646950000 113.9974960000,22.4648400000 113.9976270000,22.4652000000 113.9976980000,22.4653950000 113.9977990000,22.4656380000 113.9980200000,22.4661130000 113.9980420000,22.4661570000 113.9980570000,22.4661860000 113.9981350000,22.4663450000 113.9983910000,22.4667920000 113.9984820000,22.4669500000 113.9984850000,22.4669550000 113.9992730000,22.4681630000 113.9993240000,22.4682390000 113.9997160000,22.4688590000 113.9997900000,22.4689700000 113.9998250000,22.4690170000 114.0001160000,22.4693920000 114.0006440000,22.4699580000 114.0007670000,22.4700780000 114.0009060000,22.4702020000 114.0009270000,22.4702210000 114.0009950000,22.4702770000 114.0011030000,22.4703670000 114.0011170000,22.4703770000 114.0012360000,22.4704710000 114.0016390000,22.4707550000 114.0020400000,22.4710270000 114.0021230000,22.4710830000 114.0022210000,22.4711440000 114.0022560000,22.4710830000 114.0023110000,22.4709630000 114.0023620000,22.4708430000 114.0024120000,22.4707220000 114.0024590000,22.4706000000 114.0025030000,22.4704770000 114.0025450000,22.4703530000 114.0026200000,22.4701210000 114.0027230000,22.4697860000 114.0030270000,22.4687990000 114.0030790000,22.4686440000 114.0031390000,22.4684910000 114.0032050000,22.4683400000 114.0032900000,22.4681700000 114.0033570000,22.4680470000 114.0034260000,22.4679270000 114.0034300000,22.4679220000 114.0035330000,22.4677680000 114.0036300000,22.4676350000 114.0037330000,22.4675070000 114.0038430000,22.4673820000 114.0039580000,22.4672630000 114.0040980000,22.4671300000 114.0042450000,22.4670040000 114.0043990000,22.4668850000 114.0044100000,22.4668770000 114.0045600000,22.4667730000 114.0047260000,22.4666700000 114.0049750000,22.4665310000 114.0050510000,22.4664910000 114.0051880000,22.4664190000 114.0052900000,22.4663640000 114.0053680000,22.4663220000 114.0053130000,22.4662270000 114.0052220000,22.4660760000 114.0049830000,22.4656960000 114.0049400000,22.4656260000 114.0048310000,22.4654510000 114.0047390000,22.4653050000 114.0046530000,22.4651560000 114.0045730000,22.4650050000 114.0044990000,22.4648510000 114.0044120000,22.4646500000 114.0043340000,22.4644460000 114.0042540000,22.4642010000 114.0042500000,22.4641860000 114.0042150000,22.4640180000 114.0041980000,22.4639370000 114.0041870000,22.4638830000 114.0041400000,22.4636620000 114.0041030000,22.4634880000 114.0040800000,22.4633390000 114.0040700000,22.4632710000 114.0040600000,22.4631820000 114.0040460000,22.4630540000 114.0040320000,22.4628350000 114.0040310000,22.4628090000 114.0040270000,22.4626160000 114.0040290000,22.4623460000 114.0040440000,22.4621930000 114.0040520000,22.4621030000 114.0039450000,22.4621010000 114.0038240000,22.4620990000 114.0024350000,22.4620730000 114.0023040000,22.4620710000 114.0021820000,22.4620650000 114.0020360000,22.4620510000 114.0018470000,22.4620230000 114.0018570000,22.4618510000 114.0018610000,22.4617760000 114.0018740000,22.4617030000 114.0018960000,22.4616310000 114.0019260000,22.4615620000 114.0019650000,22.4614960000 114.0021680000,22.4611370000 114.0022740000,22.4609260000 114.0023510000,22.4607670000 114.0023690000,22.4607330000 114.0023910000,22.4606610000 114.0024020000,22.4606310000 114.0025130000,22.4604160000 114.0028380000,22.4597850000 114.0029490000,22.4596110000 114.0030670000,22.4594580000 114.0030850000,22.4594240000 114.0030900000,22.4593110000 114.0030930000,22.4592860000 114.0030970000,22.4592520000 114.0030970000,22.4592350000 114.0030910000,22.4591670000 114.0030740000,22.4591090000 114.0030640000,22.4590830000 114.0030510000,22.4590580000 114.0030310000,22.4590180000 114.0030020000,22.4589720000 114.0029400000,22.4588740000 114.0028610000,22.4588210000 114.0027310000,22.4586260000 114.0026110000,22.4584900000 114.0022140000,22.4580450000 114.0021430000,22.4579760000 114.0020510000,22.4579400000 114.0020460000,22.4579400000 114.0020080000,22.4579430000 114.0019580000,22.4579570000 114.0019050000,22.4579840000 114.0018230000,22.4580470000 114.0018170000,22.4580510000 114.0017380000,22.4581120000 114.0014850000,22.4583040000 114.0014420000,22.4583920000 114.0014390000,22.4584590000 114.0014560000,22.4585070000 114.0014870000,22.4585660000 114.0015670000,22.4586630000 114.0016950000,22.4588160000 114.0019760000,22.4591520000 114.0020040000,22.4592270000 114.0020130000,22.4593510000 114.0017980000,22.4597240000 114.0017570000,22.4597960000 114.0015010000,22.4602360000 114.0014320000,22.4603560000 114.0013770000,22.4604600000 114.0015460000,22.4605330000 114.0019920000,22.4607310000 114.0020110000,22.4607510000 114.0020310000,22.4607700000 114.0020540000,22.4608010000 114.0020620000,22.4608160000 114.0020830000,22.4608640000 114.0020970000,22.4609130000 114.0021020000,22.4609570000 114.0020990000,22.4610000000 114.0020900000,22.4610430000 114.0020500000,22.4611180000 114.0018670000,22.4614490000 114.0018340000,22.4615100000 114.0018070000,22.4615750000 114.0017860000,22.4616410000 114.0017710000,22.4617080000 114.0017620000,22.4617760000 114.0017590000,22.4618450000 114.0017470000,22.4620070000 114.0017410000,22.4620970000 114.0017410000,22.4620970000 114.0018430000,22.4621140000 114.0020270000,22.4621400000 114.0021720000,22.4621540000 114.0023030000,22.4621610000 114.0024330000,22.4621630000 114.0029370000,22.4621720000 114.0037660000,22.4621880000 114.0039390000,22.4621910000 114.0039330000,22.4623020000 114.0039300000,22.4626170000 114.0039340000,22.4628330000 114.0039380000,22.4628860000 114.0039490000,22.4630610000 114.0039560000,22.4631280000 114.0039670000,22.4632290000 114.0039730000,22.4632820000 114.0039900000,22.4633890000 114.0040070000,22.4635030000 114.0040250000,22.4635900000 114.0040810000,22.4638490000 114.0041060000,22.4639690000 114.0041230000,22.4640490000 114.0041450000,22.4641550000 114.0041610000,22.4642270000 114.0041830000,22.4642960000 114.0042420000,22.4644740000 114.0043210000,22.4646820000 114.0043890000,22.4648390000 114.0044090000,22.4648860000 114.0044850000,22.4650430000 114.0045670000,22.4651970000 114.0046540000,22.4653480000 114.0047460000,22.4654960000 114.0047830000,22.4655540000 114.0048620000,22.4656810000 114.0051370000,22.4661210000 114.0052310000,22.4662710000 114.0048370000,22.4664810000 114.0046630000,22.4665790000 114.0044920000,22.4666860000 114.0043270000,22.4668000000 114.0041680000,22.4669230000 114.0040160000,22.4670530000 114.0038720000,22.4671890000 114.0037540000,22.4673130000 114.0036410000,22.4674410000 114.0035350000,22.4675730000 114.0034350000,22.4677100000 114.0033420000,22.4678500000 114.0032540000,22.4679960000 114.0031720000,22.4681450000 114.0030970000,22.4682970000 114.0030300000,22.4684520000 114.0029690000,22.4686100000 114.0029260000,22.4687350000 114.0029150000,22.4687690000 114.0027830000,22.4691980000 114.0025080000,22.4700910000 114.0024440000,22.4702930000 114.0022700000,22.4704450000 114.0022080000,22.4704880000 114.0021410000,22.4705250000 114.0020700000,22.4705540000 114.0019960000,22.4705760000 114.0019720000,22.4705800000 114.0019190000,22.4705900000 114.0018410000,22.4705960000 114.0017630000,22.4705940000 114.0015000000,22.4705590000 114.0012940000,22.4704140000 114.0009720000,22.4701380000 114.0008350000,22.4700190000 114.0007150000,22.4698990000 114.0004670000,22.4696220000 114.0002110000,22.4693300000 113.9999280000,22.4689560000 113.9998960000,22.4689090000 113.9998480000,22.4688350000 113.9994720000,22.4682570000 113.9994070000,22.4681590000 113.9985050000,22.4667690000 113.9983030000,22.4664250000 113.9981910000,22.4662350000 113.9981610000,22.4661840000 113.9981490000,22.4661540000 113.9981420000,22.4661270000 113.9981370000,22.4661000000 113.9981350000,22.4660730000 113.9981310000,22.4660390000 113.9981240000,22.4660070000 113.9981120000,22.4659750000 113.9980560000,22.4658470000 113.9978630000,22.4654910000 113.9977050000,22.4651470000 113.9975850000,22.4648150000 113.9975410000,22.4646720000 113.9974840000,22.4644890000 113.9974700000,22.4644440000 113.9974450000,22.4643610000 113.9973430000,22.4639960000 113.9972330000,22.4634910000 113.9971840000,22.4632170000 113.9971650000,22.4631100000 113.9970420000,22.4624200000 113.9970390000,22.4623660000 113.9970410000,22.4623120000 113.9970480000,22.4622590000 113.9970590000,22.4622060000 113.9970760000,22.4621550000 113.9971290000,22.4621240000 113.9971720000,22.4620830000 113.9972060000,22.4620230000 113.9972180000,22.4619560000 113.9972090000,22.4618890000 113.9971790000,22.4618280000 113.9971510000,22.4617960000 113.9971180000,22.4617690000 113.9970970000,22.4617310000 113.9970810000,22.4616660000 113.9970690000,22.4615390000 113.9970760000,22.4610610000 113.9970830000,22.4608170000 113.9971120000,22.4606090000 113.9971310000,22.4605560000 113.9971710000,22.4604350000 113.9972010000,22.4603690000 113.9973100000,22.4601580000 113.9974680000,22.4599320000 113.9975440000,22.4597790000 113.9977800000,22.4593560000 113.9980070000,22.4589540000 113.9980210000,22.4589290000 113.9980300000,22.4589120000 113.9980480000,22.4588780000 113.9980750000,22.4588270000 113.9981260000,22.4587350000 113.9982320000,22.4585360000 113.9986130000,22.4578440000 113.9986700000,22.4577470000 113.9987030000,22.4576930000 113.9987590000,22.4575990000 113.9988030000,22.4575250000 113.9990480000,22.4570860000 113.9994390000,22.4563960000 113.9994900000,22.4563060000 113.9995150000,22.4562640000 113.9995340000,22.4562290000 113.9997650000,22.4558650000 113.9997950000,22.4558140000 113.9998560000,22.4557170000 113.9998640000,22.4556930000 113.9999200000,22.4555880000 113.9999590000,22.4555550000 114.0001080000,22.4554630000 114.0002390000,22.4554110000 114.0004510000,22.4553320000 114.0008090000,22.4552270000 114.0010960000,22.4551430000 114.0013700000,22.4550550000 114.0015160000,22.4550100000 114.0021410000,22.4548180000 114.0022510000,22.4547830000 114.0027570000,22.4546050000 114.0028990000,22.4545260000 114.0030070000,22.4544370000 114.0030760000,22.4543810000 114.0031080000,22.4543490000 114.0033690000,22.4540910000 114.0034270000,22.4540020000 114.0034670000,22.4539410000 114.0035270000,22.4538470000 114.0036590000,22.4536270000 114.0037440000,22.4534540000 114.0038190000,22.4533280000 114.0038490000,22.4532750000 114.0038970000,22.4531910000 114.0028630000,22.4526890000 114.0028020000,22.4526600000 114.0024090000,22.4524680000 114.0022790000,22.4524030000 114.0021530000,22.4523410000 114.0018590000,22.4521940000 114.0017770000,22.4521540000 114.0017450000,22.4521390000 114.0016680000,22.4521020000 114.0017560000,22.4519170000 114.0019990000,22.4514520000 114.0022920000,22.4509320000 114.0023240000,22.4508750000 114.0023770000,22.4507910000 114.0024830000,22.4505910000 114.0028620000,22.4498950000 114.0029140000,22.4498030000 114.0029870000,22.4496740000 114.0030450000,22.4495710000 114.0031880000,22.4493170000 114.0034830000,22.4488090000 114.0035860000,22.4485970000 114.0038300000,22.4480960000 114.0039250000,22.4478930000 114.0039900000,22.4477810000 114.0038700000,22.4476740000 114.0038010000,22.4476090000 114.0034100000,22.4472400000 114.0032040000,22.4470710000 114.0031000000,22.4469670000 114.0030540000,22.4469200000 114.0029790000,22.4468530000 114.0028470000,22.4467450000 114.0027040000,22.4466590000 114.0025680000,22.4465790000 114.0023720000,22.4464880000 114.0021930000,22.4464170000 114.0019460000,22.4463470000 114.0016220000,22.4462970000 114.0014220000,22.4462900000 114.0012180000,22.4462900000 114.0007810000,22.4462960000 114.0005950000,22.4463170000 114.0005830000,22.4463180000 114.0004660000,22.4463310000 114.0003100000,22.4463490000 114.0002220000,22.4463650000 114.0001450000,22.4463860000 114.0000970000,22.4463770000 113.9999980000,22.4463590000 113.9998860000,22.4463510000 113.9998380000,22.4463340000 113.9998010000,22.4463170000 113.9997150000,22.4462780000 113.9997000000,22.4461510000 113.9995560000,22.4450940000 113.9995160000,22.4446490000 113.9994780000,22.4444380000 113.9994370000,22.4442100000 113.9993430000,22.4436880000 113.9992960000,22.4435070000 113.9989330000,22.4418410000 113.9989340000,22.4417380000 113.9989350000,22.4415780000 113.9989360000,22.4414830000 113.9989340000,22.4413920000 113.9989170000,22.4407930000 113.9989100000,22.4405140000 113.9989280000,22.4402880000 113.9989310000,22.4402530000 113.9989670000,22.4399820000 113.9990280000,22.4396710000 113.9990510000,22.4395360000 113.9990630000,22.4394620000 113.9990770000,22.4393680000 113.9989110000,22.4393480000 113.9985670000,22.4393050000 113.9983700000,22.4392830000 113.9981560000,22.4392680000 113.9980700000,22.4392590000 113.9979940000,22.4392490000 113.9979270000,22.4392680000 113.9977800000,22.4392400000 113.9976030000,22.4392130000 113.9970330000,22.4391070000 113.9964210000,22.4390080000 113.9962760000,22.4390000000 113.9962760000,22.4389380000 113.9962770000,22.4388330000 113.9962800000,22.4386060000 113.9962910000,22.4384270000 113.9963110000,22.4382490000 113.9963340000,22.4380960000 113.9963380000,22.4380710000 113.9963730000,22.4378950000 113.9964100000,22.4377400000 113.9964540000,22.4375980000 113.9964740000,22.4375360000 113.9965190000,22.4374120000 113.9965750000,22.4372640000 113.9966370000,22.4371150000 113.9967040000,22.4369670000 113.9967760000,22.4368210000 113.9968530000,22.4366770000 113.9969340000,22.4365350000 113.9970200000,22.4363960000 113.9970520000,22.4363480000 113.9971100000,22.4362590000 113.9972050000,22.4361250000 113.9973040000,22.4359930000 113.9973770000,22.4359050000 113.9973920000,22.4358870000 113.9974070000,22.4358690000 113.9975070000,22.4357480000 113.9977090000,22.4358810000 113.9977260000,22.4358920000 113.9982570000,22.4362260000 113.9983170000,22.4362650000 113.9983740000,22.4363010000 113.9986050000,22.4364490000 113.9986460000,22.4364760000 113.9988330000,22.4365970000 113.9989740000,22.4366900000 113.9992160000,22.4368400000 113.9993240000,22.4369080000 113.9993440000,22.4369250000 113.9991080000,22.4373400000 113.9990440000,22.4374840000 113.9990160000,22.4375460000 113.9987880000,22.4379760000 113.9985740000,22.4384540000 113.9985400000,22.4386040000 113.9985230000,22.4386960000 113.9984420000,22.4389980000 113.9983940000,22.4391700000 113.9983860000,22.4392080000 113.9983700000,22.4392830000 113.9983510000,22.4393740000 113.9985720000,22.4394040000 113.9989170000,22.4394450000 113.9990630000,22.4394620000 113.9990770000,22.4393680000 113.9990890000,22.4392860000 113.9991120000,22.4390510000 113.9991290000,22.4388710000 113.9991450000,22.4387980000 113.9991690000,22.4386910000 113.9992690000,22.4381350000 113.9993820000,22.4377560000 113.9995100000,22.4374040000 113.9997120000,22.4370380000 113.9998520000,22.4368030000 113.9999770000,22.4366200000 114.0001880000,22.4363040000 114.0004790000,22.4359490000 114.0004910000,22.4359340000 114.0005050000,22.4359190000 114.0005390000,22.4358820000 114.0005650000,22.4358540000 114.0006230000,22.4357900000 114.0006780000,22.4357310000 114.0007290000,22.4356690000 114.0004980000,22.4355400000 114.0004490000,22.4355090000 114.0003760000,22.4354630000 114.0003030000,22.4354110000 114.0002490000,22.4353720000 114.0001780000,22.4353200000 113.9999680000,22.4351660000 113.9999050000,22.4351240000 113.9996930000,22.4349810000 113.9996040000,22.4349230000 113.9984450000,22.4340570000 113.9983700000,22.4340040000 113.9983090000,22.4339610000 113.9981710000,22.4338630000 113.9978890000,22.4336660000 113.9969960000,22.4330310000 113.9968710000,22.4329370000 113.9965890000,22.4327450000 113.9964780000,22.4326700000 113.9964510000,22.4326520000 113.9958070000,22.4322080000 113.9951540000,22.4317280000 113.9949680000,22.4315820000 113.9948520000,22.4314930000 113.9947670000,22.4314230000 113.9946360000,22.4313130000 113.9944770000,22.4311850000 113.9942810000,22.4310270000 113.9940260000,22.4308210000 113.9938170000,22.4306520000 113.9933750000,22.4302870000 113.9933570000,22.4302730000 113.9933200000,22.4302440000 113.9930270000,22.4299970000 113.9927330000,22.4297690000 113.9926060000,22.4296610000 113.9922690000,22.4293870000 113.9918980000,22.4290950000 113.9915770000,22.4288170000 113.9914030000,22.4286520000 113.9904480000,22.4276230000 113.9902750000,22.4274380000 113.9901090000,22.4272630000 113.9900800000,22.4272320000 113.9899880000,22.4271340000 113.9899550000,22.4270990000 113.9897590000,22.4268910000 113.9894090000,22.4264960000 113.9893360000,22.4264140000 113.9892700000,22.4263390000 113.9892150000,22.4262830000 113.9891910000,22.4262580000 113.9884400000,22.4254940000 113.9879010000,22.4249210000 113.9873260000,22.4242960000 113.9870910000,22.4240380000 113.9858000000,22.4226400000 113.9856130000,22.4224390000 113.9853210000,22.4221580000 113.9849580000,22.4217740000 113.9849230000,22.4217360000 113.9848440000,22.4216430000 113.9847810000,22.4215680000 113.9846690000,22.4214530000 113.9845070000,22.4212850000 113.9841520000,22.4209180000 113.9835380000,22.4202500000 113.9834750000,22.4201690000 113.9834060000,22.4200910000 113.9832070000,22.4198720000 113.9830090000,22.4195990000 113.9828300000,22.4193000000 113.9828110000,22.4192670000 113.9827720000,22.4191930000 113.9825550000,22.4187800000 113.9824600000,22.4186090000 113.9822990000,22.4183020000 113.9820870000,22.4179240000 113.9818740000,22.4175200000 113.9818020000,22.4173830000 113.9817350000,22.4171470000 113.9816920000,22.4170600000 113.9816640000,22.4169980000 113.9816250000,22.4168670000 113.9816020000,22.4166830000 113.9816000000,22.4165360000 113.9816070000,22.4164060000 113.9816360000,22.4162850000 113.9817210000,22.4161140000 113.9817380000,22.4160790000 113.9817950000,22.4159850000 113.9818900000,22.4158670000 113.9819570000,22.4158020000 113.9823410000,22.4152420000 113.9823820000,22.4151780000 113.9824090000,22.4151170000 113.9824480000,22.4149600000 113.9824760000,22.4146950000 113.9824850000,22.4145500000 113.9824810000,22.4144420000 113.9824730000,22.4143260000 113.9824480000,22.4140320000 113.9824280000,22.4137950000 113.9824150000,22.4136450000 113.9824010000,22.4134280000 113.9823960000,22.4133470000 113.9823860000,22.4130400000 113.9823890000,22.4126660000 113.9823880000,22.4125560000 113.9823900000,22.4124500000 113.9823870000,22.4119100000 113.9823820000,22.4112330000 113.9823740000,22.4110250000 113.9823740000,22.4110160000 113.9823560000,22.4103110000 113.9823490000,22.4101810000 113.9823410000,22.4100870000 113.9823290000,22.4099920000 113.9823050000,22.4098500000 113.9822750000,22.4097250000 113.9822500000,22.4096480000 113.9822190000,22.4095700000 113.9821820000,22.4094940000 113.9821380000,22.4094140000 113.9820890000,22.4093390000 113.9820350000,22.4092660000 113.9819730000,22.4091870000 113.9819110000,22.4091190000 113.9818610000,22.4090720000 113.9818080000,22.4090250000 113.9817490000,22.4089770000 113.9816890000,22.4089310000 113.9816150000,22.4088850000 113.9815220000,22.4088300000 113.9814360000,22.4087870000 113.9813520000,22.4087520000 113.9812560000,22.4087180000 113.9811760000,22.4086950000 113.9810940000,22.4086760000 113.9808780000,22.4086470000 113.9807230000,22.4086420000 113.9806820000,22.4086410000 113.9803390000,22.4086350000 113.9802250000,22.4086310000 113.9801300000,22.4086270000 113.9800280000,22.4086030000 113.9799220000,22.4085760000 113.9797960000,22.4085560000 113.9797060000,22.4085260000 113.9796670000,22.4085110000 113.9796350000,22.4084980000 113.9795390000,22.4084540000 113.9795110000,22.4084300000 113.9794540000,22.4083820000 113.9794210000,22.4083610000 113.9793740000,22.4083320000 113.9793420000,22.4083120000 113.9792850000,22.4082670000 113.9791870000,22.4081900000 113.9791560000,22.4081540000 113.9791280000,22.4081190000 113.9790520000,22.4080280000 113.9790140000,22.4079620000 113.9789760000,22.4078990000 113.9789550000,22.4078580000 113.9789250000,22.4078010000 113.9788650000,22.4075970000 113.9788310000,22.4074470000 113.9787240000,22.4069420000 113.9786200000,22.4064380000 113.9785990000,22.4062850000 113.9785870000,22.4061400000 113.9785910000,22.4060150000 113.9786010000,22.4058920000 113.9786380000,22.4057490000 113.9786610000,22.4056840000 113.9786930000,22.4056010000 113.9787230000,22.4055330000 113.9787640000,22.4054550000 113.9788040000,22.4053860000 113.9788480000,22.4053170000 113.9789040000,22.4052320000 113.9789690000,22.4051400000 113.9791340000,22.4049170000 113.9792840000,22.4047160000 113.9793890000,22.4045550000 113.9794360000,22.4044700000 113.9794780000,22.4043800000 113.9795080000,22.4043040000 113.9795310000,22.4042270000 113.9795520000,22.4041360000 113.9795630000,22.4040510000 113.9795680000,22.4039530000 113.9795600000,22.4038270000 113.9795340000,22.4036680000 113.9794890000,22.4035030000 113.9794370000,22.4033610000 113.9793870000,22.4032350000 113.9792470000,22.4029170000 113.9791940000,22.4028050000 113.9787970000,22.4020560000 113.9784100000,22.4013330000 113.9781880000,22.4008800000 113.9781160000,22.4007350000 113.9780020000,22.4007550000 113.9779350000,22.4007660000 113.9778820000,22.4007750000 113.9774910000,22.4008500000 113.9769190000,22.4009470000 113.9767960000,22.4009580000 113.9767120000,22.4009630000 113.9766460000,22.4009660000 113.9765940000,22.4009670000 113.9765360000,22.4009600000 113.9764610000,22.4009500000 113.9763850000,22.4009270000 113.9763060000,22.4008780000 113.9762420000,22.4008270000 113.9761600000,22.4007550000 113.9761120000,22.4006950000 113.9759820000,22.4005310000 113.9758720000,22.4003880000 113.9755890000,22.3999810000 113.9754520000,22.3997640000 113.9754110000,22.3995960000 113.9753950000,22.3994710000 113.9753890000,22.3992410000 113.9753750000,22.3990870000 113.9753430000,22.3989060000 113.9751980000,22.3983320000 113.9751450000,22.3981150000 113.9751170000,22.3980200000 113.9751280000,22.3979650000 113.9751250000,22.3979330000 113.9751170000,22.3978370000 113.9750680000,22.3976830000 113.9750050000,22.3974240000 113.9748540000,22.3968600000 113.9747970000,22.3966550000 113.9746260000,22.3959950000 113.9746200000,22.3959730000 113.9745870000,22.3958660000 113.9745670000,22.3957910000 113.9745380000,22.3956910000 113.9745340000,22.3956660000 113.9745270000,22.3956200000 113.9744950000,22.3954350000 113.9745020000,22.3953220000 113.9745060000,22.3952620000 113.9745210000,22.3951800000 113.9745510000,22.3950840000 113.9745890000,22.3949630000 113.9746140000,22.3948900000 113.9746380000,22.3948350000 113.9746570000,22.3947910000 113.9746990000,22.3946740000 113.9747520000,22.3945320000 113.9747600000,22.3945100000 113.9747830000,22.3944550000 113.9748240000,22.3943340000 113.9748560000,22.3942080000 113.9749150000,22.3940810000 113.9749300000,22.3940470000 113.9749800000,22.3939780000 113.9750020000,22.3939450000 113.9751750000,22.3933980000 113.9752810000,22.3929730000 113.9753170000,22.3925260000 113.9753160000,22.3919480000 113.9753050000,22.3917350000 113.9753020000,22.3916390000 113.9752910000,22.3912590000 113.9752890000,22.3911890000 113.9752830000,22.3910200000 113.9753330000,22.3900960000 113.9753390000,22.3899800000 113.9753400000,22.3898760000 113.9753670000,22.3887560000 113.9753700000,22.3886420000 113.9753620000,22.3879360000 113.9753620000,22.3879240000 113.9753610000,22.3878840000 113.9753600000,22.3877990000 113.9753570000,22.3876380000 113.9753510000,22.3874400000 113.9753490000,22.3873510000 113.9753470000,22.3873160000 113.9753400000,22.3867460000 113.9753400000,22.3867230000 113.9753390000,22.3866490000 113.9753390000,22.3866060000 113.9753300000,22.3853840000 113.9753180000,22.3851980000 113.9752950000,22.3848270000 113.9752790000,22.3846280000 113.9752750000,22.3845610000 113.9752640000,22.3843530000 113.9752540000,22.3841710000 113.9752540000,22.3840480000 113.9752550000,22.3838760000 113.9752450000,22.3837640000 113.9751940000,22.3831020000 113.9752040000,22.3829790000 113.9752430000,22.3828080000 113.9753160000,22.3826350000 113.9753860000,22.3824860000 113.9755580000,22.3825590000 113.9756230000,22.3825840000 113.9762360000,22.3828450000 113.9763460000,22.3828920000 113.9771690000,22.3832390000 113.9778590000,22.3835310000 113.9778820000,22.3835410000 113.9779470000,22.3835650000 113.9780840000,22.3836020000 113.9781040000,22.3835200000 113.9781360000,22.3833960000 113.9781470000,22.3833510000 113.9781860000,22.3832010000 113.9782260000,22.3830170000 113.9782460000,22.3828820000 113.9782530000,22.3828350000 113.9782570000,22.3827860000 113.9782690000,22.3826290000 113.9782940000,22.3825390000 113.9783440000,22.3824320000 113.9783800000,22.3823700000 113.9787940000,22.3817480000 113.9788130000,22.3817200000 113.9788390000,22.3816800000 113.9790460000,22.3813650000 113.9791980000,22.3811460000 113.9794370000,22.3807850000 113.9793330000,22.3807260000 113.9791020000,22.3805950000 113.9788940000,22.3804750000 113.9787770000,22.3804070000 113.9786150000,22.3803160000 113.9785720000,22.3802920000 113.9784320000,22.3802110000 113.9781340000,22.3800510000 113.9780880000,22.3800380000 113.9780730000,22.3800390000 113.9780230000,22.3800410000 113.9779770000,22.3800680000 113.9779050000,22.3801970000 113.9776790000,22.3805910000 113.9774850000,22.3808940000 113.9773250000,22.3811430000 113.9770380000,22.3815910000 113.9770160000,22.3816240000 113.9770010000,22.3816580000 113.9769920000,22.3817020000 113.9769890000,22.3817520000 113.9770350000,22.3818060000 113.9771500000,22.3818760000 113.9772780000,22.3819490000</coordinates>
                </LineString>
                <ExtendedData>
                    <Data name="duration">
                        <value>00:41:35</value>
                    </Data>
                    <Data name="length">
                        <value>31390.57421854154</value>
                    </Data>
                </ExtendedData>
            </Placemark>
        </Document>
    </Document>
</kml>