<?xml version="1.0" encoding="UTF-8"?>
<kml xmlns="http://www.opengis.net/kml/2.2" xmlns:gx="http://www.google.com/kml/ext/2.2">
    <Document>
        <name>Route</name>
        <Folder>
            <name>Route Request</name>
            <Placemark>
                <address>Jockey Club Kau Sai Chau Golf Course Public Car Park, Wai Man Road, Sha Ha, Sai Kung, Sai Kung District, New Territories, Hong Kong, China</address>
                <Point>
                    <coordinates>114.2763172700,22.3841362535</coordinates>
                </Point>
                <ExtendedData>
                    <Data name="amenity">
                        <value>Jockey Club Kau Sai Chau Golf Course Public Car Park</value>
                    </Data>
                    <Data name="city">
                        <value>Sai Kung District</value>
                    </Data>
                    <Data name="country">
                        <value>China</value>
                    </Data>
                    <Data name="road">
                        <value>Wai Man Road</value>
                    </Data>
                    <Data name="state">
                        <value>Hong Kong</value>
                    </Data>
                    <Data name="suburb">
                        <value>Sha Ha</value>
                    </Data>
                    <Data name="town">
                        <value>Sai Kung</value>
                    </Data>
                    <Data name="municipality">
                        <value>New Territories</value>
                    </Data>
                    <Data name="country_code">
                        <value>cn</value>
                    </Data>
                    <Data name="ISO3166-2-lvl3">
                        <value>CN-HK</value>
                    </Data>
                </ExtendedData>
            </Placemark>
            <Placemark>
                <address>Ming Tai House, On Yan Street, Jordan Valley, Kwun Tong District, Kowloon, Hong Kong, China</address>
                <Point>
                    <coordinates>114.2282238276,22.3287208170</coordinates>
                </Point>
                <ExtendedData>
                    <Data name="city">
                        <value>Kowloon</value>
                    </Data>
                    <Data name="country">
                        <value>China</value>
                    </Data>
                    <Data name="road">
                        <value>On Yan Street</value>
                    </Data>
                    <Data name="state">
                        <value>Hong Kong</value>
                    </Data>
                    <Data name="suburb">
                        <value>Jordan Valley</value>
                    </Data>
                    <Data name="city_district">
                        <value>Kwun Tong District</value>
                    </Data>
                    <Data name="building">
                        <value>Ming Tai House</value>
                    </Data>
                    <Data name="country_code">
                        <value>cn</value>
                    </Data>
                    <Data name="ISO3166-2-lvl3">
                        <value>CN-HK</value>
                    </Data>
                </ExtendedData>
            </Placemark>
            <Placemark>
                <address>On Yan Street, Sau Mau Ping, Kwun Tong District, Kowloon, Hong Kong, China</address>
                <Point>
                    <coordinates>114.2301109935,22.3277030732</coordinates>
                </Point>
                <ExtendedData>
                    <Data name="city">
                        <value>Kowloon</value>
                    </Data>
                    <Data name="country">
                        <value>China</value>
                    </Data>
                    <Data name="road">
                        <value>On Yan Street</value>
                    </Data>
                    <Data name="state">
                        <value>Hong Kong</value>
                    </Data>
                    <Data name="suburb">
                        <value>Sau Mau Ping</value>
                    </Data>
                    <Data name="city_district">
                        <value>Kwun Tong District</value>
                    </Data>
                    <Data name="country_code">
                        <value>cn</value>
                    </Data>
                    <Data name="ISO3166-2-lvl3">
                        <value>CN-HK</value>
                    </Data>
                </ExtendedData>
            </Placemark>
            <Placemark>
                <address>Po Kong Village Road, Hammer Hill, Wong Tai Sin District, Kowloon, Hong Kong, 000000, China</address>
                <Point>
                    <coordinates>114.2076562122,22.3426661422</coordinates>
                </Point>
                <ExtendedData>
                    <Data name="city">
                        <value>Kowloon</value>
                    </Data>
                    <Data name="country">
                        <value>China</value>
                    </Data>
                    <Data name="road">
                        <value>Po Kong Village Road</value>
                    </Data>
                    <Data name="postcode">
                        <value>000000</value>
                    </Data>
                    <Data name="state">
                        <value>Hong Kong</value>
                    </Data>
                    <Data name="suburb">
                        <value>Hammer Hill</value>
                    </Data>
                    <Data name="city_district">
                        <value>Wong Tai Sin District</value>
                    </Data>
                    <Data name="country_code">
                        <value>cn</value>
                    </Data>
                    <Data name="ISO3166-2-lvl3">
                        <value>CN-HK</value>
                    </Data>
                </ExtendedData>
            </Placemark>
            <Placemark>
                <address>Tsz Wan Shan Road, Fung Wong New Village, Tsz Wan Shan, Wong Tai Sin District, Kowloon, Hong Kong, 000000, China</address>
                <Point>
                    <coordinates>114.1980281538,22.3510740440</coordinates>
                </Point>
                <ExtendedData>
                    <Data name="city">
                        <value>Kowloon</value>
                    </Data>
                    <Data name="country">
                        <value>China</value>
                    </Data>
                    <Data name="neighbourhood">
                        <value>Fung Wong New Village</value>
                    </Data>
                    <Data name="road">
                        <value>Tsz Wan Shan Road</value>
                    </Data>
                    <Data name="postcode">
                        <value>000000</value>
                    </Data>
                    <Data name="state">
                        <value>Hong Kong</value>
                    </Data>
                    <Data name="suburb">
                        <value>Tsz Wan Shan</value>
                    </Data>
                    <Data name="city_district">
                        <value>Wong Tai Sin District</value>
                    </Data>
                    <Data name="country_code">
                        <value>cn</value>
                    </Data>
                    <Data name="ISO3166-2-lvl3">
                        <value>CN-HK</value>
                    </Data>
                </ExtendedData>
            </Placemark>
            <Placemark>
                <address>Chun Tok School, 171, Hammer Hill Road, Tai Hom, Hammer Hill, Wong Tai Sin District, Kowloon, Hong Kong, 000000, China</address>
                <Point>
                    <coordinates>114.2071363876,22.3395540583</coordinates>
                </Point>
                <ExtendedData>
                    <Data name="amenity">
                        <value>Chun Tok School</value>
                    </Data>
                    <Data name="city">
                        <value>Kowloon</value>
                    </Data>
                    <Data name="country">
                        <value>China</value>
                    </Data>
                    <Data name="neighbourhood">
                        <value>Tai Hom</value>
                    </Data>
                    <Data name="road">
                        <value>Hammer Hill Road</value>
                    </Data>
                    <Data name="postcode">
                        <value>000000</value>
                    </Data>
                    <Data name="state">
                        <value>Hong Kong</value>
                    </Data>
                    <Data name="suburb">
                        <value>Hammer Hill</value>
                    </Data>
                    <Data name="house_number">
                        <value>171</value>
                    </Data>
                    <Data name="city_district">
                        <value>Wong Tai Sin District</value>
                    </Data>
                    <Data name="country_code">
                        <value>cn</value>
                    </Data>
                    <Data name="ISO3166-2-lvl3">
                        <value>CN-HK</value>
                    </Data>
                </ExtendedData>
            </Placemark>
            <Placemark>
                <address>Ngau Chi Wan Street, Ngau Chi Wan, Wong Tai Sin District, Kowloon, Hong Kong, 000000, China</address>
                <Point>
                    <coordinates>114.2180301089,22.3348104778</coordinates>
                </Point>
                <ExtendedData>
                    <Data name="city">
                        <value>Kowloon</value>
                    </Data>
                    <Data name="country">
                        <value>China</value>
                    </Data>
                    <Data name="road">
                        <value>Ngau Chi Wan Street</value>
                    </Data>
                    <Data name="state">
                        <value>Hong Kong</value>
                    </Data>
                    <Data name="postcode">
                        <value>000000</value>
                    </Data>
                    <Data name="suburb">
                        <value>Ngau Chi Wan</value>
                    </Data>
                    <Data name="city_district">
                        <value>Wong Tai Sin District</value>
                    </Data>
                    <Data name="country_code">
                        <value>cn</value>
                    </Data>
                    <Data name="ISO3166-2-lvl3">
                        <value>CN-HK</value>
                    </Data>
                </ExtendedData>
            </Placemark>
            <Placemark>
                <address>Tan Shan, Tseng Lan Shue, Sai Kung District, New Territories, Hong Kong, 000000, China</address>
                <Point>
                    <coordinates>114.2341511802,22.3270799401</coordinates>
                </Point>
                <ExtendedData>
                    <Data name="city">
                        <value>Sai Kung District</value>
                    </Data>
                    <Data name="country">
                        <value>China</value>
                    </Data>
                    <Data name="state">
                        <value>Hong Kong</value>
                    </Data>
                    <Data name="postcode">
                        <value>000000</value>
                    </Data>
                    <Data name="municipality">
                        <value>New Territories</value>
                    </Data>
                    <Data name="village">
                        <value>Tseng Lan Shue</value>
                    </Data>
                    <Data name="country_code">
                        <value>cn</value>
                    </Data>
                    <Data name="hamlet">
                        <value>Tan Shan</value>
                    </Data>
                    <Data name="ISO3166-2-lvl3">
                        <value>CN-HK</value>
                    </Data>
                </ExtendedData>
            </Placemark>
            <Placemark>
                <address>Ming Tai House, On Yan Street, Jordan Valley, Kwun Tong District, Kowloon, Hong Kong, China</address>
                <Point>
                    <coordinates>114.2282008350,22.3287295407</coordinates>
                </Point>
                <ExtendedData>
                    <Data name="city">
                        <value>Kowloon</value>
                    </Data>
                    <Data name="country">
                        <value>China</value>
                    </Data>
                    <Data name="road">
                        <value>On Yan Street</value>
                    </Data>
                    <Data name="state">
                        <value>Hong Kong</value>
                    </Data>
                    <Data name="suburb">
                        <value>Jordan Valley</value>
                    </Data>
                    <Data name="city_district">
                        <value>Kwun Tong District</value>
                    </Data>
                    <Data name="building">
                        <value>Ming Tai House</value>
                    </Data>
                    <Data name="country_code">
                        <value>cn</value>
                    </Data>
                    <Data name="ISO3166-2-lvl3">
                        <value>CN-HK</value>
                    </Data>
                </ExtendedData>
            </Placemark>
            <Placemark>
                <address>Sha Ha, Sai Kung, Sai Kung District, New Territories, Hong Kong, China</address>
                <Point>
                    <coordinates>114.2763209777,22.3841628976</coordinates>
                </Point>
                <ExtendedData>
                    <Data name="city">
                        <value>Sai Kung District</value>
                    </Data>
                    <Data name="country">
                        <value>China</value>
                    </Data>
                    <Data name="state">
                        <value>Hong Kong</value>
                    </Data>
                    <Data name="suburb">
                        <value>Sha Ha</value>
                    </Data>
                    <Data name="town">
                        <value>Sai Kung</value>
                    </Data>
                    <Data name="municipality">
                        <value>New Territories</value>
                    </Data>
                    <Data name="country_code">
                        <value>cn</value>
                    </Data>
                    <Data name="ISO3166-2-lvl3">
                        <value>CN-HK</value>
                    </Data>
                </ExtendedData>
            </Placemark>
        </Folder>
        <Document>
            <name>41.1 km; 00:57 h (OSRM)</name>
            <Placemark>
                <name>Route</name>
                <LineString>
                    <coordinates>114.2763170000,22.3841520000 114.2762080000,22.3841500000 114.2761920000,22.3841480000 114.2759580000,22.3840850000 114.2759590000,22.3840140000 114.2759580000,22.3839360000 114.2760300000,22.3838760000 114.2768890000,22.3838820000 114.2772040000,22.3841670000 114.2772120000,22.3842040000 114.2771840000,22.3842470000 114.2771370000,22.3842900000 114.2770120000,22.3844030000 114.2768120000,22.3842030000 114.2761440000,22.3841960000 114.2758160000,22.3841330000 114.2756150000,22.3840700000 114.2753370000,22.3842900000 114.2753100000,22.3843110000 114.2752570000,22.3843530000 114.2746020000,22.3833510000 114.2745920000,22.3833390000 114.2745530000,22.3832920000 114.2741460000,22.3828160000 114.2741100000,22.3827670000 114.2740680000,22.3827230000 114.2740200000,22.3826850000 114.2739670000,22.3826530000 114.2739110000,22.3826270000 114.2738510000,22.3826090000 114.2737880000,22.3825980000 114.2737250000,22.3825940000 114.2736480000,22.3825940000 114.2735440000,22.3825830000 114.2734960000,22.3825740000 114.2734220000,22.3825530000 114.2733510000,22.3825260000 114.2732830000,22.3824930000 114.2732190000,22.3824540000 114.2731590000,22.3824090000 114.2730450000,22.3823120000 114.2725440000,22.3827080000 114.2723250000,22.3828820000 114.2718770000,22.3832370000 114.2717600000,22.3833320000 114.2715670000,22.3834860000 114.2715420000,22.3835020000 114.2715100000,22.3835190000 114.2714690000,22.3835400000 114.2714270000,22.3835540000 114.2713890000,22.3835660000 114.2709570000,22.3836680000 114.2709550000,22.3835750000 114.2709150000,22.3834710000 114.2709070000,22.3834070000 114.2709030000,22.3832710000 114.2709100000,22.3832050000 114.2709170000,22.3831580000 114.2709670000,22.3829400000 114.2710090000,22.3827060000 114.2710140000,22.3826780000 114.2710370000,22.3825010000 114.2710420000,22.3824080000 114.2710350000,22.3822930000 114.2709990000,22.3821450000 114.2709370000,22.3819950000 114.2708530000,22.3817940000 114.2708070000,22.3817080000 114.2707570000,22.3816300000 114.2707300000,22.3815960000 114.2706320000,22.3815000000 114.2705850000,22.3814580000 114.2705550000,22.3814350000 114.2705360000,22.3814200000 114.2705090000,22.3814000000 114.2704720000,22.3813830000 114.2704320000,22.3813640000 114.2703810000,22.3813410000 114.2703370000,22.3813180000 114.2702640000,22.3812890000 114.2701920000,22.3812630000 114.2700840000,22.3812290000 114.2699930000,22.3812070000 114.2699200000,22.3811980000 114.2698110000,22.3811860000 114.2697070000,22.3811670000 114.2696410000,22.3811520000 114.2694820000,22.3810970000 114.2691600000,22.3809780000 114.2690160000,22.3809160000 114.2689190000,22.3808760000 114.2687890000,22.3808230000 114.2687430000,22.3808040000 114.2684810000,22.3806920000 114.2684450000,22.3806740000 114.2683190000,22.3806090000 114.2681860000,22.3805320000 114.2680860000,22.3804320000 114.2679920000,22.3803780000 114.2678970000,22.3803240000 114.2677870000,22.3802630000 114.2676750000,22.3802340000 114.2672960000,22.3800120000 114.2668470000,22.3797590000 114.2664210000,22.3795200000 114.2663130000,22.3794540000 114.2662180000,22.3793770000 114.2661350000,22.3793040000 114.2660560000,22.3792280000 114.2659560000,22.3791150000 114.2654850000,22.3784740000 114.2654680000,22.3784500000 114.2653500000,22.3782770000 114.2649790000,22.3777360000 114.2645190000,22.3771980000 114.2644410000,22.3771190000 114.2636970000,22.3764590000 114.2636690000,22.3764360000 114.2636420000,22.3764200000 114.2635620000,22.3763770000 114.2635150000,22.3763560000 114.2634790000,22.3763420000 114.2634390000,22.3763340000 114.2632950000,22.3762990000 114.2632250000,22.3762790000 114.2631840000,22.3762640000 114.2631550000,22.3762510000 114.2630560000,22.3761960000 114.2629160000,22.3760650000 114.2623050000,22.3754960000 114.2622670000,22.3754620000 114.2621190000,22.3753300000 114.2616680000,22.3750580000 114.2615920000,22.3750110000 114.2614870000,22.3749270000 114.2613660000,22.3748090000 114.2612910000,22.3746750000 114.2612680000,22.3745910000 114.2612490000,22.3745190000 114.2612220000,22.3744380000 114.2610260000,22.3738430000 114.2609680000,22.3736160000 114.2608820000,22.3734210000 114.2608510000,22.3733720000 114.2608140000,22.3733270000 114.2606600000,22.3731880000 114.2604750000,22.3730770000 114.2603800000,22.3729900000 114.2603190000,22.3729220000 114.2602810000,22.3728490000 114.2601840000,22.3725300000 114.2601080000,22.3722780000 114.2600460000,22.3721090000 114.2599690000,22.3719010000 114.2599090000,22.3716730000 114.2598870000,22.3715890000 114.2597350000,22.3709300000 114.2596280000,22.3704390000 114.2596210000,22.3702820000 114.2596140000,22.3701060000 114.2596340000,22.3699130000 114.2598620000,22.3688060000 114.2599400000,22.3683650000 114.2600330000,22.3679040000 114.2600520000,22.3677820000 114.2600920000,22.3675700000 114.2600940000,22.3674040000 114.2600970000,22.3672430000 114.2600870000,22.3671240000 114.2600730000,22.3670180000 114.2600180000,22.3666170000 114.2599470000,22.3662780000 114.2599190000,22.3661920000 114.2596970000,22.3655100000 114.2594940000,22.3650510000 114.2594460000,22.3649410000 114.2593550000,22.3646960000 114.2593390000,22.3646650000 114.2592960000,22.3645830000 114.2591990000,22.3644020000 114.2589520000,22.3638800000 114.2589130000,22.3638190000 114.2588520000,22.3637450000 114.2587890000,22.3636890000 114.2586750000,22.3636150000 114.2585770000,22.3635610000 114.2580380000,22.3632750000 114.2579850000,22.3632430000 114.2579200000,22.3631970000 114.2578690000,22.3631510000 114.2578280000,22.3631070000 114.2577890000,22.3630570000 114.2577500000,22.3630000000 114.2572840000,22.3622570000 114.2572390000,22.3621930000 114.2571890000,22.3621290000 114.2568660000,22.3617570000 114.2567550000,22.3616270000 114.2567280000,22.3615870000 114.2567110000,22.3615540000 114.2566930000,22.3615140000 114.2566810000,22.3614730000 114.2566730000,22.3614270000 114.2566680000,22.3613740000 114.2566660000,22.3613290000 114.2566670000,22.3612820000 114.2566890000,22.3608360000 114.2566890000,22.3607940000 114.2566880000,22.3607570000 114.2566830000,22.3607190000 114.2566740000,22.3606690000 114.2566620000,22.3606240000 114.2566480000,22.3605800000 114.2566330000,22.3605370000 114.2566160000,22.3604950000 114.2565930000,22.3604490000 114.2563330000,22.3599760000 114.2562980000,22.3599180000 114.2562580000,22.3598570000 114.2562330000,22.3598270000 114.2562040000,22.3597950000 114.2561750000,22.3597670000 114.2561400000,22.3597390000 114.2561020000,22.3597120000 114.2560650000,22.3596900000 114.2560280000,22.3596720000 114.2559880000,22.3596560000 114.2559360000,22.3596390000 114.2558860000,22.3596270000 114.2558450000,22.3596200000 114.2557990000,22.3596160000 114.2557370000,22.3596140000 114.2556810000,22.3596160000 114.2556150000,22.3596240000 114.2555630000,22.3596350000 114.2555000000,22.3596540000 114.2554420000,22.3596750000 114.2553940000,22.3597000000 114.2553420000,22.3597320000 114.2552960000,22.3597630000 114.2552520000,22.3597990000 114.2548070000,22.3601710000 114.2547690000,22.3602000000 114.2547230000,22.3602300000 114.2546670000,22.3602600000 114.2545910000,22.3602930000 114.2544050000,22.3603660000 114.2541850000,22.3604400000 114.2540690000,22.3604590000 114.2539620000,22.3604810000 114.2538430000,22.3605100000 114.2537870000,22.3605210000 114.2537290000,22.3605280000 114.2536260000,22.3605340000 114.2535150000,22.3605330000 114.2534540000,22.3605280000 114.2534120000,22.3605210000 114.2533730000,22.3605080000 114.2533370000,22.3604840000 114.2532890000,22.3604370000 114.2532720000,22.3604070000 114.2532470000,22.3603800000 114.2532170000,22.3603590000 114.2531820000,22.3603450000 114.2531450000,22.3603390000 114.2530990000,22.3603240000 114.2530640000,22.3603070000 114.2530390000,22.3602880000 114.2529640000,22.3602120000 114.2528890000,22.3601270000 114.2528430000,22.3600810000 114.2528100000,22.3600510000 114.2526530000,22.3599150000 114.2526050000,22.3598710000 114.2525630000,22.3598270000 114.2525190000,22.3597770000 114.2524730000,22.3597090000 114.2524370000,22.3596510000 114.2524060000,22.3595950000 114.2523800000,22.3595400000 114.2523510000,22.3594720000 114.2523250000,22.3593960000 114.2522980000,22.3593000000 114.2522820000,22.3592290000 114.2521780000,22.3585870000 114.2521430000,22.3583830000 114.2518980000,22.3571490000 114.2518450000,22.3569250000 114.2518080000,22.3567860000 114.2517750000,22.3566650000 114.2516210000,22.3561570000 114.2515880000,22.3560590000 114.2515490000,22.3559550000 114.2515080000,22.3558580000 114.2514420000,22.3557140000 114.2513980000,22.3556290000 114.2513190000,22.3554980000 114.2510510000,22.3550930000 114.2510320000,22.3550630000 114.2509200000,22.3548890000 114.2507640000,22.3546510000 114.2505120000,22.3542790000 114.2504460000,22.3541810000 114.2503870000,22.3540870000 114.2503390000,22.3540000000 114.2502970000,22.3539030000 114.2502600000,22.3538000000 114.2502250000,22.3536730000 114.2502080000,22.3535900000 114.2502040000,22.3535470000 114.2502040000,22.3535100000 114.2502100000,22.3534620000 114.2502200000,22.3534240000 114.2502420000,22.3533820000 114.2502680000,22.3533550000 114.2502920000,22.3533260000 114.2503130000,22.3532920000 114.2503300000,22.3532580000 114.2503440000,22.3532080000 114.2503500000,22.3531640000 114.2503480000,22.3531260000 114.2503440000,22.3530920000 114.2503340000,22.3530600000 114.2503250000,22.3530370000 114.2503070000,22.3530030000 114.2502910000,22.3529790000 114.2502630000,22.3529460000 114.2502490000,22.3529110000 114.2502400000,22.3528600000 114.2502430000,22.3528200000 114.2502580000,22.3527780000 114.2502850000,22.3527360000 114.2503200000,22.3526900000 114.2503920000,22.3526110000 114.2504790000,22.3525260000 114.2505710000,22.3524450000 114.2506480000,22.3523830000 114.2508200000,22.3522680000 114.2509980000,22.3521700000 114.2511660000,22.3520860000 114.2512710000,22.3520400000 114.2514920000,22.3519510000 114.2514990000,22.3519490000 114.2524940000,22.3515900000 114.2526730000,22.3515150000 114.2528510000,22.3514310000 114.2529420000,22.3513820000 114.2530290000,22.3513330000 114.2531090000,22.3512830000 114.2532850000,22.3511560000 114.2534360000,22.3510310000 114.2535230000,22.3509480000 114.2536200000,22.3508470000 114.2537010000,22.3507510000 114.2537950000,22.3506260000 114.2538830000,22.3504920000 114.2539800000,22.3503130000 114.2540680000,22.3501190000 114.2541470000,22.3499030000 114.2542150000,22.3496790000 114.2542670000,22.3494750000 114.2543330000,22.3492170000 114.2544070000,22.3489420000 114.2544590000,22.3487730000 114.2546170000,22.3483270000 114.2546990000,22.3481460000 114.2548280000,22.3479400000 114.2549220000,22.3478130000 114.2550090000,22.3477000000 114.2553010000,22.3473220000 114.2554600000,22.3470930000 114.2555460000,22.3469470000 114.2556290000,22.3467810000 114.2557270000,22.3465520000 114.2557910000,22.3463590000 114.2558600000,22.3461130000 114.2559220000,22.3458510000 114.2561130000,22.3449490000 114.2561700000,22.3447490000 114.2563520000,22.3442420000 114.2566200000,22.3434850000 114.2567330000,22.3432480000 114.2569460000,22.3428900000 114.2570520000,22.3426850000 114.2571740000,22.3425220000 114.2572120000,22.3424800000 114.2572550000,22.3424450000 114.2573100000,22.3424080000 114.2573640000,22.3423770000 114.2574130000,22.3423530000 114.2575780000,22.3422730000 114.2576370000,22.3422400000 114.2576950000,22.3421990000 114.2577420000,22.3421600000 114.2577820000,22.3421200000 114.2578130000,22.3420790000 114.2578450000,22.3420290000 114.2578700000,22.3419750000 114.2578880000,22.3419170000 114.2579000000,22.3418630000 114.2579030000,22.3418130000 114.2579020000,22.3417630000 114.2578940000,22.3417070000 114.2578800000,22.3416530000 114.2578610000,22.3416020000 114.2578340000,22.3415530000 114.2578010000,22.3415070000 114.2577670000,22.3414670000 114.2577260000,22.3414300000 114.2576840000,22.3413960000 114.2576420000,22.3413700000 114.2575910000,22.3413450000 114.2575300000,22.3413240000 114.2574720000,22.3413110000 114.2574160000,22.3413040000 114.2573640000,22.3413030000 114.2573060000,22.3413070000 114.2572440000,22.3413160000 114.2571780000,22.3413340000 114.2571210000,22.3413540000 114.2570620000,22.3413800000 114.2570130000,22.3414060000 114.2569670000,22.3414350000 114.2569170000,22.3414700000 114.2568460000,22.3415250000 114.2563440000,22.3419240000 114.2562570000,22.3419960000 114.2562140000,22.3420350000 114.2560820000,22.3421600000 114.2560210000,22.3422260000 114.2558550000,22.3424300000 114.2556850000,22.3427120000 114.2554680000,22.3429510000 114.2552330000,22.3431170000 114.2548350000,22.3432990000 114.2531260000,22.3440120000 114.2530760000,22.3440300000 114.2530130000,22.3440460000 114.2529700000,22.3440540000 114.2529230000,22.3440590000 114.2528730000,22.3440600000 114.2528220000,22.3440570000 114.2527710000,22.3440490000 114.2527250000,22.3440380000 114.2526830000,22.3440240000 114.2526430000,22.3440090000 114.2526060000,22.3439920000 114.2525690000,22.3439710000 114.2525290000,22.3439420000 114.2524910000,22.3439100000 114.2524590000,22.3438780000 114.2524140000,22.3438250000 114.2523850000,22.3437840000 114.2523410000,22.3437050000 114.2522660000,22.3436030000 114.2521790000,22.3435220000 114.2520640000,22.3434560000 114.2518080000,22.3433640000 114.2513810000,22.3432100000 114.2512340000,22.3431640000 114.2510710000,22.3431690000 114.2510090000,22.3431750000 114.2509610000,22.3431830000 114.2509100000,22.3431940000 114.2508600000,22.3432080000 114.2508060000,22.3432280000 114.2507250000,22.3432660000 114.2506790000,22.3432840000 114.2506110000,22.3433050000 114.2505560000,22.3433170000 114.2504910000,22.3433210000 114.2504210000,22.3433190000 114.2503370000,22.3433110000 114.2498650000,22.3432390000 114.2497320000,22.3432130000 114.2496040000,22.3431770000 114.2494870000,22.3431370000 114.2493830000,22.3430930000 114.2492930000,22.3430490000 114.2492040000,22.3429970000 114.2491060000,22.3429310000 114.2490400000,22.3428800000 114.2489740000,22.3428220000 114.2489140000,22.3427630000 114.2488630000,22.3427080000 114.2487850000,22.3426080000 114.2487130000,22.3424960000 114.2486610000,22.3423970000 114.2486320000,22.3423340000 114.2486080000,22.3422690000 114.2482650000,22.3412650000 114.2482480000,22.3412210000 114.2482250000,22.3411740000 114.2481670000,22.3410740000 114.2481080000,22.3409820000 114.2480490000,22.3409040000 114.2479880000,22.3408290000 114.2479420000,22.3407780000 114.2478910000,22.3407240000 114.2476390000,22.3404930000 114.2474660000,22.3403600000 114.2474110000,22.3403190000 114.2473160000,22.3402320000 114.2472640000,22.3401850000 114.2471810000,22.3401100000 114.2469080000,22.3398870000 114.2462810000,22.3393720000 114.2453040000,22.3385670000 114.2452040000,22.3384850000 114.2450560000,22.3383760000 114.2449860000,22.3383270000 114.2449270000,22.3382920000 114.2447470000,22.3382340000 114.2440920000,22.3381400000 114.2439910000,22.3381200000 114.2439030000,22.3380950000 114.2438250000,22.3380650000 114.2437580000,22.3380320000 114.2437070000,22.3380030000 114.2436540000,22.3379670000 114.2436020000,22.3379270000 114.2435470000,22.3378760000 114.2434830000,22.3378090000 114.2434190000,22.3377330000 114.2421330000,22.3360990000 114.2421000000,22.3360590000 114.2420660000,22.3360160000 114.2416150000,22.3354650000 114.2413180000,22.3351500000 114.2411820000,22.3350310000 114.2409950000,22.3349170000 114.2408050000,22.3348300000 114.2404200000,22.3347300000 114.2389130000,22.3344450000 114.2386190000,22.3343480000 114.2383320000,22.3342410000 114.2383090000,22.3342330000 114.2380740000,22.3341540000 114.2374840000,22.3339280000 114.2371610000,22.3337990000 114.2368080000,22.3336700000 114.2363700000,22.3335030000 114.2361070000,22.3334170000 114.2358610000,22.3333630000 114.2355120000,22.3333050000 114.2350810000,22.3332320000 114.2350000000,22.3332190000 114.2348090000,22.3331860000 114.2344050000,22.3331490000 114.2343290000,22.3331470000 114.2342380000,22.3331500000 114.2340920000,22.3331620000 114.2340110000,22.3331690000 114.2338250000,22.3332140000 114.2335650000,22.3333410000 114.2333450000,22.3334480000 114.2325050000,22.3338820000 114.2319000000,22.3340810000 114.2309470000,22.3343980000 114.2306020000,22.3345000000 114.2304550000,22.3345330000 114.2303020000,22.3345520000 114.2301750000,22.3345630000 114.2300150000,22.3345580000 114.2298440000,22.3345410000 114.2296900000,22.3345150000 114.2295470000,22.3344900000 114.2291590000,22.3343560000 114.2286760000,22.3342280000 114.2285590000,22.3341730000 114.2284900000,22.3341210000 114.2284420000,22.3340670000 114.2284460000,22.3337100000 114.2284800000,22.3332480000 114.2284830000,22.3331840000 114.2284950000,22.3330350000 114.2285000000,22.3329620000 114.2285120000,22.3328830000 114.2285340000,22.3328050000 114.2286050000,22.3326160000 114.2286520000,22.3325140000 114.2287110000,22.3324010000 114.2287750000,22.3322700000 114.2287930000,22.3321850000 114.2288120000,22.3321010000 114.2288170000,22.3320400000 114.2288200000,22.3319940000 114.2288200000,22.3319460000 114.2288190000,22.3319030000 114.2288170000,22.3318570000 114.2288120000,22.3318140000 114.2288050000,22.3317660000 114.2287940000,22.3317110000 114.2287770000,22.3316500000 114.2287510000,22.3315810000 114.2287090000,22.3314850000 114.2286640000,22.3314040000 114.2284420000,22.3310470000 114.2283980000,22.3309650000 114.2283730000,22.3309090000 114.2283490000,22.3308490000 114.2283320000,22.3308000000 114.2283080000,22.3307030000 114.2282960000,22.3306420000 114.2282890000,22.3305830000 114.2282860000,22.3305250000 114.2282860000,22.3304660000 114.2282890000,22.3304100000 114.2282940000,22.3303560000 114.2283050000,22.3302970000 114.2283160000,22.3302430000 114.2283320000,22.3301880000 114.2283520000,22.3301270000 114.2283780000,22.3300620000 114.2284090000,22.3299990000 114.2284560000,22.3299150000 114.2285060000,22.3298450000 114.2285630000,22.3297730000 114.2286330000,22.3297020000 114.2287100000,22.3296360000 114.2287810000,22.3295820000 114.2288500000,22.3295340000 114.2290220000,22.3294170000 114.2291430000,22.3293330000 114.2292880000,22.3292220000 114.2293930000,22.3291340000 114.2296130000,22.3289310000 114.2296930000,22.3288480000 114.2297620000,22.3287730000 114.2299520000,22.3285490000 114.2300480000,22.3284210000 114.2301300000,22.3283000000 114.2302070000,22.3281780000 114.2302750000,22.3280620000 114.2303250000,22.3279840000 114.2303670000,22.3279260000 114.2303840000,22.3279080000 114.2304040000,22.3278880000 114.2304570000,22.3278350000 114.2304920000,22.3278190000 114.2305210000,22.3277970000 114.2305440000,22.3277680000 114.2305580000,22.3277350000 114.2305630000,22.3277000000 114.2305590000,22.3276640000 114.2305460000,22.3276310000 114.2305500000,22.3275390000 114.2305540000,22.3274900000 114.2305590000,22.3274290000 114.2305700000,22.3273780000 114.2306150000,22.3272230000 114.2306690000,22.3270190000 114.2306950000,22.3268400000 114.2307050000,22.3266980000 114.2307090000,22.3265730000 114.2307110000,22.3264690000 114.2307120000,22.3264240000 114.2307130000,22.3263560000 114.2307160000,22.3262060000 114.2306270000,22.3262110000 114.2305110000,22.3262210000 114.2304040000,22.3262260000 114.2303600000,22.3262300000 114.2303000000,22.3262320000 114.2299150000,22.3262530000 114.2297640000,22.3262720000 114.2297280000,22.3262760000 114.2296340000,22.3263050000 114.2292400000,22.3264660000 114.2291470000,22.3265050000 114.2287410000,22.3266580000 114.2285720000,22.3267210000 114.2284790000,22.3267560000 114.2279990000,22.3269430000 114.2279150000,22.3269760000 114.2278560000,22.3270110000 114.2277990000,22.3270510000 114.2277510000,22.3270930000 114.2277150000,22.3271300000 114.2276830000,22.3271730000 114.2276610000,22.3272120000 114.2276390000,22.3272610000 114.2276240000,22.3273100000 114.2276140000,22.3273610000 114.2276100000,22.3274220000 114.2276140000,22.3274970000 114.2276240000,22.3275630000 114.2277000000,22.3279010000 114.2277260000,22.3280160000 114.2277520000,22.3281100000 114.2277820000,22.3282000000 114.2278220000,22.3282900000 114.2278620000,22.3283550000 114.2279010000,22.3284050000 114.2279380000,22.3284450000 114.2279890000,22.3284900000 114.2280340000,22.3285240000 114.2280790000,22.3285520000 114.2281410000,22.3285830000 114.2282130000,22.3286100000 114.2282550000,22.3286210000 114.2282850000,22.3286290000 114.2283630000,22.3286410000 114.2284390000,22.3286470000 114.2286040000,22.3286310000 114.2286550000,22.3286190000 114.2287480000,22.3285760000 114.2287930000,22.3285560000 114.2288720000,22.3285060000 114.2289740000,22.3284160000 114.2290030000,22.3283650000 114.2290500000,22.3282720000 114.2290810000,22.3281790000 114.2291580000,22.3279470000 114.2292210000,22.3278310000 114.2293040000,22.3277270000 114.2293920000,22.3276490000 114.2294570000,22.3276080000 114.2295140000,22.3275790000 114.2295870000,22.3275530000 114.2296710000,22.3275310000 114.2297920000,22.3275200000 114.2298580000,22.3275150000 114.2299380000,22.3275220000 114.2299620000,22.3275270000 114.2299980000,22.3275740000 114.2300210000,22.3275800000 114.2300810000,22.3276020000 114.2301300000,22.3276260000 114.2301550000,22.3276410000 114.2301740000,22.3276530000 114.2302090000,22.3276760000 114.2302510000,22.3276980000 114.2302540000,22.3277290000 114.2302650000,22.3277590000 114.2302590000,22.3278240000 114.2302540000,22.3278590000 114.2302440000,22.3278990000 114.2302250000,22.3279600000 114.2301970000,22.3280220000 114.2301640000,22.3280860000 114.2301280000,22.3281460000 114.2300540000,22.3282610000 114.2299290000,22.3284380000 114.2297020000,22.3287150000 114.2295860000,22.3288430000 114.2294800000,22.3289460000 114.2293640000,22.3290510000 114.2292640000,22.3291350000 114.2290920000,22.3292730000 114.2289180000,22.3293940000 114.2288030000,22.3294720000 114.2286880000,22.3295560000 114.2286090000,22.3296190000 114.2285710000,22.3296540000 114.2285340000,22.3296930000 114.2284960000,22.3297400000 114.2284560000,22.3297920000 114.2284170000,22.3298460000 114.2283880000,22.3298910000 114.2283510000,22.3299580000 114.2283170000,22.3300370000 114.2282900000,22.3301060000 114.2282640000,22.3301830000 114.2282440000,22.3302670000 114.2282330000,22.3303380000 114.2282270000,22.3303910000 114.2282220000,22.3304630000 114.2282230000,22.3305640000 114.2282310000,22.3306600000 114.2282420000,22.3307420000 114.2282590000,22.3308240000 114.2282880000,22.3309110000 114.2283070000,22.3309590000 114.2283290000,22.3310090000 114.2283510000,22.3310560000 114.2283750000,22.3310990000 114.2284060000,22.3311500000 114.2284350000,22.3311970000 114.2284630000,22.3312440000 114.2284900000,22.3312890000 114.2285180000,22.3313390000 114.2285440000,22.3313830000 114.2285710000,22.3314320000 114.2285970000,22.3314790000 114.2286240000,22.3315260000 114.2286500000,22.3315770000 114.2286710000,22.3316240000 114.2286880000,22.3316760000 114.2287000000,22.3317260000 114.2287100000,22.3317800000 114.2287190000,22.3318350000 114.2287240000,22.3318850000 114.2287250000,22.3319320000 114.2287240000,22.3319780000 114.2287200000,22.3320340000 114.2287100000,22.3320890000 114.2286950000,22.3321700000 114.2286820000,22.3322400000 114.2286240000,22.3323670000 114.2285640000,22.3324750000 114.2284990000,22.3325850000 114.2284280000,22.3327850000 114.2284030000,22.3328660000 114.2283900000,22.3329500000 114.2283820000,22.3330320000 114.2283710000,22.3331780000 114.2283670000,22.3332510000 114.2283480000,22.3337090000 114.2283370000,22.3339070000 114.2283320000,22.3339710000 114.2282490000,22.3340920000 114.2282230000,22.3341220000 114.2282060000,22.3341420000 114.2281310000,22.3341940000 114.2280750000,22.3342400000 114.2277940000,22.3342420000 114.2276810000,22.3342430000 114.2275880000,22.3342410000 114.2274470000,22.3342370000 114.2273070000,22.3342530000 114.2272540000,22.3342680000 114.2271550000,22.3343140000 114.2271210000,22.3343710000 114.2271140000,22.3343850000 114.2271070000,22.3343990000 114.2271030000,22.3344670000 114.2270710000,22.3344890000 114.2270530000,22.3345010000 114.2270340000,22.3345100000 114.2270140000,22.3345170000 114.2269970000,22.3345210000 114.2269760000,22.3345230000 114.2269510000,22.3345240000 114.2268390000,22.3344910000 114.2266300000,22.3343890000 114.2264630000,22.3343140000 114.2264060000,22.3342910000 114.2263740000,22.3342800000 114.2263350000,22.3342690000 114.2262910000,22.3342590000 114.2257710000,22.3342170000 114.2252890000,22.3341690000 114.2252440000,22.3341650000 114.2251670000,22.3341570000 114.2251250000,22.3341370000 114.2251100000,22.3341330000 114.2250640000,22.3341280000 114.2250120000,22.3341230000 114.2249720000,22.3341230000 114.2249280000,22.3341240000 114.2249170000,22.3341260000 114.2248840000,22.3341290000 114.2248060000,22.3341700000 114.2246900000,22.3342090000 114.2245790000,22.3342610000 114.2244750000,22.3343300000 114.2243960000,22.3343770000 114.2243380000,22.3344060000 114.2242620000,22.3344420000 114.2241320000,22.3344880000 114.2240490000,22.3344940000 114.2239930000,22.3344960000 114.2239130000,22.3344910000 114.2237620000,22.3344580000 114.2234800000,22.3343810000 114.2226090000,22.3341230000 114.2224460000,22.3340870000 114.2218510000,22.3339380000 114.2217870000,22.3339260000 114.2215860000,22.3339090000 114.2214970000,22.3339030000 114.2213630000,22.3338950000 114.2212640000,22.3338870000 114.2212070000,22.3338830000 114.2210910000,22.3338760000 114.2208340000,22.3338540000 114.2207720000,22.3338500000 114.2207350000,22.3338480000 114.2196830000,22.3337780000 114.2192760000,22.3337490000 114.2188060000,22.3337160000 114.2186390000,22.3337260000 114.2184620000,22.3337510000 114.2182370000,22.3338250000 114.2182170000,22.3338310000 114.2181450000,22.3338600000 114.2180180000,22.3339350000 114.2179590000,22.3339670000 114.2177640000,22.3341050000 114.2176050000,22.3342170000 114.2174840000,22.3342770000 114.2173080000,22.3343340000 114.2170840000,22.3343890000 114.2168050000,22.3344410000 114.2166530000,22.3344440000 114.2164920000,22.3344010000 114.2163890000,22.3343370000 114.2163010000,22.3342620000 114.2161270000,22.3340920000 114.2160690000,22.3340350000 114.2159710000,22.3339410000 114.2159150000,22.3338880000 114.2157880000,22.3338020000 114.2156700000,22.3337540000 114.2155070000,22.3337000000 114.2153410000,22.3336460000 114.2152540000,22.3336350000 114.2150780000,22.3336040000 114.2147300000,22.3335420000 114.2145920000,22.3335170000 114.2144250000,22.3334870000 114.2142200000,22.3334740000 114.2140340000,22.3334750000 114.2138670000,22.3335060000 114.2137520000,22.3335420000 114.2136130000,22.3335930000 114.2134680000,22.3336540000 114.2132990000,22.3337180000 114.2131850000,22.3337540000 114.2131190000,22.3337650000 114.2130530000,22.3337650000 114.2130000000,22.3337600000 114.2129110000,22.3337430000 114.2128170000,22.3337170000 114.2127420000,22.3336820000 114.2126550000,22.3336300000 114.2126360000,22.3336150000 114.2126150000,22.3335980000 114.2125230000,22.3335320000 114.2124270000,22.3334660000 114.2122090000,22.3337590000 114.2120330000,22.3339410000 114.2119050000,22.3340380000 114.2116770000,22.3341500000 114.2115060000,22.3342190000 114.2113180000,22.3342760000 114.2110930000,22.3343140000 114.2110010000,22.3343230000 114.2108550000,22.3343290000 114.2107120000,22.3343220000 114.2106140000,22.3343170000 114.2104470000,22.3343000000 114.2102250000,22.3342630000 114.2098980000,22.3341950000 114.2097940000,22.3341720000 114.2092650000,22.3340640000 114.2090910000,22.3340490000 114.2087050000,22.3340720000 114.2085150000,22.3341390000 114.2083270000,22.3342060000 114.2081940000,22.3342530000 114.2081090000,22.3342900000 114.2080000000,22.3343360000 114.2080050000,22.3344320000 114.2080030000,22.3345270000 114.2079940000,22.3345770000 114.2079880000,22.3346070000 114.2079790000,22.3346360000 114.2079570000,22.3346940000 114.2078730000,22.3348950000 114.2077320000,22.3351980000 114.2077250000,22.3352110000 114.2076860000,22.3352950000 114.2076510000,22.3353700000 114.2076190000,22.3354420000 114.2075480000,22.3355980000 114.2074350000,22.3358460000 114.2074100000,22.3359010000 114.2074010000,22.3359970000 114.2073760000,22.3360480000 114.2073560000,22.3360870000 114.2073230000,22.3361410000 114.2072850000,22.3361990000 114.2072740000,22.3362150000 114.2072580000,22.3362400000 114.2072210000,22.3362940000 114.2071800000,22.3363450000 114.2071440000,22.3363850000 114.2071020000,22.3364290000 114.2070320000,22.3364970000 114.2069650000,22.3365610000 114.2068930000,22.3366200000 114.2068400000,22.3366590000 114.2067850000,22.3366990000 114.2067040000,22.3367530000 114.2065980000,22.3368240000 114.2065370000,22.3368620000 114.2065140000,22.3368770000 114.2064720000,22.3369040000 114.2063830000,22.3369600000 114.2063260000,22.3369950000 114.2062660000,22.3370330000 114.2061340000,22.3371140000 114.2060170000,22.3371880000 114.2058320000,22.3372900000 114.2056660000,22.3373870000 114.2053080000,22.3375820000 114.2052530000,22.3375940000 114.2051460000,22.3375920000 114.2050520000,22.3375830000 114.2049260000,22.3375560000 114.2047910000,22.3375010000 114.2047630000,22.3374610000 114.2047270000,22.3374130000 114.2046360000,22.3373070000 114.2045900000,22.3372570000 114.2045240000,22.3371850000 114.2044780000,22.3371370000 114.2044330000,22.3370870000 114.2043880000,22.3370350000 114.2043570000,22.3369930000 114.2043310000,22.3369500000 114.2043100000,22.3369020000 114.2042700000,22.3367740000 114.2042730000,22.3367480000 114.2042710000,22.3367220000 114.2042660000,22.3366960000 114.2042520000,22.3366570000 114.2042290000,22.3366190000 114.2042000000,22.3365920000 114.2041620000,22.3365660000 114.2041180000,22.3365480000 114.2040890000,22.3365410000 114.2040590000,22.3365380000 114.2040280000,22.3365390000 114.2039900000,22.3365450000 114.2039530000,22.3365570000 114.2039190000,22.3365760000 114.2038890000,22.3365990000 114.2038640000,22.3366270000 114.2038450000,22.3366590000 114.2038320000,22.3366930000 114.2038250000,22.3367290000 114.2036130000,22.3369050000 114.2033700000,22.3371200000 114.2033250000,22.3372320000 114.2033160000,22.3372740000 114.2033070000,22.3373010000 114.2033000000,22.3373900000 114.2033100000,22.3374610000 114.2033120000,22.3375120000 114.2034050000,22.3375090000 114.2035150000,22.3375110000 114.2036070000,22.3375110000 114.2037140000,22.3375170000 114.2038280000,22.3375300000 114.2039260000,22.3375460000 114.2040890000,22.3375830000 114.2043230000,22.3376470000 114.2044960000,22.3376980000 114.2047290000,22.3377770000 114.2048230000,22.3378140000 114.2049680000,22.3378770000 114.2050650000,22.3379260000 114.2051570000,22.3379780000 114.2052630000,22.3380430000 114.2053670000,22.3381140000 114.2054750000,22.3381960000 114.2055940000,22.3382890000 114.2056970000,22.3383800000 114.2058500000,22.3385320000 114.2059210000,22.3386000000 114.2060110000,22.3386800000 114.2060630000,22.3387360000 114.2061000000,22.3387900000 114.2061310000,22.3388520000 114.2061520000,22.3389290000 114.2061520000,22.3390780000 114.2061420000,22.3391280000 114.2061510000,22.3392160000 114.2061960000,22.3392950000 114.2062690000,22.3393520000 114.2063600000,22.3393810000 114.2064270000,22.3393810000 114.2064910000,22.3393650000 114.2066510000,22.3393410000 114.2067290000,22.3393430000 114.2068020000,22.3393580000 114.2068810000,22.3393820000 114.2070130000,22.3394360000 114.2071180000,22.3395270000 114.2072900000,22.3396780000 114.2073190000,22.3397050000 114.2076500000,22.3400330000 114.2076760000,22.3400570000 114.2077810000,22.3401550000 114.2078380000,22.3402100000 114.2082160000,22.3405480000 114.2083100000,22.3406450000 114.2083760000,22.3407400000 114.2084150000,22.3408330000 114.2084430000,22.3409130000 114.2084710000,22.3411120000 114.2084670000,22.3412070000 114.2084340000,22.3413580000 114.2083480000,22.3415850000 114.2082020000,22.3419750000 114.2081320000,22.3421590000 114.2080500000,22.3423780000 114.2080280000,22.3424380000 114.2079630000,22.3426450000 114.2079430000,22.3427090000 114.2079330000,22.3427400000 114.2077960000,22.3431790000 114.2077420000,22.3433450000 114.2075530000,22.3439510000 114.2075210000,22.3440610000 114.2074690000,22.3442240000 114.2073910000,22.3443900000 114.2073700000,22.3444140000 114.2071650000,22.3446470000 114.2071160000,22.3446970000 114.2066280000,22.3452090000 114.2064590000,22.3453860000 114.2063610000,22.3454890000 114.2062130000,22.3456430000 114.2060910000,22.3457580000 114.2060640000,22.3457850000 114.2059310000,22.3458970000 114.2058210000,22.3459770000 114.2057620000,22.3460210000 114.2056370000,22.3461020000 114.2055120000,22.3461820000 114.2052410000,22.3463130000 114.2051070000,22.3463610000 114.2050490000,22.3463790000 114.2048710000,22.3464360000 114.2047530000,22.3464580000 114.2046400000,22.3464740000 114.2045260000,22.3464780000 114.2044180000,22.3464820000 114.2041760000,22.3464750000 114.2041860000,22.3467970000 114.2041900000,22.3469590000 114.2041950000,22.3471140000 114.2041970000,22.3472260000 114.2042000000,22.3473670000 114.2042020000,22.3474750000 114.2042040000,22.3475700000 114.2042090000,22.3478650000 114.2042100000,22.3479450000 114.2042120000,22.3480790000 114.2042080000,22.3481810000 114.2041920000,22.3482580000 114.2041590000,22.3483360000 114.2041290000,22.3483910000 114.2040980000,22.3484320000 114.2040590000,22.3484700000 114.2040180000,22.3485020000 114.2039760000,22.3485270000 114.2039290000,22.3485470000 114.2038880000,22.3485600000 114.2038410000,22.3485700000 114.2037970000,22.3485750000 114.2033320000,22.3486090000 114.2029590000,22.3486300000 114.2029490000,22.3486300000 114.2028520000,22.3486390000 114.2028230000,22.3486410000 114.2028140000,22.3486420000 114.2026900000,22.3486620000 114.2025840000,22.3486860000 114.2025230000,22.3487080000 114.2024560000,22.3487380000 114.2023950000,22.3487740000 114.2023180000,22.3488280000 114.2022670000,22.3488700000 114.2022230000,22.3489190000 114.2021840000,22.3489680000 114.2021390000,22.3490410000 114.2020200000,22.3492570000 114.2019580000,22.3493570000 114.2018900000,22.3494620000 114.2018320000,22.3495370000 114.2017700000,22.3496080000 114.2016620000,22.3497180000 114.2015960000,22.3497800000 114.2015130000,22.3498510000 114.2014310000,22.3499180000 114.2013440000,22.3499820000 114.2013100000,22.3500040000 114.2012270000,22.3500530000 114.2011510000,22.3500900000 114.2010720000,22.3501230000 114.2009770000,22.3501580000 114.2008720000,22.3501960000 114.2008330000,22.3502100000 114.2008020000,22.3502210000 114.2006850000,22.3502620000 114.2003710000,22.3503790000 114.2002330000,22.3504220000 114.1997020000,22.3506260000 114.1995240000,22.3506860000 114.1993260000,22.3507520000 114.1992340000,22.3507830000 114.1991120000,22.3508190000 114.1989970000,22.3508410000 114.1988380000,22.3508580000 114.1987230000,22.3508600000 114.1985850000,22.3508580000 114.1985200000,22.3508500000 114.1985090000,22.3508810000 114.1985030000,22.3508960000 114.1984940000,22.3509220000 114.1984700000,22.3509640000 114.1983670000,22.3510990000 114.1983450000,22.3511150000 114.1983200000,22.3511260000 114.1982930000,22.3511250000 114.1982930000,22.3511250000 114.1983200000,22.3511260000 114.1983450000,22.3511150000 114.1983670000,22.3510990000 114.1984700000,22.3509640000 114.1984940000,22.3509220000 114.1985030000,22.3508960000 114.1985090000,22.3508810000 114.1985200000,22.3508500000 114.1985850000,22.3508580000 114.1987230000,22.3508600000 114.1988380000,22.3508580000 114.1989970000,22.3508410000 114.1991120000,22.3508190000 114.1992340000,22.3507830000 114.1993260000,22.3507520000 114.1995240000,22.3506860000 114.1997020000,22.3506260000 114.2002330000,22.3504220000 114.2003710000,22.3503790000 114.2006850000,22.3502620000 114.2008020000,22.3502210000 114.2008330000,22.3502100000 114.2008720000,22.3501960000 114.2009770000,22.3501580000 114.2010720000,22.3501230000 114.2011510000,22.3500900000 114.2012270000,22.3500530000 114.2013100000,22.3500040000 114.2013440000,22.3499820000 114.2014310000,22.3499180000 114.2015130000,22.3498510000 114.2015960000,22.3497800000 114.2016620000,22.3497180000 114.2017700000,22.3496080000 114.2018320000,22.3495370000 114.2018900000,22.3494620000 114.2019580000,22.3493570000 114.2020200000,22.3492570000 114.2021390000,22.3490410000 114.2021840000,22.3489680000 114.2022230000,22.3489190000 114.2022670000,22.3488700000 114.2023180000,22.3488280000 114.2023950000,22.3487740000 114.2024560000,22.3487380000 114.2025230000,22.3487080000 114.2025840000,22.3486860000 114.2026900000,22.3486620000 114.2028140000,22.3486420000 114.2028230000,22.3486410000 114.2028520000,22.3486390000 114.2029490000,22.3486300000 114.2029590000,22.3486300000 114.2033320000,22.3486090000 114.2037970000,22.3485750000 114.2038410000,22.3485700000 114.2038880000,22.3485600000 114.2039290000,22.3485470000 114.2039760000,22.3485270000 114.2040180000,22.3485020000 114.2040590000,22.3484700000 114.2040980000,22.3484320000 114.2041290000,22.3483910000 114.2041590000,22.3483360000 114.2041920000,22.3482580000 114.2042080000,22.3481810000 114.2042120000,22.3480790000 114.2042100000,22.3479450000 114.2042090000,22.3478650000 114.2042040000,22.3475700000 114.2042020000,22.3474750000 114.2042000000,22.3473670000 114.2041970000,22.3472260000 114.2041950000,22.3471140000 114.2041900000,22.3469590000 114.2041860000,22.3467970000 114.2041760000,22.3464750000 114.2044180000,22.3464820000 114.2045260000,22.3464780000 114.2046400000,22.3464740000 114.2047530000,22.3464580000 114.2048710000,22.3464360000 114.2050490000,22.3463790000 114.2051070000,22.3463610000 114.2052410000,22.3463130000 114.2055120000,22.3461820000 114.2056370000,22.3461020000 114.2057620000,22.3460210000 114.2058210000,22.3459770000 114.2059310000,22.3458970000 114.2060640000,22.3457850000 114.2060910000,22.3457580000 114.2062130000,22.3456430000 114.2063610000,22.3454890000 114.2064590000,22.3453860000 114.2066280000,22.3452090000 114.2071160000,22.3446970000 114.2071650000,22.3446470000 114.2073700000,22.3444140000 114.2073910000,22.3443900000 114.2074690000,22.3442240000 114.2075210000,22.3440610000 114.2075530000,22.3439510000 114.2077420000,22.3433450000 114.2077960000,22.3431790000 114.2079430000,22.3427090000 114.2079630000,22.3426450000 114.2080280000,22.3424380000 114.2080500000,22.3423780000 114.2081320000,22.3421590000 114.2082020000,22.3419750000 114.2083480000,22.3415850000 114.2084340000,22.3413580000 114.2084670000,22.3412070000 114.2084710000,22.3411120000 114.2084430000,22.3409130000 114.2084150000,22.3408330000 114.2083760000,22.3407400000 114.2083100000,22.3406450000 114.2082160000,22.3405480000 114.2078380000,22.3402100000 114.2077810000,22.3401550000 114.2076760000,22.3400570000 114.2076500000,22.3400330000 114.2073190000,22.3397050000 114.2072900000,22.3396780000 114.2071420000,22.3395480000 114.2071180000,22.3395270000 114.2070130000,22.3394360000 114.2068320000,22.3392770000 114.2067660000,22.3392230000 114.2067100000,22.3391780000 114.2066470000,22.3391330000 114.2066330000,22.3390720000 114.2066030000,22.3390160000 114.2065580000,22.3389700000 114.2065010000,22.3389360000 114.2064370000,22.3389180000 114.2064040000,22.3388860000 114.2063040000,22.3387810000 114.2059190000,22.3384480000 114.2058430000,22.3382910000 114.2057840000,22.3381880000 114.2057460000,22.3381270000 114.2057090000,22.3380450000 114.2056940000,22.3379730000 114.2056910000,22.3379080000 114.2056960000,22.3378440000 114.2057090000,22.3377760000 114.2057340000,22.3377040000 114.2057620000,22.3376560000 114.2057920000,22.3376200000 114.2058120000,22.3375970000 114.2058300000,22.3375780000 114.2059510000,22.3374650000 114.2061040000,22.3373350000 114.2062130000,22.3372520000 114.2066060000,22.3370130000 114.2066980000,22.3369560000 114.2068700000,22.3368380000 114.2069610000,22.3367740000 114.2069830000,22.3367580000 114.2069960000,22.3367490000 114.2070810000,22.3366810000 114.2071530000,22.3366230000 114.2072260000,22.3365590000 114.2072650000,22.3365220000 114.2073100000,22.3364680000 114.2073510000,22.3364190000 114.2073980000,22.3363490000 114.2074210000,22.3363160000 114.2074450000,22.3362820000 114.2074570000,22.3362600000 114.2074740000,22.3362340000 114.2074940000,22.3361920000 114.2075110000,22.3361570000 114.2075290000,22.3361170000 114.2075470000,22.3360780000 114.2075580000,22.3360540000 114.2076470000,22.3359770000 114.2076870000,22.3358960000 114.2076950000,22.3358720000 114.2077450000,22.3357330000 114.2078980000,22.3353860000 114.2079280000,22.3353210000 114.2080100000,22.3351430000 114.2080410000,22.3350770000 114.2081290000,22.3348870000 114.2082070000,22.3347140000 114.2082370000,22.3346490000 114.2082550000,22.3346220000 114.2082860000,22.3345920000 114.2083240000,22.3345580000 114.2083500000,22.3345380000 114.2083940000,22.3345030000 114.2084160000,22.3344870000 114.2086020000,22.3343400000 114.2086830000,22.3342710000 114.2087260000,22.3342360000 114.2087620000,22.3342120000 114.2088030000,22.3341930000 114.2088510000,22.3341790000 114.2089090000,22.3341670000 114.2090480000,22.3341590000 114.2091240000,22.3341650000 114.2091910000,22.3341720000 114.2093750000,22.3342290000 114.2097000000,22.3342980000 114.2099930000,22.3343570000 114.2103020000,22.3344120000 114.2105890000,22.3344660000 114.2106840000,22.3344810000 114.2107910000,22.3344900000 114.2108900000,22.3344910000 114.2109970000,22.3344830000 114.2111550000,22.3344620000 114.2112220000,22.3344510000 114.2113490000,22.3344190000 114.2115010000,22.3343730000 114.2116950000,22.3342990000 114.2118800000,22.3342110000 114.2119940000,22.3341360000 114.2120530000,22.3340810000 114.2121990000,22.3339200000 114.2123980000,22.3336670000 114.2125230000,22.3335320000 114.2126150000,22.3335980000 114.2126360000,22.3336150000 114.2126550000,22.3336300000 114.2127420000,22.3336820000 114.2128170000,22.3337170000 114.2129110000,22.3337430000 114.2130000000,22.3337600000 114.2130530000,22.3337650000 114.2131190000,22.3337650000 114.2131850000,22.3337540000 114.2132990000,22.3337180000 114.2134680000,22.3336540000 114.2136130000,22.3335930000 114.2137520000,22.3335420000 114.2138670000,22.3335060000 114.2140340000,22.3334750000 114.2142200000,22.3334740000 114.2144250000,22.3334870000 114.2145920000,22.3335170000 114.2147300000,22.3335420000 114.2150780000,22.3336040000 114.2152540000,22.3336350000 114.2153410000,22.3336460000 114.2155070000,22.3337000000 114.2156700000,22.3337540000 114.2157880000,22.3338020000 114.2158670000,22.3339390000 114.2158790000,22.3339840000 114.2158840000,22.3340130000 114.2158780000,22.3340470000 114.2158690000,22.3340830000 114.2158250000,22.3341690000 114.2156660000,22.3342550000 114.2152460000,22.3344860000 114.2152120000,22.3345140000 114.2153070000,22.3346600000 114.2153710000,22.3347580000 114.2154780000,22.3348430000 114.2156010000,22.3349110000 114.2162080000,22.3349650000 114.2165040000,22.3349730000 114.2168710000,22.3349630000 114.2171860000,22.3349500000 114.2175190000,22.3349370000 114.2177650000,22.3349310000 114.2178320000,22.3349260000 114.2180180000,22.3348940000 114.2180690000,22.3348610000 114.2180990000,22.3348420000 114.2181420000,22.3348150000 114.2182050000,22.3347550000 114.2182520000,22.3346700000 114.2182890000,22.3345800000 114.2182870000,22.3345270000 114.2181940000,22.3342770000 114.2181790000,22.3341740000 114.2181740000,22.3339760000 114.2181670000,22.3339290000 114.2181450000,22.3338600000 114.2182170000,22.3338310000 114.2182370000,22.3338250000 114.2184620000,22.3337510000 114.2186390000,22.3337260000 114.2188060000,22.3337160000 114.2192760000,22.3337490000 114.2196830000,22.3337780000 114.2207350000,22.3338480000 114.2207720000,22.3338500000 114.2208340000,22.3338540000 114.2210910000,22.3338760000 114.2212070000,22.3338830000 114.2212640000,22.3338870000 114.2213630000,22.3338950000 114.2214970000,22.3339030000 114.2215860000,22.3339090000 114.2217870000,22.3339260000 114.2218510000,22.3339380000 114.2224460000,22.3340870000 114.2226090000,22.3341230000 114.2234800000,22.3343810000 114.2237620000,22.3344580000 114.2239130000,22.3344910000 114.2239930000,22.3344960000 114.2240490000,22.3344940000 114.2241320000,22.3344880000 114.2242620000,22.3344420000 114.2243380000,22.3344060000 114.2243960000,22.3343770000 114.2244750000,22.3343300000 114.2245790000,22.3342610000 114.2246900000,22.3342090000 114.2248060000,22.3341700000 114.2248870000,22.3341920000 114.2249170000,22.3341870000 114.2249300000,22.3341850000 114.2249760000,22.3341780000 114.2250160000,22.3341760000 114.2250770000,22.3341770000 114.2251250000,22.3341760000 114.2251670000,22.3341570000 114.2252440000,22.3341650000 114.2252890000,22.3341690000 114.2257710000,22.3342170000 114.2260480000,22.3343320000 114.2262680000,22.3344270000 114.2263490000,22.3344610000 114.2265340000,22.3345130000 114.2266840000,22.3345220000 114.2267930000,22.3345280000 114.2268720000,22.3345280000 114.2269510000,22.3345240000 114.2269760000,22.3345230000 114.2269970000,22.3345210000 114.2270140000,22.3345170000 114.2270340000,22.3345100000 114.2270530000,22.3345010000 114.2270710000,22.3344890000 114.2271030000,22.3344670000 114.2271830000,22.3344340000 114.2272050000,22.3344130000 114.2272280000,22.3343880000 114.2272680000,22.3343370000 114.2275750000,22.3343730000 114.2276950000,22.3343720000 114.2278070000,22.3343710000 114.2279480000,22.3343690000 114.2280470000,22.3343690000 114.2281550000,22.3343380000 114.2282410000,22.3343160000 114.2283290000,22.3343160000 114.2283750000,22.3343100000 114.2284040000,22.3342940000 114.2284340000,22.3342630000 114.2284380000,22.3342300000 114.2284400000,22.3341210000 114.2284420000,22.3340670000 114.2284460000,22.3337100000 114.2284800000,22.3332480000 114.2284830000,22.3331840000 114.2284950000,22.3330350000 114.2285000000,22.3329620000 114.2285120000,22.3328830000 114.2285340000,22.3328050000 114.2286050000,22.3326160000 114.2286520000,22.3325140000 114.2287110000,22.3324010000 114.2287750000,22.3322700000 114.2287930000,22.3321850000 114.2288120000,22.3321010000 114.2288170000,22.3320400000 114.2288200000,22.3319940000 114.2288200000,22.3319460000 114.2288190000,22.3319030000 114.2288170000,22.3318570000 114.2288120000,22.3318140000 114.2288050000,22.3317660000 114.2287940000,22.3317110000 114.2287770000,22.3316500000 114.2287510000,22.3315810000 114.2287090000,22.3314850000 114.2286640000,22.3314040000 114.2284420000,22.3310470000 114.2283980000,22.3309650000 114.2283730000,22.3309090000 114.2283490000,22.3308490000 114.2283320000,22.3308000000 114.2283080000,22.3307030000 114.2282960000,22.3306420000 114.2282890000,22.3305830000 114.2282860000,22.3305250000 114.2282860000,22.3304660000 114.2282890000,22.3304100000 114.2282940000,22.3303560000 114.2283050000,22.3302970000 114.2283160000,22.3302430000 114.2283320000,22.3301880000 114.2283520000,22.3301270000 114.2283780000,22.3300620000 114.2284090000,22.3299990000 114.2284560000,22.3299150000 114.2285060000,22.3298450000 114.2285630000,22.3297730000 114.2286330000,22.3297020000 114.2287100000,22.3296360000 114.2287810000,22.3295820000 114.2288500000,22.3295340000 114.2290220000,22.3294170000 114.2291430000,22.3293330000 114.2292880000,22.3292220000 114.2293930000,22.3291340000 114.2296130000,22.3289310000 114.2296930000,22.3288480000 114.2297620000,22.3287730000 114.2299520000,22.3285490000 114.2300480000,22.3284210000 114.2301300000,22.3283000000 114.2302070000,22.3281780000 114.2302750000,22.3280620000 114.2303250000,22.3279840000 114.2303670000,22.3279260000 114.2303840000,22.3279080000 114.2304040000,22.3278880000 114.2304570000,22.3278350000 114.2304920000,22.3278190000 114.2305210000,22.3277970000 114.2305440000,22.3277680000 114.2305580000,22.3277350000 114.2305630000,22.3277000000 114.2305590000,22.3276640000 114.2305460000,22.3276310000 114.2305500000,22.3275390000 114.2305540000,22.3274900000 114.2305590000,22.3274290000 114.2305700000,22.3273780000 114.2306150000,22.3272230000 114.2306690000,22.3270190000 114.2306950000,22.3268400000 114.2307050000,22.3266980000 114.2307090000,22.3265730000 114.2307110000,22.3264690000 114.2307120000,22.3264240000 114.2307130000,22.3263560000 114.2307160000,22.3262060000 114.2308350000,22.3262040000 114.2308600000,22.3262020000 114.2310850000,22.3262040000 114.2311440000,22.3261950000 114.2312020000,22.3261780000 114.2312570000,22.3261550000 114.2313080000,22.3261250000 114.2313570000,22.3260860000 114.2314000000,22.3260410000 114.2314350000,22.3259900000 114.2315100000,22.3257970000 114.2318840000,22.3249260000 114.2321940000,22.3240970000 114.2324800000,22.3235990000 114.2325270000,22.3235180000 114.2325810000,22.3234420000 114.2326410000,22.3233710000 114.2327260000,22.3232790000 114.2333410000,22.3228730000 114.2335240000,22.3227460000 114.2336290000,22.3227340000 114.2336730000,22.3227280000 114.2336990000,22.3227240000 114.2337470000,22.3227180000 114.2337900000,22.3227360000 114.2338370000,22.3227410000 114.2338840000,22.3227310000 114.2339350000,22.3227540000 114.2339630000,22.3227660000 114.2339960000,22.3227800000 114.2340720000,22.3227970000 114.2344040000,22.3230140000 114.2345730000,22.3231250000 114.2347420000,22.3232380000 114.2347930000,22.3232710000 114.2348370000,22.3233000000 114.2348690000,22.3233210000 114.2349160000,22.3233510000 114.2351940000,22.3235330000 114.2356470000,22.3238220000 114.2358840000,22.3239740000 114.2359320000,22.3240470000 114.2359630000,22.3240690000 114.2359950000,22.3240900000 114.2360590000,22.3241330000 114.2360260000,22.3241850000 114.2359950000,22.3242380000 114.2359780000,22.3242700000 114.2359620000,22.3243110000 114.2359690000,22.3243850000 114.2359320000,22.3244870000 114.2359050000,22.3245920000 114.2358870000,22.3246950000 114.2357570000,22.3256510000 114.2357230000,22.3259910000 114.2356590000,22.3263280000 114.2355640000,22.3266580000 114.2354400000,22.3269800000 114.2352710000,22.3273250000 114.2351060000,22.3275890000 114.2350610000,22.3276500000 114.2348990000,22.3278720000 114.2346670000,22.3281380000 114.2343450000,22.3284620000 114.2342500000,22.3285570000 114.2341350000,22.3284670000 114.2334380000,22.3279170000 114.2341350000,22.3284670000 114.2342500000,22.3285570000 114.2343450000,22.3284620000 114.2346670000,22.3281380000 114.2348990000,22.3278720000 114.2351060000,22.3275890000 114.2352710000,22.3273250000 114.2354400000,22.3269800000 114.2355640000,22.3266580000 114.2356590000,22.3263280000 114.2357230000,22.3259910000 114.2357570000,22.3256510000 114.2358870000,22.3246950000 114.2359050000,22.3245920000 114.2359320000,22.3244870000 114.2359690000,22.3243850000 114.2360310000,22.3243360000 114.2360530000,22.3243030000 114.2360700000,22.3242710000 114.2360970000,22.3242240000 114.2361260000,22.3241780000 114.2361690000,22.3241180000 114.2361360000,22.3240960000 114.2361020000,22.3240730000 114.2360400000,22.3240310000 114.2360090000,22.3240100000 114.2359770000,22.3239890000 114.2358840000,22.3239740000 114.2356470000,22.3238220000 114.2351940000,22.3235330000 114.2349160000,22.3233510000 114.2348690000,22.3233210000 114.2348370000,22.3233000000 114.2347930000,22.3232710000 114.2347420000,22.3232380000 114.2345730000,22.3231250000 114.2344040000,22.3230140000 114.2340720000,22.3227970000 114.2340460000,22.3227290000 114.2340250000,22.3227000000 114.2340060000,22.3226730000 114.2339720000,22.3226300000 114.2339720000,22.3225850000 114.2339560000,22.3225440000 114.2339270000,22.3225090000 114.2338880000,22.3224850000 114.2338420000,22.3224740000 114.2337950000,22.3224770000 114.2337510000,22.3224950000 114.2337160000,22.3225240000 114.2336930000,22.3225620000 114.2336440000,22.3226170000 114.2336160000,22.3226480000 114.2335950000,22.3226720000 114.2335240000,22.3227460000 114.2333410000,22.3228730000 114.2327260000,22.3232790000 114.2326410000,22.3233710000 114.2325810000,22.3234420000 114.2325270000,22.3235180000 114.2324800000,22.3235990000 114.2321940000,22.3240970000 114.2318840000,22.3249260000 114.2315100000,22.3257970000 114.2314350000,22.3259900000 114.2314000000,22.3260410000 114.2313570000,22.3260860000 114.2313080000,22.3261250000 114.2312570000,22.3261550000 114.2312020000,22.3261780000 114.2311440000,22.3261950000 114.2310850000,22.3262040000 114.2308600000,22.3262020000 114.2308350000,22.3262040000 114.2307160000,22.3262060000 114.2306270000,22.3262110000 114.2305110000,22.3262210000 114.2304040000,22.3262260000 114.2303600000,22.3262300000 114.2303000000,22.3262320000 114.2299150000,22.3262530000 114.2297640000,22.3262720000 114.2297280000,22.3262760000 114.2296340000,22.3263050000 114.2292400000,22.3264660000 114.2291470000,22.3265050000 114.2287410000,22.3266580000 114.2285720000,22.3267210000 114.2284790000,22.3267560000 114.2279990000,22.3269430000 114.2279150000,22.3269760000 114.2278560000,22.3270110000 114.2277990000,22.3270510000 114.2277510000,22.3270930000 114.2277150000,22.3271300000 114.2276830000,22.3271730000 114.2276610000,22.3272120000 114.2276390000,22.3272610000 114.2276240000,22.3273100000 114.2276140000,22.3273610000 114.2276100000,22.3274220000 114.2276140000,22.3274970000 114.2276240000,22.3275630000 114.2277000000,22.3279010000 114.2277260000,22.3280160000 114.2277520000,22.3281100000 114.2277820000,22.3282000000 114.2278220000,22.3282900000 114.2278620000,22.3283550000 114.2279010000,22.3284050000 114.2279380000,22.3284450000 114.2279890000,22.3284900000 114.2280340000,22.3285240000 114.2280790000,22.3285520000 114.2281410000,22.3285830000 114.2282130000,22.3286100000 114.2282360000,22.3286160000 114.2282850000,22.3286290000 114.2283630000,22.3286410000 114.2284390000,22.3286470000 114.2286040000,22.3286310000 114.2286550000,22.3286190000 114.2287480000,22.3285760000 114.2287930000,22.3285560000 114.2288720000,22.3285060000 114.2289740000,22.3284160000 114.2290030000,22.3283650000 114.2290500000,22.3282720000 114.2290810000,22.3281790000 114.2291580000,22.3279470000 114.2292210000,22.3278310000 114.2293040000,22.3277270000 114.2293920000,22.3276490000 114.2294570000,22.3276080000 114.2295140000,22.3275790000 114.2295870000,22.3275530000 114.2296710000,22.3275310000 114.2297920000,22.3275200000 114.2298580000,22.3275150000 114.2299380000,22.3275220000 114.2299620000,22.3275270000 114.2299980000,22.3275740000 114.2300210000,22.3275800000 114.2300810000,22.3276020000 114.2301300000,22.3276260000 114.2301740000,22.3276530000 114.2302090000,22.3276760000 114.2302510000,22.3276980000 114.2302540000,22.3277290000 114.2302650000,22.3277590000 114.2302590000,22.3278240000 114.2302540000,22.3278590000 114.2302440000,22.3278990000 114.2302250000,22.3279600000 114.2301970000,22.3280220000 114.2301640000,22.3280860000 114.2301280000,22.3281460000 114.2300540000,22.3282610000 114.2299290000,22.3284380000 114.2297020000,22.3287150000 114.2295860000,22.3288430000 114.2294800000,22.3289460000 114.2293640000,22.3290510000 114.2292640000,22.3291350000 114.2290920000,22.3292730000 114.2289180000,22.3293940000 114.2288030000,22.3294720000 114.2286880000,22.3295560000 114.2286090000,22.3296190000 114.2285710000,22.3296540000 114.2285340000,22.3296930000 114.2284960000,22.3297400000 114.2284560000,22.3297920000 114.2284170000,22.3298460000 114.2283880000,22.3298910000 114.2283510000,22.3299580000 114.2283170000,22.3300370000 114.2282900000,22.3301060000 114.2282640000,22.3301830000 114.2282440000,22.3302670000 114.2282330000,22.3303380000 114.2282270000,22.3303910000 114.2282220000,22.3304630000 114.2282230000,22.3305640000 114.2282310000,22.3306600000 114.2282420000,22.3307420000 114.2282590000,22.3308240000 114.2282880000,22.3309110000 114.2283070000,22.3309590000 114.2283290000,22.3310090000 114.2283510000,22.3310560000 114.2283750000,22.3310990000 114.2284060000,22.3311500000 114.2284350000,22.3311970000 114.2284630000,22.3312440000 114.2284900000,22.3312890000 114.2285180000,22.3313390000 114.2285440000,22.3313830000 114.2285710000,22.3314320000 114.2285970000,22.3314790000 114.2286240000,22.3315260000 114.2286500000,22.3315770000 114.2286710000,22.3316240000 114.2286880000,22.3316760000 114.2287000000,22.3317260000 114.2287100000,22.3317800000 114.2287190000,22.3318350000 114.2287240000,22.3318850000 114.2287250000,22.3319320000 114.2287240000,22.3319780000 114.2287200000,22.3320340000 114.2287100000,22.3320890000 114.2286950000,22.3321700000 114.2286820000,22.3322400000 114.2286240000,22.3323670000 114.2285640000,22.3324750000 114.2284990000,22.3325850000 114.2284280000,22.3327850000 114.2284030000,22.3328660000 114.2283900000,22.3329500000 114.2283820000,22.3330320000 114.2283710000,22.3331780000 114.2283670000,22.3332510000 114.2283480000,22.3337090000 114.2283370000,22.3339070000 114.2283320000,22.3339710000 114.2282490000,22.3340920000 114.2282230000,22.3341220000 114.2282060000,22.3341420000 114.2281310000,22.3341940000 114.2280750000,22.3342400000 114.2277940000,22.3342420000 114.2276810000,22.3342430000 114.2275880000,22.3342410000 114.2274470000,22.3342370000 114.2273070000,22.3342530000 114.2272540000,22.3342680000 114.2271550000,22.3343140000 114.2271210000,22.3343710000 114.2271140000,22.3343850000 114.2271070000,22.3343990000 114.2271030000,22.3344670000 114.2270710000,22.3344890000 114.2270530000,22.3345010000 114.2270340000,22.3345100000 114.2270140000,22.3345170000 114.2269970000,22.3345210000 114.2269760000,22.3345230000 114.2269510000,22.3345240000 114.2268390000,22.3344910000 114.2266300000,22.3343890000 114.2264630000,22.3343140000 114.2263930000,22.3343150000 114.2263490000,22.3343220000 114.2263110000,22.3343550000 114.2263050000,22.3343950000 114.2263200000,22.3344280000 114.2263490000,22.3344610000 114.2265340000,22.3345130000 114.2266840000,22.3345220000 114.2267930000,22.3345280000 114.2268720000,22.3345280000 114.2269510000,22.3345240000 114.2269760000,22.3345230000 114.2269970000,22.3345210000 114.2270140000,22.3345170000 114.2270340000,22.3345100000 114.2270530000,22.3345010000 114.2270710000,22.3344890000 114.2271030000,22.3344670000 114.2271830000,22.3344340000 114.2272050000,22.3344130000 114.2272280000,22.3343880000 114.2272680000,22.3343370000 114.2275750000,22.3343730000 114.2276950000,22.3343720000 114.2278070000,22.3343710000 114.2279480000,22.3343690000 114.2280470000,22.3343690000 114.2281590000,22.3343790000 114.2282340000,22.3343850000 114.2283140000,22.3343900000 114.2287140000,22.3344210000 114.2291170000,22.3344990000 114.2294100000,22.3345720000 114.2294870000,22.3345880000 114.2295250000,22.3345980000 114.2296780000,22.3346320000 114.2298280000,22.3346590000 114.2299760000,22.3346710000 114.2301670000,22.3346780000 114.2303190000,22.3346590000 114.2304640000,22.3346350000 114.2306080000,22.3345990000 114.2319430000,22.3342030000 114.2325410000,22.3339810000 114.2326010000,22.3339500000 114.2330630000,22.3337030000 114.2333690000,22.3335410000 114.2337730000,22.3333560000 114.2338410000,22.3333300000 114.2339090000,22.3333130000 114.2340780000,22.3332800000 114.2343270000,22.3332590000 114.2344110000,22.3332560000 114.2344930000,22.3332590000 114.2347940000,22.3332890000 114.2352690000,22.3333620000 114.2355590000,22.3334090000 114.2359260000,22.3334780000 114.2362790000,22.3335840000 114.2364540000,22.3336490000 114.2368210000,22.3338480000 114.2373920000,22.3341010000 114.2374500000,22.3341240000 114.2376630000,22.3342080000 114.2377300000,22.3342350000 114.2382100000,22.3343830000 114.2388210000,22.3345450000 114.2390720000,22.3345910000 114.2399060000,22.3347460000 114.2403730000,22.3348400000 114.2407440000,22.3349380000 114.2409770000,22.3350350000 114.2411010000,22.3351090000 114.2413150000,22.3352820000 114.2419450000,22.3360500000 114.2419680000,22.3360780000 114.2422090000,22.3363710000 114.2426020000,22.3368500000 114.2428500000,22.3371760000 114.2430420000,22.3374300000 114.2430610000,22.3374530000 114.2433950000,22.3378760000 114.2435080000,22.3379990000 114.2436450000,22.3380940000 114.2439300000,22.3382160000 114.2442540000,22.3382990000 114.2447960000,22.3384470000 114.2449630000,22.3385040000 114.2451270000,22.3385790000 114.2452800000,22.3386830000 114.2459640000,22.3392380000 114.2466490000,22.3398070000 114.2467480000,22.3398890000 114.2468720000,22.3399690000 114.2471910000,22.3402310000 114.2472330000,22.3402670000 114.2472920000,22.3403380000 114.2473350000,22.3403740000 114.2473830000,22.3404140000 114.2476880000,22.3406550000 114.2478300000,22.3407800000 114.2480270000,22.3410160000 114.2481510000,22.3412650000 114.2481930000,22.3413570000 114.2482290000,22.3414440000 114.2482810000,22.3415870000 114.2485570000,22.3424040000 114.2485920000,22.3424900000 114.2486320000,22.3425730000 114.2486750000,22.3426510000 114.2487150000,22.3427140000 114.2487710000,22.3427930000 114.2488130000,22.3428440000 114.2488720000,22.3429090000 114.2489490000,22.3429850000 114.2490170000,22.3430460000 114.2490860000,22.3431000000 114.2491710000,22.3431570000 114.2492450000,22.3432000000 114.2493340000,22.3432460000 114.2494410000,22.3432950000 114.2495400000,22.3433330000 114.2496160000,22.3433580000 114.2496880000,22.3433760000 114.2497800000,22.3433950000 114.2499010000,22.3434140000 114.2499990000,22.3434240000 114.2502060000,22.3434400000 114.2503290000,22.3434460000 114.2504820000,22.3434450000 114.2506130000,22.3434360000 114.2507430000,22.3434220000 114.2508950000,22.3434000000 114.2510040000,22.3433900000 114.2511040000,22.3433830000 114.2512480000,22.3433830000 114.2513430000,22.3433910000 114.2514380000,22.3434110000 114.2515300000,22.3434430000 114.2516150000,22.3434790000 114.2517090000,22.3435260000 114.2517920000,22.3435780000 114.2521430000,22.3438200000 114.2524920000,22.3440770000 114.2526760000,22.3441430000 114.2527990000,22.3441740000 114.2529890000,22.3442010000 114.2531510000,22.3441500000 114.2532560000,22.3441100000 114.2541970000,22.3437310000 114.2555440000,22.3431900000 114.2556820000,22.3431130000 114.2558200000,22.3430060000 114.2559830000,22.3428330000 114.2560950000,22.3426630000 114.2564420000,22.3421360000 114.2565510000,22.3420340000 114.2568620000,22.3417850000 114.2570180000,22.3417010000 114.2571070000,22.3416740000 114.2571440000,22.3416780000 114.2571840000,22.3416920000 114.2572230000,22.3417150000 114.2572490000,22.3417380000 114.2572740000,22.3417690000 114.2572900000,22.3418040000 114.2573010000,22.3418490000 114.2573000000,22.3418930000 114.2572950000,22.3419260000 114.2572850000,22.3419600000 114.2572650000,22.3420030000 114.2572410000,22.3420450000 114.2570750000,22.3422990000 114.2570010000,22.3424230000 114.2569220000,22.3425700000 114.2569050000,22.3426020000 114.2568810000,22.3426510000 114.2568240000,22.3427680000 114.2567520000,22.3429420000 114.2566830000,22.3430860000 114.2566360000,22.3431740000 114.2565910000,22.3432520000 114.2565350000,22.3433420000 114.2563600000,22.3436020000 114.2562860000,22.3437190000 114.2562130000,22.3438500000 114.2561580000,22.3439640000 114.2561150000,22.3440610000 114.2560440000,22.3442410000 114.2560030000,22.3443800000 114.2559680000,22.3445120000 114.2559280000,22.3446820000 114.2559040000,22.3448100000 114.2558850000,22.3449470000 114.2558620000,22.3451770000 114.2558200000,22.3456890000 114.2557820000,22.3459480000 114.2557440000,22.3461260000 114.2556950000,22.3463110000 114.2556170000,22.3465420000 114.2555610000,22.3466750000 114.2555120000,22.3467820000 114.2554480000,22.3469070000 114.2553700000,22.3470460000 114.2552600000,22.3472110000 114.2548680000,22.3477330000 114.2547820000,22.3478560000 114.2546470000,22.3480720000 114.2545800000,22.3482040000 114.2545090000,22.3483580000 114.2543910000,22.3486730000 114.2543610000,22.3487660000 114.2541860000,22.3494620000 114.2541460000,22.3495990000 114.2541120000,22.3497140000 114.2540800000,22.3498240000 114.2540370000,22.3499690000 114.2539730000,22.3501310000 114.2539410000,22.3502060000 114.2538900000,22.3503100000 114.2538280000,22.3504230000 114.2537690000,22.3505190000 114.2537090000,22.3506060000 114.2536040000,22.3507420000 114.2534680000,22.3508900000 114.2533770000,22.3509760000 114.2532820000,22.3510570000 114.2531710000,22.3511420000 114.2530480000,22.3512260000 114.2529740000,22.3512720000 114.2528850000,22.3513230000 114.2526160000,22.3514540000 114.2523960000,22.3515450000 114.2519310000,22.3517110000 114.2515840000,22.3518360000 114.2512670000,22.3519580000 114.2511060000,22.3520270000 114.2509750000,22.3520900000 114.2507930000,22.3521950000 114.2506270000,22.3523020000 114.2504630000,22.3524310000 114.2504090000,22.3524810000 114.2502070000,22.3526950000 114.2501160000,22.3527820000 114.2500620000,22.3528210000 114.2499960000,22.3528650000 114.2499290000,22.3528820000 114.2498760000,22.3529020000 114.2498350000,22.3529240000 114.2498010000,22.3529520000 114.2497680000,22.3529860000 114.2497450000,22.3530190000 114.2497270000,22.3530550000 114.2497150000,22.3530940000 114.2497070000,22.3531500000 114.2497070000,22.3531970000 114.2497160000,22.3532490000 114.2497290000,22.3532940000 114.2497490000,22.3533340000 114.2497690000,22.3533620000 114.2497920000,22.3533860000 114.2498210000,22.3534090000 114.2498490000,22.3534260000 114.2498840000,22.3534420000 114.2499210000,22.3534540000 114.2499470000,22.3534600000 114.2499950000,22.3534850000 114.2500320000,22.3535090000 114.2500620000,22.3535350000 114.2500870000,22.3535650000 114.2501060000,22.3536030000 114.2501350000,22.3536920000 114.2502030000,22.3538920000 114.2502400000,22.3539870000 114.2502780000,22.3540700000 114.2503270000,22.3541700000 114.2503700000,22.3542520000 114.2504170000,22.3543350000 114.2504670000,22.3544150000 114.2507540000,22.3548500000 114.2508140000,22.3549350000 114.2509230000,22.3550820000 114.2512020000,22.3554940000 114.2512950000,22.3556400000 114.2513510000,22.3557480000 114.2513870000,22.3558290000 114.2514180000,22.3559050000 114.2514420000,22.3559760000 114.2514720000,22.3560740000 114.2515660000,22.3564130000 114.2516450000,22.3567000000 114.2516720000,22.3568000000 114.2517060000,22.3569210000 114.2518750000,22.3575350000 114.2518940000,22.3576410000 114.2519750000,22.3581870000 114.2520450000,22.3585890000 114.2520820000,22.3587920000 114.2522090000,22.3593820000 114.2522270000,22.3594490000 114.2522480000,22.3595150000 114.2522760000,22.3595810000 114.2523040000,22.3596370000 114.2523380000,22.3596970000 114.2523820000,22.3597650000 114.2524370000,22.3598400000 114.2524950000,22.3599130000 114.2525610000,22.3599820000 114.2526360000,22.3600550000 114.2527430000,22.3601500000 114.2528840000,22.3602740000 114.2529020000,22.3602930000 114.2529200000,22.3603180000 114.2529330000,22.3603440000 114.2529460000,22.3603830000 114.2529570000,22.3604250000 114.2529640000,22.3604830000 114.2529660000,22.3605180000 114.2529750000,22.3605510000 114.2529930000,22.3605820000 114.2530180000,22.3606090000 114.2530480000,22.3606300000 114.2530830000,22.3606430000 114.2531200000,22.3606500000 114.2531580000,22.3606490000 114.2531940000,22.3606400000 114.2532270000,22.3606230000 114.2532820000,22.3606100000 114.2533260000,22.3606040000 114.2533720000,22.3606020000 114.2534610000,22.3606070000 114.2535280000,22.3606060000 114.2535950000,22.3606010000 114.2537680000,22.3605740000 114.2538390000,22.3605600000 114.2539750000,22.3605260000 114.2540440000,22.3605030000 114.2541850000,22.3604400000 114.2544050000,22.3603660000 114.2545910000,22.3602930000 114.2546670000,22.3602600000 114.2547230000,22.3602300000 114.2547690000,22.3602000000 114.2548070000,22.3601710000 114.2552520000,22.3597990000 114.2552960000,22.3597630000 114.2553420000,22.3597320000 114.2553940000,22.3597000000 114.2554420000,22.3596750000 114.2555000000,22.3596540000 114.2555630000,22.3596350000 114.2556150000,22.3596240000 114.2556810000,22.3596160000 114.2557370000,22.3596140000 114.2557990000,22.3596160000 114.2558450000,22.3596200000 114.2558860000,22.3596270000 114.2559360000,22.3596390000 114.2559880000,22.3596560000 114.2560280000,22.3596720000 114.2560650000,22.3596900000 114.2561020000,22.3597120000 114.2561400000,22.3597390000 114.2561750000,22.3597670000 114.2562040000,22.3597950000 114.2562330000,22.3598270000 114.2562580000,22.3598570000 114.2562980000,22.3599180000 114.2563330000,22.3599760000 114.2565930000,22.3604490000 114.2566160000,22.3604950000 114.2566330000,22.3605370000 114.2566480000,22.3605800000 114.2566620000,22.3606240000 114.2566740000,22.3606690000 114.2566830000,22.3607190000 114.2566880000,22.3607570000 114.2566890000,22.3607940000 114.2566890000,22.3608360000 114.2566670000,22.3612820000 114.2566660000,22.3613290000 114.2566680000,22.3613740000 114.2566730000,22.3614270000 114.2566810000,22.3614730000 114.2566930000,22.3615140000 114.2567110000,22.3615540000 114.2567280000,22.3615870000 114.2567550000,22.3616270000 114.2568660000,22.3617570000 114.2571890000,22.3621290000 114.2572390000,22.3621930000 114.2572840000,22.3622570000 114.2577500000,22.3630000000 114.2577890000,22.3630570000 114.2578280000,22.3631070000 114.2578690000,22.3631510000 114.2579200000,22.3631970000 114.2579850000,22.3632430000 114.2580380000,22.3632750000 114.2585770000,22.3635610000 114.2586750000,22.3636150000 114.2587890000,22.3636890000 114.2588520000,22.3637450000 114.2589130000,22.3638190000 114.2589520000,22.3638800000 114.2591990000,22.3644020000 114.2592960000,22.3645830000 114.2593390000,22.3646650000 114.2593550000,22.3646960000 114.2594460000,22.3649410000 114.2594940000,22.3650510000 114.2596970000,22.3655100000 114.2599190000,22.3661920000 114.2599470000,22.3662780000 114.2600180000,22.3666170000 114.2600730000,22.3670180000 114.2600870000,22.3671240000 114.2600970000,22.3672430000 114.2600940000,22.3674040000 114.2600920000,22.3675700000 114.2600520000,22.3677820000 114.2600330000,22.3679040000 114.2599400000,22.3683650000 114.2598620000,22.3688060000 114.2596340000,22.3699130000 114.2596140000,22.3701060000 114.2596210000,22.3702820000 114.2596280000,22.3704390000 114.2597350000,22.3709300000 114.2598870000,22.3715890000 114.2599090000,22.3716730000 114.2599690000,22.3719010000 114.2600460000,22.3721090000 114.2601080000,22.3722780000 114.2601840000,22.3725300000 114.2602810000,22.3728490000 114.2603190000,22.3729220000 114.2603800000,22.3729900000 114.2604750000,22.3730770000 114.2606600000,22.3731880000 114.2608140000,22.3733270000 114.2608510000,22.3733720000 114.2608820000,22.3734210000 114.2609680000,22.3736160000 114.2610260000,22.3738430000 114.2612220000,22.3744380000 114.2612490000,22.3745190000 114.2612680000,22.3745910000 114.2612910000,22.3746750000 114.2613660000,22.3748090000 114.2614870000,22.3749270000 114.2615920000,22.3750110000 114.2616680000,22.3750580000 114.2621190000,22.3753300000 114.2622670000,22.3754620000 114.2623050000,22.3754960000 114.2629160000,22.3760650000 114.2630560000,22.3761960000 114.2631550000,22.3762510000 114.2631840000,22.3762640000 114.2632250000,22.3762790000 114.2632950000,22.3762990000 114.2634390000,22.3763340000 114.2634790000,22.3763420000 114.2635150000,22.3763560000 114.2635620000,22.3763770000 114.2636420000,22.3764200000 114.2636690000,22.3764360000 114.2636970000,22.3764590000 114.2644410000,22.3771190000 114.2645190000,22.3771980000 114.2649790000,22.3777360000 114.2653500000,22.3782770000 114.2654680000,22.3784500000 114.2654850000,22.3784740000 114.2659560000,22.3791150000 114.2660560000,22.3792280000 114.2661350000,22.3793040000 114.2662180000,22.3793770000 114.2663130000,22.3794540000 114.2664210000,22.3795200000 114.2668470000,22.3797590000 114.2672960000,22.3800120000 114.2676750000,22.3802340000 114.2677590000,22.3803250000 114.2678580000,22.3803830000 114.2679520000,22.3804380000 114.2680590000,22.3805000000 114.2681860000,22.3805320000 114.2683190000,22.3806090000 114.2684450000,22.3806740000 114.2684810000,22.3806920000 114.2687430000,22.3808040000 114.2687890000,22.3808230000 114.2689190000,22.3808760000 114.2690160000,22.3809160000 114.2691600000,22.3809780000 114.2694820000,22.3810970000 114.2696410000,22.3811520000 114.2697070000,22.3811670000 114.2698110000,22.3811860000 114.2699200000,22.3811980000 114.2699930000,22.3812070000 114.2700840000,22.3812290000 114.2701920000,22.3812630000 114.2702640000,22.3812890000 114.2703370000,22.3813180000 114.2703810000,22.3813410000 114.2704320000,22.3813640000 114.2704720000,22.3813830000 114.2705090000,22.3814000000 114.2705360000,22.3814200000 114.2705550000,22.3814350000 114.2705850000,22.3814580000 114.2706320000,22.3815000000 114.2707300000,22.3815960000 114.2707570000,22.3816300000 114.2708070000,22.3817080000 114.2708530000,22.3817940000 114.2709370000,22.3819950000 114.2709990000,22.3821450000 114.2710350000,22.3822930000 114.2710420000,22.3824080000 114.2710370000,22.3825010000 114.2710140000,22.3826780000 114.2710090000,22.3827060000 114.2709670000,22.3829400000 114.2709170000,22.3831580000 114.2709100000,22.3832050000 114.2709030000,22.3832710000 114.2709070000,22.3834070000 114.2709150000,22.3834710000 114.2709550000,22.3835750000 114.2709570000,22.3836680000 114.2713890000,22.3835660000 114.2714270000,22.3835540000 114.2714690000,22.3835400000 114.2715100000,22.3835190000 114.2715420000,22.3835020000 114.2715670000,22.3834860000 114.2717600000,22.3833320000 114.2718770000,22.3832370000 114.2723250000,22.3828820000 114.2725440000,22.3827080000 114.2730450000,22.3823120000 114.2731590000,22.3824090000 114.2732190000,22.3824540000 114.2732830000,22.3824930000 114.2733510000,22.3825260000 114.2734220000,22.3825530000 114.2734960000,22.3825740000 114.2735440000,22.3825830000 114.2736480000,22.3825940000 114.2737250000,22.3825940000 114.2737880000,22.3825980000 114.2738510000,22.3826090000 114.2739110000,22.3826270000 114.2739670000,22.3826530000 114.2740200000,22.3826850000 114.2740680000,22.3827230000 114.2741100000,22.3827670000 114.2741460000,22.3828160000 114.2745530000,22.3832920000 114.2745920000,22.3833390000 114.2746020000,22.3833510000 114.2752570000,22.3843530000 114.2752930000,22.3844220000 114.2753240000,22.3844930000 114.2753480000,22.3845670000 114.2753650000,22.3846420000 114.2753750000,22.3847180000 114.2753780000,22.3847720000 114.2755380000,22.3847980000 114.2757640000,22.3848360000 114.2758710000,22.3848540000 114.2759500000,22.3848690000 114.2760270000,22.3848910000 114.2761010000,22.3849200000 114.2761720000,22.3849540000 114.2762400000,22.3849950000 114.2763090000,22.3850360000 114.2763660000,22.3850700000 114.2763940000,22.3850800000 114.2764240000,22.3850840000 114.2764540000,22.3850830000 114.2764830000,22.3850750000 114.2765100000,22.3850630000 114.2765330000,22.3850450000 114.2765520000,22.3850240000 114.2766540000,22.3848970000 114.2767580000,22.3847670000 114.2767770000,22.3847400000 114.2767900000,22.3847100000 114.2767990000,22.3846790000 114.2768040000,22.3846470000 114.2768060000,22.3845840000 114.2768120000,22.3842030000 114.2767530000,22.3841580000 114.2763210000,22.3841520000</coordinates>
                </LineString>
                <ExtendedData>
                    <Data name="duration">
                        <value>00:57:08</value>
                    </Data>
                    <Data name="length">
                        <value>41073.048282987904</value>
                    </Data>
                </ExtendedData>
            </Placemark>
        </Document>
    </Document>
</kml>