<?xml version="1.0" encoding="UTF-8"?>
<kml xmlns="http://www.opengis.net/kml/2.2" xmlns:gx="http://www.google.com/kml/ext/2.2">
    <Document>
        <name>Route</name>
        <Folder>
            <name>Route Request</name>
            <Placemark>
                <Point>
                    <coordinates>114.1314061508,22.3630994832</coordinates>
                </Point>
                <ExtendedData>
                    <Data name="routingVisited">
                        <value>false</value>
                    </Data>
                </ExtendedData>
            </Placemark>
            <Placemark>
                <Point>
                    <coordinates>114.1163126519,22.3628949832</coordinates>
                </Point>
                <ExtendedData>
                    <Data name="routingVisited">
                        <value>false</value>
                    </Data>
                </ExtendedData>
            </Placemark>
            <Placemark>
                <address>ICE FIRE, Pak Hok Ting Street, Tai Wai, Sha Tin, Sha Tin District, Hong Kong, DD186 484, PRC</address>
                <Point>
                    <coordinates>114.1884595568,22.3795033568</coordinates>
                </Point>
                <ExtendedData>
                    <Data name="suburb">
                        <value>Tai Wai</value>
                    </Data>
                    <Data name="country_code">
                        <value>cn</value>
                    </Data>
                    <Data name="clothes">
                        <value>ICE FIRE</value>
                    </Data>
                    <Data name="country">
                        <value>PRC</value>
                    </Data>
                    <Data name="postcode">
                        <value>DD186 484</value>
                    </Data>
                    <Data name="road">
                        <value>Pak Hok Ting Street</value>
                    </Data>
                    <Data name="county">
                        <value>Sha Tin District</value>
                    </Data>
                    <Data name="town">
                        <value>Sha Tin</value>
                    </Data>
                </ExtendedData>
            </Placemark>
            <Placemark>
                <address>Lucky Plaza, 1-15, Wang Pok Street, Yuen Chau Kok, Sha Tin, Sha Tin District, Hong Kong, STTL 531, PRC</address>
                <Point>
                    <coordinates>114.1905628892,22.3830068782</coordinates>
                </Point>
                <ExtendedData>
                    <Data name="house_number">
                        <value>1-15</value>
                    </Data>
                    <Data name="suburb">
                        <value>Yuen Chau Kok</value>
                    </Data>
                    <Data name="country_code">
                        <value>cn</value>
                    </Data>
                    <Data name="mall">
                        <value>Lucky Plaza</value>
                    </Data>
                    <Data name="country">
                        <value>PRC</value>
                    </Data>
                    <Data name="postcode">
                        <value>STTL 531</value>
                    </Data>
                    <Data name="road">
                        <value>Wang Pok Street</value>
                    </Data>
                    <Data name="county">
                        <value>Sha Tin District</value>
                    </Data>
                    <Data name="town">
                        <value>Sha Tin</value>
                    </Data>
                </ExtendedData>
            </Placemark>
            <Placemark>
                <address>Manhattan Heights, Tai Chung Kiu Road, Yuen Chau Kok, Sha Tin, Sha Tin District, Hong Kong, STTL 531, PRC</address>
                <Point>
                    <coordinates>114.1968002352,22.3883009901</coordinates>
                </Point>
                <ExtendedData>
                    <Data name="routingVisited">
                        <value>false</value>
                    </Data>
                    <Data name="suburb">
                        <value>Yuen Chau Kok</value>
                    </Data>
                    <Data name="country_code">
                        <value>cn</value>
                    </Data>
                    <Data name="building">
                        <value>Manhattan Heights</value>
                    </Data>
                    <Data name="country">
                        <value>PRC</value>
                    </Data>
                    <Data name="postcode">
                        <value>STTL 531</value>
                    </Data>
                    <Data name="road">
                        <value>Tai Chung Kiu Road</value>
                    </Data>
                    <Data name="county">
                        <value>Sha Tin District</value>
                    </Data>
                    <Data name="town">
                        <value>Sha Tin</value>
                    </Data>
                </ExtendedData>
            </Placemark>
            <Placemark>
                <Point>
                    <coordinates>114.2071966627,22.3929754641</coordinates>
                </Point>
            </Placemark>
            <Placemark>
                <Point>
                    <coordinates>114.2083779277,22.3906719013</coordinates>
                </Point>
            </Placemark>
            <Placemark>
                <address>Ngau Pei Sha Street, Siu Lek Yuen, Shek Kwu Lung, Sha Tin District, Hong Kong, DD193 1132, PRC</address>
                <Point>
                    <coordinates>114.2070287947,22.3809598415</coordinates>
                </Point>
                <ExtendedData>
                    <Data name="suburb">
                        <value>Siu Lek Yuen</value>
                    </Data>
                    <Data name="country_code">
                        <value>cn</value>
                    </Data>
                    <Data name="hamlet">
                        <value>Shek Kwu Lung</value>
                    </Data>
                    <Data name="country">
                        <value>PRC</value>
                    </Data>
                    <Data name="postcode">
                        <value>DD193 1132</value>
                    </Data>
                    <Data name="road">
                        <value>Ngau Pei Sha Street</value>
                    </Data>
                    <Data name="county">
                        <value>Sha Tin District</value>
                    </Data>
                </ExtendedData>
            </Placemark>
            <Placemark>
                <address>Stewards Pooi Kei College, 56, Siu Lek Yuen Road, Siu Lek Yuen, Shek Kwu Lung, Sha Tin District, Hong Kong, DD193 1132, PRC</address>
                <Point>
                    <coordinates>114.2139427276,22.3829951475</coordinates>
                </Point>
                <ExtendedData>
                    <Data name="house_number">
                        <value>56</value>
                    </Data>
                    <Data name="suburb">
                        <value>Siu Lek Yuen</value>
                    </Data>
                    <Data name="school">
                        <value>Stewards Pooi Kei College</value>
                    </Data>
                    <Data name="country_code">
                        <value>cn</value>
                    </Data>
                    <Data name="hamlet">
                        <value>Shek Kwu Lung</value>
                    </Data>
                    <Data name="country">
                        <value>PRC</value>
                    </Data>
                    <Data name="postcode">
                        <value>DD193 1132</value>
                    </Data>
                    <Data name="road">
                        <value>Siu Lek Yuen Road</value>
                    </Data>
                    <Data name="county">
                        <value>Sha Tin District</value>
                    </Data>
                </ExtendedData>
            </Placemark>
            <Placemark>
                <address>60, Siu Lek Yuen Road, Siu Lek Yuen, Shek Kwu Lung, Sha Tin District, Hong Kong, DD193 1190, PRC</address>
                <Point>
                    <coordinates>114.2173420406,22.3827146062</coordinates>
                </Point>
                <ExtendedData>
                    <Data name="house_number">
                        <value>60</value>
                    </Data>
                    <Data name="suburb">
                        <value>Siu Lek Yuen</value>
                    </Data>
                    <Data name="country_code">
                        <value>cn</value>
                    </Data>
                    <Data name="hamlet">
                        <value>Shek Kwu Lung</value>
                    </Data>
                    <Data name="country">
                        <value>PRC</value>
                    </Data>
                    <Data name="postcode">
                        <value>DD193 1190</value>
                    </Data>
                    <Data name="road">
                        <value>Siu Lek Yuen Road</value>
                    </Data>
                    <Data name="county">
                        <value>Sha Tin District</value>
                    </Data>
                </ExtendedData>
            </Placemark>
            <Placemark>
                <Point>
                    <coordinates>114.2077269889,22.3799132119</coordinates>
                </Point>
                <ExtendedData>
                    <Data name="routingVisited">
                        <value>false</value>
                    </Data>
                </ExtendedData>
            </Placemark>
            <Placemark>
                <address>Siu Lek Yuen Fire Station, Yuen Shun Circuit, Yuen Chau Kok, Shek Kwu Lung, Sha Tin District, Hong Kong, DD193 1132, PRC</address>
                <Point>
                    <coordinates>114.2046995212,22.3827967182</coordinates>
                </Point>
                <ExtendedData>
                    <Data name="fire_station">
                        <value>Siu Lek Yuen Fire Station</value>
                    </Data>
                    <Data name="suburb">
                        <value>Yuen Chau Kok</value>
                    </Data>
                    <Data name="country_code">
                        <value>cn</value>
                    </Data>
                    <Data name="hamlet">
                        <value>Shek Kwu Lung</value>
                    </Data>
                    <Data name="country">
                        <value>PRC</value>
                    </Data>
                    <Data name="postcode">
                        <value>DD193 1132</value>
                    </Data>
                    <Data name="road">
                        <value>Yuen Shun Circuit</value>
                    </Data>
                    <Data name="county">
                        <value>Sha Tin District</value>
                    </Data>
                </ExtendedData>
            </Placemark>
            <Placemark>
                <Point>
                    <coordinates>114.2081537711,22.3908049106</coordinates>
                </Point>
            </Placemark>
            <Placemark>
                <address>Regal Riverside Hotel, Tai Chung Kiu Road, Yuen Chau Kok, Sha Tin, Sha Tin District, Hong Kong, STTL 531, PRC</address>
                <Point>
                    <coordinates>114.1932451038,22.3840630739</coordinates>
                </Point>
                <ExtendedData>
                    <Data name="routingVisited">
                        <value>false</value>
                    </Data>
                    <Data name="suburb">
                        <value>Yuen Chau Kok</value>
                    </Data>
                    <Data name="country_code">
                        <value>cn</value>
                    </Data>
                    <Data name="bus_stop">
                        <value>Regal Riverside Hotel</value>
                    </Data>
                    <Data name="country">
                        <value>PRC</value>
                    </Data>
                    <Data name="postcode">
                        <value>STTL 531</value>
                    </Data>
                    <Data name="road">
                        <value>Tai Chung Kiu Road</value>
                    </Data>
                    <Data name="county">
                        <value>Sha Tin District</value>
                    </Data>
                    <Data name="town">
                        <value>Sha Tin</value>
                    </Data>
                </ExtendedData>
            </Placemark>
            <Placemark>
                <address>Lucky Plaza, 1-15, Wang Pok Street, Yuen Chau Kok, Sha Tin, Sha Tin District, Hong Kong, STTL 531, PRC</address>
                <Point>
                    <coordinates>114.1905628892,22.3830068782</coordinates>
                </Point>
                <ExtendedData>
                    <Data name="house_number">
                        <value>1-15</value>
                    </Data>
                    <Data name="suburb">
                        <value>Yuen Chau Kok</value>
                    </Data>
                    <Data name="country_code">
                        <value>cn</value>
                    </Data>
                    <Data name="mall">
                        <value>Lucky Plaza</value>
                    </Data>
                    <Data name="country">
                        <value>PRC</value>
                    </Data>
                    <Data name="postcode">
                        <value>STTL 531</value>
                    </Data>
                    <Data name="road">
                        <value>Wang Pok Street</value>
                    </Data>
                    <Data name="county">
                        <value>Sha Tin District</value>
                    </Data>
                    <Data name="town">
                        <value>Sha Tin</value>
                    </Data>
                </ExtendedData>
            </Placemark>
            <Placemark>
                <address>Lucky Plaza, 1-15, Wang Pok Street, Yuen Chau Kok, Sha Tin, Sha Tin District, Hong Kong, STTL 531, PRC</address>
                <Point>
                    <coordinates>114.1905410287,22.3830105007</coordinates>
                </Point>
                <ExtendedData>
                    <Data name="house_number">
                        <value>1-15</value>
                    </Data>
                    <Data name="suburb">
                        <value>Yuen Chau Kok</value>
                    </Data>
                    <Data name="country_code">
                        <value>cn</value>
                    </Data>
                    <Data name="mall">
                        <value>Lucky Plaza</value>
                    </Data>
                    <Data name="country">
                        <value>PRC</value>
                    </Data>
                    <Data name="postcode">
                        <value>STTL 531</value>
                    </Data>
                    <Data name="road">
                        <value>Wang Pok Street</value>
                    </Data>
                    <Data name="county">
                        <value>Sha Tin District</value>
                    </Data>
                    <Data name="town">
                        <value>Sha Tin</value>
                    </Data>
                </ExtendedData>
            </Placemark>
            <Placemark>
                <Point>
                    <coordinates>114.1183806321,22.3628676693</coordinates>
                </Point>
            </Placemark>
            <Placemark>
                <Point>
                    <coordinates>114.1314061506,22.3630858228</coordinates>
                </Point>
                <ExtendedData>
                    <Data name="routingVisited">
                        <value>false</value>
                    </Data>
                </ExtendedData>
            </Placemark>
        </Folder>
        <Document>
            <name>40.2 km; 00:50 h (OSRM)</name>
            <Placemark>
                <name>Route</name>
                <LineString>
                    <coordinates>114.1315780000,22.3630970000 114.1315810000,22.3632790000 114.1315820000,22.3633600000 114.1315420000,22.3633780000 114.1314870000,22.3634230000 114.1314470000,22.3634650000 114.1313870000,22.3635220000 114.1313870000,22.3635520000 114.1313880000,22.3635990000 114.1313960000,22.3638630000 114.1314030000,22.3639640000 114.1314120000,22.3640120000 114.1314510000,22.3641290000 114.1317000000,22.3640530000 114.1322610000,22.3638810000 114.1321100000,22.3634730000 114.1319990000,22.3632060000 114.1317700000,22.3626810000 114.1317490000,22.3626310000 114.1317330000,22.3625960000 114.1316590000,22.3624500000 114.1315850000,22.3622910000 114.1315300000,22.3621980000 114.1314980000,22.3621190000 114.1314650000,22.3620740000 114.1313960000,22.3620180000 114.1313460000,22.3619850000 114.1313110000,22.3619740000 114.1312730000,22.3619650000 114.1312400000,22.3619630000 114.1311660000,22.3619660000 114.1310950000,22.3619800000 114.1310560000,22.3620010000 114.1310310000,22.3620140000 114.1310070000,22.3620270000 114.1308880000,22.3621160000 114.1308310000,22.3620660000 114.1306920000,22.3619450000 114.1305750000,22.3618300000 114.1303820000,22.3616300000 114.1303050000,22.3615490000 114.1302440000,22.3614920000 114.1301320000,22.3613930000 114.1300660000,22.3613340000 114.1299850000,22.3613070000 114.1298150000,22.3611470000 114.1297940000,22.3611270000 114.1297160000,22.3610530000 114.1296750000,22.3610150000 114.1295670000,22.3609160000 114.1294000000,22.3607640000 114.1292630000,22.3606370000 114.1288730000,22.3602680000 114.1288510000,22.3601930000 114.1288210000,22.3601640000 114.1287230000,22.3600590000 114.1286010000,22.3599460000 114.1285570000,22.3599050000 114.1284250000,22.3598430000 114.1283660000,22.3597780000 114.1281400000,22.3595630000 114.1280930000,22.3595210000 114.1279300000,22.3593660000 114.1278530000,22.3592910000 114.1278080000,22.3592420000 114.1277710000,22.3591510000 114.1276080000,22.3589990000 114.1275760000,22.3589670000 114.1275370000,22.3589280000 114.1274640000,22.3588380000 114.1274040000,22.3587870000 114.1273790000,22.3587650000 114.1273150000,22.3587050000 114.1272460000,22.3586390000 114.1271140000,22.3585390000 114.1268920000,22.3583870000 114.1266770000,22.3582350000 114.1263880000,22.3580260000 114.1262010000,22.3578880000 114.1261200000,22.3578280000 114.1259580000,22.3577110000 114.1257670000,22.3575730000 114.1256910000,22.3575180000 114.1256610000,22.3574940000 114.1253730000,22.3572570000 114.1251900000,22.3571280000 114.1251150000,22.3570700000 114.1250090000,22.3569810000 114.1249170000,22.3569090000 114.1247830000,22.3568060000 114.1244810000,22.3565730000 114.1242000000,22.3563640000 114.1239420000,22.3561730000 114.1238280000,22.3560440000 114.1236690000,22.3559890000 114.1235390000,22.3558630000 114.1235100000,22.3558390000 114.1233860000,22.3557350000 114.1233360000,22.3557170000 114.1233210000,22.3557140000 114.1232300000,22.3556860000 114.1231270000,22.3556940000 114.1230380000,22.3557030000 114.1229590000,22.3557080000 114.1228420000,22.3557390000 114.1227580000,22.3557690000 114.1226240000,22.3559120000 114.1224630000,22.3560810000 114.1219990000,22.3565870000 114.1217840000,22.3568360000 114.1216790000,22.3569650000 114.1216230000,22.3570330000 114.1215490000,22.3571540000 114.1214480000,22.3572500000 114.1212350000,22.3574500000 114.1210950000,22.3575870000 114.1209920000,22.3577110000 114.1206480000,22.3580690000 114.1204730000,22.3582510000 114.1202560000,22.3585330000 114.1200110000,22.3588980000 114.1198730000,22.3591260000 114.1197150000,22.3594300000 114.1196030000,22.3596810000 114.1194560000,22.3600060000 114.1192730000,22.3603720000 114.1192210000,22.3605200000 114.1192030000,22.3605700000 114.1191560000,22.3607140000 114.1190670000,22.3609850000 114.1190420000,22.3610390000 114.1190130000,22.3611140000 114.1189860000,22.3611760000 114.1189100000,22.3613470000 114.1187930000,22.3615790000 114.1186510000,22.3618230000 114.1186140000,22.3618850000 114.1185070000,22.3620470000 114.1184340000,22.3621530000 114.1182820000,22.3623460000 114.1181860000,22.3624460000 114.1180060000,22.3626060000 114.1178550000,22.3627470000 114.1177020000,22.3628860000 114.1175730000,22.3629970000 114.1174990000,22.3630540000 114.1174310000,22.3631110000 114.1172890000,22.3632090000 114.1170240000,22.3633830000 114.1169680000,22.3634210000 114.1169070000,22.3634570000 114.1168340000,22.3634730000 114.1167020000,22.3635020000 114.1166540000,22.3635090000 114.1166360000,22.3635110000 114.1166140000,22.3635120000 114.1165970000,22.3635130000 114.1165760000,22.3635140000 114.1165280000,22.3635130000 114.1164840000,22.3635120000 114.1164410000,22.3635050000 114.1163980000,22.3634940000 114.1163500000,22.3634770000 114.1163060000,22.3634530000 114.1162690000,22.3634290000 114.1162410000,22.3634060000 114.1162150000,22.3633790000 114.1161930000,22.3633510000 114.1161690000,22.3633100000 114.1161520000,22.3632760000 114.1161420000,22.3632500000 114.1161320000,22.3632150000 114.1161280000,22.3631820000 114.1161270000,22.3631430000 114.1161290000,22.3631110000 114.1161340000,22.3630800000 114.1161440000,22.3630500000 114.1161570000,22.3630190000 114.1161730000,22.3629890000 114.1161950000,22.3629560000 114.1162170000,22.3629300000 114.1162490000,22.3628970000 114.1162910000,22.3628660000 114.1162920000,22.3628660000 114.1163310000,22.3628410000 114.1163810000,22.3628200000 114.1164330000,22.3628040000 114.1164890000,22.3627920000 114.1165450000,22.3627860000 114.1166080000,22.3627850000 114.1166720000,22.3627850000 114.1167340000,22.3627930000 114.1167900000,22.3628050000 114.1168570000,22.3628180000 114.1169960000,22.3628340000 114.1172600000,22.3629480000 114.1174080000,22.3630140000 114.1176830000,22.3631440000 114.1181620000,22.3633320000 114.1183000000,22.3633730000 114.1186250000,22.3634700000 114.1190370000,22.3635900000 114.1191260000,22.3636160000 114.1192310000,22.3636540000 114.1192980000,22.3636820000 114.1194680000,22.3637600000 114.1195780000,22.3638130000 114.1196710000,22.3638770000 114.1197930000,22.3639690000 114.1199450000,22.3641220000 114.1200260000,22.3642080000 114.1200980000,22.3642970000 114.1202960000,22.3645210000 114.1204940000,22.3647850000 114.1207630000,22.3651080000 114.1208650000,22.3652780000 114.1209700000,22.3654710000 114.1210400000,22.3656900000 114.1210880000,22.3658550000 114.1211580000,22.3661540000 114.1212420000,22.3665250000 114.1213040000,22.3667150000 114.1213990000,22.3669800000 114.1214840000,22.3671630000 114.1215620000,22.3673510000 114.1218300000,22.3677190000 114.1221570000,22.3682160000 114.1223720000,22.3685450000 114.1224520000,22.3686810000 114.1225580000,22.3688440000 114.1227870000,22.3691960000 114.1229100000,22.3693820000 114.1229550000,22.3695040000 114.1229940000,22.3695690000 114.1231030000,22.3697510000 114.1231800000,22.3698890000 114.1232150000,22.3699690000 114.1232700000,22.3701100000 114.1233080000,22.3702060000 114.1233600000,22.3704070000 114.1233940000,22.3706320000 114.1234000000,22.3708870000 114.1233990000,22.3709780000 114.1233670000,22.3713720000 114.1233590000,22.3714500000 114.1233490000,22.3715410000 114.1233310000,22.3717120000 114.1232890000,22.3720180000 114.1232590000,22.3721450000 114.1232020000,22.3723540000 114.1231600000,22.3724820000 114.1231170000,22.3726040000 114.1230570000,22.3727440000 114.1229890000,22.3728940000 114.1228890000,22.3730840000 114.1227880000,22.3732570000 114.1226810000,22.3734180000 114.1225340000,22.3736150000 114.1224040000,22.3737720000 114.1222300000,22.3739500000 114.1221070000,22.3740650000 114.1219270000,22.3742090000 114.1214770000,22.3745430000 114.1213330000,22.3746390000 114.1212340000,22.3746920000 114.1211170000,22.3747350000 114.1210040000,22.3747600000 114.1208720000,22.3747490000 114.1208020000,22.3747240000 114.1207230000,22.3747040000 114.1205880000,22.3746870000 114.1204570000,22.3746920000 114.1203680000,22.3747050000 114.1202810000,22.3747290000 114.1201990000,22.3747550000 114.1201370000,22.3747810000 114.1200610000,22.3748260000 114.1199910000,22.3748850000 114.1199360000,22.3749600000 114.1199000000,22.3750410000 114.1198830000,22.3751450000 114.1198840000,22.3752180000 114.1198890000,22.3752900000 114.1199020000,22.3753590000 114.1199170000,22.3754150000 114.1199490000,22.3754790000 114.1199940000,22.3755580000 114.1200430000,22.3756230000 114.1200940000,22.3756830000 114.1201480000,22.3757380000 114.1201890000,22.3757770000 114.1202380000,22.3758160000 114.1202910000,22.3758470000 114.1203490000,22.3758730000 114.1204230000,22.3758960000 114.1205010000,22.3759200000 114.1205760000,22.3759340000 114.1206780000,22.3759400000 114.1207740000,22.3759420000 114.1209680000,22.3759620000 114.1211970000,22.3759910000 114.1213460000,22.3760150000 114.1213910000,22.3760260000 114.1217500000,22.3761190000 114.1219680000,22.3761740000 114.1221960000,22.3762330000 114.1225080000,22.3763180000 114.1229680000,22.3764490000 114.1233100000,22.3765350000 114.1261570000,22.3776180000 114.1277070000,22.3782130000 114.1284580000,22.3785020000 114.1305460000,22.3792880000 114.1309460000,22.3794410000 114.1312460000,22.3795710000 114.1314030000,22.3796460000 114.1314890000,22.3796890000 114.1315680000,22.3797320000 114.1317470000,22.3798300000 114.1318450000,22.3798870000 114.1321130000,22.3800450000 114.1328990000,22.3805310000 114.1331640000,22.3807050000 114.1334570000,22.3808890000 114.1335660000,22.3809560000 114.1337440000,22.3810670000 114.1340270000,22.3812200000 114.1341810000,22.3812960000 114.1343670000,22.3813770000 114.1346580000,22.3814950000 114.1348360000,22.3815610000 114.1349920000,22.3815950000 114.1351410000,22.3816280000 114.1352360000,22.3816490000 114.1354170000,22.3816900000 114.1356530000,22.3817190000 114.1360270000,22.3817520000 114.1364060000,22.3817610000 114.1364920000,22.3817660000 114.1367620000,22.3817680000 114.1368180000,22.3817650000 114.1371150000,22.3817600000 114.1373310000,22.3817560000 114.1374660000,22.3817510000 114.1375150000,22.3817490000 114.1376310000,22.3817380000 114.1377390000,22.3817220000 114.1380020000,22.3816730000 114.1381550000,22.3816280000 114.1383610000,22.3815560000 114.1385410000,22.3814750000 114.1385690000,22.3814600000 114.1386050000,22.3814430000 114.1386450000,22.3814220000 114.1388270000,22.3813240000 114.1390060000,22.3811960000 114.1391470000,22.3810740000 114.1393030000,22.3808900000 114.1394340000,22.3807370000 114.1396370000,22.3805000000 114.1400060000,22.3801180000 114.1404220000,22.3797230000 114.1408050000,22.3794220000 114.1413630000,22.3789950000 114.1418500000,22.3786680000 114.1425300000,22.3782150000 114.1435000000,22.3776950000 114.1442690000,22.3773490000 114.1448100000,22.3771480000 114.1453750000,22.3769660000 114.1462140000,22.3767550000 114.1468630000,22.3766410000 114.1476120000,22.3765350000 114.1483130000,22.3764840000 114.1488280000,22.3764650000 114.1493070000,22.3764760000 114.1497940000,22.3765020000 114.1502430000,22.3765510000 114.1506900000,22.3766190000 114.1511730000,22.3767040000 114.1515960000,22.3767950000 114.1517970000,22.3768400000 114.1521780000,22.3769350000 114.1524250000,22.3770010000 114.1629240000,22.3800620000 114.1632440000,22.3801510000 114.1642000000,22.3803930000 114.1646610000,22.3804940000 114.1650150000,22.3805640000 114.1657480000,22.3806840000 114.1659170000,22.3807090000 114.1663390000,22.3807780000 114.1674320000,22.3810070000 114.1681910000,22.3811930000 114.1687460000,22.3813150000 114.1689800000,22.3813730000 114.1691720000,22.3814230000 114.1693480000,22.3814720000 114.1696830000,22.3815780000 114.1700270000,22.3817000000 114.1702070000,22.3817720000 114.1704470000,22.3818710000 114.1706570000,22.3819640000 114.1712260000,22.3822250000 114.1713960000,22.3822970000 114.1715070000,22.3823410000 114.1716420000,22.3823900000 114.1718020000,22.3824460000 114.1719390000,22.3824890000 114.1720720000,22.3825250000 114.1721690000,22.3825470000 114.1722560000,22.3825670000 114.1723600000,22.3825880000 114.1724250000,22.3825990000 114.1725250000,22.3826120000 114.1726190000,22.3826220000 114.1727260000,22.3826300000 114.1728210000,22.3826350000 114.1729120000,22.3826380000 114.1730060000,22.3826400000 114.1731000000,22.3826380000 114.1732130000,22.3826320000 114.1733230000,22.3826250000 114.1734460000,22.3826120000 114.1735760000,22.3825960000 114.1736790000,22.3825780000 114.1737910000,22.3825560000 114.1739010000,22.3825300000 114.1740110000,22.3825020000 114.1741290000,22.3824680000 114.1742390000,22.3824300000 114.1743340000,22.3823950000 114.1744320000,22.3823560000 114.1745280000,22.3823130000 114.1746390000,22.3822600000 114.1747470000,22.3822070000 114.1748390000,22.3821580000 114.1749240000,22.3821090000 114.1750430000,22.3820340000 114.1751440000,22.3819650000 114.1752490000,22.3818880000 114.1753530000,22.3818070000 114.1754830000,22.3817030000 114.1756550000,22.3815560000 114.1762760000,22.3809870000 114.1775110000,22.3798370000 114.1781380000,22.3792570000 114.1790060000,22.3784720000 114.1792920000,22.3782190000 114.1794350000,22.3781040000 114.1795430000,22.3780240000 114.1796890000,22.3779230000 114.1798160000,22.3778420000 114.1799210000,22.3777810000 114.1800610000,22.3777110000 114.1801640000,22.3776680000 114.1802600000,22.3776320000 114.1803650000,22.3775950000 114.1804790000,22.3775600000 114.1805770000,22.3775350000 114.1806850000,22.3775160000 114.1807930000,22.3775010000 114.1809020000,22.3774910000 114.1810020000,22.3774850000 114.1810990000,22.3774830000 114.1812070000,22.3774840000 114.1813060000,22.3774890000 114.1813940000,22.3774980000 114.1814780000,22.3775110000 114.1815500000,22.3775240000 114.1816480000,22.3775410000 114.1817550000,22.3775640000 114.1819540000,22.3776170000 114.1821380000,22.3776700000 114.1822160000,22.3776930000 114.1823660000,22.3777390000 114.1829230000,22.3779200000 114.1832790000,22.3780350000 114.1834350000,22.3780830000 114.1836530000,22.3781960000 114.1838780000,22.3782740000 114.1840230000,22.3783240000 114.1841540000,22.3783750000 114.1842710000,22.3784260000 114.1843210000,22.3784490000 114.1843630000,22.3784690000 114.1843970000,22.3784850000 114.1845340000,22.3785510000 114.1846220000,22.3786010000 114.1847510000,22.3786820000 114.1849230000,22.3787940000 114.1851710000,22.3789820000 114.1852860000,22.3790850000 114.1854000000,22.3791910000 114.1855110000,22.3793180000 114.1856050000,22.3794330000 114.1857780000,22.3796570000 114.1860420000,22.3800660000 114.1862060000,22.3803560000 114.1863010000,22.3805200000 114.1864290000,22.3807390000 114.1866180000,22.3810160000 114.1869040000,22.3814170000 114.1873320000,22.3819690000 114.1875960000,22.3822890000 114.1878460000,22.3826090000 114.1879560000,22.3827580000 114.1883510000,22.3832800000 114.1884260000,22.3834420000 114.1885450000,22.3836950000 114.1887040000,22.3839390000 114.1889160000,22.3842630000 114.1891360000,22.3845810000 114.1892360000,22.3847220000 114.1892800000,22.3847610000 114.1893320000,22.3847980000 114.1893780000,22.3848180000 114.1894210000,22.3848320000 114.1894630000,22.3848260000 114.1895940000,22.3848000000 114.1896820000,22.3847790000 114.1897750000,22.3847030000 114.1898850000,22.3846030000 114.1899600000,22.3845310000 114.1900310000,22.3844660000 114.1900700000,22.3844300000 114.1902050000,22.3843150000 114.1903480000,22.3841940000 114.1905410000,22.3840310000 114.1906410000,22.3839440000 114.1910520000,22.3835960000 114.1914070000,22.3832890000 114.1916560000,22.3830870000 114.1916890000,22.3830590000 114.1918420000,22.3829540000 114.1919550000,22.3828760000 114.1918810000,22.3827750000 114.1916090000,22.3824660000 114.1912080000,22.3820590000 114.1911390000,22.3820010000 114.1910230000,22.3818750000 114.1908210000,22.3816730000 114.1907870000,22.3816510000 114.1907310000,22.3816270000 114.1906910000,22.3816250000 114.1906230000,22.3816400000 114.1905640000,22.3816720000 114.1901070000,22.3820370000 114.1900180000,22.3821100000 114.1899750000,22.3821460000 114.1899490000,22.3821680000 114.1898640000,22.3822380000 114.1897300000,22.3823480000 114.1896880000,22.3823820000 114.1896420000,22.3824210000 114.1896040000,22.3824530000 114.1894480000,22.3825680000 114.1893280000,22.3826220000 114.1892670000,22.3826240000 114.1892080000,22.3825970000 114.1891690000,22.3825690000 114.1891340000,22.3825370000 114.1889510000,22.3823670000 114.1888980000,22.3823170000 114.1888650000,22.3822840000 114.1888380000,22.3822560000 114.1887860000,22.3822010000 114.1885980000,22.3820010000 114.1883520000,22.3817370000 114.1882370000,22.3816180000 114.1880140000,22.3813780000 114.1878040000,22.3811410000 114.1877640000,22.3810900000 114.1877360000,22.3810310000 114.1877170000,22.3809640000 114.1877090000,22.3808990000 114.1877200000,22.3807760000 114.1878660000,22.3802570000 114.1879320000,22.3802040000 114.1879920000,22.3801790000 114.1880500000,22.3801780000 114.1880900000,22.3801750000 114.1881320000,22.3801420000 114.1881450000,22.3801090000 114.1881890000,22.3799450000 114.1883310000,22.3794700000 114.1883400000,22.3794410000 114.1883860000,22.3792830000 114.1883960000,22.3792130000 114.1883860000,22.3791360000 114.1883530000,22.3790690000 114.1883070000,22.3789960000 114.1882300000,22.3789670000 114.1881670000,22.3789480000 114.1880650000,22.3789460000 114.1875890000,22.3788290000 114.1874940000,22.3788520000 114.1874480000,22.3788700000 114.1874100000,22.3789010000 114.1873880000,22.3789360000 114.1873560000,22.3790190000 114.1872080000,22.3795660000 114.1872010000,22.3795920000 114.1871800000,22.3796680000 114.1871740000,22.3796910000 114.1871630000,22.3797330000 114.1870200000,22.3802240000 114.1870090000,22.3802810000 114.1870100000,22.3803390000 114.1870220000,22.3803970000 114.1870410000,22.3804630000 114.1870700000,22.3805140000 114.1871080000,22.3805550000 114.1873360000,22.3808140000 114.1875190000,22.3810030000 114.1875370000,22.3810160000 114.1876230000,22.3811070000 114.1877070000,22.3811950000 114.1880110000,22.3815120000 114.1881680000,22.3816760000 114.1882830000,22.3817950000 114.1885270000,22.3820560000 114.1887230000,22.3822620000 114.1888000000,22.3823400000 114.1888290000,22.3823700000 114.1888860000,22.3824320000 114.1889400000,22.3825080000 114.1889770000,22.3825520000 114.1892700000,22.3828570000 114.1892920000,22.3828790000 114.1897470000,22.3833500000 114.1900350000,22.3831140000 114.1901480000,22.3830300000 114.1901780000,22.3830060000 114.1903910000,22.3828300000 114.1905030000,22.3827370000 114.1905510000,22.3826970000 114.1906020000,22.3826580000 114.1906440000,22.3826230000 114.1907970000,22.3824940000 114.1908390000,22.3824570000 114.1910420000,22.3822940000 114.1911420000,22.3822690000 114.1911910000,22.3822840000 114.1912740000,22.3823160000 114.1913550000,22.3824000000 114.1916670000,22.3827460000 114.1917620000,22.3828570000 114.1918420000,22.3829540000 114.1922130000,22.3833510000 114.1923150000,22.3834590000 114.1925980000,22.3837430000 114.1926430000,22.3837900000 114.1930340000,22.3841990000 114.1931060000,22.3842750000 114.1932120000,22.3843850000 114.1932770000,22.3844520000 114.1933130000,22.3844900000 114.1937530000,22.3849500000 114.1940070000,22.3852240000 114.1943740000,22.3856320000 114.1949340000,22.3862330000 114.1954510000,22.3867780000 114.1955890000,22.3869240000 114.1956820000,22.3870150000 114.1957040000,22.3870380000 114.1961710000,22.3875230000 114.1962680000,22.3876230000 114.1963280000,22.3876850000 114.1963740000,22.3877330000 114.1963880000,22.3877480000 114.1963990000,22.3877600000 114.1964150000,22.3877770000 114.1968670000,22.3882460000 114.1969050000,22.3882850000 114.1969700000,22.3883480000 114.1971290000,22.3884820000 114.1972790000,22.3885970000 114.1974170000,22.3886900000 114.1975640000,22.3887760000 114.1976250000,22.3888140000 114.1979510000,22.3889900000 114.1980470000,22.3890440000 114.1981760000,22.3891360000 114.1982370000,22.3890300000 114.1983280000,22.3889000000 114.1987380000,22.3884410000 114.1989720000,22.3882120000 114.1996500000,22.3876470000 114.2001010000,22.3872750000 114.2001210000,22.3872580000 114.2001390000,22.3872430000 114.2001720000,22.3872160000 114.2002520000,22.3871540000 114.2003410000,22.3872640000 114.2004970000,22.3874170000 114.2007280000,22.3876540000 114.2008750000,22.3878040000 114.2012210000,22.3881570000 114.2015360000,22.3884760000 114.2017690000,22.3886920000 114.2018380000,22.3887480000 114.2019710000,22.3888540000 114.2020480000,22.3889030000 114.2022500000,22.3890230000 114.2023690000,22.3890740000 114.2025240000,22.3891420000 114.2026640000,22.3891950000 114.2027440000,22.3892030000 114.2027630000,22.3892100000 114.2028690000,22.3892480000 114.2029080000,22.3892630000 114.2031060000,22.3893270000 114.2031550000,22.3893410000 114.2033150000,22.3893900000 114.2034490000,22.3894410000 114.2035950000,22.3894980000 114.2036520000,22.3895210000 114.2036790000,22.3895330000 114.2036930000,22.3895390000 114.2037890000,22.3895810000 114.2038820000,22.3896220000 114.2040460000,22.3896940000 114.2041970000,22.3897710000 114.2043500000,22.3898550000 114.2046070000,22.3900110000 114.2047250000,22.3900880000 114.2049760000,22.3902730000 114.2051540000,22.3904260000 114.2053950000,22.3906710000 114.2054630000,22.3907440000 114.2055340000,22.3908210000 114.2054620000,22.3908880000 114.2054350000,22.3909170000 114.2053800000,22.3910050000 114.2053790000,22.3910450000 114.2053870000,22.3911220000 114.2054350000,22.3911650000 114.2056010000,22.3913170000 114.2058030000,22.3915020000 114.2058410000,22.3915360000 114.2059880000,22.3916710000 114.2060900000,22.3917640000 114.2062680000,22.3919350000 114.2064540000,22.3921180000 114.2065890000,22.3922540000 114.2066600000,22.3923430000 114.2068360000,22.3925360000 114.2069340000,22.3926760000 114.2070270000,22.3928520000 114.2070520000,22.3928960000 114.2071510000,22.3930330000 114.2071830000,22.3930390000 114.2072150000,22.3930450000 114.2072930000,22.3930320000 114.2073450000,22.3930150000 114.2074150000,22.3929590000 114.2074430000,22.3929350000 114.2075040000,22.3928780000 114.2075990000,22.3928060000 114.2076790000,22.3927530000 114.2077420000,22.3927020000 114.2077780000,22.3926720000 114.2077890000,22.3926030000 114.2080070000,22.3924080000 114.2081000000,22.3923310000 114.2081720000,22.3923250000 114.2082010000,22.3923070000 114.2082310000,22.3922790000 114.2083250000,22.3922080000 114.2084350000,22.3921100000 114.2084800000,22.3920690000 114.2085030000,22.3920040000 114.2087740000,22.3917640000 114.2088120000,22.3917280000 114.2088340000,22.3916990000 114.2088580000,22.3916470000 114.2088650000,22.3915950000 114.2088620000,22.3915430000 114.2088520000,22.3914920000 114.2088340000,22.3914430000 114.2088090000,22.3913970000 114.2087760000,22.3913550000 114.2087360000,22.3913130000 114.2082770000,22.3908280000 114.2082890000,22.3907370000 114.2082980000,22.3906590000 114.2082980000,22.3906590000 114.2083020000,22.3906280000 114.2083200000,22.3905350000 114.2083290000,22.3904840000 114.2083400000,22.3904150000 114.2086310000,22.3901880000 114.2087340000,22.3901020000 114.2088800000,22.3899810000 114.2091690000,22.3897430000 114.2094290000,22.3895250000 114.2094730000,22.3894870000 114.2095030000,22.3894640000 114.2096770000,22.3893290000 114.2096990000,22.3893140000 114.2097530000,22.3892720000 114.2099490000,22.3891210000 114.2100280000,22.3890590000 114.2100790000,22.3890470000 114.2101230000,22.3890210000 114.2101570000,22.3889840000 114.2101760000,22.3889400000 114.2101810000,22.3889040000 114.2101760000,22.3888680000 114.2101630000,22.3888340000 114.2101410000,22.3888040000 114.2101170000,22.3887820000 114.2101070000,22.3887760000 114.2100880000,22.3887650000 114.2100560000,22.3887540000 114.2100220000,22.3887490000 114.2098870000,22.3886040000 114.2098020000,22.3885160000 114.2097460000,22.3884590000 114.2095500000,22.3882560000 114.2095170000,22.3882210000 114.2094820000,22.3881860000 114.2094190000,22.3881200000 114.2094010000,22.3881030000 114.2084630000,22.3871710000 114.2084380000,22.3871460000 114.2084100000,22.3871200000 114.2082970000,22.3870170000 114.2079520000,22.3866850000 114.2073050000,22.3860590000 114.2070470000,22.3857850000 114.2069390000,22.3856660000 114.2068510000,22.3855710000 114.2067340000,22.3854480000 114.2065720000,22.3852940000 114.2057030000,22.3844280000 114.2054310000,22.3841720000 114.2051720000,22.3839380000 114.2048130000,22.3835870000 114.2046440000,22.3834260000 114.2046240000,22.3834070000 114.2046030000,22.3833870000 114.2045820000,22.3833650000 114.2045230000,22.3833040000 114.2045840000,22.3832430000 114.2048470000,22.3829850000 114.2049950000,22.3828440000 114.2050180000,22.3828160000 114.2051400000,22.3826590000 114.2054150000,22.3823870000 114.2054890000,22.3823130000 114.2055070000,22.3822960000 114.2056050000,22.3822070000 114.2056250000,22.3821900000 114.2059990000,22.3818520000 114.2063620000,22.3815500000 114.2066420000,22.3813050000 114.2067710000,22.3812050000 114.2068820000,22.3811160000 114.2070150000,22.3809500000 114.2071330000,22.3808030000 114.2071580000,22.3807710000 114.2072550000,22.3806300000 114.2073420000,22.3805420000 114.2074520000,22.3804130000 114.2075130000,22.3803410000 114.2075430000,22.3802410000 114.2076320000,22.3801250000 114.2076920000,22.3800470000 114.2078320000,22.3798760000 114.2078630000,22.3798390000 114.2080880000,22.3796430000 114.2082220000,22.3795730000 114.2083220000,22.3795400000 114.2084010000,22.3795260000 114.2084540000,22.3795220000 114.2085200000,22.3795250000 114.2085910000,22.3795400000 114.2086800000,22.3795700000 114.2088180000,22.3796230000 114.2093690000,22.3798700000 114.2097130000,22.3800240000 114.2109800000,22.3806190000 114.2112910000,22.3807720000 114.2113500000,22.3807950000 114.2114100000,22.3808050000 114.2114480000,22.3808020000 114.2115370000,22.3807930000 114.2116230000,22.3807650000 114.2117180000,22.3807200000 114.2118350000,22.3806690000 114.2118900000,22.3806480000 114.2119740000,22.3806170000 114.2122860000,22.3805240000 114.2124560000,22.3804840000 114.2125380000,22.3804670000 114.2126270000,22.3804520000 114.2127700000,22.3804600000 114.2129000000,22.3804800000 114.2130000000,22.3805060000 114.2131000000,22.3805400000 114.2131970000,22.3805730000 114.2132790000,22.3806180000 114.2133670000,22.3806700000 114.2134470000,22.3807370000 114.2135190000,22.3808200000 114.2136070000,22.3809200000 114.2136670000,22.3810220000 114.2136860000,22.3810730000 114.2137040000,22.3811220000 114.2138030000,22.3816020000 114.2138490000,22.3818030000 114.2139140000,22.3820700000 114.2139860000,22.3824580000 114.2140230000,22.3826820000 114.2140270000,22.3828950000 114.2140320000,22.3829630000 114.2140350000,22.3829860000 114.2140370000,22.3830090000 114.2140600000,22.3831900000 114.2140840000,22.3833100000 114.2141940000,22.3832760000 114.2142610000,22.3832510000 114.2143110000,22.3832320000 114.2143890000,22.3832030000 114.2144810000,22.3831620000 114.2145850000,22.3831070000 114.2146920000,22.3830430000 114.2147930000,22.3829830000 114.2149240000,22.3828960000 114.2150010000,22.3828300000 114.2150750000,22.3827570000 114.2151920000,22.3826360000 114.2152720000,22.3824900000 114.2155160000,22.3822030000 114.2156800000,22.3820020000 114.2158790000,22.3817620000 114.2159140000,22.3817250000 114.2159580000,22.3816780000 114.2160210000,22.3816220000 114.2160690000,22.3815870000 114.2161370000,22.3815440000 114.2161980000,22.3815090000 114.2162640000,22.3814810000 114.2163230000,22.3814560000 114.2163940000,22.3814320000 114.2164710000,22.3814120000 114.2165140000,22.3814060000 114.2166140000,22.3814000000 114.2166910000,22.3813990000 114.2167810000,22.3814050000 114.2168720000,22.3814200000 114.2169680000,22.3814450000 114.2170600000,22.3814830000 114.2171300000,22.3815190000 114.2172330000,22.3815850000 114.2173390000,22.3816620000 114.2174180000,22.3817230000 114.2174740000,22.3817740000 114.2175160000,22.3818130000 114.2175510000,22.3818430000 114.2175700000,22.3819940000 114.2175680000,22.3820350000 114.2175610000,22.3820920000 114.2175490000,22.3821690000 114.2175520000,22.3822530000 114.2175510000,22.3823430000 114.2175540000,22.3823790000 114.2175570000,22.3823940000 114.2175690000,22.3824110000 114.2175790000,22.3824220000 114.2175790000,22.3824220000 114.2175930000,22.3824300000 114.2176030000,22.3824360000 114.2176150000,22.3824390000 114.2176560000,22.3824430000 114.2176880000,22.3824440000 114.2177360000,22.3824440000 114.2178070000,22.3824430000 114.2178310000,22.3824380000 114.2178520000,22.3824270000 114.2178690000,22.3824150000 114.2178830000,22.3824000000 114.2178950000,22.3823790000 114.2178980000,22.3823680000 114.2179040000,22.3823490000 114.2179090000,22.3822980000 114.2179140000,22.3822560000 114.2179080000,22.3821930000 114.2179060000,22.3821670000 114.2178940000,22.3820910000 114.2178780000,22.3820360000 114.2178680000,22.3819560000 114.2178360000,22.3819560000 114.2178040000,22.3819540000 114.2177730000,22.3819490000 114.2177420000,22.3819430000 114.2177150000,22.3819330000 114.2176860000,22.3819230000 114.2176490000,22.3819060000 114.2176040000,22.3818810000 114.2175510000,22.3818430000 114.2175160000,22.3818130000 114.2174740000,22.3817740000 114.2174180000,22.3817230000 114.2173390000,22.3816620000 114.2172330000,22.3815850000 114.2171300000,22.3815190000 114.2170600000,22.3814830000 114.2169680000,22.3814450000 114.2168720000,22.3814200000 114.2167810000,22.3814050000 114.2166910000,22.3813990000 114.2166140000,22.3814000000 114.2165140000,22.3814060000 114.2164710000,22.3814120000 114.2163940000,22.3814320000 114.2163230000,22.3814560000 114.2162640000,22.3814810000 114.2161980000,22.3815090000 114.2161370000,22.3815440000 114.2160690000,22.3815870000 114.2160210000,22.3816220000 114.2159580000,22.3816780000 114.2159140000,22.3817250000 114.2158790000,22.3817620000 114.2156800000,22.3820020000 114.2155160000,22.3822030000 114.2152720000,22.3824900000 114.2151430000,22.3825840000 114.2150300000,22.3827010000 114.2149150000,22.3828020000 114.2148580000,22.3828440000 114.2147270000,22.3829300000 114.2146080000,22.3830000000 114.2145400000,22.3830330000 114.2144580000,22.3830740000 114.2143760000,22.3831030000 114.2143380000,22.3831160000 114.2142790000,22.3831360000 114.2142290000,22.3831510000 114.2141640000,22.3831680000 114.2141420000,22.3830820000 114.2140990000,22.3828970000 114.2140230000,22.3826820000 114.2139860000,22.3824580000 114.2139140000,22.3820700000 114.2138490000,22.3818030000 114.2138030000,22.3816020000 114.2137040000,22.3811220000 114.2136860000,22.3810730000 114.2136670000,22.3810220000 114.2136070000,22.3809200000 114.2135190000,22.3808200000 114.2134470000,22.3807370000 114.2133670000,22.3806700000 114.2132790000,22.3806180000 114.2131970000,22.3805730000 114.2131000000,22.3805400000 114.2130000000,22.3805060000 114.2129000000,22.3804800000 114.2127700000,22.3804600000 114.2126270000,22.3804520000 114.2125380000,22.3804670000 114.2124560000,22.3804840000 114.2122860000,22.3805240000 114.2119740000,22.3806170000 114.2118900000,22.3806480000 114.2118350000,22.3806690000 114.2117180000,22.3807200000 114.2116230000,22.3807650000 114.2115370000,22.3807930000 114.2114480000,22.3808020000 114.2114100000,22.3808050000 114.2113500000,22.3807950000 114.2112910000,22.3807720000 114.2109800000,22.3806190000 114.2097130000,22.3800240000 114.2093690000,22.3798700000 114.2088180000,22.3796230000 114.2086800000,22.3795700000 114.2085910000,22.3795400000 114.2085200000,22.3795250000 114.2084540000,22.3795220000 114.2084010000,22.3795260000 114.2083220000,22.3795400000 114.2082220000,22.3795730000 114.2080880000,22.3796430000 114.2078630000,22.3798390000 114.2078320000,22.3798760000 114.2077740000,22.3799460000 114.2076920000,22.3800470000 114.2076320000,22.3801250000 114.2075430000,22.3802410000 114.2074490000,22.3803010000 114.2074040000,22.3803560000 114.2073900000,22.3803730000 114.2072680000,22.3804860000 114.2071670000,22.3805730000 114.2070810000,22.3806670000 114.2070350000,22.3807260000 114.2067940000,22.3810520000 114.2067120000,22.3811470000 114.2065970000,22.3812650000 114.2059430000,22.3818070000 114.2055940000,22.3821250000 114.2055630000,22.3821540000 114.2054880000,22.3822220000 114.2054410000,22.3822650000 114.2053840000,22.3823160000 114.2050910000,22.3825840000 114.2050460000,22.3826260000 114.2049480000,22.3827470000 114.2048660000,22.3828330000 114.2048080000,22.3828900000 114.2045430000,22.3831520000 114.2045140000,22.3831790000 114.2044520000,22.3832370000 114.2043770000,22.3833040000 114.2044480000,22.3833670000 114.2045190000,22.3834330000 114.2045380000,22.3834500000 114.2045610000,22.3834710000 114.2045750000,22.3834830000 114.2047200000,22.3836130000 114.2050970000,22.3839620000 114.2055410000,22.3843790000 114.2057380000,22.3845660000 114.2058210000,22.3846440000 114.2062870000,22.3851080000 114.2066700000,22.3855000000 114.2067660000,22.3856450000 114.2068760000,22.3857630000 114.2069520000,22.3858590000 114.2072180000,22.3861370000 114.2078660000,22.3867580000 114.2080470000,22.3869310000 114.2082160000,22.3870920000 114.2083320000,22.3871990000 114.2083550000,22.3872200000 114.2087610000,22.3876170000 114.2093200000,22.3881640000 114.2093380000,22.3881820000 114.2093960000,22.3882390000 114.2094480000,22.3882880000 114.2094730000,22.3883130000 114.2096740000,22.3885090000 114.2097360000,22.3885690000 114.2097820000,22.3886140000 114.2098550000,22.3887840000 114.2098650000,22.3888290000 114.2098470000,22.3888760000 114.2098460000,22.3889270000 114.2098570000,22.3889640000 114.2098780000,22.3889980000 114.2098540000,22.3890750000 114.2098280000,22.3891390000 114.2097960000,22.3891910000 114.2096990000,22.3893140000 114.2096770000,22.3893290000 114.2095030000,22.3894640000 114.2094730000,22.3894870000 114.2094290000,22.3895250000 114.2091690000,22.3897430000 114.2088800000,22.3899810000 114.2087340000,22.3901020000 114.2086310000,22.3901880000 114.2083400000,22.3904150000 114.2082040000,22.3905410000 114.2080890000,22.3906360000 114.2081500000,22.3906990000 114.2082090000,22.3907590000 114.2082770000,22.3908280000 114.2087360000,22.3913130000 114.2087760000,22.3913550000 114.2088090000,22.3913970000 114.2088340000,22.3914430000 114.2088520000,22.3914920000 114.2088620000,22.3915430000 114.2088650000,22.3915950000 114.2088580000,22.3916470000 114.2088340000,22.3916990000 114.2088120000,22.3917280000 114.2087740000,22.3917640000 114.2085030000,22.3920040000 114.2084180000,22.3920150000 114.2083790000,22.3920480000 114.2082650000,22.3921410000 114.2081740000,22.3922170000 114.2081510000,22.3922400000 114.2081210000,22.3922680000 114.2081000000,22.3923310000 114.2080070000,22.3924080000 114.2077890000,22.3926030000 114.2077000000,22.3926180000 114.2076500000,22.3926510000 114.2076240000,22.3926700000 114.2076030000,22.3926870000 114.2075370000,22.3927390000 114.2074710000,22.3926680000 114.2065860000,22.3917400000 114.2065390000,22.3916910000 114.2064480000,22.3915970000 114.2064080000,22.3915560000 114.2063890000,22.3915350000 114.2063770000,22.3915230000 114.2063360000,22.3914810000 114.2063280000,22.3914730000 114.2062940000,22.3914370000 114.2061600000,22.3912970000 114.2058930000,22.3910180000 114.2057830000,22.3909030000 114.2057600000,22.3908780000 114.2056710000,22.3907900000 114.2056210000,22.3907450000 114.2055470000,22.3906700000 114.2054840000,22.3906050000 114.2053360000,22.3904540000 114.2050440000,22.3901940000 114.2048630000,22.3900490000 114.2044080000,22.3897630000 114.2042600000,22.3896840000 114.2040930000,22.3896020000 114.2039530000,22.3895330000 114.2038440000,22.3894830000 114.2037540000,22.3894420000 114.2037400000,22.3894350000 114.2036850000,22.3894120000 114.2036130000,22.3893830000 114.2035380000,22.3893540000 114.2034260000,22.3893160000 114.2033500000,22.3892860000 114.2032830000,22.3892610000 114.2032270000,22.3892390000 114.2031800000,22.3892230000 114.2031440000,22.3892110000 114.2030450000,22.3891740000 114.2029560000,22.3891420000 114.2028960000,22.3891170000 114.2028330000,22.3890940000 114.2027960000,22.3890790000 114.2027170000,22.3890480000 114.2026050000,22.3890070000 114.2024460000,22.3889400000 114.2023090000,22.3888720000 114.2022870000,22.3888590000 114.2021800000,22.3887980000 114.2020490000,22.3887230000 114.2019260000,22.3886310000 114.2018730000,22.3885900000 114.2018420000,22.3885630000 114.2018200000,22.3885430000 114.2016370000,22.3883660000 114.2013350000,22.3880410000 114.2012090000,22.3879200000 114.2009930000,22.3877010000 114.2006990000,22.3874090000 114.2004190000,22.3871470000 114.2003550000,22.3870720000 114.2002730000,22.3869740000 114.2001700000,22.3870570000 114.2000530000,22.3871550000 114.2000360000,22.3871690000 114.2000130000,22.3871880000 114.1988680000,22.3881580000 114.1986450000,22.3883540000 114.1982030000,22.3888170000 114.1981020000,22.3889510000 114.1979720000,22.3888810000 114.1977130000,22.3887340000 114.1974830000,22.3886120000 114.1973360000,22.3885190000 114.1971950000,22.3884170000 114.1970420000,22.3882800000 114.1969700000,22.3882130000 114.1964840000,22.3877150000 114.1962430000,22.3874710000 114.1961990000,22.3874270000 114.1961440000,22.3873710000 114.1961120000,22.3873380000 114.1960380000,22.3872630000 114.1957720000,22.3869950000 114.1957450000,22.3869670000 114.1956470000,22.3868730000 114.1955120000,22.3867280000 114.1950010000,22.3861780000 114.1940700000,22.3851690000 114.1934390000,22.3844870000 114.1932940000,22.3843290000 114.1932460000,22.3842760000 114.1931810000,22.3842050000 114.1931320000,22.3841520000 114.1931260000,22.3841450000 114.1930890000,22.3841040000 114.1930490000,22.3840610000 114.1927750000,22.3837670000 114.1927330000,22.3837220000 114.1925660000,22.3835480000 114.1925220000,22.3835030000 114.1920460000,22.3829860000 114.1919550000,22.3828760000 114.1918810000,22.3827750000 114.1916090000,22.3824660000 114.1912080000,22.3820590000 114.1911390000,22.3820010000 114.1910230000,22.3818750000 114.1908210000,22.3816730000 114.1907870000,22.3816510000 114.1907310000,22.3816270000 114.1906910000,22.3816250000 114.1906230000,22.3816400000 114.1905640000,22.3816720000 114.1901070000,22.3820370000 114.1900180000,22.3821100000 114.1899750000,22.3821460000 114.1899490000,22.3821680000 114.1898640000,22.3822380000 114.1897300000,22.3823480000 114.1896880000,22.3823820000 114.1896420000,22.3824210000 114.1896040000,22.3824530000 114.1894480000,22.3825680000 114.1893340000,22.3827000000 114.1892760000,22.3827860000 114.1892700000,22.3828570000 114.1892920000,22.3828790000 114.1897470000,22.3833500000 114.1900350000,22.3831140000 114.1901480000,22.3830300000 114.1901780000,22.3830060000 114.1903910000,22.3828300000 114.1905030000,22.3827370000 114.1905510000,22.3826970000 114.1906020000,22.3826580000 114.1906440000,22.3826230000 114.1907970000,22.3824940000 114.1908390000,22.3824570000 114.1910420000,22.3822940000 114.1911120000,22.3821790000 114.1911320000,22.3821240000 114.1911390000,22.3820900000 114.1911390000,22.3820010000 114.1910230000,22.3818750000 114.1908210000,22.3816730000 114.1907870000,22.3816510000 114.1907310000,22.3816270000 114.1906910000,22.3816250000 114.1906230000,22.3816400000 114.1905640000,22.3816720000 114.1901070000,22.3820370000 114.1900180000,22.3821100000 114.1899750000,22.3821460000 114.1899490000,22.3821680000 114.1898640000,22.3822380000 114.1897300000,22.3823480000 114.1896880000,22.3823820000 114.1896420000,22.3824210000 114.1896040000,22.3824530000 114.1894480000,22.3825680000 114.1893340000,22.3827000000 114.1892760000,22.3827860000 114.1892700000,22.3828570000 114.1892920000,22.3828790000 114.1897470000,22.3833500000 114.1900350000,22.3831140000 114.1901480000,22.3830300000 114.1901780000,22.3830060000 114.1903770000,22.3828410000 114.1905030000,22.3827370000 114.1905510000,22.3826970000 114.1906020000,22.3826580000 114.1906440000,22.3826230000 114.1907970000,22.3824940000 114.1908390000,22.3824570000 114.1910420000,22.3822940000 114.1911420000,22.3822690000 114.1911910000,22.3822840000 114.1912740000,22.3823160000 114.1913550000,22.3824000000 114.1916670000,22.3827460000 114.1917620000,22.3828570000 114.1916710000,22.3829270000 114.1909780000,22.3835090000 114.1905770000,22.3838480000 114.1904570000,22.3839400000 114.1902750000,22.3840960000 114.1901020000,22.3842480000 114.1899970000,22.3843460000 114.1899070000,22.3844300000 114.1898240000,22.3844770000 114.1897890000,22.3845030000 114.1896660000,22.3846020000 114.1896330000,22.3846290000 114.1895900000,22.3846590000 114.1895750000,22.3846400000 114.1893300000,22.3843210000 114.1889860000,22.3838330000 114.1888830000,22.3837300000 114.1887940000,22.3836560000 114.1887270000,22.3835750000 114.1886640000,22.3834990000 114.1885570000,22.3833630000 114.1884540000,22.3832310000 114.1883780000,22.3831280000 114.1881960000,22.3828810000 114.1880410000,22.3826800000 114.1879250000,22.3825390000 114.1877250000,22.3822720000 114.1873250000,22.3817650000 114.1869420000,22.3812590000 114.1867570000,22.3810170000 114.1866050000,22.3807920000 114.1864720000,22.3805890000 114.1861490000,22.3800230000 114.1859660000,22.3797630000 114.1858070000,22.3795050000 114.1856900000,22.3793580000 114.1855960000,22.3792470000 114.1855230000,22.3791710000 114.1853410000,22.3789920000 114.1852580000,22.3789170000 114.1851690000,22.3788440000 114.1850540000,22.3787600000 114.1849610000,22.3786940000 114.1848270000,22.3786040000 114.1846850000,22.3785170000 114.1846090000,22.3784720000 114.1845380000,22.3784320000 114.1844550000,22.3783900000 114.1844160000,22.3783720000 114.1843610000,22.3783460000 114.1843130000,22.3783260000 114.1842140000,22.3782840000 114.1840560000,22.3782240000 114.1838220000,22.3781380000 114.1836910000,22.3780940000 114.1835600000,22.3780500000 114.1832540000,22.3779560000 114.1829650000,22.3778670000 114.1822360000,22.3776350000 114.1820640000,22.3775750000 114.1816770000,22.3774800000 114.1815720000,22.3774580000 114.1814400000,22.3774360000 114.1813500000,22.3774260000 114.1812480000,22.3774190000 114.1811570000,22.3774140000 114.1810530000,22.3774130000 114.1809660000,22.3774150000 114.1808730000,22.3774220000 114.1807920000,22.3774310000 114.1807060000,22.3774420000 114.1806190000,22.3774550000 114.1805360000,22.3774700000 114.1804490000,22.3774900000 114.1803660000,22.3775100000 114.1802840000,22.3775340000 114.1802020000,22.3775620000 114.1801150000,22.3775950000 114.1799980000,22.3776440000 114.1798670000,22.3777110000 114.1797580000,22.3777720000 114.1795990000,22.3778700000 114.1794660000,22.3779570000 114.1793100000,22.3780790000 114.1791660000,22.3782030000 114.1789350000,22.3784100000 114.1785040000,22.3788120000 114.1782500000,22.3790280000 114.1774640000,22.3797510000 114.1763630000,22.3807830000 114.1757910000,22.3812990000 114.1756250000,22.3814500000 114.1753740000,22.3816650000 114.1751620000,22.3818230000 114.1749150000,22.3819920000 114.1747780000,22.3820750000 114.1746780000,22.3821320000 114.1745390000,22.3821980000 114.1743910000,22.3822650000 114.1743110000,22.3822960000 114.1742270000,22.3823270000 114.1740660000,22.3823790000 114.1738960000,22.3824290000 114.1737330000,22.3824670000 114.1736520000,22.3824830000 114.1735650000,22.3824990000 114.1734780000,22.3825100000 114.1733900000,22.3825200000 114.1733010000,22.3825290000 114.1732130000,22.3825340000 114.1731160000,22.3825370000 114.1730480000,22.3825370000 114.1729850000,22.3825360000 114.1729120000,22.3825330000 114.1727920000,22.3825270000 114.1727020000,22.3825220000 114.1726190000,22.3825150000 114.1724940000,22.3825020000 114.1724480000,22.3824960000 114.1723700000,22.3824810000 114.1722660000,22.3824580000 114.1721960000,22.3824400000 114.1721140000,22.3824180000 114.1719890000,22.3823810000 114.1717190000,22.3822870000 114.1714520000,22.3821870000 114.1712730000,22.3821160000 114.1707570000,22.3818900000 114.1705110000,22.3817850000 114.1703500000,22.3817190000 114.1700950000,22.3816190000 114.1698960000,22.3815520000 114.1697040000,22.3814870000 114.1692640000,22.3813510000 114.1688010000,22.3812260000 114.1682450000,22.3810940000 114.1673670000,22.3808810000 114.1670930000,22.3808140000 114.1668980000,22.3807690000 114.1664100000,22.3806480000 114.1658240000,22.3805000000 114.1655780000,22.3804410000 114.1528120000,22.3767450000 114.1519950000,22.3765190000 114.1516810000,22.3764450000 114.1513770000,22.3763770000 114.1508370000,22.3762750000 114.1505650000,22.3762290000 114.1502020000,22.3761820000 114.1498220000,22.3761500000 114.1493080000,22.3761220000 114.1488720000,22.3761120000 114.1484760000,22.3761160000 114.1481380000,22.3761290000 114.1475700000,22.3761770000 114.1471530000,22.3762270000 114.1468030000,22.3762780000 114.1461640000,22.3763990000 114.1456600000,22.3765160000 114.1451010000,22.3766690000 114.1442630000,22.3769490000 114.1438230000,22.3771230000 114.1434940000,22.3772720000 114.1430130000,22.3775090000 114.1427010000,22.3776780000 114.1423410000,22.3778910000 114.1417510000,22.3782860000 114.1414270000,22.3785320000 114.1410300000,22.3788660000 114.1405850000,22.3792910000 114.1403220000,22.3795610000 114.1402590000,22.3796220000 114.1401300000,22.3797470000 114.1397160000,22.3801600000 114.1394990000,22.3803770000 114.1392720000,22.3806030000 114.1390980000,22.3807770000 114.1390030000,22.3808600000 114.1388490000,22.3809930000 114.1386750000,22.3811090000 114.1386210000,22.3811450000 114.1385020000,22.3812100000 114.1384700000,22.3812300000 114.1384310000,22.3812520000 114.1384010000,22.3812680000 114.1382090000,22.3813640000 114.1380640000,22.3814230000 114.1379350000,22.3814750000 114.1377070000,22.3815260000 114.1375970000,22.3815410000 114.1374650000,22.3815590000 114.1373330000,22.3815710000 114.1369550000,22.3815930000 114.1368050000,22.3815980000 114.1365960000,22.3815990000 114.1364950000,22.3816030000 114.1363970000,22.3816010000 114.1360420000,22.3815960000 114.1356750000,22.3815700000 114.1352580000,22.3815160000 114.1351870000,22.3815040000 114.1350330000,22.3814770000 114.1348580000,22.3814340000 114.1346900000,22.3813770000 114.1344550000,22.3812860000 114.1342470000,22.3811910000 114.1340470000,22.3810920000 114.1338820000,22.3810140000 114.1337880000,22.3809700000 114.1336180000,22.3808720000 114.1335160000,22.3808090000 114.1332320000,22.3806300000 114.1329550000,22.3804510000 114.1321840000,22.3799570000 114.1319290000,22.3798090000 114.1318050000,22.3797420000 114.1316880000,22.3796730000 114.1316240000,22.3796370000 114.1314740000,22.3795600000 114.1312640000,22.3794630000 114.1310430000,22.3793710000 114.1286040000,22.3784350000 114.1284830000,22.3783890000 114.1261090000,22.3774890000 114.1233860000,22.3764580000 114.1230100000,22.3762610000 114.1226510000,22.3760940000 114.1222040000,22.3758830000 114.1218780000,22.3757310000 114.1218380000,22.3757130000 114.1217350000,22.3756680000 114.1216410000,22.3756230000 114.1215160000,22.3755540000 114.1214700000,22.3755230000 114.1214260000,22.3754900000 114.1213820000,22.3754500000 114.1213620000,22.3754250000 114.1212970000,22.3753220000 114.1212810000,22.3752540000 114.1212590000,22.3751900000 114.1212360000,22.3751040000 114.1212220000,22.3750250000 114.1212270000,22.3749520000 114.1212490000,22.3748810000 114.1212950000,22.3748120000 114.1213630000,22.3747490000 114.1219850000,22.3742630000 114.1221550000,22.3741230000 114.1223020000,22.3739950000 114.1224680000,22.3738190000 114.1225860000,22.3736770000 114.1226950000,22.3735310000 114.1228210000,22.3733500000 114.1229140000,22.3732040000 114.1230150000,22.3730150000 114.1231160000,22.3728120000 114.1232170000,22.3725680000 114.1232970000,22.3723230000 114.1233800000,22.3719610000 114.1234420000,22.3715980000 114.1234890000,22.3710820000 114.1234840000,22.3708900000 114.1234780000,22.3706360000 114.1234290000,22.3703850000 114.1233820000,22.3701890000 114.1233460000,22.3700960000 114.1232880000,22.3699450000 114.1232590000,22.3698660000 114.1231550000,22.3697120000 114.1230600000,22.3695370000 114.1230250000,22.3694720000 114.1229470000,22.3693440000 114.1228370000,22.3691710000 114.1225970000,22.3688230000 114.1224900000,22.3686600000 114.1224040000,22.3685290000 114.1221960000,22.3681960000 114.1218740000,22.3677070000 114.1216010000,22.3673340000 114.1215150000,22.3671460000 114.1214320000,22.3669660000 114.1213360000,22.3666970000 114.1212850000,22.3665180000 114.1212040000,22.3661380000 114.1211350000,22.3658410000 114.1210830000,22.3656710000 114.1210070000,22.3654600000 114.1209050000,22.3652600000 114.1208020000,22.3650900000 114.1205320000,22.3647590000 114.1203310000,22.3645000000 114.1201330000,22.3642710000 114.1200600000,22.3641890000 114.1199810000,22.3640980000 114.1198650000,22.3639190000 114.1197280000,22.3637980000 114.1196450000,22.3637380000 114.1195120000,22.3636560000 114.1193360000,22.3635470000 114.1192880000,22.3635230000 114.1189640000,22.3634220000 114.1188530000,22.3633920000 114.1186420000,22.3633350000 114.1185760000,22.3632910000 114.1184460000,22.3631790000 114.1183450000,22.3630740000 114.1183150000,22.3629860000 114.1183070000,22.3629050000 114.1183110000,22.3628620000 114.1183130000,22.3628460000 114.1183200000,22.3627700000 114.1183270000,22.3627300000 114.1184630000,22.3625570000 114.1185770000,22.3624130000 114.1186780000,22.3622840000 114.1188100000,22.3620660000 114.1189380000,22.3618260000 114.1190810000,22.3614660000 114.1192300000,22.3611130000 114.1192460000,22.3610540000 114.1193340000,22.3607580000 114.1193710000,22.3606340000 114.1193890000,22.3605580000 114.1194500000,22.3604230000 114.1194910000,22.3603290000 114.1197400000,22.3597190000 114.1198440000,22.3594780000 114.1199770000,22.3591760000 114.1201150000,22.3589430000 114.1203350000,22.3585790000 114.1205480000,22.3582950000 114.1207090000,22.3581150000 114.1210420000,22.3577670000 114.1211610000,22.3576590000 114.1212970000,22.3575350000 114.1215410000,22.3573400000 114.1217110000,22.3571910000 114.1218110000,22.3571330000 114.1219630000,22.3570370000 114.1219910000,22.3570160000 114.1223180000,22.3567810000 114.1224510000,22.3566860000 114.1225960000,22.3565870000 114.1227260000,22.3564870000 114.1227790000,22.3564390000 114.1228120000,22.3564090000 114.1228380000,22.3563860000 114.1229700000,22.3562840000 114.1230680000,22.3562170000 114.1232510000,22.3561000000 114.1233070000,22.3560720000 114.1233790000,22.3560520000 114.1234330000,22.3560390000 114.1234810000,22.3560320000 114.1235310000,22.3560250000 114.1235830000,22.3560220000 114.1236850000,22.3561180000 114.1238800000,22.3563020000 114.1241140000,22.3564810000 114.1243620000,22.3566710000 114.1245550000,22.3568260000 114.1246790000,22.3569290000 114.1247350000,22.3569680000 114.1248210000,22.3570210000 114.1249110000,22.3570860000 114.1250200000,22.3571670000 114.1252440000,22.3573310000 114.1258590000,22.3577530000 114.1269090000,22.3585210000 114.1271480000,22.3586920000 114.1273030000,22.3588250000 114.1273350000,22.3588520000 114.1273950000,22.3589030000 114.1274810000,22.3589810000 114.1275250000,22.3590230000 114.1275510000,22.3590490000 114.1277090000,22.3592000000 114.1278080000,22.3592420000 114.1278530000,22.3592910000 114.1279300000,22.3593660000 114.1280930000,22.3595210000 114.1281400000,22.3595630000 114.1283660000,22.3597780000 114.1284250000,22.3598430000 114.1284870000,22.3599610000 114.1285340000,22.3600070000 114.1286460000,22.3601160000 114.1287610000,22.3602140000 114.1287890000,22.3602420000 114.1288730000,22.3602680000 114.1292630000,22.3606370000 114.1294000000,22.3607640000 114.1295670000,22.3609160000 114.1296750000,22.3610150000 114.1297160000,22.3610530000 114.1297940000,22.3611270000 114.1298150000,22.3611470000 114.1299850000,22.3613070000 114.1300120000,22.3613720000 114.1300830000,22.3614390000 114.1301930000,22.3615380000 114.1302520000,22.3615950000 114.1305270000,22.3618740000 114.1307380000,22.3620810000 114.1307760000,22.3621190000 114.1308280000,22.3621690000 114.1309110000,22.3622430000 114.1309680000,22.3621930000 114.1310660000,22.3621220000 114.1311380000,22.3620940000 114.1312160000,22.3620730000 114.1312960000,22.3620780000 114.1313180000,22.3620800000 114.1313960000,22.3621020000 114.1314640000,22.3621390000 114.1315300000,22.3621980000 114.1315850000,22.3622910000 114.1316590000,22.3624500000 114.1315340000,22.3625440000 114.1315140000,22.3625840000 114.1315190000,22.3626270000 114.1315390000,22.3626680000 114.1315670000,22.3626880000 114.1315740000,22.3628160000 114.1315780000,22.3630840000</coordinates>
                </LineString>
                <ExtendedData>
                    <Data name="length">
                        <value>40195.687061274475</value>
                    </Data>
                    <Data name="duration">
                        <value>00:50:45</value>
                    </Data>
                </ExtendedData>
            </Placemark>
        </Document>
    </Document>
</kml>