<?xml version="1.0" encoding="UTF-8"?>
<kml xmlns="http://www.opengis.net/kml/2.2" xmlns:gx="http://www.google.com/kml/ext/2.2">
    <Document>
        <name>Route</name>
        <Folder>
            <name>Route Request</name>
            <Placemark>
                <address>葵涌金山郊野徑, Tai Wo Hill, Chung Kwai Chung, Cheung Hang Village, Kwai Tsing District, New Territories, Hong Kong, China</address>
                <Point>
                    <coordinates>114.1376248877,22.3608392546</coordinates>
                </Point>
                <ExtendedData>
                    <Data name="suburb">
                        <value>Chung Kwai Chung</value>
                    </Data>
                    <Data name="neighbourhood">
                        <value>Tai Wo Hill</value>
                    </Data>
                    <Data name="state">
                        <value>Hong Kong</value>
                    </Data>
                    <Data name="village">
                        <value>Cheung Hang Village</value>
                    </Data>
                    <Data name="city">
                        <value>Kwai Tsing District</value>
                    </Data>
                    <Data name="country_code">
                        <value>cn</value>
                    </Data>
                    <Data name="country">
                        <value>China</value>
                    </Data>
                    <Data name="ISO3166-2-lvl3">
                        <value>CN-HK</value>
                    </Data>
                    <Data name="road">
                        <value>葵涌金山郊野徑</value>
                    </Data>
                    <Data name="municipality">
                        <value>New Territories</value>
                    </Data>
                </ExtendedData>
            </Placemark>
            <Placemark>
                <address>Tai Po Road – Tai Wai, Tai Wai Hui, Tai Wai, Tai Wai Village, Sha Tin District, New Territories, Hong Kong, China</address>
                <Point>
                    <coordinates>114.1787329671,22.3773194237</coordinates>
                </Point>
                <ExtendedData>
                    <Data name="suburb">
                        <value>Tai Wai</value>
                    </Data>
                    <Data name="state">
                        <value>Hong Kong</value>
                    </Data>
                    <Data name="village">
                        <value>Tai Wai Village</value>
                    </Data>
                    <Data name="city">
                        <value>Sha Tin District</value>
                    </Data>
                    <Data name="country_code">
                        <value>cn</value>
                    </Data>
                    <Data name="country">
                        <value>China</value>
                    </Data>
                    <Data name="ISO3166-2-lvl3">
                        <value>CN-HK</value>
                    </Data>
                    <Data name="quarter">
                        <value>Tai Wai Hui</value>
                    </Data>
                    <Data name="road">
                        <value>Tai Po Road – Tai Wai</value>
                    </Data>
                    <Data name="municipality">
                        <value>New Territories</value>
                    </Data>
                </ExtendedData>
            </Placemark>
            <Placemark>
                <address>Tai Chung Kiu Road, Wo Che, Yuen Chau Kok, Ha Wo Che, Sha Tin District, New Territories, Hong Kong, China</address>
                <Point>
                    <coordinates>114.1996474753,22.3867165463</coordinates>
                </Point>
                <ExtendedData>
                    <Data name="suburb">
                        <value>Yuen Chau Kok</value>
                    </Data>
                    <Data name="state">
                        <value>Hong Kong</value>
                    </Data>
                    <Data name="village">
                        <value>Ha Wo Che</value>
                    </Data>
                    <Data name="city">
                        <value>Sha Tin District</value>
                    </Data>
                    <Data name="country_code">
                        <value>cn</value>
                    </Data>
                    <Data name="country">
                        <value>China</value>
                    </Data>
                    <Data name="ISO3166-2-lvl3">
                        <value>CN-HK</value>
                    </Data>
                    <Data name="quarter">
                        <value>Wo Che</value>
                    </Data>
                    <Data name="road">
                        <value>Tai Chung Kiu Road</value>
                    </Data>
                    <Data name="municipality">
                        <value>New Territories</value>
                    </Data>
                </ExtendedData>
            </Placemark>
            <Placemark>
                <address>Sha Tin College, 3, Lai Wo Lane, 昂堂山 Ngong Tong Shan, Fo Tan, Ha Wo Che, Sha Tin District, New Territories, Hong Kong, China</address>
                <Point>
                    <coordinates>114.1882410670,22.3928692450</coordinates>
                </Point>
                <ExtendedData>
                    <Data name="suburb">
                        <value>Fo Tan</value>
                    </Data>
                    <Data name="amenity">
                        <value>Sha Tin College</value>
                    </Data>
                    <Data name="state">
                        <value>Hong Kong</value>
                    </Data>
                    <Data name="village">
                        <value>Ha Wo Che</value>
                    </Data>
                    <Data name="city">
                        <value>Sha Tin District</value>
                    </Data>
                    <Data name="country_code">
                        <value>cn</value>
                    </Data>
                    <Data name="country">
                        <value>China</value>
                    </Data>
                    <Data name="ISO3166-2-lvl3">
                        <value>CN-HK</value>
                    </Data>
                    <Data name="house_number">
                        <value>3</value>
                    </Data>
                    <Data name="quarter">
                        <value>昂堂山 Ngong Tong Shan</value>
                    </Data>
                    <Data name="road">
                        <value>Lai Wo Lane</value>
                    </Data>
                    <Data name="municipality">
                        <value>New Territories</value>
                    </Data>
                </ExtendedData>
            </Placemark>
            <Placemark>
                <address>Tai Chung Kiu Road, Sha Tin Town Centre, Sha Tin Wai, Sha Tin, Sha Tin District, New Territories, Hong Kong, China</address>
                <Point>
                    <coordinates>114.1948026328,22.3812565147</coordinates>
                </Point>
                <ExtendedData>
                    <Data name="town">
                        <value>Sha Tin</value>
                    </Data>
                    <Data name="suburb">
                        <value>Sha Tin Wai</value>
                    </Data>
                    <Data name="state">
                        <value>Hong Kong</value>
                    </Data>
                    <Data name="city">
                        <value>Sha Tin District</value>
                    </Data>
                    <Data name="country_code">
                        <value>cn</value>
                    </Data>
                    <Data name="country">
                        <value>China</value>
                    </Data>
                    <Data name="ISO3166-2-lvl3">
                        <value>CN-HK</value>
                    </Data>
                    <Data name="quarter">
                        <value>Sha Tin Town Centre</value>
                    </Data>
                    <Data name="road">
                        <value>Tai Chung Kiu Road</value>
                    </Data>
                    <Data name="municipality">
                        <value>New Territories</value>
                    </Data>
                </ExtendedData>
            </Placemark>
            <Placemark>
                <address>Shing Mun Tunnel Road, Tung Lo Wan, Tai Wai, Tung Lo Wan, Sha Tin District, New Territories, Hong Kong, China</address>
                <Point>
                    <coordinates>114.1784295640,22.3787621922</coordinates>
                </Point>
                <ExtendedData>
                    <Data name="suburb">
                        <value>Tai Wai</value>
                    </Data>
                    <Data name="state">
                        <value>Hong Kong</value>
                    </Data>
                    <Data name="village">
                        <value>Tung Lo Wan</value>
                    </Data>
                    <Data name="city">
                        <value>Sha Tin District</value>
                    </Data>
                    <Data name="country_code">
                        <value>cn</value>
                    </Data>
                    <Data name="country">
                        <value>China</value>
                    </Data>
                    <Data name="ISO3166-2-lvl3">
                        <value>CN-HK</value>
                    </Data>
                    <Data name="quarter">
                        <value>Tung Lo Wan</value>
                    </Data>
                    <Data name="road">
                        <value>Shing Mun Tunnel Road</value>
                    </Data>
                    <Data name="municipality">
                        <value>New Territories</value>
                    </Data>
                </ExtendedData>
            </Placemark>
            <Placemark>
                <address>Shek Lei Street Tennis Courts, On Chuk Street, Shek Lei, Shek Lei Hang Village, Kwai Chung, Kwai Tsing District, New Territories, Hong Kong, China</address>
                <Point>
                    <coordinates>114.1423295747,22.3674423453</coordinates>
                </Point>
                <ExtendedData>
                    <Data name="hamlet">
                        <value>Shek Lei Hang Village</value>
                    </Data>
                    <Data name="town">
                        <value>Kwai Chung</value>
                    </Data>
                    <Data name="state">
                        <value>Hong Kong</value>
                    </Data>
                    <Data name="city">
                        <value>Kwai Tsing District</value>
                    </Data>
                    <Data name="country_code">
                        <value>cn</value>
                    </Data>
                    <Data name="country">
                        <value>China</value>
                    </Data>
                    <Data name="leisure">
                        <value>Shek Lei Street Tennis Courts</value>
                    </Data>
                    <Data name="ISO3166-2-lvl3">
                        <value>CN-HK</value>
                    </Data>
                    <Data name="quarter">
                        <value>Shek Lei</value>
                    </Data>
                    <Data name="road">
                        <value>On Chuk Street</value>
                    </Data>
                    <Data name="municipality">
                        <value>New Territories</value>
                    </Data>
                </ExtendedData>
            </Placemark>
            <Placemark>
                <address>葵涌金山郊野徑, Tai Wo Hill, Chung Kwai Chung, Cheung Hang Village, Kwai Tsing District, New Territories, Hong Kong, China</address>
                <Point>
                    <coordinates>114.1376366935,22.3608224169</coordinates>
                </Point>
                <ExtendedData>
                    <Data name="suburb">
                        <value>Chung Kwai Chung</value>
                    </Data>
                    <Data name="neighbourhood">
                        <value>Tai Wo Hill</value>
                    </Data>
                    <Data name="state">
                        <value>Hong Kong</value>
                    </Data>
                    <Data name="village">
                        <value>Cheung Hang Village</value>
                    </Data>
                    <Data name="city">
                        <value>Kwai Tsing District</value>
                    </Data>
                    <Data name="country_code">
                        <value>cn</value>
                    </Data>
                    <Data name="country">
                        <value>China</value>
                    </Data>
                    <Data name="ISO3166-2-lvl3">
                        <value>CN-HK</value>
                    </Data>
                    <Data name="road">
                        <value>葵涌金山郊野徑</value>
                    </Data>
                    <Data name="municipality">
                        <value>New Territories</value>
                    </Data>
                </ExtendedData>
            </Placemark>
        </Folder>
        <Document>
            <name>33.5 km; 00:44 h (OSRM)</name>
            <Placemark>
                <name>Route</name>
                <LineString>
                    <coordinates>114.1376000000,22.3608070000 114.1375810000,22.3608200000 114.1375630000,22.3608450000 114.1375550000,22.3608740000 114.1375580000,22.3609040000 114.1375710000,22.3609310000 114.1375940000,22.3609530000 114.1376230000,22.3609660000 114.1376550000,22.3609700000 114.1376860000,22.3609650000 114.1377130000,22.3609500000 114.1377160000,22.3610370000 114.1378910000,22.3611930000 114.1379040000,22.3612050000 114.1380340000,22.3614070000 114.1382020000,22.3619380000 114.1382370000,22.3620980000 114.1382550000,22.3621440000 114.1383020000,22.3622610000 114.1383340000,22.3623410000 114.1384280000,22.3624920000 114.1385000000,22.3625860000 114.1386560000,22.3627680000 114.1387790000,22.3628730000 114.1388670000,22.3629470000 114.1390710000,22.3630830000 114.1397290000,22.3634910000 114.1399880000,22.3636740000 114.1406250000,22.3640820000 114.1408650000,22.3642350000 114.1412940000,22.3645090000 114.1413330000,22.3645560000 114.1413430000,22.3645920000 114.1413470000,22.3646350000 114.1413450000,22.3646820000 114.1413140000,22.3647310000 114.1412160000,22.3648610000 114.1409310000,22.3652400000 114.1408940000,22.3652880000 114.1414830000,22.3656800000 114.1416480000,22.3658160000 114.1417620000,22.3659340000 114.1418290000,22.3660170000 114.1418880000,22.3661370000 114.1419550000,22.3663330000 114.1420940000,22.3666990000 114.1422080000,22.3670950000 114.1422210000,22.3671380000 114.1422480000,22.3672400000 114.1422670000,22.3673420000 114.1422850000,22.3674290000 114.1422960000,22.3675660000 114.1422970000,22.3676480000 114.1423020000,22.3677330000 114.1422940000,22.3678240000 114.1421910000,22.3681100000 114.1421150000,22.3683190000 114.1420390000,22.3684230000 114.1419720000,22.3685010000 114.1418940000,22.3686040000 114.1418130000,22.3687010000 114.1418060000,22.3687080000 114.1416900000,22.3688290000 114.1416040000,22.3688970000 114.1415510000,22.3689330000 114.1414630000,22.3689910000 114.1411210000,22.3692170000 114.1410700000,22.3692490000 114.1409580000,22.3693200000 114.1408290000,22.3693980000 114.1407840000,22.3694360000 114.1407480000,22.3694650000 114.1407270000,22.3694820000 114.1406350000,22.3695810000 114.1405640000,22.3696830000 114.1405080000,22.3697910000 114.1404650000,22.3698930000 114.1404280000,22.3700320000 114.1403560000,22.3704330000 114.1403530000,22.3704510000 114.1403330000,22.3705560000 114.1402980000,22.3707220000 114.1402960000,22.3707320000 114.1401220000,22.3715040000 114.1400320000,22.3717200000 114.1399680000,22.3718240000 114.1398900000,22.3719230000 114.1398570000,22.3719660000 114.1398490000,22.3719770000 114.1397200000,22.3721010000 114.1396030000,22.3722140000 114.1395370000,22.3722710000 114.1394720000,22.3723280000 114.1393710000,22.3724170000 114.1393010000,22.3724780000 114.1392270000,22.3725360000 114.1392050000,22.3725530000 114.1391660000,22.3725720000 114.1391200000,22.3725800000 114.1390820000,22.3725860000 114.1390430000,22.3725890000 114.1390050000,22.3725840000 114.1389710000,22.3725730000 114.1389470000,22.3725630000 114.1389170000,22.3725470000 114.1388800000,22.3725180000 114.1387730000,22.3723240000 114.1385660000,22.3719470000 114.1385010000,22.3718270000 114.1384780000,22.3717840000 114.1384430000,22.3717180000 114.1383260000,22.3715070000 114.1383150000,22.3714860000 114.1382270000,22.3713190000 114.1381580000,22.3712290000 114.1380240000,22.3710770000 114.1379280000,22.3709780000 114.1376810000,22.3707340000 114.1376500000,22.3707020000 114.1375390000,22.3705890000 114.1373970000,22.3706950000 114.1373710000,22.3707140000 114.1370270000,22.3709660000 114.1369570000,22.3710190000 114.1368210000,22.3711330000 114.1367380000,22.3712210000 114.1367260000,22.3712330000 114.1365780000,22.3714180000 114.1364940000,22.3716220000 114.1364440000,22.3717420000 114.1363630000,22.3718650000 114.1362030000,22.3720210000 114.1361440000,22.3720770000 114.1360610000,22.3721400000 114.1361380000,22.3722410000 114.1362070000,22.3723470000 114.1362690000,22.3724570000 114.1362850000,22.3724870000 114.1363020000,22.3725160000 114.1363450000,22.3725890000 114.1363750000,22.3726360000 114.1363870000,22.3727100000 114.1363920000,22.3727880000 114.1363870000,22.3730780000 114.1363870000,22.3731240000 114.1363870000,22.3731920000 114.1363800000,22.3742160000 114.1363790000,22.3743180000 114.1363710000,22.3750130000 114.1363690000,22.3751440000 114.1363800000,22.3756240000 114.1363880000,22.3757720000 114.1364260000,22.3759630000 114.1364690000,22.3761700000 114.1364720000,22.3761930000 114.1364840000,22.3762620000 114.1365140000,22.3764130000 114.1365380000,22.3764930000 114.1365530000,22.3765430000 114.1365580000,22.3765630000 114.1365950000,22.3766780000 114.1366500000,22.3768270000 114.1369270000,22.3775770000 114.1370050000,22.3778140000 114.1370210000,22.3778710000 114.1370620000,22.3779970000 114.1371010000,22.3781100000 114.1372270000,22.3784280000 114.1373570000,22.3787600000 114.1373720000,22.3788000000 114.1374320000,22.3789590000 114.1374600000,22.3790470000 114.1374790000,22.3791340000 114.1374880000,22.3792120000 114.1374930000,22.3792820000 114.1374930000,22.3793640000 114.1374830000,22.3794450000 114.1374610000,22.3795360000 114.1374210000,22.3796670000 114.1373920000,22.3797420000 114.1373570000,22.3798280000 114.1372970000,22.3799150000 114.1372320000,22.3799910000 114.1371420000,22.3800870000 114.1370480000,22.3801770000 114.1369450000,22.3802500000 114.1368220000,22.3803160000 114.1366110000,22.3803940000 114.1362840000,22.3804480000 114.1360130000,22.3804370000 114.1355630000,22.3803870000 114.1352590000,22.3803530000 114.1352320000,22.3803500000 114.1352080000,22.3803490000 114.1346260000,22.3802910000 114.1344130000,22.3802700000 114.1343440000,22.3802260000 114.1343150000,22.3802230000 114.1342850000,22.3802210000 114.1341800000,22.3802250000 114.1340920000,22.3802270000 114.1339780000,22.3802480000 114.1338620000,22.3802920000 114.1337770000,22.3803080000 114.1336870000,22.3803110000 114.1335640000,22.3803050000 114.1333210000,22.3801970000 114.1332000000,22.3801370000 114.1330900000,22.3800950000 114.1330000000,22.3800560000 114.1323280000,22.3797680000 114.1322540000,22.3797330000 114.1322000000,22.3797210000 114.1321510000,22.3797210000 114.1320920000,22.3797290000 114.1320400000,22.3797430000 114.1319810000,22.3797660000 114.1319350000,22.3797880000 114.1318870000,22.3798200000 114.1318610000,22.3798590000 114.1318210000,22.3799150000 114.1318000000,22.3799550000 114.1317890000,22.3800100000 114.1317860000,22.3800590000 114.1317920000,22.3801110000 114.1318080000,22.3801590000 114.1318270000,22.3802070000 114.1318560000,22.3802510000 114.1318850000,22.3802880000 114.1319250000,22.3803210000 114.1319710000,22.3803480000 114.1320430000,22.3803820000 114.1324610000,22.3805700000 114.1326270000,22.3807000000 114.1327300000,22.3807670000 114.1328630000,22.3808370000 114.1336170000,22.3812060000 114.1339320000,22.3813240000 114.1341230000,22.3813960000 114.1343240000,22.3814510000 114.1346400000,22.3815240000 114.1348360000,22.3815610000 114.1349920000,22.3815950000 114.1351410000,22.3816280000 114.1352360000,22.3816490000 114.1354170000,22.3816900000 114.1356530000,22.3817190000 114.1360270000,22.3817520000 114.1364060000,22.3817610000 114.1364920000,22.3817660000 114.1367620000,22.3817680000 114.1368180000,22.3817650000 114.1371150000,22.3817600000 114.1373310000,22.3817560000 114.1374660000,22.3817510000 114.1375150000,22.3817490000 114.1376310000,22.3817380000 114.1377390000,22.3817220000 114.1380020000,22.3816730000 114.1381550000,22.3816280000 114.1383610000,22.3815560000 114.1385410000,22.3814750000 114.1385690000,22.3814600000 114.1386050000,22.3814430000 114.1386450000,22.3814220000 114.1388270000,22.3813240000 114.1390060000,22.3811960000 114.1391470000,22.3810740000 114.1393030000,22.3808900000 114.1394340000,22.3807370000 114.1396370000,22.3805000000 114.1400060000,22.3801180000 114.1404220000,22.3797230000 114.1408050000,22.3794220000 114.1413630000,22.3789950000 114.1418500000,22.3786680000 114.1425300000,22.3782150000 114.1435000000,22.3776950000 114.1442690000,22.3773490000 114.1448100000,22.3771480000 114.1453750000,22.3769660000 114.1462140000,22.3767550000 114.1468630000,22.3766410000 114.1476120000,22.3765350000 114.1483130000,22.3764840000 114.1488280000,22.3764650000 114.1493070000,22.3764760000 114.1497940000,22.3765020000 114.1502430000,22.3765510000 114.1506900000,22.3766190000 114.1511730000,22.3767040000 114.1515960000,22.3767950000 114.1517970000,22.3768400000 114.1521780000,22.3769350000 114.1524250000,22.3770010000 114.1629240000,22.3800620000 114.1632440000,22.3801510000 114.1642000000,22.3803930000 114.1646610000,22.3804940000 114.1650150000,22.3805640000 114.1657480000,22.3806840000 114.1659170000,22.3807090000 114.1663390000,22.3807780000 114.1674320000,22.3810070000 114.1681910000,22.3811930000 114.1687460000,22.3813150000 114.1689800000,22.3813730000 114.1691720000,22.3814230000 114.1693480000,22.3814720000 114.1696830000,22.3815780000 114.1700380000,22.3817060000 114.1703150000,22.3818090000 114.1704500000,22.3818640000 114.1706750000,22.3819610000 114.1712180000,22.3822140000 114.1714020000,22.3822900000 114.1715290000,22.3823370000 114.1716800000,22.3823930000 114.1718590000,22.3824570000 114.1719590000,22.3824910000 114.1720720000,22.3825250000 114.1721550000,22.3825470000 114.1722420000,22.3825680000 114.1723280000,22.3825860000 114.1724080000,22.3826010000 114.1724800000,22.3826120000 114.1725420000,22.3826200000 114.1726490000,22.3826300000 114.1727480000,22.3826380000 114.1728340000,22.3826440000 114.1729350000,22.3826460000 114.1730220000,22.3826470000 114.1731230000,22.3826460000 114.1732190000,22.3826430000 114.1733220000,22.3826360000 114.1734540000,22.3826220000 114.1735700000,22.3826050000 114.1736950000,22.3825850000 114.1738010000,22.3825630000 114.1739190000,22.3825350000 114.1740290000,22.3825060000 114.1741220000,22.3824780000 114.1742880000,22.3824230000 114.1743710000,22.3823930000 114.1744460000,22.3823630000 114.1745980000,22.3822970000 114.1746840000,22.3822550000 114.1747580000,22.3822170000 114.1748510000,22.3821670000 114.1749290000,22.3821200000 114.1750130000,22.3820680000 114.1751460000,22.3819780000 114.1752420000,22.3819080000 114.1753700000,22.3818090000 114.1758400000,22.3814140000 114.1764280000,22.3808660000 114.1772570000,22.3802010000 114.1776400000,22.3799060000 114.1777010000,22.3798610000 114.1778670000,22.3797430000 114.1781540000,22.3795450000 114.1782340000,22.3794940000 114.1785350000,22.3793030000 114.1786250000,22.3792410000 114.1787130000,22.3791760000 114.1787800000,22.3791220000 114.1788440000,22.3790650000 114.1788970000,22.3790100000 114.1789530000,22.3789440000 114.1790120000,22.3788670000 114.1790560000,22.3787970000 114.1790980000,22.3787220000 114.1791360000,22.3786400000 114.1791640000,22.3785640000 114.1791860000,22.3784860000 114.1792010000,22.3784150000 114.1792100000,22.3783430000 114.1792150000,22.3782650000 114.1792140000,22.3781780000 114.1792060000,22.3780920000 114.1791900000,22.3780080000 114.1791720000,22.3779380000 114.1791490000,22.3778690000 114.1791190000,22.3777960000 114.1790800000,22.3777200000 114.1790360000,22.3776440000 114.1789810000,22.3775650000 114.1789320000,22.3775040000 114.1788780000,22.3774480000 114.1788040000,22.3773800000 114.1787330000,22.3773250000 114.1787300000,22.3773230000 114.1786590000,22.3772740000 114.1785920000,22.3772340000 114.1782760000,22.3770740000 114.1777460000,22.3768790000 114.1774480000,22.3767880000 114.1770390000,22.3765440000 114.1769570000,22.3764870000 114.1768870000,22.3764380000 114.1768530000,22.3764160000 114.1768230000,22.3763950000 114.1768040000,22.3763790000 114.1767630000,22.3763450000 114.1765050000,22.3761440000 114.1759790000,22.3755620000 114.1759070000,22.3755090000 114.1758640000,22.3754770000 114.1760640000,22.3751610000 114.1762990000,22.3746790000 114.1765350000,22.3743230000 114.1766370000,22.3742130000 114.1770060000,22.3737240000 114.1770480000,22.3736710000 114.1770640000,22.3736500000 114.1770810000,22.3736290000 114.1771060000,22.3735980000 114.1775460000,22.3730640000 114.1776280000,22.3729640000 114.1778680000,22.3726960000 114.1781960000,22.3722860000 114.1782560000,22.3722060000 114.1783290000,22.3720970000 114.1784050000,22.3719840000 114.1785070000,22.3718380000 114.1785650000,22.3717780000 114.1786080000,22.3717410000 114.1786420000,22.3717190000 114.1786790000,22.3717000000 114.1787180000,22.3716860000 114.1787640000,22.3716810000 114.1788080000,22.3716690000 114.1789330000,22.3716800000 114.1790290000,22.3716990000 114.1791220000,22.3717300000 114.1792100000,22.3717720000 114.1792910000,22.3718240000 114.1796900000,22.3720700000 114.1799280000,22.3722150000 114.1800030000,22.3722650000 114.1803550000,22.3724980000 114.1804570000,22.3725650000 114.1808040000,22.3727920000 114.1808750000,22.3728360000 114.1812970000,22.3731030000 114.1814240000,22.3731860000 114.1814860000,22.3732280000 114.1816020000,22.3733030000 114.1821250000,22.3736510000 114.1822240000,22.3737110000 114.1826550000,22.3739710000 114.1827990000,22.3740680000 114.1829780000,22.3741730000 114.1831690000,22.3742760000 114.1833780000,22.3743660000 114.1836150000,22.3744490000 114.1838140000,22.3745070000 114.1839310000,22.3745270000 114.1840760000,22.3745410000 114.1840910000,22.3745430000 114.1841100000,22.3745450000 114.1841860000,22.3745520000 114.1842250000,22.3745560000 114.1842590000,22.3745590000 114.1844900000,22.3745650000 114.1846310000,22.3745650000 114.1847750000,22.3745600000 114.1850630000,22.3745160000 114.1852430000,22.3744910000 114.1854050000,22.3744650000 114.1855390000,22.3744380000 114.1856920000,22.3744180000 114.1857830000,22.3744130000 114.1858660000,22.3744080000 114.1860910000,22.3744030000 114.1861970000,22.3744100000 114.1863290000,22.3744180000 114.1864330000,22.3744240000 114.1864590000,22.3744250000 114.1864740000,22.3744270000 114.1865720000,22.3744370000 114.1866150000,22.3744420000 114.1866690000,22.3744470000 114.1867840000,22.3744710000 114.1868530000,22.3744860000 114.1869140000,22.3744990000 114.1870510000,22.3745410000 114.1871030000,22.3745570000 114.1873080000,22.3746360000 114.1876580000,22.3748320000 114.1879170000,22.3749810000 114.1880440000,22.3750540000 114.1882050000,22.3751350000 114.1883730000,22.3752360000 114.1886860000,22.3754260000 114.1888650000,22.3755430000 114.1889430000,22.3755940000 114.1890670000,22.3756750000 114.1890940000,22.3756950000 114.1892950000,22.3758450000 114.1893560000,22.3758910000 114.1893740000,22.3759140000 114.1895670000,22.3760920000 114.1895900000,22.3761110000 114.1896490000,22.3761660000 114.1896730000,22.3761880000 114.1897190000,22.3762320000 114.1897390000,22.3762750000 114.1897810000,22.3763230000 114.1898650000,22.3764070000 114.1899520000,22.3764870000 114.1899790000,22.3765150000 114.1902990000,22.3768360000 114.1907560000,22.3772960000 114.1917770000,22.3783500000 114.1918310000,22.3784080000 114.1920730000,22.3786690000 114.1929190000,22.3795790000 114.1933590000,22.3800540000 114.1935520000,22.3802390000 114.1936550000,22.3803300000 114.1938900000,22.3805710000 114.1940420000,22.3807290000 114.1940740000,22.3807510000 114.1941140000,22.3807780000 114.1941980000,22.3808690000 114.1942770000,22.3809600000 114.1943340000,22.3810450000 114.1944120000,22.3811260000 114.1944830000,22.3812000000 114.1945450000,22.3812640000 114.1948380000,22.3815680000 114.1949110000,22.3816440000 114.1954070000,22.3821580000 114.1954730000,22.3822270000 114.1956590000,22.3824210000 114.1956730000,22.3824350000 114.1957060000,22.3824700000 114.1957540000,22.3825140000 114.1958310000,22.3825920000 114.1959620000,22.3827240000 114.1960260000,22.3827860000 114.1962380000,22.3829990000 114.1962990000,22.3830580000 114.1963490000,22.3831130000 114.1964140000,22.3831850000 114.1964920000,22.3832660000 114.1967070000,22.3834870000 114.1977730000,22.3845820000 114.1980450000,22.3848700000 114.1981260000,22.3849560000 114.1981500000,22.3849800000 114.1981730000,22.3850040000 114.1988210000,22.3856650000 114.1988710000,22.3857210000 114.1989340000,22.3857940000 114.1992890000,22.3861510000 114.1995480000,22.3863970000 114.1997640000,22.3866200000 114.1999050000,22.3867650000 114.2000020000,22.3868660000 114.2000760000,22.3869430000 114.2001700000,22.3870570000 114.2000530000,22.3871550000 114.2000360000,22.3871690000 114.2000130000,22.3871880000 114.1988680000,22.3881580000 114.1986450000,22.3883540000 114.1982380000,22.3888360000 114.1981340000,22.3889720000 114.1980680000,22.3890580000 114.1980000000,22.3892120000 114.1975060000,22.3900320000 114.1972460000,22.3904350000 114.1970690000,22.3907570000 114.1970350000,22.3908310000 114.1968920000,22.3911880000 114.1968630000,22.3912880000 114.1968370000,22.3913950000 114.1968110000,22.3915310000 114.1967850000,22.3916910000 114.1967680000,22.3918190000 114.1967540000,22.3919090000 114.1967440000,22.3920030000 114.1967290000,22.3922060000 114.1967270000,22.3922490000 114.1967250000,22.3923120000 114.1967120000,22.3925090000 114.1966940000,22.3931530000 114.1966830000,22.3934200000 114.1966680000,22.3937370000 114.1966560000,22.3939120000 114.1966510000,22.3939650000 114.1966480000,22.3939990000 114.1966440000,22.3940370000 114.1966440000,22.3940420000 114.1966270000,22.3941570000 114.1966090000,22.3942590000 114.1965700000,22.3943960000 114.1965160000,22.3945570000 114.1964700000,22.3946760000 114.1964050000,22.3948400000 114.1963630000,22.3949460000 114.1963170000,22.3950380000 114.1962740000,22.3951200000 114.1962160000,22.3952290000 114.1961690000,22.3953130000 114.1961200000,22.3953970000 114.1960600000,22.3954890000 114.1959980000,22.3955810000 114.1959580000,22.3956410000 114.1959180000,22.3956960000 114.1958850000,22.3957350000 114.1957020000,22.3959380000 114.1950290000,22.3965730000 114.1947810000,22.3968010000 114.1941370000,22.3973760000 114.1941260000,22.3973870000 114.1940020000,22.3975050000 114.1937700000,22.3977150000 114.1930190000,22.3983950000 114.1929100000,22.3984230000 114.1928330000,22.3984150000 114.1927400000,22.3983600000 114.1926050000,22.3983020000 114.1922440000,22.3979490000 114.1919960000,22.3976750000 114.1916830000,22.3974030000 114.1915740000,22.3972730000 114.1914770000,22.3971650000 114.1914450000,22.3971070000 114.1914240000,22.3970490000 114.1915370000,22.3969500000 114.1916740000,22.3969140000 114.1919880000,22.3968820000 114.1922690000,22.3967790000 114.1923860000,22.3967230000 114.1924780000,22.3966650000 114.1925400000,22.3966110000 114.1926010000,22.3965420000 114.1926470000,22.3964630000 114.1927110000,22.3963590000 114.1927750000,22.3962310000 114.1929650000,22.3958730000 114.1930460000,22.3956780000 114.1931030000,22.3954740000 114.1931350000,22.3953550000 114.1932380000,22.3948790000 114.1932890000,22.3946850000 114.1932930000,22.3946740000 114.1934080000,22.3943880000 114.1934730000,22.3942320000 114.1935320000,22.3940460000 114.1935680000,22.3936210000 114.1935800000,22.3935430000 114.1935960000,22.3934780000 114.1936220000,22.3934120000 114.1936560000,22.3933440000 114.1936870000,22.3932960000 114.1937220000,22.3932520000 114.1937630000,22.3932110000 114.1938570000,22.3931200000 114.1938940000,22.3930800000 114.1939340000,22.3930290000 114.1939620000,22.3929860000 114.1939880000,22.3929340000 114.1940090000,22.3928800000 114.1940230000,22.3928230000 114.1940320000,22.3927540000 114.1940340000,22.3926900000 114.1940280000,22.3926280000 114.1940140000,22.3925650000 114.1939950000,22.3925090000 114.1939690000,22.3924550000 114.1939400000,22.3924030000 114.1939020000,22.3923510000 114.1938550000,22.3923000000 114.1938040000,22.3922550000 114.1937470000,22.3922130000 114.1936830000,22.3921790000 114.1936110000,22.3921490000 114.1935480000,22.3921300000 114.1934800000,22.3921170000 114.1934120000,22.3921100000 114.1933460000,22.3921090000 114.1932720000,22.3921170000 114.1932010000,22.3921310000 114.1931280000,22.3921580000 114.1930260000,22.3922090000 114.1929280000,22.3922930000 114.1928600000,22.3923640000 114.1927940000,22.3924660000 114.1927570000,22.3925480000 114.1927350000,22.3926550000 114.1927350000,22.3927560000 114.1927540000,22.3928880000 114.1928330000,22.3931120000 114.1928870000,22.3932500000 114.1929200000,22.3933530000 114.1929350000,22.3934550000 114.1929310000,22.3935390000 114.1929140000,22.3936410000 114.1928750000,22.3937230000 114.1928410000,22.3937830000 114.1927940000,22.3938540000 114.1927140000,22.3939500000 114.1925130000,22.3941710000 114.1924070000,22.3942680000 114.1923660000,22.3943000000 114.1923120000,22.3943370000 114.1921990000,22.3943840000 114.1920970000,22.3943990000 114.1919370000,22.3944010000 114.1918420000,22.3943890000 114.1917070000,22.3943420000 114.1915980000,22.3942780000 114.1913450000,22.3941190000 114.1911610000,22.3940160000 114.1910290000,22.3939300000 114.1909130000,22.3938090000 114.1907950000,22.3935590000 114.1906910000,22.3931760000 114.1905280000,22.3926150000 114.1904660000,22.3924180000 114.1904430000,22.3923580000 114.1904170000,22.3923020000 114.1903900000,22.3922530000 114.1903570000,22.3922050000 114.1903240000,22.3921650000 114.1902830000,22.3921210000 114.1902390000,22.3920840000 114.1901900000,22.3920530000 114.1901380000,22.3920240000 114.1900830000,22.3920000000 114.1900200000,22.3919800000 114.1899540000,22.3919660000 114.1898900000,22.3919580000 114.1898350000,22.3919550000 114.1897660000,22.3919580000 114.1897050000,22.3919670000 114.1896450000,22.3919820000 114.1895900000,22.3920000000 114.1895410000,22.3920210000 114.1894930000,22.3920470000 114.1894470000,22.3920790000 114.1893950000,22.3921210000 114.1893540000,22.3921630000 114.1893130000,22.3922110000 114.1892760000,22.3922700000 114.1892480000,22.3923280000 114.1892220000,22.3924020000 114.1892010000,22.3924850000 114.1891840000,22.3925750000 114.1891100000,22.3931080000 114.1890960000,22.3931760000 114.1890740000,22.3932550000 114.1890570000,22.3933040000 114.1890390000,22.3933490000 114.1890190000,22.3933840000 114.1889950000,22.3934230000 114.1889670000,22.3934620000 114.1889280000,22.3935060000 114.1888830000,22.3935500000 114.1888420000,22.3935840000 114.1887500000,22.3936380000 114.1886240000,22.3936800000 114.1884650000,22.3936980000 114.1881520000,22.3936700000 114.1881830000,22.3931590000 114.1882120000,22.3930450000 114.1882360000,22.3930470000 114.1882590000,22.3930420000 114.1882790000,22.3930300000 114.1882930000,22.3930130000 114.1883010000,22.3929920000 114.1883000000,22.3929700000 114.1882920000,22.3929500000 114.1882780000,22.3929330000 114.1882580000,22.3929210000 114.1882350000,22.3929160000 114.1882350000,22.3929160000 114.1882120000,22.3929180000 114.1881910000,22.3929270000 114.1881740000,22.3929420000 114.1881640000,22.3929610000 114.1881600000,22.3929820000 114.1881640000,22.3930030000 114.1881740000,22.3930210000 114.1881910000,22.3930360000 114.1882120000,22.3930450000 114.1881830000,22.3931590000 114.1881520000,22.3936700000 114.1884650000,22.3936980000 114.1886240000,22.3936800000 114.1887500000,22.3936380000 114.1888420000,22.3935840000 114.1888830000,22.3935500000 114.1889280000,22.3935060000 114.1889670000,22.3934620000 114.1889950000,22.3934230000 114.1890190000,22.3933840000 114.1890390000,22.3933490000 114.1890570000,22.3933040000 114.1890740000,22.3932550000 114.1890960000,22.3931760000 114.1891100000,22.3931080000 114.1891840000,22.3925750000 114.1892010000,22.3924850000 114.1892220000,22.3924020000 114.1892480000,22.3923280000 114.1892760000,22.3922700000 114.1893130000,22.3922110000 114.1893540000,22.3921630000 114.1893950000,22.3921210000 114.1894470000,22.3920790000 114.1894930000,22.3920470000 114.1895410000,22.3920210000 114.1895900000,22.3920000000 114.1896450000,22.3919820000 114.1897050000,22.3919670000 114.1897660000,22.3919580000 114.1898350000,22.3919550000 114.1898900000,22.3919580000 114.1899540000,22.3919660000 114.1900200000,22.3919800000 114.1900830000,22.3920000000 114.1901380000,22.3920240000 114.1901900000,22.3920530000 114.1902390000,22.3920840000 114.1902830000,22.3921210000 114.1903240000,22.3921650000 114.1903570000,22.3922050000 114.1903900000,22.3922530000 114.1904170000,22.3923020000 114.1904430000,22.3923580000 114.1904660000,22.3924180000 114.1905280000,22.3926150000 114.1906910000,22.3931760000 114.1907950000,22.3935590000 114.1909130000,22.3938090000 114.1910290000,22.3939300000 114.1911610000,22.3940160000 114.1913450000,22.3941190000 114.1915980000,22.3942780000 114.1917070000,22.3943420000 114.1918420000,22.3943890000 114.1919370000,22.3944010000 114.1920970000,22.3943990000 114.1921990000,22.3943840000 114.1923120000,22.3943370000 114.1923660000,22.3943000000 114.1924070000,22.3942680000 114.1925130000,22.3941710000 114.1927140000,22.3939500000 114.1927940000,22.3938540000 114.1928410000,22.3937830000 114.1928750000,22.3937230000 114.1929140000,22.3936410000 114.1929310000,22.3935390000 114.1929350000,22.3934550000 114.1929200000,22.3933530000 114.1928870000,22.3932500000 114.1928330000,22.3931120000 114.1927540000,22.3928880000 114.1927350000,22.3927560000 114.1927350000,22.3926550000 114.1927570000,22.3925480000 114.1927940000,22.3924660000 114.1928600000,22.3923640000 114.1929280000,22.3922930000 114.1930260000,22.3922090000 114.1931280000,22.3921580000 114.1932010000,22.3921310000 114.1932720000,22.3921170000 114.1933460000,22.3921090000 114.1934120000,22.3921100000 114.1934800000,22.3921170000 114.1935480000,22.3921300000 114.1936110000,22.3921490000 114.1936830000,22.3921790000 114.1937470000,22.3922130000 114.1938040000,22.3922550000 114.1938550000,22.3923000000 114.1939020000,22.3923510000 114.1939400000,22.3924030000 114.1939690000,22.3924550000 114.1939950000,22.3925090000 114.1940140000,22.3925650000 114.1940280000,22.3926280000 114.1940340000,22.3926900000 114.1940320000,22.3927540000 114.1940230000,22.3928230000 114.1940090000,22.3928800000 114.1939880000,22.3929340000 114.1939620000,22.3929860000 114.1939340000,22.3930290000 114.1938940000,22.3930800000 114.1938570000,22.3931200000 114.1937630000,22.3932110000 114.1937220000,22.3932520000 114.1936870000,22.3932960000 114.1936560000,22.3933440000 114.1936220000,22.3934120000 114.1935960000,22.3934780000 114.1935800000,22.3935430000 114.1935680000,22.3936210000 114.1935320000,22.3940460000 114.1934730000,22.3942320000 114.1934080000,22.3943880000 114.1932930000,22.3946740000 114.1932890000,22.3946850000 114.1932380000,22.3948790000 114.1931350000,22.3953550000 114.1931030000,22.3954740000 114.1930460000,22.3956780000 114.1929650000,22.3958730000 114.1927750000,22.3962310000 114.1927110000,22.3963590000 114.1926470000,22.3964630000 114.1926010000,22.3965420000 114.1925400000,22.3966110000 114.1924780000,22.3966650000 114.1923860000,22.3967230000 114.1922690000,22.3967790000 114.1919880000,22.3968820000 114.1916740000,22.3969140000 114.1915370000,22.3969500000 114.1914240000,22.3970490000 114.1914450000,22.3971070000 114.1914770000,22.3971650000 114.1915740000,22.3972730000 114.1916830000,22.3974030000 114.1919960000,22.3976750000 114.1922440000,22.3979490000 114.1926050000,22.3983020000 114.1926960000,22.3983850000 114.1928230000,22.3984890000 114.1928610000,22.3985290000 114.1929790000,22.3986610000 114.1939640000,22.3977380000 114.1940950000,22.3976300000 114.1942720000,22.3974700000 114.1947410000,22.3970470000 114.1949800000,22.3968310000 114.1951490000,22.3966980000 114.1954890000,22.3963480000 114.1957100000,22.3961330000 114.1959740000,22.3958410000 114.1960210000,22.3957800000 114.1960850000,22.3956900000 114.1961540000,22.3955950000 114.1962160000,22.3955030000 114.1963050000,22.3953610000 114.1963630000,22.3952650000 114.1964140000,22.3951700000 114.1964620000,22.3950730000 114.1965120000,22.3949740000 114.1965570000,22.3948750000 114.1965970000,22.3947720000 114.1966360000,22.3946670000 114.1966690000,22.3945670000 114.1967110000,22.3944400000 114.1967490000,22.3943020000 114.1967750000,22.3941960000 114.1967980000,22.3940900000 114.1968080000,22.3940310000 114.1968260000,22.3939300000 114.1968430000,22.3938160000 114.1968490000,22.3937270000 114.1968550000,22.3935440000 114.1968580000,22.3934460000 114.1968660000,22.3932440000 114.1968720000,22.3930280000 114.1968810000,22.3926540000 114.1968990000,22.3923000000 114.1969070000,22.3921870000 114.1969100000,22.3921050000 114.1969120000,22.3920450000 114.1969320000,22.3919130000 114.1969410000,22.3918530000 114.1969520000,22.3917840000 114.1969600000,22.3917310000 114.1969930000,22.3915130000 114.1970210000,22.3913740000 114.1970470000,22.3912590000 114.1970880000,22.3910850000 114.1971140000,22.3909730000 114.1971400000,22.3909230000 114.1971830000,22.3908420000 114.1972330000,22.3907590000 114.1972950000,22.3906250000 114.1973710000,22.3904760000 114.1981280000,22.3892590000 114.1982020000,22.3891380000 114.1982610000,22.3890420000 114.1987380000,22.3884410000 114.1989720000,22.3882120000 114.1996500000,22.3876470000 114.2001010000,22.3872750000 114.2001210000,22.3872580000 114.2001390000,22.3872430000 114.2001720000,22.3872160000 114.2002520000,22.3871540000 114.2003550000,22.3870720000 114.2002730000,22.3869740000 114.2000060000,22.3866810000 114.1991290000,22.3857640000 114.1990510000,22.3856840000 114.1989730000,22.3856300000 114.1985220000,22.3851640000 114.1985010000,22.3851400000 114.1982680000,22.3848930000 114.1982030000,22.3848280000 114.1981350000,22.3847590000 114.1981050000,22.3847280000 114.1978770000,22.3844980000 114.1974760000,22.3840970000 114.1970300000,22.3836470000 114.1965000000,22.3830920000 114.1964480000,22.3830380000 114.1963910000,22.3829810000 114.1963220000,22.3829060000 114.1960570000,22.3826310000 114.1959550000,22.3825270000 114.1958890000,22.3824600000 114.1958000000,22.3823680000 114.1956080000,22.3821630000 114.1955330000,22.3820880000 114.1955150000,22.3820690000 114.1953890000,22.3819370000 114.1953570000,22.3819030000 114.1953370000,22.3818820000 114.1953010000,22.3818450000 114.1950540000,22.3815850000 114.1949750000,22.3815020000 114.1947700000,22.3812840000 114.1946700000,22.3811780000 114.1946090000,22.3811120000 114.1945450000,22.3810470000 114.1944310000,22.3809590000 114.1943620000,22.3808880000 114.1942760000,22.3808010000 114.1942150000,22.3807160000 114.1941780000,22.3806730000 114.1941520000,22.3806480000 114.1930120000,22.3794980000 114.1920580000,22.3784780000 114.1918610000,22.3782770000 114.1910680000,22.3774650000 114.1908430000,22.3772340000 114.1903900000,22.3767650000 114.1900740000,22.3764370000 114.1900480000,22.3764100000 114.1899750000,22.3763310000 114.1899280000,22.3762790000 114.1898930000,22.3762410000 114.1898600000,22.3762030000 114.1898100000,22.3761460000 114.1897430000,22.3760840000 114.1896890000,22.3760320000 114.1896620000,22.3760050000 114.1896100000,22.3759560000 114.1894470000,22.3758030000 114.1893600000,22.3757210000 114.1892810000,22.3756630000 114.1891390000,22.3755610000 114.1890160000,22.3754820000 114.1889360000,22.3754300000 114.1887910000,22.3753390000 114.1884610000,22.3751330000 114.1883160000,22.3750420000 114.1882310000,22.3749860000 114.1881500000,22.3749370000 114.1880030000,22.3748480000 114.1876160000,22.3746160000 114.1873680000,22.3745210000 114.1872870000,22.3744890000 114.1871520000,22.3744370000 114.1870900000,22.3744140000 114.1870290000,22.3743950000 114.1869530000,22.3743710000 114.1869320000,22.3743650000 114.1868870000,22.3743510000 114.1868130000,22.3743370000 114.1868020000,22.3743350000 114.1866860000,22.3743120000 114.1864960000,22.3742750000 114.1863610000,22.3742630000 114.1861860000,22.3742600000 114.1861090000,22.3742630000 114.1858790000,22.3742720000 114.1857650000,22.3742770000 114.1857280000,22.3742780000 114.1856610000,22.3742830000 114.1855300000,22.3742920000 114.1853950000,22.3743340000 114.1850500000,22.3743970000 114.1847560000,22.3744390000 114.1845390000,22.3744410000 114.1843350000,22.3744340000 114.1841870000,22.3744240000 114.1841700000,22.3744230000 114.1841600000,22.3744220000 114.1840860000,22.3744110000 114.1840350000,22.3744030000 114.1839820000,22.3743960000 114.1836340000,22.3743130000 114.1833570000,22.3742090000 114.1832390000,22.3741650000 114.1830580000,22.3740710000 114.1828810000,22.3739680000 114.1827320000,22.3738760000 114.1825650000,22.3737700000 114.1821350000,22.3735130000 114.1818970000,22.3733620000 114.1816740000,22.3731900000 114.1815660000,22.3731190000 114.1815010000,22.3730780000 114.1814440000,22.3730370000 114.1813780000,22.3729930000 114.1805400000,22.3724630000 114.1799590000,22.3720790000 114.1793620000,22.3717200000 114.1792810000,22.3716660000 114.1792040000,22.3716070000 114.1791310000,22.3715440000 114.1790640000,22.3714760000 114.1789970000,22.3714040000 114.1789910000,22.3713620000 114.1789790000,22.3713210000 114.1789590000,22.3712830000 114.1789340000,22.3712480000 114.1789030000,22.3712170000 114.1788660000,22.3711910000 114.1788260000,22.3711700000 114.1787830000,22.3711560000 114.1787380000,22.3711480000 114.1786930000,22.3711460000 114.1786470000,22.3711520000 114.1786030000,22.3711630000 114.1785620000,22.3711810000 114.1785240000,22.3712050000 114.1784900000,22.3712340000 114.1784620000,22.3712670000 114.1784400000,22.3713040000 114.1784240000,22.3713440000 114.1784160000,22.3713860000 114.1784140000,22.3714280000 114.1784190000,22.3714700000 114.1784320000,22.3715110000 114.1784350000,22.3715670000 114.1784310000,22.3716230000 114.1784200000,22.3716780000 114.1784040000,22.3717320000 114.1783850000,22.3717760000 114.1783630000,22.3718170000 114.1783030000,22.3719000000 114.1780820000,22.3722060000 114.1777550000,22.3726140000 114.1776370000,22.3727630000 114.1775350000,22.3728970000 114.1772200000,22.3732550000 114.1772040000,22.3732740000 114.1771280000,22.3733610000 114.1771190000,22.3733710000 114.1770940000,22.3733990000 114.1769780000,22.3735310000 114.1768410000,22.3737260000 114.1767200000,22.3738850000 114.1766140000,22.3740150000 114.1765450000,22.3741040000 114.1763360000,22.3744240000 114.1760740000,22.3748630000 114.1757510000,22.3754030000 114.1756620000,22.3755330000 114.1757740000,22.3756100000 114.1758220000,22.3756560000 114.1758740000,22.3757050000 114.1760810000,22.3760350000 114.1762520000,22.3762160000 114.1764080000,22.3763780000 114.1765460000,22.3765140000 114.1766030000,22.3765610000 114.1766800000,22.3766180000 114.1767650000,22.3766740000 114.1768700000,22.3767370000 114.1771050000,22.3769110000 114.1772190000,22.3769880000 114.1775300000,22.3771900000 114.1776410000,22.3772470000 114.1777500000,22.3772880000 114.1782660000,22.3774340000 114.1783540000,22.3774620000 114.1784340000,22.3774920000 114.1785010000,22.3775210000 114.1785690000,22.3775600000 114.1786370000,22.3776070000 114.1786940000,22.3776580000 114.1787450000,22.3777150000 114.1787830000,22.3777710000 114.1788150000,22.3778340000 114.1788360000,22.3778860000 114.1788520000,22.3779440000 114.1788600000,22.3779960000 114.1788650000,22.3780470000 114.1788650000,22.3781060000 114.1788590000,22.3781600000 114.1788480000,22.3782130000 114.1788310000,22.3782710000 114.1788100000,22.3783240000 114.1787820000,22.3783830000 114.1787480000,22.3784370000 114.1786930000,22.3785120000 114.1786330000,22.3785880000 114.1784610000,22.3787850000 114.1782500000,22.3790280000 114.1774640000,22.3797510000 114.1763630000,22.3807830000 114.1757910000,22.3812990000 114.1756250000,22.3814500000 114.1753740000,22.3816650000 114.1751620000,22.3818230000 114.1749150000,22.3819920000 114.1747780000,22.3820750000 114.1746780000,22.3821320000 114.1745390000,22.3821980000 114.1743910000,22.3822650000 114.1743110000,22.3822960000 114.1742270000,22.3823270000 114.1740660000,22.3823790000 114.1738960000,22.3824290000 114.1737330000,22.3824670000 114.1736520000,22.3824830000 114.1735650000,22.3824990000 114.1734780000,22.3825100000 114.1733900000,22.3825200000 114.1733010000,22.3825290000 114.1732130000,22.3825340000 114.1731160000,22.3825370000 114.1730480000,22.3825370000 114.1729850000,22.3825360000 114.1729120000,22.3825330000 114.1727920000,22.3825270000 114.1727020000,22.3825220000 114.1726190000,22.3825150000 114.1724940000,22.3825020000 114.1724480000,22.3824960000 114.1723700000,22.3824810000 114.1722660000,22.3824580000 114.1721960000,22.3824400000 114.1721140000,22.3824180000 114.1719890000,22.3823810000 114.1717190000,22.3822870000 114.1714520000,22.3821870000 114.1712730000,22.3821160000 114.1707570000,22.3818900000 114.1705110000,22.3817850000 114.1703500000,22.3817190000 114.1700950000,22.3816190000 114.1698960000,22.3815520000 114.1697040000,22.3814870000 114.1692640000,22.3813510000 114.1688010000,22.3812260000 114.1682450000,22.3810940000 114.1673670000,22.3808810000 114.1670930000,22.3808140000 114.1668980000,22.3807690000 114.1664100000,22.3806480000 114.1658240000,22.3805000000 114.1655780000,22.3804410000 114.1528120000,22.3767450000 114.1519950000,22.3765190000 114.1516810000,22.3764450000 114.1513770000,22.3763770000 114.1508370000,22.3762750000 114.1505650000,22.3762290000 114.1502020000,22.3761820000 114.1498220000,22.3761500000 114.1493080000,22.3761220000 114.1488720000,22.3761120000 114.1484760000,22.3761160000 114.1481380000,22.3761290000 114.1475700000,22.3761770000 114.1471530000,22.3762270000 114.1468030000,22.3762780000 114.1461640000,22.3763990000 114.1456600000,22.3765160000 114.1451010000,22.3766690000 114.1442630000,22.3769490000 114.1438230000,22.3771230000 114.1434940000,22.3772720000 114.1430130000,22.3775090000 114.1427010000,22.3776780000 114.1423410000,22.3778910000 114.1417510000,22.3782860000 114.1414270000,22.3785320000 114.1410300000,22.3788660000 114.1405850000,22.3792910000 114.1403220000,22.3795610000 114.1402590000,22.3796220000 114.1401300000,22.3797470000 114.1397160000,22.3801600000 114.1394990000,22.3803770000 114.1392720000,22.3806030000 114.1390980000,22.3807770000 114.1390030000,22.3808600000 114.1388490000,22.3809930000 114.1386750000,22.3811090000 114.1386210000,22.3811450000 114.1385020000,22.3812100000 114.1384700000,22.3812300000 114.1384310000,22.3812520000 114.1384010000,22.3812680000 114.1382090000,22.3813640000 114.1380640000,22.3814230000 114.1379350000,22.3814750000 114.1377070000,22.3815260000 114.1375970000,22.3815410000 114.1374650000,22.3815590000 114.1373330000,22.3815710000 114.1369550000,22.3815930000 114.1368050000,22.3815980000 114.1365960000,22.3815990000 114.1364950000,22.3816030000 114.1363970000,22.3816010000 114.1360420000,22.3815960000 114.1356750000,22.3815700000 114.1352580000,22.3815160000 114.1351870000,22.3815040000 114.1350330000,22.3814770000 114.1348580000,22.3814340000 114.1346900000,22.3813770000 114.1344550000,22.3812860000 114.1342470000,22.3811910000 114.1340470000,22.3810920000 114.1338770000,22.3809720000 114.1337740000,22.3808990000 114.1336890000,22.3808110000 114.1335900000,22.3806980000 114.1334880000,22.3805750000 114.1332850000,22.3803290000 114.1332090000,22.3802420000 114.1331660000,22.3802000000 114.1330750000,22.3801180000 114.1330000000,22.3800560000 114.1323280000,22.3797680000 114.1322540000,22.3797330000 114.1322000000,22.3797210000 114.1321510000,22.3797210000 114.1320920000,22.3797290000 114.1320400000,22.3797430000 114.1319810000,22.3797660000 114.1319350000,22.3797880000 114.1318870000,22.3798200000 114.1318610000,22.3798590000 114.1318210000,22.3799150000 114.1318000000,22.3799550000 114.1317890000,22.3800100000 114.1317860000,22.3800590000 114.1317920000,22.3801110000 114.1318080000,22.3801590000 114.1318270000,22.3802070000 114.1318560000,22.3802510000 114.1318850000,22.3802880000 114.1319250000,22.3803210000 114.1319710000,22.3803480000 114.1320430000,22.3803820000 114.1324610000,22.3805700000 114.1326590000,22.3806430000 114.1327720000,22.3807140000 114.1329020000,22.3807790000 114.1332880000,22.3809590000 114.1333530000,22.3809770000 114.1334140000,22.3809820000 114.1334950000,22.3809860000 114.1335660000,22.3809730000 114.1336210000,22.3809530000 114.1336940000,22.3809040000 114.1337470000,22.3808460000 114.1337670000,22.3808140000 114.1337900000,22.3807660000 114.1338110000,22.3806550000 114.1338400000,22.3805800000 114.1338810000,22.3805110000 114.1339320000,22.3804470000 114.1339930000,22.3803920000 114.1340650000,22.3803540000 114.1341390000,22.3803250000 114.1342090000,22.3803090000 114.1342840000,22.3803040000 114.1343040000,22.3803030000 114.1343280000,22.3803030000 114.1344130000,22.3802700000 114.1346260000,22.3802910000 114.1352080000,22.3803490000 114.1352320000,22.3803500000 114.1352590000,22.3803530000 114.1355630000,22.3803870000 114.1360130000,22.3804370000 114.1362840000,22.3804480000 114.1366110000,22.3803940000 114.1368220000,22.3803160000 114.1369450000,22.3802500000 114.1370480000,22.3801770000 114.1371420000,22.3800870000 114.1372320000,22.3799910000 114.1372970000,22.3799150000 114.1373570000,22.3798280000 114.1373920000,22.3797420000 114.1374210000,22.3796670000 114.1374610000,22.3795360000 114.1374830000,22.3794450000 114.1374930000,22.3793640000 114.1374930000,22.3792820000 114.1374880000,22.3792120000 114.1374790000,22.3791340000 114.1374600000,22.3790470000 114.1374320000,22.3789590000 114.1373720000,22.3788000000 114.1373570000,22.3787600000 114.1372270000,22.3784280000 114.1371010000,22.3781100000 114.1370620000,22.3779970000 114.1370210000,22.3778710000 114.1370050000,22.3778140000 114.1369270000,22.3775770000 114.1366500000,22.3768270000 114.1365950000,22.3766780000 114.1365580000,22.3765630000 114.1365530000,22.3765430000 114.1365380000,22.3764930000 114.1365140000,22.3764130000 114.1364840000,22.3762620000 114.1364720000,22.3761930000 114.1364690000,22.3761700000 114.1364260000,22.3759630000 114.1363880000,22.3757720000 114.1363800000,22.3756240000 114.1363690000,22.3751440000 114.1363710000,22.3750130000 114.1363790000,22.3743180000 114.1363800000,22.3742160000 114.1363870000,22.3731920000 114.1363870000,22.3731240000 114.1363870000,22.3730780000 114.1363920000,22.3727880000 114.1363870000,22.3727100000 114.1363750000,22.3726360000 114.1363760000,22.3725740000 114.1363820000,22.3725040000 114.1363820000,22.3724590000 114.1363680000,22.3724040000 114.1363340000,22.3723170000 114.1362990000,22.3722530000 114.1362480000,22.3721940000 114.1361980000,22.3721370000 114.1361440000,22.3720770000 114.1362030000,22.3720210000 114.1363630000,22.3718650000 114.1364440000,22.3717420000 114.1364940000,22.3716220000 114.1365780000,22.3714180000 114.1367260000,22.3712330000 114.1367380000,22.3712210000 114.1368210000,22.3711330000 114.1369570000,22.3710190000 114.1370270000,22.3709660000 114.1373710000,22.3707140000 114.1373970000,22.3706950000 114.1375390000,22.3705890000 114.1376500000,22.3707020000 114.1376810000,22.3707340000 114.1379280000,22.3709780000 114.1380240000,22.3710770000 114.1381580000,22.3712290000 114.1382270000,22.3713190000 114.1383150000,22.3714860000 114.1383260000,22.3715070000 114.1384430000,22.3717180000 114.1384780000,22.3717840000 114.1385010000,22.3718270000 114.1385660000,22.3719470000 114.1387730000,22.3723240000 114.1388800000,22.3725180000 114.1389170000,22.3725470000 114.1389470000,22.3725630000 114.1389710000,22.3725730000 114.1390050000,22.3725840000 114.1390430000,22.3725890000 114.1390820000,22.3725860000 114.1391200000,22.3725800000 114.1391660000,22.3725720000 114.1392050000,22.3725530000 114.1392270000,22.3725360000 114.1393010000,22.3724780000 114.1393710000,22.3724170000 114.1394720000,22.3723280000 114.1395370000,22.3722710000 114.1396030000,22.3722140000 114.1397200000,22.3721010000 114.1398490000,22.3719770000 114.1398570000,22.3719660000 114.1398900000,22.3719230000 114.1399680000,22.3718240000 114.1400320000,22.3717200000 114.1401220000,22.3715040000 114.1402960000,22.3707320000 114.1402980000,22.3707220000 114.1403330000,22.3705560000 114.1403530000,22.3704510000 114.1403560000,22.3704330000 114.1404280000,22.3700320000 114.1404650000,22.3698930000 114.1405080000,22.3697910000 114.1405640000,22.3696830000 114.1406350000,22.3695810000 114.1407270000,22.3694820000 114.1407480000,22.3694650000 114.1407840000,22.3694360000 114.1408290000,22.3693980000 114.1409580000,22.3693200000 114.1410700000,22.3692490000 114.1411210000,22.3692170000 114.1414630000,22.3689910000 114.1415510000,22.3689330000 114.1416040000,22.3688970000 114.1416900000,22.3688290000 114.1418060000,22.3687080000 114.1418130000,22.3687010000 114.1418940000,22.3686040000 114.1419720000,22.3685010000 114.1420390000,22.3684230000 114.1421150000,22.3683190000 114.1421910000,22.3681100000 114.1422940000,22.3678240000 114.1423020000,22.3677330000 114.1422970000,22.3676480000 114.1422960000,22.3675660000 114.1422860000,22.3674450000 114.1422850000,22.3674290000 114.1422670000,22.3673420000 114.1422480000,22.3672400000 114.1422210000,22.3671380000 114.1422080000,22.3670950000 114.1420940000,22.3666990000 114.1419550000,22.3663330000 114.1418880000,22.3661370000 114.1418290000,22.3660170000 114.1417620000,22.3659340000 114.1416480000,22.3658160000 114.1414830000,22.3656800000 114.1408940000,22.3652880000 114.1409310000,22.3652400000 114.1412160000,22.3648610000 114.1413140000,22.3647310000 114.1413450000,22.3646820000 114.1413470000,22.3646350000 114.1413430000,22.3645920000 114.1413330000,22.3645560000 114.1412940000,22.3645090000 114.1408650000,22.3642350000 114.1406250000,22.3640820000 114.1399880000,22.3636740000 114.1397290000,22.3634910000 114.1390710000,22.3630830000 114.1388670000,22.3629470000 114.1387790000,22.3628730000 114.1386560000,22.3627680000 114.1385000000,22.3625860000 114.1384280000,22.3624920000 114.1383340000,22.3623410000 114.1383020000,22.3622610000 114.1382550000,22.3621440000 114.1382370000,22.3620980000 114.1382020000,22.3619380000 114.1380340000,22.3614070000 114.1379040000,22.3612050000 114.1378910000,22.3611930000 114.1377160000,22.3610370000 114.1377130000,22.3609500000 114.1377330000,22.3609280000 114.1377450000,22.3609020000 114.1377470000,22.3608730000 114.1377390000,22.3608450000 114.1377220000,22.3608210000 114.1376970000,22.3608030000 114.1376670000,22.3607940000 114.1376360000,22.3607930000 114.1376270000,22.3607960000</coordinates>
                </LineString>
                <ExtendedData>
                    <Data name="length">
                        <value>33463.55970522559</value>
                    </Data>
                    <Data name="duration">
                        <value>00:44:33</value>
                    </Data>
                </ExtendedData>
            </Placemark>
        </Document>
    </Document>
</kml>