<?xml version="1.0" encoding="UTF-8"?>
<kml xmlns="http://www.opengis.net/kml/2.2" xmlns:gx="http://www.google.com/kml/ext/2.2">
    <Document>
        <name>Route</name>
        <Folder>
            <name>Route Request</name>
            <Placemark>
                <address>Intercity Through Train Concourse / Exit C Concourse of MTR Hung Hom Station, 8, Cheong Wan Road, The Metropolis, Yau Tsim Mong District, Kowloon, Hong Kong, KIL 3348, PRC</address>
                <Point>
                    <coordinates>114.1822256191,22.3028636703</coordinates>
                </Point>
                <ExtendedData>
                    <Data name="building">
                        <value>Intercity Through Train Concourse / Exit C Concourse of MTR Hung Hom Station</value>
                    </Data>
                    <Data name="county">
                        <value>Yau Tsim Mong District</value>
                    </Data>
                    <Data name="postcode">
                        <value>KIL 3348</value>
                    </Data>
                    <Data name="road">
                        <value>Cheong Wan Road</value>
                    </Data>
                    <Data name="house_number">
                        <value>8</value>
                    </Data>
                    <Data name="commercial">
                        <value>The Metropolis</value>
                    </Data>
                    <Data name="region">
                        <value>Kowloon</value>
                    </Data>
                    <Data name="country">
                        <value>PRC</value>
                    </Data>
                    <Data name="state">
                        <value>Hong Kong</value>
                    </Data>
                    <Data name="country_code">
                        <value>cn</value>
                    </Data>
                </ExtendedData>
            </Placemark>
            <Placemark>
                <address>Mody Road Tsim Sha Tsui, Chatham Road South, Kwun Chung, Tsim Sha Tsui, Yau Tsim Mong District, Kowloon, Hong Kong, KIL 3348, PRC</address>
                <Point>
                    <coordinates>114.1758514477,22.2986105728</coordinates>
                </Point>
                <ExtendedData>
                    <Data name="county">
                        <value>Yau Tsim Mong District</value>
                    </Data>
                    <Data name="postcode">
                        <value>KIL 3348</value>
                    </Data>
                    <Data name="road">
                        <value>Chatham Road South</value>
                    </Data>
                    <Data name="bus_stop">
                        <value>Mody Road Tsim Sha Tsui</value>
                    </Data>
                    <Data name="neighbourhood">
                        <value>Kwun Chung</value>
                    </Data>
                    <Data name="region">
                        <value>Kowloon</value>
                    </Data>
                    <Data name="country">
                        <value>PRC</value>
                    </Data>
                    <Data name="state">
                        <value>Hong Kong</value>
                    </Data>
                    <Data name="suburb">
                        <value>Tsim Sha Tsui</value>
                    </Data>
                    <Data name="country_code">
                        <value>cn</value>
                    </Data>
                </ExtendedData>
            </Placemark>
            <Placemark>
                <address>Heritage Resource Centre of the Antiquities &amp; Monuments Office, Nathan Road, Tsim Sha Tsui, Yau Tsim Mong District, Hong Kong, 00000, PRC</address>
                <Point>
                    <coordinates>114.1715994065,22.3012336009</coordinates>
                </Point>
                <ExtendedData>
                    <Data name="building">
                        <value>Heritage Resource Centre of the Antiquities &amp; Monuments Office</value>
                    </Data>
                    <Data name="county">
                        <value>Yau Tsim Mong District</value>
                    </Data>
                    <Data name="postcode">
                        <value>00000</value>
                    </Data>
                    <Data name="road">
                        <value>Nathan Road</value>
                    </Data>
                    <Data name="suburb">
                        <value>Tsim Sha Tsui</value>
                    </Data>
                    <Data name="country">
                        <value>PRC</value>
                    </Data>
                    <Data name="country_code">
                        <value>cn</value>
                    </Data>
                </ExtendedData>
            </Placemark>
            <Placemark>
                <address>581, Nathan Road, Mong Kok, Yau Tsim Mong District, Hong Kong, KIL 3348, PRC</address>
                <Point>
                    <coordinates>114.1699337677,22.3155246404</coordinates>
                </Point>
                <ExtendedData>
                    <Data name="county">
                        <value>Yau Tsim Mong District</value>
                    </Data>
                    <Data name="postcode">
                        <value>KIL 3348</value>
                    </Data>
                    <Data name="road">
                        <value>Nathan Road</value>
                    </Data>
                    <Data name="house_number">
                        <value>581</value>
                    </Data>
                    <Data name="suburb">
                        <value>Mong Kok</value>
                    </Data>
                    <Data name="country">
                        <value>PRC</value>
                    </Data>
                    <Data name="country_code">
                        <value>cn</value>
                    </Data>
                </ExtendedData>
            </Placemark>
            <Placemark>
                <address>Castle Peak Road, Shek Kip Mei, Sham Shui Po District, Hong Kong, KIL 3348, PRC</address>
                <Point>
                    <coordinates>114.1632426924,22.3335631866</coordinates>
                </Point>
                <ExtendedData>
                    <Data name="county">
                        <value>Sham Shui Po District</value>
                    </Data>
                    <Data name="postcode">
                        <value>KIL 3348</value>
                    </Data>
                    <Data name="road">
                        <value>Castle Peak Road</value>
                    </Data>
                    <Data name="suburb">
                        <value>Shek Kip Mei</value>
                    </Data>
                    <Data name="country">
                        <value>PRC</value>
                    </Data>
                    <Data name="country_code">
                        <value>cn</value>
                    </Data>
                </ExtendedData>
            </Placemark>
            <Placemark>
                <address>Airport Road, Sha Lo Wan, Tung Chung, Islands District, Hong Kong, 000000, PRC</address>
                <Point>
                    <coordinates>113.9347087427,22.3000209063</coordinates>
                </Point>
                <ExtendedData>
                    <Data name="county">
                        <value>Islands District</value>
                    </Data>
                    <Data name="postcode">
                        <value>000000</value>
                    </Data>
                    <Data name="road">
                        <value>Airport Road</value>
                    </Data>
                    <Data name="suburb">
                        <value>Sha Lo Wan</value>
                    </Data>
                    <Data name="country">
                        <value>PRC</value>
                    </Data>
                    <Data name="town">
                        <value>Tung Chung</value>
                    </Data>
                    <Data name="country_code">
                        <value>cn</value>
                    </Data>
                </ExtendedData>
            </Placemark>
            <Placemark>
                <address>Hong Kong International Airport Car Park 4, Cheong Tat Road, Sha Lo Wan, Tung Chung, Islands District, Hong Kong, PRC</address>
                <Point>
                    <coordinates>113.9352601625,22.3183624667</coordinates>
                </Point>
                <ExtendedData>
                    <Data name="parking">
                        <value>Hong Kong International Airport Car Park 4</value>
                    </Data>
                    <Data name="county">
                        <value>Islands District</value>
                    </Data>
                    <Data name="road">
                        <value>Cheong Tat Road</value>
                    </Data>
                    <Data name="suburb">
                        <value>Sha Lo Wan</value>
                    </Data>
                    <Data name="country">
                        <value>PRC</value>
                    </Data>
                    <Data name="town">
                        <value>Tung Chung</value>
                    </Data>
                    <Data name="country_code">
                        <value>cn</value>
                    </Data>
                </ExtendedData>
            </Placemark>
            <Placemark>
                <address>Sky City Road, Tung Chung, Islands District, Hong Kong, 000000, PRC</address>
                <Point>
                    <coordinates>113.9384050024,22.3210785555</coordinates>
                </Point>
                <ExtendedData>
                    <Data name="county">
                        <value>Islands District</value>
                    </Data>
                    <Data name="postcode">
                        <value>000000</value>
                    </Data>
                    <Data name="road">
                        <value>Sky City Road</value>
                    </Data>
                    <Data name="country">
                        <value>PRC</value>
                    </Data>
                    <Data name="town">
                        <value>Tung Chung</value>
                    </Data>
                    <Data name="country_code">
                        <value>cn</value>
                    </Data>
                </ExtendedData>
            </Placemark>
            <Placemark>
                <address>SkyCity Car Park, Airport Expo Boulevard, Tung Chung, Islands District, Hong Kong, 000000, PRC</address>
                <Point>
                    <coordinates>113.9416241594,22.3187699618</coordinates>
                </Point>
                <ExtendedData>
                    <Data name="parking">
                        <value>SkyCity Car Park</value>
                    </Data>
                    <Data name="county">
                        <value>Islands District</value>
                    </Data>
                    <Data name="postcode">
                        <value>000000</value>
                    </Data>
                    <Data name="road">
                        <value>Airport Expo Boulevard</value>
                    </Data>
                    <Data name="country">
                        <value>PRC</value>
                    </Data>
                    <Data name="town">
                        <value>Tung Chung</value>
                    </Data>
                    <Data name="country_code">
                        <value>cn</value>
                    </Data>
                </ExtendedData>
            </Placemark>
            <Placemark>
                <address>Terminal 2, Sky Plaza Drive, Sha Lo Wan, Tung Chung, Islands District, Hong Kong, 000000, PRC</address>
                <Point>
                    <coordinates>113.9376211282,22.3157683735</coordinates>
                </Point>
                <ExtendedData>
                    <Data name="county">
                        <value>Islands District</value>
                    </Data>
                    <Data name="postcode">
                        <value>000000</value>
                    </Data>
                    <Data name="road">
                        <value>Sky Plaza Drive</value>
                    </Data>
                    <Data name="suburb">
                        <value>Sha Lo Wan</value>
                    </Data>
                    <Data name="country">
                        <value>PRC</value>
                    </Data>
                    <Data name="town">
                        <value>Tung Chung</value>
                    </Data>
                    <Data name="address29">
                        <value>Terminal 2</value>
                    </Data>
                    <Data name="country_code">
                        <value>cn</value>
                    </Data>
                </ExtendedData>
            </Placemark>
            <Placemark>
                <address>East Coast Road, Sha Lo Wan, Tung Chung, Islands District, Hong Kong, 000000, PRC</address>
                <Point>
                    <coordinates>113.9356832006,22.2991602978</coordinates>
                </Point>
                <ExtendedData>
                    <Data name="county">
                        <value>Islands District</value>
                    </Data>
                    <Data name="postcode">
                        <value>000000</value>
                    </Data>
                    <Data name="road">
                        <value>East Coast Road</value>
                    </Data>
                    <Data name="suburb">
                        <value>Sha Lo Wan</value>
                    </Data>
                    <Data name="country">
                        <value>PRC</value>
                    </Data>
                    <Data name="town">
                        <value>Tung Chung</value>
                    </Data>
                    <Data name="country_code">
                        <value>cn</value>
                    </Data>
                </ExtendedData>
            </Placemark>
            <Placemark>
                <address>Emma Party House, Tai Po Road, Shek Kip Mei, Sham Shui Po District, Hong Kong, KIL 3348, PRC</address>
                <Point>
                    <coordinates>114.1663325972,22.3299110932</coordinates>
                </Point>
                <ExtendedData>
                    <Data name="shop">
                        <value>Emma Party House</value>
                    </Data>
                    <Data name="county">
                        <value>Sham Shui Po District</value>
                    </Data>
                    <Data name="postcode">
                        <value>KIL 3348</value>
                    </Data>
                    <Data name="road">
                        <value>Tai Po Road</value>
                    </Data>
                    <Data name="suburb">
                        <value>Shek Kip Mei</value>
                    </Data>
                    <Data name="country">
                        <value>PRC</value>
                    </Data>
                    <Data name="country_code">
                        <value>cn</value>
                    </Data>
                </ExtendedData>
            </Placemark>
            <Placemark>
                <address>Mannings, Nathan Road, King's Park, Yau Tsim Mong District, Hong Kong, KIL 3348, PRC</address>
                <Point>
                    <coordinates>114.1713045010,22.3115607627</coordinates>
                </Point>
                <ExtendedData>
                    <Data name="chemist">
                        <value>Mannings</value>
                    </Data>
                    <Data name="county">
                        <value>Yau Tsim Mong District</value>
                    </Data>
                    <Data name="postcode">
                        <value>KIL 3348</value>
                    </Data>
                    <Data name="road">
                        <value>Nathan Road</value>
                    </Data>
                    <Data name="suburb">
                        <value>King's Park</value>
                    </Data>
                    <Data name="country">
                        <value>PRC</value>
                    </Data>
                    <Data name="country_code">
                        <value>cn</value>
                    </Data>
                </ExtendedData>
            </Placemark>
            <Placemark>
                <address>K11, 18, Hanoi Road, Tsim Sha Tsui, Yau Tsim Mong District, Hong Kong, 00000, PRC</address>
                <Point>
                    <coordinates>114.1739848628,22.2971769243</coordinates>
                </Point>
                <ExtendedData>
                    <Data name="building">
                        <value>K11</value>
                    </Data>
                    <Data name="county">
                        <value>Yau Tsim Mong District</value>
                    </Data>
                    <Data name="postcode">
                        <value>00000</value>
                    </Data>
                    <Data name="road">
                        <value>Hanoi Road</value>
                    </Data>
                    <Data name="house_number">
                        <value>18</value>
                    </Data>
                    <Data name="suburb">
                        <value>Tsim Sha Tsui</value>
                    </Data>
                    <Data name="country">
                        <value>PRC</value>
                    </Data>
                    <Data name="country_code">
                        <value>cn</value>
                    </Data>
                </ExtendedData>
            </Placemark>
            <Placemark>
                <address>Centenary Garden, Chatham Road South, Tsim Sha Tsui, Yau Tsim Mong District, Hong Kong, 00000, PRC</address>
                <Point>
                    <coordinates>114.1758516803,22.2997776755</coordinates>
                </Point>
                <ExtendedData>
                    <Data name="garden">
                        <value>Centenary Garden</value>
                    </Data>
                    <Data name="county">
                        <value>Yau Tsim Mong District</value>
                    </Data>
                    <Data name="postcode">
                        <value>00000</value>
                    </Data>
                    <Data name="road">
                        <value>Chatham Road South</value>
                    </Data>
                    <Data name="suburb">
                        <value>Tsim Sha Tsui</value>
                    </Data>
                    <Data name="country">
                        <value>PRC</value>
                    </Data>
                    <Data name="country_code">
                        <value>cn</value>
                    </Data>
                </ExtendedData>
            </Placemark>
            <Placemark>
                <address>Sha Tin to Central Link Hong Hom Station, Cheong Wan Road, The Metropolis, Yau Tsim Mong District, Hong Kong, 00000, PRC</address>
                <Point>
                    <coordinates>114.1821075395,22.3026450858</coordinates>
                </Point>
                <ExtendedData>
                    <Data name="platform">
                        <value>Sha Tin to Central Link Hong Hom Station</value>
                    </Data>
                    <Data name="county">
                        <value>Yau Tsim Mong District</value>
                    </Data>
                    <Data name="postcode">
                        <value>00000</value>
                    </Data>
                    <Data name="road">
                        <value>Cheong Wan Road</value>
                    </Data>
                    <Data name="commercial">
                        <value>The Metropolis</value>
                    </Data>
                    <Data name="country">
                        <value>PRC</value>
                    </Data>
                    <Data name="country_code">
                        <value>cn</value>
                    </Data>
                </ExtendedData>
            </Placemark>
        </Folder>
        <Document>
            <name>81.2 km; 02:08 h (OSRM)</name>
            <Placemark>
                <name>Route</name>
                <LineString>
                    <coordinates>114.1826990000,22.3028210000 114.1826430000,22.3022980000 114.1826280000,22.3021750000 114.1825070000,22.3021010000 114.1823010000,22.3020270000 114.1815420000,22.3020510000 114.1811750000,22.3020550000 114.1811070000,22.3020540000 114.1809980000,22.3020540000 114.1808440000,22.3020570000 114.1792990000,22.3021850000 114.1790920000,22.3022140000 114.1788450000,22.3022660000 114.1786020000,22.3023340000 114.1784390000,22.3023860000 114.1781840000,22.3024580000 114.1776360000,22.3026960000 114.1775250000,22.3027470000 114.1773340000,22.3027550000 114.1773010000,22.3027430000 114.1772480000,22.3027230000 114.1770240000,22.3026010000 114.1769630000,22.3024940000 114.1767330000,22.3019130000 114.1765970000,22.3015200000 114.1764460000,22.3010740000 114.1763410000,22.3007860000 114.1762520000,22.3005230000 114.1759960000,22.2996640000 114.1759630000,22.2995540000 114.1759280000,22.2993880000 114.1759280000,22.2993850000 114.1758680000,22.2989950000 114.1758190000,22.2986710000 114.1758110000,22.2986160000 114.1757330000,22.2981050000 114.1755820000,22.2972560000 114.1755250000,22.2970180000 114.1753120000,22.2957560000 114.1753020000,22.2955270000 114.1753010000,22.2955040000 114.1752980000,22.2954300000 114.1753220000,22.2951710000 114.1752130000,22.2951200000 114.1751020000,22.2950780000 114.1747670000,22.2949600000 114.1746590000,22.2949150000 114.1742890000,22.2948160000 114.1739770000,22.2947460000 114.1736740000,22.2946890000 114.1735480000,22.2946750000 114.1733350000,22.2946720000 114.1732200000,22.2946690000 114.1730150000,22.2946670000 114.1725320000,22.2946820000 114.1724890000,22.2946800000 114.1724500000,22.2946810000 114.1724240000,22.2946860000 114.1723990000,22.2946980000 114.1723690000,22.2947120000 114.1723390000,22.2947420000 114.1723210000,22.2947800000 114.1723100000,22.2949440000 114.1722640000,22.2956150000 114.1722390000,22.2959540000 114.1722000000,22.2964850000 114.1721280000,22.2975570000 114.1721050000,22.2979470000 114.1721020000,22.2980100000 114.1720930000,22.2981590000 114.1720810000,22.2983370000 114.1720360000,22.2989300000 114.1720120000,22.2994080000 114.1720070000,22.2995080000 114.1720010000,22.2995940000 114.1719480000,22.3003360000 114.1719400000,22.3004550000 114.1719350000,22.3005100000 114.1718790000,22.3012520000 114.1718720000,22.3013390000 114.1718340000,22.3016970000 114.1717980000,22.3022690000 114.1717520000,22.3030580000 114.1717500000,22.3031050000 114.1717450000,22.3031930000 114.1717400000,22.3032700000 114.1717360000,22.3033960000 114.1717190000,22.3039150000 114.1716840000,22.3043850000 114.1716320000,22.3050060000 114.1716270000,22.3050560000 114.1716090000,22.3052720000 114.1716010000,22.3053650000 114.1715100000,22.3059380000 114.1714700000,22.3065360000 114.1714610000,22.3066150000 114.1714140000,22.3070950000 114.1713450000,22.3077040000 114.1712970000,22.3082140000 114.1712920000,22.3082640000 114.1712780000,22.3084120000 114.1712710000,22.3084970000 114.1711910000,22.3092030000 114.1711830000,22.3092980000 114.1711430000,22.3096650000 114.1711110000,22.3100750000 114.1711070000,22.3101330000 114.1711010000,22.3102040000 114.1710930000,22.3102910000 114.1710200000,22.3109160000 114.1708740000,22.3117070000 114.1708650000,22.3117540000 114.1708380000,22.3119030000 114.1706440000,22.3128290000 114.1706170000,22.3129600000 114.1705980000,22.3130570000 114.1705790000,22.3131490000 114.1704260000,22.3138930000 114.1704060000,22.3139780000 114.1703870000,22.3140810000 114.1703250000,22.3144120000 114.1702980000,22.3145510000 114.1702820000,22.3146250000 114.1702220000,22.3149060000 114.1701980000,22.3150140000 114.1701410000,22.3152830000 114.1701250000,22.3153620000 114.1701060000,22.3154490000 114.1700840000,22.3155520000 114.1699740000,22.3160650000 114.1699470000,22.3162200000 114.1698800000,22.3165370000 114.1698450000,22.3167110000 114.1697770000,22.3170440000 114.1696740000,22.3175180000 114.1696010000,22.3179070000 114.1695180000,22.3183090000 114.1694820000,22.3184960000 114.1693650000,22.3190650000 114.1693480000,22.3191460000 114.1693200000,22.3192930000 114.1692700000,22.3195280000 114.1692500000,22.3196220000 114.1692170000,22.3197760000 114.1691840000,22.3199350000 114.1691760000,22.3199730000 114.1691160000,22.3202520000 114.1690610000,22.3205360000 114.1690480000,22.3205930000 114.1690380000,22.3206440000 114.1690220000,22.3207200000 114.1690010000,22.3208190000 114.1689990000,22.3208400000 114.1689680000,22.3209790000 114.1688970000,22.3213210000 114.1688490000,22.3215520000 114.1687620000,22.3220220000 114.1687560000,22.3220470000 114.1686870000,22.3223340000 114.1686520000,22.3225330000 114.1686120000,22.3227430000 114.1685600000,22.3230190000 114.1684510000,22.3235330000 114.1683690000,22.3238750000 114.1683510000,22.3239490000 114.1683300000,22.3240350000 114.1683130000,22.3241100000 114.1683060000,22.3241450000 114.1681200000,22.3251120000 114.1679450000,22.3259110000 114.1678710000,22.3262210000 114.1678470000,22.3262890000 114.1678360000,22.3263130000 114.1678120000,22.3263620000 114.1677750000,22.3264240000 114.1677440000,22.3264890000 114.1677220000,22.3264990000 114.1676640000,22.3265810000 114.1676070000,22.3266510000 114.1675510000,22.3267160000 114.1675100000,22.3267570000 114.1674840000,22.3267810000 114.1672130000,22.3270060000 114.1671760000,22.3270510000 114.1671490000,22.3271040000 114.1671390000,22.3271520000 114.1671360000,22.3271970000 114.1671390000,22.3272400000 114.1671520000,22.3272800000 114.1671730000,22.3273230000 114.1672440000,22.3274880000 114.1672550000,22.3275250000 114.1672570000,22.3275670000 114.1672540000,22.3276020000 114.1672440000,22.3276420000 114.1672260000,22.3276840000 114.1671770000,22.3278040000 114.1670920000,22.3279740000 114.1670710000,22.3280170000 114.1667380000,22.3286880000 114.1665740000,22.3290190000 114.1663740000,22.3294450000 114.1663610000,22.3294710000 114.1662950000,22.3295970000 114.1660270000,22.3301590000 114.1659010000,22.3303860000 114.1658780000,22.3304160000 114.1658360000,22.3304670000 114.1658060000,22.3305040000 114.1657240000,22.3306060000 114.1656760000,22.3306640000 114.1656070000,22.3307380000 114.1654670000,22.3308870000 114.1653580000,22.3310240000 114.1652860000,22.3311020000 114.1652670000,22.3311240000 114.1651970000,22.3312040000 114.1650880000,22.3313220000 114.1650200000,22.3313960000 114.1643300000,22.3321600000 114.1640960000,22.3324190000 114.1635840000,22.3329460000 114.1634360000,22.3331180000 114.1633320000,22.3332960000 114.1633210000,22.3333150000 114.1632970000,22.3334220000 114.1632300000,22.3335580000 114.1632300000,22.3335580000 114.1630880000,22.3338290000 114.1626350000,22.3349910000 114.1625830000,22.3351140000 114.1625680000,22.3351490000 114.1620800000,22.3363090000 114.1619640000,22.3366400000 114.1619480000,22.3369860000 114.1620260000,22.3372740000 114.1621840000,22.3375230000 114.1623680000,22.3377380000 114.1626350000,22.3379990000 114.1628690000,22.3382310000 114.1629830000,22.3383810000 114.1630610000,22.3385430000 114.1631000000,22.3387220000 114.1630890000,22.3389470000 114.1630620000,22.3390770000 114.1630080000,22.3392460000 114.1628340000,22.3395960000 114.1627580000,22.3397110000 114.1625540000,22.3399590000 114.1624140000,22.3400780000 114.1621780000,22.3402070000 114.1616470000,22.3404840000 114.1612210000,22.3406930000 114.1609840000,22.3408030000 114.1605440000,22.3410170000 114.1604500000,22.3410660000 114.1603070000,22.3411470000 114.1601310000,22.3412990000 114.1599800000,22.3414850000 114.1595250000,22.3420880000 114.1593670000,22.3422610000 114.1590580000,22.3424300000 114.1589260000,22.3424850000 114.1587320000,22.3425550000 114.1585530000,22.3426020000 114.1583600000,22.3426380000 114.1581700000,22.3426560000 114.1579890000,22.3426650000 114.1577730000,22.3426680000 114.1573400000,22.3426550000 114.1563560000,22.3425630000 114.1561270000,22.3425590000 114.1558390000,22.3425670000 114.1556040000,22.3425960000 114.1552900000,22.3426530000 114.1551290000,22.3426710000 114.1549810000,22.3426870000 114.1548260000,22.3426820000 114.1546660000,22.3426700000 114.1544590000,22.3426380000 114.1540050000,22.3425310000 114.1536980000,22.3424250000 114.1509610000,22.3412580000 114.1505520000,22.3410870000 114.1500930000,22.3408870000 114.1498310000,22.3407830000 114.1496330000,22.3407010000 114.1492640000,22.3405710000 114.1487650000,22.3404020000 114.1472160000,22.3399700000 114.1469300000,22.3398970000 114.1466690000,22.3398570000 114.1463180000,22.3398320000 114.1455850000,22.3398140000 114.1453110000,22.3398360000 114.1450780000,22.3398850000 114.1448680000,22.3399770000 114.1447450000,22.3400500000 114.1446390000,22.3401350000 114.1445300000,22.3402420000 114.1441970000,22.3406980000 114.1441110000,22.3408110000 114.1440340000,22.3408970000 114.1439820000,22.3409430000 114.1439060000,22.3410000000 114.1437720000,22.3410560000 114.1436270000,22.3410950000 114.1435470000,22.3411080000 114.1434300000,22.3411090000 114.1433470000,22.3410990000 114.1432000000,22.3410730000 114.1429990000,22.3410070000 114.1427900000,22.3408930000 114.1425460000,22.3407080000 114.1418420000,22.3400970000 114.1417020000,22.3400050000 114.1413940000,22.3398740000 114.1412340000,22.3398470000 114.1410360000,22.3398390000 114.1408280000,22.3398550000 114.1406170000,22.3399190000 114.1403200000,22.3400310000 114.1399660000,22.3402170000 114.1390790000,22.3408220000 114.1387950000,22.3409890000 114.1384860000,22.3411350000 114.1381500000,22.3412550000 114.1379970000,22.3412930000 114.1378480000,22.3413160000 114.1376760000,22.3413210000 114.1374900000,22.3413090000 114.1372610000,22.3412580000 114.1370550000,22.3411850000 114.1369150000,22.3411080000 114.1367940000,22.3410270000 114.1365860000,22.3408270000 114.1363900000,22.3402970000 114.1362210000,22.3396570000 114.1361060000,22.3391020000 114.1360550000,22.3387210000 114.1360460000,22.3384780000 114.1360890000,22.3380640000 114.1360940000,22.3378930000 114.1360660000,22.3375860000 114.1360230000,22.3373800000 114.1359920000,22.3372220000 114.1358870000,22.3368620000 114.1356660000,22.3362620000 114.1355740000,22.3360490000 114.1355630000,22.3360300000 114.1354450000,22.3358220000 114.1353490000,22.3356940000 114.1352720000,22.3356130000 114.1351930000,22.3355320000 114.1350470000,22.3354150000 114.1348860000,22.3353250000 114.1347640000,22.3352680000 114.1346510000,22.3352280000 114.1345290000,22.3351850000 114.1343880000,22.3351510000 114.1342250000,22.3351310000 114.1340760000,22.3351260000 114.1338890000,22.3351310000 114.1337130000,22.3351580000 114.1335140000,22.3352100000 114.1333480000,22.3352740000 114.1331810000,22.3353580000 114.1330670000,22.3354300000 114.1329450000,22.3355330000 114.1328470000,22.3356230000 114.1327460000,22.3357410000 114.1326520000,22.3358750000 114.1325760000,22.3360100000 114.1324940000,22.3361850000 114.1324350000,22.3363490000 114.1323820000,22.3365190000 114.1322850000,22.3368760000 114.1322250000,22.3370820000 114.1321510000,22.3373000000 114.1320370000,22.3376300000 114.1318910000,22.3379940000 114.1317450000,22.3383260000 114.1315600000,22.3387620000 114.1312770000,22.3394790000 114.1311420000,22.3398180000 114.1310790000,22.3401370000 114.1310470000,22.3402070000 114.1308880000,22.3405740000 114.1307190000,22.3409130000 114.1305230000,22.3412450000 114.1302290000,22.3416960000 114.1300150000,22.3419730000 114.1297900000,22.3422150000 114.1296350000,22.3423570000 114.1294840000,22.3425000000 114.1293200000,22.3426370000 114.1291160000,22.3427790000 114.1288580000,22.3429320000 114.1285800000,22.3430670000 114.1282990000,22.3432080000 114.1280790000,22.3433120000 114.1275730000,22.3435180000 114.1272420000,22.3436620000 114.1269010000,22.3438300000 114.1265480000,22.3440350000 114.1261970000,22.3442850000 114.1259420000,22.3444920000 114.1256990000,22.3447270000 114.1254680000,22.3449730000 114.1252700000,22.3452380000 114.1250080000,22.3455860000 114.1248240000,22.3458870000 114.1246430000,22.3463590000 114.1244800000,22.3469000000 114.1244150000,22.3472210000 114.1243800000,22.3475480000 114.1243660000,22.3478910000 114.1243750000,22.3483980000 114.1243460000,22.3492150000 114.1242840000,22.3496110000 114.1241960000,22.3499950000 114.1240920000,22.3503190000 114.1239530000,22.3506300000 114.1237610000,22.3509160000 114.1234880000,22.3512340000 114.1230260000,22.3516520000 114.1228280000,22.3518040000 114.1226080000,22.3519350000 114.1221550000,22.3521050000 114.1217180000,22.3522390000 114.1214310000,22.3523020000 114.1211440000,22.3523490000 114.1207110000,22.3523730000 114.1203330000,22.3523730000 114.1199880000,22.3523650000 114.1194960000,22.3522790000 114.1191870000,22.3522180000 114.1188760000,22.3521210000 114.1185250000,22.3519850000 114.1181990000,22.3518490000 114.1179480000,22.3517290000 114.1175950000,22.3515240000 114.1171200000,22.3512030000 114.1167670000,22.3509350000 114.1163940000,22.3506770000 114.1161560000,22.3505160000 114.1158850000,22.3503530000 114.1156120000,22.3502090000 114.1153200000,22.3500660000 114.1151020000,22.3499700000 114.1123300000,22.3489180000 114.1121710000,22.3488580000 114.1118310000,22.3487140000 114.1114850000,22.3485670000 114.1110020000,22.3483410000 114.1108420000,22.3482640000 114.1067700000,22.3461380000 114.1065040000,22.3460130000 114.1062830000,22.3459150000 114.1060100000,22.3457980000 114.1057500000,22.3456900000 114.1055200000,22.3456000000 114.1053160000,22.3455250000 114.1050600000,22.3454400000 114.1048010000,22.3453580000 114.1045000000,22.3452660000 114.1042000000,22.3451750000 114.1039000000,22.3450920000 114.1036000000,22.3450220000 114.1033000000,22.3449580000 114.1030000000,22.3449000000 114.1026000000,22.3448350000 114.1020600000,22.3447660000 114.1017660000,22.3447330000 114.1014700000,22.3447070000 114.1011840000,22.3446860000 114.1009000000,22.3446750000 114.1003400000,22.3446570000 114.0957200000,22.3446110000 114.0956240000,22.3446120000 114.0943500000,22.3446090000 114.0939100000,22.3446010000 114.0937600000,22.3445980000 114.0932450000,22.3446000000 114.0929810000,22.3446070000 114.0927640000,22.3446250000 114.0924930000,22.3446550000 114.0921460000,22.3447160000 114.0920330000,22.3447350000 114.0918930000,22.3447670000 114.0917140000,22.3448180000 114.0915160000,22.3448850000 114.0912310000,22.3449890000 114.0909600000,22.3451060000 114.0906860000,22.3452240000 114.0903900000,22.3453580000 114.0901860000,22.3454620000 114.0897600000,22.3456670000 114.0895210000,22.3457890000 114.0893050000,22.3459100000 114.0889220000,22.3461740000 114.0885700000,22.3464410000 114.0882590000,22.3467350000 114.0881270000,22.3468140000 114.0878070000,22.3471650000 114.0875500000,22.3475690000 114.0873430000,22.3479580000 114.0871970000,22.3483340000 114.0870280000,22.3489680000 114.0868630000,22.3496330000 114.0867930000,22.3498930000 114.0865870000,22.3504190000 114.0865280000,22.3505640000 114.0864710000,22.3507950000 114.0864130000,22.3509630000 114.0863090000,22.3511870000 114.0860160000,22.3517900000 114.0857050000,22.3523210000 114.0855330000,22.3525550000 114.0852520000,22.3528710000 114.0849440000,22.3532050000 114.0847070000,22.3533890000 114.0845530000,22.3534650000 114.0844510000,22.3535070000 114.0842000000,22.3535790000 114.0840930000,22.3536050000 114.0839280000,22.3536290000 114.0838220000,22.3536690000 114.0836610000,22.3536670000 114.0834020000,22.3536380000 114.0831240000,22.3535860000 114.0828450000,22.3535210000 114.0825230000,22.3534300000 114.0822660000,22.3533590000 114.0818300000,22.3532420000 114.0809620000,22.3530000000 114.0807580000,22.3529290000 114.0628910000,22.3479420000 114.0621920000,22.3477430000 114.0617970000,22.3476210000 114.0613990000,22.3474890000 114.0610110000,22.3473460000 114.0606270000,22.3471880000 114.0602360000,22.3470150000 114.0598750000,22.3468400000 114.0595140000,22.3466480000 114.0591600000,22.3464470000 114.0588470000,22.3462540000 114.0585430000,22.3460600000 114.0525500000,22.3421550000 114.0519850000,22.3418020000 114.0517420000,22.3416520000 114.0514980000,22.3415220000 114.0511970000,22.3413840000 114.0509050000,22.3412690000 114.0504640000,22.3411370000 114.0501150000,22.3410650000 114.0496320000,22.3409870000 114.0488040000,22.3409060000 114.0482030000,22.3408520000 114.0472620000,22.3407500000 114.0466410000,22.3406480000 114.0460530000,22.3405040000 114.0458190000,22.3404340000 114.0456190000,22.3403700000 114.0453110000,22.3402400000 114.0449720000,22.3400670000 114.0440850000,22.3395510000 114.0432940000,22.3391030000 114.0404020000,22.3378420000 114.0397780000,22.3375450000 114.0393360000,22.3373640000 114.0390890000,22.3372750000 114.0387840000,22.3371820000 114.0384720000,22.3371100000 114.0380410000,22.3370070000 114.0375410000,22.3369040000 114.0371380000,22.3368240000 114.0367080000,22.3367090000 114.0364270000,22.3366290000 114.0362160000,22.3365560000 114.0357730000,22.3363950000 114.0352720000,22.3361990000 114.0347250000,22.3359550000 114.0342730000,22.3357320000 114.0338990000,22.3355020000 114.0333890000,22.3351500000 114.0328770000,22.3347490000 114.0324430000,22.3343380000 114.0299060000,22.3319080000 114.0272230000,22.3293370000 114.0265270000,22.3286850000 114.0251240000,22.3273490000 114.0247260000,22.3270220000 114.0244480000,22.3267970000 114.0243000000,22.3266910000 114.0239930000,22.3264980000 114.0235970000,22.3262700000 114.0230920000,22.3260010000 114.0226320000,22.3257790000 114.0218850000,22.3254810000 114.0213490000,22.3253080000 114.0208380000,22.3251670000 114.0203120000,22.3250680000 114.0198860000,22.3249950000 114.0194280000,22.3249350000 114.0189490000,22.3248840000 114.0184730000,22.3248690000 114.0179280000,22.3248690000 114.0157280000,22.3250250000 114.0151360000,22.3250500000 114.0146250000,22.3250580000 114.0140290000,22.3250370000 114.0134250000,22.3249950000 114.0129230000,22.3249450000 114.0124980000,22.3248840000 114.0120280000,22.3247880000 114.0109800000,22.3245210000 114.0104470000,22.3243410000 114.0099940000,22.3241710000 114.0092210000,22.3238440000 114.0073390000,22.3230500000 114.0030460000,22.3210970000 114.0022110000,22.3207110000 114.0018700000,22.3205380000 114.0015450000,22.3203740000 114.0012450000,22.3202230000 114.0009200000,22.3200340000 114.0006410000,22.3198590000 114.0004230000,22.3197030000 114.0001470000,22.3195040000 113.9998380000,22.3192620000 113.9994860000,22.3189590000 113.9992090000,22.3186870000 113.9989500000,22.3184190000 113.9985960000,22.3180270000 113.9983040000,22.3176570000 113.9980000000,22.3172060000 113.9977570000,22.3168210000 113.9974960000,22.3163870000 113.9973020000,22.3160790000 113.9971020000,22.3157770000 113.9968930000,22.3154780000 113.9966240000,22.3151180000 113.9964650000,22.3149000000 113.9961560000,22.3145280000 113.9959240000,22.3142630000 113.9957120000,22.3140280000 113.9954890000,22.3137910000 113.9951210000,22.3134260000 113.9948160000,22.3131480000 113.9944550000,22.3128470000 113.9940660000,22.3125250000 113.9937300000,22.3122730000 113.9933570000,22.3120010000 113.9929640000,22.3117410000 113.9926010000,22.3115140000 113.9877960000,22.3087560000 113.9856810000,22.3074790000 113.9851170000,22.3071400000 113.9844290000,22.3067090000 113.9829960000,22.3058040000 113.9820570000,22.3051880000 113.9804410000,22.3041820000 113.9795070000,22.3036070000 113.9785100000,22.3030050000 113.9778550000,22.3026450000 113.9769330000,22.3021450000 113.9757440000,22.3015630000 113.9745330000,22.3009340000 113.9737440000,22.3005560000 113.9731390000,22.3002800000 113.9722740000,22.2999010000 113.9715800000,22.2996450000 113.9710390000,22.2994730000 113.9705160000,22.2993110000 113.9698770000,22.2991360000 113.9689750000,22.2989320000 113.9680470000,22.2986900000 113.9677470000,22.2986190000 113.9635320000,22.2977010000 113.9609300000,22.2971350000 113.9603210000,22.2969830000 113.9595720000,22.2967670000 113.9587890000,22.2964930000 113.9582960000,22.2962940000 113.9578120000,22.2960870000 113.9572830000,22.2958390000 113.9567450000,22.2955430000 113.9560790000,22.2951570000 113.9558210000,22.2949960000 113.9555750000,22.2948250000 113.9552750000,22.2946020000 113.9549650000,22.2943560000 113.9546260000,22.2940770000 113.9542590000,22.2937580000 113.9538700000,22.2934090000 113.9535270000,22.2930740000 113.9532730000,22.2927990000 113.9528750000,22.2923800000 113.9523830000,22.2918530000 113.9521350000,22.2916130000 113.9518830000,22.2913840000 113.9515220000,22.2910870000 113.9512400000,22.2908870000 113.9510840000,22.2907630000 113.9504990000,22.2904060000 113.9500840000,22.2901790000 113.9496380000,22.2899900000 113.9491880000,22.2898330000 113.9487170000,22.2896800000 113.9483130000,22.2895790000 113.9478750000,22.2894950000 113.9474000000,22.2894160000 113.9468720000,22.2893630000 113.9463440000,22.2893450000 113.9459210000,22.2893440000 113.9454980000,22.2893540000 113.9448930000,22.2894100000 113.9445070000,22.2894660000 113.9439680000,22.2895710000 113.9434870000,22.2896900000 113.9431440000,22.2897990000 113.9427810000,22.2899170000 113.9422260000,22.2901410000 113.9417000000,22.2903820000 113.9413010000,22.2906010000 113.9409940000,22.2907830000 113.9406600000,22.2910100000 113.9403680000,22.2912140000 113.9400220000,22.2914810000 113.9396530000,22.2918110000 113.9394110000,22.2920570000 113.9387640000,22.2926780000 113.9384570000,22.2930260000 113.9381460000,22.2933970000 113.9378070000,22.2938530000 113.9374580000,22.2943700000 113.9370460000,22.2950450000 113.9360670000,22.2966820000 113.9358920000,22.2969650000 113.9356150000,22.2974640000 113.9354890000,22.2976900000 113.9352940000,22.2980840000 113.9351860000,22.2984220000 113.9351080000,22.2987100000 113.9349960000,22.2989850000 113.9349220000,22.2991160000 113.9348370000,22.2992260000 113.9347150000,22.2993100000 113.9346140000,22.2993630000 113.9344570000,22.2994100000 113.9342440000,22.2994350000 113.9340730000,22.2994330000 113.9339720000,22.2994100000 113.9338530000,22.2993660000 113.9337490000,22.2993140000 113.9336330000,22.2992540000 113.9334800000,22.2991600000 113.9332910000,22.2990010000 113.9331740000,22.2988710000 113.9331510000,22.2986820000 113.9331130000,22.2985340000 113.9331300000,22.2983670000 113.9332340000,22.2979900000 113.9332910000,22.2978150000 113.9333360000,22.2976760000 113.9333450000,22.2975620000 113.9333520000,22.2973800000 113.9333670000,22.2972170000 113.9333710000,22.2970970000 113.9333750000,22.2968630000 113.9333950000,22.2967580000 113.9334540000,22.2966600000 113.9335020000,22.2966020000 113.9336040000,22.2965870000 113.9337480000,22.2965970000 113.9339080000,22.2966370000 113.9341050000,22.2966900000 113.9343810000,22.2967890000 113.9345770000,22.2968980000 113.9347230000,22.2970120000 113.9348270000,22.2971260000 113.9349170000,22.2972940000 113.9349720000,22.2974370000 113.9349960000,22.2976060000 113.9349860000,22.2978080000 113.9349390000,22.2980020000 113.9348760000,22.2982430000 113.9347870000,22.2985580000 113.9347350000,22.2987830000 113.9347010000,22.2989680000 113.9346670000,22.2992420000 113.9346570000,22.2994040000 113.9346550000,22.2996860000 113.9346620000,22.2999700000 113.9346680000,22.3000250000 113.9346940000,22.3002850000 113.9347530000,22.3005990000 113.9348260000,22.3009320000 113.9349430000,22.3015040000 113.9350530000,22.3018520000 113.9352030000,22.3023310000 113.9355150000,22.3031420000 113.9361240000,22.3044080000 113.9364770000,22.3053440000 113.9368540000,22.3063950000 113.9369210000,22.3066690000 113.9372190000,22.3081210000 113.9372590000,22.3082870000 113.9374760000,22.3095760000 113.9375670000,22.3100200000 113.9376320000,22.3102770000 113.9376640000,22.3104300000 113.9376890000,22.3106240000 113.9376930000,22.3108590000 113.9376940000,22.3111780000 113.9376600000,22.3115390000 113.9375780000,22.3119780000 113.9374820000,22.3123540000 113.9373060000,22.3128580000 113.9371960000,22.3131470000 113.9370880000,22.3134870000 113.9368690000,22.3140740000 113.9362310000,22.3157880000 113.9355280000,22.3176750000 113.9353140000,22.3182230000 113.9352680000,22.3183640000 113.9352020000,22.3185670000 113.9351780000,22.3186890000 113.9351690000,22.3187950000 113.9351750000,22.3189650000 113.9351950000,22.3191140000 113.9352530000,22.3192830000 113.9353230000,22.3194140000 113.9354030000,22.3195300000 113.9356000000,22.3197410000 113.9357970000,22.3198700000 113.9360020000,22.3199710000 113.9363100000,22.3200970000 113.9364720000,22.3201460000 113.9367070000,22.3202210000 113.9369330000,22.3202820000 113.9372560000,22.3203070000 113.9375140000,22.3202930000 113.9377300000,22.3202510000 113.9379220000,22.3201690000 113.9380410000,22.3200600000 113.9381210000,22.3199620000 113.9381810000,22.3198710000 113.9382170000,22.3197790000 113.9382360000,22.3196580000 113.9382300000,22.3195480000 113.9381930000,22.3194180000 113.9381350000,22.3193100000 113.9380910000,22.3192500000 113.9379570000,22.3191560000 113.9378110000,22.3190920000 113.9376610000,22.3190480000 113.9375210000,22.3190530000 113.9374820000,22.3190540000 113.9373460000,22.3190830000 113.9371540000,22.3191400000 113.9369650000,22.3192350000 113.9367830000,22.3193110000 113.9366460000,22.3192510000 113.9365090000,22.3192730000 113.9364180000,22.3193170000 113.9363240000,22.3193940000 113.9363000000,22.3194950000 113.9363240000,22.3196350000 113.9363760000,22.3197530000 113.9364930000,22.3198910000 113.9366300000,22.3199830000 113.9367930000,22.3201750000 113.9368340000,22.3202230000 113.9370100000,22.3204210000 113.9371680000,22.3205650000 113.9374480000,22.3207650000 113.9376240000,22.3208430000 113.9377090000,22.3208760000 113.9378670000,22.3209390000 113.9380130000,22.3209790000 113.9381340000,22.3209940000 113.9382200000,22.3209940000 113.9383440000,22.3209830000 113.9383620000,22.3209760000 113.9384510000,22.3209450000 113.9385340000,22.3208830000 113.9386020000,22.3208190000 113.9386870000,22.3207120000 113.9387440000,22.3205900000 113.9387900000,22.3204480000 113.9387960000,22.3204300000 113.9389600000,22.3198070000 113.9390010000,22.3196500000 113.9390880000,22.3193060000 113.9391540000,22.3190390000 113.9393220000,22.3190680000 113.9393810000,22.3190840000 113.9397850000,22.3191830000 113.9403250000,22.3192980000 113.9404520000,22.3193300000 113.9405730000,22.3193610000 113.9410160000,22.3194400000 113.9413060000,22.3194840000 113.9415960000,22.3195120000 113.9418520000,22.3195370000 113.9420650000,22.3195530000 113.9422610000,22.3195940000 113.9423770000,22.3196410000 113.9424690000,22.3196900000 113.9425070000,22.3197390000 113.9425550000,22.3197720000 113.9426210000,22.3197940000 113.9426960000,22.3197930000 113.9427280000,22.3197850000 113.9428090000,22.3197370000 113.9428480000,22.3196870000 113.9428510000,22.3196800000 113.9428690000,22.3196140000 113.9428670000,22.3195700000 113.9428350000,22.3194930000 113.9427870000,22.3193360000 113.9427680000,22.3192740000 113.9427640000,22.3191950000 113.9427830000,22.3191470000 113.9426410000,22.3191030000 113.9425130000,22.3190590000 113.9417870000,22.3188360000 113.9416200000,22.3187820000 113.9407210000,22.3184910000 113.9406710000,22.3186180000 113.9406150000,22.3187590000 113.9405700000,22.3188870000 113.9405240000,22.3190320000 113.9404900000,22.3191330000 113.9404780000,22.3191610000 113.9403250000,22.3192980000 113.9397850000,22.3191830000 113.9393810000,22.3190840000 113.9393220000,22.3190680000 113.9391540000,22.3190390000 113.9390880000,22.3193060000 113.9390010000,22.3196500000 113.9389600000,22.3198070000 113.9387960000,22.3204300000 113.9387900000,22.3204480000 113.9387440000,22.3205900000 113.9386870000,22.3207120000 113.9386020000,22.3208190000 113.9385340000,22.3208830000 113.9384510000,22.3209450000 113.9383440000,22.3209830000 113.9382200000,22.3209940000 113.9381340000,22.3209940000 113.9380130000,22.3209790000 113.9378670000,22.3209390000 113.9377090000,22.3208760000 113.9376240000,22.3208430000 113.9374480000,22.3207650000 113.9371680000,22.3205650000 113.9370100000,22.3204210000 113.9368340000,22.3202230000 113.9367930000,22.3201750000 113.9367660000,22.3200930000 113.9367790000,22.3200380000 113.9368400000,22.3199500000 113.9369300000,22.3199070000 113.9369980000,22.3197990000 113.9370080000,22.3196880000 113.9369730000,22.3195720000 113.9368900000,22.3194350000 113.9367830000,22.3193110000 113.9366460000,22.3192510000 113.9365710000,22.3191430000 113.9364900000,22.3189890000 113.9364400000,22.3188110000 113.9364260000,22.3185890000 113.9364410000,22.3184130000 113.9364820000,22.3183080000 113.9365490000,22.3181620000 113.9366200000,22.3180690000 113.9367410000,22.3179350000 113.9368280000,22.3178380000 113.9370840000,22.3175520000 113.9371400000,22.3174290000 113.9371700000,22.3173620000 113.9377560000,22.3158120000 113.9379400000,22.3153250000 113.9380110000,22.3151380000 113.9380470000,22.3148230000 113.9380310000,22.3146610000 113.9380210000,22.3145720000 113.9380120000,22.3144950000 113.9380060000,22.3144120000 113.9380000000,22.3143460000 113.9380030000,22.3141310000 113.9380610000,22.3139040000 113.9381600000,22.3136740000 113.9382400000,22.3135320000 113.9383340000,22.3134100000 113.9385970000,22.3131290000 113.9387650000,22.3129310000 113.9388740000,22.3127760000 113.9389610000,22.3125860000 113.9390100000,22.3124120000 113.9390390000,22.3122170000 113.9390490000,22.3120280000 113.9390270000,22.3118120000 113.9389490000,22.3116070000 113.9388900000,22.3114780000 113.9388090000,22.3113290000 113.9383670000,22.3107780000 113.9381710000,22.3104090000 113.9380770000,22.3101460000 113.9378760000,22.3095350000 113.9378090000,22.3089490000 113.9377530000,22.3083740000 113.9376770000,22.3078150000 113.9375460000,22.3071650000 113.9373850000,22.3065230000 113.9370440000,22.3054300000 113.9368240000,22.3048480000 113.9364970000,22.3040530000 113.9361740000,22.3029020000 113.9361030000,22.3024780000 113.9360510000,22.3020720000 113.9360020000,22.3014920000 113.9359600000,22.3010020000 113.9358750000,22.3005900000 113.9358530000,22.3002150000 113.9358790000,22.2996680000 113.9358940000,22.2993200000 113.9361000000,22.2985340000 113.9361520000,22.2983040000 113.9361690000,22.2980660000 113.9361520000,22.2978990000 113.9361000000,22.2977160000 113.9360140000,22.2975570000 113.9358940000,22.2973980000 113.9357650000,22.2972630000 113.9356370000,22.2971600000 113.9354740000,22.2970490000 113.9353100000,22.2969620000 113.9348820000,22.2968260000 113.9345760000,22.2967160000 113.9341540000,22.2965890000 113.9339400000,22.2965190000 113.9338060000,22.2964480000 113.9337240000,22.2963800000 113.9336500000,22.2962800000 113.9336050000,22.2961750000 113.9335210000,22.2960920000 113.9334110000,22.2960430000 113.9332740000,22.2960350000 113.9331610000,22.2960700000 113.9330690000,22.2961390000 113.9330090000,22.2962330000 113.9329890000,22.2963220000 113.9329970000,22.2964120000 113.9330430000,22.2965620000 113.9331010000,22.2966720000 113.9331400000,22.2967630000 113.9331780000,22.2968740000 113.9331940000,22.2970350000 113.9332010000,22.2972500000 113.9331960000,22.2974210000 113.9331770000,22.2975390000 113.9331390000,22.2978080000 113.9330700000,22.2980890000 113.9330020000,22.2982480000 113.9329240000,22.2983280000 113.9328470000,22.2983750000 113.9327530000,22.2983830000 113.9325720000,22.2984070000 113.9324610000,22.2984720000 113.9323490000,22.2985750000 113.9322360000,22.2987190000 113.9321500000,22.2988520000 113.9320900000,22.2990120000 113.9320540000,22.2991280000 113.9320490000,22.2992810000 113.9320750000,22.2993680000 113.9321350000,22.2994630000 113.9322380000,22.2995350000 113.9323350000,22.2995700000 113.9325500000,22.2995930000 113.9326700000,22.2995580000 113.9327560000,22.2994980000 113.9328590000,22.2994590000 113.9329710000,22.2994430000 113.9330890000,22.2994540000 113.9332200000,22.2994950000 113.9334780000,22.2995640000 113.9337510000,22.2996450000 113.9339990000,22.2996860000 113.9342460000,22.2996860000 113.9344950000,22.2996700000 113.9347270000,22.2996300000 113.9349820000,22.2995480000 113.9351990000,22.2994350000 113.9353910000,22.2992910000 113.9355670000,22.2990910000 113.9355670000,22.2990910000 113.9356710000,22.2988960000 113.9357300000,22.2986880000 113.9357610000,22.2985320000 113.9357880000,22.2982950000 113.9358440000,22.2979960000 113.9360400000,22.2974240000 113.9361990000,22.2969270000 113.9362830000,22.2967440000 113.9370540000,22.2953400000 113.9371990000,22.2951090000 113.9375900000,22.2944560000 113.9379380000,22.2939420000 113.9382870000,22.2934870000 113.9385880000,22.2931240000 113.9388880000,22.2927930000 113.9395100000,22.2921520000 113.9397590000,22.2919250000 113.9401570000,22.2915970000 113.9404820000,22.2913300000 113.9407840000,22.2911200000 113.9410860000,22.2909230000 113.9413870000,22.2907440000 113.9417410000,22.2905350000 113.9420750000,22.2903750000 113.9424260000,22.2902200000 113.9428150000,22.2900690000 113.9431540000,22.2899500000 113.9435630000,22.2898200000 113.9437980000,22.2897610000 113.9440050000,22.2897220000 113.9445240000,22.2896210000 113.9449220000,22.2895610000 113.9455030000,22.2895030000 113.9459200000,22.2894860000 113.9463230000,22.2894810000 113.9468520000,22.2894990000 113.9473740000,22.2895500000 113.9478450000,22.2896190000 113.9482740000,22.2897030000 113.9486710000,22.2898030000 113.9491390000,22.2899470000 113.9495790000,22.2901040000 113.9500170000,22.2902940000 113.9504160000,22.2905100000 113.9508250000,22.2907660000 113.9511440000,22.2909890000 113.9514100000,22.2911870000 113.9517590000,22.2914840000 113.9520180000,22.2917120000 113.9522680000,22.2919420000 113.9527780000,22.2924680000 113.9531720000,22.2928820000 113.9534390000,22.2931600000 113.9537750000,22.2935030000 113.9541670000,22.2938580000 113.9545370000,22.2941730000 113.9548740000,22.2944520000 113.9552060000,22.2947120000 113.9554890000,22.2949220000 113.9557400000,22.2950960000 113.9560230000,22.2952790000 113.9566790000,22.2956560000 113.9572090000,22.2959450000 113.9577490000,22.2961950000 113.9582250000,22.2964030000 113.9587420000,22.2966140000 113.9595180000,22.2968860000 113.9602780000,22.2971090000 113.9608980000,22.2972520000 113.9649850000,22.2981570000 113.9677100000,22.2987600000 113.9680060000,22.2988330000 113.9689400000,22.2990560000 113.9698420000,22.2992600000 113.9704600000,22.2994310000 113.9709990000,22.2995910000 113.9715350000,22.2997640000 113.9722070000,22.3000200000 113.9730740000,22.3003880000 113.9736760000,22.3006700000 113.9751620000,22.3014060000 113.9756620000,22.3016650000 113.9768670000,22.3022560000 113.9777980000,22.3027520000 113.9784390000,22.3031040000 113.9794340000,22.3037060000 113.9816500000,22.3051080000 113.9837140000,22.3064070000 113.9843200000,22.3067900000 113.9850400000,22.3072450000 113.9856060000,22.3075890000 113.9877310000,22.3088640000 113.9925320000,22.3116130000 113.9928940000,22.3118400000 113.9932800000,22.3121080000 113.9936540000,22.3123690000 113.9939850000,22.3126240000 113.9943640000,22.3129400000 113.9947170000,22.3132380000 113.9950160000,22.3135030000 113.9953880000,22.3138680000 113.9956090000,22.3141060000 113.9958140000,22.3143200000 113.9960710000,22.3146170000 113.9963520000,22.3149690000 113.9965180000,22.3151920000 113.9967760000,22.3155490000 113.9969850000,22.3158460000 113.9971800000,22.3161470000 113.9973750000,22.3164580000 113.9976390000,22.3168830000 113.9978800000,22.3172650000 113.9981960000,22.3177340000 113.9984880000,22.3181120000 113.9988430000,22.3185050000 113.9990980000,22.3187760000 113.9994070000,22.3190820000 114.0000590000,22.3196040000 114.0003390000,22.3198090000 114.0005530000,22.3199570000 114.0008490000,22.3201550000 114.0011770000,22.3203390000 114.0014940000,22.3205080000 114.0018710000,22.3206920000 114.0022100000,22.3208580000 114.0029710000,22.3212190000 114.0091410000,22.3239620000 114.0099340000,22.3243030000 114.0104060000,22.3244710000 114.0109360000,22.3246490000 114.0119840000,22.3249220000 114.0124700000,22.3250190000 114.0129110000,22.3250790000 114.0134120000,22.3251210000 114.0140080000,22.3251570000 114.0146170000,22.3251700000 114.0151360000,22.3251530000 114.0157200000,22.3251290000 114.0179230000,22.3249950000 114.0184700000,22.3249970000 114.0189250000,22.3250100000 114.0194170000,22.3250510000 114.0198690000,22.3251110000 114.0202650000,22.3251710000 114.0207940000,22.3252890000 114.0213080000,22.3254290000 114.0218170000,22.3256010000 114.0225660000,22.3258960000 114.0230280000,22.3261070000 114.0235650000,22.3263960000 114.0239050000,22.3266040000 114.0242100000,22.3268090000 114.0243490000,22.3269190000 114.0246080000,22.3271220000 114.0247390000,22.3272290000 114.0253400000,22.3277860000 114.0260460000,22.3284120000 114.0264620000,22.3287970000 114.0297800000,22.3320070000 114.0323360000,22.3344360000 114.0327820000,22.3348390000 114.0333080000,22.3352490000 114.0338240000,22.3356090000 114.0341940000,22.3358400000 114.0344370000,22.3359930000 114.0347430000,22.3361510000 114.0350240000,22.3362900000 114.0355250000,22.3365430000 114.0360790000,22.3367460000 114.0366460000,22.3369090000 114.0370510000,22.3370060000 114.0374980000,22.3370760000 114.0380100000,22.3371620000 114.0384370000,22.3372490000 114.0388250000,22.3373460000 114.0392640000,22.3374860000 114.0397170000,22.3376620000 114.0403300000,22.3379590000 114.0409450000,22.3382610000 114.0430490000,22.3395020000 114.0438450000,22.3398740000 114.0444670000,22.3401500000 114.0450310000,22.3403730000 114.0457530000,22.3405940000 114.0460570000,22.3406770000 114.0466800000,22.3408170000 114.0473730000,22.3409100000 114.0482450000,22.3409950000 114.0487620000,22.3410670000 114.0496140000,22.3411750000 114.0500720000,22.3412490000 114.0504120000,22.3413120000 114.0508330000,22.3414360000 114.0511730000,22.3415610000 114.0514230000,22.3416710000 114.0516610000,22.3417990000 114.0518850000,22.3419290000 114.0520460000,22.3420240000 114.0524520000,22.3422840000 114.0584460000,22.3461890000 114.0587520000,22.3463840000 114.0590690000,22.3465800000 114.0594270000,22.3467830000 114.0597930000,22.3469780000 114.0601590000,22.3471560000 114.0605560000,22.3473310000 114.0609450000,22.3474910000 114.0613390000,22.3476360000 114.0617410000,22.3477700000 114.0621400000,22.3478920000 114.0628380000,22.3480920000 114.0807100000,22.3530780000 114.0815240000,22.3533110000 114.0817130000,22.3533370000 114.0825070000,22.3535570000 114.0828080000,22.3536310000 114.0830850000,22.3536960000 114.0833800000,22.3537460000 114.0836480000,22.3537770000 114.0838530000,22.3537890000 114.0840990000,22.3538070000 114.0843340000,22.3537900000 114.0845590000,22.3537530000 114.0847590000,22.3536900000 114.0850840000,22.3536160000 114.0853340000,22.3534990000 114.0855760000,22.3533940000 114.0857780000,22.3532990000 114.0860090000,22.3531720000 114.0862760000,22.3529890000 114.0864600000,22.3528230000 114.0865510000,22.3527150000 114.0866880000,22.3524630000 114.0867870000,22.3522310000 114.0868490000,22.3520120000 114.0869280000,22.3516520000 114.0870480000,22.3510910000 114.0872340000,22.3503380000 114.0873310000,22.3499450000 114.0874450000,22.3495580000 114.0875270000,22.3492110000 114.0876060000,22.3488610000 114.0876940000,22.3485230000 114.0877910000,22.3482780000 114.0879050000,22.3480430000 114.0880460000,22.3478070000 114.0881770000,22.3476000000 114.0883540000,22.3473750000 114.0884380000,22.3472640000 114.0887110000,22.3469720000 114.0887280000,22.3469380000 114.0889780000,22.3467510000 114.0892720000,22.3465590000 114.0898710000,22.3462360000 114.0904280000,22.3459560000 114.0909630000,22.3456820000 114.0913410000,22.3455040000 114.0917190000,22.3453490000 114.0921550000,22.3452070000 114.0926230000,22.3450940000 114.0931090000,22.3450000000 114.0933720000,22.3449740000 114.0939120000,22.3449600000 114.0941750000,22.3449550000 114.0952440000,22.3449500000 114.0957200000,22.3449460000 114.1004000000,22.3449930000 114.1010700000,22.3450180000 114.1014000000,22.3450400000 114.1017300000,22.3450680000 114.1020600000,22.3451030000 114.1023900000,22.3451480000 114.1030400000,22.3452500000 114.1033000000,22.3453000000 114.1035300000,22.3453500000 114.1037300000,22.3453950000 114.1038810000,22.3454310000 114.1040300000,22.3454700000 114.1042020000,22.3455180000 114.1043800000,22.3455700000 114.1046900000,22.3456680000 114.1049680000,22.3457620000 114.1051600000,22.3458300000 114.1053500000,22.3459000000 114.1056800000,22.3460270000 114.1060000000,22.3461600000 114.1066070000,22.3464420000 114.1092280000,22.3478020000 114.1094000000,22.3478900000 114.1094990000,22.3479370000 114.1095990000,22.3479820000 114.1098100000,22.3480700000 114.1100000000,22.3481490000 114.1103700000,22.3483000000 114.1107080000,22.3484390000 114.1112560000,22.3486440000 114.1114010000,22.3486980000 114.1121180000,22.3489710000 114.1121940000,22.3489990000 114.1150360000,22.3500680000 114.1152660000,22.3501660000 114.1155460000,22.3503070000 114.1158280000,22.3504570000 114.1160890000,22.3506120000 114.1163380000,22.3507780000 114.1166890000,22.3510310000 114.1170420000,22.3512980000 114.1174180000,22.3515670000 114.1177500000,22.3517760000 114.1179500000,22.3518880000 114.1181630000,22.3519900000 114.1185390000,22.3521520000 114.1187440000,22.3522270000 114.1189890000,22.3523010000 114.1192310000,22.3523660000 114.1195060000,22.3524250000 114.1197310000,22.3524620000 114.1199660000,22.3524930000 114.1204150000,22.3525210000 114.1208080000,22.3525130000 114.1212930000,22.3524700000 114.1214870000,22.3524420000 114.1216850000,22.3524020000 114.1220080000,22.3523000000 114.1223600000,22.3521610000 114.1225800000,22.3520590000 114.1227700000,22.3519640000 114.1230910000,22.3517690000 114.1234160000,22.3514980000 114.1237280000,22.3512190000 114.1239480000,22.3509410000 114.1241480000,22.3506360000 114.1243000000,22.3503120000 114.1244440000,22.3499020000 114.1244990000,22.3496360000 114.1245460000,22.3490950000 114.1245370000,22.3484120000 114.1245330000,22.3480180000 114.1245490000,22.3476170000 114.1246110000,22.3472070000 114.1247310000,22.3467150000 114.1248690000,22.3463550000 114.1250230000,22.3459890000 114.1252280000,22.3456200000 114.1254330000,22.3453410000 114.1256160000,22.3450810000 114.1258580000,22.3448130000 114.1260660000,22.3446100000 114.1265330000,22.3442760000 114.1269240000,22.3440300000 114.1272820000,22.3438400000 114.1276470000,22.3436840000 114.1281270000,22.3434690000 114.1283770000,22.3433460000 114.1286560000,22.3432050000 114.1289710000,22.3430190000 114.1291870000,22.3428750000 114.1294020000,22.3427320000 114.1295670000,22.3426040000 114.1297310000,22.3424680000 114.1298900000,22.3423150000 114.1301370000,22.3420730000 114.1303630000,22.3417950000 114.1306770000,22.3413100000 114.1308700000,22.3409770000 114.1310190000,22.3406270000 114.1311910000,22.3402610000 114.1313730000,22.3398820000 114.1316030000,22.3395690000 114.1317430000,22.3393020000 114.1319650000,22.3389160000 114.1321860000,22.3385200000 114.1323490000,22.3381980000 114.1325610000,22.3378840000 114.1326820000,22.3377160000 114.1328200000,22.3375310000 114.1329340000,22.3373860000 114.1330520000,22.3372410000 114.1331650000,22.3371070000 114.1332900000,22.3369690000 114.1334200000,22.3368390000 114.1335610000,22.3367200000 114.1337120000,22.3366090000 114.1338480000,22.3365500000 114.1340050000,22.3365000000 114.1341740000,22.3364620000 114.1344000000,22.3364560000 114.1345610000,22.3364620000 114.1347270000,22.3364910000 114.1349060000,22.3365550000 114.1350520000,22.3366250000 114.1351610000,22.3366910000 114.1352480000,22.3367540000 114.1354760000,22.3369650000 114.1355560000,22.3370680000 114.1356470000,22.3372250000 114.1357230000,22.3373780000 114.1357810000,22.3375990000 114.1358180000,22.3378430000 114.1358070000,22.3382780000 114.1358140000,22.3386480000 114.1358400000,22.3389990000 114.1359170000,22.3392970000 114.1359950000,22.3396130000 114.1362150000,22.3404640000 114.1362940000,22.3406170000 114.1363760000,22.3407570000 114.1364990000,22.3409230000 114.1366610000,22.3410740000 114.1368110000,22.3411900000 114.1369940000,22.3412930000 114.1371900000,22.3413630000 114.1374620000,22.3414190000 114.1376640000,22.3414410000 114.1378490000,22.3414330000 114.1380060000,22.3414150000 114.1381830000,22.3413640000 114.1383630000,22.3412890000 114.1388120000,22.3411060000 114.1391810000,22.3408970000 114.1399880000,22.3403290000 114.1404400000,22.3400810000 114.1406460000,22.3400140000 114.1408740000,22.3399450000 114.1411450000,22.3399420000 114.1413540000,22.3399530000 114.1415920000,22.3400400000 114.1416690000,22.3400870000 114.1419010000,22.3402690000 114.1424680000,22.3407800000 114.1427240000,22.3409890000 114.1428620000,22.3410740000 114.1429790000,22.3411210000 114.1430690000,22.3411540000 114.1431830000,22.3411830000 114.1432930000,22.3412000000 114.1433840000,22.3412070000 114.1435080000,22.3412080000 114.1436040000,22.3412070000 114.1437140000,22.3411960000 114.1438040000,22.3411670000 114.1440800000,22.3410180000 114.1441700000,22.3409530000 114.1443000000,22.3408260000 114.1445620000,22.3404730000 114.1446690000,22.3403370000 114.1447360000,22.3402750000 114.1448380000,22.3401920000 114.1449640000,22.3401250000 114.1451290000,22.3400430000 114.1453170000,22.3400070000 114.1455790000,22.3399850000 114.1459450000,22.3399910000 114.1463270000,22.3400010000 114.1466450000,22.3400310000 114.1468840000,22.3400680000 114.1471390000,22.3401190000 114.1487060000,22.3405890000 114.1492740000,22.3407430000 114.1495080000,22.3408140000 114.1497260000,22.3408970000 114.1499710000,22.3409990000 114.1508180000,22.3413740000 114.1511960000,22.3415390000 114.1518730000,22.3417970000 114.1525490000,22.3420820000 114.1541150000,22.3427540000 114.1543950000,22.3428430000 114.1545670000,22.3428850000 114.1547130000,22.3429090000 114.1549220000,22.3429240000 114.1550660000,22.3429210000 114.1556260000,22.3428670000 114.1558500000,22.3428530000 114.1561130000,22.3428480000 114.1563590000,22.3428530000 114.1565660000,22.3428640000 114.1567280000,22.3428790000 114.1572840000,22.3429300000 114.1574470000,22.3429440000 114.1578930000,22.3429760000 114.1581140000,22.3429730000 114.1583270000,22.3429680000 114.1585380000,22.3429390000 114.1587590000,22.3429050000 114.1589920000,22.3428530000 114.1592060000,22.3427750000 114.1594840000,22.3426270000 114.1595790000,22.3425810000 114.1596740000,22.3425060000 114.1597570000,22.3424270000 114.1598070000,22.3423710000 114.1598650000,22.3422870000 114.1599120000,22.3422050000 114.1599520000,22.3421130000 114.1599870000,22.3420170000 114.1600800000,22.3417120000 114.1601240000,22.3415470000 114.1601590000,22.3414620000 114.1602060000,22.3413890000 114.1602990000,22.3412920000 114.1604120000,22.3412120000 114.1606100000,22.3411040000 114.1612200000,22.3408010000 114.1620880000,22.3403700000 114.1622870000,22.3402450000 114.1623960000,22.3401720000 114.1624920000,22.3400990000 114.1626720000,22.3399180000 114.1628250000,22.3397290000 114.1629640000,22.3395370000 114.1630850000,22.3392580000 114.1631770000,22.3390180000 114.1631910000,22.3389330000 114.1631980000,22.3388380000 114.1631820000,22.3385920000 114.1631090000,22.3383990000 114.1630280000,22.3382570000 114.1626300000,22.3378100000 114.1623470000,22.3375450000 114.1621900000,22.3373070000 114.1621200000,22.3371350000 114.1620940000,22.3369590000 114.1620830000,22.3367800000 114.1621090000,22.3365960000 114.1621430000,22.3364350000 114.1626630000,22.3352300000 114.1626790000,22.3351920000 114.1627430000,22.3350430000 114.1629290000,22.3346140000 114.1629800000,22.3344920000 114.1633330000,22.3336580000 114.1633540000,22.3336180000 114.1634560000,22.3333860000 114.1635160000,22.3332720000 114.1635620000,22.3331900000 114.1636200000,22.3331070000 114.1636960000,22.3329930000 114.1643850000,22.3322350000 114.1650420000,22.3315070000 114.1650950000,22.3314440000 114.1651580000,22.3313780000 114.1652070000,22.3313320000 114.1657640000,22.3306650000 114.1657790000,22.3306470000 114.1658320000,22.3306000000 114.1658850000,22.3305550000 114.1659410000,22.3304600000 114.1660570000,22.3302820000 114.1662630000,22.3298800000 114.1663220000,22.3297660000 114.1664310000,22.3295320000 114.1664440000,22.3295040000 114.1665460000,22.3292920000 114.1670490000,22.3282510000 114.1671200000,22.3280930000 114.1671400000,22.3280500000 114.1673020000,22.3277480000 114.1673270000,22.3276890000 114.1673450000,22.3276290000 114.1673520000,22.3275810000 114.1673520000,22.3275270000 114.1673460000,22.3274760000 114.1673160000,22.3273890000 114.1672780000,22.3272900000 114.1672700000,22.3272460000 114.1672680000,22.3272060000 114.1672750000,22.3271670000 114.1672830000,22.3271360000 114.1673030000,22.3271060000 114.1673530000,22.3270820000 114.1674040000,22.3270560000 114.1674530000,22.3270230000 114.1676480000,22.3268480000 114.1677440000,22.3267530000 114.1677660000,22.3267310000 114.1677730000,22.3267230000 114.1678470000,22.3266350000 114.1679190000,22.3264760000 114.1679560000,22.3263890000 114.1679690000,22.3263510000 114.1679810000,22.3263140000 114.1680030000,22.3262340000 114.1681560000,22.3255460000 114.1682360000,22.3251720000 114.1682480000,22.3251100000 114.1683990000,22.3243410000 114.1684400000,22.3241500000 114.1684440000,22.3241320000 114.1684600000,22.3240570000 114.1684800000,22.3239740000 114.1685080000,22.3238270000 114.1686640000,22.3230770000 114.1687120000,22.3228630000 114.1687200000,22.3228230000 114.1687320000,22.3227640000 114.1687860000,22.3224820000 114.1688740000,22.3220360000 114.1690580000,22.3210780000 114.1690630000,22.3210410000 114.1691120000,22.3208340000 114.1691520000,22.3206260000 114.1692280000,22.3202610000 114.1693170000,22.3198470000 114.1693890000,22.3194980000 114.1693980000,22.3194540000 114.1694180000,22.3193590000 114.1694290000,22.3193120000 114.1694590000,22.3191650000 114.1694830000,22.3190570000 114.1695380000,22.3187820000 114.1696280000,22.3183450000 114.1696600000,22.3181870000 114.1697870000,22.3175640000 114.1697990000,22.3175010000 114.1699580000,22.3167360000 114.1699920000,22.3165510000 114.1702070000,22.3155260000 114.1702180000,22.3154680000 114.1702360000,22.3153740000 114.1703270000,22.3149370000 114.1703380000,22.3148880000 114.1703770000,22.3146840000 114.1703840000,22.3146470000 114.1703990000,22.3145700000 114.1704660000,22.3142320000 114.1705300000,22.3139010000 114.1706530000,22.3132960000 114.1706590000,22.3132650000 114.1706980000,22.3130740000 114.1707170000,22.3129770000 114.1707290000,22.3129200000 114.1708040000,22.3125580000 114.1708200000,22.3124780000 114.1709270000,22.3119420000 114.1709490000,22.3118210000 114.1709590000,22.3117680000 114.1710060000,22.3115130000 114.1711040000,22.3109890000 114.1711200000,22.3109100000 114.1712060000,22.3104150000 114.1712230000,22.3103170000 114.1712360000,22.3102590000 114.1712490000,22.3102030000 114.1712550000,22.3101230000 114.1712670000,22.3096750000 114.1713030000,22.3091940000 114.1713190000,22.3090320000 114.1713760000,22.3085660000 114.1713840000,22.3084990000 114.1713890000,22.3084130000 114.1713980000,22.3082750000 114.1714240000,22.3078700000 114.1714890000,22.3070430000 114.1715310000,22.3065590000 114.1715670000,22.3061210000 114.1715830000,22.3059440000 114.1716630000,22.3055120000 114.1716850000,22.3053910000 114.1717000000,22.3052850000 114.1717130000,22.3051560000 114.1717760000,22.3044440000 114.1718060000,22.3039660000 114.1718290000,22.3034550000 114.1718320000,22.3033940000 114.1718370000,22.3032770000 114.1718410000,22.3032030000 114.1718490000,22.3031060000 114.1718860000,22.3026370000 114.1719050000,22.3023540000 114.1719380000,22.3017820000 114.1719850000,22.3012240000 114.1720380000,22.3005650000 114.1720410000,22.3005220000 114.1720470000,22.3004490000 114.1720530000,22.3003670000 114.1720570000,22.3003170000 114.1720580000,22.3002990000 114.1721120000,22.2996860000 114.1721190000,22.2996090000 114.1721260000,22.2995330000 114.1721640000,22.2987190000 114.1721860000,22.2982120000 114.1721880000,22.2981630000 114.1721960000,22.2980180000 114.1722150000,22.2976370000 114.1722680000,22.2969500000 114.1723240000,22.2969580000 114.1730230000,22.2970530000 114.1735670000,22.2971150000 114.1736840000,22.2971260000 114.1739870000,22.2971600000 114.1746080000,22.2972290000 114.1754110000,22.2973090000 114.1754600000,22.2973040000 114.1755700000,22.2978340000 114.1756140000,22.2981310000 114.1757140000,22.2987740000 114.1758130000,22.2993340000 114.1758250000,22.2994040000 114.1758570000,22.2995700000 114.1759130000,22.2997630000 114.1759340000,22.2998330000 114.1761220000,22.3005240000 114.1762330000,22.3008420000 114.1762780000,22.3009730000 114.1763470000,22.3011610000 114.1764810000,22.3015570000 114.1766200000,22.3019540000 114.1768430000,22.3025400000 114.1770660000,22.3027870000 114.1771560000,22.3029200000 114.1771740000,22.3029460000 114.1771940000,22.3029630000 114.1772150000,22.3029750000 114.1772340000,22.3029800000 114.1772520000,22.3029840000 114.1772570000,22.3029820000 114.1774100000,22.3029110000 114.1775410000,22.3028530000 114.1780480000,22.3026310000 114.1782860000,22.3025270000 114.1783480000,22.3024990000 114.1785130000,22.3024200000 114.1788520000,22.3023220000 114.1790790000,22.3022700000 114.1792950000,22.3022400000 114.1806720000,22.3021370000 114.1808000000,22.3021230000 114.1810060000,22.3021200000 114.1810580000,22.3021790000 114.1810990000,22.3023780000 114.1811270000,22.3027000000 114.1811770000,22.3031460000 114.1812330000,22.3035000000 114.1812620000,22.3036870000 114.1813040000,22.3037670000 114.1813890000,22.3039060000 114.1814520000,22.3039870000 114.1815220000,22.3040680000 114.1815780000,22.3041080000 114.1816430000,22.3041310000 114.1819190000,22.3041090000 114.1821700000,22.3040900000 114.1824890000,22.3040680000 114.1826190000,22.3040590000 114.1827420000,22.3040650000 114.1828430000,22.3040190000 114.1828960000,22.3038980000 114.1829030000,22.3037300000 114.1829270000,22.3035180000 114.1828220000,22.3034130000 114.1827510000,22.3033060000 114.1826750000,22.3025930000</coordinates>
                </LineString>
                <ExtendedData>
                    <Data name="length">
                        <value>81180.74816198622</value>
                    </Data>
                    <Data name="duration">
                        <value>02:08:41</value>
                    </Data>
                </ExtendedData>
            </Placemark>
        </Document>
    </Document>
</kml>