<?xml version="1.0" encoding="UTF-8"?>
<kml xmlns="http://www.opengis.net/kml/2.2" xmlns:gx="http://www.google.com/kml/ext/2.2">
    <Document>
        <name>Route</name>
        <Folder>
            <name>Route Request</name>
            <Placemark>
                <address>Metro City Plaza II, Yan King Road, Po Lam, Yau Yue Wan Village, Hong Kong, DD253 1209, PRC</address>
                <Point>
                    <coordinates>114.2580263562,22.3231913941</coordinates>
                </Point>
                <ExtendedData>
                    <Data name="postcode">
                        <value>DD253 1209</value>
                    </Data>
                    <Data name="hamlet">
                        <value>Yau Yue Wan Village</value>
                    </Data>
                    <Data name="country">
                        <value>PRC</value>
                    </Data>
                    <Data name="road">
                        <value>Yan King Road</value>
                    </Data>
                    <Data name="country_code">
                        <value>cn</value>
                    </Data>
                    <Data name="suburb">
                        <value>Po Lam</value>
                    </Data>
                    <Data name="mall">
                        <value>Metro City Plaza II</value>
                    </Data>
                </ExtendedData>
            </Placemark>
            <Placemark>
                <address>27, Wilson Trail, Tsui Lam, Ma Yau Tong, Hong Kong, DD253 1209, PRC</address>
                <Point>
                    <coordinates>114.2453965538,22.3195401717</coordinates>
                </Point>
                <ExtendedData>
                    <Data name="postcode">
                        <value>DD253 1209</value>
                    </Data>
                    <Data name="hamlet">
                        <value>Ma Yau Tong</value>
                    </Data>
                    <Data name="country">
                        <value>PRC</value>
                    </Data>
                    <Data name="road">
                        <value>Wilson Trail</value>
                    </Data>
                    <Data name="country_code">
                        <value>cn</value>
                    </Data>
                    <Data name="suburb">
                        <value>Tsui Lam</value>
                    </Data>
                    <Data name="house_number">
                        <value>27</value>
                    </Data>
                </ExtendedData>
            </Placemark>
            <Placemark>
                <address>On Sau Road, Sze Shun, Kwun Tong District, Hong Kong, HONG KONG, PRC</address>
                <Point>
                    <coordinates>114.2298268251,22.3281681519</coordinates>
                </Point>
                <ExtendedData>
                    <Data name="postcode">
                        <value>HONG KONG</value>
                    </Data>
                    <Data name="country">
                        <value>PRC</value>
                    </Data>
                    <Data name="road">
                        <value>On Sau Road</value>
                    </Data>
                    <Data name="suburb">
                        <value>Sze Shun</value>
                    </Data>
                    <Data name="country_code">
                        <value>cn</value>
                    </Data>
                    <Data name="county">
                        <value>Kwun Tong District</value>
                    </Data>
                </ExtendedData>
            </Placemark>
            <Placemark>
                <address>Airport Road, Sha Lo Wan, Tung Chung, Islands District, Hong Kong, 000000, PRC</address>
                <Point>
                    <coordinates>113.9347087427,22.3000209063</coordinates>
                </Point>
                <ExtendedData>
                    <Data name="postcode">
                        <value>000000</value>
                    </Data>
                    <Data name="town">
                        <value>Tung Chung</value>
                    </Data>
                    <Data name="country">
                        <value>PRC</value>
                    </Data>
                    <Data name="road">
                        <value>Airport Road</value>
                    </Data>
                    <Data name="country_code">
                        <value>cn</value>
                    </Data>
                    <Data name="suburb">
                        <value>Sha Lo Wan</value>
                    </Data>
                    <Data name="county">
                        <value>Islands District</value>
                    </Data>
                </ExtendedData>
            </Placemark>
            <Placemark>
                <address>Hong Kong International Airport Car Park 4, Cheong Tat Road, Sha Lo Wan, Tung Chung, Islands District, Hong Kong, 000000, PRC</address>
                <Point>
                    <coordinates>113.9352601625,22.3183624667</coordinates>
                </Point>
                <ExtendedData>
                    <Data name="postcode">
                        <value>000000</value>
                    </Data>
                    <Data name="town">
                        <value>Tung Chung</value>
                    </Data>
                    <Data name="country">
                        <value>PRC</value>
                    </Data>
                    <Data name="road">
                        <value>Cheong Tat Road</value>
                    </Data>
                    <Data name="suburb">
                        <value>Sha Lo Wan</value>
                    </Data>
                    <Data name="country_code">
                        <value>cn</value>
                    </Data>
                    <Data name="parking">
                        <value>Hong Kong International Airport Car Park 4</value>
                    </Data>
                    <Data name="county">
                        <value>Islands District</value>
                    </Data>
                </ExtendedData>
            </Placemark>
            <Placemark>
                <address>AsiaWorld-Expo, Cheong Wing Road, Sha Lo Wan, Tin Sam, Islands District, Hong Kong, 000000, PRC</address>
                <Point>
                    <coordinates>113.9406684664,22.3209751378</coordinates>
                </Point>
                <ExtendedData>
                    <Data name="postcode">
                        <value>000000</value>
                    </Data>
                    <Data name="hamlet">
                        <value>Tin Sam</value>
                    </Data>
                    <Data name="country">
                        <value>PRC</value>
                    </Data>
                    <Data name="building">
                        <value>AsiaWorld-Expo</value>
                    </Data>
                    <Data name="road">
                        <value>Cheong Wing Road</value>
                    </Data>
                    <Data name="suburb">
                        <value>Sha Lo Wan</value>
                    </Data>
                    <Data name="country_code">
                        <value>cn</value>
                    </Data>
                    <Data name="county">
                        <value>Islands District</value>
                    </Data>
                </ExtendedData>
            </Placemark>
            <Placemark>
                <address>Terminal 2, Sky Plaza Drive, Sha Lo Wan, Tung Chung, Islands District, Hong Kong, 000000, PRC</address>
                <Point>
                    <coordinates>113.9376211282,22.3157683735</coordinates>
                </Point>
                <ExtendedData>
                    <Data name="postcode">
                        <value>000000</value>
                    </Data>
                    <Data name="town">
                        <value>Tung Chung</value>
                    </Data>
                    <Data name="country">
                        <value>PRC</value>
                    </Data>
                    <Data name="road">
                        <value>Sky Plaza Drive</value>
                    </Data>
                    <Data name="suburb">
                        <value>Sha Lo Wan</value>
                    </Data>
                    <Data name="country_code">
                        <value>cn</value>
                    </Data>
                    <Data name="county">
                        <value>Islands District</value>
                    </Data>
                    <Data name="address29">
                        <value>Terminal 2</value>
                    </Data>
                </ExtendedData>
            </Placemark>
            <Placemark>
                <address>East Coast Road, Sha Lo Wan, Tung Chung, Islands District, Hong Kong, 000000, PRC</address>
                <Point>
                    <coordinates>113.9356832006,22.2991602978</coordinates>
                </Point>
                <ExtendedData>
                    <Data name="postcode">
                        <value>000000</value>
                    </Data>
                    <Data name="town">
                        <value>Tung Chung</value>
                    </Data>
                    <Data name="country">
                        <value>PRC</value>
                    </Data>
                    <Data name="road">
                        <value>East Coast Road</value>
                    </Data>
                    <Data name="suburb">
                        <value>Sha Lo Wan</value>
                    </Data>
                    <Data name="country_code">
                        <value>cn</value>
                    </Data>
                    <Data name="county">
                        <value>Islands District</value>
                    </Data>
                </ExtendedData>
            </Placemark>
            <Placemark>
                <address>Diamond Hill Station, Tai Hom Road, Fung Wong, Diamond Hill, Lion Rock Upper Village, Wong Tai Sin District, Hong Kong, NKIL 6164, PRC</address>
                <Point>
                    <coordinates>114.2029924076,22.3394270139</coordinates>
                </Point>
                <ExtendedData>
                    <Data name="postcode">
                        <value>NKIL 6164</value>
                    </Data>
                    <Data name="hamlet">
                        <value>Lion Rock Upper Village</value>
                    </Data>
                    <Data name="country">
                        <value>PRC</value>
                    </Data>
                    <Data name="road">
                        <value>Tai Hom Road</value>
                    </Data>
                    <Data name="suburb">
                        <value>Diamond Hill</value>
                    </Data>
                    <Data name="country_code">
                        <value>cn</value>
                    </Data>
                    <Data name="neighbourhood">
                        <value>Fung Wong</value>
                    </Data>
                    <Data name="county">
                        <value>Wong Tai Sin District</value>
                    </Data>
                    <Data name="bus_stop">
                        <value>Diamond Hill Station</value>
                    </Data>
                </ExtendedData>
            </Placemark>
            <Placemark>
                <address>Ching Tat House, On Chui Street, On Tat Estate, Sau Mau Ping, Kwun Tong District, Hong Kong, NKIL 6326, PRC</address>
                <Point>
                    <coordinates>114.2358989763,22.3201002860</coordinates>
                </Point>
                <ExtendedData>
                    <Data name="postcode">
                        <value>NKIL 6326</value>
                    </Data>
                    <Data name="country">
                        <value>PRC</value>
                    </Data>
                    <Data name="road">
                        <value>On Chui Street</value>
                    </Data>
                    <Data name="suburb">
                        <value>Sau Mau Ping</value>
                    </Data>
                    <Data name="country_code">
                        <value>cn</value>
                    </Data>
                    <Data name="county">
                        <value>Kwun Tong District</value>
                    </Data>
                    <Data name="address29">
                        <value>Ching Tat House</value>
                    </Data>
                    <Data name="residential">
                        <value>On Tat Estate</value>
                    </Data>
                </ExtendedData>
            </Placemark>
            <Placemark>
                <address>Tsui Lam Estate, Po Lam Road North, Tsui Lam, Mau Wu Tsai Village, Sai Kung District, Hong Kong, NKIL 6326, PRC</address>
                <Point>
                    <coordinates>114.2497970288,22.3219601744</coordinates>
                </Point>
                <ExtendedData>
                    <Data name="postcode">
                        <value>NKIL 6326</value>
                    </Data>
                    <Data name="hamlet">
                        <value>Mau Wu Tsai Village</value>
                    </Data>
                    <Data name="country">
                        <value>PRC</value>
                    </Data>
                    <Data name="road">
                        <value>Po Lam Road North</value>
                    </Data>
                    <Data name="suburb">
                        <value>Tsui Lam</value>
                    </Data>
                    <Data name="country_code">
                        <value>cn</value>
                    </Data>
                    <Data name="county">
                        <value>Sai Kung District</value>
                    </Data>
                    <Data name="bus_stop">
                        <value>Tsui Lam Estate</value>
                    </Data>
                </ExtendedData>
            </Placemark>
            <Placemark>
                <address>Metro City Plaza II, Yan King Road, Po Lam, Yau Yue Wan Village, Hong Kong, DD253 1209, PRC</address>
                <Point>
                    <coordinates>114.2580288023,22.3232046343</coordinates>
                </Point>
                <ExtendedData>
                    <Data name="postcode">
                        <value>DD253 1209</value>
                    </Data>
                    <Data name="hamlet">
                        <value>Yau Yue Wan Village</value>
                    </Data>
                    <Data name="country">
                        <value>PRC</value>
                    </Data>
                    <Data name="road">
                        <value>Yan King Road</value>
                    </Data>
                    <Data name="country_code">
                        <value>cn</value>
                    </Data>
                    <Data name="suburb">
                        <value>Po Lam</value>
                    </Data>
                    <Data name="mall">
                        <value>Metro City Plaza II</value>
                    </Data>
                </ExtendedData>
            </Placemark>
        </Folder>
        <Document>
            <name>98.2 km; 02:45 h (OSRM)</name>
            <Placemark>
                <name>Route</name>
                <LineString>
                    <coordinates>114.2582360000,22.3233300000 114.2578850000,22.3237850000 114.2577420000,22.3239960000 114.2579350000,22.3241480000 114.2580280000,22.3242220000 114.2576950000,22.3246010000 114.2575970000,22.3246880000 114.2575820000,22.3247020000 114.2575650000,22.3247190000 114.2574810000,22.3248000000 114.2574220000,22.3248500000 114.2575870000,22.3250090000 114.2578540000,22.3252630000 114.2580730000,22.3254610000 114.2583550000,22.3256740000 114.2583620000,22.3256790000 114.2583810000,22.3256930000 114.2585370000,22.3258040000 114.2583450000,22.3260310000 114.2579730000,22.3263540000 114.2574880000,22.3266450000 114.2572930000,22.3267530000 114.2568990000,22.3269000000 114.2566280000,22.3269750000 114.2562290000,22.3270490000 114.2558780000,22.3270890000 114.2555280000,22.3271010000 114.2549910000,22.3270590000 114.2546930000,22.3270180000 114.2543370000,22.3269440000 114.2540560000,22.3268760000 114.2534570000,22.3267180000 114.2521130000,22.3263720000 114.2518710000,22.3263100000 114.2515810000,22.3262300000 114.2513780000,22.3261720000 114.2512940000,22.3261480000 114.2512120000,22.3261260000 114.2510030000,22.3260770000 114.2508820000,22.3260500000 114.2507050000,22.3260500000 114.2506060000,22.3260150000 114.2504340000,22.3259640000 114.2502770000,22.3258870000 114.2501590000,22.3258140000 114.2500610000,22.3257350000 114.2499600000,22.3256360000 114.2498500000,22.3254720000 114.2497690000,22.3253480000 114.2496950000,22.3251800000 114.2496630000,22.3250410000 114.2496460000,22.3249040000 114.2496590000,22.3247580000 114.2496820000,22.3246510000 114.2497440000,22.3244990000 114.2498710000,22.3243100000 114.2500830000,22.3241060000 114.2502790000,22.3239250000 114.2503920000,22.3237760000 114.2504830000,22.3235460000 114.2505110000,22.3233290000 114.2504670000,22.3230960000 114.2503660000,22.3228930000 114.2501960000,22.3226390000 114.2501150000,22.3225150000 114.2500400000,22.3223990000 114.2500130000,22.3223240000 114.2500070000,22.3222870000 114.2499980000,22.3222340000 114.2499870000,22.3221100000 114.2499870000,22.3219840000 114.2500170000,22.3218560000 114.2500570000,22.3217290000 114.2501380000,22.3215600000 114.2502400000,22.3213690000 114.2503700000,22.3210520000 114.2505690000,22.3204640000 114.2506560000,22.3201890000 114.2507050000,22.3200500000 114.2507680000,22.3199150000 114.2508680000,22.3197370000 114.2510380000,22.3195880000 114.2512620000,22.3194880000 114.2514670000,22.3194650000 114.2517050000,22.3194800000 114.2519510000,22.3195660000 114.2520190000,22.3196290000 114.2521310000,22.3197330000 114.2524080000,22.3200380000 114.2525480000,22.3202050000 114.2526840000,22.3203100000 114.2528210000,22.3203920000 114.2530760000,22.3204690000 114.2533400000,22.3204830000 114.2535890000,22.3204380000 114.2537870000,22.3203570000 114.2539700000,22.3202190000 114.2540940000,22.3200260000 114.2541970000,22.3198450000 114.2542600000,22.3196610000 114.2543270000,22.3193540000 114.2543390000,22.3192280000 114.2543570000,22.3190380000 114.2543800000,22.3188100000 114.2543940000,22.3186720000 114.2543930000,22.3184840000 114.2543720000,22.3183470000 114.2542980000,22.3181590000 114.2542090000,22.3179920000 114.2541040000,22.3178830000 114.2538830000,22.3177140000 114.2537680000,22.3176570000 114.2536450000,22.3176170000 114.2534620000,22.3175760000 114.2532980000,22.3175590000 114.2527910000,22.3175310000 114.2525440000,22.3175230000 114.2523280000,22.3174950000 114.2521430000,22.3174450000 114.2519640000,22.3173750000 114.2516600000,22.3172620000 114.2514440000,22.3171960000 114.2511870000,22.3171620000 114.2509430000,22.3171860000 114.2507060000,22.3172670000 114.2504800000,22.3174200000 114.2503290000,22.3175930000 114.2502040000,22.3177640000 114.2498620000,22.3182490000 114.2497820000,22.3183730000 114.2496580000,22.3185150000 114.2495100000,22.3186250000 114.2493760000,22.3187140000 114.2492350000,22.3187770000 114.2491210000,22.3188170000 114.2489590000,22.3188660000 114.2487200000,22.3189300000 114.2483660000,22.3190030000 114.2481710000,22.3190410000 114.2480210000,22.3190600000 114.2478690000,22.3190640000 114.2477150000,22.3190510000 114.2475730000,22.3190190000 114.2468300000,22.3188140000 114.2466090000,22.3187800000 114.2464010000,22.3187920000 114.2461780000,22.3188600000 114.2460560000,22.3189420000 114.2459590000,22.3190420000 114.2458410000,22.3191920000 114.2457690000,22.3192960000 114.2455950000,22.3195180000 114.2455380000,22.3195870000 114.2454890000,22.3196300000 114.2453790000,22.3197270000 114.2452720000,22.3198130000 114.2452300000,22.3198480000 114.2451860000,22.3198830000 114.2450920000,22.3199590000 114.2450080000,22.3200210000 114.2444530000,22.3204440000 114.2441370000,22.3206650000 114.2439890000,22.3207670000 114.2438510000,22.3208690000 114.2437430000,22.3209270000 114.2436190000,22.3209790000 114.2434890000,22.3210290000 114.2433520000,22.3210530000 114.2432040000,22.3210560000 114.2430740000,22.3210500000 114.2429040000,22.3210200000 114.2427450000,22.3209790000 114.2425900000,22.3209310000 114.2424800000,22.3208250000 114.2423420000,22.3207310000 114.2421770000,22.3205480000 114.2417840000,22.3200150000 114.2413330000,22.3194020000 114.2410310000,22.3192020000 114.2407600000,22.3190710000 114.2404690000,22.3189880000 114.2401960000,22.3189320000 114.2399930000,22.3189300000 114.2395470000,22.3188120000 114.2393870000,22.3187600000 114.2393240000,22.3187390000 114.2391710000,22.3186820000 114.2391130000,22.3188230000 114.2390730000,22.3189220000 114.2390600000,22.3189720000 114.2390210000,22.3190270000 114.2389350000,22.3190790000 114.2388140000,22.3190890000 114.2387080000,22.3190270000 114.2386100000,22.3189250000 114.2384950000,22.3188030000 114.2383880000,22.3187310000 114.2382290000,22.3186450000 114.2380570000,22.3185830000 114.2378530000,22.3185630000 114.2376470000,22.3185730000 114.2374810000,22.3186190000 114.2373370000,22.3186810000 114.2371800000,22.3188010000 114.2369900000,22.3189990000 114.2369610000,22.3190280000 114.2368980000,22.3190890000 114.2368420000,22.3191270000 114.2367680000,22.3191690000 114.2367420000,22.3191700000 114.2367170000,22.3191750000 114.2366290000,22.3191570000 114.2365610000,22.3191360000 114.2364420000,22.3190930000 114.2360280000,22.3189690000 114.2357670000,22.3189340000 114.2355210000,22.3189470000 114.2353460000,22.3189990000 114.2351880000,22.3191210000 114.2339080000,22.3203670000 114.2337660000,22.3205290000 114.2335330000,22.3208160000 114.2335200000,22.3208330000 114.2335080000,22.3208480000 114.2334210000,22.3209660000 114.2333130000,22.3211060000 114.2329370000,22.3215930000 114.2328660000,22.3216770000 114.2325850000,22.3220100000 114.2317000000,22.3230870000 114.2312570000,22.3236950000 114.2309520000,22.3241020000 114.2308540000,22.3242570000 114.2307590000,22.3244350000 114.2306730000,22.3246510000 114.2306180000,22.3248830000 114.2305920000,22.3251070000 114.2305950000,22.3253660000 114.2306170000,22.3259390000 114.2306170000,22.3259630000 114.2306270000,22.3262110000 114.2306260000,22.3264260000 114.2306260000,22.3264970000 114.2306240000,22.3265780000 114.2306160000,22.3266940000 114.2306030000,22.3268420000 114.2305790000,22.3270050000 114.2305320000,22.3272120000 114.2304890000,22.3273540000 114.2304390000,22.3274620000 114.2303800000,22.3275440000 114.2303460000,22.3275550000 114.2303150000,22.3275730000 114.2302890000,22.3275970000 114.2302710000,22.3276260000 114.2302600000,22.3276550000 114.2302570000,22.3276860000 114.2302600000,22.3277170000 114.2302710000,22.3277470000 114.2302420000,22.3278890000 114.2302140000,22.3279590000 114.2301760000,22.3280530000 114.2300310000,22.3282800000 114.2299290000,22.3284380000 114.2297020000,22.3287150000 114.2295560000,22.3288640000 114.2293630000,22.3290490000 114.2290920000,22.3292730000 114.2287980000,22.3294690000 114.2285680000,22.3296520000 114.2284090000,22.3298450000 114.2283050000,22.3300530000 114.2282300000,22.3303180000 114.2282190000,22.3305410000 114.2282530000,22.3307740000 114.2283090000,22.3309540000 114.2284160000,22.3311480000 114.2285600000,22.3313930000 114.2286600000,22.3315800000 114.2287060000,22.3317330000 114.2287250000,22.3319060000 114.2287110000,22.3320800000 114.2286870000,22.3322160000 114.2285360000,22.3325110000 114.2284950000,22.3325930000 114.2284280000,22.3327850000 114.2284030000,22.3328660000 114.2283900000,22.3329500000 114.2283820000,22.3330320000 114.2283750000,22.3331470000 114.2283700000,22.3332420000 114.2283540000,22.3338460000 114.2282710000,22.3340660000 114.2282490000,22.3340920000 114.2282230000,22.3341220000 114.2282060000,22.3341420000 114.2281110000,22.3341910000 114.2279590000,22.3342370000 114.2275110000,22.3342370000 114.2274470000,22.3342370000 114.2271050000,22.3341910000 114.2270870000,22.3341890000 114.2270610000,22.3341860000 114.2267500000,22.3341470000 114.2264970000,22.3340990000 114.2261810000,22.3340170000 114.2258640000,22.3339440000 114.2255850000,22.3339040000 114.2252950000,22.3338920000 114.2251090000,22.3338990000 114.2247170000,22.3339380000 114.2242410000,22.3340170000 114.2238690000,22.3340590000 114.2235930000,22.3340530000 114.2232610000,22.3340190000 114.2229770000,22.3339710000 114.2226100000,22.3338770000 114.2224520000,22.3338360000 114.2221840000,22.3337360000 114.2219360000,22.3335690000 114.2217580000,22.3334040000 114.2216170000,22.3332500000 114.2213610000,22.3329370000 114.2211370000,22.3326760000 114.2209770000,22.3324580000 114.2208960000,22.3322690000 114.2208500000,22.3321020000 114.2208370000,22.3319800000 114.2208460000,22.3318300000 114.2209020000,22.3316060000 114.2209410000,22.3315310000 114.2210710000,22.3313460000 114.2212380000,22.3311820000 114.2215470000,22.3309170000 114.2216330000,22.3308280000 114.2217320000,22.3307250000 114.2218070000,22.3306490000 114.2219400000,22.3305150000 114.2222850000,22.3302320000 114.2224220000,22.3301440000 114.2226070000,22.3300630000 114.2228360000,22.3300110000 114.2230490000,22.3300050000 114.2232600000,22.3300430000 114.2234760000,22.3301290000 114.2236400000,22.3302130000 114.2238250000,22.3303460000 114.2241550000,22.3306300000 114.2242980000,22.3308500000 114.2243630000,22.3310200000 114.2244130000,22.3311850000 114.2244070000,22.3313290000 114.2243780000,22.3315300000 114.2242760000,22.3317330000 114.2241630000,22.3318650000 114.2240100000,22.3320320000 114.2238420000,22.3321670000 114.2235240000,22.3323380000 114.2228700000,22.3326070000 114.2224240000,22.3327990000 114.2221310000,22.3329060000 114.2218260000,22.3329810000 114.2214880000,22.3330050000 114.2208810000,22.3330400000 114.2200380000,22.3330780000 114.2190940000,22.3331200000 114.2188320000,22.3330820000 114.2181580000,22.3329530000 114.2167870000,22.3326760000 114.2152590000,22.3323660000 114.2151760000,22.3323480000 114.2150510000,22.3323210000 114.2144810000,22.3322210000 114.2141700000,22.3322200000 114.2139600000,22.3322330000 114.2137320000,22.3322770000 114.2135290000,22.3323540000 114.2133600000,22.3324510000 114.2131140000,22.3326350000 114.2130300000,22.3327060000 114.2129460000,22.3328000000 114.2128680000,22.3328880000 114.2125410000,22.3333170000 114.2124270000,22.3334660000 114.2122090000,22.3337590000 114.2120330000,22.3339410000 114.2119130000,22.3340510000 114.2116710000,22.3341680000 114.2115170000,22.3342360000 114.2113300000,22.3343000000 114.2111070000,22.3343500000 114.2110110000,22.3343640000 114.2107130000,22.3343670000 114.2104910000,22.3343270000 114.2099080000,22.3342220000 114.2092610000,22.3340930000 114.2090730000,22.3340630000 114.2087050000,22.3340720000 114.2084750000,22.3341430000 114.2082580000,22.3342250000 114.2081090000,22.3342900000 114.2080000000,22.3343360000 114.2080050000,22.3344320000 114.2080030000,22.3345270000 114.2079940000,22.3345770000 114.2079790000,22.3346360000 114.2079570000,22.3346940000 114.2078730000,22.3348950000 114.2076510000,22.3353700000 114.2076190000,22.3354420000 114.2073780000,22.3359480000 114.2073350000,22.3360250000 114.2073030000,22.3360810000 114.2072840000,22.3361150000 114.2072180000,22.3362280000 114.2071500000,22.3363490000 114.2070330000,22.3365360000 114.2068360000,22.3366820000 114.2065980000,22.3368240000 114.2058220000,22.3372860000 114.2048450000,22.3378630000 114.2033930000,22.3387210000 114.2029090000,22.3389990000 114.2028670000,22.3390220000 114.2023130000,22.3393480000 114.2022820000,22.3393660000 114.2004860000,22.3403930000 114.2001110000,22.3406470000 114.1996590000,22.3409170000 114.1991220000,22.3412210000 114.1989070000,22.3413350000 114.1986750000,22.3414190000 114.1984530000,22.3415150000 114.1982130000,22.3415850000 114.1978650000,22.3416190000 114.1975150000,22.3416490000 114.1966610000,22.3416600000 114.1958210000,22.3416580000 114.1956640000,22.3416580000 114.1955220000,22.3416570000 114.1924510000,22.3416280000 114.1919230000,22.3416100000 114.1916870000,22.3416060000 114.1915690000,22.3416060000 114.1914520000,22.3416050000 114.1911270000,22.3416250000 114.1908750000,22.3416730000 114.1906570000,22.3417450000 114.1904920000,22.3418110000 114.1897670000,22.3421530000 114.1893730000,22.3423270000 114.1889930000,22.3423970000 114.1886880000,22.3424180000 114.1884710000,22.3424320000 114.1875170000,22.3424300000 114.1867250000,22.3424410000 114.1863010000,22.3424730000 114.1856720000,22.3425860000 114.1854220000,22.3426580000 114.1849890000,22.3427940000 114.1841130000,22.3431610000 114.1837920000,22.3433060000 114.1833190000,22.3435730000 114.1829600000,22.3438240000 114.1828630000,22.3438840000 114.1827840000,22.3439320000 114.1827380000,22.3439590000 114.1826570000,22.3439950000 114.1825750000,22.3440270000 114.1824900000,22.3440530000 114.1823910000,22.3440740000 114.1822850000,22.3440830000 114.1821470000,22.3440880000 114.1819010000,22.3440850000 114.1809550000,22.3440150000 114.1800600000,22.3440080000 114.1797930000,22.3440320000 114.1795670000,22.3440680000 114.1793300000,22.3441200000 114.1790560000,22.3441910000 114.1787900000,22.3442810000 114.1779280000,22.3446190000 114.1777690000,22.3446690000 114.1775780000,22.3447070000 114.1773820000,22.3447200000 114.1771540000,22.3447010000 114.1768970000,22.3446330000 114.1759000000,22.3443210000 114.1757270000,22.3442560000 114.1755780000,22.3441760000 114.1754120000,22.3440510000 114.1752930000,22.3439240000 114.1752030000,22.3437750000 114.1748210000,22.3431390000 114.1747360000,22.3430290000 114.1746100000,22.3428770000 114.1744690000,22.3427530000 114.1743100000,22.3426510000 114.1741510000,22.3425770000 114.1739850000,22.3425200000 114.1738440000,22.3425030000 114.1736660000,22.3424940000 114.1734200000,22.3425380000 114.1732640000,22.3425750000 114.1731250000,22.3426170000 114.1729430000,22.3427050000 114.1723510000,22.3430880000 114.1722070000,22.3431590000 114.1720780000,22.3432030000 114.1719320000,22.3432500000 114.1718040000,22.3432690000 114.1716860000,22.3432780000 114.1715690000,22.3432770000 114.1714350000,22.3432600000 114.1713070000,22.3432270000 114.1711970000,22.3431840000 114.1711020000,22.3431310000 114.1710120000,22.3430720000 114.1708890000,22.3429780000 114.1706260000,22.3427190000 114.1704220000,22.3425010000 114.1699620000,22.3420690000 114.1694490000,22.3415410000 114.1693270000,22.3414250000 114.1692030000,22.3413310000 114.1690860000,22.3412520000 114.1689330000,22.3411650000 114.1687640000,22.3410980000 114.1686140000,22.3410550000 114.1684660000,22.3410370000 114.1683150000,22.3410300000 114.1681540000,22.3410490000 114.1680280000,22.3410740000 114.1678650000,22.3411220000 114.1676980000,22.3411910000 114.1668350000,22.3416210000 114.1667110000,22.3416850000 114.1665720000,22.3417560000 114.1664070000,22.3418190000 114.1662880000,22.3418540000 114.1661510000,22.3418790000 114.1659600000,22.3419030000 114.1657280000,22.3419140000 114.1652790000,22.3419070000 114.1646000000,22.3418750000 114.1644170000,22.3418560000 114.1642460000,22.3418310000 114.1640610000,22.3417900000 114.1638820000,22.3417390000 114.1636810000,22.3416680000 114.1634660000,22.3415750000 114.1631320000,22.3414180000 114.1627710000,22.3412590000 114.1625530000,22.3411730000 114.1622960000,22.3411020000 114.1620110000,22.3410440000 114.1617160000,22.3410250000 114.1614370000,22.3410310000 114.1612000000,22.3410610000 114.1609450000,22.3411290000 114.1606890000,22.3412190000 114.1605040000,22.3413080000 114.1603610000,22.3414020000 114.1602270000,22.3415030000 114.1600600000,22.3416480000 114.1599200000,22.3417840000 114.1595910000,22.3421560000 114.1594570000,22.3422990000 114.1593490000,22.3424050000 114.1592300000,22.3425000000 114.1590960000,22.3425810000 114.1589260000,22.3426640000 114.1587340000,22.3427320000 114.1585780000,22.3427760000 114.1583820000,22.3428150000 114.1581200000,22.3428430000 114.1578230000,22.3428530000 114.1574960000,22.3428360000 114.1572960000,22.3428180000 114.1567660000,22.3427710000 114.1565860000,22.3427520000 114.1564280000,22.3427340000 114.1561290000,22.3427140000 114.1558810000,22.3427140000 114.1556090000,22.3427320000 114.1551680000,22.3427880000 114.1549500000,22.3427930000 114.1547950000,22.3427870000 114.1546030000,22.3427550000 114.1544320000,22.3427110000 114.1540050000,22.3425310000 114.1536980000,22.3424250000 114.1509610000,22.3412580000 114.1505520000,22.3410870000 114.1500930000,22.3408870000 114.1498310000,22.3407830000 114.1496330000,22.3407010000 114.1492640000,22.3405710000 114.1487650000,22.3404020000 114.1472160000,22.3399700000 114.1469300000,22.3398970000 114.1466690000,22.3398570000 114.1463180000,22.3398320000 114.1455850000,22.3398140000 114.1453110000,22.3398360000 114.1450780000,22.3398850000 114.1448680000,22.3399770000 114.1447450000,22.3400500000 114.1446390000,22.3401350000 114.1445300000,22.3402420000 114.1441970000,22.3406980000 114.1441110000,22.3408110000 114.1440340000,22.3408970000 114.1439820000,22.3409430000 114.1439060000,22.3410000000 114.1437720000,22.3410560000 114.1436270000,22.3410950000 114.1435470000,22.3411080000 114.1434300000,22.3411090000 114.1433470000,22.3410990000 114.1432000000,22.3410730000 114.1429990000,22.3410070000 114.1427900000,22.3408930000 114.1425460000,22.3407080000 114.1418420000,22.3400970000 114.1417020000,22.3400050000 114.1413940000,22.3398740000 114.1412340000,22.3398470000 114.1410360000,22.3398390000 114.1408280000,22.3398550000 114.1406170000,22.3399190000 114.1403200000,22.3400310000 114.1399660000,22.3402170000 114.1390790000,22.3408220000 114.1387950000,22.3409890000 114.1384860000,22.3411350000 114.1381500000,22.3412550000 114.1379970000,22.3412930000 114.1378480000,22.3413160000 114.1376760000,22.3413210000 114.1374900000,22.3413090000 114.1372610000,22.3412580000 114.1370550000,22.3411850000 114.1369150000,22.3411080000 114.1367940000,22.3410270000 114.1365860000,22.3408270000 114.1363900000,22.3402970000 114.1362210000,22.3396570000 114.1361060000,22.3391020000 114.1360550000,22.3387210000 114.1360460000,22.3384780000 114.1360890000,22.3380640000 114.1360940000,22.3378930000 114.1360660000,22.3375860000 114.1360230000,22.3373800000 114.1359920000,22.3372220000 114.1358870000,22.3368620000 114.1356660000,22.3362620000 114.1355740000,22.3360490000 114.1355630000,22.3360300000 114.1354450000,22.3358220000 114.1353490000,22.3356940000 114.1352720000,22.3356130000 114.1351930000,22.3355320000 114.1350470000,22.3354150000 114.1348860000,22.3353250000 114.1347640000,22.3352680000 114.1346510000,22.3352280000 114.1345290000,22.3351850000 114.1343880000,22.3351510000 114.1342250000,22.3351310000 114.1340760000,22.3351260000 114.1338890000,22.3351310000 114.1337130000,22.3351580000 114.1335140000,22.3352100000 114.1333480000,22.3352740000 114.1331810000,22.3353580000 114.1330670000,22.3354300000 114.1329450000,22.3355330000 114.1328470000,22.3356230000 114.1327460000,22.3357410000 114.1326520000,22.3358750000 114.1325760000,22.3360100000 114.1324940000,22.3361850000 114.1324350000,22.3363490000 114.1323820000,22.3365190000 114.1322850000,22.3368760000 114.1322250000,22.3370820000 114.1321510000,22.3373000000 114.1320370000,22.3376300000 114.1318910000,22.3379940000 114.1317450000,22.3383260000 114.1315600000,22.3387620000 114.1312770000,22.3394790000 114.1311420000,22.3398180000 114.1310790000,22.3401370000 114.1310470000,22.3402070000 114.1308880000,22.3405740000 114.1307190000,22.3409130000 114.1305230000,22.3412450000 114.1302290000,22.3416960000 114.1300150000,22.3419730000 114.1297900000,22.3422150000 114.1296350000,22.3423570000 114.1294840000,22.3425000000 114.1293200000,22.3426370000 114.1291160000,22.3427790000 114.1288580000,22.3429320000 114.1285800000,22.3430670000 114.1282990000,22.3432080000 114.1280790000,22.3433120000 114.1275730000,22.3435180000 114.1272420000,22.3436620000 114.1269010000,22.3438300000 114.1265480000,22.3440350000 114.1261970000,22.3442850000 114.1259420000,22.3444920000 114.1256990000,22.3447270000 114.1254680000,22.3449730000 114.1252700000,22.3452380000 114.1250080000,22.3455860000 114.1248240000,22.3458870000 114.1246430000,22.3463590000 114.1244800000,22.3469000000 114.1244150000,22.3472210000 114.1243800000,22.3475480000 114.1243660000,22.3478910000 114.1243750000,22.3483980000 114.1243460000,22.3492150000 114.1242840000,22.3496110000 114.1241960000,22.3499950000 114.1240920000,22.3503190000 114.1239530000,22.3506300000 114.1237610000,22.3509160000 114.1234880000,22.3512340000 114.1230260000,22.3516520000 114.1228280000,22.3518040000 114.1226080000,22.3519350000 114.1221550000,22.3521050000 114.1217180000,22.3522390000 114.1214310000,22.3523020000 114.1211440000,22.3523490000 114.1207110000,22.3523730000 114.1203330000,22.3523730000 114.1199880000,22.3523650000 114.1194960000,22.3522790000 114.1191870000,22.3522180000 114.1188760000,22.3521210000 114.1185250000,22.3519850000 114.1181990000,22.3518490000 114.1179480000,22.3517290000 114.1175950000,22.3515240000 114.1171200000,22.3512030000 114.1167670000,22.3509350000 114.1163940000,22.3506770000 114.1161560000,22.3505160000 114.1158850000,22.3503530000 114.1156120000,22.3502090000 114.1153200000,22.3500660000 114.1151020000,22.3499700000 114.1123300000,22.3489180000 114.1121710000,22.3488580000 114.1118310000,22.3487140000 114.1114850000,22.3485670000 114.1110020000,22.3483410000 114.1108420000,22.3482640000 114.1067700000,22.3461380000 114.1065040000,22.3460130000 114.1062830000,22.3459150000 114.1060100000,22.3457980000 114.1057500000,22.3456900000 114.1055200000,22.3456000000 114.1053160000,22.3455250000 114.1050600000,22.3454400000 114.1048010000,22.3453580000 114.1045000000,22.3452660000 114.1042000000,22.3451750000 114.1039000000,22.3450920000 114.1036000000,22.3450220000 114.1033000000,22.3449580000 114.1030000000,22.3449000000 114.1026000000,22.3448350000 114.1020600000,22.3447660000 114.1017660000,22.3447330000 114.1014700000,22.3447070000 114.1011840000,22.3446860000 114.1009000000,22.3446750000 114.1003400000,22.3446570000 114.0957200000,22.3446110000 114.0956240000,22.3446120000 114.0943500000,22.3446090000 114.0939100000,22.3446010000 114.0937600000,22.3445980000 114.0932450000,22.3446000000 114.0929810000,22.3446070000 114.0927640000,22.3446250000 114.0924930000,22.3446550000 114.0921460000,22.3447160000 114.0920330000,22.3447350000 114.0918930000,22.3447670000 114.0917140000,22.3448180000 114.0915160000,22.3448850000 114.0912310000,22.3449890000 114.0909600000,22.3451060000 114.0906860000,22.3452240000 114.0903900000,22.3453580000 114.0901860000,22.3454620000 114.0897600000,22.3456670000 114.0895210000,22.3457890000 114.0893050000,22.3459100000 114.0889220000,22.3461740000 114.0885700000,22.3464410000 114.0882590000,22.3467350000 114.0881270000,22.3468140000 114.0878070000,22.3471650000 114.0875500000,22.3475690000 114.0873430000,22.3479580000 114.0871970000,22.3483340000 114.0870280000,22.3489680000 114.0868630000,22.3496330000 114.0867930000,22.3498930000 114.0865870000,22.3504190000 114.0865280000,22.3505640000 114.0864710000,22.3507950000 114.0864130000,22.3509630000 114.0863090000,22.3511870000 114.0860160000,22.3517900000 114.0857050000,22.3523210000 114.0855330000,22.3525550000 114.0852520000,22.3528710000 114.0849440000,22.3532050000 114.0847070000,22.3533890000 114.0845530000,22.3534650000 114.0844510000,22.3535070000 114.0842000000,22.3535790000 114.0840930000,22.3536050000 114.0839280000,22.3536290000 114.0838220000,22.3536690000 114.0836610000,22.3536670000 114.0834020000,22.3536380000 114.0831240000,22.3535860000 114.0828450000,22.3535210000 114.0825230000,22.3534300000 114.0822660000,22.3533590000 114.0818300000,22.3532420000 114.0809620000,22.3530000000 114.0807580000,22.3529290000 114.0628910000,22.3479420000 114.0621920000,22.3477430000 114.0617970000,22.3476210000 114.0613990000,22.3474890000 114.0610110000,22.3473460000 114.0606270000,22.3471880000 114.0602360000,22.3470150000 114.0598750000,22.3468400000 114.0595140000,22.3466480000 114.0591600000,22.3464470000 114.0588470000,22.3462540000 114.0585430000,22.3460600000 114.0525500000,22.3421550000 114.0519850000,22.3418020000 114.0517420000,22.3416520000 114.0514980000,22.3415220000 114.0511970000,22.3413840000 114.0509050000,22.3412690000 114.0504640000,22.3411370000 114.0501150000,22.3410650000 114.0496320000,22.3409870000 114.0488040000,22.3409060000 114.0482030000,22.3408520000 114.0472620000,22.3407500000 114.0466410000,22.3406480000 114.0460530000,22.3405040000 114.0458190000,22.3404340000 114.0456190000,22.3403700000 114.0453110000,22.3402400000 114.0449720000,22.3400670000 114.0440850000,22.3395510000 114.0432940000,22.3391030000 114.0404020000,22.3378420000 114.0397780000,22.3375450000 114.0393360000,22.3373640000 114.0390890000,22.3372750000 114.0387840000,22.3371820000 114.0384720000,22.3371100000 114.0380410000,22.3370070000 114.0375410000,22.3369040000 114.0371380000,22.3368240000 114.0367080000,22.3367090000 114.0364270000,22.3366290000 114.0362160000,22.3365560000 114.0357730000,22.3363950000 114.0352720000,22.3361990000 114.0347250000,22.3359550000 114.0342730000,22.3357320000 114.0338990000,22.3355020000 114.0333890000,22.3351500000 114.0328770000,22.3347490000 114.0324430000,22.3343380000 114.0299060000,22.3319080000 114.0272230000,22.3293370000 114.0265270000,22.3286850000 114.0251240000,22.3273490000 114.0247260000,22.3270220000 114.0244480000,22.3267970000 114.0243000000,22.3266910000 114.0239930000,22.3264980000 114.0235970000,22.3262700000 114.0230920000,22.3260010000 114.0226320000,22.3257790000 114.0218850000,22.3254810000 114.0213490000,22.3253080000 114.0208380000,22.3251670000 114.0203120000,22.3250680000 114.0198860000,22.3249950000 114.0194280000,22.3249350000 114.0189490000,22.3248840000 114.0184730000,22.3248690000 114.0179280000,22.3248690000 114.0157280000,22.3250250000 114.0151360000,22.3250500000 114.0146250000,22.3250580000 114.0140290000,22.3250370000 114.0134250000,22.3249950000 114.0129230000,22.3249450000 114.0124980000,22.3248840000 114.0120280000,22.3247880000 114.0109800000,22.3245210000 114.0104470000,22.3243410000 114.0099940000,22.3241710000 114.0092210000,22.3238440000 114.0073390000,22.3230500000 114.0030460000,22.3210970000 114.0022110000,22.3207110000 114.0018700000,22.3205380000 114.0015450000,22.3203740000 114.0012450000,22.3202230000 114.0009200000,22.3200340000 114.0006410000,22.3198590000 114.0004230000,22.3197030000 114.0001470000,22.3195040000 113.9998380000,22.3192620000 113.9994860000,22.3189590000 113.9992090000,22.3186870000 113.9989500000,22.3184190000 113.9985960000,22.3180270000 113.9983040000,22.3176570000 113.9980000000,22.3172060000 113.9977570000,22.3168210000 113.9974960000,22.3163870000 113.9973020000,22.3160790000 113.9971020000,22.3157770000 113.9968930000,22.3154780000 113.9966240000,22.3151180000 113.9964650000,22.3149000000 113.9961560000,22.3145280000 113.9959240000,22.3142630000 113.9957120000,22.3140280000 113.9954890000,22.3137910000 113.9951210000,22.3134260000 113.9948160000,22.3131480000 113.9944550000,22.3128470000 113.9940660000,22.3125250000 113.9937300000,22.3122730000 113.9933570000,22.3120010000 113.9929640000,22.3117410000 113.9926010000,22.3115140000 113.9877960000,22.3087560000 113.9856810000,22.3074790000 113.9851170000,22.3071400000 113.9844290000,22.3067090000 113.9829960000,22.3058040000 113.9820570000,22.3051880000 113.9804410000,22.3041820000 113.9795070000,22.3036070000 113.9785100000,22.3030050000 113.9778550000,22.3026450000 113.9769330000,22.3021450000 113.9757440000,22.3015630000 113.9745330000,22.3009340000 113.9737440000,22.3005560000 113.9731390000,22.3002800000 113.9722740000,22.2999010000 113.9715800000,22.2996450000 113.9710390000,22.2994730000 113.9705160000,22.2993110000 113.9698770000,22.2991360000 113.9689750000,22.2989320000 113.9680470000,22.2986900000 113.9677470000,22.2986190000 113.9635320000,22.2977010000 113.9609300000,22.2971350000 113.9603210000,22.2969830000 113.9595720000,22.2967670000 113.9587890000,22.2964930000 113.9582960000,22.2962940000 113.9578120000,22.2960870000 113.9572830000,22.2958390000 113.9567450000,22.2955430000 113.9560790000,22.2951570000 113.9558210000,22.2949960000 113.9555750000,22.2948250000 113.9552750000,22.2946020000 113.9549650000,22.2943560000 113.9546260000,22.2940770000 113.9542590000,22.2937580000 113.9538700000,22.2934090000 113.9535270000,22.2930740000 113.9532730000,22.2927990000 113.9528750000,22.2923800000 113.9523830000,22.2918530000 113.9521350000,22.2916130000 113.9518830000,22.2913840000 113.9515220000,22.2910870000 113.9512400000,22.2908870000 113.9510840000,22.2907630000 113.9504990000,22.2904060000 113.9500840000,22.2901790000 113.9496380000,22.2899900000 113.9491880000,22.2898330000 113.9487170000,22.2896800000 113.9483130000,22.2895790000 113.9478750000,22.2894950000 113.9474000000,22.2894160000 113.9468720000,22.2893630000 113.9463440000,22.2893450000 113.9459210000,22.2893440000 113.9454980000,22.2893540000 113.9448930000,22.2894100000 113.9445070000,22.2894660000 113.9439680000,22.2895710000 113.9434870000,22.2896900000 113.9431440000,22.2897990000 113.9427810000,22.2899170000 113.9422260000,22.2901410000 113.9417000000,22.2903820000 113.9413010000,22.2906010000 113.9409940000,22.2907830000 113.9406600000,22.2910100000 113.9403680000,22.2912140000 113.9400220000,22.2914810000 113.9396530000,22.2918110000 113.9394110000,22.2920570000 113.9387640000,22.2926780000 113.9384570000,22.2930260000 113.9381460000,22.2933970000 113.9378070000,22.2938530000 113.9374580000,22.2943700000 113.9370460000,22.2950450000 113.9360670000,22.2966820000 113.9358920000,22.2969650000 113.9356150000,22.2974640000 113.9354890000,22.2976900000 113.9352940000,22.2980840000 113.9351860000,22.2984220000 113.9351080000,22.2987100000 113.9349960000,22.2989850000 113.9349220000,22.2991160000 113.9348370000,22.2992260000 113.9347150000,22.2993100000 113.9346140000,22.2993630000 113.9344570000,22.2994100000 113.9342440000,22.2994350000 113.9340730000,22.2994330000 113.9339720000,22.2994100000 113.9338530000,22.2993660000 113.9337490000,22.2993140000 113.9336330000,22.2992540000 113.9334800000,22.2991600000 113.9332910000,22.2990010000 113.9331740000,22.2988710000 113.9331510000,22.2986820000 113.9331130000,22.2985340000 113.9331300000,22.2983670000 113.9332340000,22.2979900000 113.9332910000,22.2978150000 113.9333360000,22.2976760000 113.9333450000,22.2975620000 113.9333520000,22.2973800000 113.9333670000,22.2972170000 113.9333710000,22.2970970000 113.9333750000,22.2968630000 113.9333950000,22.2967580000 113.9334540000,22.2966600000 113.9335020000,22.2966020000 113.9336040000,22.2965870000 113.9337480000,22.2965970000 113.9339080000,22.2966370000 113.9341050000,22.2966900000 113.9343810000,22.2967890000 113.9345770000,22.2968980000 113.9347230000,22.2970120000 113.9348270000,22.2971260000 113.9349170000,22.2972940000 113.9349720000,22.2974370000 113.9349960000,22.2976060000 113.9349860000,22.2978080000 113.9349390000,22.2980020000 113.9348760000,22.2982430000 113.9347870000,22.2985580000 113.9347350000,22.2987830000 113.9347010000,22.2989680000 113.9346670000,22.2992420000 113.9346570000,22.2994040000 113.9346550000,22.2996860000 113.9346620000,22.2999700000 113.9346680000,22.3000250000 113.9346940000,22.3002850000 113.9347530000,22.3005990000 113.9348260000,22.3009320000 113.9349430000,22.3015040000 113.9350530000,22.3018520000 113.9352030000,22.3023310000 113.9355150000,22.3031420000 113.9361240000,22.3044080000 113.9364770000,22.3053440000 113.9368540000,22.3063950000 113.9369210000,22.3066690000 113.9372190000,22.3081210000 113.9372590000,22.3082870000 113.9374760000,22.3095760000 113.9375670000,22.3100200000 113.9376320000,22.3102770000 113.9376640000,22.3104300000 113.9376890000,22.3106240000 113.9376930000,22.3108590000 113.9376940000,22.3111780000 113.9376600000,22.3115390000 113.9375780000,22.3119780000 113.9374820000,22.3123540000 113.9373060000,22.3128580000 113.9371960000,22.3131470000 113.9370880000,22.3134870000 113.9368690000,22.3140740000 113.9362310000,22.3157880000 113.9355280000,22.3176750000 113.9353140000,22.3182230000 113.9352680000,22.3183640000 113.9352020000,22.3185670000 113.9351780000,22.3186890000 113.9351690000,22.3187950000 113.9351750000,22.3189650000 113.9351950000,22.3191140000 113.9352530000,22.3192830000 113.9353230000,22.3194140000 113.9354030000,22.3195300000 113.9356000000,22.3197410000 113.9357970000,22.3198700000 113.9360020000,22.3199710000 113.9363100000,22.3200970000 113.9364720000,22.3201460000 113.9367070000,22.3202210000 113.9369330000,22.3202820000 113.9372560000,22.3203070000 113.9375140000,22.3202930000 113.9377300000,22.3202510000 113.9379220000,22.3201690000 113.9380410000,22.3200600000 113.9381210000,22.3199620000 113.9381810000,22.3198710000 113.9382170000,22.3197790000 113.9382360000,22.3196580000 113.9382300000,22.3195480000 113.9381930000,22.3194180000 113.9381350000,22.3193100000 113.9380910000,22.3192500000 113.9379570000,22.3191560000 113.9378110000,22.3190920000 113.9376610000,22.3190480000 113.9375210000,22.3190530000 113.9374820000,22.3190540000 113.9373460000,22.3190830000 113.9371540000,22.3191400000 113.9369650000,22.3192350000 113.9367830000,22.3193110000 113.9366460000,22.3192510000 113.9365090000,22.3192730000 113.9364180000,22.3193170000 113.9363240000,22.3193940000 113.9363000000,22.3194950000 113.9363240000,22.3196350000 113.9363760000,22.3197530000 113.9364930000,22.3198910000 113.9366300000,22.3199830000 113.9367930000,22.3201750000 113.9368340000,22.3202230000 113.9370100000,22.3204210000 113.9371680000,22.3205650000 113.9374480000,22.3207650000 113.9376240000,22.3208430000 113.9377090000,22.3208760000 113.9378670000,22.3209390000 113.9380130000,22.3209790000 113.9381340000,22.3209940000 113.9382200000,22.3209940000 113.9383440000,22.3209830000 113.9384510000,22.3209450000 113.9385340000,22.3208830000 113.9386020000,22.3208190000 113.9386870000,22.3207120000 113.9387440000,22.3205900000 113.9387900000,22.3204480000 113.9387960000,22.3204300000 113.9389600000,22.3198070000 113.9390010000,22.3196500000 113.9390880000,22.3193060000 113.9391540000,22.3190390000 113.9393220000,22.3190680000 113.9393810000,22.3190840000 113.9397850000,22.3191830000 113.9403250000,22.3192980000 113.9404520000,22.3193300000 113.9405730000,22.3193610000 113.9410160000,22.3194400000 113.9409450000,22.3196920000 113.9409120000,22.3198110000 113.9407260000,22.3205560000 113.9407220000,22.3205740000 113.9406240000,22.3209660000 113.9405600000,22.3212230000 113.9405410000,22.3212960000 113.9405710000,22.3213920000 113.9406390000,22.3214610000 113.9406210000,22.3215100000 113.9403040000,22.3214410000 113.9391000000,22.3211790000 113.9390460000,22.3211670000 113.9389980000,22.3211580000 113.9385860000,22.3210820000 113.9384510000,22.3209450000 113.9383440000,22.3209830000 113.9382200000,22.3209940000 113.9381340000,22.3209940000 113.9380130000,22.3209790000 113.9378670000,22.3209390000 113.9377090000,22.3208760000 113.9376240000,22.3208430000 113.9374480000,22.3207650000 113.9371680000,22.3205650000 113.9370100000,22.3204210000 113.9368340000,22.3202230000 113.9367930000,22.3201750000 113.9367660000,22.3200930000 113.9367790000,22.3200380000 113.9368400000,22.3199500000 113.9369300000,22.3199070000 113.9369980000,22.3197990000 113.9370080000,22.3196880000 113.9369730000,22.3195720000 113.9368900000,22.3194350000 113.9367830000,22.3193110000 113.9366460000,22.3192510000 113.9365710000,22.3191430000 113.9364900000,22.3189890000 113.9364400000,22.3188110000 113.9364260000,22.3185890000 113.9364410000,22.3184130000 113.9364820000,22.3183080000 113.9365490000,22.3181620000 113.9366200000,22.3180690000 113.9367410000,22.3179350000 113.9368280000,22.3178380000 113.9370840000,22.3175520000 113.9371400000,22.3174290000 113.9371700000,22.3173620000 113.9377560000,22.3158120000 113.9379400000,22.3153250000 113.9380110000,22.3151380000 113.9380470000,22.3148230000 113.9380310000,22.3146610000 113.9380210000,22.3145720000 113.9380120000,22.3144950000 113.9380060000,22.3144120000 113.9380000000,22.3143460000 113.9380030000,22.3141310000 113.9380610000,22.3139040000 113.9381600000,22.3136740000 113.9382400000,22.3135320000 113.9383340000,22.3134100000 113.9385970000,22.3131290000 113.9387650000,22.3129310000 113.9388740000,22.3127760000 113.9389610000,22.3125860000 113.9390100000,22.3124120000 113.9390390000,22.3122170000 113.9390490000,22.3120280000 113.9390270000,22.3118120000 113.9389490000,22.3116070000 113.9388900000,22.3114780000 113.9388090000,22.3113290000 113.9383670000,22.3107780000 113.9381710000,22.3104090000 113.9380770000,22.3101460000 113.9378760000,22.3095350000 113.9378090000,22.3089490000 113.9377530000,22.3083740000 113.9376770000,22.3078150000 113.9375460000,22.3071650000 113.9373850000,22.3065230000 113.9370440000,22.3054300000 113.9368240000,22.3048480000 113.9364970000,22.3040530000 113.9361740000,22.3029020000 113.9361030000,22.3024780000 113.9360510000,22.3020720000 113.9360020000,22.3014920000 113.9359600000,22.3010020000 113.9358750000,22.3005900000 113.9358530000,22.3002150000 113.9358790000,22.2996680000 113.9358940000,22.2993200000 113.9361000000,22.2985340000 113.9361520000,22.2983040000 113.9361690000,22.2980660000 113.9361520000,22.2978990000 113.9361000000,22.2977160000 113.9360140000,22.2975570000 113.9358940000,22.2973980000 113.9357650000,22.2972630000 113.9356370000,22.2971600000 113.9354740000,22.2970490000 113.9353100000,22.2969620000 113.9348820000,22.2968260000 113.9345760000,22.2967160000 113.9341540000,22.2965890000 113.9339400000,22.2965190000 113.9338060000,22.2964480000 113.9337240000,22.2963800000 113.9336500000,22.2962800000 113.9336050000,22.2961750000 113.9335210000,22.2960920000 113.9334110000,22.2960430000 113.9332740000,22.2960350000 113.9331610000,22.2960700000 113.9330690000,22.2961390000 113.9330090000,22.2962330000 113.9329890000,22.2963220000 113.9329970000,22.2964120000 113.9330430000,22.2965620000 113.9331010000,22.2966720000 113.9331400000,22.2967630000 113.9331780000,22.2968740000 113.9331940000,22.2970350000 113.9332010000,22.2972500000 113.9331960000,22.2974210000 113.9331770000,22.2975390000 113.9331390000,22.2978080000 113.9330700000,22.2980890000 113.9330020000,22.2982480000 113.9329240000,22.2983280000 113.9328470000,22.2983750000 113.9327530000,22.2983830000 113.9325720000,22.2984070000 113.9324610000,22.2984720000 113.9323490000,22.2985750000 113.9322360000,22.2987190000 113.9321500000,22.2988520000 113.9320900000,22.2990120000 113.9320540000,22.2991280000 113.9320490000,22.2992810000 113.9320750000,22.2993680000 113.9321350000,22.2994630000 113.9322380000,22.2995350000 113.9323350000,22.2995700000 113.9325500000,22.2995930000 113.9326700000,22.2995580000 113.9327560000,22.2994980000 113.9328590000,22.2994590000 113.9329710000,22.2994430000 113.9330890000,22.2994540000 113.9332200000,22.2994950000 113.9334780000,22.2995640000 113.9337510000,22.2996450000 113.9339990000,22.2996860000 113.9342460000,22.2996860000 113.9344950000,22.2996700000 113.9347270000,22.2996300000 113.9349820000,22.2995480000 113.9351990000,22.2994350000 113.9353910000,22.2992910000 113.9355670000,22.2990910000 113.9355670000,22.2990910000 113.9356710000,22.2988960000 113.9357300000,22.2986880000 113.9357610000,22.2985320000 113.9357880000,22.2982950000 113.9358440000,22.2979960000 113.9360400000,22.2974240000 113.9361990000,22.2969270000 113.9362830000,22.2967440000 113.9370540000,22.2953400000 113.9371990000,22.2951090000 113.9375900000,22.2944560000 113.9379380000,22.2939420000 113.9382870000,22.2934870000 113.9385880000,22.2931240000 113.9388880000,22.2927930000 113.9395100000,22.2921520000 113.9397590000,22.2919250000 113.9401570000,22.2915970000 113.9404820000,22.2913300000 113.9407840000,22.2911200000 113.9410860000,22.2909230000 113.9413870000,22.2907440000 113.9417410000,22.2905350000 113.9420750000,22.2903750000 113.9424260000,22.2902200000 113.9428150000,22.2900690000 113.9431540000,22.2899500000 113.9435630000,22.2898200000 113.9437980000,22.2897610000 113.9440050000,22.2897220000 113.9445240000,22.2896210000 113.9449220000,22.2895610000 113.9455030000,22.2895030000 113.9459200000,22.2894860000 113.9463230000,22.2894810000 113.9468520000,22.2894990000 113.9473740000,22.2895500000 113.9478450000,22.2896190000 113.9482740000,22.2897030000 113.9486710000,22.2898030000 113.9491390000,22.2899470000 113.9495790000,22.2901040000 113.9500170000,22.2902940000 113.9504160000,22.2905100000 113.9508250000,22.2907660000 113.9511440000,22.2909890000 113.9514100000,22.2911870000 113.9517590000,22.2914840000 113.9520180000,22.2917120000 113.9522680000,22.2919420000 113.9527780000,22.2924680000 113.9531720000,22.2928820000 113.9534390000,22.2931600000 113.9537750000,22.2935030000 113.9541670000,22.2938580000 113.9545370000,22.2941730000 113.9548740000,22.2944520000 113.9552060000,22.2947120000 113.9554890000,22.2949220000 113.9557400000,22.2950960000 113.9560230000,22.2952790000 113.9566790000,22.2956560000 113.9572090000,22.2959450000 113.9577490000,22.2961950000 113.9582250000,22.2964030000 113.9587420000,22.2966140000 113.9595180000,22.2968860000 113.9602780000,22.2971090000 113.9608980000,22.2972520000 113.9649850000,22.2981570000 113.9677100000,22.2987600000 113.9680060000,22.2988330000 113.9689400000,22.2990560000 113.9698420000,22.2992600000 113.9704600000,22.2994310000 113.9709990000,22.2995910000 113.9715350000,22.2997640000 113.9722070000,22.3000200000 113.9730740000,22.3003880000 113.9736760000,22.3006700000 113.9751620000,22.3014060000 113.9756620000,22.3016650000 113.9768670000,22.3022560000 113.9777980000,22.3027520000 113.9784390000,22.3031040000 113.9794340000,22.3037060000 113.9816500000,22.3051080000 113.9837140000,22.3064070000 113.9843200000,22.3067900000 113.9850400000,22.3072450000 113.9856060000,22.3075890000 113.9877310000,22.3088640000 113.9925320000,22.3116130000 113.9928940000,22.3118400000 113.9932800000,22.3121080000 113.9936540000,22.3123690000 113.9939850000,22.3126240000 113.9943640000,22.3129400000 113.9947170000,22.3132380000 113.9950160000,22.3135030000 113.9953880000,22.3138680000 113.9956090000,22.3141060000 113.9958140000,22.3143200000 113.9960710000,22.3146170000 113.9963520000,22.3149690000 113.9965180000,22.3151920000 113.9967760000,22.3155490000 113.9969850000,22.3158460000 113.9971800000,22.3161470000 113.9973750000,22.3164580000 113.9976390000,22.3168830000 113.9978800000,22.3172650000 113.9981960000,22.3177340000 113.9984880000,22.3181120000 113.9988430000,22.3185050000 113.9990980000,22.3187760000 113.9994070000,22.3190820000 114.0000590000,22.3196040000 114.0003390000,22.3198090000 114.0005530000,22.3199570000 114.0008490000,22.3201550000 114.0011770000,22.3203390000 114.0014940000,22.3205080000 114.0018710000,22.3206920000 114.0022100000,22.3208580000 114.0029710000,22.3212190000 114.0091410000,22.3239620000 114.0099340000,22.3243030000 114.0104060000,22.3244710000 114.0109360000,22.3246490000 114.0119840000,22.3249220000 114.0124700000,22.3250190000 114.0129110000,22.3250790000 114.0134120000,22.3251210000 114.0140080000,22.3251570000 114.0146170000,22.3251700000 114.0151360000,22.3251530000 114.0157200000,22.3251290000 114.0179230000,22.3249950000 114.0184700000,22.3249970000 114.0189250000,22.3250100000 114.0194170000,22.3250510000 114.0198690000,22.3251110000 114.0202650000,22.3251710000 114.0207940000,22.3252890000 114.0213080000,22.3254290000 114.0218170000,22.3256010000 114.0225660000,22.3258960000 114.0230280000,22.3261070000 114.0235650000,22.3263960000 114.0239050000,22.3266040000 114.0242100000,22.3268090000 114.0243490000,22.3269190000 114.0246080000,22.3271220000 114.0247390000,22.3272290000 114.0253400000,22.3277860000 114.0260460000,22.3284120000 114.0264620000,22.3287970000 114.0297800000,22.3320070000 114.0323360000,22.3344360000 114.0327820000,22.3348390000 114.0333080000,22.3352490000 114.0338240000,22.3356090000 114.0341940000,22.3358400000 114.0344370000,22.3359930000 114.0347430000,22.3361510000 114.0350240000,22.3362900000 114.0355250000,22.3365430000 114.0360790000,22.3367460000 114.0366460000,22.3369090000 114.0370510000,22.3370060000 114.0374980000,22.3370760000 114.0380100000,22.3371620000 114.0384370000,22.3372490000 114.0388250000,22.3373460000 114.0392640000,22.3374860000 114.0397170000,22.3376620000 114.0403300000,22.3379590000 114.0409450000,22.3382610000 114.0430490000,22.3395020000 114.0438450000,22.3398740000 114.0444670000,22.3401500000 114.0450310000,22.3403730000 114.0457530000,22.3405940000 114.0460570000,22.3406770000 114.0466800000,22.3408170000 114.0473730000,22.3409100000 114.0482450000,22.3409950000 114.0487620000,22.3410670000 114.0496140000,22.3411750000 114.0500720000,22.3412490000 114.0504120000,22.3413120000 114.0508330000,22.3414360000 114.0511730000,22.3415610000 114.0514230000,22.3416710000 114.0516610000,22.3417990000 114.0518850000,22.3419290000 114.0520460000,22.3420240000 114.0524520000,22.3422840000 114.0584460000,22.3461890000 114.0587520000,22.3463840000 114.0590690000,22.3465800000 114.0594270000,22.3467830000 114.0597930000,22.3469780000 114.0601590000,22.3471560000 114.0605560000,22.3473310000 114.0609450000,22.3474910000 114.0613390000,22.3476360000 114.0617410000,22.3477700000 114.0621400000,22.3478920000 114.0628380000,22.3480920000 114.0807100000,22.3530780000 114.0815240000,22.3533110000 114.0817130000,22.3533370000 114.0825070000,22.3535570000 114.0828080000,22.3536310000 114.0830850000,22.3536960000 114.0833800000,22.3537460000 114.0836480000,22.3537770000 114.0838530000,22.3537890000 114.0840990000,22.3538070000 114.0843340000,22.3537900000 114.0845590000,22.3537530000 114.0847590000,22.3536900000 114.0850840000,22.3536160000 114.0853340000,22.3534990000 114.0855760000,22.3533940000 114.0857780000,22.3532990000 114.0860090000,22.3531720000 114.0862760000,22.3529890000 114.0864600000,22.3528230000 114.0865510000,22.3527150000 114.0866880000,22.3524630000 114.0867870000,22.3522310000 114.0868490000,22.3520120000 114.0869280000,22.3516520000 114.0870480000,22.3510910000 114.0872340000,22.3503380000 114.0873310000,22.3499450000 114.0874450000,22.3495580000 114.0875270000,22.3492110000 114.0876060000,22.3488610000 114.0876940000,22.3485230000 114.0877910000,22.3482780000 114.0879050000,22.3480430000 114.0880460000,22.3478070000 114.0881770000,22.3476000000 114.0883540000,22.3473750000 114.0884380000,22.3472640000 114.0887110000,22.3469720000 114.0887280000,22.3469380000 114.0889780000,22.3467510000 114.0892720000,22.3465590000 114.0898710000,22.3462360000 114.0904280000,22.3459560000 114.0909630000,22.3456820000 114.0913410000,22.3455040000 114.0917190000,22.3453490000 114.0921550000,22.3452070000 114.0926230000,22.3450940000 114.0931090000,22.3450000000 114.0933720000,22.3449740000 114.0939120000,22.3449600000 114.0941750000,22.3449550000 114.0952440000,22.3449500000 114.0957200000,22.3449460000 114.1004000000,22.3449930000 114.1010700000,22.3450180000 114.1014000000,22.3450400000 114.1017300000,22.3450680000 114.1020600000,22.3451030000 114.1023900000,22.3451480000 114.1030400000,22.3452500000 114.1033000000,22.3453000000 114.1035300000,22.3453500000 114.1037300000,22.3453950000 114.1038810000,22.3454310000 114.1040300000,22.3454700000 114.1042020000,22.3455180000 114.1043800000,22.3455700000 114.1046900000,22.3456680000 114.1049680000,22.3457620000 114.1051600000,22.3458300000 114.1053500000,22.3459000000 114.1056800000,22.3460270000 114.1060000000,22.3461600000 114.1066070000,22.3464420000 114.1092280000,22.3478020000 114.1094000000,22.3478900000 114.1094990000,22.3479370000 114.1095990000,22.3479820000 114.1098100000,22.3480700000 114.1100000000,22.3481490000 114.1103700000,22.3483000000 114.1107080000,22.3484390000 114.1112560000,22.3486440000 114.1114010000,22.3486980000 114.1121180000,22.3489710000 114.1121940000,22.3489990000 114.1150360000,22.3500680000 114.1152660000,22.3501660000 114.1155460000,22.3503070000 114.1158280000,22.3504570000 114.1160890000,22.3506120000 114.1163380000,22.3507780000 114.1166890000,22.3510310000 114.1170420000,22.3512980000 114.1174180000,22.3515670000 114.1177500000,22.3517760000 114.1179500000,22.3518880000 114.1181630000,22.3519900000 114.1185390000,22.3521520000 114.1187440000,22.3522270000 114.1189890000,22.3523010000 114.1192310000,22.3523660000 114.1195060000,22.3524250000 114.1197310000,22.3524620000 114.1199660000,22.3524930000 114.1204150000,22.3525210000 114.1208080000,22.3525130000 114.1212930000,22.3524700000 114.1214870000,22.3524420000 114.1216850000,22.3524020000 114.1220080000,22.3523000000 114.1223600000,22.3521610000 114.1225800000,22.3520590000 114.1227700000,22.3519640000 114.1230910000,22.3517690000 114.1234160000,22.3514980000 114.1237280000,22.3512190000 114.1239480000,22.3509410000 114.1241480000,22.3506360000 114.1243000000,22.3503120000 114.1244440000,22.3499020000 114.1244990000,22.3496360000 114.1245460000,22.3490950000 114.1245370000,22.3484120000 114.1245330000,22.3480180000 114.1245490000,22.3476170000 114.1246110000,22.3472070000 114.1247310000,22.3467150000 114.1248690000,22.3463550000 114.1250230000,22.3459890000 114.1252280000,22.3456200000 114.1254330000,22.3453410000 114.1256160000,22.3450810000 114.1258580000,22.3448130000 114.1260660000,22.3446100000 114.1265330000,22.3442760000 114.1269240000,22.3440300000 114.1272820000,22.3438400000 114.1276470000,22.3436840000 114.1281270000,22.3434690000 114.1283770000,22.3433460000 114.1286560000,22.3432050000 114.1289710000,22.3430190000 114.1291870000,22.3428750000 114.1294020000,22.3427320000 114.1295670000,22.3426040000 114.1297310000,22.3424680000 114.1298900000,22.3423150000 114.1301370000,22.3420730000 114.1303630000,22.3417950000 114.1306770000,22.3413100000 114.1308700000,22.3409770000 114.1310190000,22.3406270000 114.1311910000,22.3402610000 114.1313730000,22.3398820000 114.1316030000,22.3395690000 114.1317430000,22.3393020000 114.1319650000,22.3389160000 114.1321860000,22.3385200000 114.1323490000,22.3381980000 114.1325610000,22.3378840000 114.1326820000,22.3377160000 114.1328200000,22.3375310000 114.1329340000,22.3373860000 114.1330520000,22.3372410000 114.1331650000,22.3371070000 114.1332900000,22.3369690000 114.1334200000,22.3368390000 114.1335610000,22.3367200000 114.1337120000,22.3366090000 114.1338480000,22.3365500000 114.1340050000,22.3365000000 114.1341740000,22.3364620000 114.1344000000,22.3364560000 114.1345610000,22.3364620000 114.1347270000,22.3364910000 114.1349060000,22.3365550000 114.1350520000,22.3366250000 114.1351610000,22.3366910000 114.1352480000,22.3367540000 114.1354760000,22.3369650000 114.1355560000,22.3370680000 114.1356470000,22.3372250000 114.1357230000,22.3373780000 114.1357810000,22.3375990000 114.1358180000,22.3378430000 114.1358070000,22.3382780000 114.1358140000,22.3386480000 114.1358400000,22.3389990000 114.1359170000,22.3392970000 114.1359950000,22.3396130000 114.1362150000,22.3404640000 114.1362940000,22.3406170000 114.1363760000,22.3407570000 114.1364990000,22.3409230000 114.1366610000,22.3410740000 114.1368110000,22.3411900000 114.1369940000,22.3412930000 114.1371900000,22.3413630000 114.1374620000,22.3414190000 114.1376640000,22.3414410000 114.1378490000,22.3414330000 114.1380060000,22.3414150000 114.1381830000,22.3413640000 114.1383630000,22.3412890000 114.1388120000,22.3411060000 114.1391810000,22.3408970000 114.1399880000,22.3403290000 114.1404400000,22.3400810000 114.1406460000,22.3400140000 114.1408740000,22.3399450000 114.1411450000,22.3399420000 114.1413540000,22.3399530000 114.1415920000,22.3400400000 114.1416690000,22.3400870000 114.1419010000,22.3402690000 114.1424680000,22.3407800000 114.1427240000,22.3409890000 114.1428620000,22.3410740000 114.1429790000,22.3411210000 114.1430690000,22.3411540000 114.1431830000,22.3411830000 114.1432930000,22.3412000000 114.1433840000,22.3412070000 114.1435080000,22.3412080000 114.1436040000,22.3412070000 114.1437140000,22.3411960000 114.1438040000,22.3411670000 114.1440800000,22.3410180000 114.1441700000,22.3409530000 114.1443000000,22.3408260000 114.1445620000,22.3404730000 114.1446690000,22.3403370000 114.1447360000,22.3402750000 114.1448380000,22.3401920000 114.1449640000,22.3401250000 114.1451290000,22.3400430000 114.1453170000,22.3400070000 114.1455790000,22.3399850000 114.1459450000,22.3399910000 114.1463270000,22.3400010000 114.1466450000,22.3400310000 114.1468840000,22.3400680000 114.1471390000,22.3401190000 114.1487060000,22.3405890000 114.1492740000,22.3407430000 114.1495080000,22.3408140000 114.1497260000,22.3408970000 114.1499710000,22.3409990000 114.1508180000,22.3413740000 114.1511960000,22.3415390000 114.1518730000,22.3417970000 114.1525490000,22.3420820000 114.1541150000,22.3427540000 114.1543950000,22.3428430000 114.1545670000,22.3428850000 114.1547130000,22.3429090000 114.1549220000,22.3429240000 114.1550660000,22.3429210000 114.1556260000,22.3428670000 114.1558500000,22.3428530000 114.1561130000,22.3428480000 114.1563590000,22.3428530000 114.1565660000,22.3428640000 114.1567280000,22.3428790000 114.1572840000,22.3429300000 114.1574470000,22.3429440000 114.1577650000,22.3429550000 114.1580790000,22.3429460000 114.1583150000,22.3429170000 114.1585570000,22.3428850000 114.1587690000,22.3428390000 114.1589890000,22.3427510000 114.1591710000,22.3426510000 114.1593500000,22.3425280000 114.1595230000,22.3423810000 114.1596600000,22.3422470000 114.1600020000,22.3418720000 114.1601140000,22.3417510000 114.1602440000,22.3416500000 114.1604010000,22.3415500000 114.1605630000,22.3414580000 114.1607840000,22.3413600000 114.1610040000,22.3412730000 114.1612190000,22.3412160000 114.1614630000,22.3411820000 114.1617170000,22.3411700000 114.1619800000,22.3411870000 114.1622220000,22.3412230000 114.1624510000,22.3412880000 114.1626770000,22.3413690000 114.1630340000,22.3415330000 114.1633980000,22.3416990000 114.1636130000,22.3417920000 114.1638110000,22.3418610000 114.1639940000,22.3419180000 114.1641760000,22.3419600000 114.1643620000,22.3419930000 114.1645670000,22.3420130000 114.1652690000,22.3420550000 114.1657260000,22.3420680000 114.1659870000,22.3420560000 114.1661760000,22.3420320000 114.1663590000,22.3419980000 114.1664830000,22.3419640000 114.1666240000,22.3419110000 114.1668090000,22.3418300000 114.1670540000,22.3417130000 114.1672620000,22.3416100000 114.1677620000,22.3413500000 114.1678860000,22.3412990000 114.1680630000,22.3412360000 114.1682040000,22.3412070000 114.1683200000,22.3411960000 114.1684150000,22.3411970000 114.1685310000,22.3412110000 114.1686940000,22.3412510000 114.1688600000,22.3413160000 114.1690070000,22.3413980000 114.1691580000,22.3414950000 114.1693140000,22.3416270000 114.1703680000,22.3426990000 114.1707810000,22.3430890000 114.1709550000,22.3432250000 114.1711220000,22.3433320000 114.1712720000,22.3433900000 114.1714350000,22.3434350000 114.1715730000,22.3434540000 114.1716880000,22.3434620000 114.1717860000,22.3434610000 114.1719340000,22.3434470000 114.1720840000,22.3434130000 114.1722060000,22.3433610000 114.1723150000,22.3433130000 114.1724150000,22.3432550000 114.1730510000,22.3428430000 114.1731770000,22.3427730000 114.1732980000,22.3427270000 114.1734420000,22.3426910000 114.1736090000,22.3426710000 114.1737600000,22.3426710000 114.1739410000,22.3426990000 114.1740970000,22.3427570000 114.1742630000,22.3428280000 114.1744130000,22.3429470000 114.1745310000,22.3430660000 114.1746600000,22.3432650000 114.1750140000,22.3438700000 114.1751110000,22.3440190000 114.1752390000,22.3441580000 114.1753680000,22.3442670000 114.1755500000,22.3443760000 114.1757970000,22.3444750000 114.1768200000,22.3447950000 114.1769530000,22.3448320000 114.1771320000,22.3448710000 114.1772760000,22.3448890000 114.1774380000,22.3448930000 114.1776070000,22.3448820000 114.1777460000,22.3448560000 114.1779150000,22.3448050000 114.1788360000,22.3444410000 114.1790330000,22.3443750000 114.1792240000,22.3443110000 114.1794940000,22.3442450000 114.1797780000,22.3442070000 114.1800880000,22.3441810000 114.1806240000,22.3441690000 114.1807950000,22.3441710000 114.1819600000,22.3442420000 114.1821420000,22.3442500000 114.1822800000,22.3442460000 114.1823870000,22.3442340000 114.1825060000,22.3442080000 114.1826210000,22.3441710000 114.1827300000,22.3441250000 114.1828560000,22.3440650000 114.1830220000,22.3439750000 114.1836130000,22.3435700000 114.1838680000,22.3434000000 114.1841430000,22.3432740000 114.1846130000,22.3430880000 114.1850800000,22.3428960000 114.1852960000,22.3428080000 114.1855600000,22.3427320000 114.1857930000,22.3426750000 114.1860610000,22.3426220000 114.1863390000,22.3425850000 114.1864860000,22.3425670000 114.1869390000,22.3425470000 114.1875150000,22.3425370000 114.1885190000,22.3425370000 114.1887960000,22.3425240000 114.1891320000,22.3424810000 114.1894990000,22.3423920000 114.1899660000,22.3421980000 114.1903150000,22.3420380000 114.1906920000,22.3418650000 114.1909750000,22.3417600000 114.1912260000,22.3417090000 114.1914940000,22.3416970000 114.1926250000,22.3417090000 114.1956600000,22.3417580000 114.1958090000,22.3417600000 114.1963520000,22.3417620000 114.1971850000,22.3417830000 114.1976130000,22.3417830000 114.1977440000,22.3417730000 114.1979580000,22.3417480000 114.1982100000,22.3416990000 114.1985330000,22.3416090000 114.1988230000,22.3414960000 114.1992450000,22.3412810000 114.1999010000,22.3410540000 114.2003290000,22.3408770000 114.2006510000,22.3407410000 114.2006960000,22.3407230000 114.2009540000,22.3406200000 114.2012380000,22.3404880000 114.2021360000,22.3398970000 114.2028260000,22.3395160000 114.2029660000,22.3394000000 114.2035020000,22.3389530000 114.2039810000,22.3385010000 114.2049800000,22.3379780000 114.2062600000,22.3372110000 114.2066750000,22.3369490000 114.2069740000,22.3367550000 114.2071370000,22.3366460000 114.2072450000,22.3365730000 114.2073260000,22.3364900000 114.2073830000,22.3364180000 114.2074380000,22.3363360000 114.2075020000,22.3362170000 114.2076490000,22.3359230000 114.2077040000,22.3358010000 114.2077900000,22.3356060000 114.2078180000,22.3355480000 114.2079780000,22.3352200000 114.2081740000,22.3347810000 114.2082070000,22.3347140000 114.2082470000,22.3346510000 114.2082660000,22.3346300000 114.2082820000,22.3346100000 114.2083250000,22.3345640000 114.2083730000,22.3345240000 114.2085880000,22.3343370000 114.2087820000,22.3342060000 114.2088890000,22.3341860000 114.2090470000,22.3341770000 114.2091850000,22.3341950000 114.2097100000,22.3343080000 114.2100200000,22.3343750000 114.2103280000,22.3344290000 114.2105890000,22.3344770000 114.2106820000,22.3344920000 114.2107950000,22.3345010000 114.2108930000,22.3345010000 114.2109970000,22.3344950000 114.2111800000,22.3344770000 114.2112270000,22.3344670000 114.2113680000,22.3344280000 114.2115080000,22.3343830000 114.2116950000,22.3342990000 114.2118800000,22.3342110000 114.2119940000,22.3341360000 114.2120590000,22.3340880000 114.2122120000,22.3339300000 114.2124120000,22.3336750000 114.2125230000,22.3335320000 114.2129630000,22.3329650000 114.2130680000,22.3328510000 114.2131870000,22.3327420000 114.2133110000,22.3326480000 114.2134220000,22.3325730000 114.2135330000,22.3325040000 114.2136590000,22.3324520000 114.2139280000,22.3323870000 114.2142170000,22.3323670000 114.2143550000,22.3323650000 114.2143700000,22.3323650000 114.2144640000,22.3323660000 114.2147240000,22.3323950000 114.2151660000,22.3324730000 114.2152890000,22.3324980000 114.2154820000,22.3325380000 114.2155590000,22.3325540000 114.2156310000,22.3325690000 114.2167370000,22.3327960000 114.2181240000,22.3330660000 114.2189210000,22.3332130000 114.2191710000,22.3332340000 114.2195260000,22.3332410000 114.2200800000,22.3332060000 114.2208490000,22.3331670000 114.2212450000,22.3331360000 114.2218240000,22.3330910000 114.2221700000,22.3330020000 114.2225170000,22.3328750000 114.2229490000,22.3326910000 114.2234430000,22.3324800000 114.2236620000,22.3323730000 114.2238080000,22.3322960000 114.2239620000,22.3321890000 114.2240980000,22.3320320000 114.2242050000,22.3319050000 114.2243370000,22.3317310000 114.2244420000,22.3315550000 114.2244620000,22.3314240000 114.2244830000,22.3312490000 114.2244250000,22.3310040000 114.2243610000,22.3308330000 114.2242150000,22.3306190000 114.2240790000,22.3304860000 114.2239260000,22.3303450000 114.2237780000,22.3302270000 114.2235450000,22.3300880000 114.2233260000,22.3299930000 114.2231490000,22.3299420000 114.2229940000,22.3299340000 114.2227920000,22.3299390000 114.2226140000,22.3299870000 114.2224650000,22.3300330000 114.2223740000,22.3300820000 114.2222440000,22.3301630000 114.2218420000,22.3304850000 114.2217680000,22.3305540000 114.2217370000,22.3305840000 114.2216640000,22.3306530000 114.2215590000,22.3307500000 114.2212120000,22.3310880000 114.2210820000,22.3312400000 114.2209600000,22.3313960000 114.2208620000,22.3315710000 114.2208140000,22.3317070000 114.2207960000,22.3318200000 114.2207880000,22.3319760000 114.2207920000,22.3321070000 114.2208370000,22.3323030000 114.2209360000,22.3325160000 114.2210080000,22.3326200000 114.2210910000,22.3327250000 114.2215030000,22.3332240000 114.2217030000,22.3334480000 114.2218890000,22.3336270000 114.2221500000,22.3337860000 114.2224170000,22.3338850000 114.2225060000,22.3339140000 114.2225950000,22.3339380000 114.2230070000,22.3340480000 114.2232650000,22.3340850000 114.2235720000,22.3341120000 114.2237320000,22.3341200000 114.2239230000,22.3341080000 114.2244280000,22.3340450000 114.2248760000,22.3339830000 114.2251990000,22.3339530000 114.2255180000,22.3339600000 114.2258310000,22.3339950000 114.2261870000,22.3340720000 114.2269760000,22.3342990000 114.2270220000,22.3343130000 114.2271940000,22.3343620000 114.2275800000,22.3343990000 114.2277470000,22.3343940000 114.2279800000,22.3343310000 114.2281680000,22.3343170000 114.2282410000,22.3343160000 114.2283690000,22.3343150000 114.2284500000,22.3343150000 114.2284530000,22.3342300000 114.2284540000,22.3341210000 114.2284540000,22.3340140000 114.2284540000,22.3338440000 114.2284800000,22.3332480000 114.2284870000,22.3331530000 114.2284950000,22.3330350000 114.2285000000,22.3329620000 114.2285120000,22.3328830000 114.2285340000,22.3328050000 114.2286050000,22.3326160000 114.2286340000,22.3325500000 114.2287830000,22.3322450000 114.2288220000,22.3320840000 114.2288330000,22.3319350000 114.2288130000,22.3317430000 114.2287430000,22.3315340000 114.2286340000,22.3313310000 114.2284860000,22.3310780000 114.2283550000,22.3307960000 114.2283140000,22.3305680000 114.2283290000,22.3303180000 114.2283820000,22.3301090000 114.2285020000,22.3298750000 114.2286400000,22.3296970000 114.2288500000,22.3295340000 114.2291520000,22.3293420000 114.2294380000,22.3291070000 114.2296130000,22.3289310000 114.2297780000,22.3287650000 114.2300110000,22.3284680000 114.2302550000,22.3280910000 114.2303090000,22.3280050000 114.2303590000,22.3279260000 114.2304250000,22.3278300000 114.2304630000,22.3278230000 114.2304980000,22.3278070000 114.2305270000,22.3277850000 114.2305500000,22.3277560000 114.2305640000,22.3277230000 114.2305690000,22.3276880000 114.2305650000,22.3276530000 114.2305520000,22.3276190000 114.2305300000,22.3275900000 114.2305510000,22.3274830000 114.2305700000,22.3273780000 114.2306150000,22.3272230000 114.2306690000,22.3270190000 114.2306950000,22.3268400000 114.2307050000,22.3266980000 114.2307090000,22.3265730000 114.2307110000,22.3264690000 114.2307120000,22.3264240000 114.2307160000,22.3262030000 114.2307030000,22.3260240000 114.2306750000,22.3256290000 114.2306570000,22.3253680000 114.2306590000,22.3251120000 114.2306620000,22.3250820000 114.2306830000,22.3248940000 114.2307360000,22.3246690000 114.2308260000,22.3244540000 114.2309150000,22.3242820000 114.2312980000,22.3237240000 114.2315400000,22.3234090000 114.2317630000,22.3231230000 114.2326300000,22.3220670000 114.2329910000,22.3216280000 114.2333520000,22.3211700000 114.2333720000,22.3211450000 114.2334800000,22.3210080000 114.2335310000,22.3210400000 114.2335750000,22.3210670000 114.2336030000,22.3210850000 114.2336230000,22.3210980000 114.2337450000,22.3211370000 114.2338800000,22.3211410000 114.2344030000,22.3210890000 114.2345480000,22.3210740000 114.2347290000,22.3210380000 114.2349450000,22.3209790000 114.2350340000,22.3209310000 114.2351680000,22.3208540000 114.2353600000,22.3206810000 114.2356290000,22.3204210000 114.2357240000,22.3203280000 114.2358490000,22.3202070000 114.2359310000,22.3201280000 114.2359350000,22.3201240000 114.2361670000,22.3199010000 114.2364800000,22.3195730000 114.2365380000,22.3195410000 114.2365780000,22.3195190000 114.2366480000,22.3194840000 114.2367360000,22.3194490000 114.2367610000,22.3194520000 114.2367880000,22.3194490000 114.2368280000,22.3194370000 114.2368640000,22.3194150000 114.2368910000,22.3193850000 114.2369080000,22.3193500000 114.2369140000,22.3193170000 114.2369120000,22.3192850000 114.2369430000,22.3192190000 114.2369750000,22.3191690000 114.2370420000,22.3190850000 114.2371680000,22.3189490000 114.2372640000,22.3188400000 114.2373730000,22.3187540000 114.2375060000,22.3186910000 114.2376440000,22.3186550000 114.2377730000,22.3186330000 114.2380100000,22.3186530000 114.2381830000,22.3186920000 114.2383540000,22.3188130000 114.2385030000,22.3189710000 114.2386270000,22.3191410000 114.2387890000,22.3192230000 114.2389370000,22.3192210000 114.2390530000,22.3191700000 114.2391540000,22.3191000000 114.2392430000,22.3189680000 114.2392610000,22.3189170000 114.2393240000,22.3187390000 114.2393870000,22.3187600000 114.2395470000,22.3188120000 114.2399930000,22.3189300000 114.2401800000,22.3189990000 114.2404810000,22.3190450000 114.2407430000,22.3191160000 114.2409890000,22.3192450000 114.2411950000,22.3194100000 114.2413770000,22.3196360000 114.2416680000,22.3200330000 114.2417030000,22.3200760000 114.2421370000,22.3206080000 114.2423020000,22.3207700000 114.2424370000,22.3208780000 114.2425900000,22.3209310000 114.2427450000,22.3209790000 114.2429040000,22.3210200000 114.2430740000,22.3210500000 114.2432040000,22.3210560000 114.2433520000,22.3210530000 114.2434890000,22.3210290000 114.2436190000,22.3209790000 114.2437430000,22.3209270000 114.2438510000,22.3208690000 114.2439890000,22.3207670000 114.2441370000,22.3206650000 114.2444530000,22.3204440000 114.2450080000,22.3200210000 114.2450920000,22.3199590000 114.2451860000,22.3198830000 114.2452300000,22.3198480000 114.2452720000,22.3198130000 114.2453790000,22.3197270000 114.2455380000,22.3195870000 114.2455950000,22.3195180000 114.2457690000,22.3192960000 114.2458410000,22.3191920000 114.2459590000,22.3190420000 114.2460560000,22.3189420000 114.2461780000,22.3188600000 114.2464010000,22.3187920000 114.2466090000,22.3187800000 114.2468300000,22.3188140000 114.2475730000,22.3190190000 114.2477150000,22.3190510000 114.2478690000,22.3190640000 114.2480210000,22.3190600000 114.2481710000,22.3190410000 114.2483660000,22.3190030000 114.2487200000,22.3189300000 114.2489590000,22.3188660000 114.2491210000,22.3188170000 114.2492350000,22.3187770000 114.2493760000,22.3187140000 114.2495100000,22.3186250000 114.2496580000,22.3185150000 114.2497820000,22.3183730000 114.2498620000,22.3182490000 114.2502040000,22.3177640000 114.2503290000,22.3175930000 114.2504800000,22.3174200000 114.2507060000,22.3172670000 114.2509430000,22.3171860000 114.2511870000,22.3171620000 114.2514440000,22.3171960000 114.2516600000,22.3172620000 114.2519640000,22.3173750000 114.2521430000,22.3174450000 114.2523280000,22.3174950000 114.2525440000,22.3175230000 114.2527910000,22.3175310000 114.2532980000,22.3175590000 114.2534620000,22.3175760000 114.2536450000,22.3176170000 114.2537680000,22.3176570000 114.2538830000,22.3177140000 114.2541040000,22.3178830000 114.2542090000,22.3179920000 114.2542980000,22.3181590000 114.2543720000,22.3183470000 114.2543930000,22.3184840000 114.2543940000,22.3186720000 114.2543800000,22.3188100000 114.2543570000,22.3190380000 114.2543390000,22.3192280000 114.2543270000,22.3193540000 114.2542600000,22.3196610000 114.2541970000,22.3198450000 114.2540940000,22.3200260000 114.2539700000,22.3202190000 114.2537870000,22.3203570000 114.2535890000,22.3204380000 114.2533400000,22.3204830000 114.2530760000,22.3204690000 114.2528210000,22.3203920000 114.2526840000,22.3203100000 114.2525480000,22.3202050000 114.2524080000,22.3200380000 114.2521310000,22.3197330000 114.2520190000,22.3196290000 114.2519510000,22.3195660000 114.2517050000,22.3194800000 114.2514670000,22.3194650000 114.2512620000,22.3194880000 114.2510380000,22.3195880000 114.2508680000,22.3197370000 114.2507680000,22.3199150000 114.2507050000,22.3200500000 114.2506560000,22.3201890000 114.2505690000,22.3204640000 114.2503700000,22.3210520000 114.2502400000,22.3213690000 114.2501380000,22.3215600000 114.2500570000,22.3217290000 114.2500170000,22.3218560000 114.2499870000,22.3219840000 114.2499870000,22.3219840000 114.2499870000,22.3221100000 114.2499980000,22.3222340000 114.2500070000,22.3222870000 114.2500130000,22.3223240000 114.2500400000,22.3223990000 114.2501150000,22.3225150000 114.2501960000,22.3226390000 114.2503660000,22.3228930000 114.2504670000,22.3230960000 114.2505110000,22.3233290000 114.2504830000,22.3235460000 114.2503920000,22.3237760000 114.2502790000,22.3239250000 114.2500830000,22.3241060000 114.2498710000,22.3243100000 114.2497440000,22.3244990000 114.2496820000,22.3246510000 114.2496590000,22.3247580000 114.2496460000,22.3249040000 114.2496630000,22.3250410000 114.2496950000,22.3251800000 114.2497690000,22.3253480000 114.2498500000,22.3254720000 114.2499600000,22.3256360000 114.2500610000,22.3257350000 114.2501590000,22.3258140000 114.2502770000,22.3258870000 114.2504340000,22.3259640000 114.2506060000,22.3260150000 114.2507050000,22.3260500000 114.2508550000,22.3261320000 114.2510410000,22.3261840000 114.2511810000,22.3262230000 114.2512620000,22.3262440000 114.2515340000,22.3263200000 114.2517800000,22.3263880000 114.2520340000,22.3264530000 114.2534100000,22.3268200000 114.2543080000,22.3270380000 114.2546940000,22.3271170000 114.2549840000,22.3271620000 114.2555200000,22.3271960000 114.2559360000,22.3271900000 114.2563150000,22.3271430000 114.2566450000,22.3270770000 114.2569420000,22.3270000000 114.2572340000,22.3268830000 114.2574280000,22.3268030000 114.2577480000,22.3266230000 114.2580150000,22.3264480000 114.2584290000,22.3261130000 114.2586360000,22.3258680000 114.2586830000,22.3258130000 114.2587390000,22.3257180000 114.2587530000,22.3256960000 114.2588240000,22.3255770000 114.2600950000,22.3236680000 114.2602330000,22.3234640000 114.2603650000,22.3232840000 114.2605550000,22.3230510000 114.2606240000,22.3229650000 114.2605180000,22.3228920000 114.2599350000,22.3225000000 114.2599300000,22.3224970000 114.2597910000,22.3224270000 114.2597860000,22.3224030000 114.2597750000,22.3223800000 114.2597560000,22.3223570000 114.2597300000,22.3223390000 114.2596990000,22.3223290000 114.2596670000,22.3223260000 114.2596380000,22.3223310000 114.2596120000,22.3223430000 114.2595900000,22.3223600000 114.2595740000,22.3223800000 114.2595630000,22.3224030000 114.2595580000,22.3224280000 114.2595600000,22.3224530000 114.2595680000,22.3224770000 114.2594590000,22.3226070000 114.2593560000,22.3227290000 114.2592410000,22.3228690000 114.2591100000,22.3230240000 114.2589620000,22.3230070000 114.2587510000,22.3228410000 114.2586350000,22.3228130000 114.2582790000,22.3232740000 114.2582300000,22.3233380000</coordinates>
                </LineString>
                <ExtendedData>
                    <Data name="duration">
                        <value>02:45:06</value>
                    </Data>
                    <Data name="length">
                        <value>98192.75950429165</value>
                    </Data>
                </ExtendedData>
            </Placemark>
        </Document>
    </Document>
</kml>