<?xml version="1.0" encoding="UTF-8"?>
<kml xmlns="http://www.opengis.net/kml/2.2" xmlns:gx="http://www.google.com/kml/ext/2.2">
    <Document>
        <name>Route</name>
        <Folder>
            <name>Route Request</name>
            <Placemark>
                <address>Ching Chiu House, Ching Shing Road, Pak Fuk, Shek Wu Hui, Fu Hei Garden, North District, Hong Kong, DD91 4018, PRC</address>
                <Point>
                    <coordinates>114.1246447684,22.4928547695</coordinates>
                </Point>
                <ExtendedData>
                    <Data name="postcode">
                        <value>DD91 4018</value>
                    </Data>
                    <Data name="county">
                        <value>North District</value>
                    </Data>
                    <Data name="neighbourhood">
                        <value>Pak Fuk</value>
                    </Data>
                    <Data name="hamlet">
                        <value>Fu Hei Garden</value>
                    </Data>
                    <Data name="building">
                        <value>Ching Chiu House</value>
                    </Data>
                    <Data name="country">
                        <value>PRC</value>
                    </Data>
                    <Data name="suburb">
                        <value>Shek Wu Hui</value>
                    </Data>
                    <Data name="country_code">
                        <value>cn</value>
                    </Data>
                    <Data name="road">
                        <value>Ching Shing Road</value>
                    </Data>
                </ExtendedData>
            </Placemark>
            <Placemark>
                <address>Choi Po Court Car Park, Po Shek Wu Road, Pak Fuk, Shek Wu Hui, Ng Uk Tsuen, North District, Hong Kong, DD91 4003, PRC</address>
                <Point>
                    <coordinates>114.1237438126,22.5015851121</coordinates>
                </Point>
                <ExtendedData>
                    <Data name="postcode">
                        <value>DD91 4003</value>
                    </Data>
                    <Data name="county">
                        <value>North District</value>
                    </Data>
                    <Data name="neighbourhood">
                        <value>Pak Fuk</value>
                    </Data>
                    <Data name="hamlet">
                        <value>Ng Uk Tsuen</value>
                    </Data>
                    <Data name="country">
                        <value>PRC</value>
                    </Data>
                    <Data name="suburb">
                        <value>Shek Wu Hui</value>
                    </Data>
                    <Data name="parking">
                        <value>Choi Po Court Car Park</value>
                    </Data>
                    <Data name="country_code">
                        <value>cn</value>
                    </Data>
                    <Data name="road">
                        <value>Po Shek Wu Road</value>
                    </Data>
                </ExtendedData>
            </Placemark>
            <Placemark>
                <address>Airport Road, Sha Lo Wan, Tung Chung, Islands District, Hong Kong, 000000, PRC</address>
                <Point>
                    <coordinates>113.9347087427,22.3000209063</coordinates>
                </Point>
                <ExtendedData>
                    <Data name="postcode">
                        <value>000000</value>
                    </Data>
                    <Data name="town">
                        <value>Tung Chung</value>
                    </Data>
                    <Data name="county">
                        <value>Islands District</value>
                    </Data>
                    <Data name="country">
                        <value>PRC</value>
                    </Data>
                    <Data name="suburb">
                        <value>Sha Lo Wan</value>
                    </Data>
                    <Data name="country_code">
                        <value>cn</value>
                    </Data>
                    <Data name="road">
                        <value>Airport Road</value>
                    </Data>
                </ExtendedData>
            </Placemark>
            <Placemark>
                <address>Hong Kong International Airport Car Park 4, Cheong Tat Road, Sha Lo Wan, Tung Chung, Islands District, Hong Kong, PRC</address>
                <Point>
                    <coordinates>113.9352601625,22.3183624667</coordinates>
                </Point>
                <ExtendedData>
                    <Data name="town">
                        <value>Tung Chung</value>
                    </Data>
                    <Data name="county">
                        <value>Islands District</value>
                    </Data>
                    <Data name="country">
                        <value>PRC</value>
                    </Data>
                    <Data name="suburb">
                        <value>Sha Lo Wan</value>
                    </Data>
                    <Data name="parking">
                        <value>Hong Kong International Airport Car Park 4</value>
                    </Data>
                    <Data name="country_code">
                        <value>cn</value>
                    </Data>
                    <Data name="road">
                        <value>Cheong Tat Road</value>
                    </Data>
                </ExtendedData>
            </Placemark>
            <Placemark>
                <address>AsiaWorld-Expo, Cheong Wing Road, Sha Lo Wan, Tin Sam, Islands District, Hong Kong, 000000, PRC</address>
                <Point>
                    <coordinates>113.9406684664,22.3209751378</coordinates>
                </Point>
                <ExtendedData>
                    <Data name="postcode">
                        <value>000000</value>
                    </Data>
                    <Data name="county">
                        <value>Islands District</value>
                    </Data>
                    <Data name="hamlet">
                        <value>Tin Sam</value>
                    </Data>
                    <Data name="building">
                        <value>AsiaWorld-Expo</value>
                    </Data>
                    <Data name="country">
                        <value>PRC</value>
                    </Data>
                    <Data name="suburb">
                        <value>Sha Lo Wan</value>
                    </Data>
                    <Data name="country_code">
                        <value>cn</value>
                    </Data>
                    <Data name="road">
                        <value>Cheong Wing Road</value>
                    </Data>
                </ExtendedData>
            </Placemark>
            <Placemark>
                <address>Terminal 2, Sky Plaza Drive, Sha Lo Wan, Tung Chung, Islands District, Hong Kong, 000000, PRC</address>
                <Point>
                    <coordinates>113.9376211282,22.3157683735</coordinates>
                </Point>
                <ExtendedData>
                    <Data name="postcode">
                        <value>000000</value>
                    </Data>
                    <Data name="address29">
                        <value>Terminal 2</value>
                    </Data>
                    <Data name="town">
                        <value>Tung Chung</value>
                    </Data>
                    <Data name="county">
                        <value>Islands District</value>
                    </Data>
                    <Data name="country">
                        <value>PRC</value>
                    </Data>
                    <Data name="suburb">
                        <value>Sha Lo Wan</value>
                    </Data>
                    <Data name="country_code">
                        <value>cn</value>
                    </Data>
                    <Data name="road">
                        <value>Sky Plaza Drive</value>
                    </Data>
                </ExtendedData>
            </Placemark>
            <Placemark>
                <address>East Coast Road, Sha Lo Wan, Tung Chung, Islands District, Hong Kong, 000000, PRC</address>
                <Point>
                    <coordinates>113.9356832006,22.2991602978</coordinates>
                </Point>
                <ExtendedData>
                    <Data name="postcode">
                        <value>000000</value>
                    </Data>
                    <Data name="town">
                        <value>Tung Chung</value>
                    </Data>
                    <Data name="county">
                        <value>Islands District</value>
                    </Data>
                    <Data name="country">
                        <value>PRC</value>
                    </Data>
                    <Data name="suburb">
                        <value>Sha Lo Wan</value>
                    </Data>
                    <Data name="country_code">
                        <value>cn</value>
                    </Data>
                    <Data name="road">
                        <value>East Coast Road</value>
                    </Data>
                </ExtendedData>
            </Placemark>
            <Placemark>
                <address>Pak Wo Road, Pak Fuk, Shek Wu Hui, Ng Uk Tsuen, North District, Hong Kong, DD91 4018, PRC</address>
                <Point>
                    <coordinates>114.1272203438,22.4976116589</coordinates>
                </Point>
                <ExtendedData>
                    <Data name="postcode">
                        <value>DD91 4018</value>
                    </Data>
                    <Data name="county">
                        <value>North District</value>
                    </Data>
                    <Data name="neighbourhood">
                        <value>Pak Fuk</value>
                    </Data>
                    <Data name="hamlet">
                        <value>Ng Uk Tsuen</value>
                    </Data>
                    <Data name="country">
                        <value>PRC</value>
                    </Data>
                    <Data name="suburb">
                        <value>Shek Wu Hui</value>
                    </Data>
                    <Data name="country_code">
                        <value>cn</value>
                    </Data>
                    <Data name="road">
                        <value>Pak Wo Road</value>
                    </Data>
                </ExtendedData>
            </Placemark>
            <Placemark>
                <address>Ching Chiu House, Ching Shing Road, Pak Fuk, Shek Wu Hui, Fu Hei Garden, North District, Hong Kong, DD91 4018, PRC</address>
                <Point>
                    <coordinates>114.1246447684,22.4928547695</coordinates>
                </Point>
                <ExtendedData>
                    <Data name="postcode">
                        <value>DD91 4018</value>
                    </Data>
                    <Data name="county">
                        <value>North District</value>
                    </Data>
                    <Data name="neighbourhood">
                        <value>Pak Fuk</value>
                    </Data>
                    <Data name="hamlet">
                        <value>Fu Hei Garden</value>
                    </Data>
                    <Data name="building">
                        <value>Ching Chiu House</value>
                    </Data>
                    <Data name="country">
                        <value>PRC</value>
                    </Data>
                    <Data name="suburb">
                        <value>Shek Wu Hui</value>
                    </Data>
                    <Data name="country_code">
                        <value>cn</value>
                    </Data>
                    <Data name="road">
                        <value>Ching Shing Road</value>
                    </Data>
                </ExtendedData>
            </Placemark>
        </Folder>
        <Document>
            <name>97.2 km; 01:41 h (OSRM)</name>
            <Placemark>
                <name>Route</name>
                <LineString>
                    <coordinates>114.1246580000,22.4928760000 114.1246460000,22.4928820000 114.1246200000,22.4929200000 114.1246010000,22.4930130000 114.1246010000,22.4930930000 114.1246080000,22.4934070000 114.1246080000,22.4939040000 114.1246080000,22.4941670000 114.1246100000,22.4943620000 114.1246290000,22.4944450000 114.1246560000,22.4944830000 114.1246990000,22.4945430000 114.1245420000,22.4946520000 114.1244490000,22.4947590000 114.1243790000,22.4948680000 114.1243280000,22.4949680000 114.1242480000,22.4952100000 114.1242000000,22.4953970000 114.1243650000,22.4954390000 114.1244110000,22.4954510000 114.1245470000,22.4954950000 114.1246420000,22.4955320000 114.1247950000,22.4956240000 114.1250070000,22.4957770000 114.1251220000,22.4958720000 114.1252480000,22.4959780000 114.1255000000,22.4961880000 114.1255710000,22.4962490000 114.1257600000,22.4964140000 114.1258460000,22.4964710000 114.1258880000,22.4964970000 114.1260520000,22.4965780000 114.1261260000,22.4966150000 114.1264450000,22.4967800000 114.1272490000,22.4971570000 114.1272160000,22.4972190000 114.1271570000,22.4973310000 114.1271090000,22.4974840000 114.1271010000,22.4975630000 114.1270860000,22.4976670000 114.1270870000,22.4977510000 114.1270920000,22.4979020000 114.1271270000,22.4980870000 114.1271580000,22.4982170000 114.1272650000,22.4985120000 114.1275550000,22.4996420000 114.1276950000,22.4999430000 114.1277730000,22.5000440000 114.1278780000,22.5001790000 114.1280880000,22.5004640000 114.1280540000,22.5004780000 114.1280260000,22.5005020000 114.1280100000,22.5005330000 114.1280060000,22.5005680000 114.1280160000,22.5006020000 114.1280390000,22.5006300000 114.1279640000,22.5007510000 114.1278080000,22.5008860000 114.1275420000,22.5011150000 114.1275030000,22.5011470000 114.1274580000,22.5011860000 114.1273400000,22.5012830000 114.1273150000,22.5013050000 114.1271080000,22.5014760000 114.1268410000,22.5017020000 114.1263660000,22.5019970000 114.1262130000,22.5020730000 114.1261400000,22.5021090000 114.1258860000,22.5022350000 114.1252170000,22.5025670000 114.1250530000,22.5026480000 114.1247900000,22.5027780000 114.1246620000,22.5028400000 114.1242790000,22.5030330000 114.1241810000,22.5030740000 114.1240440000,22.5030980000 114.1237420000,22.5031290000 114.1235570000,22.5031300000 114.1235660000,22.5027270000 114.1235770000,22.5023890000 114.1235990000,22.5020560000 114.1236640000,22.5015760000 114.1236840000,22.5014290000 114.1237150000,22.5012410000 114.1237720000,22.5009430000 114.1237950000,22.5007680000 114.1238460000,22.5006120000 114.1239230000,22.5004940000 114.1239780000,22.5004490000 114.1240220000,22.5003960000 114.1240690000,22.5002920000 114.1240790000,22.5001810000 114.1240500000,22.5000720000 114.1239870000,22.4999760000 114.1238940000,22.4999040000 114.1237810000,22.4998620000 114.1237250000,22.4998550000 114.1236320000,22.4998590000 114.1235430000,22.4998830000 114.1234630000,22.4999260000 114.1233970000,22.4999860000 114.1233200000,22.5000610000 114.1232370000,22.5001140000 114.1229770000,22.5002410000 114.1221390000,22.5006250000 114.1213690000,22.5010250000 114.1208200000,22.5013420000 114.1200850000,22.5018180000 114.1197380000,22.5019720000 114.1194270000,22.5020810000 114.1190770000,22.5021660000 114.1186450000,22.5022230000 114.1181280000,22.5022530000 114.1177570000,22.5022530000 114.1173440000,22.5022190000 114.1164180000,22.5021120000 114.1159240000,22.5020560000 114.1155500000,22.5020130000 114.1150920000,22.5019900000 114.1147120000,22.5019950000 114.1143160000,22.5020300000 114.1134410000,22.5021520000 114.1111400000,22.5024830000 114.1101430000,22.5026110000 114.1092710000,22.5027090000 114.1073400000,22.5028560000 114.1056640000,22.5029750000 114.1049990000,22.5030240000 114.0974150000,22.5036190000 114.0963870000,22.5036960000 114.0934750000,22.5039100000 114.0904970000,22.5041290000 114.0898710000,22.5041590000 114.0893780000,22.5041720000 114.0892330000,22.5041760000 114.0886180000,22.5041480000 114.0881970000,22.5041120000 114.0878000000,22.5040630000 114.0874240000,22.5040010000 114.0868790000,22.5039000000 114.0864430000,22.5037880000 114.0859680000,22.5036530000 114.0857310000,22.5035640000 114.0853160000,22.5034370000 114.0847760000,22.5032370000 114.0842240000,22.5029880000 114.0837500000,22.5027420000 114.0832740000,22.5024670000 114.0827710000,22.5021460000 114.0824960000,22.5019550000 114.0820060000,22.5015630000 114.0815100000,22.5010970000 114.0811030000,22.5007090000 114.0807610000,22.5003390000 114.0804310000,22.4999640000 114.0795770000,22.4988690000 114.0792660000,22.4984400000 114.0781880000,22.4970000000 114.0780060000,22.4967820000 114.0778450000,22.4965940000 114.0776620000,22.4964150000 114.0774580000,22.4962470000 114.0772220000,22.4960880000 114.0769330000,22.4959100000 114.0766220000,22.4957610000 114.0763000000,22.4956220000 114.0758170000,22.4954740000 114.0734120000,22.4948180000 114.0732130000,22.4947640000 114.0694070000,22.4937270000 114.0690930000,22.4936390000 114.0656570000,22.4926980000 114.0642620000,22.4922920000 114.0638650000,22.4921730000 114.0635110000,22.4920240000 114.0631890000,22.4918850000 114.0628460000,22.4917270000 114.0624590000,22.4915190000 114.0621270000,22.4913100000 114.0617840000,22.4910720000 114.0614620000,22.4908150000 114.0611830000,22.4905770000 114.0608290000,22.4902500000 114.0605820000,22.4899820000 114.0602710000,22.4896150000 114.0600260000,22.4893030000 114.0597690000,22.4889060000 114.0594900000,22.4884400000 114.0592540000,22.4879640000 114.0590390000,22.4874290000 114.0588680000,22.4868540000 114.0587600000,22.4862990000 114.0586640000,22.4856750000 114.0583630000,22.4805890000 114.0583050000,22.4799730000 114.0582730000,22.4794870000 114.0582280000,22.4792060000 114.0581690000,22.4788520000 114.0581450000,22.4787240000 114.0580690000,22.4783670000 114.0579510000,22.4779800000 114.0578120000,22.4775840000 114.0576400000,22.4771280000 114.0573610000,22.4765330000 114.0570180000,22.4759180000 114.0567610000,22.4754420000 114.0565900000,22.4749990000 114.0565170000,22.4748740000 114.0563960000,22.4745800000 114.0562240000,22.4740340000 114.0556980000,22.4720220000 114.0555400000,22.4713970000 114.0553730000,22.4707510000 114.0550650000,22.4694860000 114.0546550000,22.4678420000 114.0523890000,22.4586130000 114.0521630000,22.4576710000 114.0520240000,22.4571560000 114.0518840000,22.4567490000 114.0517340000,22.4564120000 114.0515730000,22.4561150000 114.0513480000,22.4557780000 114.0510480000,22.4553810000 114.0501830000,22.4544330000 114.0498860000,22.4541130000 114.0496510000,22.4537880000 114.0494500000,22.4534760000 114.0493000000,22.4532290000 114.0491390000,22.4529410000 114.0490000000,22.4526630000 114.0488710000,22.4523660000 114.0487320000,22.4519890000 114.0486240000,22.4516220000 114.0485490000,22.4512350000 114.0485170000,22.4510170000 114.0484630000,22.4506110000 114.0484420000,22.4502340000 114.0484380000,22.4501150000 114.0484310000,22.4498570000 114.0484740000,22.4494310000 114.0485170000,22.4490340000 114.0485810000,22.4486870000 114.0486670000,22.4483400000 114.0487850000,22.4479530000 114.0489250000,22.4475270000 114.0490430000,22.4471200000 114.0490930000,22.4470000000 114.0494010000,22.4462650000 114.0495150000,22.4459900000 114.0499120000,22.4451870000 114.0500570000,22.4449580000 114.0502760000,22.4445320000 114.0505090000,22.4441380000 114.0506630000,22.4438980000 114.0511030000,22.4432930000 114.0515210000,22.4427670000 114.0515640000,22.4427220000 114.0516480000,22.4426430000 114.0520840000,22.4421920000 114.0525380000,22.4417980000 114.0529800000,22.4414190000 114.0552440000,22.4397030000 114.0566270000,22.4387340000 114.0574420000,22.4381680000 114.0580760000,22.4376940000 114.0586750000,22.4372040000 114.0591920000,22.4367400000 114.0596270000,22.4363460000 114.0601230000,22.4358700000 114.0607360000,22.4352330000 114.0611550000,22.4347070000 114.0617550000,22.4338640000 114.0622730000,22.4331580000 114.0626900000,22.4324490000 114.0630580000,22.4316410000 114.0633420000,22.4308540000 114.0635560000,22.4301880000 114.0638320000,22.4291520000 114.0640530000,22.4281040000 114.0641500000,22.4274210000 114.0642720000,22.4259930000 114.0643150000,22.4243600000 114.0643190000,22.4232760000 114.0643020000,22.4220230000 114.0642750000,22.4215430000 114.0642570000,22.4213660000 114.0641580000,22.4204600000 114.0640030000,22.4189740000 114.0639950000,22.4189290000 114.0638760000,22.4183200000 114.0635200000,22.4166570000 114.0634500000,22.4161790000 114.0633480000,22.4155790000 114.0632220000,22.4150740000 114.0630650000,22.4145840000 114.0628950000,22.4141420000 114.0626700000,22.4136450000 114.0623410000,22.4130610000 114.0610200000,22.4108000000 114.0609240000,22.4106400000 114.0608370000,22.4104800000 114.0607560000,22.4103200000 114.0606700000,22.4101500000 114.0605900000,22.4099800000 114.0605150000,22.4098100000 114.0604420000,22.4096400000 114.0603740000,22.4094700000 114.0603150000,22.4093000000 114.0602650000,22.4091500000 114.0602190000,22.4090000000 114.0601790000,22.4088600000 114.0601310000,22.4086900000 114.0600910000,22.4085300000 114.0600430000,22.4083300000 114.0600010000,22.4081530000 114.0599670000,22.4080000000 114.0599350000,22.4078400000 114.0599080000,22.4076800000 114.0598880000,22.4075200000 114.0598690000,22.4073600000 114.0598510000,22.4072000000 114.0598350000,22.4070400000 114.0598260000,22.4068800000 114.0598220000,22.4067200000 114.0598200000,22.4065600000 114.0598200000,22.4064000000 114.0598220000,22.4062400000 114.0598260000,22.4060800000 114.0598320000,22.4059200000 114.0598410000,22.4057600000 114.0598540000,22.4056000000 114.0598690000,22.4054400000 114.0598910000,22.4052500000 114.0599270000,22.4049690000 114.0637180000,22.3811750000 114.0637550000,22.3810000000 114.0637950000,22.3808300000 114.0638400000,22.3806600000 114.0638870000,22.3804900000 114.0639380000,22.3803100000 114.0639920000,22.3801310000 114.0640500000,22.3799600000 114.0641120000,22.3797900000 114.0641800000,22.3796200000 114.0642480000,22.3794600000 114.0643150000,22.3793030000 114.0643830000,22.3791500000 114.0644610000,22.3789900000 114.0645400000,22.3788400000 114.0646200000,22.3786900000 114.0647230000,22.3785000000 114.0648310000,22.3783200000 114.0649400000,22.3781500000 114.0650520000,22.3779800000 114.0651700000,22.3778100000 114.0652900000,22.3776450000 114.0654130000,22.3774800000 114.0655400000,22.3773200000 114.0656660000,22.3771710000 114.0658010000,22.3770150000 114.0659500000,22.3768540000 114.0661020000,22.3766950000 114.0662500000,22.3765450000 114.0664000000,22.3764000000 114.0665500000,22.3762610000 114.0667140000,22.3761200000 114.0668830000,22.3759780000 114.0672200000,22.3757280000 114.0675860000,22.3754680000 114.0682370000,22.3750400000 114.0688590000,22.3745820000 114.0692520000,22.3742940000 114.0701770000,22.3737060000 114.0713690000,22.3729280000 114.0734950000,22.3716110000 114.0753200000,22.3704760000 114.0755740000,22.3703150000 114.0758210000,22.3701600000 114.0760750000,22.3699840000 114.0763020000,22.3698280000 114.0765090000,22.3696660000 114.0766860000,22.3695240000 114.0768870000,22.3693440000 114.0770660000,22.3691490000 114.0772400000,22.3689350000 114.0773870000,22.3687280000 114.0775940000,22.3684210000 114.0779680000,22.3677150000 114.0783000000,22.3670880000 114.0785960000,22.3665690000 114.0819110000,22.3602270000 114.0825020000,22.3591100000 114.0825850000,22.3589570000 114.0827900000,22.3586820000 114.0829930000,22.3583180000 114.0834750000,22.3574640000 114.0836750000,22.3571410000 114.0838070000,22.3570150000 114.0839520000,22.3568150000 114.0840630000,22.3566640000 114.0843560000,22.3563530000 114.0849050000,22.3559050000 114.0850610000,22.3556890000 114.0851500000,22.3555470000 114.0852420000,22.3553740000 114.0852960000,22.3552360000 114.0853320000,22.3550740000 114.0853400000,22.3548670000 114.0853350000,22.3547110000 114.0853140000,22.3545660000 114.0852480000,22.3543840000 114.0851500000,22.3541890000 114.0850440000,22.3540390000 114.0849290000,22.3539080000 114.0847580000,22.3537620000 114.0845960000,22.3536690000 114.0844560000,22.3535940000 114.0842850000,22.3535360000 114.0840170000,22.3534620000 114.0837540000,22.3534130000 114.0834060000,22.3533780000 114.0829810000,22.3533400000 114.0827130000,22.3533160000 114.0825240000,22.3532920000 114.0823050000,22.3532570000 114.0820940000,22.3532100000 114.0818650000,22.3531560000 114.0809840000,22.3529310000 114.0807580000,22.3529290000 114.0628910000,22.3479420000 114.0621920000,22.3477430000 114.0617970000,22.3476210000 114.0613990000,22.3474890000 114.0610110000,22.3473460000 114.0606270000,22.3471880000 114.0602360000,22.3470150000 114.0598750000,22.3468400000 114.0595140000,22.3466480000 114.0591600000,22.3464470000 114.0588470000,22.3462540000 114.0585430000,22.3460600000 114.0525500000,22.3421550000 114.0519850000,22.3418020000 114.0517420000,22.3416520000 114.0514980000,22.3415220000 114.0511970000,22.3413840000 114.0509050000,22.3412690000 114.0504640000,22.3411370000 114.0501150000,22.3410650000 114.0496320000,22.3409870000 114.0488040000,22.3409060000 114.0482030000,22.3408520000 114.0472620000,22.3407500000 114.0466410000,22.3406480000 114.0460530000,22.3405040000 114.0458190000,22.3404340000 114.0456190000,22.3403700000 114.0453110000,22.3402400000 114.0449720000,22.3400670000 114.0440850000,22.3395510000 114.0432940000,22.3391030000 114.0404020000,22.3378420000 114.0397780000,22.3375450000 114.0393360000,22.3373640000 114.0390890000,22.3372750000 114.0387840000,22.3371820000 114.0384720000,22.3371100000 114.0380410000,22.3370070000 114.0375410000,22.3369040000 114.0371380000,22.3368240000 114.0367080000,22.3367090000 114.0364270000,22.3366290000 114.0362160000,22.3365560000 114.0357730000,22.3363950000 114.0352720000,22.3361990000 114.0347250000,22.3359550000 114.0342730000,22.3357320000 114.0338990000,22.3355020000 114.0333890000,22.3351500000 114.0328770000,22.3347490000 114.0324430000,22.3343380000 114.0299060000,22.3319080000 114.0272230000,22.3293370000 114.0265270000,22.3286850000 114.0251240000,22.3273490000 114.0247260000,22.3270220000 114.0244480000,22.3267970000 114.0243000000,22.3266910000 114.0239930000,22.3264980000 114.0235970000,22.3262700000 114.0230920000,22.3260010000 114.0226320000,22.3257790000 114.0218850000,22.3254810000 114.0213490000,22.3253080000 114.0208380000,22.3251670000 114.0203120000,22.3250680000 114.0198860000,22.3249950000 114.0194280000,22.3249350000 114.0189490000,22.3248840000 114.0184730000,22.3248690000 114.0179280000,22.3248690000 114.0157280000,22.3250250000 114.0151360000,22.3250500000 114.0146250000,22.3250580000 114.0140290000,22.3250370000 114.0134250000,22.3249950000 114.0129230000,22.3249450000 114.0124980000,22.3248840000 114.0120280000,22.3247880000 114.0109800000,22.3245210000 114.0104470000,22.3243410000 114.0099940000,22.3241710000 114.0092210000,22.3238440000 114.0073390000,22.3230500000 114.0030460000,22.3210970000 114.0022110000,22.3207110000 114.0018700000,22.3205380000 114.0015450000,22.3203740000 114.0012450000,22.3202230000 114.0009200000,22.3200340000 114.0006410000,22.3198590000 114.0004230000,22.3197030000 114.0001470000,22.3195040000 113.9998380000,22.3192620000 113.9994860000,22.3189590000 113.9992090000,22.3186870000 113.9989500000,22.3184190000 113.9985960000,22.3180270000 113.9983040000,22.3176570000 113.9980000000,22.3172060000 113.9977570000,22.3168210000 113.9974960000,22.3163870000 113.9973020000,22.3160790000 113.9971020000,22.3157770000 113.9968930000,22.3154780000 113.9966240000,22.3151180000 113.9964650000,22.3149000000 113.9961560000,22.3145280000 113.9959240000,22.3142630000 113.9957120000,22.3140280000 113.9954890000,22.3137910000 113.9951210000,22.3134260000 113.9948160000,22.3131480000 113.9944550000,22.3128470000 113.9940660000,22.3125250000 113.9937300000,22.3122730000 113.9933570000,22.3120010000 113.9929640000,22.3117410000 113.9926010000,22.3115140000 113.9877960000,22.3087560000 113.9856810000,22.3074790000 113.9851170000,22.3071400000 113.9844290000,22.3067090000 113.9829960000,22.3058040000 113.9820570000,22.3051880000 113.9804410000,22.3041820000 113.9795070000,22.3036070000 113.9785100000,22.3030050000 113.9778550000,22.3026450000 113.9769330000,22.3021450000 113.9757440000,22.3015630000 113.9745330000,22.3009340000 113.9737440000,22.3005560000 113.9731390000,22.3002800000 113.9722740000,22.2999010000 113.9715800000,22.2996450000 113.9710390000,22.2994730000 113.9705160000,22.2993110000 113.9698770000,22.2991360000 113.9689750000,22.2989320000 113.9680470000,22.2986900000 113.9677470000,22.2986190000 113.9635320000,22.2977010000 113.9609300000,22.2971350000 113.9603210000,22.2969830000 113.9595720000,22.2967670000 113.9587890000,22.2964930000 113.9582960000,22.2962940000 113.9578120000,22.2960870000 113.9572830000,22.2958390000 113.9567450000,22.2955430000 113.9560790000,22.2951570000 113.9558210000,22.2949960000 113.9555750000,22.2948250000 113.9552750000,22.2946020000 113.9549650000,22.2943560000 113.9546260000,22.2940770000 113.9542590000,22.2937580000 113.9538700000,22.2934090000 113.9535270000,22.2930740000 113.9532730000,22.2927990000 113.9528750000,22.2923800000 113.9523830000,22.2918530000 113.9521350000,22.2916130000 113.9518830000,22.2913840000 113.9515220000,22.2910870000 113.9512400000,22.2908870000 113.9510840000,22.2907630000 113.9504990000,22.2904060000 113.9500840000,22.2901790000 113.9496380000,22.2899900000 113.9491880000,22.2898330000 113.9487170000,22.2896800000 113.9483130000,22.2895790000 113.9478750000,22.2894950000 113.9474000000,22.2894160000 113.9468720000,22.2893630000 113.9463440000,22.2893450000 113.9459210000,22.2893440000 113.9454980000,22.2893540000 113.9448930000,22.2894100000 113.9445070000,22.2894660000 113.9439680000,22.2895710000 113.9434870000,22.2896900000 113.9431440000,22.2897990000 113.9427810000,22.2899170000 113.9422260000,22.2901410000 113.9417000000,22.2903820000 113.9413010000,22.2906010000 113.9409940000,22.2907830000 113.9406600000,22.2910100000 113.9403680000,22.2912140000 113.9400220000,22.2914810000 113.9396530000,22.2918110000 113.9394110000,22.2920570000 113.9387640000,22.2926780000 113.9384570000,22.2930260000 113.9381460000,22.2933970000 113.9378070000,22.2938530000 113.9374580000,22.2943700000 113.9370460000,22.2950450000 113.9360670000,22.2966820000 113.9358920000,22.2969650000 113.9356150000,22.2974640000 113.9354890000,22.2976900000 113.9353200000,22.2981160000 113.9352260000,22.2984440000 113.9351640000,22.2987180000 113.9350440000,22.2989940000 113.9349360000,22.2991320000 113.9348370000,22.2992260000 113.9347150000,22.2993100000 113.9346140000,22.2993630000 113.9344570000,22.2994100000 113.9342440000,22.2994350000 113.9340730000,22.2994330000 113.9339720000,22.2994100000 113.9338530000,22.2993660000 113.9337490000,22.2993140000 113.9336330000,22.2992540000 113.9334800000,22.2991600000 113.9332910000,22.2990010000 113.9331740000,22.2988710000 113.9331510000,22.2986820000 113.9331130000,22.2985340000 113.9331300000,22.2983670000 113.9332340000,22.2979900000 113.9332910000,22.2978150000 113.9333360000,22.2976760000 113.9333450000,22.2975620000 113.9333520000,22.2973800000 113.9333670000,22.2972170000 113.9333710000,22.2970970000 113.9333750000,22.2968630000 113.9333950000,22.2967580000 113.9334540000,22.2966600000 113.9335020000,22.2966020000 113.9336040000,22.2965870000 113.9337480000,22.2965970000 113.9339080000,22.2966370000 113.9341050000,22.2966900000 113.9343810000,22.2967890000 113.9345770000,22.2968980000 113.9347230000,22.2970120000 113.9348270000,22.2971260000 113.9349170000,22.2972940000 113.9349720000,22.2974370000 113.9349960000,22.2976060000 113.9349860000,22.2978080000 113.9349390000,22.2980020000 113.9348760000,22.2982430000 113.9347870000,22.2985580000 113.9347350000,22.2987830000 113.9347010000,22.2989680000 113.9346670000,22.2992420000 113.9346570000,22.2994040000 113.9346550000,22.2996860000 113.9346620000,22.2999700000 113.9346680000,22.3000250000 113.9346940000,22.3002850000 113.9347530000,22.3005990000 113.9348260000,22.3009320000 113.9349430000,22.3015040000 113.9350530000,22.3018520000 113.9352030000,22.3023310000 113.9355150000,22.3031420000 113.9361240000,22.3044080000 113.9364770000,22.3053440000 113.9368540000,22.3063950000 113.9369210000,22.3066690000 113.9370640000,22.3072900000 113.9371570000,22.3076380000 113.9374760000,22.3095760000 113.9375670000,22.3100200000 113.9376320000,22.3102770000 113.9376640000,22.3104300000 113.9376890000,22.3106240000 113.9376930000,22.3108590000 113.9376940000,22.3111780000 113.9376600000,22.3115390000 113.9375780000,22.3119780000 113.9374820000,22.3123540000 113.9373060000,22.3128580000 113.9371960000,22.3131470000 113.9370880000,22.3134870000 113.9368690000,22.3140740000 113.9362310000,22.3157880000 113.9355280000,22.3176750000 113.9353140000,22.3182230000 113.9352680000,22.3183640000 113.9352020000,22.3185670000 113.9351780000,22.3186890000 113.9351690000,22.3187950000 113.9351750000,22.3189650000 113.9351950000,22.3191140000 113.9352530000,22.3192830000 113.9353230000,22.3194140000 113.9354030000,22.3195300000 113.9356000000,22.3197410000 113.9357970000,22.3198700000 113.9360020000,22.3199710000 113.9363100000,22.3200970000 113.9364720000,22.3201460000 113.9367070000,22.3202210000 113.9369330000,22.3202820000 113.9372560000,22.3203070000 113.9375140000,22.3202930000 113.9377300000,22.3202510000 113.9379220000,22.3201690000 113.9380410000,22.3200600000 113.9381210000,22.3199620000 113.9381810000,22.3198710000 113.9382170000,22.3197790000 113.9382360000,22.3196580000 113.9382300000,22.3195480000 113.9381930000,22.3194180000 113.9381350000,22.3193100000 113.9380910000,22.3192500000 113.9379570000,22.3191560000 113.9378110000,22.3190920000 113.9376610000,22.3190480000 113.9375210000,22.3190530000 113.9374820000,22.3190540000 113.9373460000,22.3190830000 113.9371540000,22.3191400000 113.9369650000,22.3192350000 113.9367830000,22.3193110000 113.9366460000,22.3192510000 113.9365090000,22.3192730000 113.9364180000,22.3193170000 113.9363240000,22.3193940000 113.9363000000,22.3194950000 113.9363240000,22.3196350000 113.9363760000,22.3197530000 113.9364930000,22.3198910000 113.9366300000,22.3199830000 113.9367930000,22.3201750000 113.9368340000,22.3202230000 113.9370100000,22.3204210000 113.9371680000,22.3205650000 113.9374480000,22.3207650000 113.9376240000,22.3208430000 113.9377090000,22.3208760000 113.9378670000,22.3209390000 113.9380130000,22.3209790000 113.9381340000,22.3209940000 113.9382200000,22.3209940000 113.9383440000,22.3209830000 113.9384510000,22.3209450000 113.9385860000,22.3210820000 113.9389980000,22.3211580000 113.9390460000,22.3211670000 113.9403040000,22.3214410000 113.9406210000,22.3215100000 113.9406420000,22.3214520000 113.9405710000,22.3213920000 113.9406350000,22.3213350000 113.9406280000,22.3212670000 113.9405600000,22.3212230000 113.9406240000,22.3209660000 113.9407260000,22.3205560000 113.9409120000,22.3198110000 113.9410160000,22.3194400000 113.9405730000,22.3193610000 113.9404520000,22.3193300000 113.9403250000,22.3192980000 113.9397850000,22.3191830000 113.9393810000,22.3190840000 113.9393220000,22.3190680000 113.9391540000,22.3190390000 113.9390880000,22.3193060000 113.9390010000,22.3196500000 113.9387960000,22.3204300000 113.9387440000,22.3205900000 113.9386870000,22.3207120000 113.9386020000,22.3208190000 113.9385340000,22.3208830000 113.9384510000,22.3209450000 113.9383440000,22.3209830000 113.9382200000,22.3209940000 113.9381340000,22.3209940000 113.9380130000,22.3209790000 113.9378670000,22.3209390000 113.9377090000,22.3208760000 113.9376240000,22.3208430000 113.9374480000,22.3207650000 113.9371680000,22.3205650000 113.9370100000,22.3204210000 113.9368340000,22.3202230000 113.9367930000,22.3201750000 113.9367660000,22.3200930000 113.9367790000,22.3200380000 113.9368400000,22.3199500000 113.9369300000,22.3199070000 113.9369980000,22.3197990000 113.9370080000,22.3196880000 113.9369730000,22.3195720000 113.9368900000,22.3194350000 113.9367830000,22.3193110000 113.9366460000,22.3192510000 113.9365710000,22.3191430000 113.9364900000,22.3189890000 113.9364400000,22.3188110000 113.9364260000,22.3185890000 113.9364410000,22.3184130000 113.9364820000,22.3183080000 113.9365490000,22.3181620000 113.9366200000,22.3180690000 113.9367410000,22.3179350000 113.9368280000,22.3178380000 113.9370840000,22.3175520000 113.9371400000,22.3174290000 113.9371700000,22.3173620000 113.9377560000,22.3158120000 113.9379400000,22.3153250000 113.9380110000,22.3151380000 113.9380470000,22.3148230000 113.9380310000,22.3146610000 113.9380210000,22.3145720000 113.9380120000,22.3144950000 113.9380060000,22.3144120000 113.9380000000,22.3143460000 113.9380030000,22.3141310000 113.9380610000,22.3139040000 113.9381600000,22.3136740000 113.9382400000,22.3135320000 113.9383340000,22.3134100000 113.9385970000,22.3131290000 113.9387650000,22.3129310000 113.9388740000,22.3127760000 113.9389610000,22.3125860000 113.9390100000,22.3124120000 113.9390390000,22.3122170000 113.9390490000,22.3120280000 113.9390270000,22.3118120000 113.9389690000,22.3115900000 113.9389120000,22.3114380000 113.9388350000,22.3112780000 113.9384250000,22.3107320000 113.9381790000,22.3102850000 113.9380950000,22.3100700000 113.9379300000,22.3095310000 113.9378470000,22.3089340000 113.9377790000,22.3083420000 113.9377200000,22.3077910000 113.9375840000,22.3071560000 113.9374240000,22.3065380000 113.9370440000,22.3054300000 113.9368240000,22.3048480000 113.9364570000,22.3038410000 113.9361740000,22.3029020000 113.9361030000,22.3024780000 113.9360510000,22.3020720000 113.9360020000,22.3014920000 113.9359600000,22.3010020000 113.9358750000,22.3005900000 113.9358530000,22.3002150000 113.9358790000,22.2996680000 113.9358940000,22.2993200000 113.9361000000,22.2985340000 113.9361520000,22.2983040000 113.9361690000,22.2980660000 113.9361520000,22.2978990000 113.9361000000,22.2977160000 113.9360140000,22.2975570000 113.9358940000,22.2973980000 113.9357650000,22.2972630000 113.9356370000,22.2971600000 113.9354740000,22.2970490000 113.9353100000,22.2969620000 113.9348820000,22.2968260000 113.9345760000,22.2967160000 113.9341540000,22.2965890000 113.9339400000,22.2965190000 113.9338060000,22.2964480000 113.9337240000,22.2963800000 113.9336500000,22.2962800000 113.9336050000,22.2961750000 113.9335210000,22.2960920000 113.9334110000,22.2960430000 113.9332740000,22.2960350000 113.9331610000,22.2960700000 113.9330690000,22.2961390000 113.9330090000,22.2962330000 113.9329890000,22.2963220000 113.9329970000,22.2964120000 113.9330430000,22.2965620000 113.9331010000,22.2966720000 113.9331400000,22.2967630000 113.9331780000,22.2968740000 113.9331940000,22.2970350000 113.9332010000,22.2972500000 113.9331960000,22.2974210000 113.9331770000,22.2975390000 113.9331390000,22.2978080000 113.9330700000,22.2980890000 113.9330020000,22.2982480000 113.9329240000,22.2983280000 113.9328470000,22.2983750000 113.9327530000,22.2983830000 113.9325720000,22.2984070000 113.9324610000,22.2984720000 113.9323490000,22.2985750000 113.9322360000,22.2987190000 113.9321500000,22.2988520000 113.9320900000,22.2990120000 113.9320540000,22.2991280000 113.9320490000,22.2992810000 113.9320750000,22.2993680000 113.9321350000,22.2994630000 113.9322380000,22.2995350000 113.9323350000,22.2995700000 113.9325500000,22.2995930000 113.9326700000,22.2995580000 113.9327560000,22.2994980000 113.9328590000,22.2994590000 113.9329710000,22.2994430000 113.9330890000,22.2994540000 113.9332200000,22.2994950000 113.9334780000,22.2995640000 113.9337510000,22.2996450000 113.9339990000,22.2996860000 113.9342460000,22.2996860000 113.9344950000,22.2996700000 113.9347270000,22.2996300000 113.9349820000,22.2995480000 113.9351990000,22.2994350000 113.9353910000,22.2992910000 113.9355670000,22.2990910000 113.9355670000,22.2990910000 113.9356710000,22.2988960000 113.9357300000,22.2986880000 113.9357610000,22.2985320000 113.9357880000,22.2982950000 113.9358440000,22.2979960000 113.9360400000,22.2974240000 113.9361990000,22.2969270000 113.9362830000,22.2967440000 113.9370540000,22.2953400000 113.9371990000,22.2951090000 113.9375900000,22.2944560000 113.9379380000,22.2939420000 113.9382870000,22.2934870000 113.9385880000,22.2931240000 113.9388880000,22.2927930000 113.9395100000,22.2921520000 113.9397590000,22.2919250000 113.9401570000,22.2915970000 113.9404820000,22.2913300000 113.9407840000,22.2911200000 113.9410860000,22.2909230000 113.9413870000,22.2907440000 113.9417410000,22.2905350000 113.9420750000,22.2903750000 113.9424260000,22.2902200000 113.9428150000,22.2900690000 113.9431540000,22.2899500000 113.9435630000,22.2898200000 113.9437980000,22.2897610000 113.9440050000,22.2897220000 113.9445240000,22.2896210000 113.9449220000,22.2895610000 113.9455030000,22.2895030000 113.9459200000,22.2894860000 113.9463230000,22.2894810000 113.9468520000,22.2894990000 113.9473740000,22.2895500000 113.9478450000,22.2896190000 113.9482740000,22.2897030000 113.9486710000,22.2898030000 113.9491390000,22.2899470000 113.9495790000,22.2901040000 113.9500170000,22.2902940000 113.9504160000,22.2905100000 113.9508250000,22.2907660000 113.9511440000,22.2909890000 113.9514100000,22.2911870000 113.9517590000,22.2914840000 113.9520180000,22.2917120000 113.9522680000,22.2919420000 113.9527780000,22.2924680000 113.9531720000,22.2928820000 113.9534390000,22.2931600000 113.9537750000,22.2935030000 113.9541670000,22.2938580000 113.9545370000,22.2941730000 113.9548740000,22.2944520000 113.9552060000,22.2947120000 113.9554890000,22.2949220000 113.9557400000,22.2950960000 113.9560230000,22.2952790000 113.9566790000,22.2956560000 113.9572090000,22.2959450000 113.9577490000,22.2961950000 113.9582250000,22.2964030000 113.9587420000,22.2966140000 113.9595180000,22.2968860000 113.9602780000,22.2971090000 113.9608980000,22.2972520000 113.9649850000,22.2981570000 113.9677100000,22.2987600000 113.9680060000,22.2988330000 113.9689400000,22.2990560000 113.9698420000,22.2992600000 113.9704600000,22.2994310000 113.9709990000,22.2995910000 113.9715350000,22.2997640000 113.9722070000,22.3000200000 113.9730740000,22.3003880000 113.9736760000,22.3006700000 113.9751620000,22.3014060000 113.9756620000,22.3016650000 113.9768670000,22.3022560000 113.9777980000,22.3027520000 113.9784390000,22.3031040000 113.9794340000,22.3037060000 113.9816500000,22.3051080000 113.9837140000,22.3064070000 113.9843200000,22.3067900000 113.9850400000,22.3072450000 113.9856060000,22.3075890000 113.9877310000,22.3088640000 113.9925320000,22.3116130000 113.9928940000,22.3118400000 113.9932800000,22.3121080000 113.9936540000,22.3123690000 113.9939850000,22.3126240000 113.9943640000,22.3129400000 113.9947170000,22.3132380000 113.9950160000,22.3135030000 113.9953880000,22.3138680000 113.9956090000,22.3141060000 113.9958140000,22.3143200000 113.9960710000,22.3146170000 113.9963520000,22.3149690000 113.9965180000,22.3151920000 113.9967760000,22.3155490000 113.9969850000,22.3158460000 113.9971800000,22.3161470000 113.9973750000,22.3164580000 113.9976390000,22.3168830000 113.9978800000,22.3172650000 113.9981960000,22.3177340000 113.9984880000,22.3181120000 113.9988430000,22.3185050000 113.9990980000,22.3187760000 113.9994070000,22.3190820000 114.0000590000,22.3196040000 114.0003390000,22.3198090000 114.0005530000,22.3199570000 114.0008490000,22.3201550000 114.0011770000,22.3203390000 114.0014940000,22.3205080000 114.0018710000,22.3206920000 114.0022100000,22.3208580000 114.0029710000,22.3212190000 114.0091410000,22.3239620000 114.0099340000,22.3243030000 114.0104060000,22.3244710000 114.0109360000,22.3246490000 114.0119840000,22.3249220000 114.0124700000,22.3250190000 114.0129110000,22.3250790000 114.0134120000,22.3251210000 114.0140080000,22.3251570000 114.0146170000,22.3251700000 114.0151360000,22.3251530000 114.0157200000,22.3251290000 114.0179230000,22.3249950000 114.0184700000,22.3249970000 114.0189250000,22.3250100000 114.0194170000,22.3250510000 114.0198690000,22.3251110000 114.0202650000,22.3251710000 114.0207940000,22.3252890000 114.0213080000,22.3254290000 114.0218170000,22.3256010000 114.0225660000,22.3258960000 114.0230280000,22.3261070000 114.0235650000,22.3263960000 114.0239050000,22.3266040000 114.0242100000,22.3268090000 114.0243490000,22.3269190000 114.0246080000,22.3271220000 114.0247390000,22.3272290000 114.0253400000,22.3277860000 114.0260460000,22.3284120000 114.0264620000,22.3287970000 114.0297800000,22.3320070000 114.0323360000,22.3344360000 114.0327820000,22.3348390000 114.0333080000,22.3352490000 114.0338240000,22.3356090000 114.0341940000,22.3358400000 114.0344370000,22.3359930000 114.0347430000,22.3361510000 114.0350240000,22.3362900000 114.0355250000,22.3365430000 114.0360790000,22.3367460000 114.0366460000,22.3369090000 114.0370510000,22.3370060000 114.0374980000,22.3370760000 114.0380100000,22.3371620000 114.0384370000,22.3372490000 114.0388250000,22.3373460000 114.0392640000,22.3374860000 114.0397170000,22.3376620000 114.0403300000,22.3379590000 114.0409450000,22.3382610000 114.0430490000,22.3395020000 114.0438450000,22.3398740000 114.0444670000,22.3401500000 114.0450310000,22.3403730000 114.0457530000,22.3405940000 114.0460570000,22.3406770000 114.0466800000,22.3408170000 114.0473730000,22.3409100000 114.0482450000,22.3409950000 114.0487620000,22.3410670000 114.0496140000,22.3411750000 114.0500720000,22.3412490000 114.0504120000,22.3413120000 114.0508330000,22.3414360000 114.0511730000,22.3415610000 114.0514230000,22.3416710000 114.0516610000,22.3417990000 114.0518850000,22.3419290000 114.0520460000,22.3420240000 114.0524520000,22.3422840000 114.0584460000,22.3461890000 114.0587520000,22.3463840000 114.0590690000,22.3465800000 114.0594270000,22.3467830000 114.0597930000,22.3469780000 114.0601590000,22.3471560000 114.0605560000,22.3473310000 114.0609450000,22.3474910000 114.0613390000,22.3476360000 114.0617410000,22.3477700000 114.0621400000,22.3478920000 114.0628380000,22.3480920000 114.0807100000,22.3530780000 114.0815240000,22.3533110000 114.0816810000,22.3533950000 114.0820430000,22.3535190000 114.0821840000,22.3535790000 114.0823730000,22.3536570000 114.0825460000,22.3537670000 114.0827210000,22.3538910000 114.0829990000,22.3540730000 114.0831560000,22.3542420000 114.0833090000,22.3544430000 114.0834070000,22.3546400000 114.0835130000,22.3549360000 114.0835890000,22.3552150000 114.0836430000,22.3554670000 114.0836500000,22.3557430000 114.0836490000,22.3559990000 114.0836240000,22.3562260000 114.0835440000,22.3565220000 114.0834440000,22.3567510000 114.0831110000,22.3574770000 114.0827160000,22.3583350000 114.0823470000,22.3590330000 114.0817280000,22.3601470000 114.0784010000,22.3664850000 114.0777670000,22.3675880000 114.0777150000,22.3677360000 114.0774160000,22.3683250000 114.0773160000,22.3685090000 114.0770930000,22.3688420000 114.0769400000,22.3690480000 114.0767580000,22.3692520000 114.0765560000,22.3694450000 114.0763760000,22.3695940000 114.0761870000,22.3697450000 114.0760250000,22.3698660000 114.0757800000,22.3700540000 114.0755210000,22.3702260000 114.0752510000,22.3703950000 114.0734230000,22.3715160000 114.0714360000,22.3727580000 114.0700810000,22.3735450000 114.0691650000,22.3740570000 114.0686690000,22.3743500000 114.0680660000,22.3746770000 114.0674440000,22.3750520000 114.0671190000,22.3752480000 114.0669000000,22.3753850000 114.0667150000,22.3755200000 114.0665630000,22.3756400000 114.0664200000,22.3757600000 114.0662790000,22.3758800000 114.0661410000,22.3760010000 114.0660170000,22.3761210000 114.0658870000,22.3762500000 114.0657670000,22.3763700000 114.0656400000,22.3765000000 114.0655140000,22.3766300000 114.0653940000,22.3767600000 114.0652830000,22.3768900000 114.0651700000,22.3770250000 114.0650620000,22.3771600000 114.0649600000,22.3772950000 114.0648600000,22.3774300000 114.0647660000,22.3775610000 114.0646670000,22.3777000000 114.0645780000,22.3778300000 114.0644870000,22.3779700000 114.0643920000,22.3781210000 114.0643070000,22.3782700000 114.0642190000,22.3784300000 114.0641320000,22.3785900000 114.0640530000,22.3787400000 114.0639750000,22.3789000000 114.0639000000,22.3790600000 114.0638300000,22.3792200000 114.0637600000,22.3793850000 114.0636900000,22.3795600000 114.0636290000,22.3797200000 114.0635680000,22.3799000000 114.0635100000,22.3800800000 114.0634500000,22.3802800000 114.0633950000,22.3804800000 114.0633400000,22.3807000000 114.0632940000,22.3809100000 114.0632710000,22.3810420000 114.0593990000,22.4053980000 114.0593770000,22.4055790000 114.0593560000,22.4058000000 114.0593450000,22.4060000000 114.0593400000,22.4062000000 114.0593380000,22.4063500000 114.0593370000,22.4065000000 114.0593370000,22.4066500000 114.0593410000,22.4068000000 114.0593500000,22.4069800000 114.0593600000,22.4071500000 114.0593800000,22.4073700000 114.0594000000,22.4075600000 114.0594200000,22.4077300000 114.0594450000,22.4079000000 114.0594710000,22.4080600000 114.0595100000,22.4082430000 114.0595450000,22.4084000000 114.0595900000,22.4086000000 114.0596400000,22.4088000000 114.0596880000,22.4089500000 114.0597400000,22.4091000000 114.0597940000,22.4092500000 114.0598500000,22.4094000000 114.0599200000,22.4095600000 114.0599900000,22.4097100000 114.0600640000,22.4098600000 114.0601400000,22.4100100000 114.0602250000,22.4101600000 114.0603170000,22.4103100000 114.0603800000,22.4104100000 114.0604160000,22.4104600000 114.0605880000,22.4107290000 114.0621750000,22.4131710000 114.0623450000,22.4134530000 114.0624790000,22.4137160000 114.0626320000,22.4140050000 114.0627740000,22.4143430000 114.0629310000,22.4147790000 114.0630260000,22.4150800000 114.0631030000,22.4153860000 114.0631600000,22.4156780000 114.0632030000,22.4159050000 114.0632440000,22.4161640000 114.0633070000,22.4166640000 114.0633480000,22.4172350000 114.0633840000,22.4182370000 114.0634610000,22.4189950000 114.0634650000,22.4190400000 114.0636610000,22.4200300000 114.0638150000,22.4206580000 114.0639010000,22.4209710000 114.0639970000,22.4213920000 114.0640270000,22.4215360000 114.0640500000,22.4216920000 114.0640990000,22.4220490000 114.0641190000,22.4232790000 114.0640870000,22.4259440000 114.0640220000,22.4268200000 114.0639200000,22.4277240000 114.0637770000,22.4285930000 114.0635410000,22.4296160000 114.0632550000,22.4305100000 114.0629540000,22.4313360000 114.0626350000,22.4320300000 114.0622920000,22.4327040000 114.0618090000,22.4334780000 114.0612940000,22.4342310000 114.0607250000,22.4349550000 114.0600050000,22.4357480000 114.0595240000,22.4362250000 114.0592950000,22.4364300000 114.0588160000,22.4368590000 114.0581290000,22.4374250000 114.0573570000,22.4380100000 114.0565380000,22.4385440000 114.0551350000,22.4395660000 114.0528590000,22.4413090000 114.0525830000,22.4415180000 114.0521860000,22.4418550000 114.0517580000,22.4422580000 114.0512860000,22.4427720000 114.0509410000,22.4431830000 114.0506780000,22.4435630000 114.0503510000,22.4440780000 114.0500900000,22.4445150000 114.0499770000,22.4446820000 114.0497800000,22.4450950000 114.0495290000,22.4456110000 114.0492980000,22.4461380000 114.0489890000,22.4468030000 114.0488280000,22.4472790000 114.0486670000,22.4477350000 114.0484950000,22.4482710000 114.0483880000,22.4487270000 114.0483410000,22.4488710000 114.0483130000,22.4491930000 114.0482490000,22.4496790000 114.0482490000,22.4501150000 114.0482700000,22.4506210000 114.0482970000,22.4508400000 114.0483450000,22.4510870000 114.0484010000,22.4513600000 114.0484740000,22.4516220000 114.0485710000,22.4520090000 114.0487210000,22.4524250000 114.0488820000,22.4528020000 114.0490640000,22.4531590000 114.0492790000,22.4535560000 114.0494050000,22.4537570000 114.0495070000,22.4538910000 114.0497440000,22.4542000000 114.0503300000,22.4548650000 114.0507180000,22.4552730000 114.0508580000,22.4554290000 114.0510920000,22.4557020000 114.0513380000,22.4560690000 114.0515200000,22.4564010000 114.0515880000,22.4565590000 114.0517160000,22.4568310000 114.0519130000,22.4573490000 114.0521200000,22.4580910000 114.0521930000,22.4583940000 114.0541640000,22.4666500000 114.0549320000,22.4695170000 114.0552480000,22.4707920000 114.0554120000,22.4714140000 114.0555720000,22.4720290000 114.0561060000,22.4740940000 114.0562830000,22.4746300000 114.0564070000,22.4749210000 114.0564600000,22.4750430000 114.0566710000,22.4754880000 114.0569220000,22.4759660000 114.0572390000,22.4765930000 114.0573800000,22.4769120000 114.0575120000,22.4771870000 114.0577050000,22.4776530000 114.0578660000,22.4781390000 114.0579940000,22.4785950000 114.0580450000,22.4788630000 114.0580800000,22.4790510000 114.0581070000,22.4792310000 114.0581340000,22.4794080000 114.0581660000,22.4798740000 114.0582130000,22.4805690000 114.0585030000,22.4855160000 114.0585780000,22.4861110000 114.0586850000,22.4866760000 114.0588030000,22.4871320000 114.0590070000,22.4877270000 114.0592430000,22.4882620000 114.0595440000,22.4887870000 114.0598650000,22.4892930000 114.0601640000,22.4897140000 114.0605600000,22.4901800000 114.0608820000,22.4905070000 114.0612360000,22.4908150000 114.0616330000,22.4911220000 114.0617150000,22.4911780000 114.0620290000,22.4913940000 114.0620950000,22.4914390000 114.0624710000,22.4916710000 114.0628760000,22.4918900000 114.0633010000,22.4920970000 114.0637250000,22.4922620000 114.0641980000,22.4924210000 114.0653240000,22.4927180000 114.0661830000,22.4930020000 114.0690560000,22.4937500000 114.0693710000,22.4938350000 114.0731790000,22.4948720000 114.0733800000,22.4949280000 114.0757530000,22.4955730000 114.0762030000,22.4957310000 114.0766000000,22.4958900000 114.0769110000,22.4960390000 114.0772010000,22.4962270000 114.0774370000,22.4964150000 114.0776840000,22.4966240000 114.0778880000,22.4968420000 114.0780550000,22.4970720000 114.0787410000,22.4979040000 114.0789920000,22.4982270000 114.0793570000,22.4987970000 114.0800560000,22.4997660000 114.0804650000,22.5002620000 114.0808340000,22.5006320000 114.0811900000,22.5009950000 114.0815470000,22.5013700000 114.0819000000,22.5016580000 114.0824480000,22.5020930000 114.0829700000,22.5024270000 114.0834490000,22.5027120000 114.0839730000,22.5029890000 114.0845960000,22.5032710000 114.0851920000,22.5035060000 114.0858260000,22.5037280000 114.0863240000,22.5038690000 114.0867970000,22.5039910000 114.0872700000,22.5040760000 114.0877270000,22.5041570000 114.0877740000,22.5041630000 114.0882670000,22.5042310000 114.0888750000,22.5042850000 114.0891540000,22.5042900000 114.0894880000,22.5042970000 114.0901250000,22.5042870000 114.0907370000,22.5042580000 114.0908670000,22.5042520000 114.0913330000,22.5042150000 114.0929120000,22.5040910000 114.0949490000,22.5039300000 114.0973530000,22.5037470000 114.1050390000,22.5031710000 114.1056990000,22.5031210000 114.1073460000,22.5030040000 114.1088480000,22.5028850000 114.1097490000,22.5028060000 114.1103390000,22.5027470000 114.1110470000,22.5026480000 114.1134180000,22.5022930000 114.1139430000,22.5022200000 114.1143400000,22.5021740000 114.1146500000,22.5021440000 114.1149510000,22.5021350000 114.1153060000,22.5021350000 114.1158370000,22.5021710000 114.1163570000,22.5022340000 114.1173010000,22.5023330000 114.1177270000,22.5023760000 114.1181040000,22.5023970000 114.1184490000,22.5023820000 114.1188570000,22.5023430000 114.1192970000,22.5022540000 114.1197370000,22.5021250000 114.1202730000,22.5018870000 114.1206820000,22.5016640000 114.1210150000,22.5015520000 114.1213320000,22.5014000000 114.1220110000,22.5010840000 114.1229130000,22.5006440000 114.1230370000,22.5005940000 114.1233150000,22.5005350000 114.1234030000,22.5005370000 114.1234920000,22.5005530000 114.1235630000,22.5005950000 114.1236170000,22.5006420000 114.1236540000,22.5006990000 114.1237040000,22.5008430000 114.1236910000,22.5008960000 114.1236250000,22.5012480000 114.1235720000,22.5014650000 114.1235290000,22.5016980000 114.1235080000,22.5018340000 114.1234730000,22.5020830000 114.1234230000,22.5027470000 114.1234120000,22.5030550000 114.1234110000,22.5031290000 114.1234120000,22.5032260000 114.1235550000,22.5032260000 114.1236710000,22.5032200000 114.1237360000,22.5032170000 114.1240510000,22.5031450000 114.1241810000,22.5030740000 114.1242790000,22.5030330000 114.1246620000,22.5028400000 114.1247900000,22.5027780000 114.1250530000,22.5026480000 114.1252170000,22.5025670000 114.1258860000,22.5022350000 114.1261400000,22.5021090000 114.1262130000,22.5020730000 114.1263660000,22.5019970000 114.1268410000,22.5017020000 114.1271080000,22.5014760000 114.1273150000,22.5013050000 114.1273400000,22.5012830000 114.1274580000,22.5011860000 114.1275030000,22.5011470000 114.1275420000,22.5011150000 114.1276760000,22.5010750000 114.1278890000,22.5008970000 114.1279640000,22.5007510000 114.1280390000,22.5006300000 114.1280700000,22.5006490000 114.1281070000,22.5006570000 114.1281440000,22.5006520000 114.1281780000,22.5006350000 114.1282020000,22.5006090000 114.1282150000,22.5005760000 114.1282150000,22.5005420000 114.1281990000,22.5005050000 114.1281700000,22.5004780000 114.1281310000,22.5004630000 114.1280880000,22.5004640000 114.1278780000,22.5001790000 114.1277730000,22.5000440000 114.1276950000,22.4999430000 114.1275550000,22.4996420000 114.1272650000,22.4985120000 114.1271580000,22.4982170000 114.1271270000,22.4980870000 114.1270920000,22.4979020000 114.1270870000,22.4977510000 114.1270860000,22.4976670000 114.1270960000,22.4975970000 114.1271010000,22.4975630000 114.1272970000,22.4972550000 114.1273370000,22.4971940000 114.1273650000,22.4971490000 114.1272760000,22.4971070000 114.1264590000,22.4967450000 114.1263400000,22.4966940000 114.1262010000,22.4966350000 114.1261260000,22.4966150000 114.1260520000,22.4965780000 114.1258880000,22.4964970000 114.1258460000,22.4964710000 114.1257600000,22.4964140000 114.1255710000,22.4962490000 114.1255000000,22.4961880000 114.1252480000,22.4959780000 114.1251220000,22.4958720000 114.1250070000,22.4957770000 114.1247950000,22.4956240000 114.1246420000,22.4955320000 114.1245470000,22.4954950000 114.1244110000,22.4954510000 114.1243650000,22.4954390000 114.1242000000,22.4953970000 114.1242480000,22.4952100000 114.1243280000,22.4949680000 114.1243790000,22.4948680000 114.1244490000,22.4947590000 114.1245420000,22.4946520000 114.1246990000,22.4945430000 114.1246560000,22.4944830000 114.1246290000,22.4944450000 114.1246100000,22.4943620000 114.1246080000,22.4941670000 114.1246080000,22.4939040000 114.1246080000,22.4934070000 114.1246010000,22.4930930000 114.1246800000,22.4930270000 114.1247520000,22.4929960000 114.1247870000,22.4929600000 114.1247860000,22.4929150000 114.1247750000,22.4928880000 114.1247400000,22.4928600000 114.1246890000,22.4928600000 114.1246580000,22.4928760000</coordinates>
                </LineString>
                <ExtendedData>
                    <Data name="length">
                        <value>97246.80133804838</value>
                    </Data>
                    <Data name="duration">
                        <value>01:41:07</value>
                    </Data>
                </ExtendedData>
            </Placemark>
        </Document>
    </Document>
</kml>