<?xml version="1.0" encoding="UTF-8"?>
<kml xmlns="http://www.opengis.net/kml/2.2" xmlns:gx="http://www.google.com/kml/ext/2.2">
    <Document>
        <name>Route</name>
        <Folder>
            <name>Route Request</name>
            <Placemark>
                <Point>
                    <coordinates>114.1202818645,22.2813672642</coordinates>
                </Point>
                <ExtendedData>
                    <Data name="routingVisited">
                        <value>false</value>
                    </Data>
                </ExtendedData>
            </Placemark>
            <Placemark>
                <Point>
                    <coordinates>114.1367277775,22.2870359966</coordinates>
                </Point>
            </Placemark>
            <Placemark>
                <Point>
                    <coordinates>114.1391178882,22.2876645574</coordinates>
                </Point>
            </Placemark>
            <Placemark>
                <Point>
                    <coordinates>114.1548341267,22.2853134911</coordinates>
                </Point>
            </Placemark>
            <Placemark>
                <Point>
                    <coordinates>114.1702702858,22.2794042058</coordinates>
                </Point>
                <ExtendedData>
                    <Data name="routingVisited">
                        <value>false</value>
                    </Data>
                </ExtendedData>
            </Placemark>
            <Placemark>
                <Point>
                    <coordinates>114.1797034127,22.2819589468</coordinates>
                </Point>
                <ExtendedData>
                    <Data name="routingVisited">
                        <value>false</value>
                    </Data>
                </ExtendedData>
            </Placemark>
            <Placemark>
                <Point>
                    <coordinates>114.1999190353,22.3242778009</coordinates>
                </Point>
                <ExtendedData>
                    <Data name="routingVisited">
                        <value>false</value>
                    </Data>
                </ExtendedData>
            </Placemark>
            <Placemark>
                <Point>
                    <coordinates>114.2084119483,22.3244723023</coordinates>
                </Point>
                <ExtendedData>
                    <Data name="routingVisited">
                        <value>false</value>
                    </Data>
                </ExtendedData>
            </Placemark>
            <Placemark>
                <Point>
                    <coordinates>114.2092915141,22.3200396753</coordinates>
                </Point>
                <ExtendedData>
                    <Data name="routingVisited">
                        <value>false</value>
                    </Data>
                </ExtendedData>
            </Placemark>
            <Placemark>
                <Point>
                    <coordinates>114.2127221494,22.3195931907</coordinates>
                </Point>
                <ExtendedData>
                    <Data name="routingVisited">
                        <value>false</value>
                    </Data>
                </ExtendedData>
            </Placemark>
            <Placemark>
                <Point>
                    <coordinates>114.2244413870,22.3144541447</coordinates>
                </Point>
                <ExtendedData>
                    <Data name="routingVisited">
                        <value>false</value>
                    </Data>
                </ExtendedData>
            </Placemark>
            <Placemark>
                <Point>
                    <coordinates>114.2128845827,22.3194292659</coordinates>
                </Point>
                <ExtendedData>
                    <Data name="routingVisited">
                        <value>false</value>
                    </Data>
                </ExtendedData>
            </Placemark>
            <Placemark>
                <Point>
                    <coordinates>114.2087974738,22.3227974899</coordinates>
                </Point>
                <ExtendedData>
                    <Data name="routingVisited">
                        <value>false</value>
                    </Data>
                </ExtendedData>
            </Placemark>
            <Placemark>
                <Point>
                    <coordinates>114.1939535473,22.3241960218</coordinates>
                </Point>
                <ExtendedData>
                    <Data name="routingVisited">
                        <value>false</value>
                    </Data>
                </ExtendedData>
            </Placemark>
            <Placemark>
                <Point>
                    <coordinates>114.1812199220,22.2815302746</coordinates>
                </Point>
                <ExtendedData>
                    <Data name="routingVisited">
                        <value>false</value>
                    </Data>
                </ExtendedData>
            </Placemark>
            <Placemark>
                <Point>
                    <coordinates>114.1656698170,22.2779870079</coordinates>
                </Point>
            </Placemark>
            <Placemark>
                <Point>
                    <coordinates>114.1507242585,22.2860678684</coordinates>
                </Point>
                <ExtendedData>
                    <Data name="routingVisited">
                        <value>false</value>
                    </Data>
                </ExtendedData>
            </Placemark>
            <Placemark>
                <Point>
                    <coordinates>114.1375677487,22.2870498267</coordinates>
                </Point>
            </Placemark>
            <Placemark>
                <Point>
                    <coordinates>114.1202818643,22.2813809245</coordinates>
                </Point>
                <ExtendedData>
                    <Data name="routingVisited">
                        <value>false</value>
                    </Data>
                </ExtendedData>
            </Placemark>
        </Folder>
        <Document>
            <name>34.9 km; 01:56 h (OSRM)</name>
            <Placemark>
                <name>Route</name>
                <LineString>
                    <coordinates>114.1202720000,22.2813980000 114.1205010000,22.2814620000 114.1221950000,22.2820160000 114.1223280000,22.2820600000 114.1229080000,22.2822540000 114.1230000000,22.2822880000 114.1230430000,22.2822970000 114.1230940000,22.2822990000 114.1231340000,22.2822910000 114.1231660000,22.2822710000 114.1231910000,22.2822440000 114.1232120000,22.2822090000 114.1232200000,22.2821800000 114.1232720000,22.2820140000 114.1233230000,22.2818510000 114.1240670000,22.2819750000 114.1247530000,22.2820890000 114.1252720000,22.2821650000 114.1254140000,22.2821880000 114.1259310000,22.2822710000 114.1260040000,22.2823340000 114.1260410000,22.2823870000 114.1260500000,22.2824220000 114.1260390000,22.2824880000 114.1259600000,22.2829120000 114.1260530000,22.2829260000 114.1266020000,22.2830130000 114.1267550000,22.2830360000 114.1279580000,22.2832430000 114.1280680000,22.2832620000 114.1281710000,22.2832800000 114.1288560000,22.2834000000 114.1289500000,22.2834170000 114.1290470000,22.2834340000 114.1291620000,22.2834570000 114.1292700000,22.2834960000 114.1293440000,22.2835380000 114.1295210000,22.2836750000 114.1296260000,22.2837670000 114.1296960000,22.2838220000 114.1298770000,22.2840020000 114.1301390000,22.2842060000 114.1302700000,22.2843090000 114.1305640000,22.2845420000 114.1306840000,22.2846360000 114.1309380000,22.2848510000 114.1313160000,22.2851690000 114.1313840000,22.2852390000 114.1314380000,22.2853000000 114.1315330000,22.2853990000 114.1316110000,22.2854880000 114.1316670000,22.2855770000 114.1318710000,22.2859360000 114.1321210000,22.2863660000 114.1322440000,22.2865890000 114.1323250000,22.2867290000 114.1323940000,22.2868440000 114.1324620000,22.2869550000 114.1325370000,22.2870630000 114.1326120000,22.2871700000 114.1326910000,22.2872350000 114.1327570000,22.2872770000 114.1328550000,22.2873220000 114.1329290000,22.2873470000 114.1330150000,22.2873640000 114.1330930000,22.2873720000 114.1331940000,22.2873750000 114.1333400000,22.2873700000 114.1336320000,22.2873130000 114.1339960000,22.2872360000 114.1341860000,22.2871940000 114.1347730000,22.2870470000 114.1350500000,22.2869780000 114.1351720000,22.2869440000 114.1352490000,22.2869220000 114.1353270000,22.2869050000 114.1354550000,22.2868740000 114.1357050000,22.2868150000 114.1359970000,22.2867550000 114.1360770000,22.2867370000 114.1361140000,22.2867360000 114.1361580000,22.2867440000 114.1365110000,22.2868510000 114.1365640000,22.2868660000 114.1367650000,22.2869220000 114.1369880000,22.2869850000 114.1374180000,22.2871050000 114.1375140000,22.2871310000 114.1376110000,22.2871570000 114.1382790000,22.2873430000 114.1384740000,22.2873970000 114.1387390000,22.2874670000 114.1388050000,22.2874850000 114.1391460000,22.2875680000 114.1394180000,22.2876350000 114.1404230000,22.2879110000 114.1407670000,22.2880040000 114.1408140000,22.2880090000 114.1408600000,22.2880110000 114.1409040000,22.2880110000 114.1412910000,22.2879880000 114.1415200000,22.2879830000 114.1419160000,22.2879680000 114.1423240000,22.2879490000 114.1423960000,22.2879450000 114.1427060000,22.2879360000 114.1430590000,22.2879290000 114.1434110000,22.2879260000 114.1437190000,22.2879130000 114.1438080000,22.2879090000 114.1438990000,22.2879070000 114.1441330000,22.2879000000 114.1444160000,22.2878900000 114.1448280000,22.2878810000 114.1448810000,22.2878800000 114.1453890000,22.2878540000 114.1458810000,22.2878180000 114.1460050000,22.2878000000 114.1466000000,22.2877530000 114.1470370000,22.2877160000 114.1471310000,22.2877090000 114.1472090000,22.2877060000 114.1472380000,22.2877060000 114.1472730000,22.2877180000 114.1475040000,22.2878610000 114.1478880000,22.2881430000 114.1479480000,22.2881860000 114.1479890000,22.2882190000 114.1480730000,22.2883040000 114.1480920000,22.2883550000 114.1481230000,22.2884670000 114.1494660000,22.2881150000 114.1500720000,22.2879630000 114.1502400000,22.2879200000 114.1505910000,22.2878290000 114.1512740000,22.2876330000 114.1516730000,22.2875220000 114.1519760000,22.2874370000 114.1523630000,22.2873270000 114.1532200000,22.2870900000 114.1534500000,22.2870450000 114.1534850000,22.2870040000 114.1534980000,22.2869160000 114.1534870000,22.2868010000 114.1533460000,22.2863310000 114.1533240000,22.2862600000 114.1534090000,22.2862090000 114.1537570000,22.2859970000 114.1540420000,22.2858310000 114.1540560000,22.2858220000 114.1542790000,22.2856890000 114.1547670000,22.2853940000 114.1547860000,22.2853820000 114.1548530000,22.2853380000 114.1553380000,22.2850240000 114.1553820000,22.2849920000 114.1554330000,22.2849450000 114.1554830000,22.2848920000 114.1557360000,22.2845910000 114.1557580000,22.2845660000 114.1558500000,22.2844620000 114.1559640000,22.2843230000 114.1560740000,22.2841920000 114.1560890000,22.2841750000 114.1565060000,22.2836490000 114.1565220000,22.2836290000 114.1565400000,22.2836080000 114.1568100000,22.2832750000 114.1569270000,22.2831320000 114.1570980000,22.2829220000 114.1574890000,22.2824530000 114.1578280000,22.2820330000 114.1578580000,22.2819830000 114.1587160000,22.2809570000 114.1587580000,22.2809250000 114.1588590000,22.2808930000 114.1594120000,22.2807570000 114.1596270000,22.2806990000 114.1597310000,22.2806690000 114.1599390000,22.2806080000 114.1600500000,22.2805770000 114.1602950000,22.2805090000 114.1603300000,22.2804940000 114.1603810000,22.2804660000 114.1604260000,22.2804280000 114.1604780000,22.2803760000 114.1605220000,22.2803210000 114.1605580000,22.2802570000 114.1606550000,22.2801100000 114.1606840000,22.2800700000 114.1607140000,22.2800370000 114.1607890000,22.2799940000 114.1608620000,22.2799790000 114.1610910000,22.2799590000 114.1612920000,22.2799320000 114.1614310000,22.2799150000 114.1616570000,22.2798680000 114.1616660000,22.2798660000 114.1618400000,22.2798280000 114.1620440000,22.2797580000 114.1624290000,22.2796070000 114.1626650000,22.2795000000 114.1627940000,22.2794240000 114.1630800000,22.2792270000 114.1632720000,22.2790910000 114.1634180000,22.2789860000 114.1637830000,22.2787610000 114.1638870000,22.2787080000 114.1641010000,22.2785860000 114.1642450000,22.2785260000 114.1642840000,22.2785100000 114.1644630000,22.2784390000 114.1645500000,22.2784100000 114.1646820000,22.2783710000 114.1648740000,22.2783200000 114.1650010000,22.2782960000 114.1650590000,22.2782850000 114.1650790000,22.2782820000 114.1654120000,22.2782340000 114.1656050000,22.2782090000 114.1659390000,22.2781650000 114.1663350000,22.2781170000 114.1669630000,22.2780500000 114.1672900000,22.2780030000 114.1677620000,22.2779520000 114.1679990000,22.2779290000 114.1684570000,22.2778850000 114.1685170000,22.2780440000 114.1686570000,22.2783620000 114.1686910000,22.2784420000 114.1687020000,22.2784640000 114.1687080000,22.2784780000 114.1687990000,22.2786690000 114.1690640000,22.2791800000 114.1691320000,22.2792790000 114.1692040000,22.2793370000 114.1692730000,22.2793910000 114.1693580000,22.2794290000 114.1694730000,22.2794400000 114.1695480000,22.2794420000 114.1696450000,22.2794450000 114.1698220000,22.2794390000 114.1702700000,22.2794040000 114.1703530000,22.2793980000 114.1707000000,22.2793700000 114.1716500000,22.2793300000 114.1718200000,22.2793200000 114.1720500000,22.2793150000 114.1722800000,22.2793200000 114.1727000000,22.2793500000 114.1728090000,22.2793610000 114.1729700000,22.2793770000 114.1730000000,22.2793800000 114.1733400000,22.2794140000 114.1737200000,22.2794400000 114.1740500000,22.2795300000 114.1741870000,22.2795800000 114.1742560000,22.2796300000 114.1743100000,22.2797000000 114.1743390000,22.2797600000 114.1743620000,22.2798500000 114.1743170000,22.2806790000 114.1742980000,22.2808020000 114.1742710000,22.2811470000 114.1742840000,22.2811870000 114.1743070000,22.2812310000 114.1743600000,22.2813140000 114.1745700000,22.2815400000 114.1746120000,22.2816200000 114.1746400000,22.2817200000 114.1746540000,22.2819380000 114.1746400000,22.2821100000 114.1748000000,22.2820900000 114.1750100000,22.2820770000 114.1755400000,22.2820580000 114.1756000000,22.2820590000 114.1756500000,22.2820630000 114.1761530000,22.2821070000 114.1772000000,22.2822000000 114.1773990000,22.2822220000 114.1775500000,22.2822550000 114.1777960000,22.2823350000 114.1780280000,22.2824140000 114.1781040000,22.2824390000 114.1782490000,22.2824870000 114.1783790000,22.2825000000 114.1785730000,22.2825640000 114.1787840000,22.2826160000 114.1790280000,22.2819440000 114.1791720000,22.2815900000 114.1791930000,22.2815660000 114.1792180000,22.2815460000 114.1792470000,22.2815320000 114.1792770000,22.2815270000 114.1793050000,22.2815280000 114.1793340000,22.2815340000 114.1793550000,22.2815510000 114.1793740000,22.2815700000 114.1794180000,22.2816160000 114.1796320000,22.2817910000 114.1797620000,22.2818950000 114.1799860000,22.2820740000 114.1801910000,22.2822440000 114.1803760000,22.2823450000 114.1808890000,22.2824350000 114.1810000000,22.2824630000 114.1818540000,22.2828140000 114.1820810000,22.2829300000 114.1823400000,22.2830600000 114.1825200000,22.2832500000 114.1826800000,22.2834390000 114.1828320000,22.2836720000 114.1829370000,22.2838430000 114.1830020000,22.2839850000 114.1830590000,22.2841840000 114.1830780000,22.2844020000 114.1830720000,22.2846470000 114.1805720000,22.2997000000 114.1805210000,22.3000220000 114.1804640000,22.3003030000 114.1804000000,22.3006310000 114.1803240000,22.3010280000 114.1802340000,22.3014170000 114.1802020000,22.3017350000 114.1801980000,22.3019790000 114.1801970000,22.3020960000 114.1802060000,22.3021790000 114.1802110000,22.3022400000 114.1802180000,22.3023130000 114.1803030000,22.3025890000 114.1804320000,22.3029150000 114.1805780000,22.3032860000 114.1807080000,22.3036310000 114.1807830000,22.3038330000 114.1809670000,22.3042120000 114.1811250000,22.3045490000 114.1813140000,22.3048960000 114.1813700000,22.3050530000 114.1814690000,22.3053110000 114.1814990000,22.3054940000 114.1815000000,22.3056370000 114.1814880000,22.3057520000 114.1814230000,22.3059500000 114.1813510000,22.3060980000 114.1812750000,22.3062120000 114.1810970000,22.3063870000 114.1807830000,22.3066640000 114.1807080000,22.3067750000 114.1805680000,22.3068760000 114.1803150000,22.3070430000 114.1801140000,22.3071900000 114.1799530000,22.3073210000 114.1798570000,22.3074430000 114.1798260000,22.3075080000 114.1798070000,22.3075880000 114.1797990000,22.3076830000 114.1798140000,22.3077690000 114.1798600000,22.3078890000 114.1798930000,22.3079590000 114.1799340000,22.3080060000 114.1800100000,22.3080650000 114.1800640000,22.3080930000 114.1801540000,22.3081380000 114.1802390000,22.3081630000 114.1803720000,22.3081740000 114.1812960000,22.3080710000 114.1814750000,22.3080600000 114.1816440000,22.3080800000 114.1818050000,22.3081040000 114.1820160000,22.3081680000 114.1822890000,22.3082480000 114.1824900000,22.3083530000 114.1826890000,22.3084680000 114.1829570000,22.3086170000 114.1830350000,22.3086680000 114.1833890000,22.3088890000 114.1835500000,22.3090090000 114.1837220000,22.3091390000 114.1840610000,22.3093750000 114.1842920000,22.3095710000 114.1846440000,22.3098620000 114.1848430000,22.3101020000 114.1850270000,22.3103080000 114.1851940000,22.3105000000 114.1853210000,22.3107000000 114.1855100000,22.3110770000 114.1856120000,22.3112670000 114.1858460000,22.3116650000 114.1864460000,22.3125870000 114.1869120000,22.3132940000 114.1871140000,22.3136370000 114.1872850000,22.3139830000 114.1873880000,22.3142520000 114.1874090000,22.3143570000 114.1874960000,22.3147390000 114.1875290000,22.3149670000 114.1875980000,22.3154840000 114.1876920000,22.3157920000 114.1877950000,22.3160700000 114.1879290000,22.3163580000 114.1880850000,22.3166760000 114.1884450000,22.3173990000 114.1890040000,22.3185130000 114.1892960000,22.3190600000 114.1894340000,22.3192680000 114.1897490000,22.3196770000 114.1897970000,22.3197430000 114.1899530000,22.3199520000 114.1900440000,22.3201020000 114.1901690000,22.3203390000 114.1902970000,22.3206390000 114.1903860000,22.3209010000 114.1904940000,22.3212370000 114.1905980000,22.3216250000 114.1906400000,22.3217910000 114.1913460000,22.3232190000 114.1915650000,22.3236020000 114.1917140000,22.3237870000 114.1923230000,22.3241530000 114.1926970000,22.3242800000 114.1929850000,22.3243250000 114.1999160000,22.3241750000 114.2008180000,22.3241560000 114.2013020000,22.3241000000 114.2014750000,22.3240740000 114.2017450000,22.3240900000 114.2019350000,22.3241280000 114.2021000000,22.3241760000 114.2023030000,22.3242550000 114.2024930000,22.3243470000 114.2026900000,22.3245280000 114.2028800000,22.3246810000 114.2030730000,22.3247950000 114.2032700000,22.3249020000 114.2034940000,22.3250080000 114.2036920000,22.3250580000 114.2038480000,22.3250700000 114.2040360000,22.3251090000 114.2043940000,22.3251590000 114.2045870000,22.3251810000 114.2056680000,22.3252740000 114.2058100000,22.3252890000 114.2059780000,22.3253090000 114.2059890000,22.3251890000 114.2060160000,22.3250050000 114.2060380000,22.3247470000 114.2060810000,22.3242680000 114.2074510000,22.3243840000 114.2081070000,22.3244430000 114.2084130000,22.3244660000 114.2087420000,22.3244910000 114.2088720000,22.3233080000 114.2089370000,22.3225900000 114.2090170000,22.3217140000 114.2090240000,22.3216420000 114.2090370000,22.3214780000 114.2090700000,22.3211240000 114.2091000000,22.3208050000 114.2091320000,22.3204440000 114.2091400000,22.3203850000 114.2091770000,22.3200300000 114.2092320000,22.3195110000 114.2092840000,22.3194300000 114.2093000000,22.3193230000 114.2098820000,22.3193730000 114.2099130000,22.3193750000 114.2102930000,22.3193560000 114.2117640000,22.3194570000 114.2127280000,22.3195210000 114.2129550000,22.3195360000 114.2136940000,22.3196010000 114.2144140000,22.3196610000 114.2146950000,22.3196570000 114.2148400000,22.3196370000 114.2149310000,22.3196120000 114.2150360000,22.3195720000 114.2151560000,22.3195110000 114.2152700000,22.3194260000 114.2153340000,22.3193270000 114.2154320000,22.3191630000 114.2156120000,22.3187430000 114.2156840000,22.3186270000 114.2157900000,22.3185100000 114.2163010000,22.3180380000 114.2165630000,22.3178380000 114.2165930000,22.3178110000 114.2169400000,22.3175480000 114.2170240000,22.3174840000 114.2171170000,22.3174180000 114.2172030000,22.3173490000 114.2173140000,22.3172740000 114.2176620000,22.3170390000 114.2178820000,22.3168840000 114.2184600000,22.3164540000 114.2186300000,22.3163320000 114.2187340000,22.3162350000 114.2189050000,22.3161380000 114.2189630000,22.3160920000 114.2190290000,22.3160320000 114.2193310000,22.3157940000 114.2195600000,22.3156100000 114.2196840000,22.3155250000 114.2198020000,22.3154420000 114.2198740000,22.3153900000 114.2199600000,22.3153290000 114.2200990000,22.3152300000 114.2205110000,22.3149660000 114.2206130000,22.3149110000 114.2208180000,22.3148000000 114.2209170000,22.3147670000 114.2210010000,22.3147610000 114.2212250000,22.3148020000 114.2216420000,22.3149030000 114.2217840000,22.3149280000 114.2218730000,22.3149330000 114.2220210000,22.3149300000 114.2221590000,22.3149110000 114.2223360000,22.3148550000 114.2224580000,22.3148060000 114.2230220000,22.3145750000 114.2231340000,22.3145300000 114.2233050000,22.3144590000 114.2235670000,22.3143550000 114.2236200000,22.3143350000 114.2236770000,22.3144540000 114.2237170000,22.3145360000 114.2237410000,22.3146350000 114.2237340000,22.3147290000 114.2238170000,22.3148020000 114.2239110000,22.3148530000 114.2242340000,22.3149270000 114.2243120000,22.3149450000 114.2252300000,22.3151510000 114.2253600000,22.3151800000 114.2254760000,22.3151550000 114.2256000000,22.3151100000 114.2256800000,22.3150600000 114.2257400000,22.3150100000 114.2257330000,22.3148900000 114.2257420000,22.3147060000 114.2257870000,22.3145120000 114.2260820000,22.3138880000 114.2260620000,22.3137950000 114.2260510000,22.3137620000 114.2260160000,22.3137070000 114.2259560000,22.3136310000 114.2258930000,22.3136180000 114.2258270000,22.3135940000 114.2257700000,22.3135670000 114.2257360000,22.3135340000 114.2256630000,22.3133960000 114.2256460000,22.3133600000 114.2255440000,22.3133570000 114.2254460000,22.3133710000 114.2251090000,22.3135010000 114.2245180000,22.3137310000 114.2244090000,22.3137700000 114.2237050000,22.3140210000 114.2236730000,22.3140790000 114.2236330000,22.3141620000 114.2235970000,22.3142760000 114.2236200000,22.3143350000 114.2235670000,22.3143550000 114.2233050000,22.3144590000 114.2231340000,22.3145300000 114.2230220000,22.3145750000 114.2224580000,22.3148060000 114.2223360000,22.3148550000 114.2221590000,22.3149110000 114.2220210000,22.3149300000 114.2218730000,22.3149330000 114.2217840000,22.3149280000 114.2216420000,22.3149030000 114.2212250000,22.3148020000 114.2210010000,22.3147610000 114.2209170000,22.3147670000 114.2208180000,22.3148000000 114.2206130000,22.3149110000 114.2205110000,22.3149660000 114.2200990000,22.3152300000 114.2199600000,22.3153290000 114.2198740000,22.3153900000 114.2198020000,22.3154420000 114.2196840000,22.3155250000 114.2195600000,22.3156100000 114.2193710000,22.3156750000 114.2192810000,22.3157340000 114.2189590000,22.3159740000 114.2188940000,22.3160270000 114.2188370000,22.3160880000 114.2187340000,22.3162350000 114.2186300000,22.3163320000 114.2184600000,22.3164540000 114.2178820000,22.3168840000 114.2176620000,22.3170390000 114.2173140000,22.3172740000 114.2172030000,22.3173490000 114.2171170000,22.3174180000 114.2170240000,22.3174840000 114.2169400000,22.3175480000 114.2165930000,22.3178110000 114.2165630000,22.3178380000 114.2163010000,22.3180380000 114.2157900000,22.3185100000 114.2156840000,22.3186270000 114.2156120000,22.3187430000 114.2154320000,22.3191630000 114.2153340000,22.3193270000 114.2152700000,22.3194260000 114.2151560000,22.3195110000 114.2150360000,22.3195720000 114.2149310000,22.3196120000 114.2148400000,22.3196370000 114.2146950000,22.3196570000 114.2144140000,22.3196610000 114.2136940000,22.3196010000 114.2129550000,22.3195360000 114.2128770000,22.3195310000 114.2117640000,22.3194570000 114.2102930000,22.3193560000 114.2099230000,22.3192930000 114.2093060000,22.3192480000 114.2092050000,22.3192380000 114.2092030000,22.3193080000 114.2091980000,22.3194220000 114.2092320000,22.3195110000 114.2091400000,22.3203850000 114.2091320000,22.3204440000 114.2091000000,22.3208050000 114.2090700000,22.3211240000 114.2090370000,22.3214780000 114.2090240000,22.3216420000 114.2090170000,22.3217140000 114.2089370000,22.3225900000 114.2089170000,22.3228060000 114.2088720000,22.3233080000 114.2087420000,22.3244910000 114.2086800000,22.3249970000 114.2086070000,22.3251360000 114.2085350000,22.3252330000 114.2084240000,22.3253140000 114.2081890000,22.3253810000 114.2073730000,22.3253100000 114.2072950000,22.3253040000 114.2069760000,22.3252770000 114.2064110000,22.3252240000 114.2061950000,22.3252060000 114.2061380000,22.3252010000 114.2059890000,22.3251890000 114.2058090000,22.3251740000 114.2055840000,22.3251550000 114.2046620000,22.3250800000 114.2044260000,22.3250510000 114.2042130000,22.3250280000 114.2039230000,22.3249840000 114.2038320000,22.3249650000 114.2035270000,22.3248630000 114.2032740000,22.3247330000 114.2030120000,22.3245430000 114.2027900000,22.3243560000 114.2026020000,22.3241410000 114.2024850000,22.3239790000 114.2023830000,22.3238350000 114.2022490000,22.3235660000 114.2021920000,22.3234030000 114.2021800000,22.3232770000 114.2021980000,22.3231410000 114.2022340000,22.3230260000 114.2023270000,22.3229330000 114.2024370000,22.3228860000 114.2025620000,22.3228900000 114.2026990000,22.3229270000 114.2027990000,22.3230170000 114.2028380000,22.3231220000 114.2028430000,22.3231870000 114.2028270000,22.3232530000 114.2027690000,22.3233580000 114.2025740000,22.3235500000 114.2024370000,22.3236290000 114.2019620000,22.3238830000 114.2017220000,22.3239550000 114.2012960000,22.3239940000 114.2008220000,22.3240460000 114.1981480000,22.3240740000 114.1969720000,22.3240900000 114.1939540000,22.3241830000 114.1931910000,22.3242060000 114.1929760000,22.3241900000 114.1927100000,22.3241580000 114.1924060000,22.3240540000 114.1919930000,22.3238190000 114.1917780000,22.3236810000 114.1916420000,22.3235340000 114.1914650000,22.3232640000 114.1907280000,22.3216760000 114.1905840000,22.3212230000 114.1905240000,22.3208810000 114.1904130000,22.3206330000 114.1902650000,22.3203170000 114.1900180000,22.3198510000 114.1898290000,22.3196180000 114.1894950000,22.3192170000 114.1894510000,22.3191440000 114.1893820000,22.3190290000 114.1890970000,22.3184720000 114.1885390000,22.3173350000 114.1881770000,22.3166530000 114.1878860000,22.3160490000 114.1877600000,22.3157030000 114.1876730000,22.3152820000 114.1876220000,22.3148870000 114.1875320000,22.3144250000 114.1874770000,22.3142420000 114.1873700000,22.3139670000 114.1872050000,22.3136140000 114.1869820000,22.3132560000 114.1865170000,22.3125510000 114.1859350000,22.3116340000 114.1856890000,22.3112360000 114.1855940000,22.3110420000 114.1853860000,22.3106430000 114.1852690000,22.3104540000 114.1851290000,22.3102730000 114.1849290000,22.3100300000 114.1847720000,22.3098340000 114.1846190000,22.3096540000 114.1842530000,22.3093200000 114.1841090000,22.3091960000 114.1839610000,22.3090840000 114.1837310000,22.3089390000 114.1834600000,22.3087840000 114.1832890000,22.3086810000 114.1830820000,22.3085590000 114.1828020000,22.3083920000 114.1824680000,22.3081960000 114.1821720000,22.3080070000 114.1818010000,22.3077720000 114.1815380000,22.3075950000 114.1812350000,22.3073110000 114.1811670000,22.3071420000 114.1811640000,22.3070220000 114.1811770000,22.3068800000 114.1812680000,22.3066990000 114.1812970000,22.3066260000 114.1813690000,22.3065070000 114.1814540000,22.3063540000 114.1815080000,22.3062420000 114.1815550000,22.3061080000 114.1815520000,22.3060040000 114.1815850000,22.3059030000 114.1816100000,22.3057230000 114.1816010000,22.3054770000 114.1815710000,22.3052910000 114.1814910000,22.3050070000 114.1813700000,22.3046780000 114.1812190000,22.3043060000 114.1810620000,22.3039610000 114.1808730000,22.3035850000 114.1807300000,22.3032420000 114.1806030000,22.3028740000 114.1804960000,22.3025370000 114.1804530000,22.3023080000 114.1804390000,22.3022200000 114.1804280000,22.3021570000 114.1804240000,22.3021280000 114.1804100000,22.3019510000 114.1804000000,22.3016830000 114.1804260000,22.3014080000 114.1804500000,22.3012290000 114.1804770000,22.3009960000 114.1805280000,22.3006710000 114.1805930000,22.3003530000 114.1806470000,22.3000300000 114.1806970000,22.2997190000 114.1831870000,22.2846590000 114.1831980000,22.2843750000 114.1831770000,22.2841610000 114.1831280000,22.2839770000 114.1830550000,22.2838110000 114.1829470000,22.2836110000 114.1827730000,22.2833600000 114.1825870000,22.2831320000 114.1823200000,22.2828800000 114.1820400000,22.2826100000 114.1817800000,22.2823800000 114.1817000000,22.2822880000 114.1816000000,22.2821500000 114.1815100000,22.2820000000 114.1814280000,22.2818600000 114.1813000000,22.2816600000 114.1812300000,22.2815800000 114.1812000000,22.2815500000 114.1811980000,22.2815480000 114.1810600000,22.2813980000 114.1809320000,22.2813010000 114.1808640000,22.2812600000 114.1807360000,22.2811980000 114.1804020000,22.2810790000 114.1802810000,22.2810430000 114.1800060000,22.2809560000 114.1796240000,22.2807990000 114.1794320000,22.2806980000 114.1792820000,22.2806010000 114.1790410000,22.2804470000 114.1789260000,22.2803710000 114.1788080000,22.2803080000 114.1781560000,22.2800390000 114.1775020000,22.2798500000 114.1766900000,22.2796290000 114.1764300000,22.2795800000 114.1762000000,22.2795500000 114.1757270000,22.2795020000 114.1753140000,22.2794600000 114.1752560000,22.2794540000 114.1751850000,22.2794470000 114.1751180000,22.2794400000 114.1750570000,22.2794340000 114.1732500000,22.2792500000 114.1730000000,22.2791200000 114.1728560000,22.2791080000 114.1722290000,22.2790560000 114.1721000000,22.2790450000 114.1720300000,22.2790430000 114.1717760000,22.2790550000 114.1707800000,22.2791150000 114.1705040000,22.2791470000 114.1704620000,22.2787130000 114.1704030000,22.2782610000 114.1703950000,22.2781890000 114.1703600000,22.2778020000 114.1703510000,22.2777000000 114.1703370000,22.2775770000 114.1700670000,22.2776010000 114.1697600000,22.2776230000 114.1694230000,22.2776460000 114.1692940000,22.2776560000 114.1689470000,22.2776900000 114.1685170000,22.2777230000 114.1679660000,22.2777750000 114.1678770000,22.2777850000 114.1674650000,22.2778260000 114.1673240000,22.2778430000 114.1663690000,22.2779390000 114.1659210000,22.2779930000 114.1657880000,22.2780080000 114.1656750000,22.2780230000 114.1654950000,22.2780460000 114.1654670000,22.2780500000 114.1654250000,22.2780560000 114.1649730000,22.2781170000 114.1646860000,22.2781740000 114.1644950000,22.2782280000 114.1643070000,22.2782990000 114.1640380000,22.2784180000 114.1637310000,22.2785700000 114.1635030000,22.2787030000 114.1634530000,22.2787390000 114.1629360000,22.2791040000 114.1627880000,22.2791980000 114.1627250000,22.2792410000 114.1626100000,22.2793160000 114.1625700000,22.2793420000 114.1624630000,22.2793960000 114.1624150000,22.2794190000 114.1622890000,22.2794780000 114.1620130000,22.2795920000 114.1618520000,22.2796470000 114.1615670000,22.2797490000 114.1615240000,22.2797580000 114.1613930000,22.2797870000 114.1613130000,22.2798000000 114.1610710000,22.2798410000 114.1608870000,22.2798740000 114.1607940000,22.2799100000 114.1607310000,22.2799330000 114.1606210000,22.2799560000 114.1604820000,22.2799670000 114.1603650000,22.2799660000 114.1602120000,22.2799520000 114.1598660000,22.2799050000 114.1597630000,22.2798900000 114.1596450000,22.2798730000 114.1595200000,22.2798580000 114.1594570000,22.2798600000 114.1593770000,22.2798690000 114.1592960000,22.2798860000 114.1591330000,22.2799230000 114.1582220000,22.2801520000 114.1581400000,22.2801730000 114.1580420000,22.2802080000 114.1579420000,22.2802500000 114.1578840000,22.2802860000 114.1578160000,22.2803390000 114.1577610000,22.2803840000 114.1575890000,22.2805640000 114.1572560000,22.2809390000 114.1568770000,22.2813870000 114.1567690000,22.2815040000 114.1565180000,22.2817800000 114.1564890000,22.2818170000 114.1564730000,22.2818380000 114.1561600000,22.2822320000 114.1560470000,22.2823640000 114.1559330000,22.2825010000 114.1557920000,22.2826820000 114.1554980000,22.2830780000 114.1553400000,22.2832680000 114.1551300000,22.2835100000 114.1549400000,22.2836500000 114.1548960000,22.2836820000 114.1547330000,22.2838040000 114.1546650000,22.2838550000 114.1545130000,22.2839720000 114.1541970000,22.2841820000 114.1540630000,22.2842790000 114.1540250000,22.2843050000 114.1538510000,22.2844390000 114.1536380000,22.2846230000 114.1533510000,22.2848580000 114.1530930000,22.2850640000 114.1528410000,22.2852620000 114.1528190000,22.2852710000 114.1526290000,22.2853880000 114.1523930000,22.2855070000 114.1522760000,22.2855830000 114.1521270000,22.2856720000 114.1518950000,22.2857550000 114.1518150000,22.2857760000 114.1511260000,22.2859630000 114.1508220000,22.2860520000 114.1507320000,22.2860860000 114.1506650000,22.2861120000 114.1502810000,22.2863050000 114.1500430000,22.2864310000 114.1496500000,22.2866230000 114.1492270000,22.2864590000 114.1475620000,22.2878060000 114.1472790000,22.2876130000 114.1472300000,22.2875980000 114.1468880000,22.2876330000 114.1458760000,22.2877340000 114.1453900000,22.2877730000 114.1448780000,22.2878020000 114.1444120000,22.2878120000 114.1441290000,22.2878200000 114.1438010000,22.2878300000 114.1434090000,22.2878370000 114.1430590000,22.2878460000 114.1427020000,22.2878590000 114.1423930000,22.2878690000 114.1419120000,22.2878880000 114.1415150000,22.2879050000 114.1412880000,22.2879130000 114.1408560000,22.2879360000 114.1407870000,22.2879290000 114.1403010000,22.2877970000 114.1394410000,22.2875640000 114.1388310000,22.2874000000 114.1387760000,22.2873850000 114.1385040000,22.2873090000 114.1376370000,22.2870760000 114.1375640000,22.2870560000 114.1375640000,22.2870560000 114.1375370000,22.2870480000 114.1374510000,22.2870250000 114.1370100000,22.2869070000 114.1365890000,22.2867940000 114.1365330000,22.2867810000 114.1361680000,22.2866860000 114.1361170000,22.2866790000 114.1360640000,22.2866830000 114.1359830000,22.2867000000 114.1357240000,22.2867530000 114.1356140000,22.2867770000 114.1354460000,22.2868140000 114.1353320000,22.2868380000 114.1341000000,22.2871100000 114.1333310000,22.2873020000 114.1331980000,22.2873140000 114.1331010000,22.2873090000 114.1330370000,22.2872990000 114.1329650000,22.2872800000 114.1328960000,22.2872540000 114.1328100000,22.2872120000 114.1327520000,22.2871790000 114.1326820000,22.2871270000 114.1326090000,22.2870430000 114.1325470000,22.2869340000 114.1324280000,22.2867010000 114.1319920000,22.2858790000 114.1320820000,22.2858390000 114.1324220000,22.2856880000 114.1324860000,22.2856570000 114.1322580000,22.2851140000 114.1321200000,22.2849070000 114.1320310000,22.2848010000 114.1319760000,22.2847460000 114.1314610000,22.2843270000 114.1312440000,22.2841480000 114.1311790000,22.2840990000 114.1308910000,22.2838650000 114.1302350000,22.2833310000 114.1301260000,22.2832420000 114.1300100000,22.2831550000 114.1297400000,22.2829520000 114.1295960000,22.2828700000 114.1294460000,22.2828230000 114.1292150000,22.2827640000 114.1290990000,22.2827440000 114.1290100000,22.2827280000 114.1283010000,22.2826040000 114.1282140000,22.2825900000 114.1281260000,22.2825760000 114.1280280000,22.2825600000 114.1272510000,22.2824370000 114.1270210000,22.2824000000 114.1269070000,22.2823810000 114.1268900000,22.2823790000 114.1266380000,22.2823420000 114.1262940000,22.2822910000 114.1261840000,22.2822740000 114.1260980000,22.2822720000 114.1260710000,22.2822750000 114.1260240000,22.2822740000 114.1259310000,22.2822710000 114.1254140000,22.2821880000 114.1252720000,22.2821650000 114.1247530000,22.2820890000 114.1240670000,22.2819750000 114.1233230000,22.2818510000 114.1232720000,22.2820140000 114.1232200000,22.2821800000 114.1232120000,22.2822090000 114.1231910000,22.2822440000 114.1231660000,22.2822710000 114.1231340000,22.2822910000 114.1230940000,22.2822990000 114.1230430000,22.2822970000 114.1230000000,22.2822880000 114.1229080000,22.2822540000 114.1223280000,22.2820600000 114.1221950000,22.2820160000 114.1205010000,22.2814620000 114.1202760000,22.2813990000</coordinates>
                </LineString>
                <ExtendedData>
                    <Data name="duration">
                        <value>01:56:33</value>
                    </Data>
                    <Data name="length">
                        <value>34867.64733155534</value>
                    </Data>
                </ExtendedData>
            </Placemark>
        </Document>
    </Document>
</kml>