<?xml version="1.0" encoding="UTF-8"?>
<kml xmlns="http://www.opengis.net/kml/2.2" xmlns:gx="http://www.google.com/kml/ext/2.2">
    <Document>
        <name>Route</name>
        <Folder>
            <name>Route Request</name>
            <Placemark>
                <Point>
                    <coordinates>114.2509295089,22.2662085001</coordinates>
                </Point>
                <ExtendedData>
                    <Data name="postcode">
                        <value>SIL 739</value>
                    </Data>
                    <Data name="country_code">
                        <value>cn</value>
                    </Data>
                    <Data name="suburb">
                        <value>Siu Sai Wan</value>
                    </Data>
                    <Data name="country">
                        <value>PRC</value>
                    </Data>
                    <Data name="road">
                        <value>Siu Sai Wan Road</value>
                    </Data>
                    <Data name="county">
                        <value>Eastern District</value>
                    </Data>
                    <Data name="routingVisited">
                        <value>false</value>
                    </Data>
                    <Data name="building">
                        <value>Tower 8</value>
                    </Data>
                </ExtendedData>
            </Placemark>
            <Placemark>
                <Point>
                    <coordinates>114.2495852271,22.2626057658</coordinates>
                </Point>
                <ExtendedData>
                    <Data name="routingVisited">
                        <value>false</value>
                    </Data>
                </ExtendedData>
            </Placemark>
            <Placemark>
                <address>248, Chai Wan Road, Lok Kang Po, Chai Wan, Eastern District, Hong Kong, CWIL 176, China</address>
                <Point>
                    <coordinates>114.2380536332,22.2631902219</coordinates>
                </Point>
                <ExtendedData>
                    <Data name="neighbourhood">
                        <value>Lok Kang Po</value>
                    </Data>
                    <Data name="postcode">
                        <value>CWIL 176</value>
                    </Data>
                    <Data name="country_code">
                        <value>cn</value>
                    </Data>
                    <Data name="suburb">
                        <value>Chai Wan</value>
                    </Data>
                    <Data name="country">
                        <value>China</value>
                    </Data>
                    <Data name="road">
                        <value>Chai Wan Road</value>
                    </Data>
                    <Data name="county">
                        <value>Eastern District</value>
                    </Data>
                    <Data name="post_box">
                        <value>248</value>
                    </Data>
                </ExtendedData>
            </Placemark>
            <Placemark>
                <address>柏架電站, Chai Wan Road, Chai Wan Au, Shau Kei Wan, Eastern District, Hong Kong, SIL 767, China</address>
                <Point>
                    <coordinates>114.2310120639,22.2739711767</coordinates>
                </Point>
                <ExtendedData>
                    <Data name="neighbourhood">
                        <value>Chai Wan Au</value>
                    </Data>
                    <Data name="postcode">
                        <value>SIL 767</value>
                    </Data>
                    <Data name="country_code">
                        <value>cn</value>
                    </Data>
                    <Data name="suburb">
                        <value>Shau Kei Wan</value>
                    </Data>
                    <Data name="country">
                        <value>China</value>
                    </Data>
                    <Data name="road">
                        <value>Chai Wan Road</value>
                    </Data>
                    <Data name="county">
                        <value>Eastern District</value>
                    </Data>
                    <Data name="building">
                        <value>柏架電站</value>
                    </Data>
                </ExtendedData>
            </Placemark>
            <Placemark>
                <address>Holy Cross Path, Lei King Wan, Sai Wan Ho, Eastern District, Hong Kong, SIL 407, China</address>
                <Point>
                    <coordinates>114.2224772622,22.2813187211</coordinates>
                </Point>
                <ExtendedData>
                    <Data name="neighbourhood">
                        <value>Lei King Wan</value>
                    </Data>
                    <Data name="postcode">
                        <value>SIL 407</value>
                    </Data>
                    <Data name="country_code">
                        <value>cn</value>
                    </Data>
                    <Data name="suburb">
                        <value>Sai Wan Ho</value>
                    </Data>
                    <Data name="country">
                        <value>China</value>
                    </Data>
                    <Data name="road">
                        <value>Holy Cross Path</value>
                    </Data>
                    <Data name="county">
                        <value>Eastern District</value>
                    </Data>
                </ExtendedData>
            </Placemark>
            <Placemark>
                <address>Cross-Harbour Tunnel, Kellett Island, Wan Chai District, Hong Kong, HYSAN PLACE 12F, China</address>
                <Point>
                    <coordinates>114.1806060678,22.2970234603</coordinates>
                </Point>
                <ExtendedData>
                    <Data name="postcode">
                        <value>HYSAN PLACE 12F</value>
                    </Data>
                    <Data name="country_code">
                        <value>cn</value>
                    </Data>
                    <Data name="suburb">
                        <value>Kellett Island</value>
                    </Data>
                    <Data name="country">
                        <value>China</value>
                    </Data>
                    <Data name="road">
                        <value>Cross-Harbour Tunnel</value>
                    </Data>
                    <Data name="county">
                        <value>Wan Chai District</value>
                    </Data>
                </ExtendedData>
            </Placemark>
            <Placemark>
                <address>Whampoa Plaza, Tak On Street, Tai Wan, Hung Hom, Kowloon, Kowloon City District, Hong Kong, KINGSFIELD MANSION LEVEL B, China</address>
                <Point>
                    <coordinates>114.1911050746,22.3046821397</coordinates>
                </Point>
                <ExtendedData>
                    <Data name="neighbourhood">
                        <value>Tai Wan</value>
                    </Data>
                    <Data name="postcode">
                        <value>KINGSFIELD MANSION LEVEL B</value>
                    </Data>
                    <Data name="country_code">
                        <value>cn</value>
                    </Data>
                    <Data name="suburb">
                        <value>Hung Hom</value>
                    </Data>
                    <Data name="country">
                        <value>China</value>
                    </Data>
                    <Data name="road">
                        <value>Tak On Street</value>
                    </Data>
                    <Data name="city">
                        <value>Kowloon</value>
                    </Data>
                    <Data name="county">
                        <value>Kowloon City District</value>
                    </Data>
                    <Data name="mall">
                        <value>Whampoa Plaza</value>
                    </Data>
                </ExtendedData>
            </Placemark>
            <Placemark>
                <address>Ka Bong Lau, 1A, Fat Kwong Street, Lo Lung Hang, Hung Hom, Kowloon, Kowloon City District, Hong Kong, KIL 3348, China</address>
                <Point>
                    <coordinates>114.1874867420,22.3083317615</coordinates>
                </Point>
                <ExtendedData>
                    <Data name="neighbourhood">
                        <value>Lo Lung Hang</value>
                    </Data>
                    <Data name="postcode">
                        <value>KIL 3348</value>
                    </Data>
                    <Data name="house_number">
                        <value>1A</value>
                    </Data>
                    <Data name="country_code">
                        <value>cn</value>
                    </Data>
                    <Data name="suburb">
                        <value>Hung Hom</value>
                    </Data>
                    <Data name="country">
                        <value>China</value>
                    </Data>
                    <Data name="road">
                        <value>Fat Kwong Street</value>
                    </Data>
                    <Data name="city">
                        <value>Kowloon</value>
                    </Data>
                    <Data name="county">
                        <value>Kowloon City District</value>
                    </Data>
                    <Data name="building">
                        <value>Ka Bong Lau</value>
                    </Data>
                </ExtendedData>
            </Placemark>
            <Placemark>
                <address>East Kowloon Corridor, Lo Lung Hang, To Kwa Wan, Kowloon, Kowloon City District, Hong Kong, KIL 3348, China</address>
                <Point>
                    <coordinates>114.1874629665,22.3134071440</coordinates>
                </Point>
                <ExtendedData>
                    <Data name="neighbourhood">
                        <value>Lo Lung Hang</value>
                    </Data>
                    <Data name="postcode">
                        <value>KIL 3348</value>
                    </Data>
                    <Data name="country_code">
                        <value>cn</value>
                    </Data>
                    <Data name="suburb">
                        <value>To Kwa Wan</value>
                    </Data>
                    <Data name="country">
                        <value>China</value>
                    </Data>
                    <Data name="road">
                        <value>East Kowloon Corridor</value>
                    </Data>
                    <Data name="city">
                        <value>Kowloon</value>
                    </Data>
                    <Data name="county">
                        <value>Kowloon City District</value>
                    </Data>
                </ExtendedData>
            </Placemark>
            <Placemark>
                <address>Kowloon City Ferry, San Ma Tau Street, Ma Tau Kok, To Kwa Wan, Kowloon, Kowloon City District, Hong Kong, KIL 3348, China</address>
                <Point>
                    <coordinates>114.1937752940,22.3180696297</coordinates>
                </Point>
                <ExtendedData>
                    <Data name="bus_station">
                        <value>Kowloon City Ferry</value>
                    </Data>
                    <Data name="neighbourhood">
                        <value>Ma Tau Kok</value>
                    </Data>
                    <Data name="postcode">
                        <value>KIL 3348</value>
                    </Data>
                    <Data name="country_code">
                        <value>cn</value>
                    </Data>
                    <Data name="suburb">
                        <value>To Kwa Wan</value>
                    </Data>
                    <Data name="country">
                        <value>China</value>
                    </Data>
                    <Data name="road">
                        <value>San Ma Tau Street</value>
                    </Data>
                    <Data name="city">
                        <value>Kowloon</value>
                    </Data>
                    <Data name="county">
                        <value>Kowloon City District</value>
                    </Data>
                </ExtendedData>
            </Placemark>
            <Placemark>
                <address>Wing Lung Bank, Wuhu Street, Tai Wan, Hung Hom, Kowloon, Kowloon City District, Hong Kong, 00000, China</address>
                <Point>
                    <coordinates>114.1868819902,22.3069023229</coordinates>
                </Point>
                <ExtendedData>
                    <Data name="neighbourhood">
                        <value>Tai Wan</value>
                    </Data>
                    <Data name="postcode">
                        <value>00000</value>
                    </Data>
                    <Data name="country_code">
                        <value>cn</value>
                    </Data>
                    <Data name="suburb">
                        <value>Hung Hom</value>
                    </Data>
                    <Data name="country">
                        <value>China</value>
                    </Data>
                    <Data name="road">
                        <value>Wuhu Street</value>
                    </Data>
                    <Data name="city">
                        <value>Kowloon</value>
                    </Data>
                    <Data name="county">
                        <value>Kowloon City District</value>
                    </Data>
                    <Data name="bank">
                        <value>Wing Lung Bank</value>
                    </Data>
                </ExtendedData>
            </Placemark>
            <Placemark>
                <address>Whampoa Plaza, Tak On Street, Tai Wan, Hung Hom, Kowloon, Kowloon City District, Hong Kong, KINGSFIELD MANSION LEVEL B, China</address>
                <Point>
                    <coordinates>114.1911018155,22.3046760987</coordinates>
                </Point>
                <ExtendedData>
                    <Data name="neighbourhood">
                        <value>Tai Wan</value>
                    </Data>
                    <Data name="postcode">
                        <value>KINGSFIELD MANSION LEVEL B</value>
                    </Data>
                    <Data name="country_code">
                        <value>cn</value>
                    </Data>
                    <Data name="suburb">
                        <value>Hung Hom</value>
                    </Data>
                    <Data name="country">
                        <value>China</value>
                    </Data>
                    <Data name="road">
                        <value>Tak On Street</value>
                    </Data>
                    <Data name="city">
                        <value>Kowloon</value>
                    </Data>
                    <Data name="county">
                        <value>Kowloon City District</value>
                    </Data>
                    <Data name="mall">
                        <value>Whampoa Plaza</value>
                    </Data>
                </ExtendedData>
            </Placemark>
            <Placemark>
                <address>陽光 Sunshine Laundry, Whampoa Street, Lo Lung Hang, Hung Hom, Kowloon, Kowloon City District, Hong Kong, 00000, China</address>
                <Point>
                    <coordinates>114.1846674355,22.3066426922</coordinates>
                </Point>
                <ExtendedData>
                    <Data name="neighbourhood">
                        <value>Lo Lung Hang</value>
                    </Data>
                    <Data name="postcode">
                        <value>00000</value>
                    </Data>
                    <Data name="country_code">
                        <value>cn</value>
                    </Data>
                    <Data name="suburb">
                        <value>Hung Hom</value>
                    </Data>
                    <Data name="country">
                        <value>China</value>
                    </Data>
                    <Data name="dry_cleaning">
                        <value>陽光 Sunshine Laundry</value>
                    </Data>
                    <Data name="road">
                        <value>Whampoa Street</value>
                    </Data>
                    <Data name="city">
                        <value>Kowloon</value>
                    </Data>
                    <Data name="county">
                        <value>Kowloon City District</value>
                    </Data>
                </ExtendedData>
            </Placemark>
            <Placemark>
                <address>Cross-Harbour Tunnel, Kellett Island, Wan Chai District, Hong Kong, HYSAN PLACE 12F, China</address>
                <Point>
                    <coordinates>114.1832797869,22.2864229591</coordinates>
                </Point>
                <ExtendedData>
                    <Data name="postcode">
                        <value>HYSAN PLACE 12F</value>
                    </Data>
                    <Data name="country_code">
                        <value>cn</value>
                    </Data>
                    <Data name="suburb">
                        <value>Kellett Island</value>
                    </Data>
                    <Data name="country">
                        <value>China</value>
                    </Data>
                    <Data name="road">
                        <value>Cross-Harbour Tunnel</value>
                    </Data>
                    <Data name="county">
                        <value>Wan Chai District</value>
                    </Data>
                </ExtendedData>
            </Placemark>
            <Placemark>
                <address>Choice Car Wash, Nam On Street, Lei King Wan, Shau Kei Wan, Eastern District, Hong Kong, SIL 850, China</address>
                <Point>
                    <coordinates>114.2255496477,22.2801806600</coordinates>
                </Point>
                <ExtendedData>
                    <Data name="car_wash">
                        <value>Choice Car Wash</value>
                    </Data>
                    <Data name="neighbourhood">
                        <value>Lei King Wan</value>
                    </Data>
                    <Data name="postcode">
                        <value>SIL 850</value>
                    </Data>
                    <Data name="country_code">
                        <value>cn</value>
                    </Data>
                    <Data name="suburb">
                        <value>Shau Kei Wan</value>
                    </Data>
                    <Data name="country">
                        <value>China</value>
                    </Data>
                    <Data name="road">
                        <value>Nam On Street</value>
                    </Data>
                    <Data name="county">
                        <value>Eastern District</value>
                    </Data>
                </ExtendedData>
            </Placemark>
            <Placemark>
                <address>Block 2, Chai Wan Road, Chai Wan Au, Chai Wan, Eastern District, Hong Kong, SIL 767, China</address>
                <Point>
                    <coordinates>114.2339994740,22.2653795139</coordinates>
                </Point>
                <ExtendedData>
                    <Data name="neighbourhood">
                        <value>Chai Wan Au</value>
                    </Data>
                    <Data name="address29">
                        <value>Block 2</value>
                    </Data>
                    <Data name="postcode">
                        <value>SIL 767</value>
                    </Data>
                    <Data name="country_code">
                        <value>cn</value>
                    </Data>
                    <Data name="suburb">
                        <value>Chai Wan</value>
                    </Data>
                    <Data name="country">
                        <value>China</value>
                    </Data>
                    <Data name="road">
                        <value>Chai Wan Road</value>
                    </Data>
                    <Data name="county">
                        <value>Eastern District</value>
                    </Data>
                </ExtendedData>
            </Placemark>
            <Placemark>
                <address>Block 1, Siu Sai Wan Road, Lok Kang Po, Siu Sai Wan, Eastern District, Hong Kong, CWIL 176, China</address>
                <Point>
                    <coordinates>114.2516612390,22.2645425043</coordinates>
                </Point>
                <ExtendedData>
                    <Data name="neighbourhood">
                        <value>Lok Kang Po</value>
                    </Data>
                    <Data name="postcode">
                        <value>CWIL 176</value>
                    </Data>
                    <Data name="country_code">
                        <value>cn</value>
                    </Data>
                    <Data name="suburb">
                        <value>Siu Sai Wan</value>
                    </Data>
                    <Data name="country">
                        <value>China</value>
                    </Data>
                    <Data name="road">
                        <value>Siu Sai Wan Road</value>
                    </Data>
                    <Data name="county">
                        <value>Eastern District</value>
                    </Data>
                    <Data name="building">
                        <value>Block 1</value>
                    </Data>
                </ExtendedData>
            </Placemark>
            <Placemark>
                <address>Siu Sai Wan (Island Resort) Bus Terminus, Siu Sai Wan Road, Lok Kang Po, Siu Sai Wan, Eastern District, Hong Kong, CWIL 176, China</address>
                <Point>
                    <coordinates>114.2509147478,22.2662085003</coordinates>
                </Point>
                <ExtendedData>
                    <Data name="bus_station">
                        <value>Siu Sai Wan (Island Resort) Bus Terminus</value>
                    </Data>
                    <Data name="neighbourhood">
                        <value>Lok Kang Po</value>
                    </Data>
                    <Data name="postcode">
                        <value>CWIL 176</value>
                    </Data>
                    <Data name="country_code">
                        <value>cn</value>
                    </Data>
                    <Data name="suburb">
                        <value>Siu Sai Wan</value>
                    </Data>
                    <Data name="country">
                        <value>China</value>
                    </Data>
                    <Data name="road">
                        <value>Siu Sai Wan Road</value>
                    </Data>
                    <Data name="county">
                        <value>Eastern District</value>
                    </Data>
                </ExtendedData>
            </Placemark>
        </Folder>
        <Document>
            <name>37.1 km; 01:40 h (OSRM)</name>
            <Placemark>
                <name>Route</name>
                <LineString>
                    <coordinates>114.2509320000,22.2662110000 114.2512280000,22.2659670000 114.2511950000,22.2659310000 114.2511560000,22.2658880000 114.2511210000,22.2658510000 114.2510840000,22.2658100000 114.2510500000,22.2657730000 114.2510190000,22.2657410000 114.2509660000,22.2656830000 114.2509580000,22.2656750000 114.2509490000,22.2656700000 114.2509390000,22.2656680000 114.2509290000,22.2656670000 114.2509070000,22.2656690000 114.2508970000,22.2656710000 114.2508810000,22.2656790000 114.2508690000,22.2656860000 114.2508560000,22.2656950000 114.2508440000,22.2657050000 114.2508270000,22.2657230000 114.2508090000,22.2657420000 114.2507930000,22.2657630000 114.2507820000,22.2657850000 114.2507770000,22.2657990000 114.2507740000,22.2658140000 114.2507660000,22.2658440000 114.2507600000,22.2658590000 114.2507510000,22.2658770000 114.2507420000,22.2658910000 114.2507300000,22.2659060000 114.2507170000,22.2659170000 114.2507010000,22.2659260000 114.2506850000,22.2659340000 114.2506690000,22.2659390000 114.2506510000,22.2659430000 114.2506330000,22.2659450000 114.2506160000,22.2659450000 114.2506000000,22.2659430000 114.2505790000,22.2659320000 114.2505620000,22.2659190000 114.2505450000,22.2659040000 114.2505260000,22.2658840000 114.2504630000,22.2658080000 114.2507000000,22.2656300000 114.2510300000,22.2653900000 114.2510440000,22.2653780000 114.2513580000,22.2651160000 114.2514460000,22.2650310000 114.2514720000,22.2650060000 114.2515740000,22.2649070000 114.2516450000,22.2648310000 114.2517300000,22.2647510000 114.2518020000,22.2646640000 114.2520000000,22.2643500000 114.2520700000,22.2641700000 114.2520900000,22.2640600000 114.2520920000,22.2639300000 114.2520680000,22.2637600000 114.2520270000,22.2636050000 114.2519700000,22.2634800000 114.2518700000,22.2633400000 114.2517600000,22.2632000000 114.2516780000,22.2631020000 114.2514900000,22.2629200000 114.2513000000,22.2627600000 114.2511230000,22.2626400000 114.2510590000,22.2626010000 114.2510290000,22.2625820000 114.2509600000,22.2625400000 114.2509040000,22.2625130000 114.2507700000,22.2624500000 114.2506550000,22.2624100000 114.2505400000,22.2623800000 114.2504200000,22.2623630000 114.2503000000,22.2623600000 114.2501700000,22.2623700000 114.2500400000,22.2624000000 114.2500000000,22.2624140000 114.2499000000,22.2624500000 114.2497770000,22.2625070000 114.2496800000,22.2625700000 114.2496400000,22.2626080000 114.2496140000,22.2626320000 114.2495930000,22.2626520000 114.2495390000,22.2627160000 114.2494670000,22.2628010000 114.2494120000,22.2628820000 114.2490640000,22.2633920000 114.2488630000,22.2636760000 114.2486870000,22.2639110000 114.2486510000,22.2639590000 114.2485850000,22.2640460000 114.2485340000,22.2641040000 114.2484490000,22.2642010000 114.2482300000,22.2644500000 114.2481500000,22.2645390000 114.2479950000,22.2646900000 114.2478000000,22.2648700000 114.2477070000,22.2649460000 114.2472900000,22.2652900000 114.2471900000,22.2653600000 114.2469460000,22.2654880000 114.2469010000,22.2655150000 114.2468110000,22.2655690000 114.2467090000,22.2656150000 114.2465200000,22.2656900000 114.2463500000,22.2657400000 114.2462000000,22.2657810000 114.2460500000,22.2658200000 114.2457600000,22.2658400000 114.2456300000,22.2658450000 114.2453500000,22.2658300000 114.2450700000,22.2657900000 114.2449660000,22.2657710000 114.2447800000,22.2657380000 114.2446880000,22.2657190000 114.2445710000,22.2656960000 114.2441600000,22.2656550000 114.2441030000,22.2656560000 114.2440380000,22.2656630000 114.2432950000,22.2657930000 114.2432330000,22.2657930000 114.2430970000,22.2657930000 114.2428730000,22.2657670000 114.2426580000,22.2657150000 114.2421780000,22.2653660000 114.2417790000,22.2650770000 114.2414720000,22.2648500000 114.2409280000,22.2644360000 114.2408570000,22.2643820000 114.2407910000,22.2643320000 114.2403270000,22.2639900000 114.2399110000,22.2636740000 114.2398630000,22.2636390000 114.2396900000,22.2635130000 114.2396810000,22.2635070000 114.2396340000,22.2634760000 114.2395690000,22.2634320000 114.2393160000,22.2633140000 114.2391060000,22.2632370000 114.2389590000,22.2632160000 114.2387530000,22.2632080000 114.2384680000,22.2632120000 114.2382660000,22.2632180000 114.2381350000,22.2632220000 114.2380530000,22.2632180000 114.2379970000,22.2632160000 114.2378720000,22.2631940000 114.2378270000,22.2631850000 114.2376000000,22.2630500000 114.2375100000,22.2630400000 114.2374190000,22.2630330000 114.2373380000,22.2630430000 114.2372590000,22.2630640000 114.2372080000,22.2631000000 114.2371500000,22.2631500000 114.2371070000,22.2632200000 114.2370400000,22.2632600000 114.2369600000,22.2632900000 114.2368600000,22.2633100000 114.2362500000,22.2633490000 114.2361300000,22.2633630000 114.2360080000,22.2633880000 114.2359000000,22.2634200000 114.2357900000,22.2634600000 114.2357000000,22.2634980000 114.2356130000,22.2635390000 114.2355210000,22.2635900000 114.2354480000,22.2636370000 114.2353480000,22.2637080000 114.2350070000,22.2639710000 114.2348820000,22.2640680000 114.2346700000,22.2642320000 114.2343610000,22.2644700000 114.2343330000,22.2644910000 114.2342250000,22.2645750000 114.2340500000,22.2647300000 114.2338800000,22.2649000000 114.2337970000,22.2650270000 114.2337200000,22.2651800000 114.2336820000,22.2652800000 114.2336600000,22.2653700000 114.2336380000,22.2655800000 114.2334800000,22.2676540000 114.2334650000,22.2678440000 114.2334570000,22.2680020000 114.2334500000,22.2681500000 114.2334500000,22.2683000000 114.2335170000,22.2687950000 114.2335300000,22.2688900000 114.2335460000,22.2689920000 114.2335500000,22.2690200000 114.2336100000,22.2694600000 114.2336500000,22.2699300000 114.2336350000,22.2700560000 114.2336290000,22.2701110000 114.2335400000,22.2704700000 114.2335000000,22.2706100000 114.2334670000,22.2707050000 114.2334140000,22.2708060000 114.2333960000,22.2708320000 114.2333120000,22.2709560000 114.2332380000,22.2710840000 114.2332020000,22.2711530000 114.2331440000,22.2712760000 114.2329440000,22.2718200000 114.2327860000,22.2722650000 114.2327280000,22.2724120000 114.2326410000,22.2726370000 114.2325410000,22.2728520000 114.2323310000,22.2730990000 114.2322800000,22.2731420000 114.2322180000,22.2731940000 114.2321620000,22.2732320000 114.2321270000,22.2732590000 114.2319980000,22.2733580000 114.2316410000,22.2736120000 114.2314380000,22.2737820000 114.2313150000,22.2739040000 114.2312060000,22.2740490000 114.2311970000,22.2740640000 114.2311190000,22.2741980000 114.2310440000,22.2743600000 114.2309610000,22.2745890000 114.2309180000,22.2747290000 114.2308900000,22.2748400000 114.2308300000,22.2750840000 114.2307450000,22.2753590000 114.2307350000,22.2753930000 114.2307000000,22.2754540000 114.2306650000,22.2755010000 114.2306370000,22.2755390000 114.2305750000,22.2755930000 114.2304980000,22.2756410000 114.2304190000,22.2756700000 114.2303270000,22.2756930000 114.2301860000,22.2757220000 114.2300870000,22.2757470000 114.2299330000,22.2757980000 114.2297940000,22.2758640000 114.2296620000,22.2759370000 114.2295030000,22.2760640000 114.2294850000,22.2760770000 114.2294170000,22.2761130000 114.2293380000,22.2761540000 114.2289140000,22.2763690000 114.2284890000,22.2765800000 114.2282910000,22.2766890000 114.2282210000,22.2767230000 114.2280230000,22.2769480000 114.2279740000,22.2770040000 114.2278590000,22.2771080000 114.2274070000,22.2773480000 114.2272270000,22.2774430000 114.2271250000,22.2774970000 114.2270770000,22.2775230000 114.2270180000,22.2775680000 114.2269490000,22.2776250000 114.2269000000,22.2776730000 114.2268340000,22.2777680000 114.2267230000,22.2779530000 114.2265360000,22.2782610000 114.2264890000,22.2783410000 114.2263470000,22.2785850000 114.2261700000,22.2788810000 114.2260890000,22.2790170000 114.2257370000,22.2796000000 114.2256910000,22.2796740000 114.2255220000,22.2799460000 114.2254890000,22.2799970000 114.2254230000,22.2800730000 114.2253600000,22.2801280000 114.2253160000,22.2801600000 114.2252480000,22.2801920000 114.2251360000,22.2802230000 114.2250570000,22.2802400000 114.2246790000,22.2803080000 114.2245770000,22.2803280000 114.2243770000,22.2803690000 114.2242680000,22.2803960000 114.2239400000,22.2805220000 114.2234930000,22.2807280000 114.2233840000,22.2807780000 114.2230290000,22.2809450000 114.2229150000,22.2809990000 114.2226910000,22.2811340000 114.2225940000,22.2812080000 114.2224920000,22.2812910000 114.2224690000,22.2813110000 114.2224250000,22.2813490000 114.2223680000,22.2814100000 114.2223150000,22.2814730000 114.2221100000,22.2817370000 114.2219440000,22.2819500000 114.2219190000,22.2819810000 114.2218180000,22.2821090000 114.2217610000,22.2821820000 114.2215420000,22.2824650000 114.2211420000,22.2821940000 114.2210660000,22.2822420000 114.2207770000,22.2826090000 114.2209860000,22.2827500000 114.2211510000,22.2828620000 114.2212030000,22.2828980000 114.2212480000,22.2829300000 114.2212680000,22.2829440000 114.2213170000,22.2829780000 114.2213770000,22.2830200000 114.2218290000,22.2833290000 114.2219410000,22.2834050000 114.2219920000,22.2834400000 114.2221660000,22.2835720000 114.2222160000,22.2836120000 114.2218830000,22.2840360000 114.2217050000,22.2843040000 114.2215960000,22.2845070000 114.2215350000,22.2846450000 114.2215010000,22.2847510000 114.2214900000,22.2847830000 114.2214270000,22.2850230000 114.2214120000,22.2852520000 114.2214230000,22.2854270000 114.2213700000,22.2855360000 114.2213670000,22.2856240000 114.2213670000,22.2857330000 114.2213670000,22.2858790000 114.2213770000,22.2861640000 114.2213830000,22.2865040000 114.2213800000,22.2867150000 114.2213680000,22.2869820000 114.2213220000,22.2871970000 114.2212480000,22.2874290000 114.2211840000,22.2875360000 114.2211090000,22.2876640000 114.2210020000,22.2877990000 114.2208470000,22.2879460000 114.2206800000,22.2880740000 114.2205610000,22.2881500000 114.2201860000,22.2882970000 114.2192040000,22.2885140000 114.2183930000,22.2886590000 114.2178650000,22.2887540000 114.2175780000,22.2887990000 114.2171230000,22.2888780000 114.2163450000,22.2890210000 114.2160060000,22.2890940000 114.2157280000,22.2891530000 114.2154590000,22.2892130000 114.2149660000,22.2893430000 114.2147540000,22.2894150000 114.2142840000,22.2895810000 114.2137740000,22.2897990000 114.2132930000,22.2900340000 114.2130020000,22.2901740000 114.2112110000,22.2912520000 114.2110520000,22.2913550000 114.2102020000,22.2919430000 114.2096630000,22.2923130000 114.2094140000,22.2924730000 114.2091510000,22.2926110000 114.2088090000,22.2927710000 114.2086260000,22.2928390000 114.2066660000,22.2934180000 114.2048450000,22.2939720000 114.2044740000,22.2940720000 114.2040710000,22.2941290000 114.2036420000,22.2941610000 114.2031550000,22.2941450000 114.2025710000,22.2940510000 114.2021610000,22.2939730000 114.1999680000,22.2935100000 114.1996280000,22.2934690000 114.1992060000,22.2934470000 114.1987250000,22.2934460000 114.1983660000,22.2934260000 114.1979580000,22.2933590000 114.1975110000,22.2932730000 114.1959400000,22.2929700000 114.1958270000,22.2929420000 114.1954170000,22.2928260000 114.1952010000,22.2927610000 114.1949910000,22.2926820000 114.1948430000,22.2926160000 114.1945340000,22.2924340000 114.1942910000,22.2922790000 114.1940140000,22.2920940000 114.1938200000,22.2919420000 114.1936310000,22.2917620000 114.1934360000,22.2915500000 114.1913760000,22.2893230000 114.1906780000,22.2885800000 114.1900380000,22.2879220000 114.1899950000,22.2878760000 114.1898840000,22.2877670000 114.1897600000,22.2876110000 114.1896910000,22.2875080000 114.1896050000,22.2873530000 114.1895310000,22.2872080000 114.1894770000,22.2870600000 114.1894470000,22.2869400000 114.1894100000,22.2867400000 114.1893900000,22.2865400000 114.1893800000,22.2863000000 114.1893700000,22.2860400000 114.1893580000,22.2858800000 114.1893400000,22.2857300000 114.1893000000,22.2855400000 114.1892600000,22.2853900000 114.1892270000,22.2852900000 114.1891600000,22.2851500000 114.1890600000,22.2849900000 114.1889570000,22.2848460000 114.1888500000,22.2847300000 114.1887280000,22.2846450000 114.1884740000,22.2844880000 114.1882450000,22.2843820000 114.1878780000,22.2842520000 114.1876760000,22.2841960000 114.1875090000,22.2841560000 114.1873110000,22.2841040000 114.1871130000,22.2840510000 114.1869670000,22.2840120000 114.1866640000,22.2839420000 114.1864250000,22.2838820000 114.1863320000,22.2838520000 114.1862090000,22.2838170000 114.1860930000,22.2837730000 114.1859810000,22.2837170000 114.1858950000,22.2836560000 114.1857830000,22.2835720000 114.1855780000,22.2834100000 114.1851240000,22.2830460000 114.1846220000,22.2826700000 114.1843820000,22.2824990000 114.1840580000,22.2822790000 114.1837120000,22.2821290000 114.1836640000,22.2821110000 114.1833700000,22.2819930000 114.1829630000,22.2818350000 114.1824120000,22.2816250000 114.1822990000,22.2815810000 114.1821720000,22.2815320000 114.1819260000,22.2814400000 114.1811060000,22.2811910000 114.1800800000,22.2807690000 114.1796600000,22.2806100000 114.1795710000,22.2805850000 114.1794800000,22.2805700000 114.1794090000,22.2805690000 114.1793400000,22.2805780000 114.1792870000,22.2805900000 114.1792340000,22.2806090000 114.1791800000,22.2806400000 114.1791360000,22.2806770000 114.1790880000,22.2807300000 114.1790490000,22.2807880000 114.1790200000,22.2808500000 114.1790000000,22.2809300000 114.1790000000,22.2809950000 114.1790100000,22.2810600000 114.1790290000,22.2811240000 114.1790610000,22.2811800000 114.1791170000,22.2812470000 114.1791830000,22.2813090000 114.1792900000,22.2813700000 114.1794130000,22.2814520000 114.1795360000,22.2815310000 114.1798400000,22.2817500000 114.1799370000,22.2818150000 114.1799800000,22.2818580000 114.1800480000,22.2819160000 114.1802920000,22.2821160000 114.1804740000,22.2822300000 114.1806630000,22.2823370000 114.1810000000,22.2824630000 114.1818540000,22.2828140000 114.1820810000,22.2829300000 114.1823400000,22.2830600000 114.1825200000,22.2832500000 114.1826800000,22.2834390000 114.1828140000,22.2836450000 114.1828320000,22.2836720000 114.1829370000,22.2838430000 114.1830020000,22.2839850000 114.1830590000,22.2841840000 114.1830780000,22.2844020000 114.1830720000,22.2846470000 114.1810070000,22.2970800000 114.1806730000,22.2990920000 114.1805720000,22.2997000000 114.1805210000,22.3000220000 114.1804640000,22.3003030000 114.1804000000,22.3006310000 114.1803430000,22.3009300000 114.1803240000,22.3010280000 114.1802500000,22.3013450000 114.1801400000,22.3017910000 114.1801310000,22.3019700000 114.1801460000,22.3020750000 114.1801590000,22.3021900000 114.1801650000,22.3022500000 114.1801920000,22.3024230000 114.1802280000,22.3025700000 114.1802940000,22.3027710000 114.1803860000,22.3029630000 114.1805780000,22.3033290000 114.1806750000,22.3035430000 114.1807030000,22.3037150000 114.1807830000,22.3038330000 114.1809670000,22.3042120000 114.1811250000,22.3045490000 114.1813140000,22.3048960000 114.1813700000,22.3050530000 114.1814690000,22.3053110000 114.1814990000,22.3054940000 114.1815000000,22.3056370000 114.1814880000,22.3057520000 114.1814230000,22.3059500000 114.1813510000,22.3060980000 114.1812750000,22.3062120000 114.1810970000,22.3063870000 114.1807830000,22.3066640000 114.1807050000,22.3067710000 114.1805670000,22.3068740000 114.1803150000,22.3070430000 114.1800700000,22.3071880000 114.1799320000,22.3073020000 114.1798610000,22.3074070000 114.1798170000,22.3075080000 114.1798030000,22.3075910000 114.1797990000,22.3076830000 114.1798140000,22.3077690000 114.1798600000,22.3078890000 114.1799090000,22.3079450000 114.1799610000,22.3079930000 114.1800290000,22.3080510000 114.1800760000,22.3080860000 114.1801740000,22.3081180000 114.1802500000,22.3081350000 114.1803760000,22.3081430000 114.1812960000,22.3080710000 114.1814750000,22.3080600000 114.1816440000,22.3080800000 114.1818050000,22.3081040000 114.1820160000,22.3081680000 114.1822890000,22.3082480000 114.1824900000,22.3083530000 114.1826890000,22.3084680000 114.1829570000,22.3086170000 114.1830040000,22.3086480000 114.1830350000,22.3086680000 114.1833890000,22.3088890000 114.1835960000,22.3089610000 114.1837550000,22.3090640000 114.1840050000,22.3092750000 114.1841030000,22.3093530000 114.1843610000,22.3095130000 114.1844920000,22.3095880000 114.1846290000,22.3096250000 114.1847990000,22.3096340000 114.1849690000,22.3095910000 114.1851120000,22.3095100000 114.1852440000,22.3094010000 114.1853420000,22.3092820000 114.1854090000,22.3091650000 114.1854530000,22.3090440000 114.1854570000,22.3088780000 114.1854480000,22.3087360000 114.1854180000,22.3085710000 114.1853650000,22.3083860000 114.1853220000,22.3082980000 114.1852670000,22.3081910000 114.1851150000,22.3079220000 114.1850900000,22.3078410000 114.1854620000,22.3076090000 114.1858770000,22.3073350000 114.1859030000,22.3073180000 114.1864420000,22.3069760000 114.1864610000,22.3069640000 114.1865870000,22.3068850000 114.1866970000,22.3068150000 114.1871660000,22.3065350000 114.1877030000,22.3061920000 114.1879960000,22.3060070000 114.1880470000,22.3059720000 114.1881980000,22.3058790000 114.1882400000,22.3058530000 114.1885270000,22.3056770000 114.1886160000,22.3056160000 114.1886580000,22.3055880000 114.1887260000,22.3055500000 114.1888230000,22.3054860000 114.1888490000,22.3054680000 114.1889300000,22.3054110000 114.1890100000,22.3053550000 114.1900620000,22.3046950000 114.1902090000,22.3046080000 114.1903830000,22.3045060000 114.1905140000,22.3044210000 114.1907440000,22.3042730000 114.1910600000,22.3047100000 114.1910710000,22.3047250000 114.1911230000,22.3047980000 114.1913360000,22.3050910000 114.1918600000,22.3047670000 114.1921090000,22.3057800000 114.1922700000,22.3065320000 114.1915310000,22.3066280000 114.1913600000,22.3066520000 114.1912460000,22.3066690000 114.1910770000,22.3066930000 114.1899100000,22.3068470000 114.1895070000,22.3068920000 114.1884150000,22.3070160000 114.1883860000,22.3070200000 114.1882000000,22.3070420000 114.1875910000,22.3071100000 114.1874240000,22.3068750000 114.1871660000,22.3065350000 114.1868750000,22.3061410000 114.1864050000,22.3064340000 114.1863250000,22.3064870000 114.1863080000,22.3064980000 114.1862170000,22.3065480000 114.1859410000,22.3067270000 114.1856140000,22.3069320000 114.1859030000,22.3073180000 114.1864420000,22.3069760000 114.1864610000,22.3069640000 114.1865830000,22.3069410000 114.1866170000,22.3069410000 114.1866520000,22.3069470000 114.1866760000,22.3069610000 114.1867020000,22.3069850000 114.1868760000,22.3072000000 114.1874110000,22.3079920000 114.1874440000,22.3080410000 114.1874610000,22.3080680000 114.1875050000,22.3081370000 114.1875330000,22.3083070000 114.1875350000,22.3083290000 114.1875510000,22.3085740000 114.1875550000,22.3086590000 114.1875630000,22.3088220000 114.1875580000,22.3089320000 114.1875580000,22.3089570000 114.1875750000,22.3097880000 114.1875870000,22.3105010000 114.1875890000,22.3106170000 114.1875970000,22.3111530000 114.1876180000,22.3121370000 114.1876180000,22.3121770000 114.1876200000,22.3122700000 114.1876180000,22.3123420000 114.1875770000,22.3126670000 114.1875760000,22.3134070000 114.1875760000,22.3134250000 114.1875810000,22.3137730000 114.1875850000,22.3140270000 114.1875930000,22.3140940000 114.1876000000,22.3141400000 114.1876250000,22.3142330000 114.1876770000,22.3143120000 114.1878870000,22.3145280000 114.1882410000,22.3148980000 114.1886580000,22.3153440000 114.1896170000,22.3163530000 114.1896470000,22.3163840000 114.1901440000,22.3169090000 114.1908300000,22.3176340000 114.1908860000,22.3176930000 114.1909280000,22.3177350000 114.1910870000,22.3179070000 114.1916750000,22.3185420000 114.1919020000,22.3187660000 114.1919210000,22.3187850000 114.1919680000,22.3188320000 114.1920100000,22.3188730000 114.1922790000,22.3191710000 114.1922990000,22.3191930000 114.1923750000,22.3192760000 114.1924400000,22.3193450000 114.1925540000,22.3192860000 114.1926680000,22.3192340000 114.1936700000,22.3187690000 114.1939000000,22.3186690000 114.1939240000,22.3186590000 114.1939780000,22.3186350000 114.1940270000,22.3186110000 114.1940750000,22.3185870000 114.1941240000,22.3185630000 114.1941720000,22.3185400000 114.1942020000,22.3184990000 114.1942120000,22.3184650000 114.1941980000,22.3183960000 114.1940540000,22.3180930000 114.1939310000,22.3180390000 114.1938770000,22.3180530000 114.1938350000,22.3180740000 114.1937970000,22.3180990000 114.1937890000,22.3181040000 114.1937460000,22.3181380000 114.1934960000,22.3183610000 114.1931070000,22.3187080000 114.1930390000,22.3187740000 114.1929240000,22.3188850000 114.1927800000,22.3190080000 114.1926200000,22.3191190000 114.1925830000,22.3191450000 114.1924790000,22.3192180000 114.1923960000,22.3191340000 114.1921520000,22.3188880000 114.1920790000,22.3188140000 114.1919930000,22.3187290000 114.1917520000,22.3184940000 114.1911590000,22.3178510000 114.1909560000,22.3176390000 114.1897240000,22.3163190000 114.1887510000,22.3152970000 114.1883320000,22.3148610000 114.1879850000,22.3144900000 114.1877600000,22.3142740000 114.1877180000,22.3142110000 114.1876980000,22.3141600000 114.1876790000,22.3140970000 114.1876700000,22.3140260000 114.1876680000,22.3134370000 114.1876630000,22.3126710000 114.1876880000,22.3124690000 114.1876990000,22.3123870000 114.1877000000,22.3123120000 114.1876940000,22.3120490000 114.1876750000,22.3111390000 114.1876750000,22.3106570000 114.1876750000,22.3106180000 114.1876580000,22.3097880000 114.1876490000,22.3089780000 114.1876490000,22.3089570000 114.1876490000,22.3089360000 114.1876440000,22.3088220000 114.1876360000,22.3086570000 114.1876310000,22.3085540000 114.1876180000,22.3083170000 114.1875900000,22.3081240000 114.1875510000,22.3080570000 114.1875380000,22.3080350000 114.1875190000,22.3080010000 114.1873140000,22.3077080000 114.1869390000,22.3071720000 114.1867870000,22.3069580000 114.1867850000,22.3069550000 114.1867800000,22.3069470000 114.1866970000,22.3068150000 114.1871660000,22.3065350000 114.1877030000,22.3061920000 114.1879960000,22.3060070000 114.1880470000,22.3059720000 114.1881980000,22.3058790000 114.1882400000,22.3058530000 114.1885270000,22.3056770000 114.1886160000,22.3056160000 114.1886580000,22.3055880000 114.1887260000,22.3055500000 114.1888230000,22.3054860000 114.1888490000,22.3054680000 114.1889300000,22.3054110000 114.1890100000,22.3053550000 114.1900620000,22.3046950000 114.1902090000,22.3046080000 114.1903830000,22.3045060000 114.1905140000,22.3044210000 114.1907440000,22.3042730000 114.1910560000,22.3047040000 114.1910710000,22.3047250000 114.1911230000,22.3047980000 114.1913360000,22.3050910000 114.1918600000,22.3047670000 114.1921090000,22.3057800000 114.1922700000,22.3065320000 114.1915310000,22.3066280000 114.1913600000,22.3066520000 114.1912460000,22.3066690000 114.1910770000,22.3066930000 114.1899100000,22.3068470000 114.1895070000,22.3068920000 114.1884150000,22.3070160000 114.1883860000,22.3070200000 114.1882000000,22.3070420000 114.1875910000,22.3071100000 114.1874240000,22.3068750000 114.1871660000,22.3065350000 114.1868750000,22.3061410000 114.1868360000,22.3060880000 114.1864020000,22.3054980000 114.1859930000,22.3057500000 114.1858350000,22.3058500000 114.1854540000,22.3060940000 114.1851810000,22.3062630000 114.1848770000,22.3064650000 114.1846420000,22.3066070000 114.1844720000,22.3067100000 114.1843450000,22.3067860000 114.1842590000,22.3069000000 114.1843660000,22.3070370000 114.1844320000,22.3071280000 114.1846980000,22.3074910000 114.1849890000,22.3078950000 114.1845850000,22.3081520000 114.1845070000,22.3081930000 114.1840690000,22.3084480000 114.1840040000,22.3085020000 114.1838310000,22.3086570000 114.1836780000,22.3087390000 114.1835560000,22.3087810000 114.1834600000,22.3087840000 114.1832890000,22.3086810000 114.1830820000,22.3085590000 114.1828020000,22.3083920000 114.1824680000,22.3081960000 114.1821720000,22.3080070000 114.1818010000,22.3077720000 114.1815380000,22.3075950000 114.1812350000,22.3073110000 114.1811670000,22.3071420000 114.1811510000,22.3070250000 114.1811510000,22.3068800000 114.1812000000,22.3067220000 114.1812470000,22.3066520000 114.1813440000,22.3064790000 114.1814910000,22.3062290000 114.1815380000,22.3061080000 114.1815470000,22.3059810000 114.1815750000,22.3059020000 114.1816100000,22.3057230000 114.1816010000,22.3054770000 114.1815710000,22.3052910000 114.1814910000,22.3050070000 114.1812210000,22.3044370000 114.1811230000,22.3042230000 114.1810440000,22.3040150000 114.1808730000,22.3035850000 114.1807300000,22.3032420000 114.1806030000,22.3028740000 114.1804960000,22.3025370000 114.1804530000,22.3023080000 114.1804390000,22.3022200000 114.1804280000,22.3021570000 114.1804240000,22.3021280000 114.1804100000,22.3019510000 114.1804000000,22.3016830000 114.1804260000,22.3014080000 114.1804500000,22.3012290000 114.1804770000,22.3009960000 114.1805280000,22.3006710000 114.1805930000,22.3003530000 114.1806470000,22.3000300000 114.1806970000,22.2997190000 114.1829040000,22.2863700000 114.1831870000,22.2846590000 114.1831980000,22.2843750000 114.1831770000,22.2841610000 114.1831280000,22.2839770000 114.1830550000,22.2838110000 114.1829730000,22.2836590000 114.1829470000,22.2836110000 114.1827730000,22.2833600000 114.1825870000,22.2831320000 114.1823200000,22.2828800000 114.1820400000,22.2826100000 114.1819960000,22.2825300000 114.1819570000,22.2824500000 114.1819400000,22.2824000000 114.1819290000,22.2823500000 114.1819270000,22.2823030000 114.1819350000,22.2822500000 114.1819500000,22.2822000000 114.1819740000,22.2821500000 114.1820100000,22.2821000000 114.1820560000,22.2820570000 114.1821100000,22.2820250000 114.1821600000,22.2820070000 114.1822100000,22.2819980000 114.1822600000,22.2819970000 114.1823100000,22.2820000000 114.1835090000,22.2822820000 114.1838660000,22.2824360000 114.1840860000,22.2825590000 114.1842650000,22.2826710000 114.1844720000,22.2828070000 114.1849760000,22.2832270000 114.1852740000,22.2834880000 114.1855510000,22.2836890000 114.1857090000,22.2837860000 114.1857710000,22.2838200000 114.1858560000,22.2838560000 114.1862660000,22.2839850000 114.1864320000,22.2840370000 114.1870730000,22.2841750000 114.1872160000,22.2842060000 114.1873970000,22.2842430000 114.1875770000,22.2842870000 114.1877780000,22.2843340000 114.1879700000,22.2843900000 114.1881000000,22.2844400000 114.1882040000,22.2844860000 114.1883100000,22.2845400000 114.1884130000,22.2845970000 114.1885300000,22.2846700000 114.1886410000,22.2847590000 114.1887500000,22.2848600000 114.1888430000,22.2849570000 114.1889280000,22.2850720000 114.1889930000,22.2851900000 114.1890600000,22.2853300000 114.1891100000,22.2854500000 114.1891600000,22.2856300000 114.1891900000,22.2857900000 114.1892190000,22.2860100000 114.1892300000,22.2862100000 114.1892400000,22.2864700000 114.1892500000,22.2866700000 114.1892800000,22.2869000000 114.1893300000,22.2871200000 114.1893900000,22.2872700000 114.1894800000,22.2874700000 114.1899600000,22.2884400000 114.1902500000,22.2889500000 114.1904500000,22.2892800000 114.1905900000,22.2894800000 114.1907500000,22.2896800000 114.1910500000,22.2900000000 114.1913500000,22.2902800000 114.1921570000,22.2909910000 114.1925530000,22.2913100000 114.1930300000,22.2917050000 114.1934560000,22.2920410000 114.1939680000,22.2923540000 114.1942060000,22.2924870000 114.1945320000,22.2926440000 114.1947500000,22.2927460000 114.1950570000,22.2928690000 114.1953540000,22.2929670000 114.1955810000,22.2930280000 114.1974960000,22.2934010000 114.1979200000,22.2934800000 114.1981920000,22.2935260000 114.1983380000,22.2935420000 114.1987100000,22.2935630000 114.1992000000,22.2935690000 114.1995900000,22.2935850000 114.1997700000,22.2936020000 114.1999500000,22.2936270000 114.2001000000,22.2936520000 114.2015930000,22.2939620000 114.2024440000,22.2941380000 114.2030190000,22.2942370000 114.2035020000,22.2942680000 114.2039500000,22.2942790000 114.2043590000,22.2942530000 114.2046320000,22.2942350000 114.2056300000,22.2941000000 114.2060900000,22.2940100000 114.2063200000,22.2939500000 114.2065000000,22.2938900000 114.2069100000,22.2937200000 114.2072200000,22.2936000000 114.2075100000,22.2934900000 114.2077100000,22.2934200000 114.2084500000,22.2931800000 114.2088400000,22.2930500000 114.2090900000,22.2929400000 114.2092910000,22.2928400000 114.2094860000,22.2927210000 114.2096620000,22.2925980000 114.2110150000,22.2916200000 114.2112930000,22.2914300000 114.2115520000,22.2912760000 114.2118010000,22.2911320000 114.2126730000,22.2906220000 114.2129690000,22.2904590000 114.2131950000,22.2903500000 114.2134090000,22.2902650000 114.2137490000,22.2901430000 114.2141960000,22.2900090000 114.2148540000,22.2898400000 114.2152500000,22.2897340000 114.2155800000,22.2896460000 114.2162200000,22.2894900000 114.2167600000,22.2893500000 114.2170400000,22.2892800000 114.2176540000,22.2891050000 114.2178060000,22.2890760000 114.2183750000,22.2889240000 114.2194790000,22.2886690000 114.2198500000,22.2885910000 114.2200910000,22.2885370000 114.2202280000,22.2884450000 114.2205220000,22.2883440000 114.2208100000,22.2882010000 114.2210140000,22.2880480000 114.2212180000,22.2878470000 114.2213890000,22.2876220000 114.2214900000,22.2874140000 114.2215580000,22.2872280000 114.2215980000,22.2870650000 114.2216420000,22.2868470000 114.2216530000,22.2867180000 114.2216700000,22.2864770000 114.2216590000,22.2861520000 114.2215650000,22.2852980000 114.2215760000,22.2850060000 114.2216080000,22.2847930000 114.2216840000,22.2845370000 114.2217980000,22.2843110000 114.2219970000,22.2840290000 114.2221160000,22.2838690000 114.2222670000,22.2836510000 114.2223620000,22.2835380000 114.2227110000,22.2830960000 114.2228740000,22.2828890000 114.2229740000,22.2827720000 114.2229100000,22.2827240000 114.2228090000,22.2826540000 114.2225770000,22.2824960000 114.2223970000,22.2823670000 114.2222020000,22.2822340000 114.2221500000,22.2821680000 114.2220320000,22.2820670000 114.2220680000,22.2820190000 114.2223480000,22.2815980000 114.2223830000,22.2815480000 114.2224140000,22.2815060000 114.2224640000,22.2814480000 114.2225000000,22.2814120000 114.2225640000,22.2813550000 114.2226280000,22.2813030000 114.2226870000,22.2812600000 114.2227470000,22.2812180000 114.2228500000,22.2811500000 114.2228920000,22.2811240000 114.2229880000,22.2810710000 114.2230730000,22.2810250000 114.2235360000,22.2808090000 114.2238400000,22.2806670000 114.2239520000,22.2806170000 114.2239820000,22.2806050000 114.2240220000,22.2805890000 114.2242660000,22.2805100000 114.2243390000,22.2804910000 114.2246020000,22.2804400000 114.2247070000,22.2804170000 114.2252120000,22.2803100000 114.2252810000,22.2802910000 114.2253510000,22.2802590000 114.2254130000,22.2802190000 114.2254540000,22.2801860000 114.2254940000,22.2801420000 114.2254940000,22.2801420000 114.2255160000,22.2801150000 114.2255370000,22.2800870000 114.2255930000,22.2799970000 114.2255990000,22.2799890000 114.2257620000,22.2797350000 114.2258190000,22.2796430000 114.2260410000,22.2792780000 114.2262950000,22.2788630000 114.2265790000,22.2783860000 114.2266270000,22.2783060000 114.2269200000,22.2778190000 114.2269690000,22.2777540000 114.2270630000,22.2776590000 114.2271380000,22.2776020000 114.2271930000,22.2775710000 114.2272810000,22.2775240000 114.2279020000,22.2771870000 114.2280360000,22.2771170000 114.2282140000,22.2770240000 114.2282930000,22.2769860000 114.2283060000,22.2769520000 114.2283170000,22.2769240000 114.2283450000,22.2768830000 114.2284400000,22.2768020000 114.2285390000,22.2767420000 114.2286520000,22.2766830000 114.2288630000,22.2765790000 114.2291000000,22.2764670000 114.2292300000,22.2764010000 114.2292650000,22.2763790000 114.2293190000,22.2763440000 114.2293880000,22.2762870000 114.2294710000,22.2761990000 114.2295800000,22.2761160000 114.2297800000,22.2759680000 114.2299900000,22.2758800000 114.2301700000,22.2758300000 114.2303600000,22.2757880000 114.2304510000,22.2757610000 114.2305390000,22.2757280000 114.2306330000,22.2756830000 114.2307100000,22.2756380000 114.2307410000,22.2756130000 114.2307720000,22.2755880000 114.2308090000,22.2755580000 114.2308600000,22.2754880000 114.2308760000,22.2754510000 114.2308950000,22.2753940000 114.2310180000,22.2748910000 114.2310850000,22.2746350000 114.2311680000,22.2744030000 114.2312060000,22.2743250000 114.2312750000,22.2741770000 114.2313640000,22.2740490000 114.2314730000,22.2739210000 114.2315910000,22.2738040000 114.2316910000,22.2737180000 114.2319360000,22.2735360000 114.2320620000,22.2734430000 114.2321430000,22.2733870000 114.2322060000,22.2733440000 114.2324500000,22.2731390000 114.2326330000,22.2728930000 114.2327450000,22.2726680000 114.2328330000,22.2724410000 114.2328850000,22.2723020000 114.2330400000,22.2718430000 114.2332450000,22.2713120000 114.2332900000,22.2712090000 114.2333230000,22.2711500000 114.2333400000,22.2711180000 114.2334140000,22.2709930000 114.2335080000,22.2708500000 114.2335710000,22.2707420000 114.2336030000,22.2706530000 114.2336500000,22.2705100000 114.2337420000,22.2701190000 114.2337700000,22.2699600000 114.2337800000,22.2697200000 114.2337500000,22.2694400000 114.2336810000,22.2690520000 114.2336750000,22.2690070000 114.2336600000,22.2688700000 114.2335740000,22.2683000000 114.2335740000,22.2681500000 114.2335840000,22.2679500000 114.2335900000,22.2678530000 114.2336130000,22.2675010000 114.2336250000,22.2673250000 114.2337650000,22.2655900000 114.2337910000,22.2653900000 114.2338070000,22.2653340000 114.2338300000,22.2652500000 114.2338890000,22.2651100000 114.2339720000,22.2649900000 114.2340900000,22.2648700000 114.2342170000,22.2647650000 114.2343200000,22.2646800000 114.2344270000,22.2645940000 114.2346580000,22.2644090000 114.2347670000,22.2643220000 114.2349620000,22.2641650000 114.2350800000,22.2640700000 114.2350900000,22.2640630000 114.2354440000,22.2637920000 114.2355110000,22.2637400000 114.2355890000,22.2636900000 114.2356730000,22.2636420000 114.2357680000,22.2635970000 114.2358800000,22.2635540000 114.2359700000,22.2635270000 114.2360400000,22.2635080000 114.2361200000,22.2634900000 114.2362000000,22.2634750000 114.2363100000,22.2634620000 114.2365200000,22.2634500000 114.2367700000,22.2634400000 114.2368600000,22.2634380000 114.2369700000,22.2634500000 114.2370890000,22.2634860000 114.2371700000,22.2635300000 114.2373260000,22.2636430000 114.2374520000,22.2637080000 114.2375500000,22.2637220000 114.2376200000,22.2637200000 114.2377100000,22.2637000000 114.2378250000,22.2636360000 114.2378790000,22.2635620000 114.2379450000,22.2634960000 114.2380110000,22.2634450000 114.2380880000,22.2633910000 114.2381770000,22.2633440000 114.2382620000,22.2633210000 114.2383690000,22.2632960000 114.2384890000,22.2632920000 114.2387770000,22.2632930000 114.2389500000,22.2633140000 114.2390810000,22.2633400000 114.2392660000,22.2634100000 114.2393860000,22.2634700000 114.2394930000,22.2635230000 114.2395520000,22.2635640000 114.2396100000,22.2636030000 114.2397310000,22.2636870000 114.2402610000,22.2640680000 114.2406920000,22.2643670000 114.2407350000,22.2643970000 114.2407990000,22.2644460000 114.2409140000,22.2645330000 114.2421090000,22.2654410000 114.2423950000,22.2656580000 114.2430770000,22.2661400000 114.2432580000,22.2662660000 114.2433210000,22.2661860000 114.2434650000,22.2660400000 114.2435860000,22.2659580000 114.2437200000,22.2658920000 114.2439200000,22.2658210000 114.2441220000,22.2657760000 114.2443480000,22.2657740000 114.2443890000,22.2657790000 114.2445610000,22.2657990000 114.2446670000,22.2658180000 114.2447530000,22.2658340000 114.2450700000,22.2658900000 114.2452800000,22.2659200000 114.2454700000,22.2659400000 114.2457800000,22.2659400000 114.2460000000,22.2659200000 114.2461500000,22.2659000000 114.2463800000,22.2658400000 114.2465380000,22.2657990000 114.2467620000,22.2657210000 114.2468620000,22.2656740000 114.2469550000,22.2656170000 114.2470080000,22.2655850000 114.2471240000,22.2655150000 114.2472450000,22.2654350000 114.2473700000,22.2653500000 114.2476900000,22.2650800000 114.2477720000,22.2650080000 114.2478500000,22.2649400000 114.2479320000,22.2648620000 114.2480400000,22.2647600000 114.2481500000,22.2646600000 114.2482530000,22.2645530000 114.2483500000,22.2644500000 114.2484300000,22.2643700000 114.2484740000,22.2643170000 114.2485260000,22.2642550000 114.2486030000,22.2641630000 114.2486500000,22.2641000000 114.2487190000,22.2640030000 114.2491530000,22.2633910000 114.2493980000,22.2630450000 114.2494800000,22.2629300000 114.2495400000,22.2628500000 114.2496600000,22.2627300000 114.2497300000,22.2626700000 114.2498560000,22.2625810000 114.2500190000,22.2625080000 114.2500800000,22.2624880000 114.2501600000,22.2624700000 114.2502400000,22.2624600000 114.2503400000,22.2624560000 114.2505300000,22.2624800000 114.2506600000,22.2625200000 114.2507470000,22.2625570000 114.2509080000,22.2626240000 114.2509620000,22.2626570000 114.2511400000,22.2627700000 114.2514200000,22.2629900000 114.2516000000,22.2631600000 114.2517500000,22.2633350000 114.2517730000,22.2633690000 114.2518700000,22.2635100000 114.2519340000,22.2636440000 114.2519600000,22.2637300000 114.2519850000,22.2638900000 114.2519800000,22.2640600000 114.2519500000,22.2642000000 114.2519000000,22.2643200000 114.2517210000,22.2645790000 114.2517150000,22.2645870000 114.2516600000,22.2646480000 114.2516260000,22.2646860000 114.2515560000,22.2647650000 114.2514830000,22.2648440000 114.2514040000,22.2649270000 114.2512840000,22.2650540000 114.2511400000,22.2651840000 114.2509800000,22.2653300000 114.2506500000,22.2655700000 114.2505430000,22.2656440000 114.2504010000,22.2657440000 114.2503300000,22.2657950000 114.2503810000,22.2658590000 114.2504320000,22.2659290000 114.2504760000,22.2660380000 114.2505570000,22.2661250000 114.2506200000,22.2661910000 114.2506540000,22.2662280000 114.2506910000,22.2662700000 114.2507290000,22.2663130000 114.2507620000,22.2663510000 114.2509240000,22.2662180000</coordinates>
                </LineString>
                <ExtendedData>
                    <Data name="duration">
                        <value>01:40:36</value>
                    </Data>
                    <Data name="length">
                        <value>37126.69572049374</value>
                    </Data>
                </ExtendedData>
            </Placemark>
        </Document>
    </Document>
</kml>