<?xml version="1.0" encoding="UTF-8"?>
<kml xmlns="http://www.opengis.net/kml/2.2" xmlns:gx="http://www.google.com/kml/ext/2.2">
    <Document>
        <name>Route</name>
        <Folder>
            <name>Route Request</name>
            <Placemark>
                <Point>
                    <coordinates>114.1266040489,22.3546780053</coordinates>
                </Point>
                <ExtendedData>
                    <Data name="routingVisited">
                        <value>false</value>
                    </Data>
                </ExtendedData>
            </Placemark>
            <Placemark>
                <Point>
                    <coordinates>114.1302494553,22.3440462200</coordinates>
                </Point>
                <ExtendedData>
                    <Data name="routingVisited">
                        <value>false</value>
                    </Data>
                </ExtendedData>
            </Placemark>
            <Placemark>
                <Point>
                    <coordinates>114.1410584061,22.3373607419</coordinates>
                </Point>
            </Placemark>
            <Placemark>
                <Point>
                    <coordinates>114.1905802000,22.3827748466</coordinates>
                </Point>
                <ExtendedData>
                    <Data name="routingVisited">
                        <value>false</value>
                    </Data>
                </ExtendedData>
            </Placemark>
            <Placemark>
                <Point>
                    <coordinates>114.1987701079,22.3861038666</coordinates>
                </Point>
            </Placemark>
            <Placemark>
                <Point>
                    <coordinates>114.2092933653,22.3799928882</coordinates>
                </Point>
                <ExtendedData>
                    <Data name="routingVisited">
                        <value>false</value>
                    </Data>
                </ExtendedData>
            </Placemark>
            <Placemark>
                <Point>
                    <coordinates>114.2178049902,22.3825603455</coordinates>
                </Point>
                <ExtendedData>
                    <Data name="routingVisited">
                        <value>false</value>
                    </Data>
                </ExtendedData>
            </Placemark>
            <Placemark>
                <Point>
                    <coordinates>114.2052702971,22.3823492358</coordinates>
                </Point>
                <ExtendedData>
                    <Data name="routingVisited">
                        <value>false</value>
                    </Data>
                </ExtendedData>
            </Placemark>
            <Placemark>
                <Point>
                    <coordinates>114.1958746388,22.3823881453</coordinates>
                </Point>
            </Placemark>
            <Placemark>
                <Point>
                    <coordinates>114.1880096199,22.3801520817</coordinates>
                </Point>
                <ExtendedData>
                    <Data name="routingVisited">
                        <value>false</value>
                    </Data>
                </ExtendedData>
            </Placemark>
            <Placemark>
                <Point>
                    <coordinates>114.1484130226,22.3352841145</coordinates>
                </Point>
            </Placemark>
            <Placemark>
                <Point>
                    <coordinates>114.1359483545,22.3426063055</coordinates>
                </Point>
            </Placemark>
            <Placemark>
                <Point>
                    <coordinates>114.1268822282,22.3498929811</coordinates>
                </Point>
                <ExtendedData>
                    <Data name="routingVisited">
                        <value>false</value>
                    </Data>
                </ExtendedData>
            </Placemark>
            <Placemark>
                <Point>
                    <coordinates>114.1265745054,22.3547053235</coordinates>
                </Point>
                <ExtendedData>
                    <Data name="routingVisited">
                        <value>false</value>
                    </Data>
                </ExtendedData>
            </Placemark>
        </Folder>
        <Document>
            <name>36.8 km; 00:45 h (OSRM)</name>
            <Placemark>
                <name>Route</name>
                <LineString>
                    <coordinates>114.1266040000,22.3546820000 114.1264420000,22.3546700000 114.1262650000,22.3546570000 114.1262220000,22.3546440000 114.1261760000,22.3546380000 114.1261340000,22.3546380000 114.1260930000,22.3546440000 114.1260530000,22.3546560000 114.1259890000,22.3547050000 114.1259530000,22.3547850000 114.1259400000,22.3548150000 114.1259270000,22.3548450000 114.1259190000,22.3548770000 114.1259150000,22.3549130000 114.1259170000,22.3549490000 114.1259840000,22.3550090000 114.1261130000,22.3551660000 114.1262350000,22.3552840000 114.1262600000,22.3553260000 114.1262730000,22.3553720000 114.1262750000,22.3554390000 114.1262810000,22.3554880000 114.1262830000,22.3555360000 114.1262930000,22.3555820000 114.1263110000,22.3556270000 114.1263330000,22.3556640000 114.1263610000,22.3556980000 114.1263980000,22.3557310000 114.1264410000,22.3557550000 114.1264890000,22.3557720000 114.1265390000,22.3557800000 114.1265890000,22.3557780000 114.1266390000,22.3557680000 114.1266850000,22.3557490000 114.1267260000,22.3557220000 114.1267600000,22.3556890000 114.1267940000,22.3556360000 114.1268220000,22.3555790000 114.1268430000,22.3555190000 114.1268560000,22.3554580000 114.1269330000,22.3553520000 114.1269610000,22.3553150000 114.1269920000,22.3552820000 114.1270270000,22.3552520000 114.1270660000,22.3552270000 114.1271070000,22.3552050000 114.1273780000,22.3550820000 114.1276570000,22.3549830000 114.1277470000,22.3549460000 114.1278350000,22.3549020000 114.1279200000,22.3548520000 114.1279800000,22.3548130000 114.1280530000,22.3547610000 114.1281220000,22.3547020000 114.1281850000,22.3546370000 114.1282410000,22.3545670000 114.1282890000,22.3544930000 114.1283300000,22.3544140000 114.1283620000,22.3543320000 114.1283850000,22.3542480000 114.1284000000,22.3541640000 114.1284070000,22.3540770000 114.1284070000,22.3539900000 114.1284000000,22.3539030000 114.1283850000,22.3538170000 114.1283640000,22.3537320000 114.1283350000,22.3536490000 114.1282710000,22.3535010000 114.1275680000,22.3519570000 114.1275110000,22.3518410000 114.1274790000,22.3517790000 114.1273030000,22.3514270000 114.1272590000,22.3513070000 114.1271740000,22.3510640000 114.1271310000,22.3508790000 114.1270250000,22.3499820000 114.1270210000,22.3499480000 114.1269600000,22.3494100000 114.1269590000,22.3494010000 114.1269300000,22.3491900000 114.1268540000,22.3486240000 114.1267600000,22.3479400000 114.1267540000,22.3478790000 114.1267320000,22.3476620000 114.1266910000,22.3472600000 114.1266770000,22.3471440000 114.1266380000,22.3468240000 114.1266150000,22.3466550000 114.1266050000,22.3465080000 114.1266080000,22.3463380000 114.1266330000,22.3461520000 114.1266680000,22.3460270000 114.1267680000,22.3458440000 114.1269290000,22.3456320000 114.1270880000,22.3454980000 114.1272580000,22.3453740000 114.1273000000,22.3453460000 114.1274510000,22.3452720000 114.1278460000,22.3450990000 114.1281460000,22.3449640000 114.1290630000,22.3445380000 114.1292610000,22.3444450000 114.1302240000,22.3439990000 114.1310630000,22.3436110000 114.1311630000,22.3435560000 114.1314340000,22.3434040000 114.1316120000,22.3432840000 114.1318590000,22.3430820000 114.1318710000,22.3430690000 114.1319200000,22.3430160000 114.1319750000,22.3429440000 114.1319290000,22.3429090000 114.1318740000,22.3428670000 114.1318520000,22.3428510000 114.1317030000,22.3427380000 114.1316300000,22.3426560000 114.1315670000,22.3425370000 114.1315340000,22.3424360000 114.1315240000,22.3422600000 114.1315950000,22.3419730000 114.1317100000,22.3416850000 114.1318620000,22.3413700000 114.1318770000,22.3412680000 114.1322030000,22.3407560000 114.1323030000,22.3406370000 114.1323320000,22.3405750000 114.1323760000,22.3404700000 114.1324700000,22.3401450000 114.1325550000,22.3399110000 114.1326740000,22.3396670000 114.1328050000,22.3394390000 114.1329660000,22.3392230000 114.1331340000,22.3390270000 114.1333530000,22.3388260000 114.1335380000,22.3386670000 114.1336080000,22.3386170000 114.1336600000,22.3385750000 114.1337050000,22.3385370000 114.1337480000,22.3385100000 114.1338200000,22.3384640000 114.1338820000,22.3384280000 114.1339690000,22.3383790000 114.1340770000,22.3383110000 114.1341940000,22.3382310000 114.1343130000,22.3381930000 114.1346520000,22.3380980000 114.1352950000,22.3379720000 114.1354080000,22.3379490000 114.1364110000,22.3377760000 114.1376000000,22.3375740000 114.1378740000,22.3375200000 114.1381420000,22.3374860000 114.1383570000,22.3374590000 114.1384670000,22.3374390000 114.1385790000,22.3374320000 114.1389220000,22.3374010000 114.1389710000,22.3373940000 114.1390350000,22.3373850000 114.1391100000,22.3373760000 114.1391880000,22.3373720000 114.1392710000,22.3373720000 114.1393460000,22.3373740000 114.1394100000,22.3373780000 114.1394710000,22.3373860000 114.1395370000,22.3373990000 114.1395990000,22.3374130000 114.1397660000,22.3374600000 114.1398660000,22.3374890000 114.1399310000,22.3375060000 114.1399760000,22.3375120000 114.1400310000,22.3375150000 114.1400800000,22.3375160000 114.1401150000,22.3375150000 114.1401590000,22.3375100000 114.1402100000,22.3375010000 114.1402570000,22.3374910000 114.1403150000,22.3374790000 114.1403450000,22.3374740000 114.1404300000,22.3374500000 114.1405970000,22.3373810000 114.1406330000,22.3373660000 114.1407400000,22.3373260000 114.1407590000,22.3374170000 114.1407720000,22.3374530000 114.1407910000,22.3375080000 114.1408050000,22.3375720000 114.1408270000,22.3376360000 114.1408620000,22.3377170000 114.1408750000,22.3378000000 114.1408830000,22.3378540000 114.1409180000,22.3378430000 114.1409600000,22.3377840000 114.1409500000,22.3376950000 114.1409110000,22.3376010000 114.1408930000,22.3375510000 114.1408850000,22.3374890000 114.1408880000,22.3374470000 114.1409030000,22.3373900000 114.1409210000,22.3373490000 114.1409530000,22.3373010000 114.1409620000,22.3372880000 114.1410210000,22.3372320000 114.1410890000,22.3371810000 114.1412030000,22.3371410000 114.1412750000,22.3371210000 114.1415820000,22.3370530000 114.1421030000,22.3368700000 114.1426010000,22.3367550000 114.1433400000,22.3366450000 114.1436680000,22.3365950000 114.1437790000,22.3365640000 114.1440080000,22.3365420000 114.1440800000,22.3365310000 114.1442860000,22.3365100000 114.1444320000,22.3365400000 114.1445640000,22.3365830000 114.1446600000,22.3366220000 114.1446970000,22.3366650000 114.1447170000,22.3366880000 114.1447430000,22.3367180000 114.1447710000,22.3367810000 114.1447840000,22.3368530000 114.1447810000,22.3369110000 114.1447680000,22.3369680000 114.1447510000,22.3370050000 114.1447220000,22.3370380000 114.1446770000,22.3370580000 114.1446230000,22.3370700000 114.1445060000,22.3370800000 114.1444220000,22.3370730000 114.1439250000,22.3369390000 114.1438300000,22.3369130000 114.1437250000,22.3368840000 114.1436460000,22.3368650000 114.1434200000,22.3368130000 114.1430440000,22.3368270000 114.1429410000,22.3368390000 114.1428080000,22.3368680000 114.1424310000,22.3369650000 114.1423500000,22.3370090000 114.1422360000,22.3370840000 114.1421560000,22.3371640000 114.1420950000,22.3372570000 114.1420390000,22.3373420000 114.1419920000,22.3374130000 114.1417810000,22.3377770000 114.1417250000,22.3378740000 114.1417140000,22.3378950000 114.1416910000,22.3379340000 114.1414680000,22.3383000000 114.1414380000,22.3383690000 114.1414120000,22.3384480000 114.1413920000,22.3385240000 114.1413790000,22.3386000000 114.1413740000,22.3386850000 114.1413770000,22.3387680000 114.1413890000,22.3388540000 114.1414070000,22.3389250000 114.1414290000,22.3389900000 114.1414570000,22.3390480000 114.1414860000,22.3391020000 114.1415230000,22.3391610000 114.1415670000,22.3392240000 114.1416160000,22.3392910000 114.1417120000,22.3394080000 114.1417720000,22.3394880000 114.1418150000,22.3395530000 114.1418520000,22.3396190000 114.1418820000,22.3396830000 114.1419060000,22.3397520000 114.1419180000,22.3398070000 114.1419340000,22.3399040000 114.1419310000,22.3399820000 114.1419210000,22.3400620000 114.1419060000,22.3401260000 114.1418850000,22.3401880000 114.1418320000,22.3402860000 114.1417510000,22.3403880000 114.1416520000,22.3405040000 114.1416120000,22.3405330000 114.1415610000,22.3405540000 114.1415100000,22.3405660000 114.1414680000,22.3405680000 114.1414260000,22.3405620000 114.1413850000,22.3405490000 114.1413490000,22.3405290000 114.1413180000,22.3405020000 114.1412930000,22.3404730000 114.1412780000,22.3404430000 114.1412680000,22.3404110000 114.1412650000,22.3403760000 114.1412680000,22.3403450000 114.1412770000,22.3403100000 114.1412930000,22.3402780000 114.1413140000,22.3402510000 114.1413390000,22.3402290000 114.1413620000,22.3402120000 114.1413950000,22.3401970000 114.1414270000,22.3401870000 114.1414590000,22.3401830000 114.1414950000,22.3401860000 114.1415290000,22.3401940000 114.1416010000,22.3402170000 114.1416620000,22.3402500000 114.1417110000,22.3402820000 114.1417740000,22.3403270000 114.1418780000,22.3404090000 114.1420070000,22.3405180000 114.1423590000,22.3408060000 114.1425940000,22.3410110000 114.1426910000,22.3410850000 114.1428900000,22.3412490000 114.1429630000,22.3413200000 114.1430430000,22.3414120000 114.1431350000,22.3415540000 114.1431780000,22.3416310000 114.1432210000,22.3417310000 114.1432820000,22.3419010000 114.1434060000,22.3422560000 114.1434620000,22.3423930000 114.1435280000,22.3425290000 114.1435990000,22.3426640000 114.1436850000,22.3428100000 114.1437800000,22.3429500000 114.1439070000,22.3431150000 114.1440840000,22.3433430000 114.1442910000,22.3435870000 114.1445780000,22.3438760000 114.1446610000,22.3439560000 114.1447110000,22.3440000000 114.1450430000,22.3443260000 114.1453140000,22.3445750000 114.1456000000,22.3448390000 114.1456900000,22.3449190000 114.1457770000,22.3450070000 114.1458030000,22.3450320000 114.1459140000,22.3451430000 114.1460740000,22.3453000000 114.1462330000,22.3454570000 114.1464900000,22.3456890000 114.1466010000,22.3457880000 114.1467550000,22.3459330000 114.1471740000,22.3463210000 114.1472120000,22.3463520000 114.1474870000,22.3465700000 114.1478600000,22.3468200000 114.1480400000,22.3469320000 114.1480950000,22.3469660000 114.1483600000,22.3471100000 114.1485540000,22.3472090000 114.1486310000,22.3472480000 114.1488050000,22.3473230000 114.1488980000,22.3473630000 114.1490750000,22.3474280000 114.1492700000,22.3475000000 114.1495230000,22.3475790000 114.1496380000,22.3476140000 114.1498460000,22.3476690000 114.1500690000,22.3477270000 114.1501670000,22.3477480000 114.1514100000,22.3480100000 114.1518200000,22.3481100000 114.1522400000,22.3482220000 114.1530420000,22.3484880000 114.1535900000,22.3486900000 114.1539920000,22.3488590000 114.1543900000,22.3490400000 114.1551890000,22.3494300000 114.1558680000,22.3498200000 114.1566010000,22.3503100000 114.1572490000,22.3507900000 114.1579200000,22.3513500000 114.1585400000,22.3519300000 114.1590400000,22.3524600000 114.1595110000,22.3530080000 114.1599400000,22.3535800000 114.1602900000,22.3540900000 114.1605600000,22.3545100000 114.1608500000,22.3550100000 114.1624120000,22.3579790000 114.1625420000,22.3582360000 114.1626180000,22.3584330000 114.1627130000,22.3587180000 114.1628590000,22.3592180000 114.1629200000,22.3594310000 114.1629290000,22.3594610000 114.1629410000,22.3595120000 114.1629790000,22.3596690000 114.1630580000,22.3599340000 114.1631090000,22.3600850000 114.1631850000,22.3602930000 114.1632310000,22.3604250000 114.1633010000,22.3606370000 114.1633520000,22.3608400000 114.1634230000,22.3611220000 114.1634400000,22.3611800000 114.1635500000,22.3616200000 114.1637400000,22.3621300000 114.1639800000,22.3626430000 114.1642800000,22.3631500000 114.1646150000,22.3636200000 114.1648070000,22.3638500000 114.1650150000,22.3640800000 114.1653090000,22.3643700000 114.1656400000,22.3646600000 114.1659100000,22.3648700000 114.1661810000,22.3650580000 114.1666820000,22.3653600000 114.1670970000,22.3655600000 114.1675900000,22.3657700000 114.1679900000,22.3659120000 114.1688000000,22.3661700000 114.1690800000,22.3662700000 114.1693300000,22.3663700000 114.1695600000,22.3664700000 114.1699900000,22.3666700000 114.1704540000,22.3668960000 114.1706150000,22.3669890000 114.1707080000,22.3670500000 114.1709500000,22.3672100000 114.1710980000,22.3673240000 114.1713030000,22.3674350000 114.1715850000,22.3676450000 114.1717410000,22.3677870000 114.1717980000,22.3678320000 114.1719980000,22.3680040000 114.1727820000,22.3688980000 114.1733820000,22.3696030000 114.1736650000,22.3699580000 114.1738590000,22.3702240000 114.1739930000,22.3704400000 114.1741190000,22.3706690000 114.1742310000,22.3709030000 114.1743380000,22.3711720000 114.1745120000,22.3717610000 114.1745300000,22.3718240000 114.1745630000,22.3719220000 114.1745960000,22.3720230000 114.1746190000,22.3720900000 114.1748440000,22.3726900000 114.1748780000,22.3727800000 114.1748910000,22.3728100000 114.1750760000,22.3732780000 114.1752010000,22.3735710000 114.1752500000,22.3736900000 114.1753620000,22.3740180000 114.1754490000,22.3742880000 114.1755460000,22.3746140000 114.1755680000,22.3746860000 114.1755870000,22.3747630000 114.1756460000,22.3749850000 114.1757350000,22.3754690000 114.1757930000,22.3757000000 114.1758790000,22.3759140000 114.1759150000,22.3760030000 114.1759280000,22.3760350000 114.1759650000,22.3761240000 114.1760130000,22.3762650000 114.1760210000,22.3763240000 114.1760190000,22.3763690000 114.1760110000,22.3764270000 114.1759950000,22.3764910000 114.1759650000,22.3765500000 114.1759390000,22.3765800000 114.1759060000,22.3766090000 114.1758790000,22.3766260000 114.1758520000,22.3766380000 114.1758170000,22.3766470000 114.1757800000,22.3766490000 114.1757320000,22.3766480000 114.1756590000,22.3766430000 114.1755120000,22.3766290000 114.1754570000,22.3766070000 114.1754110000,22.3765830000 114.1753840000,22.3765640000 114.1753650000,22.3765450000 114.1753520000,22.3765250000 114.1753400000,22.3765040000 114.1753320000,22.3764800000 114.1753260000,22.3764510000 114.1753260000,22.3764200000 114.1753350000,22.3763750000 114.1753890000,22.3762210000 114.1755260000,22.3760120000 114.1756640000,22.3759370000 114.1757900000,22.3758840000 114.1759680000,22.3758790000 114.1761460000,22.3759650000 114.1763260000,22.3761550000 114.1766380000,22.3764400000 114.1766860000,22.3764810000 114.1767030000,22.3764960000 114.1767560000,22.3765420000 114.1767910000,22.3765670000 114.1768610000,22.3766160000 114.1772280000,22.3768720000 114.1774660000,22.3769790000 114.1780280000,22.3771810000 114.1784520000,22.3772960000 114.1788510000,22.3773610000 114.1792130000,22.3774350000 114.1794670000,22.3774710000 114.1796640000,22.3774830000 114.1797740000,22.3774820000 114.1802050000,22.3774480000 114.1806070000,22.3773850000 114.1808870000,22.3773470000 114.1812560000,22.3773690000 114.1814700000,22.3773770000 114.1817340000,22.3774170000 114.1819390000,22.3774610000 114.1821100000,22.3775100000 114.1821840000,22.3775300000 114.1825650000,22.3776510000 114.1833240000,22.3778820000 114.1842950000,22.3781260000 114.1848570000,22.3782770000 114.1853140000,22.3784360000 114.1855320000,22.3784900000 114.1859470000,22.3785920000 114.1861280000,22.3786300000 114.1862460000,22.3786580000 114.1863850000,22.3786980000 114.1866410000,22.3787610000 114.1867200000,22.3787830000 114.1867920000,22.3788010000 114.1868610000,22.3788120000 114.1872760000,22.3788950000 114.1873140000,22.3789190000 114.1873370000,22.3789420000 114.1873510000,22.3789630000 114.1873630000,22.3789850000 114.1873680000,22.3790190000 114.1870590000,22.3802590000 114.1870510000,22.3803640000 114.1870680000,22.3804700000 114.1871320000,22.3806040000 114.1871340000,22.3806070000 114.1872380000,22.3807330000 114.1874000000,22.3808900000 114.1875190000,22.3810030000 114.1875670000,22.3810480000 114.1876230000,22.3811070000 114.1877070000,22.3811950000 114.1880110000,22.3815120000 114.1881680000,22.3816760000 114.1882830000,22.3817950000 114.1885270000,22.3820560000 114.1887230000,22.3822620000 114.1888060000,22.3823360000 114.1888630000,22.3823980000 114.1888870000,22.3824220000 114.1889240000,22.3824690000 114.1890100000,22.3825710000 114.1892470000,22.3828120000 114.1897710000,22.3833820000 114.1900660000,22.3831390000 114.1901740000,22.3830490000 114.1901990000,22.3830280000 114.1905400000,22.3827350000 114.1906470000,22.3826440000 114.1908110000,22.3825040000 114.1908510000,22.3824700000 114.1910800000,22.3822710000 114.1911110000,22.3822680000 114.1911830000,22.3822670000 114.1912620000,22.3822940000 114.1913260000,22.3823360000 114.1914880000,22.3825370000 114.1917030000,22.3827540000 114.1917890000,22.3828610000 114.1918620000,22.3829600000 114.1919620000,22.3828960000 114.1920830000,22.3827980000 114.1923400000,22.3825680000 114.1925810000,22.3823600000 114.1927850000,22.3821830000 114.1934650000,22.3816200000 114.1936030000,22.3815010000 114.1937870000,22.3813590000 114.1939800000,22.3812010000 114.1940760000,22.3811220000 114.1941040000,22.3810990000 114.1941170000,22.3810870000 114.1941370000,22.3810710000 114.1942770000,22.3809600000 114.1943340000,22.3810450000 114.1944120000,22.3811260000 114.1944830000,22.3812000000 114.1945450000,22.3812640000 114.1948380000,22.3815680000 114.1949110000,22.3816440000 114.1954070000,22.3821580000 114.1954730000,22.3822270000 114.1957060000,22.3824700000 114.1957510000,22.3825140000 114.1957900000,22.3825540000 114.1958350000,22.3825990000 114.1958740000,22.3826380000 114.1962490000,22.3830020000 114.1962990000,22.3830580000 114.1963490000,22.3831130000 114.1964140000,22.3831850000 114.1964920000,22.3832660000 114.1967070000,22.3834870000 114.1977730000,22.3845820000 114.1981260000,22.3849560000 114.1988210000,22.3856650000 114.1988710000,22.3857210000 114.1989340000,22.3857940000 114.1990260000,22.3858860000 114.1992890000,22.3861510000 114.1995480000,22.3863970000 114.1999050000,22.3867650000 114.2000020000,22.3868660000 114.2000760000,22.3869430000 114.2001700000,22.3870570000 114.2002520000,22.3871540000 114.2003410000,22.3872640000 114.2004970000,22.3874170000 114.2007280000,22.3876540000 114.2008750000,22.3878040000 114.2012210000,22.3881570000 114.2015360000,22.3884760000 114.2017690000,22.3886920000 114.2018380000,22.3887480000 114.2019710000,22.3888540000 114.2020480000,22.3889030000 114.2022500000,22.3890230000 114.2023690000,22.3890740000 114.2025240000,22.3891420000 114.2026640000,22.3891950000 114.2027440000,22.3892030000 114.2027630000,22.3892100000 114.2028310000,22.3892310000 114.2028690000,22.3892430000 114.2029350000,22.3892710000 114.2030300000,22.3891900000 114.2031280000,22.3891200000 114.2031520000,22.3890970000 114.2032080000,22.3890430000 114.2032670000,22.3889860000 114.2033570000,22.3889190000 114.2034210000,22.3888580000 114.2036490000,22.3886560000 114.2037290000,22.3885820000 114.2039310000,22.3884080000 114.2044030000,22.3880090000 114.2045230000,22.3879040000 114.2045960000,22.3878580000 114.2053620000,22.3871310000 114.2055540000,22.3869500000 114.2057010000,22.3868190000 114.2057900000,22.3867410000 114.2060090000,22.3865460000 114.2061000000,22.3864600000 114.2063720000,22.3862340000 114.2065010000,22.3861120000 114.2068360000,22.3857970000 114.2068760000,22.3857630000 114.2069390000,22.3856660000 114.2070740000,22.3855470000 114.2070880000,22.3855350000 114.2077500000,22.3849270000 114.2083880000,22.3843710000 114.2084830000,22.3842860000 114.2086200000,22.3841550000 114.2086490000,22.3841280000 114.2087160000,22.3840740000 114.2088530000,22.3839790000 114.2090370000,22.3838320000 114.2090530000,22.3838200000 114.2091200000,22.3837730000 114.2091360000,22.3837620000 114.2092010000,22.3837150000 114.2094600000,22.3835660000 114.2099210000,22.3833410000 114.2100360000,22.3832850000 114.2101280000,22.3832410000 114.2100680000,22.3831480000 114.2100070000,22.3830550000 114.2099720000,22.3829950000 114.2099130000,22.3828840000 114.2096810000,22.3825680000 114.2094730000,22.3823120000 114.2092510000,22.3820740000 114.2091000000,22.3819100000 114.2090060000,22.3818220000 114.2088880000,22.3817120000 114.2087770000,22.3816030000 114.2087310000,22.3815620000 114.2084190000,22.3812940000 114.2083780000,22.3812600000 114.2083430000,22.3812340000 114.2082510000,22.3811680000 114.2081530000,22.3810970000 114.2080970000,22.3810560000 114.2080670000,22.3810360000 114.2079350000,22.3809460000 114.2074890000,22.3806430000 114.2074680000,22.3806290000 114.2073420000,22.3805420000 114.2074520000,22.3804130000 114.2075130000,22.3803410000 114.2075430000,22.3802410000 114.2076320000,22.3801250000 114.2076920000,22.3800470000 114.2078630000,22.3798390000 114.2080880000,22.3796430000 114.2082220000,22.3795730000 114.2083220000,22.3795400000 114.2084010000,22.3795260000 114.2084540000,22.3795220000 114.2085200000,22.3795250000 114.2085910000,22.3795400000 114.2086800000,22.3795700000 114.2088180000,22.3796230000 114.2093600000,22.3798660000 114.2097130000,22.3800240000 114.2109800000,22.3806190000 114.2112910000,22.3807720000 114.2113500000,22.3807950000 114.2114100000,22.3808050000 114.2114480000,22.3808020000 114.2115370000,22.3807930000 114.2116230000,22.3807650000 114.2117180000,22.3807200000 114.2118350000,22.3806690000 114.2119740000,22.3806170000 114.2122860000,22.3805240000 114.2124560000,22.3804840000 114.2125380000,22.3804670000 114.2126270000,22.3804520000 114.2127700000,22.3804600000 114.2129000000,22.3804800000 114.2130000000,22.3805060000 114.2131000000,22.3805400000 114.2131970000,22.3805730000 114.2132790000,22.3806180000 114.2133670000,22.3806700000 114.2134470000,22.3807370000 114.2135190000,22.3808200000 114.2136070000,22.3809200000 114.2136670000,22.3810220000 114.2137040000,22.3811220000 114.2138030000,22.3816020000 114.2138490000,22.3818030000 114.2140080000,22.3824520000 114.2140630000,22.3826840000 114.2140170000,22.3828970000 114.2140410000,22.3830130000 114.2140470000,22.3830480000 114.2140710000,22.3832190000 114.2140860000,22.3833280000 114.2142080000,22.3832970000 114.2143070000,22.3832730000 114.2143310000,22.3832620000 114.2143870000,22.3832380000 114.2144350000,22.3832170000 114.2144950000,22.3831860000 114.2145790000,22.3831370000 114.2146520000,22.3830950000 114.2147950000,22.3830110000 114.2149390000,22.3829130000 114.2150880000,22.3827810000 114.2152090000,22.3826480000 114.2152910000,22.3825050000 114.2155820000,22.3821540000 114.2158730000,22.3817950000 114.2159650000,22.3816910000 114.2160760000,22.3815960000 114.2162250000,22.3814970000 114.2163870000,22.3814130000 114.2165500000,22.3813730000 114.2167180000,22.3813630000 114.2169230000,22.3813800000 114.2170870000,22.3814230000 114.2172480000,22.3814900000 114.2173990000,22.3816150000 114.2175270000,22.3817340000 114.2176290000,22.3818160000 114.2175580000,22.3819500000 114.2175560000,22.3820870000 114.2175550000,22.3821340000 114.2175540000,22.3821930000 114.2175520000,22.3822710000 114.2175510000,22.3823430000 114.2175540000,22.3823790000 114.2175640000,22.3824130000 114.2175860000,22.3824370000 114.2176160000,22.3824470000 114.2176950000,22.3824500000 114.2178060000,22.3824490000 114.2178060000,22.3824490000 114.2178490000,22.3824260000 114.2178770000,22.3823990000 114.2178840000,22.3823760000 114.2178900000,22.3823490000 114.2178910000,22.3822760000 114.2178930000,22.3822010000 114.2178950000,22.3821430000 114.2178960000,22.3820950000 114.2178940000,22.3819370000 114.2177960000,22.3819170000 114.2177070000,22.3818750000 114.2176290000,22.3818160000 114.2175270000,22.3817340000 114.2173990000,22.3816150000 114.2172480000,22.3814900000 114.2170870000,22.3814230000 114.2169230000,22.3813800000 114.2167180000,22.3813630000 114.2165500000,22.3813730000 114.2163870000,22.3814130000 114.2162250000,22.3814970000 114.2160760000,22.3815960000 114.2159650000,22.3816910000 114.2158730000,22.3817950000 114.2155820000,22.3821540000 114.2152910000,22.3825050000 114.2151140000,22.3826460000 114.2149280000,22.3828210000 114.2147440000,22.3829530000 114.2146200000,22.3830260000 114.2145430000,22.3830680000 114.2144700000,22.3831030000 114.2143910000,22.3831370000 114.2143570000,22.3831480000 114.2143010000,22.3831670000 114.2142780000,22.3831740000 114.2141790000,22.3832020000 114.2140710000,22.3832190000 114.2139650000,22.3832370000 114.2139310000,22.3832420000 114.2138820000,22.3832500000 114.2137870000,22.3832600000 114.2136810000,22.3832690000 114.2134490000,22.3832630000 114.2134310000,22.3832620000 114.2133650000,22.3832550000 114.2132440000,22.3832350000 114.2132130000,22.3832300000 114.2131670000,22.3832230000 114.2129960000,22.3831820000 114.2128300000,22.3831460000 114.2127190000,22.3831190000 114.2126790000,22.3831110000 114.2123870000,22.3830380000 114.2120490000,22.3829620000 114.2118440000,22.3829150000 114.2117520000,22.3829030000 114.2116660000,22.3828970000 114.2115410000,22.3828970000 114.2114350000,22.3828900000 114.2113360000,22.3828850000 114.2110820000,22.3828990000 114.2109770000,22.3829120000 114.2109340000,22.3829170000 114.2106370000,22.3829680000 114.2105490000,22.3829860000 114.2103260000,22.3830540000 114.2101830000,22.3830170000 114.2100400000,22.3829610000 114.2099130000,22.3828840000 114.2096810000,22.3825680000 114.2094730000,22.3823120000 114.2092510000,22.3820740000 114.2091000000,22.3819100000 114.2090060000,22.3818220000 114.2088880000,22.3817120000 114.2087770000,22.3816030000 114.2087310000,22.3815620000 114.2084190000,22.3812940000 114.2083780000,22.3812600000 114.2083430000,22.3812340000 114.2082510000,22.3811680000 114.2081530000,22.3810970000 114.2080970000,22.3810560000 114.2080670000,22.3810360000 114.2079350000,22.3809460000 114.2074890000,22.3806430000 114.2074680000,22.3806290000 114.2073420000,22.3805420000 114.2072680000,22.3804860000 114.2071670000,22.3805730000 114.2070810000,22.3806670000 114.2070490000,22.3807380000 114.2067940000,22.3810520000 114.2067120000,22.3811470000 114.2065970000,22.3812650000 114.2059430000,22.3818070000 114.2053090000,22.3823850000 114.2050910000,22.3825840000 114.2050460000,22.3826260000 114.2049480000,22.3827470000 114.2048660000,22.3828330000 114.2045430000,22.3831520000 114.2045140000,22.3831790000 114.2044520000,22.3832370000 114.2043770000,22.3833040000 114.2044480000,22.3833670000 114.2045190000,22.3834330000 114.2045380000,22.3834500000 114.2045610000,22.3834710000 114.2045750000,22.3834830000 114.2047200000,22.3836130000 114.2050970000,22.3839620000 114.2055410000,22.3843790000 114.2057380000,22.3845660000 114.2058210000,22.3846440000 114.2062870000,22.3851080000 114.2066700000,22.3855000000 114.2067660000,22.3856450000 114.2063210000,22.3860620000 114.2057960000,22.3865480000 114.2056790000,22.3866550000 114.2054570000,22.3868630000 114.2044830000,22.3877560000 114.2044230000,22.3878100000 114.2043060000,22.3879200000 114.2041290000,22.3880820000 114.2036530000,22.3884910000 114.2035640000,22.3885490000 114.2032940000,22.3888140000 114.2030980000,22.3889890000 114.2030170000,22.3890100000 114.2029840000,22.3890180000 114.2029370000,22.3890280000 114.2028960000,22.3890340000 114.2027170000,22.3890480000 114.2026050000,22.3890070000 114.2024460000,22.3889400000 114.2023090000,22.3888720000 114.2021230000,22.3887760000 114.2020490000,22.3887230000 114.2019260000,22.3886310000 114.2018730000,22.3885900000 114.2016370000,22.3883660000 114.2013350000,22.3880410000 114.2012090000,22.3879200000 114.2009930000,22.3877010000 114.2006990000,22.3874090000 114.2004190000,22.3871470000 114.2003550000,22.3870720000 114.2002730000,22.3869740000 114.2000060000,22.3866810000 114.1991290000,22.3857640000 114.1990510000,22.3856840000 114.1989730000,22.3856300000 114.1985220000,22.3851640000 114.1985010000,22.3851400000 114.1982680000,22.3848930000 114.1978770000,22.3844980000 114.1974760000,22.3840970000 114.1970810000,22.3836770000 114.1967410000,22.3833330000 114.1965150000,22.3831010000 114.1964480000,22.3830380000 114.1963910000,22.3829810000 114.1963220000,22.3829060000 114.1960570000,22.3826310000 114.1959550000,22.3825270000 114.1958890000,22.3824600000 114.1958440000,22.3824140000 114.1958000000,22.3823680000 114.1956080000,22.3821630000 114.1955330000,22.3820880000 114.1950540000,22.3815850000 114.1949750000,22.3815020000 114.1946700000,22.3811780000 114.1946090000,22.3811120000 114.1945450000,22.3810470000 114.1944310000,22.3809590000 114.1943620000,22.3808880000 114.1942760000,22.3808010000 114.1941980000,22.3808690000 114.1940710000,22.3809730000 114.1940550000,22.3809860000 114.1940320000,22.3810050000 114.1939990000,22.3810350000 114.1938770000,22.3811360000 114.1935240000,22.3814280000 114.1933990000,22.3815310000 114.1927960000,22.3820390000 114.1927170000,22.3821100000 114.1925000000,22.3822770000 114.1923480000,22.3823940000 114.1922520000,22.3824640000 114.1919690000,22.3826990000 114.1919410000,22.3827240000 114.1918810000,22.3827750000 114.1916090000,22.3824660000 114.1912450000,22.3820650000 114.1912000000,22.3820300000 114.1911790000,22.3820140000 114.1910440000,22.3818530000 114.1908210000,22.3816730000 114.1907870000,22.3816510000 114.1907340000,22.3816340000 114.1906780000,22.3816380000 114.1906170000,22.3816640000 114.1901230000,22.3820560000 114.1900570000,22.3821060000 114.1900350000,22.3821250000 114.1899850000,22.3821660000 114.1898810000,22.3822530000 114.1894180000,22.3826610000 114.1893390000,22.3826620000 114.1892790000,22.3826550000 114.1892130000,22.3826200000 114.1891310000,22.3825500000 114.1890120000,22.3824290000 114.1889510000,22.3823670000 114.1889310000,22.3823470000 114.1888650000,22.3822840000 114.1887690000,22.3821850000 114.1887300000,22.3821440000 114.1885980000,22.3820010000 114.1883520000,22.3817370000 114.1882370000,22.3816180000 114.1880070000,22.3813810000 114.1877930000,22.3811480000 114.1877530000,22.3810220000 114.1877500000,22.3809900000 114.1877430000,22.3809330000 114.1877590000,22.3808370000 114.1878940000,22.3802620000 114.1879810000,22.3802240000 114.1880080000,22.3802250000 114.1880310000,22.3802250000 114.1880660000,22.3802200000 114.1880950000,22.3802120000 114.1881240000,22.3801950000 114.1881480000,22.3801630000 114.1881670000,22.3801230000 114.1882190000,22.3799470000 114.1883690000,22.3794520000 114.1884240000,22.3792710000 114.1884200000,22.3792250000 114.1884090000,22.3791820000 114.1884010000,22.3791480000 114.1883800000,22.3791080000 114.1883030000,22.3790210000 114.1882330000,22.3789900000 114.1881900000,22.3789830000 114.1881480000,22.3789820000 114.1880710000,22.3790020000 114.1875450000,22.3788710000 114.1872680000,22.3787920000 114.1871950000,22.3787780000 114.1870320000,22.3787410000 114.1870070000,22.3787350000 114.1868230000,22.3786890000 114.1867530000,22.3786720000 114.1866830000,22.3786540000 114.1864190000,22.3785880000 114.1862770000,22.3785520000 114.1861570000,22.3785220000 114.1859800000,22.3784780000 114.1853650000,22.3783080000 114.1848770000,22.3781770000 114.1843300000,22.3780410000 114.1833600000,22.3777810000 114.1825810000,22.3775410000 114.1824210000,22.3774870000 114.1821460000,22.3773940000 114.1817750000,22.3772900000 114.1814860000,22.3772230000 114.1812330000,22.3771200000 114.1810770000,22.3770870000 114.1807050000,22.3770750000 114.1806100000,22.3770750000 114.1805120000,22.3770780000 114.1803650000,22.3770880000 114.1801590000,22.3771100000 114.1800770000,22.3771190000 114.1799620000,22.3771320000 114.1797710000,22.3771530000 114.1797400000,22.3771550000 114.1796850000,22.3771590000 114.1795730000,22.3771700000 114.1794630000,22.3771820000 114.1793940000,22.3771860000 114.1793310000,22.3771880000 114.1792580000,22.3771880000 114.1791490000,22.3771840000 114.1790550000,22.3771770000 114.1789350000,22.3771640000 114.1788160000,22.3771480000 114.1786810000,22.3771310000 114.1784220000,22.3770450000 114.1782090000,22.3769780000 114.1780360000,22.3769230000 114.1778920000,22.3768730000 114.1778370000,22.3768530000 114.1777010000,22.3768030000 114.1776080000,22.3767700000 114.1774760000,22.3767240000 114.1773450000,22.3766760000 114.1772560000,22.3766410000 114.1771880000,22.3766130000 114.1771240000,22.3765850000 114.1770860000,22.3765680000 114.1770560000,22.3765530000 114.1769990000,22.3765240000 114.1769110000,22.3764770000 114.1768470000,22.3764410000 114.1767840000,22.3764050000 114.1767230000,22.3763660000 114.1766700000,22.3763270000 114.1766160000,22.3762830000 114.1765610000,22.3762340000 114.1764820000,22.3761590000 114.1763990000,22.3760750000 114.1763350000,22.3760110000 114.1762860000,22.3759540000 114.1762340000,22.3758880000 114.1761840000,22.3758160000 114.1761330000,22.3757340000 114.1760840000,22.3756510000 114.1760500000,22.3755640000 114.1760220000,22.3754850000 114.1760020000,22.3754130000 114.1759830000,22.3753340000 114.1759210000,22.3750910000 114.1758770000,22.3749180000 114.1758310000,22.3747660000 114.1757460000,22.3744900000 114.1756560000,22.3741810000 114.1756130000,22.3740410000 114.1755720000,22.3739030000 114.1755320000,22.3737890000 114.1752430000,22.3731020000 114.1752250000,22.3730600000 114.1751810000,22.3729630000 114.1751470000,22.3728820000 114.1751080000,22.3727910000 114.1750470000,22.3726500000 114.1750040000,22.3725410000 114.1749490000,22.3724020000 114.1748750000,22.3722150000 114.1748120000,22.3720330000 114.1747860000,22.3719660000 114.1747480000,22.3718670000 114.1746990000,22.3717330000 114.1746750000,22.3716700000 114.1745040000,22.3711910000 114.1743300000,22.3708080000 114.1742050000,22.3705720000 114.1740820000,22.3703730000 114.1739310000,22.3701440000 114.1737770000,22.3699330000 114.1734390000,22.3695270000 114.1729410000,22.3689200000 114.1720690000,22.3679170000 114.1719050000,22.3677360000 114.1718730000,22.3677060000 114.1717540000,22.3675940000 114.1714510000,22.3673010000 114.1712410000,22.3671300000 114.1710830000,22.3669950000 114.1708010000,22.3668090000 114.1707350000,22.3667650000 114.1705850000,22.3666650000 114.1700580000,22.3663920000 114.1696200000,22.3661870000 114.1693700000,22.3660800000 114.1690900000,22.3659700000 114.1688000000,22.3658700000 114.1679000000,22.3655600000 114.1676500000,22.3654680000 114.1674100000,22.3653700000 114.1671510000,22.3652590000 114.1668800000,22.3651200000 114.1666000000,22.3649610000 114.1663400000,22.3648000000 114.1661110000,22.3646300000 114.1658330000,22.3644190000 114.1655700000,22.3641900000 114.1652900000,22.3639200000 114.1650400000,22.3636500000 114.1647950000,22.3633420000 114.1645710000,22.3630290000 114.1644150000,22.3627810000 114.1642800000,22.3625400000 114.1641500000,22.3622800000 114.1640460000,22.3620400000 114.1638700000,22.3615800000 114.1637210000,22.3611110000 114.1637100000,22.3610520000 114.1636640000,22.3608010000 114.1636270000,22.3605980000 114.1635960000,22.3604240000 114.1635340000,22.3601250000 114.1634800000,22.3598630000 114.1634020000,22.3594020000 114.1633920000,22.3593450000 114.1633850000,22.3593180000 114.1633360000,22.3591380000 114.1632540000,22.3589100000 114.1631150000,22.3585280000 114.1630160000,22.3583170000 114.1629250000,22.3581210000 114.1628900000,22.3580470000 114.1628420000,22.3579440000 114.1627680000,22.3578120000 114.1612200000,22.3548600000 114.1609300000,22.3543480000 114.1606500000,22.3538990000 114.1602900000,22.3533700000 114.1598500000,22.3527830000 114.1593800000,22.3522300000 114.1588600000,22.3516800000 114.1582120000,22.3510800000 114.1575320000,22.3505200000 114.1568480000,22.3500100000 114.1560300000,22.3495000000 114.1552990000,22.3490900000 114.1545000000,22.3487000000 114.1540510000,22.3485090000 114.1536090000,22.3483400000 114.1529600000,22.3481200000 114.1525800000,22.3480000000 114.1521900000,22.3478900000 114.1514300000,22.3477100000 114.1502620000,22.3474600000 114.1501650000,22.3474350000 114.1499190000,22.3473730000 114.1497280000,22.3473150000 114.1496100000,22.3472800000 114.1493680000,22.3471970000 114.1491700000,22.3471300000 114.1490130000,22.3470680000 114.1489200000,22.3470310000 114.1487670000,22.3469630000 114.1486770000,22.3469230000 114.1485300000,22.3468500000 114.1484300000,22.3468000000 114.1482670000,22.3467040000 114.1482100000,22.3466700000 114.1480400000,22.3465580000 114.1476800000,22.3463200000 114.1473860000,22.3460910000 114.1467400000,22.3455350000 114.1464340000,22.3452630000 114.1462710000,22.3451250000 114.1459170000,22.3448260000 114.1457580000,22.3446850000 114.1454730000,22.3444410000 114.1452120000,22.3442150000 114.1448280000,22.3438830000 114.1447790000,22.3438400000 114.1446950000,22.3437580000 114.1443400000,22.3434000000 114.1442300000,22.3432750000 114.1441560000,22.3431830000 114.1441010000,22.3431170000 114.1439850000,22.3429480000 114.1438910000,22.3427920000 114.1438380000,22.3426930000 114.1437440000,22.3425030000 114.1436790000,22.3423470000 114.1436390000,22.3422260000 114.1435950000,22.3420830000 114.1435560000,22.3419220000 114.1435400000,22.3418500000 114.1435250000,22.3417710000 114.1435190000,22.3417290000 114.1435150000,22.3416860000 114.1435060000,22.3416020000 114.1434990000,22.3415250000 114.1434930000,22.3414410000 114.1434900000,22.3413600000 114.1434900000,22.3412740000 114.1434920000,22.3411950000 114.1434960000,22.3411200000 114.1435020000,22.3410470000 114.1435140000,22.3409550000 114.1435270000,22.3408740000 114.1435390000,22.3408140000 114.1435590000,22.3407210000 114.1435800000,22.3406360000 114.1436270000,22.3404810000 114.1437240000,22.3401940000 114.1438100000,22.3399820000 114.1438890000,22.3398040000 114.1440160000,22.3395560000 114.1441260000,22.3393600000 114.1441890000,22.3392460000 114.1442730000,22.3390930000 114.1443360000,22.3389720000 114.1444390000,22.3387750000 114.1444930000,22.3386650000 114.1445600000,22.3385210000 114.1446240000,22.3383580000 114.1447030000,22.3381300000 114.1447480000,22.3379760000 114.1447790000,22.3378470000 114.1447990000,22.3377460000 114.1448290000,22.3375470000 114.1448450000,22.3374170000 114.1448570000,22.3372800000 114.1448640000,22.3371400000 114.1448640000,22.3370970000 114.1448650000,22.3370360000 114.1448550000,22.3368660000 114.1448480000,22.3367820000 114.1448190000,22.3363080000 114.1447990000,22.3359850000 114.1447760000,22.3356030000 114.1447880000,22.3355150000 114.1448000000,22.3354270000 114.1448140000,22.3353290000 114.1448280000,22.3352280000 114.1448400000,22.3351580000 114.1448410000,22.3350380000 114.1448480000,22.3349410000 114.1448610000,22.3347450000 114.1448720000,22.3344950000 114.1448740000,22.3342030000 114.1448660000,22.3339160000 114.1448600000,22.3336460000 114.1448480000,22.3334670000 114.1448420000,22.3332770000 114.1448450000,22.3331250000 114.1448470000,22.3329750000 114.1448500000,22.3327920000 114.1448560000,22.3325910000 114.1448570000,22.3324600000 114.1448680000,22.3322660000 114.1448700000,22.3321190000 114.1449140000,22.3317840000 114.1449270000,22.3316830000 114.1449700000,22.3315250000 114.1450250000,22.3313930000 114.1451020000,22.3312730000 114.1452250000,22.3311440000 114.1453490000,22.3310510000 114.1455680000,22.3309560000 114.1459050000,22.3308360000 114.1473900000,22.3302710000 114.1475820000,22.3302310000 114.1476800000,22.3302380000 114.1477990000,22.3302730000 114.1479200000,22.3303450000 114.1480280000,22.3304730000 114.1481870000,22.3307510000 114.1481970000,22.3307710000 114.1483390000,22.3309430000 114.1485430000,22.3313480000 114.1485660000,22.3313920000 114.1486220000,22.3315440000 114.1486470000,22.3316010000 114.1487080000,22.3317170000 114.1487750000,22.3318410000 114.1490650000,22.3322920000 114.1491970000,22.3324960000 114.1495270000,22.3329250000 114.1496600000,22.3330930000 114.1498610000,22.3333490000 114.1499210000,22.3334230000 114.1500090000,22.3335310000 114.1500930000,22.3336210000 114.1501190000,22.3336490000 114.1501350000,22.3336660000 114.1501580000,22.3336910000 114.1503820000,22.3339310000 114.1504050000,22.3339560000 114.1504190000,22.3339770000 114.1505350000,22.3341480000 114.1505020000,22.3342350000 114.1504820000,22.3342870000 114.1504730000,22.3343100000 114.1504510000,22.3343670000 114.1504250000,22.3344340000 114.1502450000,22.3348950000 114.1501230000,22.3351390000 114.1499570000,22.3353760000 114.1497410000,22.3355450000 114.1496850000,22.3355730000 114.1496510000,22.3355900000 114.1493260000,22.3357550000 114.1491960000,22.3357190000 114.1490800000,22.3356700000 114.1490590000,22.3355660000 114.1488760000,22.3355020000 114.1488370000,22.3354880000 114.1485900000,22.3354020000 114.1483930000,22.3353330000 114.1476490000,22.3350740000 114.1472240000,22.3349270000 114.1470120000,22.3348700000 114.1467160000,22.3348120000 114.1465810000,22.3348200000 114.1464290000,22.3348320000 114.1463770000,22.3348280000 114.1462990000,22.3348280000 114.1460590000,22.3348640000 114.1458460000,22.3349440000 114.1456930000,22.3350150000 114.1455580000,22.3350970000 114.1454170000,22.3352060000 114.1450890000,22.3356250000 114.1450500000,22.3356440000 114.1449680000,22.3356870000 114.1448690000,22.3357710000 114.1447130000,22.3358680000 114.1445780000,22.3359160000 114.1442480000,22.3360340000 114.1436450000,22.3362470000 114.1435550000,22.3362770000 114.1434960000,22.3363030000 114.1430170000,22.3364030000 114.1425200000,22.3364870000 114.1424270000,22.3365020000 114.1422030000,22.3365370000 114.1420170000,22.3365530000 114.1418910000,22.3365620000 114.1417120000,22.3365530000 114.1414680000,22.3365370000 114.1413260000,22.3365390000 114.1412600000,22.3365370000 114.1411080000,22.3365480000 114.1410430000,22.3365590000 114.1409290000,22.3365820000 114.1409000000,22.3365890000 114.1407560000,22.3366960000 114.1407070000,22.3367480000 114.1406970000,22.3367590000 114.1406730000,22.3367890000 114.1406560000,22.3368360000 114.1406530000,22.3368590000 114.1406510000,22.3368810000 114.1406560000,22.3369280000 114.1406650000,22.3369730000 114.1406780000,22.3370340000 114.1406860000,22.3370720000 114.1407100000,22.3371650000 114.1407160000,22.3371830000 114.1407400000,22.3373260000 114.1407590000,22.3374170000 114.1407720000,22.3374530000 114.1407910000,22.3375080000 114.1408050000,22.3375720000 114.1408270000,22.3376360000 114.1408620000,22.3377170000 114.1408750000,22.3378000000 114.1408830000,22.3378540000 114.1409010000,22.3378950000 114.1408920000,22.3379200000 114.1408410000,22.3380470000 114.1407900000,22.3381750000 114.1406940000,22.3384080000 114.1405770000,22.3386800000 114.1404550000,22.3389680000 114.1404370000,22.3390090000 114.1404240000,22.3390400000 114.1402940000,22.3393520000 114.1402190000,22.3394950000 114.1401060000,22.3396100000 114.1399330000,22.3397180000 114.1397460000,22.3398030000 114.1391670000,22.3400660000 114.1390540000,22.3401220000 114.1389570000,22.3401860000 114.1388710000,22.3403040000 114.1388120000,22.3404000000 114.1387270000,22.3405360000 114.1387080000,22.3405660000 114.1386660000,22.3406270000 114.1386480000,22.3406520000 114.1384250000,22.3409750000 114.1383080000,22.3411790000 114.1382820000,22.3412500000 114.1382710000,22.3412900000 114.1382510000,22.3414930000 114.1382280000,22.3416610000 114.1381780000,22.3420310000 114.1380590000,22.3428790000 114.1380300000,22.3430850000 114.1380060000,22.3431650000 114.1379750000,22.3432680000 114.1378470000,22.3434710000 114.1376980000,22.3436010000 114.1376660000,22.3436170000 114.1375140000,22.3436930000 114.1373940000,22.3437330000 114.1372550000,22.3437800000 114.1370050000,22.3438070000 114.1368240000,22.3438050000 114.1366240000,22.3437950000 114.1365110000,22.3437860000 114.1363960000,22.3437530000 114.1362190000,22.3436830000 114.1362090000,22.3436790000 114.1360650000,22.3436160000 114.1359630000,22.3435530000 114.1358940000,22.3434910000 114.1358680000,22.3434630000 114.1357870000,22.3433600000 114.1357210000,22.3432280000 114.1356780000,22.3431040000 114.1356580000,22.3429590000 114.1356770000,22.3427460000 114.1357290000,22.3425550000 114.1358100000,22.3422550000 114.1359420000,22.3418150000 114.1359630000,22.3415400000 114.1359800000,22.3414030000 114.1360020000,22.3412090000 114.1360060000,22.3411740000 114.1360190000,22.3410380000 114.1360210000,22.3409960000 114.1360170000,22.3408400000 114.1359980000,22.3406730000 114.1359760000,22.3405340000 114.1359180000,22.3403670000 114.1358410000,22.3402360000 114.1357070000,22.3400330000 114.1356630000,22.3399700000 114.1355380000,22.3398460000 114.1353580000,22.3397230000 114.1352430000,22.3396610000 114.1352030000,22.3396440000 114.1351480000,22.3396230000 114.1349610000,22.3395810000 114.1347630000,22.3395580000 114.1345850000,22.3395590000 114.1344360000,22.3395760000 114.1342230000,22.3396380000 114.1341100000,22.3397000000 114.1340200000,22.3397730000 114.1339150000,22.3398720000 114.1338870000,22.3398980000 114.1335400000,22.3402400000 114.1334820000,22.3403190000 114.1334490000,22.3403600000 114.1327780000,22.3411980000 114.1327210000,22.3412830000 114.1326420000,22.3414080000 114.1325470000,22.3416470000 114.1324580000,22.3419520000 114.1323000000,22.3423570000 114.1321890000,22.3426370000 114.1321130000,22.3427680000 114.1320790000,22.3428130000 114.1320490000,22.3428520000 114.1320060000,22.3429090000 114.1319750000,22.3429440000 114.1319200000,22.3430160000 114.1318710000,22.3430690000 114.1318590000,22.3430820000 114.1316120000,22.3432840000 114.1314340000,22.3434040000 114.1311630000,22.3435560000 114.1310630000,22.3436110000 114.1292610000,22.3444450000 114.1290630000,22.3445380000 114.1281460000,22.3449640000 114.1278460000,22.3450990000 114.1274510000,22.3452720000 114.1273000000,22.3453460000 114.1272580000,22.3453740000 114.1270880000,22.3454980000 114.1269290000,22.3456320000 114.1267680000,22.3458440000 114.1266680000,22.3460270000 114.1266330000,22.3461520000 114.1266080000,22.3463380000 114.1266050000,22.3465080000 114.1266150000,22.3466550000 114.1266380000,22.3468240000 114.1266770000,22.3471440000 114.1266910000,22.3472600000 114.1267320000,22.3476620000 114.1267540000,22.3478790000 114.1267600000,22.3479400000 114.1268540000,22.3486240000 114.1269300000,22.3491900000 114.1269590000,22.3494010000 114.1269600000,22.3494100000 114.1270130000,22.3498800000 114.1270210000,22.3499480000 114.1270250000,22.3499820000 114.1271310000,22.3508790000 114.1271740000,22.3510640000 114.1272590000,22.3513070000 114.1273030000,22.3514270000 114.1274790000,22.3517790000 114.1275110000,22.3518410000 114.1275680000,22.3519570000 114.1282710000,22.3535010000 114.1283350000,22.3536490000 114.1283640000,22.3537320000 114.1283850000,22.3538170000 114.1284000000,22.3539030000 114.1284070000,22.3539900000 114.1284070000,22.3540770000 114.1284000000,22.3541640000 114.1283850000,22.3542480000 114.1283620000,22.3543320000 114.1283300000,22.3544140000 114.1282890000,22.3544930000 114.1282410000,22.3545670000 114.1281850000,22.3546370000 114.1281220000,22.3547020000 114.1280530000,22.3547610000 114.1279800000,22.3548130000 114.1279200000,22.3548520000 114.1278350000,22.3549020000 114.1277470000,22.3549460000 114.1276570000,22.3549830000 114.1273780000,22.3550820000 114.1271410000,22.3551310000 114.1270870000,22.3551400000 114.1270230000,22.3551480000 114.1269590000,22.3551510000 114.1268950000,22.3551500000 114.1266690000,22.3551300000 114.1266220000,22.3551210000 114.1265740000,22.3551190000 114.1265270000,22.3551240000 114.1264820000,22.3551370000 114.1264390000,22.3551580000 114.1263260000,22.3551820000 114.1262910000,22.3551860000 114.1262560000,22.3551840000 114.1262220000,22.3551750000 114.1261910000,22.3551610000 114.1261630000,22.3551410000 114.1259840000,22.3550090000 114.1259950000,22.3548990000 114.1260080000,22.3548650000 114.1260320000,22.3548330000 114.1260630000,22.3548090000 114.1260990000,22.3547940000 114.1261390000,22.3547890000 114.1261790000,22.3547940000 114.1262180000,22.3548090000 114.1262510000,22.3548170000 114.1262880000,22.3548210000 114.1264280000,22.3548310000 114.1267010000,22.3548510000 114.1267670000,22.3548590000 114.1268320000,22.3548720000 114.1268960000,22.3548900000 114.1269590000,22.3549130000 114.1270680000,22.3549500000 114.1271050000,22.3549590000 114.1271450000,22.3549580000 114.1271830000,22.3549460000 114.1272170000,22.3549260000 114.1272430000,22.3548980000 114.1272600000,22.3548640000 114.1272620000,22.3548510000 114.1272660000,22.3548270000 114.1272610000,22.3547900000 114.1272460000,22.3547560000 114.1272210000,22.3547270000 114.1271880000,22.3547060000 114.1271600000,22.3546950000 114.1271300000,22.3546900000 114.1271000000,22.3546910000 114.1270710000,22.3546970000 114.1270320000,22.3547010000 114.1269930000,22.3547030000 114.1269540000,22.3547040000 114.1269150000,22.3547030000 114.1268760000,22.3547010000 114.1265770000,22.3546800000</coordinates>
                </LineString>
                <ExtendedData>
                    <Data name="duration">
                        <value>00:45:52</value>
                    </Data>
                    <Data name="length">
                        <value>36798.450061504496</value>
                    </Data>
                </ExtendedData>
            </Placemark>
        </Document>
    </Document>
</kml>