<?xml version="1.0" encoding="UTF-8"?>
<kml xmlns="http://www.opengis.net/kml/2.2" xmlns:gx="http://www.google.com/kml/ext/2.2">
    <Document>
        <name>Route</name>
        <Folder>
            <name>Route Request</name>
            <Placemark>
                <address>Riviera Gardens Public Transport Interchange, Yi Lok Street, Tsuen Wan East Industrial Area, Tsuen Wan Town Centre, Tsuen Wan, Tsuen Wan District, New Territories, Hong Kong, China</address>
                <Point>
                    <coordinates>114.1140593236,22.3624928921</coordinates>
                </Point>
                <ExtendedData>
                    <Data name="country">
                        <value>China</value>
                    </Data>
                    <Data name="amenity">
                        <value>Riviera Gardens Public Transport Interchange</value>
                    </Data>
                    <Data name="town">
                        <value>Tsuen Wan</value>
                    </Data>
                    <Data name="country_code">
                        <value>cn</value>
                    </Data>
                    <Data name="ISO3166-2-lvl3">
                        <value>CN-HK</value>
                    </Data>
                    <Data name="state">
                        <value>Hong Kong</value>
                    </Data>
                    <Data name="municipality">
                        <value>New Territories</value>
                    </Data>
                    <Data name="quarter">
                        <value>Tsuen Wan East Industrial Area</value>
                    </Data>
                    <Data name="city">
                        <value>Tsuen Wan District</value>
                    </Data>
                    <Data name="suburb">
                        <value>Tsuen Wan Town Centre</value>
                    </Data>
                    <Data name="road">
                        <value>Yi Lok Street</value>
                    </Data>
                </ExtendedData>
            </Placemark>
            <Placemark>
                <address>Kwai Chung Sports Ground, 93, Hing Shing Road, Kwai Shing Circuit, Chung Kwai Chung, Kwai Chung, Kwai Tsing District, New Territories, Hong Kong, China</address>
                <Point>
                    <coordinates>114.1250680125,22.3573545671</coordinates>
                </Point>
                <ExtendedData>
                    <Data name="country">
                        <value>China</value>
                    </Data>
                    <Data name="leisure">
                        <value>Kwai Chung Sports Ground</value>
                    </Data>
                    <Data name="house_number">
                        <value>93</value>
                    </Data>
                    <Data name="town">
                        <value>Kwai Chung</value>
                    </Data>
                    <Data name="country_code">
                        <value>cn</value>
                    </Data>
                    <Data name="ISO3166-2-lvl3">
                        <value>CN-HK</value>
                    </Data>
                    <Data name="state">
                        <value>Hong Kong</value>
                    </Data>
                    <Data name="municipality">
                        <value>New Territories</value>
                    </Data>
                    <Data name="quarter">
                        <value>Kwai Shing Circuit</value>
                    </Data>
                    <Data name="city">
                        <value>Kwai Tsing District</value>
                    </Data>
                    <Data name="suburb">
                        <value>Chung Kwai Chung</value>
                    </Data>
                    <Data name="road">
                        <value>Hing Shing Road</value>
                    </Data>
                </ExtendedData>
            </Placemark>
            <Placemark>
                <address>Mei Foo, Lai Chi Kok Road, Lai Chi Kok Hill, Lai Chi Kok, Sham Shui Po District, Kowloon, Hong Kong, 999077, China</address>
                <Point>
                    <coordinates>114.1396461935,22.3374320931</coordinates>
                </Point>
                <ExtendedData>
                    <Data name="postcode">
                        <value>999077</value>
                    </Data>
                    <Data name="country">
                        <value>China</value>
                    </Data>
                    <Data name="amenity">
                        <value>Mei Foo</value>
                    </Data>
                    <Data name="neighbourhood">
                        <value>Lai Chi Kok Hill</value>
                    </Data>
                    <Data name="ISO3166-2-lvl3">
                        <value>CN-HK</value>
                    </Data>
                    <Data name="country_code">
                        <value>cn</value>
                    </Data>
                    <Data name="state">
                        <value>Hong Kong</value>
                    </Data>
                    <Data name="city_district">
                        <value>Sham Shui Po District</value>
                    </Data>
                    <Data name="city">
                        <value>Kowloon</value>
                    </Data>
                    <Data name="suburb">
                        <value>Lai Chi Kok</value>
                    </Data>
                    <Data name="road">
                        <value>Lai Chi Kok Road</value>
                    </Data>
                </ExtendedData>
            </Placemark>
            <Placemark>
                <Point>
                    <coordinates>114.1659532808,22.3237138138</coordinates>
                </Point>
                <ExtendedData>
                    <Data name="routingVisited">
                        <value>false</value>
                    </Data>
                </ExtendedData>
            </Placemark>
            <Placemark>
                <address>Cheung Sha Wan Road Fashion Street, Cheung Sha Wan Road, Un Chau, Sham Shui Po, Sham Shui Po District, Kowloon, Hong Kong, 000000, China</address>
                <Point>
                    <coordinates>114.1683602283,22.3226617945</coordinates>
                </Point>
                <ExtendedData>
                    <Data name="postcode">
                        <value>000000</value>
                    </Data>
                    <Data name="country">
                        <value>China</value>
                    </Data>
                    <Data name="tourism">
                        <value>Cheung Sha Wan Road Fashion Street</value>
                    </Data>
                    <Data name="routingVisited">
                        <value>false</value>
                    </Data>
                    <Data name="neighbourhood">
                        <value>Un Chau</value>
                    </Data>
                    <Data name="ISO3166-2-lvl3">
                        <value>CN-HK</value>
                    </Data>
                    <Data name="country_code">
                        <value>cn</value>
                    </Data>
                    <Data name="state">
                        <value>Hong Kong</value>
                    </Data>
                    <Data name="city_district">
                        <value>Sham Shui Po District</value>
                    </Data>
                    <Data name="city">
                        <value>Kowloon</value>
                    </Data>
                    <Data name="suburb">
                        <value>Sham Shui Po</value>
                    </Data>
                    <Data name="road">
                        <value>Cheung Sha Wan Road</value>
                    </Data>
                </ExtendedData>
            </Placemark>
            <Placemark>
                <address>Pak Shing Building, 31-37, Jordan Road, Kwun Chung, Tsim Sha Tsui, Yau Tsim Mong District, Kowloon, Hong Kong, 000000, China</address>
                <Point>
                    <coordinates>114.1689698583,22.2936952920</coordinates>
                </Point>
                <ExtendedData>
                    <Data name="building">
                        <value>Pak Shing Building</value>
                    </Data>
                    <Data name="postcode">
                        <value>000000</value>
                    </Data>
                    <Data name="country">
                        <value>China</value>
                    </Data>
                    <Data name="house_number">
                        <value>31-37</value>
                    </Data>
                    <Data name="routingVisited">
                        <value>false</value>
                    </Data>
                    <Data name="neighbourhood">
                        <value>Kwun Chung</value>
                    </Data>
                    <Data name="ISO3166-2-lvl3">
                        <value>CN-HK</value>
                    </Data>
                    <Data name="country_code">
                        <value>cn</value>
                    </Data>
                    <Data name="state">
                        <value>Hong Kong</value>
                    </Data>
                    <Data name="city_district">
                        <value>Yau Tsim Mong District</value>
                    </Data>
                    <Data name="city">
                        <value>Kowloon</value>
                    </Data>
                    <Data name="suburb">
                        <value>Tsim Sha Tsui</value>
                    </Data>
                    <Data name="road">
                        <value>Jordan Road</value>
                    </Data>
                </ExtendedData>
            </Placemark>
            <Placemark>
                <address>China Hong Kong City, 33, Canton Road, Kwun Chung, Tsim Sha Tsui, Yau Tsim Mong District, Kowloon, Hong Kong, 000000, China</address>
                <Point>
                    <coordinates>114.1669916588,22.3009300276</coordinates>
                </Point>
                <ExtendedData>
                    <Data name="postcode">
                        <value>000000</value>
                    </Data>
                    <Data name="country">
                        <value>China</value>
                    </Data>
                    <Data name="house_number">
                        <value>33</value>
                    </Data>
                    <Data name="neighbourhood">
                        <value>Kwun Chung</value>
                    </Data>
                    <Data name="ISO3166-2-lvl3">
                        <value>CN-HK</value>
                    </Data>
                    <Data name="country_code">
                        <value>cn</value>
                    </Data>
                    <Data name="state">
                        <value>Hong Kong</value>
                    </Data>
                    <Data name="city_district">
                        <value>Yau Tsim Mong District</value>
                    </Data>
                    <Data name="city">
                        <value>Kowloon</value>
                    </Data>
                    <Data name="shop">
                        <value>China Hong Kong City</value>
                    </Data>
                    <Data name="suburb">
                        <value>Tsim Sha Tsui</value>
                    </Data>
                    <Data name="road">
                        <value>Canton Road</value>
                    </Data>
                </ExtendedData>
            </Placemark>
            <Placemark>
                <Point>
                    <coordinates>114.1712441588,22.3053592517</coordinates>
                </Point>
                <ExtendedData>
                    <Data name="routingVisited">
                        <value>false</value>
                    </Data>
                </ExtendedData>
            </Placemark>
            <Placemark>
                <address>Nathan Road, Mong Kok, Yau Tsim Mong District, Kowloon, Hong Kong, 000000, China</address>
                <Point>
                    <coordinates>114.1615671843,22.3176761452</coordinates>
                </Point>
                <ExtendedData>
                    <Data name="postcode">
                        <value>000000</value>
                    </Data>
                    <Data name="country">
                        <value>China</value>
                    </Data>
                    <Data name="routingVisited">
                        <value>false</value>
                    </Data>
                    <Data name="ISO3166-2-lvl3">
                        <value>CN-HK</value>
                    </Data>
                    <Data name="country_code">
                        <value>cn</value>
                    </Data>
                    <Data name="state">
                        <value>Hong Kong</value>
                    </Data>
                    <Data name="city_district">
                        <value>Yau Tsim Mong District</value>
                    </Data>
                    <Data name="city">
                        <value>Kowloon</value>
                    </Data>
                    <Data name="suburb">
                        <value>Mong Kok</value>
                    </Data>
                    <Data name="road">
                        <value>Nathan Road</value>
                    </Data>
                </ExtendedData>
            </Placemark>
            <Placemark>
                <Point>
                    <coordinates>114.1620693026,22.3189192206</coordinates>
                </Point>
            </Placemark>
            <Placemark>
                <address>Mei Foo, Mount Sterling Mall, Mei Foo Sun Chuen, Lai Chi Kok, Sham Shui Po District, Kowloon, Hong Kong, 999077, China</address>
                <Point>
                    <coordinates>114.1397095594,22.3368052186</coordinates>
                </Point>
                <ExtendedData>
                    <Data name="postcode">
                        <value>999077</value>
                    </Data>
                    <Data name="country">
                        <value>China</value>
                    </Data>
                    <Data name="railway">
                        <value>Mei Foo</value>
                    </Data>
                    <Data name="residential">
                        <value>Mei Foo Sun Chuen</value>
                    </Data>
                    <Data name="ISO3166-2-lvl3">
                        <value>CN-HK</value>
                    </Data>
                    <Data name="country_code">
                        <value>cn</value>
                    </Data>
                    <Data name="state">
                        <value>Hong Kong</value>
                    </Data>
                    <Data name="city_district">
                        <value>Sham Shui Po District</value>
                    </Data>
                    <Data name="city">
                        <value>Kowloon</value>
                    </Data>
                    <Data name="suburb">
                        <value>Lai Chi Kok</value>
                    </Data>
                    <Data name="road">
                        <value>Mount Sterling Mall</value>
                    </Data>
                </ExtendedData>
            </Placemark>
            <Placemark>
                <address>Kwai Yik Road, Tai Lin Pai, Chung Kwai Chung, Kwai Chung, Kwai Tsing District, New Territories, Hong Kong, China</address>
                <Point>
                    <coordinates>114.1308655572,22.3609745912</coordinates>
                </Point>
                <ExtendedData>
                    <Data name="country">
                        <value>China</value>
                    </Data>
                    <Data name="neighbourhood">
                        <value>Tai Lin Pai</value>
                    </Data>
                    <Data name="town">
                        <value>Kwai Chung</value>
                    </Data>
                    <Data name="country_code">
                        <value>cn</value>
                    </Data>
                    <Data name="ISO3166-2-lvl3">
                        <value>CN-HK</value>
                    </Data>
                    <Data name="state">
                        <value>Hong Kong</value>
                    </Data>
                    <Data name="municipality">
                        <value>New Territories</value>
                    </Data>
                    <Data name="city">
                        <value>Kwai Tsing District</value>
                    </Data>
                    <Data name="suburb">
                        <value>Chung Kwai Chung</value>
                    </Data>
                    <Data name="road">
                        <value>Kwai Yik Road</value>
                    </Data>
                </ExtendedData>
            </Placemark>
            <Placemark>
                <address>Kwai Fuk Road, Kwai Shing Circuit, Ha Kwai Chung, Kwai Chung, Kwai Tsing District, New Territories, Hong Kong, China</address>
                <Point>
                    <coordinates>114.1247947577,22.3572384479</coordinates>
                </Point>
                <ExtendedData>
                    <Data name="country">
                        <value>China</value>
                    </Data>
                    <Data name="town">
                        <value>Kwai Chung</value>
                    </Data>
                    <Data name="country_code">
                        <value>cn</value>
                    </Data>
                    <Data name="ISO3166-2-lvl3">
                        <value>CN-HK</value>
                    </Data>
                    <Data name="state">
                        <value>Hong Kong</value>
                    </Data>
                    <Data name="municipality">
                        <value>New Territories</value>
                    </Data>
                    <Data name="quarter">
                        <value>Kwai Shing Circuit</value>
                    </Data>
                    <Data name="city">
                        <value>Kwai Tsing District</value>
                    </Data>
                    <Data name="suburb">
                        <value>Ha Kwai Chung</value>
                    </Data>
                    <Data name="road">
                        <value>Kwai Fuk Road</value>
                    </Data>
                </ExtendedData>
            </Placemark>
            <Placemark>
                <address>Riviera Gardens Public Transport Interchange, Yi Lok Street, Tsuen Wan East Industrial Area, Tsuen Wan Town Centre, Tsuen Wan, Tsuen Wan District, New Territories, Hong Kong, China</address>
                <Point>
                    <coordinates>114.1140814824,22.3623836094</coordinates>
                </Point>
                <ExtendedData>
                    <Data name="country">
                        <value>China</value>
                    </Data>
                    <Data name="amenity">
                        <value>Riviera Gardens Public Transport Interchange</value>
                    </Data>
                    <Data name="town">
                        <value>Tsuen Wan</value>
                    </Data>
                    <Data name="country_code">
                        <value>cn</value>
                    </Data>
                    <Data name="ISO3166-2-lvl3">
                        <value>CN-HK</value>
                    </Data>
                    <Data name="state">
                        <value>Hong Kong</value>
                    </Data>
                    <Data name="municipality">
                        <value>New Territories</value>
                    </Data>
                    <Data name="quarter">
                        <value>Tsuen Wan East Industrial Area</value>
                    </Data>
                    <Data name="city">
                        <value>Tsuen Wan District</value>
                    </Data>
                    <Data name="suburb">
                        <value>Tsuen Wan Town Centre</value>
                    </Data>
                    <Data name="road">
                        <value>Yi Lok Street</value>
                    </Data>
                </ExtendedData>
            </Placemark>
        </Folder>
        <Document>
            <name>30.2 km; 00:37 h (OSRM)</name>
            <Placemark>
                <name>Route</name>
                <LineString>
                    <coordinates>114.1140730000,22.3625260000 114.1140530000,22.3625330000 114.1140320000,22.3625490000 114.1140160000,22.3625660000 114.1140060000,22.3625850000 114.1140040000,22.3626100000 114.1140060000,22.3626400000 114.1140210000,22.3626770000 114.1140440000,22.3627330000 114.1140500000,22.3627470000 114.1140610000,22.3627740000 114.1140790000,22.3628180000 114.1141180000,22.3628040000 114.1141420000,22.3627960000 114.1141650000,22.3627880000 114.1144660000,22.3626850000 114.1145150000,22.3626670000 114.1145290000,22.3626630000 114.1145590000,22.3626520000 114.1147780000,22.3628570000 114.1148180000,22.3628930000 114.1147460000,22.3629700000 114.1147020000,22.3630060000 114.1145760000,22.3631070000 114.1143810000,22.3632770000 114.1141480000,22.3634810000 114.1140610000,22.3635520000 114.1139840000,22.3636160000 114.1138510000,22.3637240000 114.1135140000,22.3639900000 114.1134250000,22.3640690000 114.1133670000,22.3641300000 114.1133010000,22.3642060000 114.1132550000,22.3642850000 114.1132020000,22.3643960000 114.1131380000,22.3645930000 114.1131050000,22.3647720000 114.1131040000,22.3648520000 114.1131110000,22.3649330000 114.1131300000,22.3650580000 114.1131900000,22.3652210000 114.1132280000,22.3653050000 114.1132780000,22.3653990000 114.1133130000,22.3654460000 114.1134210000,22.3655590000 114.1135800000,22.3657110000 114.1136290000,22.3657570000 114.1137730000,22.3658990000 114.1139600000,22.3660890000 114.1140590000,22.3661900000 114.1141590000,22.3662840000 114.1142510000,22.3663520000 114.1143700000,22.3664150000 114.1143920000,22.3664290000 114.1144850000,22.3664670000 114.1145730000,22.3665000000 114.1146120000,22.3665150000 114.1146750000,22.3665380000 114.1148010000,22.3665830000 114.1150290000,22.3666620000 114.1150810000,22.3666800000 114.1151540000,22.3667050000 114.1153280000,22.3667660000 114.1158820000,22.3669530000 114.1159560000,22.3669790000 114.1159780000,22.3669870000 114.1160090000,22.3669980000 114.1160810000,22.3670500000 114.1165730000,22.3672110000 114.1166780000,22.3672580000 114.1168030000,22.3673110000 114.1169160000,22.3673660000 114.1170320000,22.3673130000 114.1171270000,22.3672920000 114.1172690000,22.3672360000 114.1176760000,22.3670350000 114.1178150000,22.3669680000 114.1178680000,22.3669410000 114.1184650000,22.3666310000 114.1184950000,22.3666160000 114.1186280000,22.3665460000 114.1188280000,22.3664420000 114.1188320000,22.3664400000 114.1190030000,22.3663480000 114.1191650000,22.3662610000 114.1192180000,22.3662340000 114.1193350000,22.3661730000 114.1194060000,22.3661350000 114.1197780000,22.3659520000 114.1201820000,22.3657540000 114.1205000000,22.3656010000 114.1205640000,22.3655670000 114.1206240000,22.3655360000 114.1207140000,22.3654890000 114.1207590000,22.3654680000 114.1208000000,22.3654480000 114.1208630000,22.3654100000 114.1210150000,22.3653080000 114.1210950000,22.3652650000 114.1211240000,22.3652450000 114.1211580000,22.3652140000 114.1212230000,22.3651550000 114.1213140000,22.3649550000 114.1213290000,22.3649000000 114.1213380000,22.3648400000 114.1213410000,22.3647820000 114.1213380000,22.3647230000 114.1213280000,22.3646630000 114.1213130000,22.3646040000 114.1212870000,22.3645310000 114.1212560000,22.3644600000 114.1212220000,22.3643940000 114.1211870000,22.3643360000 114.1211300000,22.3642510000 114.1204890000,22.3633380000 114.1203740000,22.3631740000 114.1203290000,22.3631050000 114.1202820000,22.3630290000 114.1202420000,22.3629570000 114.1202070000,22.3628820000 114.1201710000,22.3627920000 114.1201430000,22.3626960000 114.1201250000,22.3626060000 114.1201110000,22.3625220000 114.1201110000,22.3624500000 114.1201100000,22.3624080000 114.1201090000,22.3623610000 114.1201150000,22.3622390000 114.1201170000,22.3621910000 114.1201210000,22.3621440000 114.1201300000,22.3620250000 114.1201340000,22.3619750000 114.1201380000,22.3619290000 114.1201420000,22.3618890000 114.1201580000,22.3617250000 114.1201650000,22.3615920000 114.1201760000,22.3613930000 114.1201920000,22.3612850000 114.1202350000,22.3609740000 114.1202000000,22.3609110000 114.1202830000,22.3604670000 114.1203110000,22.3603050000 114.1204010000,22.3597990000 114.1204400000,22.3596240000 114.1204640000,22.3595610000 114.1204930000,22.3595050000 114.1205390000,22.3594400000 114.1205880000,22.3593740000 114.1206730000,22.3592950000 114.1207680000,22.3592230000 114.1208960000,22.3591550000 114.1214930000,22.3589280000 114.1215740000,22.3588970000 114.1216470000,22.3588690000 114.1219940000,22.3587330000 114.1235900000,22.3581380000 114.1240640000,22.3579270000 114.1242220000,22.3578660000 114.1243240000,22.3577890000 114.1244310000,22.3577110000 114.1248260000,22.3573460000 114.1249380000,22.3573350000 114.1250200000,22.3573180000 114.1250640000,22.3573140000 114.1250750000,22.3573130000 114.1251000000,22.3573110000 114.1251280000,22.3573120000 114.1251730000,22.3573180000 114.1252440000,22.3573310000 114.1258590000,22.3577530000 114.1269090000,22.3585210000 114.1271480000,22.3586920000 114.1273030000,22.3588250000 114.1273350000,22.3588520000 114.1273950000,22.3589030000 114.1274810000,22.3589810000 114.1275250000,22.3590230000 114.1275510000,22.3590490000 114.1277090000,22.3592000000 114.1278080000,22.3592420000 114.1278530000,22.3592910000 114.1279300000,22.3593660000 114.1280930000,22.3595210000 114.1281400000,22.3595630000 114.1283660000,22.3597780000 114.1284250000,22.3598430000 114.1284870000,22.3599610000 114.1285340000,22.3600070000 114.1286460000,22.3601160000 114.1287610000,22.3602140000 114.1287890000,22.3602420000 114.1288730000,22.3602680000 114.1292630000,22.3606370000 114.1294000000,22.3607640000 114.1295670000,22.3609160000 114.1296750000,22.3610150000 114.1297160000,22.3610530000 114.1297940000,22.3611270000 114.1298150000,22.3611470000 114.1299850000,22.3613070000 114.1300120000,22.3613720000 114.1300830000,22.3614390000 114.1301930000,22.3615380000 114.1302520000,22.3615950000 114.1303050000,22.3615490000 114.1303920000,22.3614850000 114.1304150000,22.3614690000 114.1304340000,22.3614550000 114.1304490000,22.3614430000 114.1305720000,22.3613600000 114.1307110000,22.3612790000 114.1309900000,22.3611440000 114.1311230000,22.3610930000 114.1311480000,22.3610850000 114.1313190000,22.3610360000 114.1315330000,22.3609770000 114.1314980000,22.3608840000 114.1314710000,22.3608130000 114.1313930000,22.3605980000 114.1313360000,22.3604300000 114.1311730000,22.3600230000 114.1310360000,22.3597180000 114.1310070000,22.3596330000 114.1309830000,22.3595640000 114.1307580000,22.3589050000 114.1302610000,22.3574480000 114.1302020000,22.3572760000 114.1301900000,22.3572410000 114.1301670000,22.3571730000 114.1301470000,22.3570940000 114.1300910000,22.3569270000 114.1298310000,22.3563690000 114.1296110000,22.3559260000 114.1292190000,22.3553970000 114.1291710000,22.3553420000 114.1289730000,22.3551260000 114.1287070000,22.3548480000 114.1284320000,22.3545460000 114.1282520000,22.3543720000 114.1278350000,22.3540170000 114.1273940000,22.3535600000 114.1268800000,22.3529870000 114.1266860000,22.3527600000 114.1264610000,22.3524760000 114.1263680000,22.3523560000 114.1262390000,22.3521690000 114.1261290000,22.3519910000 114.1260720000,22.3518670000 114.1260110000,22.3517290000 114.1259520000,22.3515920000 114.1259480000,22.3515800000 114.1258920000,22.3514070000 114.1258200000,22.3511510000 114.1257610000,22.3509120000 114.1257550000,22.3508870000 114.1255520000,22.3501050000 114.1254720000,22.3497210000 114.1252000000,22.3483980000 114.1251260000,22.3480830000 114.1250690000,22.3478200000 114.1250620000,22.3477790000 114.1250500000,22.3477120000 114.1250440000,22.3475400000 114.1250330000,22.3472390000 114.1250470000,22.3469560000 114.1250790000,22.3466080000 114.1251290000,22.3462360000 114.1252260000,22.3459350000 114.1252990000,22.3457170000 114.1253920000,22.3455150000 114.1255820000,22.3452580000 114.1258460000,22.3449850000 114.1261770000,22.3447010000 114.1264950000,22.3444830000 114.1270910000,22.3442110000 114.1277710000,22.3439520000 114.1279930000,22.3438590000 114.1282570000,22.3437490000 114.1284280000,22.3436780000 114.1285400000,22.3436240000 114.1287160000,22.3435440000 114.1288480000,22.3434850000 114.1289350000,22.3434470000 114.1291750000,22.3433650000 114.1293960000,22.3432780000 114.1295900000,22.3432020000 114.1298540000,22.3430940000 114.1302620000,22.3428640000 114.1303340000,22.3427950000 114.1304200000,22.3427310000 114.1305110000,22.3426760000 114.1306260000,22.3425780000 114.1308310000,22.3423670000 114.1310070000,22.3421540000 114.1311610000,22.3419000000 114.1312650000,22.3417280000 114.1321500000,22.3403040000 114.1322980000,22.3400690000 114.1324710000,22.3397590000 114.1325880000,22.3395570000 114.1325970000,22.3395410000 114.1327820000,22.3392530000 114.1329880000,22.3390000000 114.1330830000,22.3389150000 114.1332010000,22.3388100000 114.1333410000,22.3386850000 114.1334060000,22.3386360000 114.1335440000,22.3385320000 114.1336870000,22.3384430000 114.1338390000,22.3383680000 114.1339210000,22.3383290000 114.1340560000,22.3382800000 114.1341940000,22.3382310000 114.1343130000,22.3381930000 114.1346520000,22.3380980000 114.1352950000,22.3379720000 114.1354080000,22.3379490000 114.1364110000,22.3377760000 114.1376000000,22.3375740000 114.1378740000,22.3375200000 114.1381420000,22.3374860000 114.1383570000,22.3374590000 114.1384670000,22.3374390000 114.1385790000,22.3374320000 114.1389220000,22.3374010000 114.1389710000,22.3373940000 114.1390350000,22.3373850000 114.1391100000,22.3373760000 114.1391880000,22.3373720000 114.1392710000,22.3373720000 114.1393460000,22.3373740000 114.1394100000,22.3373780000 114.1394710000,22.3373860000 114.1395370000,22.3373990000 114.1395990000,22.3374130000 114.1396480000,22.3374270000 114.1397660000,22.3374600000 114.1398660000,22.3374890000 114.1399310000,22.3375060000 114.1399760000,22.3375120000 114.1400310000,22.3375150000 114.1400800000,22.3375160000 114.1401150000,22.3375150000 114.1401590000,22.3375100000 114.1402100000,22.3375010000 114.1402410000,22.3374950000 114.1403150000,22.3374790000 114.1403280000,22.3374770000 114.1403700000,22.3374630000 114.1405910000,22.3373740000 114.1406300000,22.3373580000 114.1407370000,22.3373140000 114.1409140000,22.3372510000 114.1410890000,22.3371810000 114.1412030000,22.3371410000 114.1413830000,22.3370990000 114.1414770000,22.3370760000 114.1415570000,22.3370440000 114.1415710000,22.3370390000 114.1415990000,22.3370270000 114.1421030000,22.3368440000 114.1426080000,22.3367410000 114.1433380000,22.3366260000 114.1436640000,22.3365860000 114.1437790000,22.3365640000 114.1440080000,22.3365420000 114.1440800000,22.3365310000 114.1442860000,22.3365100000 114.1447330000,22.3364590000 114.1449960000,22.3364480000 114.1451080000,22.3360470000 114.1451360000,22.3359430000 114.1451750000,22.3358490000 114.1452300000,22.3357260000 114.1452760000,22.3356230000 114.1455450000,22.3352870000 114.1456440000,22.3352080000 114.1457610000,22.3351350000 114.1459790000,22.3350530000 114.1461340000,22.3350090000 114.1463100000,22.3349860000 114.1464400000,22.3349840000 114.1466460000,22.3350160000 114.1468990000,22.3350970000 114.1471170000,22.3351780000 114.1472580000,22.3352300000 114.1473230000,22.3352540000 114.1474470000,22.3352970000 114.1476410000,22.3353630000 114.1483030000,22.3356290000 114.1485280000,22.3357120000 114.1486940000,22.3357610000 114.1488100000,22.3357870000 114.1489180000,22.3358040000 114.1490430000,22.3358190000 114.1491860000,22.3358210000 114.1493020000,22.3358120000 114.1494370000,22.3357880000 114.1495740000,22.3357470000 114.1497640000,22.3356610000 114.1499330000,22.3355630000 114.1500830000,22.3354340000 114.1502020000,22.3352900000 114.1502920000,22.3351540000 114.1503690000,22.3349900000 114.1504270000,22.3348590000 114.1504740000,22.3347350000 114.1505120000,22.3346220000 114.1506130000,22.3343010000 114.1506590000,22.3341650000 114.1507010000,22.3340490000 114.1507450000,22.3339420000 114.1507980000,22.3338270000 114.1508550000,22.3337290000 114.1509220000,22.3336300000 114.1509680000,22.3335680000 114.1510190000,22.3335080000 114.1510780000,22.3334450000 114.1511440000,22.3333810000 114.1512200000,22.3333140000 114.1513320000,22.3332200000 114.1560960000,22.3295260000 114.1562660000,22.3293890000 114.1564770000,22.3292070000 114.1566240000,22.3290760000 114.1568320000,22.3288980000 114.1570450000,22.3287260000 114.1573390000,22.3284960000 114.1578980000,22.3280740000 114.1580260000,22.3279760000 114.1586210000,22.3275580000 114.1587400000,22.3274700000 114.1601390000,22.3264560000 114.1604620000,22.3262120000 114.1604790000,22.3261990000 114.1614770000,22.3254450000 114.1621340000,22.3250030000 114.1623080000,22.3248870000 114.1627130000,22.3246850000 114.1633070000,22.3242150000 114.1640770000,22.3236320000 114.1641180000,22.3236060000 114.1641500000,22.3235850000 114.1642280000,22.3235470000 114.1642700000,22.3235310000 114.1643110000,22.3235160000 114.1643970000,22.3234960000 114.1644860000,22.3234900000 114.1645650000,22.3234810000 114.1646460000,22.3234760000 114.1647260000,22.3234730000 114.1647660000,22.3234740000 114.1648060000,22.3234740000 114.1648860000,22.3234780000 114.1649600000,22.3234820000 114.1650840000,22.3234920000 114.1652020000,22.3235050000 114.1659690000,22.3236340000 114.1662400000,22.3236800000 114.1663570000,22.3237000000 114.1663880000,22.3237050000 114.1664280000,22.3237120000 114.1666320000,22.3237460000 114.1667470000,22.3237650000 114.1668060000,22.3237750000 114.1669170000,22.3236920000 114.1669780000,22.3236480000 114.1670360000,22.3236030000 114.1672310000,22.3234520000 114.1672890000,22.3234090000 114.1675060000,22.3232450000 114.1675460000,22.3232140000 114.1676700000,22.3231100000 114.1677400000,22.3230600000 114.1679560000,22.3229050000 114.1681190000,22.3228060000 114.1683650000,22.3226700000 114.1684460000,22.3226260000 114.1684870000,22.3226030000 114.1686570000,22.3225350000 114.1687860000,22.3224820000 114.1688690000,22.3220630000 114.1689430000,22.3216740000 114.1689770000,22.3214710000 114.1689940000,22.3213860000 114.1690500000,22.3210910000 114.1690590000,22.3210510000 114.1690710000,22.3209960000 114.1690790000,22.3209570000 114.1690900000,22.3209050000 114.1691070000,22.3208330000 114.1691310000,22.3207380000 114.1691440000,22.3206680000 114.1691520000,22.3206260000 114.1691590000,22.3205910000 114.1691670000,22.3205560000 114.1692280000,22.3202610000 114.1692710000,22.3200580000 114.1692770000,22.3200320000 114.1693070000,22.3198910000 114.1693170000,22.3198470000 114.1693440000,22.3197150000 114.1693730000,22.3195730000 114.1693980000,22.3194540000 114.1694040000,22.3194270000 114.1694290000,22.3193120000 114.1694480000,22.3192160000 114.1694590000,22.3191660000 114.1694810000,22.3190710000 114.1695230000,22.3188590000 114.1695720000,22.3186200000 114.1695990000,22.3184880000 114.1696260000,22.3183530000 114.1696620000,22.3181810000 114.1696850000,22.3180640000 114.1697190000,22.3178970000 114.1697390000,22.3177970000 114.1697590000,22.3177000000 114.1697750000,22.3176220000 114.1697870000,22.3175640000 114.1697990000,22.3175010000 114.1698150000,22.3174280000 114.1698730000,22.3171490000 114.1699450000,22.3168020000 114.1699620000,22.3167170000 114.1699920000,22.3165510000 114.1700730000,22.3161650000 114.1700870000,22.3160990000 114.1701160000,22.3159580000 114.1701270000,22.3159050000 114.1702070000,22.3155260000 114.1702180000,22.3154680000 114.1702380000,22.3153660000 114.1703200000,22.3149680000 114.1703390000,22.3148810000 114.1703510000,22.3148220000 114.1703770000,22.3146840000 114.1703840000,22.3146470000 114.1703990000,22.3145700000 114.1704660000,22.3142320000 114.1705160000,22.3139760000 114.1705300000,22.3139010000 114.1705490000,22.3138110000 114.1705840000,22.3136360000 114.1705950000,22.3135840000 114.1706020000,22.3135500000 114.1706090000,22.3135150000 114.1706530000,22.3132960000 114.1706590000,22.3132650000 114.1706660000,22.3132320000 114.1707010000,22.3130540000 114.1707170000,22.3129770000 114.1707380000,22.3128780000 114.1707960000,22.3125990000 114.1708470000,22.3123430000 114.1708610000,22.3122730000 114.1708910000,22.3121250000 114.1709490000,22.3118210000 114.1709590000,22.3117680000 114.1710160000,22.3114630000 114.1710330000,22.3113700000 114.1710580000,22.3112370000 114.1710660000,22.3111930000 114.1711040000,22.3109890000 114.1711200000,22.3109100000 114.1711370000,22.3108120000 114.1711460000,22.3107620000 114.1711580000,22.3106950000 114.1712060000,22.3104150000 114.1712230000,22.3103170000 114.1712320000,22.3102790000 114.1712450000,22.3102310000 114.1712490000,22.3102050000 114.1712540000,22.3101490000 114.1712560000,22.3101280000 114.1712590000,22.3100940000 114.1712630000,22.3100020000 114.1712600000,22.3096970000 114.1713020000,22.3091940000 114.1713130000,22.3090960000 114.1713760000,22.3085660000 114.1713840000,22.3084990000 114.1713870000,22.3083990000 114.1713980000,22.3082740000 114.1714490000,22.3078270000 114.1714730000,22.3075790000 114.1714760000,22.3075520000 114.1714930000,22.3073730000 114.1715150000,22.3071490000 114.1715310000,22.3069820000 114.1715490000,22.3067870000 114.1715560000,22.3067060000 114.1715700000,22.3065500000 114.1716070000,22.3061250000 114.1716230000,22.3059470000 114.1716490000,22.3056660000 114.1716500000,22.3056480000 114.1716530000,22.3056150000 114.1716760000,22.3053890000 114.1716810000,22.3053050000 114.1716900000,22.3051560000 114.1717410000,22.3044920000 114.1717450000,22.3044390000 114.1717500000,22.3043730000 114.1717540000,22.3043250000 114.1717560000,22.3042920000 114.1717820000,22.3039590000 114.1718080000,22.3034480000 114.1718110000,22.3033960000 114.1718150000,22.3032750000 114.1718210000,22.3031980000 114.1718240000,22.3031060000 114.1718560000,22.3026380000 114.1718770000,22.3023540000 114.1719040000,22.3018840000 114.1719120000,22.3017800000 114.1719190000,22.3016810000 114.1719220000,22.3016350000 114.1719430000,22.3013670000 114.1719510000,22.3012700000 114.1719640000,22.3010760000 114.1719690000,22.3009930000 114.1719980000,22.3005630000 114.1720020000,22.3005150000 114.1720040000,22.3004900000 114.1720180000,22.3003630000 114.1720200000,22.3003140000 114.1720250000,22.3002690000 114.1720670000,22.2996820000 114.1720710000,22.2996040000 114.1720780000,22.2995230000 114.1721020000,22.2993330000 114.1721210000,22.2989770000 114.1721340000,22.2987170000 114.1721650000,22.2982150000 114.1721680000,22.2981630000 114.1721790000,22.2980150000 114.1722070000,22.2976340000 114.1722600000,22.2969500000 114.1722800000,22.2966250000 114.1722900000,22.2964890000 114.1722950000,22.2964050000 114.1723030000,22.2963010000 114.1723120000,22.2961880000 114.1723300000,22.2959640000 114.1723400000,22.2958250000 114.1723450000,22.2957400000 114.1723460000,22.2957130000 114.1723470000,22.2956990000 114.1723480000,22.2956820000 114.1723500000,22.2956450000 114.1723660000,22.2956020000 114.1723680000,22.2955700000 114.1723690000,22.2955470000 114.1723770000,22.2953900000 114.1723880000,22.2952440000 114.1724070000,22.2950330000 114.1724100000,22.2949980000 114.1724150000,22.2949500000 114.1724280000,22.2947870000 114.1724300000,22.2946750000 114.1723130000,22.2946120000 114.1721830000,22.2946050000 114.1720950000,22.2946020000 114.1720520000,22.2946010000 114.1719760000,22.2946110000 114.1717580000,22.2946050000 114.1712830000,22.2945910000 114.1712170000,22.2945920000 114.1711520000,22.2945940000 114.1710770000,22.2945750000 114.1709850000,22.2945530000 114.1709050000,22.2945340000 114.1708270000,22.2945240000 114.1706590000,22.2945070000 114.1705620000,22.2945080000 114.1704440000,22.2945130000 114.1702890000,22.2945060000 114.1697930000,22.2944290000 114.1697220000,22.2944140000 114.1696660000,22.2943960000 114.1696180000,22.2943730000 114.1695740000,22.2943490000 114.1695320000,22.2943250000 114.1694850000,22.2942900000 114.1694380000,22.2942420000 114.1694010000,22.2941880000 114.1693730000,22.2940240000 114.1693290000,22.2938930000 114.1693140000,22.2938480000 114.1692860000,22.2937950000 114.1692530000,22.2937470000 114.1691930000,22.2937050000 114.1691530000,22.2936910000 114.1691070000,22.2936810000 114.1690520000,22.2936820000 114.1690460000,22.2936840000 114.1690330000,22.2936870000 114.1689760000,22.2937090000 114.1689700000,22.2937110000 114.1689480000,22.2937270000 114.1689330000,22.2937430000 114.1689000000,22.2937770000 114.1688520000,22.2938310000 114.1688460000,22.2938390000 114.1688270000,22.2938660000 114.1688120000,22.2938870000 114.1687820000,22.2939290000 114.1687490000,22.2939660000 114.1687320000,22.2939850000 114.1687160000,22.2940040000 114.1686820000,22.2940410000 114.1686720000,22.2940790000 114.1686770000,22.2941020000 114.1686810000,22.2941180000 114.1687320000,22.2941800000 114.1688120000,22.2942790000 114.1688180000,22.2942830000 114.1688330000,22.2942970000 114.1688460000,22.2943080000 114.1688900000,22.2943340000 114.1689360000,22.2943520000 114.1690130000,22.2943690000 114.1690910000,22.2943850000 114.1691590000,22.2944000000 114.1691680000,22.2944020000 114.1691910000,22.2944040000 114.1692360000,22.2944080000 114.1694200000,22.2944230000 114.1694750000,22.2944440000 114.1695170000,22.2944610000 114.1696060000,22.2944960000 114.1701180000,22.2945840000 114.1702870000,22.2946130000 114.1704400000,22.2946400000 114.1704680000,22.2946800000 114.1704980000,22.2947230000 114.1705310000,22.2947670000 114.1705650000,22.2948220000 114.1705770000,22.2948530000 114.1705900000,22.2948820000 114.1704380000,22.2954400000 114.1704140000,22.2955260000 114.1703030000,22.2959040000 114.1702450000,22.2960440000 114.1702110000,22.2961670000 114.1702050000,22.2962670000 114.1700410000,22.2968150000 114.1699350000,22.2971620000 114.1699110000,22.2972370000 114.1699010000,22.2972720000 114.1698350000,22.2974530000 114.1695200000,22.2983280000 114.1694530000,22.2985460000 114.1693980000,22.2987260000 114.1693600000,22.2988320000 114.1691630000,22.2992010000 114.1689890000,22.2994740000 114.1687780000,22.2997140000 114.1687370000,22.2997660000 114.1686280000,22.2998980000 114.1686000000,22.2999280000 114.1685320000,22.2999880000 114.1684940000,22.2999920000 114.1684680000,22.2999930000 114.1684390000,22.2999910000 114.1684070000,22.2999870000 114.1682890000,22.2999670000 114.1682660000,22.2999630000 114.1679200000,22.2999010000 114.1678300000,22.2998820000 114.1677250000,22.2998590000 114.1676210000,22.2998370000 114.1675160000,22.2998150000 114.1673500000,22.3006990000 114.1673500000,22.3006990000 114.1674510000,22.3007170000 114.1675520000,22.3007340000 114.1676550000,22.3007520000 114.1677560000,22.3007700000 114.1679470000,22.3007980000 114.1679900000,22.3008050000 114.1680180000,22.3008090000 114.1680530000,22.3008150000 114.1680030000,22.3010470000 114.1679710000,22.3012440000 114.1679670000,22.3014440000 114.1679250000,22.3017340000 114.1679000000,22.3019880000 114.1679170000,22.3022510000 114.1679540000,22.3025530000 114.1679630000,22.3026800000 114.1679690000,22.3028280000 114.1679670000,22.3029380000 114.1679570000,22.3030230000 114.1679230000,22.3032180000 114.1678570000,22.3036210000 114.1677750000,22.3039330000 114.1677520000,22.3040220000 114.1675840000,22.3044980000 114.1675000000,22.3046390000 114.1674130000,22.3047800000 114.1673450000,22.3048890000 114.1672930000,22.3049700000 114.1671370000,22.3052070000 114.1670160000,22.3054110000 114.1669380000,22.3055620000 114.1668690000,22.3057350000 114.1668470000,22.3058560000 114.1668550000,22.3059290000 114.1668690000,22.3059930000 114.1670300000,22.3059550000 114.1674820000,22.3058790000 114.1676130000,22.3058570000 114.1679760000,22.3057950000 114.1682260000,22.3057440000 114.1684360000,22.3057010000 114.1687070000,22.3056370000 114.1687300000,22.3056310000 114.1688470000,22.3056030000 114.1689650000,22.3055750000 114.1690590000,22.3055530000 114.1690950000,22.3055450000 114.1692700000,22.3055000000 114.1694030000,22.3054700000 114.1694440000,22.3054590000 114.1696940000,22.3053960000 114.1697710000,22.3053830000 114.1699130000,22.3053590000 114.1701370000,22.3053240000 114.1703520000,22.3052980000 114.1705280000,22.3052910000 114.1705910000,22.3052890000 114.1707110000,22.3052880000 114.1708410000,22.3052870000 114.1710930000,22.3053000000 114.1712500000,22.3053200000 114.1714070000,22.3053400000 114.1714230000,22.3053420000 114.1714490000,22.3053460000 114.1715690000,22.3053660000 114.1715530000,22.3055280000 114.1715140000,22.3059380000 114.1714950000,22.3061350000 114.1714900000,22.3061870000 114.1714770000,22.3063250000 114.1714680000,22.3064170000 114.1714570000,22.3065350000 114.1714450000,22.3066650000 114.1714380000,22.3067270000 114.1714230000,22.3068820000 114.1714180000,22.3069270000 114.1714150000,22.3070950000 114.1713790000,22.3074700000 114.1713440000,22.3077190000 114.1712970000,22.3082140000 114.1712920000,22.3082660000 114.1712870000,22.3083170000 114.1712780000,22.3084120000 114.1712710000,22.3084970000 114.1712440000,22.3087290000 114.1712300000,22.3088520000 114.1712140000,22.3089940000 114.1712040000,22.3090870000 114.1711860000,22.3092670000 114.1711760000,22.3093630000 114.1711500000,22.3096060000 114.1711390000,22.3097160000 114.1711110000,22.3100750000 114.1711070000,22.3101330000 114.1711010000,22.3102040000 114.1710950000,22.3102750000 114.1710540000,22.3107080000 114.1710480000,22.3107480000 114.1710460000,22.3107620000 114.1710380000,22.3108150000 114.1710170000,22.3109220000 114.1709580000,22.3112200000 114.1709350000,22.3113420000 114.1709240000,22.3113960000 114.1709090000,22.3114700000 114.1708980000,22.3115250000 114.1708960000,22.3115390000 114.1708630000,22.3117050000 114.1708530000,22.3117530000 114.1708350000,22.3118400000 114.1706750000,22.3126580000 114.1706340000,22.3128650000 114.1706320000,22.3128760000 114.1706210000,22.3129420000 114.1706020000,22.3130350000 114.1705790000,22.3131490000 114.1705580000,22.3132530000 114.1705510000,22.3132840000 114.1704760000,22.3136530000 114.1704310000,22.3138620000 114.1704020000,22.3140040000 114.1703930000,22.3140470000 114.1703610000,22.3141990000 114.1703430000,22.3142870000 114.1703200000,22.3144110000 114.1702950000,22.3145500000 114.1702810000,22.3146290000 114.1702290000,22.3148730000 114.1702140000,22.3149440000 114.1701980000,22.3150140000 114.1701410000,22.3152830000 114.1701250000,22.3153620000 114.1701060000,22.3154490000 114.1700550000,22.3156900000 114.1700310000,22.3158000000 114.1700030000,22.3159320000 114.1700000000,22.3159450000 114.1699760000,22.3160660000 114.1699310000,22.3162970000 114.1698880000,22.3165000000 114.1698800000,22.3165370000 114.1698520000,22.3166790000 114.1698350000,22.3167630000 114.1698240000,22.3168150000 114.1697860000,22.3170000000 114.1697690000,22.3170790000 114.1697100000,22.3173540000 114.1696980000,22.3174070000 114.1696900000,22.3174430000 114.1696590000,22.3176010000 114.1696090000,22.3178630000 114.1695970000,22.3179270000 114.1695870000,22.3179750000 114.1695630000,22.3180910000 114.1695440000,22.3181860000 114.1695350000,22.3182290000 114.1695090000,22.3183530000 114.1695070000,22.3183660000 114.1695000000,22.3184020000 114.1694730000,22.3185400000 114.1694410000,22.3186930000 114.1694150000,22.3188200000 114.1693650000,22.3190650000 114.1693480000,22.3191440000 114.1693380000,22.3191970000 114.1693200000,22.3192930000 114.1692430000,22.3192790000 114.1688230000,22.3192090000 114.1687900000,22.3192030000 114.1687660000,22.3191980000 114.1686730000,22.3191850000 114.1685700000,22.3191660000 114.1683980000,22.3191380000 114.1682790000,22.3191210000 114.1682250000,22.3191130000 114.1681820000,22.3191040000 114.1681320000,22.3190940000 114.1680250000,22.3190690000 114.1679760000,22.3190600000 114.1678410000,22.3190360000 114.1677880000,22.3190280000 114.1676800000,22.3190060000 114.1675610000,22.3189840000 114.1671990000,22.3189160000 114.1670290000,22.3188840000 114.1670190000,22.3188830000 114.1669680000,22.3188730000 114.1669500000,22.3188700000 114.1667760000,22.3188370000 114.1665110000,22.3187870000 114.1662740000,22.3187430000 114.1662570000,22.3187410000 114.1662220000,22.3187350000 114.1660610000,22.3187120000 114.1655450000,22.3186950000 114.1653130000,22.3186880000 114.1651780000,22.3186840000 114.1646800000,22.3186630000 114.1643930000,22.3186500000 114.1643170000,22.3186460000 114.1642870000,22.3186450000 114.1641230000,22.3186310000 114.1639600000,22.3186090000 114.1637720000,22.3185630000 114.1636480000,22.3185360000 114.1635180000,22.3184940000 114.1634340000,22.3184590000 114.1633990000,22.3184440000 114.1633210000,22.3184080000 114.1631290000,22.3183110000 114.1630450000,22.3182690000 114.1629550000,22.3181870000 114.1628890000,22.3181590000 114.1628410000,22.3181500000 114.1627870000,22.3181390000 114.1623560000,22.3180450000 114.1620650000,22.3179530000 114.1620150000,22.3179260000 114.1619120000,22.3178690000 114.1617770000,22.3178200000 114.1615420000,22.3177340000 114.1611740000,22.3176000000 114.1609760000,22.3175350000 114.1609090000,22.3175250000 114.1608490000,22.3175310000 114.1607920000,22.3175640000 114.1607800000,22.3176520000 114.1607860000,22.3177060000 114.1608100000,22.3177500000 114.1608470000,22.3177820000 114.1610060000,22.3178500000 114.1611460000,22.3178760000 114.1618340000,22.3181040000 114.1619200000,22.3181160000 114.1619690000,22.3181200000 114.1620620000,22.3181970000 114.1621140000,22.3182630000 114.1621480000,22.3183170000 114.1621740000,22.3183570000 114.1622710000,22.3184730000 114.1622000000,22.3185850000 114.1621500000,22.3187040000 114.1621150000,22.3189250000 114.1620900000,22.3190850000 114.1620590000,22.3193650000 114.1620390000,22.3195470000 114.1620360000,22.3196760000 114.1620360000,22.3199170000 114.1620470000,22.3199470000 114.1620050000,22.3205910000 114.1619900000,22.3211700000 114.1619860000,22.3213560000 114.1619310000,22.3243100000 114.1619240000,22.3244130000 114.1619130000,22.3245080000 114.1618980000,22.3246020000 114.1618740000,22.3247040000 114.1618410000,22.3247980000 114.1618040000,22.3248820000 114.1617490000,22.3249790000 114.1616890000,22.3250620000 114.1616280000,22.3251330000 114.1615560000,22.3252060000 114.1614870000,22.3252680000 114.1614160000,22.3253250000 114.1582620000,22.3276950000 114.1578390000,22.3280090000 114.1572720000,22.3284370000 114.1569800000,22.3286660000 114.1567570000,22.3288480000 114.1565640000,22.3290140000 114.1564110000,22.3291470000 114.1562030000,22.3293250000 114.1560340000,22.3294640000 114.1516670000,22.3328470000 114.1512610000,22.3331590000 114.1511600000,22.3332420000 114.1510870000,22.3333060000 114.1509930000,22.3333930000 114.1509290000,22.3334610000 114.1508610000,22.3335420000 114.1507930000,22.3336380000 114.1507290000,22.3337450000 114.1506700000,22.3338630000 114.1506260000,22.3339590000 114.1505810000,22.3340760000 114.1505140000,22.3342780000 114.1503820000,22.3347000000 114.1503020000,22.3349100000 114.1502050000,22.3351240000 114.1501190000,22.3352520000 114.1500090000,22.3353740000 114.1498680000,22.3354970000 114.1497020000,22.3355940000 114.1495700000,22.3356500000 114.1494330000,22.3356900000 114.1492860000,22.3357150000 114.1491070000,22.3357220000 114.1489590000,22.3357120000 114.1488180000,22.3356910000 114.1486920000,22.3356640000 114.1485720000,22.3356220000 114.1476760000,22.3352710000 114.1474000000,22.3351520000 114.1473230000,22.3351190000 114.1471460000,22.3350530000 114.1469690000,22.3349870000 114.1466930000,22.3348970000 114.1465750000,22.3348680000 114.1464290000,22.3348320000 114.1463770000,22.3348280000 114.1462990000,22.3348280000 114.1460590000,22.3348640000 114.1458460000,22.3349440000 114.1456930000,22.3350150000 114.1455580000,22.3350970000 114.1454170000,22.3352060000 114.1450890000,22.3356250000 114.1450500000,22.3356440000 114.1449680000,22.3356870000 114.1448690000,22.3357710000 114.1447130000,22.3358680000 114.1445780000,22.3359160000 114.1442480000,22.3360340000 114.1436450000,22.3362470000 114.1435550000,22.3362770000 114.1434960000,22.3363030000 114.1430170000,22.3364030000 114.1425200000,22.3364870000 114.1424270000,22.3365020000 114.1422030000,22.3365370000 114.1420170000,22.3365530000 114.1418910000,22.3365620000 114.1417120000,22.3365530000 114.1415530000,22.3365390000 114.1414680000,22.3365350000 114.1413950000,22.3365340000 114.1412400000,22.3365370000 114.1411580000,22.3365420000 114.1411090000,22.3365480000 114.1410780000,22.3365530000 114.1410190000,22.3365700000 114.1409200000,22.3366160000 114.1407820000,22.3366560000 114.1407320000,22.3366510000 114.1406820000,22.3366500000 114.1406320000,22.3366540000 114.1405820000,22.3366630000 114.1404710000,22.3367020000 114.1404040000,22.3367160000 114.1403100000,22.3367360000 114.1401810000,22.3367540000 114.1400560000,22.3367690000 114.1399890000,22.3367690000 114.1398990000,22.3367680000 114.1397970000,22.3367750000 114.1397080000,22.3368000000 114.1396820000,22.3368070000 114.1395520000,22.3368710000 114.1393410000,22.3369810000 114.1392150000,22.3370370000 114.1390850000,22.3370840000 114.1389810000,22.3371150000 114.1388870000,22.3371430000 114.1386660000,22.3372130000 114.1383740000,22.3373170000 114.1381270000,22.3373650000 114.1378610000,22.3374150000 114.1369880000,22.3375690000 114.1368510000,22.3375910000 114.1364910000,22.3376480000 114.1361920000,22.3376960000 114.1359770000,22.3377300000 114.1354340000,22.3378310000 114.1353840000,22.3378400000 114.1353310000,22.3378500000 114.1345920000,22.3379860000 114.1342430000,22.3380720000 114.1341250000,22.3381070000 114.1339980000,22.3381520000 114.1338700000,22.3382060000 114.1337690000,22.3382550000 114.1335980000,22.3383500000 114.1334620000,22.3384300000 114.1333110000,22.3385320000 114.1332370000,22.3385870000 114.1331050000,22.3386950000 114.1329770000,22.3388160000 114.1328640000,22.3389340000 114.1326450000,22.3392280000 114.1324520000,22.3395240000 114.1320960000,22.3401450000 114.1317580000,22.3406760000 114.1316370000,22.3408670000 114.1316230000,22.3408890000 114.1311400000,22.3416640000 114.1310390000,22.3418220000 114.1309310000,22.3419610000 114.1308380000,22.3420790000 114.1307030000,22.3422310000 114.1304430000,22.3424810000 114.1301470000,22.3427140000 114.1298700000,22.3428930000 114.1295470000,22.3430530000 114.1290750000,22.3432230000 114.1288320000,22.3433130000 114.1286960000,22.3433640000 114.1283770000,22.3434940000 114.1273100000,22.3439200000 114.1268600000,22.3441010000 114.1263190000,22.3443350000 114.1258600000,22.3446000000 114.1254910000,22.3449910000 114.1253100000,22.3452590000 114.1251860000,22.3454420000 114.1251070000,22.3455570000 114.1249520000,22.3459090000 114.1248850000,22.3462260000 114.1248380000,22.3466310000 114.1248390000,22.3469480000 114.1248440000,22.3472400000 114.1248460000,22.3473840000 114.1248500000,22.3475740000 114.1248890000,22.3476810000 114.1249400000,22.3477960000 114.1249500000,22.3478280000 114.1250350000,22.3480980000 114.1251070000,22.3484650000 114.1252670000,22.3492020000 114.1253900000,22.3497570000 114.1254740000,22.3501260000 114.1256360000,22.3507670000 114.1257910000,22.3514700000 114.1259050000,22.3517360000 114.1260460000,22.3520040000 114.1261180000,22.3521390000 114.1261730000,22.3522410000 114.1264680000,22.3526340000 114.1265140000,22.3526900000 114.1267000000,22.3529230000 114.1270690000,22.3533290000 114.1276040000,22.3538850000 114.1279370000,22.3542250000 114.1281640000,22.3544360000 114.1282010000,22.3544790000 114.1284900000,22.3547960000 114.1288760000,22.3552520000 114.1291830000,22.3555860000 114.1293130000,22.3557660000 114.1294280000,22.3559380000 114.1296960000,22.3564200000 114.1298250000,22.3567330000 114.1298800000,22.3568870000 114.1299420000,22.3570920000 114.1299510000,22.3571220000 114.1299720000,22.3571970000 114.1300050000,22.3572910000 114.1300590000,22.3574470000 114.1303640000,22.3582650000 114.1304370000,22.3584620000 114.1307920000,22.3594480000 114.1308680000,22.3596510000 114.1309020000,22.3597650000 114.1309400000,22.3598810000 114.1309650000,22.3599570000 114.1309840000,22.3600520000 114.1309970000,22.3602410000 114.1309990000,22.3603980000 114.1309830000,22.3605600000 114.1309530000,22.3607280000 114.1308890000,22.3609480000 114.1308750000,22.3609780000 114.1308530000,22.3610240000 114.1307100000,22.3611500000 114.1305750000,22.3612400000 114.1304910000,22.3613030000 114.1303740000,22.3613870000 114.1303310000,22.3614190000 114.1302440000,22.3614920000 114.1301320000,22.3613930000 114.1300660000,22.3613340000 114.1299850000,22.3613070000 114.1298150000,22.3611470000 114.1297940000,22.3611270000 114.1297160000,22.3610530000 114.1296750000,22.3610150000 114.1295670000,22.3609160000 114.1294000000,22.3607640000 114.1292630000,22.3606370000 114.1288730000,22.3602680000 114.1288510000,22.3601930000 114.1288210000,22.3601640000 114.1287230000,22.3600590000 114.1286010000,22.3599460000 114.1285570000,22.3599050000 114.1284250000,22.3598430000 114.1283660000,22.3597780000 114.1281400000,22.3595630000 114.1280930000,22.3595210000 114.1279300000,22.3593660000 114.1278530000,22.3592910000 114.1278080000,22.3592420000 114.1277710000,22.3591510000 114.1276080000,22.3589990000 114.1275760000,22.3589670000 114.1275370000,22.3589280000 114.1274640000,22.3588380000 114.1274040000,22.3587870000 114.1273790000,22.3587650000 114.1273150000,22.3587050000 114.1272460000,22.3586390000 114.1271140000,22.3585390000 114.1268920000,22.3583870000 114.1266770000,22.3582350000 114.1263880000,22.3580260000 114.1262010000,22.3578880000 114.1261200000,22.3578280000 114.1259580000,22.3577110000 114.1257670000,22.3575730000 114.1256910000,22.3575180000 114.1256610000,22.3574940000 114.1253730000,22.3572570000 114.1251900000,22.3571280000 114.1251150000,22.3570700000 114.1250090000,22.3569810000 114.1249110000,22.3570860000 114.1248440000,22.3571590000 114.1247790000,22.3572250000 114.1247320000,22.3572720000 114.1246560000,22.3573430000 114.1243530000,22.3576340000 114.1242480000,22.3577260000 114.1241590000,22.3578100000 114.1240640000,22.3579270000 114.1235900000,22.3581380000 114.1219940000,22.3587330000 114.1216470000,22.3588690000 114.1215740000,22.3588970000 114.1214930000,22.3589280000 114.1208960000,22.3591550000 114.1207680000,22.3592230000 114.1206730000,22.3592950000 114.1205880000,22.3593740000 114.1205390000,22.3594400000 114.1204930000,22.3595050000 114.1204640000,22.3595610000 114.1204400000,22.3596240000 114.1204010000,22.3597990000 114.1203110000,22.3603050000 114.1202830000,22.3604670000 114.1202000000,22.3609110000 114.1201570000,22.3609720000 114.1201000000,22.3612760000 114.1200770000,22.3613870000 114.1200530000,22.3615920000 114.1200390000,22.3617080000 114.1200170000,22.3618820000 114.1200210000,22.3619150000 114.1200260000,22.3619630000 114.1200200000,22.3620180000 114.1200100000,22.3621100000 114.1200050000,22.3621550000 114.1199950000,22.3622080000 114.1199780000,22.3623630000 114.1199810000,22.3624140000 114.1199820000,22.3624500000 114.1199860000,22.3625310000 114.1199980000,22.3626150000 114.1200270000,22.3627160000 114.1200680000,22.3628120000 114.1201170000,22.3629060000 114.1201660000,22.3629900000 114.1202150000,22.3630610000 114.1202710000,22.3631430000 114.1203160000,22.3632090000 114.1204230000,22.3633640000 114.1206920000,22.3637620000 114.1208180000,22.3639540000 114.1211530000,22.3644630000 114.1211670000,22.3645020000 114.1211950000,22.3646030000 114.1212040000,22.3647370000 114.1212050000,22.3647940000 114.1211890000,22.3648740000 114.1211650000,22.3649280000 114.1211170000,22.3650370000 114.1210920000,22.3650700000 114.1210620000,22.3651080000 114.1209940000,22.3651600000 114.1209490000,22.3651970000 114.1208780000,22.3652570000 114.1207610000,22.3653640000 114.1207170000,22.3653870000 114.1206640000,22.3654130000 114.1205680000,22.3654640000 114.1205090000,22.3654930000 114.1204650000,22.3655140000 114.1203190000,22.3655870000 114.1202150000,22.3656380000 114.1198860000,22.3658040000 114.1192970000,22.3661050000 114.1191250000,22.3661930000 114.1189610000,22.3662770000 114.1186970000,22.3664130000 114.1185870000,22.3664690000 114.1178580000,22.3668430000 114.1178230000,22.3668600000 114.1177120000,22.3669140000 114.1172540000,22.3671110000 114.1170890000,22.3671820000 114.1169430000,22.3671790000 114.1168680000,22.3671810000 114.1167430000,22.3671780000 114.1166050000,22.3671210000 114.1162440000,22.3669730000 114.1161060000,22.3669160000 114.1160430000,22.3668940000 114.1159240000,22.3668520000 114.1154800000,22.3667030000 114.1152980000,22.3666420000 114.1148790000,22.3665020000 114.1148380000,22.3664870000 114.1147110000,22.3664450000 114.1146110000,22.3664070000 114.1144470000,22.3663380000 114.1143230000,22.3662590000 114.1142440000,22.3662050000 114.1140990000,22.3660740000 114.1137330000,22.3657380000 114.1136920000,22.3657010000 114.1135560000,22.3655710000 114.1133790000,22.3653930000 114.1133510000,22.3653500000 114.1133000000,22.3652470000 114.1132490000,22.3651250000 114.1132030000,22.3649810000 114.1131930000,22.3648270000 114.1132140000,22.3646390000 114.1132580000,22.3644880000 114.1133460000,22.3643030000 114.1134140000,22.3642230000 114.1135010000,22.3641340000 114.1136100000,22.3640330000 114.1138480000,22.3638300000 114.1139070000,22.3637790000 114.1140410000,22.3636690000 114.1141120000,22.3636060000 114.1141230000,22.3635960000 114.1145370000,22.3632480000 114.1147630000,22.3630580000 114.1148240000,22.3630070000 114.1148840000,22.3629440000 114.1148180000,22.3628930000 114.1147780000,22.3628570000 114.1145590000,22.3626520000 114.1144590000,22.3624070000 114.1144090000,22.3624180000 114.1143990000,22.3624220000 114.1143770000,22.3624330000 114.1143210000,22.3624370000 114.1141320000,22.3625050000</coordinates>
                </LineString>
                <ExtendedData>
                    <Data name="duration">
                        <value>00:37:47</value>
                    </Data>
                    <Data name="length">
                        <value>30246.943195350053</value>
                    </Data>
                </ExtendedData>
            </Placemark>
        </Document>
    </Document>
</kml>