<?xml version="1.0" encoding="UTF-8"?>
<kml xmlns="http://www.opengis.net/kml/2.2" xmlns:gx="http://www.google.com/kml/ext/2.2">
    <Document>
        <name>Route</name>
        <Folder>
            <name>Route Request</name>
            <Placemark>
                <address>Chun Fat House, Tam Kon Shan Road, Tsing Yi Hui, Kwai Tsing District, Hong Kong, PRC</address>
                <Point>
                    <coordinates>114.1029636407,22.3616293667</coordinates>
                </Point>
                <ExtendedData>
                    <Data name="building">
                        <value>Chun Fat House</value>
                    </Data>
                    <Data name="country">
                        <value>PRC</value>
                    </Data>
                    <Data name="hamlet">
                        <value>Tsing Yi Hui</value>
                    </Data>
                    <Data name="road">
                        <value>Tam Kon Shan Road</value>
                    </Data>
                    <Data name="county">
                        <value>Kwai Tsing District</value>
                    </Data>
                    <Data name="country_code">
                        <value>cn</value>
                    </Data>
                </ExtendedData>
            </Placemark>
            <Placemark>
                <Point>
                    <coordinates>114.1048575797,22.3532736577</coordinates>
                </Point>
                <ExtendedData>
                    <Data name="routingVisited">
                        <value>false</value>
                    </Data>
                </ExtendedData>
            </Placemark>
            <Placemark>
                <address>Kwai Tsing Interchange, Kwai Tsing Road, Kau Wa Keng, Tsing Chau, Kwai Chung, Kwai Tsing District, Hong Kong, 852, PRC</address>
                <Point>
                    <coordinates>114.1214879089,22.3526982510</coordinates>
                </Point>
                <ExtendedData>
                    <Data name="neighbourhood">
                        <value>Kau Wa Keng</value>
                    </Data>
                    <Data name="bus_stop">
                        <value>Kwai Tsing Interchange</value>
                    </Data>
                    <Data name="country">
                        <value>PRC</value>
                    </Data>
                    <Data name="postcode">
                        <value>852</value>
                    </Data>
                    <Data name="road">
                        <value>Kwai Tsing Road</value>
                    </Data>
                    <Data name="town">
                        <value>Kwai Chung</value>
                    </Data>
                    <Data name="suburb">
                        <value>Tsing Chau</value>
                    </Data>
                    <Data name="county">
                        <value>Kwai Tsing District</value>
                    </Data>
                    <Data name="country_code">
                        <value>cn</value>
                    </Data>
                    <Data name="routingVisited">
                        <value>false</value>
                    </Data>
                </ExtendedData>
            </Placemark>
            <Placemark>
                <Point>
                    <coordinates>114.1630150441,22.3348690960</coordinates>
                </Point>
                <ExtendedData>
                    <Data name="routingVisited">
                        <value>false</value>
                    </Data>
                </ExtendedData>
            </Placemark>
            <Placemark>
                <address>Cheung Sha Street Mong Kok, Nathan Road, Mong Kok, Yau Tsim Mong District, Hong Kong, KIL 3348, PRC</address>
                <Point>
                    <coordinates>114.1702726390,22.3158145066</coordinates>
                </Point>
                <ExtendedData>
                    <Data name="bus_stop">
                        <value>Cheung Sha Street Mong Kok</value>
                    </Data>
                    <Data name="country">
                        <value>PRC</value>
                    </Data>
                    <Data name="postcode">
                        <value>KIL 3348</value>
                    </Data>
                    <Data name="road">
                        <value>Nathan Road</value>
                    </Data>
                    <Data name="suburb">
                        <value>Mong Kok</value>
                    </Data>
                    <Data name="county">
                        <value>Yau Tsim Mong District</value>
                    </Data>
                    <Data name="country_code">
                        <value>cn</value>
                    </Data>
                </ExtendedData>
            </Placemark>
            <Placemark>
                <address>Holiday Inn Golden Mile Hong Kong, 50, Nathan Road, Tsim Sha Tsui, Yau Tsim Mong District, Hong Kong, 00000, PRC</address>
                <Point>
                    <coordinates>114.1727152965,22.2969890945</coordinates>
                </Point>
                <ExtendedData>
                    <Data name="country">
                        <value>PRC</value>
                    </Data>
                    <Data name="postcode">
                        <value>00000</value>
                    </Data>
                    <Data name="road">
                        <value>Nathan Road</value>
                    </Data>
                    <Data name="suburb">
                        <value>Tsim Sha Tsui</value>
                    </Data>
                    <Data name="county">
                        <value>Yau Tsim Mong District</value>
                    </Data>
                    <Data name="country_code">
                        <value>cn</value>
                    </Data>
                    <Data name="hotel">
                        <value>Holiday Inn Golden Mile Hong Kong</value>
                    </Data>
                    <Data name="house_number">
                        <value>50</value>
                    </Data>
                </ExtendedData>
            </Placemark>
            <Placemark>
                <address>Mody Road Tsim Sha Tsui, Chatham Road South, Tsim Sha Tsui, Yau Tsim Mong District, Hong Kong, 00000, PRC</address>
                <Point>
                    <coordinates>114.1756770488,22.2992118748</coordinates>
                </Point>
                <ExtendedData>
                    <Data name="bus_stop">
                        <value>Mody Road Tsim Sha Tsui</value>
                    </Data>
                    <Data name="country">
                        <value>PRC</value>
                    </Data>
                    <Data name="postcode">
                        <value>00000</value>
                    </Data>
                    <Data name="road">
                        <value>Chatham Road South</value>
                    </Data>
                    <Data name="suburb">
                        <value>Tsim Sha Tsui</value>
                    </Data>
                    <Data name="county">
                        <value>Yau Tsim Mong District</value>
                    </Data>
                    <Data name="country_code">
                        <value>cn</value>
                    </Data>
                </ExtendedData>
            </Placemark>
            <Placemark>
                <Point>
                    <coordinates>114.1895313893,22.3034418028</coordinates>
                </Point>
            </Placemark>
            <Placemark>
                <address>Intercity Through Train Concourse / Exit C Concourse of MTR Hung Hom Station, 8, Cheong Wan Road, The Metropolis, Yau Tsim Mong District, Hong Kong, 00000, PRC</address>
                <Point>
                    <coordinates>114.1885643636,22.3007126390</coordinates>
                </Point>
                <ExtendedData>
                    <Data name="building">
                        <value>Intercity Through Train Concourse / Exit C Concourse of MTR Hung Hom Station</value>
                    </Data>
                    <Data name="country">
                        <value>PRC</value>
                    </Data>
                    <Data name="commercial">
                        <value>The Metropolis</value>
                    </Data>
                    <Data name="postcode">
                        <value>00000</value>
                    </Data>
                    <Data name="road">
                        <value>Cheong Wan Road</value>
                    </Data>
                    <Data name="county">
                        <value>Yau Tsim Mong District</value>
                    </Data>
                    <Data name="country_code">
                        <value>cn</value>
                    </Data>
                    <Data name="routingVisited">
                        <value>false</value>
                    </Data>
                    <Data name="house_number">
                        <value>8</value>
                    </Data>
                </ExtendedData>
            </Placemark>
            <Placemark>
                <Point>
                    <coordinates>114.1848718883,22.3038343967</coordinates>
                </Point>
                <ExtendedData>
                    <Data name="routingVisited">
                        <value>false</value>
                    </Data>
                </ExtendedData>
            </Placemark>
            <Placemark>
                <Point>
                    <coordinates>114.1873206635,22.3039936142</coordinates>
                </Point>
            </Placemark>
            <Placemark>
                <Point>
                    <coordinates>114.1819910357,22.3020079559</coordinates>
                </Point>
            </Placemark>
            <Placemark>
                <address>Mody Road Tsim Sha Tsui, Chatham Road South, Tsim Sha Tsui, Yau Tsim Mong District, Hong Kong, 00000, PRC</address>
                <Point>
                    <coordinates>114.1759043789,22.2983892011</coordinates>
                </Point>
                <ExtendedData>
                    <Data name="bus_stop">
                        <value>Mody Road Tsim Sha Tsui</value>
                    </Data>
                    <Data name="country">
                        <value>PRC</value>
                    </Data>
                    <Data name="postcode">
                        <value>00000</value>
                    </Data>
                    <Data name="road">
                        <value>Chatham Road South</value>
                    </Data>
                    <Data name="suburb">
                        <value>Tsim Sha Tsui</value>
                    </Data>
                    <Data name="county">
                        <value>Yau Tsim Mong District</value>
                    </Data>
                    <Data name="country_code">
                        <value>cn</value>
                    </Data>
                </ExtendedData>
            </Placemark>
            <Placemark>
                <address>栢麗購物大道 Park Lane Shopper's Boulevard, Nathan Road, Tsim Sha Tsui, Yau Tsim Mong District, Hong Kong, 00000, PRC</address>
                <Point>
                    <coordinates>114.1717685480,22.2994574434</coordinates>
                </Point>
                <ExtendedData>
                    <Data name="building">
                        <value>栢麗購物大道 Park Lane Shopper's Boulevard</value>
                    </Data>
                    <Data name="country">
                        <value>PRC</value>
                    </Data>
                    <Data name="postcode">
                        <value>00000</value>
                    </Data>
                    <Data name="road">
                        <value>Nathan Road</value>
                    </Data>
                    <Data name="suburb">
                        <value>Tsim Sha Tsui</value>
                    </Data>
                    <Data name="county">
                        <value>Yau Tsim Mong District</value>
                    </Data>
                    <Data name="country_code">
                        <value>cn</value>
                    </Data>
                </ExtendedData>
            </Placemark>
            <Placemark>
                <Point>
                    <coordinates>114.1694391580,22.3179256678</coordinates>
                </Point>
                <ExtendedData>
                    <Data name="routingVisited">
                        <value>false</value>
                    </Data>
                </ExtendedData>
            </Placemark>
            <Placemark>
                <address>6座, Shun Ning Road, Shek Kip Mei, Sham Shui Po District, Hong Kong, KIL 3348, PRC</address>
                <Point>
                    <coordinates>114.1618826754,22.3369548417</coordinates>
                </Point>
                <ExtendedData>
                    <Data name="building">
                        <value>6座</value>
                    </Data>
                    <Data name="country">
                        <value>PRC</value>
                    </Data>
                    <Data name="postcode">
                        <value>KIL 3348</value>
                    </Data>
                    <Data name="road">
                        <value>Shun Ning Road</value>
                    </Data>
                    <Data name="suburb">
                        <value>Shek Kip Mei</value>
                    </Data>
                    <Data name="county">
                        <value>Sham Shui Po District</value>
                    </Data>
                    <Data name="country_code">
                        <value>cn</value>
                    </Data>
                    <Data name="routingVisited">
                        <value>false</value>
                    </Data>
                </ExtendedData>
            </Placemark>
            <Placemark>
                <address>Kwai Tsing Interchange, Kwai Tsing Road, Kau Wa Keng, Tsing Chau, Kwai Chung, Kwai Tsing District, Hong Kong, 852, PRC</address>
                <Point>
                    <coordinates>114.1203369748,22.3518462530</coordinates>
                </Point>
                <ExtendedData>
                    <Data name="neighbourhood">
                        <value>Kau Wa Keng</value>
                    </Data>
                    <Data name="bus_stop">
                        <value>Kwai Tsing Interchange</value>
                    </Data>
                    <Data name="country">
                        <value>PRC</value>
                    </Data>
                    <Data name="postcode">
                        <value>852</value>
                    </Data>
                    <Data name="road">
                        <value>Kwai Tsing Road</value>
                    </Data>
                    <Data name="town">
                        <value>Kwai Chung</value>
                    </Data>
                    <Data name="suburb">
                        <value>Tsing Chau</value>
                    </Data>
                    <Data name="county">
                        <value>Kwai Tsing District</value>
                    </Data>
                    <Data name="country_code">
                        <value>cn</value>
                    </Data>
                    <Data name="routingVisited">
                        <value>false</value>
                    </Data>
                </ExtendedData>
            </Placemark>
            <Placemark>
                <address>Block 1, Tsing Luk Street, Tsing Chau, Tsing Yu New Village, Kwai Tsing District, Hong Kong, 852, PRC</address>
                <Point>
                    <coordinates>114.1040304481,22.3532189736</coordinates>
                </Point>
                <ExtendedData>
                    <Data name="building">
                        <value>Block 1</value>
                    </Data>
                    <Data name="country">
                        <value>PRC</value>
                    </Data>
                    <Data name="hamlet">
                        <value>Tsing Yu New Village</value>
                    </Data>
                    <Data name="postcode">
                        <value>852</value>
                    </Data>
                    <Data name="road">
                        <value>Tsing Luk Street</value>
                    </Data>
                    <Data name="suburb">
                        <value>Tsing Chau</value>
                    </Data>
                    <Data name="county">
                        <value>Kwai Tsing District</value>
                    </Data>
                    <Data name="country_code">
                        <value>cn</value>
                    </Data>
                </ExtendedData>
            </Placemark>
            <Placemark>
                <address>Block 8, 青衣海濱長廊, Tsing Chau, Tsing Yi Hui, Kwai Tsing District, Hong Kong, 852, PRC</address>
                <Point>
                    <coordinates>114.1029931830,22.3616293674</coordinates>
                </Point>
                <ExtendedData>
                    <Data name="building">
                        <value>Block 8</value>
                    </Data>
                    <Data name="country">
                        <value>PRC</value>
                    </Data>
                    <Data name="hamlet">
                        <value>Tsing Yi Hui</value>
                    </Data>
                    <Data name="postcode">
                        <value>852</value>
                    </Data>
                    <Data name="suburb">
                        <value>Tsing Chau</value>
                    </Data>
                    <Data name="county">
                        <value>Kwai Tsing District</value>
                    </Data>
                    <Data name="country_code">
                        <value>cn</value>
                    </Data>
                    <Data name="routingVisited">
                        <value>false</value>
                    </Data>
                    <Data name="footway">
                        <value>青衣海濱長廊</value>
                    </Data>
                </ExtendedData>
            </Placemark>
        </Folder>
        <Document>
            <name>39.3 km; 00:53 h (OSRM)</name>
            <Placemark>
                <name>Route</name>
                <LineString>
                    <coordinates>114.1029640000,22.3616120000 114.1029590000,22.3616120000 114.1028030000,22.3616110000 114.1027590000,22.3615670000 114.1027450000,22.3615500000 114.1027240000,22.3615150000 114.1026990000,22.3614700000 114.1026710000,22.3614250000 114.1025600000,22.3613620000 114.1026360000,22.3611590000 114.1026650000,22.3610470000 114.1026900000,22.3609540000 114.1027030000,22.3608810000 114.1027420000,22.3608070000 114.1027590000,22.3606640000 114.1027540000,22.3604710000 114.1027830000,22.3603670000 114.1028410000,22.3602570000 114.1028540000,22.3601340000 114.1029390000,22.3601230000 114.1029970000,22.3601040000 114.1030500000,22.3600900000 114.1031180000,22.3600570000 114.1031570000,22.3600290000 114.1032090000,22.3599910000 114.1032580000,22.3599350000 114.1032890000,22.3598220000 114.1033060000,22.3597250000 114.1032790000,22.3596360000 114.1032630000,22.3595870000 114.1032060000,22.3594840000 114.1031600000,22.3594250000 114.1031230000,22.3593980000 114.1030200000,22.3593340000 114.1029420000,22.3593050000 114.1029010000,22.3592920000 114.1028510000,22.3592840000 114.1028030000,22.3592830000 114.1026940000,22.3592330000 114.1025790000,22.3591770000 114.1024060000,22.3590600000 114.1022270000,22.3589320000 114.1021380000,22.3588610000 114.1020580000,22.3587820000 114.1019910000,22.3587040000 114.1019270000,22.3586180000 114.1018790000,22.3585370000 114.1018370000,22.3584590000 114.1018000000,22.3583700000 114.1017690000,22.3582830000 114.1017460000,22.3581940000 114.1017310000,22.3581060000 114.1017170000,22.3580250000 114.1016480000,22.3578080000 114.1016340000,22.3577930000 114.1015880000,22.3577230000 114.1016380000,22.3576690000 114.1016920000,22.3576130000 114.1017280000,22.3575600000 114.1017940000,22.3573890000 114.1018170000,22.3573130000 114.1018640000,22.3571470000 114.1019830000,22.3567640000 114.1022030000,22.3559650000 114.1022600000,22.3555690000 114.1023030000,22.3553010000 114.1023180000,22.3552060000 114.1024410000,22.3552110000 114.1025340000,22.3552130000 114.1029450000,22.3551580000 114.1030720000,22.3551380000 114.1033340000,22.3550970000 114.1037710000,22.3550290000 114.1037800000,22.3550600000 114.1037980000,22.3550870000 114.1038230000,22.3551090000 114.1038540000,22.3551230000 114.1038880000,22.3551290000 114.1039280000,22.3551240000 114.1039650000,22.3551080000 114.1039930000,22.3550810000 114.1040100000,22.3550520000 114.1040160000,22.3550200000 114.1040120000,22.3549870000 114.1039990000,22.3549570000 114.1039760000,22.3549320000 114.1039470000,22.3549130000 114.1039140000,22.3549030000 114.1038780000,22.3549020000 114.1038850000,22.3547680000 114.1038940000,22.3544720000 114.1038980000,22.3543320000 114.1039000000,22.3542830000 114.1039070000,22.3541100000 114.1039090000,22.3540540000 114.1039180000,22.3538460000 114.1039260000,22.3537840000 114.1039460000,22.3536710000 114.1039990000,22.3535250000 114.1040810000,22.3533970000 114.1042100000,22.3532510000 114.1044300000,22.3531320000 114.1047030000,22.3530640000 114.1048470000,22.3530580000 114.1048910000,22.3530560000 114.1049920000,22.3530630000 114.1050320000,22.3530640000 114.1050540000,22.3530660000 114.1051610000,22.3530800000 114.1052800000,22.3530940000 114.1055380000,22.3531320000 114.1057270000,22.3532250000 114.1058710000,22.3533470000 114.1060040000,22.3535350000 114.1060700000,22.3537060000 114.1060890000,22.3538630000 114.1060940000,22.3543320000 114.1061010000,22.3543900000 114.1061230000,22.3544640000 114.1062030000,22.3545690000 114.1063530000,22.3546590000 114.1065540000,22.3546890000 114.1068110000,22.3547160000 114.1068720000,22.3547160000 114.1070380000,22.3547170000 114.1070510000,22.3545770000 114.1070580000,22.3543800000 114.1070610000,22.3542880000 114.1070760000,22.3538280000 114.1070790000,22.3537630000 114.1070890000,22.3535680000 114.1071030000,22.3535040000 114.1071240000,22.3534420000 114.1071480000,22.3533950000 114.1071620000,22.3533800000 114.1072110000,22.3533090000 114.1072810000,22.3532310000 114.1073630000,22.3531990000 114.1074370000,22.3531520000 114.1075010000,22.3530940000 114.1075700000,22.3529930000 114.1076080000,22.3528790000 114.1076110000,22.3527600000 114.1075890000,22.3526660000 114.1075450000,22.3525780000 114.1074820000,22.3525010000 114.1074720000,22.3524210000 114.1074600000,22.3523290000 114.1074530000,22.3522290000 114.1074580000,22.3521380000 114.1074750000,22.3520720000 114.1074970000,22.3520170000 114.1078530000,22.3515790000 114.1079920000,22.3514120000 114.1081390000,22.3512590000 114.1081640000,22.3512260000 114.1082890000,22.3510770000 114.1086570000,22.3506430000 114.1086980000,22.3505850000 114.1087860000,22.3504670000 114.1091400000,22.3500150000 114.1091630000,22.3499870000 114.1094100000,22.3496920000 114.1098740000,22.3491030000 114.1100630000,22.3488660000 114.1101260000,22.3487650000 114.1101930000,22.3486650000 114.1102620000,22.3485700000 114.1102840000,22.3484790000 114.1103050000,22.3483920000 114.1103120000,22.3482830000 114.1103190000,22.3482060000 114.1103240000,22.3481580000 114.1103310000,22.3481170000 114.1103470000,22.3480470000 114.1103810000,22.3479830000 114.1104280000,22.3479270000 114.1104880000,22.3478800000 114.1105670000,22.3478640000 114.1106550000,22.3478700000 114.1107240000,22.3478790000 114.1108250000,22.3479030000 114.1108510000,22.3479070000 114.1126300000,22.3483660000 114.1165980000,22.3493950000 114.1170910000,22.3495290000 114.1173230000,22.3496150000 114.1175030000,22.3497040000 114.1176650000,22.3497980000 114.1177990000,22.3498860000 114.1179050000,22.3499630000 114.1180140000,22.3500540000 114.1180610000,22.3501890000 114.1182170000,22.3503690000 114.1183880000,22.3506110000 114.1186480000,22.3509420000 114.1188460000,22.3512800000 114.1190200000,22.3516860000 114.1191540000,22.3520290000 114.1192820000,22.3522710000 114.1194590000,22.3525080000 114.1196090000,22.3526440000 114.1197820000,22.3527650000 114.1199350000,22.3528270000 114.1201950000,22.3529020000 114.1204660000,22.3529280000 114.1207280000,22.3528970000 114.1211280000,22.3527800000 114.1214570000,22.3526370000 114.1219020000,22.3524450000 114.1223650000,22.3522540000 114.1226470000,22.3521090000 114.1228100000,22.3520110000 114.1229880000,22.3518960000 114.1231760000,22.3517650000 114.1234160000,22.3514980000 114.1237280000,22.3512190000 114.1239480000,22.3509410000 114.1241480000,22.3506360000 114.1243000000,22.3503120000 114.1244440000,22.3499020000 114.1244990000,22.3496360000 114.1245500000,22.3491470000 114.1245370000,22.3484120000 114.1245330000,22.3480180000 114.1245490000,22.3476170000 114.1246060000,22.3472410000 114.1246110000,22.3472070000 114.1246230000,22.3471590000 114.1246360000,22.3471070000 114.1246480000,22.3470550000 114.1246730000,22.3469520000 114.1247170000,22.3467720000 114.1247310000,22.3467150000 114.1247610000,22.3466370000 114.1248410000,22.3464270000 114.1248690000,22.3463550000 114.1249200000,22.3462330000 114.1250230000,22.3459890000 114.1251600000,22.3457430000 114.1252280000,22.3456200000 114.1254330000,22.3453410000 114.1256160000,22.3450810000 114.1258580000,22.3448130000 114.1260660000,22.3446100000 114.1265330000,22.3442760000 114.1269240000,22.3440300000 114.1272820000,22.3438400000 114.1276470000,22.3436840000 114.1281270000,22.3434690000 114.1283770000,22.3433460000 114.1286560000,22.3432050000 114.1289710000,22.3430190000 114.1291870000,22.3428750000 114.1294020000,22.3427320000 114.1295670000,22.3426040000 114.1297310000,22.3424680000 114.1298900000,22.3423150000 114.1301370000,22.3420730000 114.1303630000,22.3417950000 114.1306770000,22.3413100000 114.1308700000,22.3409770000 114.1310190000,22.3406270000 114.1311910000,22.3402610000 114.1313730000,22.3398820000 114.1316030000,22.3395690000 114.1317430000,22.3393020000 114.1319650000,22.3389160000 114.1321860000,22.3385200000 114.1323490000,22.3381980000 114.1325610000,22.3378840000 114.1326820000,22.3377160000 114.1328200000,22.3375310000 114.1329340000,22.3373860000 114.1330520000,22.3372410000 114.1331650000,22.3371070000 114.1332900000,22.3369690000 114.1334200000,22.3368390000 114.1335610000,22.3367200000 114.1337120000,22.3366090000 114.1338480000,22.3365500000 114.1340050000,22.3365000000 114.1341740000,22.3364620000 114.1344000000,22.3364560000 114.1345610000,22.3364620000 114.1347270000,22.3364910000 114.1349070000,22.3365390000 114.1350610000,22.3366000000 114.1351740000,22.3366700000 114.1352930000,22.3367540000 114.1354920000,22.3369310000 114.1355390000,22.3369960000 114.1355950000,22.3370790000 114.1356240000,22.3371290000 114.1356560000,22.3371860000 114.1356880000,22.3372510000 114.1357120000,22.3373040000 114.1357330000,22.3373580000 114.1357570000,22.3374240000 114.1357680000,22.3374580000 114.1357770000,22.3374950000 114.1357870000,22.3375330000 114.1357960000,22.3375790000 114.1358320000,22.3378400000 114.1358120000,22.3382280000 114.1358060000,22.3384240000 114.1358070000,22.3386780000 114.1358430000,22.3389400000 114.1358760000,22.3391290000 114.1359170000,22.3392970000 114.1361010000,22.3398850000 114.1361980000,22.3402260000 114.1362370000,22.3404530000 114.1362750000,22.3405460000 114.1363160000,22.3406300000 114.1363590000,22.3407070000 114.1364080000,22.3407780000 114.1364530000,22.3408410000 114.1365120000,22.3409080000 114.1365650000,22.3409680000 114.1366160000,22.3410160000 114.1366660000,22.3410580000 114.1367290000,22.3411080000 114.1368050000,22.3411610000 114.1368790000,22.3412070000 114.1369430000,22.3412410000 114.1369990000,22.3412680000 114.1370420000,22.3412860000 114.1370930000,22.3413080000 114.1371420000,22.3413260000 114.1372260000,22.3413540000 114.1372900000,22.3413710000 114.1373480000,22.3413830000 114.1373910000,22.3413910000 114.1374370000,22.3413980000 114.1374860000,22.3414040000 114.1375500000,22.3414110000 114.1376020000,22.3414150000 114.1376520000,22.3414160000 114.1377090000,22.3414160000 114.1377700000,22.3414150000 114.1378250000,22.3414150000 114.1378820000,22.3414130000 114.1379160000,22.3414100000 114.1379470000,22.3414060000 114.1379920000,22.3413980000 114.1380480000,22.3413850000 114.1381380000,22.3413610000 114.1381890000,22.3413480000 114.1382850000,22.3413170000 114.1383630000,22.3412890000 114.1385190000,22.3412250000 114.1386650000,22.3411630000 114.1387460000,22.3411260000 114.1388360000,22.3410810000 114.1388770000,22.3410590000 114.1389120000,22.3410370000 114.1391650000,22.3408820000 114.1393050000,22.3407950000 114.1393760000,22.3407450000 114.1398200000,22.3404210000 114.1399110000,22.3403560000 114.1399730000,22.3403140000 114.1400180000,22.3402850000 114.1400670000,22.3402540000 114.1401390000,22.3402150000 114.1402360000,22.3401630000 114.1403160000,22.3401220000 114.1403800000,22.3400910000 114.1404360000,22.3400660000 114.1405160000,22.3400330000 114.1405790000,22.3400100000 114.1406400000,22.3399920000 114.1406940000,22.3399770000 114.1407660000,22.3399580000 114.1408530000,22.3399390000 114.1408930000,22.3399310000 114.1409590000,22.3399240000 114.1410170000,22.3399210000 114.1411160000,22.3399230000 114.1411880000,22.3399280000 114.1412550000,22.3399360000 114.1413130000,22.3399440000 114.1413760000,22.3399600000 114.1414500000,22.3399870000 114.1415340000,22.3400200000 114.1416050000,22.3400520000 114.1416350000,22.3400660000 114.1416800000,22.3400910000 114.1417370000,22.3401310000 114.1417960000,22.3401780000 114.1419010000,22.3402690000 114.1421480000,22.3404800000 114.1425520000,22.3408390000 114.1426880000,22.3409470000 114.1428030000,22.3410260000 114.1428690000,22.3410660000 114.1429240000,22.3410940000 114.1429820000,22.3411190000 114.1430450000,22.3411450000 114.1431050000,22.3411650000 114.1431600000,22.3411780000 114.1432220000,22.3411890000 114.1432930000,22.3412000000 114.1433540000,22.3412050000 114.1434050000,22.3412050000 114.1434660000,22.3412020000 114.1435230000,22.3411960000 114.1435840000,22.3411870000 114.1436380000,22.3411760000 114.1436890000,22.3411630000 114.1437430000,22.3411450000 114.1437980000,22.3411260000 114.1438760000,22.3410940000 114.1439430000,22.3410600000 114.1439770000,22.3410390000 114.1440170000,22.3410120000 114.1441210000,22.3409370000 114.1441820000,22.3408830000 114.1442970000,22.3407580000 114.1443860000,22.3406440000 114.1444850000,22.3405110000 114.1445480000,22.3404280000 114.1446060000,22.3403540000 114.1446590000,22.3402930000 114.1447180000,22.3402350000 114.1447800000,22.3401790000 114.1448430000,22.3401300000 114.1449330000,22.3400790000 114.1450450000,22.3400240000 114.1451600000,22.3399860000 114.1452730000,22.3399600000 114.1453950000,22.3399440000 114.1455630000,22.3399380000 114.1459090000,22.3399470000 114.1463220000,22.3399670000 114.1466420000,22.3399880000 114.1468860000,22.3400300000 114.1471450000,22.3400940000 114.1476840000,22.3402510000 114.1480720000,22.3403630000 114.1485800000,22.3405130000 114.1489050000,22.3406070000 114.1492800000,22.3407200000 114.1495170000,22.3407970000 114.1497400000,22.3408710000 114.1499830000,22.3409730000 114.1508210000,22.3413500000 114.1512090000,22.3415070000 114.1519470000,22.3418090000 114.1525610000,22.3420600000 114.1526890000,22.3421150000 114.1541330000,22.3427360000 114.1544090000,22.3428120000 114.1545880000,22.3428540000 114.1547240000,22.3428780000 114.1549310000,22.3428920000 114.1550660000,22.3428860000 114.1552360000,22.3428690000 114.1556280000,22.3428120000 114.1557440000,22.3428000000 114.1558490000,22.3427930000 114.1559310000,22.3427910000 114.1561140000,22.3427940000 114.1563600000,22.3428050000 114.1565910000,22.3428270000 114.1569160000,22.3428630000 114.1572730000,22.3429060000 114.1574970000,22.3429450000 114.1575580000,22.3429510000 114.1576400000,22.3429540000 114.1578420000,22.3429560000 114.1579420000,22.3429550000 114.1580570000,22.3429490000 114.1581460000,22.3429430000 114.1584530000,22.3429160000 114.1585510000,22.3429070000 114.1587530000,22.3428870000 114.1588700000,22.3428700000 114.1589870000,22.3428440000 114.1592060000,22.3427750000 114.1594840000,22.3426250000 114.1595670000,22.3425660000 114.1596480000,22.3425040000 114.1597250000,22.3424380000 114.1597980000,22.3423680000 114.1598580000,22.3422880000 114.1599070000,22.3422010000 114.1599450000,22.3421090000 114.1599730000,22.3420150000 114.1600460000,22.3417190000 114.1600980000,22.3415340000 114.1601500000,22.3414340000 114.1602180000,22.3413430000 114.1603010000,22.3412630000 114.1603960000,22.3411960000 114.1606020000,22.3410870000 114.1612120000,22.3407840000 114.1620630000,22.3403650000 114.1622550000,22.3402510000 114.1624340000,22.3401210000 114.1625980000,22.3399740000 114.1627450000,22.3398140000 114.1628750000,22.3396400000 114.1629850000,22.3394560000 114.1630750000,22.3392620000 114.1631630000,22.3390350000 114.1631910000,22.3389330000 114.1631980000,22.3388380000 114.1631820000,22.3385920000 114.1630970000,22.3383870000 114.1629960000,22.3382170000 114.1623210000,22.3375600000 114.1622090000,22.3373920000 114.1621280000,22.3372100000 114.1620800000,22.3370180000 114.1620670000,22.3368220000 114.1620890000,22.3366260000 114.1621460000,22.3364360000 114.1623720000,22.3359230000 114.1624310000,22.3357830000 114.1626630000,22.3352300000 114.1626790000,22.3351920000 114.1627100000,22.3351210000 114.1627430000,22.3350430000 114.1628460000,22.3348060000 114.1629290000,22.3346140000 114.1630320000,22.3343690000 114.1630740000,22.3342050000 114.1632460000,22.3337770000 114.1632980000,22.3337230000 114.1633330000,22.3336580000 114.1633540000,22.3336130000 114.1634560000,22.3333860000 114.1635160000,22.3332720000 114.1635620000,22.3331900000 114.1636110000,22.3331190000 114.1636610000,22.3330450000 114.1636960000,22.3329930000 114.1643640000,22.3322560000 114.1650320000,22.3315040000 114.1650700000,22.3314620000 114.1651540000,22.3313630000 114.1652110000,22.3312960000 114.1657640000,22.3306650000 114.1657790000,22.3306470000 114.1658320000,22.3306000000 114.1658770000,22.3305500000 114.1659410000,22.3304600000 114.1660570000,22.3302820000 114.1663220000,22.3297660000 114.1664310000,22.3295320000 114.1664440000,22.3295040000 114.1665010000,22.3293850000 114.1665460000,22.3292920000 114.1670490000,22.3282510000 114.1671200000,22.3280930000 114.1671400000,22.3280500000 114.1673180000,22.3276810000 114.1673410000,22.3276260000 114.1673520000,22.3275860000 114.1673540000,22.3275470000 114.1673490000,22.3275040000 114.1673340000,22.3274530000 114.1672990000,22.3273780000 114.1672630000,22.3272940000 114.1672480000,22.3272470000 114.1672440000,22.3272160000 114.1672450000,22.3271840000 114.1672540000,22.3271510000 114.1672650000,22.3271240000 114.1673060000,22.3270710000 114.1674550000,22.3269760000 114.1675870000,22.3268800000 114.1676980000,22.3267840000 114.1677210000,22.3267420000 114.1677310000,22.3267200000 114.1677460000,22.3267040000 114.1677610000,22.3266890000 114.1678160000,22.3266460000 114.1678410000,22.3266250000 114.1678660000,22.3265720000 114.1679130000,22.3264820000 114.1679560000,22.3263890000 114.1679690000,22.3263510000 114.1679810000,22.3263140000 114.1680030000,22.3262340000 114.1681560000,22.3255460000 114.1682260000,22.3252060000 114.1682370000,22.3251480000 114.1683990000,22.3243410000 114.1684400000,22.3241500000 114.1684440000,22.3241320000 114.1684600000,22.3240570000 114.1684820000,22.3239640000 114.1684910000,22.3239090000 114.1684940000,22.3238980000 114.1685080000,22.3238270000 114.1686590000,22.3231130000 114.1687020000,22.3229210000 114.1687200000,22.3228230000 114.1687320000,22.3227660000 114.1687860000,22.3224820000 114.1688690000,22.3220630000 114.1689430000,22.3216740000 114.1689770000,22.3214710000 114.1689940000,22.3213860000 114.1690500000,22.3210910000 114.1690590000,22.3210510000 114.1690710000,22.3209960000 114.1690790000,22.3209570000 114.1690900000,22.3209050000 114.1691070000,22.3208330000 114.1691310000,22.3207380000 114.1691440000,22.3206680000 114.1691520000,22.3206260000 114.1691590000,22.3205910000 114.1691670000,22.3205560000 114.1692280000,22.3202610000 114.1692680000,22.3200750000 114.1693170000,22.3198470000 114.1693810000,22.3195370000 114.1693890000,22.3194980000 114.1693980000,22.3194540000 114.1694290000,22.3193120000 114.1694480000,22.3192160000 114.1694590000,22.3191660000 114.1694810000,22.3190710000 114.1695380000,22.3187820000 114.1696280000,22.3183450000 114.1696600000,22.3181870000 114.1697870000,22.3175640000 114.1697990000,22.3175010000 114.1699580000,22.3167360000 114.1699920000,22.3165510000 114.1701510000,22.3157930000 114.1702070000,22.3155260000 114.1702180000,22.3154680000 114.1702380000,22.3153660000 114.1703270000,22.3149370000 114.1703380000,22.3148880000 114.1703770000,22.3146840000 114.1703840000,22.3146470000 114.1703990000,22.3145700000 114.1704660000,22.3142320000 114.1705300000,22.3139010000 114.1706530000,22.3132960000 114.1706590000,22.3132650000 114.1707010000,22.3130540000 114.1707170000,22.3129770000 114.1707380000,22.3128780000 114.1707960000,22.3125990000 114.1708200000,22.3124780000 114.1709270000,22.3119420000 114.1709490000,22.3118210000 114.1709590000,22.3117680000 114.1710320000,22.3113760000 114.1710660000,22.3111930000 114.1711040000,22.3109890000 114.1711200000,22.3109100000 114.1711370000,22.3108120000 114.1711460000,22.3107620000 114.1711580000,22.3106950000 114.1712060000,22.3104150000 114.1712230000,22.3103170000 114.1712320000,22.3102790000 114.1712450000,22.3102310000 114.1712490000,22.3102030000 114.1712540000,22.3101490000 114.1712560000,22.3101280000 114.1712590000,22.3100940000 114.1712630000,22.3100020000 114.1712600000,22.3096970000 114.1713030000,22.3091940000 114.1713190000,22.3090320000 114.1713760000,22.3085660000 114.1713840000,22.3084990000 114.1713870000,22.3083990000 114.1713980000,22.3082750000 114.1714490000,22.3078270000 114.1714930000,22.3073750000 114.1715310000,22.3069820000 114.1715720000,22.3065270000 114.1716070000,22.3061250000 114.1716230000,22.3059470000 114.1716630000,22.3055120000 114.1716760000,22.3053890000 114.1716810000,22.3053050000 114.1716900000,22.3051560000 114.1717480000,22.3044430000 114.1717810000,22.3039660000 114.1718080000,22.3034480000 114.1718110000,22.3033960000 114.1718150000,22.3032750000 114.1718210000,22.3031980000 114.1718240000,22.3031060000 114.1718560000,22.3026380000 114.1718770000,22.3023540000 114.1719040000,22.3018840000 114.1719120000,22.3017800000 114.1719140000,22.3017530000 114.1719220000,22.3016350000 114.1719430000,22.3013670000 114.1719500000,22.3012700000 114.1719630000,22.3010950000 114.1719690000,22.3009940000 114.1719980000,22.3005630000 114.1720020000,22.3005150000 114.1720040000,22.3004900000 114.1720180000,22.3003630000 114.1720200000,22.3003140000 114.1720250000,22.3002690000 114.1720670000,22.2996820000 114.1720710000,22.2996040000 114.1720780000,22.2995230000 114.1721020000,22.2993330000 114.1721340000,22.2987170000 114.1721650000,22.2982150000 114.1721680000,22.2981630000 114.1721780000,22.2980180000 114.1722070000,22.2976340000 114.1722600000,22.2969500000 114.1723240000,22.2969580000 114.1727120000,22.2970110000 114.1730230000,22.2970530000 114.1734060000,22.2970970000 114.1735670000,22.2971150000 114.1736430000,22.2971210000 114.1746080000,22.2972290000 114.1754110000,22.2973090000 114.1754600000,22.2973040000 114.1755490000,22.2978380000 114.1755890000,22.2980920000 114.1756880000,22.2987410000 114.1757690000,22.2991980000 114.1757990000,22.2993640000 114.1758150000,22.2994660000 114.1758350000,22.2995630000 114.1759180000,22.2998400000 114.1759990000,22.3001370000 114.1760590000,22.3002900000 114.1761350000,22.3005250000 114.1762400000,22.3008380000 114.1762880000,22.3009720000 114.1763510000,22.3011570000 114.1764800000,22.3015460000 114.1766200000,22.3019540000 114.1768430000,22.3025400000 114.1770590000,22.3028470000 114.1771180000,22.3029390000 114.1771680000,22.3029600000 114.1771940000,22.3029690000 114.1772150000,22.3029750000 114.1772340000,22.3029800000 114.1772570000,22.3029820000 114.1774100000,22.3029110000 114.1775450000,22.3028610000 114.1780480000,22.3026490000 114.1782670000,22.3025620000 114.1783360000,22.3025380000 114.1785210000,22.3024470000 114.1786690000,22.3023870000 114.1788540000,22.3023280000 114.1790780000,22.3022770000 114.1791890000,22.3022560000 114.1792950000,22.3022400000 114.1806750000,22.3021140000 114.1808370000,22.3021050000 114.1808950000,22.3021040000 114.1809760000,22.3021120000 114.1810220000,22.3021430000 114.1810580000,22.3021790000 114.1810990000,22.3022830000 114.1811510000,22.3025380000 114.1812110000,22.3031350000 114.1812440000,22.3035020000 114.1812820000,22.3036560000 114.1812990000,22.3037090000 114.1813710000,22.3038440000 114.1814520000,22.3039870000 114.1815220000,22.3040680000 114.1815780000,22.3041080000 114.1816430000,22.3041310000 114.1819190000,22.3041090000 114.1820000000,22.3041690000 114.1820400000,22.3042600000 114.1820500000,22.3044200000 114.1820550000,22.3044600000 114.1820660000,22.3045110000 114.1820850000,22.3045800000 114.1821090000,22.3046500000 114.1821390000,22.3047200000 114.1821570000,22.3047500000 114.1821820000,22.3047900000 114.1822400000,22.3048590000 114.1823000000,22.3049100000 114.1823570000,22.3049520000 114.1823890000,22.3049720000 114.1824200000,22.3049890000 114.1824570000,22.3050060000 114.1824890000,22.3050190000 114.1825190000,22.3050300000 114.1826600000,22.3050690000 114.1827250000,22.3050900000 114.1827580000,22.3051020000 114.1827900000,22.3051200000 114.1832110000,22.3054990000 114.1833700000,22.3056400000 114.1834600000,22.3057370000 114.1835430000,22.3058380000 114.1836210000,22.3059430000 114.1836920000,22.3060520000 114.1837580000,22.3061660000 114.1838230000,22.3062810000 114.1838930000,22.3063760000 114.1841930000,22.3068120000 114.1842280000,22.3068570000 114.1842590000,22.3069000000 114.1843660000,22.3070370000 114.1844290000,22.3071240000 114.1846990000,22.3074920000 114.1849860000,22.3078950000 114.1850320000,22.3078660000 114.1850610000,22.3078500000 114.1854610000,22.3075960000 114.1858770000,22.3073360000 114.1859000000,22.3073220000 114.1864450000,22.3069800000 114.1864640000,22.3069680000 114.1865900000,22.3068890000 114.1867010000,22.3068200000 114.1871610000,22.3065230000 114.1874730000,22.3063240000 114.1875610000,22.3062680000 114.1876850000,22.3061880000 114.1879860000,22.3060000000 114.1880420000,22.3059650000 114.1881870000,22.3058740000 114.1882340000,22.3058450000 114.1885100000,22.3056720000 114.1885690000,22.3056350000 114.1886140000,22.3056070000 114.1887180000,22.3055420000 114.1888160000,22.3054800000 114.1889290000,22.3054100000 114.1890120000,22.3053570000 114.1900650000,22.3046990000 114.1902090000,22.3046090000 114.1903750000,22.3045080000 114.1904030000,22.3044900000 114.1907150000,22.3042890000 114.1909480000,22.3041390000 114.1911480000,22.3040090000 114.1919100000,22.3035170000 114.1919170000,22.3034670000 114.1919110000,22.3034190000 114.1919040000,22.3033980000 114.1918530000,22.3032920000 114.1917730000,22.3031330000 114.1916220000,22.3028330000 114.1915640000,22.3027260000 114.1915410000,22.3026990000 114.1915100000,22.3026720000 114.1914660000,22.3026520000 114.1914040000,22.3026350000 114.1913420000,22.3026330000 114.1912820000,22.3026460000 114.1904160000,22.3029900000 114.1903860000,22.3030020000 114.1902460000,22.3030580000 114.1900060000,22.3032060000 114.1899020000,22.3032710000 114.1897640000,22.3033560000 114.1895620000,22.3034840000 114.1894470000,22.3035560000 114.1893890000,22.3035930000 114.1892980000,22.3036520000 114.1892420000,22.3035730000 114.1892140000,22.3035330000 114.1890560000,22.3033170000 114.1888990000,22.3031090000 114.1888610000,22.3029670000 114.1888060000,22.3028750000 114.1886300000,22.3027530000 114.1886310000,22.3027500000 114.1886600000,22.3026710000 114.1886810000,22.3025890000 114.1886940000,22.3025070000 114.1887000000,22.3024240000 114.1886980000,22.3023420000 114.1886890000,22.3022620000 114.1886730000,22.3021940000 114.1886520000,22.3021280000 114.1886240000,22.3020630000 114.1886570000,22.3020520000 114.1887240000,22.3020090000 114.1887500000,22.3019930000 114.1889180000,22.3018810000 114.1891460000,22.3017280000 114.1893370000,22.3016000000 114.1893670000,22.3015810000 114.1893840000,22.3015680000 114.1893950000,22.3015510000 114.1894010000,22.3015310000 114.1894000000,22.3015130000 114.1893930000,22.3014960000 114.1893810000,22.3014810000 114.1893710000,22.3014680000 114.1893360000,22.3014240000 114.1891810000,22.3012270000 114.1885650000,22.3009890000 114.1884880000,22.3009590000 114.1884880000,22.3009590000 114.1884610000,22.3009530000 114.1884330000,22.3009550000 114.1884080000,22.3009640000 114.1883860000,22.3009810000 114.1883720000,22.3010030000 114.1883650000,22.3010280000 114.1883670000,22.3010530000 114.1883780000,22.3010770000 114.1883960000,22.3010960000 114.1884190000,22.3011100000 114.1889630000,22.3013200000 114.1891310000,22.3015340000 114.1891390000,22.3015580000 114.1891420000,22.3015830000 114.1891400000,22.3016080000 114.1891320000,22.3016310000 114.1891190000,22.3016530000 114.1891020000,22.3016720000 114.1889430000,22.3017780000 114.1888890000,22.3017930000 114.1888240000,22.3018110000 114.1887920000,22.3018200000 114.1886750000,22.3018980000 114.1886550000,22.3019110000 114.1886290000,22.3019290000 114.1885700000,22.3019680000 114.1885350000,22.3019160000 114.1885170000,22.3018890000 114.1884920000,22.3018540000 114.1884370000,22.3017900000 114.1883730000,22.3017320000 114.1883040000,22.3016830000 114.1881750000,22.3016010000 114.1880490000,22.3015350000 114.1880380000,22.3015300000 114.1873040000,22.3012180000 114.1871380000,22.3011520000 114.1869710000,22.3010900000 114.1868090000,22.3010350000 114.1867000000,22.3010010000 114.1866450000,22.3009850000 114.1865690000,22.3009650000 114.1865040000,22.3009580000 114.1861200000,22.3009570000 114.1857070000,22.3009610000 114.1855180000,22.3009640000 114.1854370000,22.3009580000 114.1852420000,22.3009520000 114.1849680000,22.3009280000 114.1847190000,22.3008860000 114.1845680000,22.3008560000 114.1845300000,22.3008020000 114.1844750000,22.3007620000 114.1844100000,22.3007400000 114.1843400000,22.3007390000 114.1842730000,22.3007580000 114.1842250000,22.3007880000 114.1841870000,22.3008290000 114.1841630000,22.3008770000 114.1841530000,22.3009360000 114.1841620000,22.3009960000 114.1841900000,22.3010500000 114.1842330000,22.3010940000 114.1842890000,22.3011240000 114.1843450000,22.3011370000 114.1844030000,22.3011360000 114.1844450000,22.3011260000 114.1844830000,22.3011090000 114.1846460000,22.3010800000 114.1847500000,22.3010750000 114.1849060000,22.3010900000 114.1850570000,22.3011220000 114.1851720000,22.3011630000 114.1853020000,22.3012300000 114.1854660000,22.3013430000 114.1854990000,22.3013740000 114.1855280000,22.3014010000 114.1855680000,22.3014880000 114.1855860000,22.3015430000 114.1855940000,22.3015960000 114.1856090000,22.3017590000 114.1856020000,22.3018320000 114.1855670000,22.3022200000 114.1855610000,22.3022650000 114.1855540000,22.3023110000 114.1855000000,22.3025450000 114.1854340000,22.3028020000 114.1853560000,22.3029920000 114.1852090000,22.3033340000 114.1848950000,22.3038460000 114.1848920000,22.3038520000 114.1848140000,22.3039850000 114.1847870000,22.3040300000 114.1848460000,22.3040580000 114.1851590000,22.3042050000 114.1853120000,22.3043080000 114.1854740000,22.3044170000 114.1856450000,22.3045810000 114.1857260000,22.3046760000 114.1858180000,22.3047880000 114.1858370000,22.3048100000 114.1859490000,22.3048920000 114.1859970000,22.3048540000 114.1860270000,22.3048280000 114.1861550000,22.3047180000 114.1862770000,22.3046450000 114.1863920000,22.3045480000 114.1870740000,22.3040200000 114.1871340000,22.3039790000 114.1872010000,22.3039500000 114.1872660000,22.3039410000 114.1873190000,22.3039390000 114.1873300000,22.3039390000 114.1874190000,22.3039540000 114.1874870000,22.3039800000 114.1875250000,22.3039950000 114.1876060000,22.3040640000 114.1877070000,22.3041450000 114.1880540000,22.3046240000 114.1884260000,22.3051380000 114.1886120000,22.3053950000 114.1886400000,22.3054340000 114.1887050000,22.3055230000 114.1887180000,22.3055420000 114.1886140000,22.3056070000 114.1885690000,22.3056350000 114.1885100000,22.3056720000 114.1882340000,22.3058450000 114.1881870000,22.3058740000 114.1880420000,22.3059650000 114.1879860000,22.3060000000 114.1876850000,22.3061880000 114.1875610000,22.3062680000 114.1874730000,22.3063240000 114.1871610000,22.3065230000 114.1867010000,22.3068200000 114.1865900000,22.3068890000 114.1864640000,22.3069680000 114.1864450000,22.3069800000 114.1859000000,22.3073220000 114.1858770000,22.3073360000 114.1854610000,22.3075960000 114.1850610000,22.3078500000 114.1849040000,22.3076360000 114.1847760000,22.3074600000 114.1847120000,22.3073140000 114.1843420000,22.3067920000 114.1838710000,22.3061440000 114.1838370000,22.3060900000 114.1838220000,22.3060660000 114.1837860000,22.3060070000 114.1837320000,22.3059260000 114.1835950000,22.3057760000 114.1834410000,22.3056240000 114.1832480000,22.3054540000 114.1828000000,22.3050900000 114.1827780000,22.3050740000 114.1827500000,22.3050600000 114.1826900000,22.3050400000 114.1825300000,22.3049980000 114.1824900000,22.3049800000 114.1824390000,22.3049500000 114.1823800000,22.3049110000 114.1823270000,22.3048710000 114.1822900000,22.3048400000 114.1822600000,22.3048100000 114.1822100000,22.3047500000 114.1821800000,22.3047100000 114.1821610000,22.3046810000 114.1821450000,22.3046500000 114.1821300000,22.3046140000 114.1821200000,22.3045820000 114.1821040000,22.3045100000 114.1820960000,22.3044650000 114.1820900000,22.3044190000 114.1820870000,22.3042580000 114.1821000000,22.3041680000 114.1821820000,22.3041030000 114.1824570000,22.3040900000 114.1825870000,22.3040810000 114.1827420000,22.3040650000 114.1828430000,22.3040190000 114.1828960000,22.3038980000 114.1829170000,22.3036560000 114.1829270000,22.3035180000 114.1829250000,22.3033040000 114.1828980000,22.3026050000 114.1828790000,22.3024910000 114.1828460000,22.3023920000 114.1828210000,22.3023290000 114.1827910000,22.3022560000 114.1827450000,22.3021620000 114.1827110000,22.3021120000 114.1826680000,22.3020600000 114.1826390000,22.3020420000 114.1826060000,22.3020260000 114.1825790000,22.3020170000 114.1825410000,22.3020100000 114.1824640000,22.3020000000 114.1824040000,22.3020030000 114.1823370000,22.3020080000 114.1819920000,22.3020280000 114.1817490000,22.3020420000 114.1815420000,22.3020510000 114.1812080000,22.3020500000 114.1811220000,22.3020480000 114.1810090000,22.3020540000 114.1808410000,22.3020500000 114.1792990000,22.3021850000 114.1791770000,22.3022050000 114.1790560000,22.3022290000 114.1788480000,22.3022800000 114.1786160000,22.3023520000 114.1784600000,22.3024090000 114.1781090000,22.3025230000 114.1776360000,22.3026960000 114.1775250000,22.3027470000 114.1773340000,22.3027550000 114.1772990000,22.3027510000 114.1772450000,22.3027380000 114.1771760000,22.3027090000 114.1771180000,22.3026810000 114.1770240000,22.3026010000 114.1769630000,22.3024940000 114.1768730000,22.3022870000 114.1767330000,22.3019130000 114.1765970000,22.3015200000 114.1764460000,22.3010740000 114.1763410000,22.3007860000 114.1762520000,22.3005230000 114.1761750000,22.3002470000 114.1759960000,22.2996640000 114.1759630000,22.2995540000 114.1759280000,22.2993880000 114.1759280000,22.2993850000 114.1758680000,22.2989950000 114.1758190000,22.2986710000 114.1757790000,22.2984050000 114.1757330000,22.2981050000 114.1755820000,22.2972560000 114.1755450000,22.2970480000 114.1753540000,22.2958180000 114.1753020000,22.2955270000 114.1753010000,22.2955040000 114.1752980000,22.2954300000 114.1753110000,22.2953000000 114.1753530000,22.2951860000 114.1752390000,22.2951450000 114.1751020000,22.2950780000 114.1747670000,22.2949600000 114.1746590000,22.2949150000 114.1742890000,22.2948160000 114.1739770000,22.2947460000 114.1736990000,22.2946930000 114.1736200000,22.2946840000 114.1735590000,22.2946750000 114.1735110000,22.2946700000 114.1733370000,22.2946620000 114.1732530000,22.2946590000 114.1729160000,22.2947130000 114.1725170000,22.2946930000 114.1724420000,22.2946870000 114.1724240000,22.2946860000 114.1723990000,22.2946980000 114.1723690000,22.2947120000 114.1723390000,22.2947420000 114.1723210000,22.2947800000 114.1723040000,22.2950250000 114.1722800000,22.2953860000 114.1722640000,22.2956150000 114.1722390000,22.2959540000 114.1722100000,22.2963370000 114.1722000000,22.2964850000 114.1721280000,22.2975570000 114.1721010000,22.2979450000 114.1720970000,22.2980100000 114.1720890000,22.2981300000 114.1720860000,22.2981590000 114.1720840000,22.2981880000 114.1720740000,22.2983330000 114.1720430000,22.2988180000 114.1720360000,22.2989300000 114.1720000000,22.2994070000 114.1719960000,22.2994690000 114.1719940000,22.2995070000 114.1719890000,22.2995940000 114.1719440000,22.3003360000 114.1719350000,22.3004560000 114.1719300000,22.3005100000 114.1718720000,22.3013390000 114.1718440000,22.3017180000 114.1717980000,22.3022690000 114.1717940000,22.3023360000 114.1717480000,22.3030580000 114.1717450000,22.3031060000 114.1717390000,22.3031920000 114.1717330000,22.3032690000 114.1717260000,22.3033970000 114.1716900000,22.3039060000 114.1716440000,22.3044100000 114.1715950000,22.3050010000 114.1715960000,22.3050550000 114.1715770000,22.3052680000 114.1715690000,22.3053660000 114.1715140000,22.3059380000 114.1714900000,22.3061870000 114.1714570000,22.3065350000 114.1714500000,22.3066140000 114.1714180000,22.3069270000 114.1714150000,22.3070950000 114.1713790000,22.3074700000 114.1713460000,22.3077040000 114.1712970000,22.3082140000 114.1712920000,22.3082640000 114.1712780000,22.3084120000 114.1712710000,22.3084970000 114.1711910000,22.3092030000 114.1711830000,22.3092980000 114.1711430000,22.3096650000 114.1711390000,22.3097160000 114.1711110000,22.3100750000 114.1711070000,22.3101330000 114.1711010000,22.3102040000 114.1710950000,22.3102750000 114.1710170000,22.3109220000 114.1709220000,22.3114050000 114.1708630000,22.3117050000 114.1708530000,22.3117530000 114.1708350000,22.3118400000 114.1706340000,22.3128650000 114.1706210000,22.3129420000 114.1706020000,22.3130350000 114.1705790000,22.3131490000 114.1705580000,22.3132530000 114.1705510000,22.3132840000 114.1704760000,22.3136530000 114.1704260000,22.3138930000 114.1704060000,22.3139780000 114.1703870000,22.3140810000 114.1703250000,22.3144120000 114.1702980000,22.3145510000 114.1702820000,22.3146250000 114.1702220000,22.3149060000 114.1701980000,22.3150140000 114.1701410000,22.3152830000 114.1701250000,22.3153620000 114.1701060000,22.3154490000 114.1699740000,22.3160650000 114.1699470000,22.3162200000 114.1699050000,22.3164200000 114.1698800000,22.3165370000 114.1698450000,22.3167110000 114.1697770000,22.3170440000 114.1696740000,22.3175180000 114.1696010000,22.3179070000 114.1695920000,22.3179530000 114.1695180000,22.3183090000 114.1694820000,22.3184960000 114.1693650000,22.3190650000 114.1693480000,22.3191440000 114.1693380000,22.3191970000 114.1693200000,22.3192930000 114.1693020000,22.3193700000 114.1692890000,22.3194330000 114.1692790000,22.3194820000 114.1692700000,22.3195280000 114.1692500000,22.3196220000 114.1692170000,22.3197760000 114.1691870000,22.3199350000 114.1691790000,22.3199730000 114.1691580000,22.3200810000 114.1691290000,22.3202290000 114.1690920000,22.3203780000 114.1690610000,22.3205360000 114.1690530000,22.3205760000 114.1690440000,22.3206130000 114.1690380000,22.3206440000 114.1690220000,22.3207200000 114.1690010000,22.3208190000 114.1689870000,22.3208860000 114.1689750000,22.3209440000 114.1689680000,22.3209790000 114.1689560000,22.3210380000 114.1689480000,22.3210780000 114.1688970000,22.3213210000 114.1688670000,22.3214650000 114.1688550000,22.3215530000 114.1688440000,22.3216270000 114.1688240000,22.3217270000 114.1687620000,22.3220450000 114.1687450000,22.3221210000 114.1687000000,22.3223350000 114.1686570000,22.3225350000 114.1686130000,22.3227430000 114.1685560000,22.3230110000 114.1684430000,22.3235310000 114.1683840000,22.3238070000 114.1683690000,22.3238750000 114.1683670000,22.3238880000 114.1683550000,22.3239430000 114.1683300000,22.3240350000 114.1683130000,22.3241100000 114.1683060000,22.3241450000 114.1681190000,22.3251200000 114.1679840000,22.3257330000 114.1679450000,22.3259110000 114.1678710000,22.3262210000 114.1678470000,22.3262890000 114.1678360000,22.3263130000 114.1678120000,22.3263620000 114.1677830000,22.3264280000 114.1677440000,22.3264890000 114.1676510000,22.3265740000 114.1676240000,22.3266340000 114.1675820000,22.3266790000 114.1675510000,22.3267160000 114.1675100000,22.3267570000 114.1674840000,22.3267810000 114.1672130000,22.3270060000 114.1671760000,22.3270510000 114.1671490000,22.3271040000 114.1671390000,22.3271520000 114.1671360000,22.3271970000 114.1671380000,22.3272280000 114.1671520000,22.3272800000 114.1671730000,22.3273230000 114.1672440000,22.3274880000 114.1672550000,22.3275250000 114.1672570000,22.3275670000 114.1672540000,22.3276020000 114.1672440000,22.3276420000 114.1672260000,22.3276840000 114.1671770000,22.3278040000 114.1670920000,22.3279740000 114.1670710000,22.3280170000 114.1669140000,22.3283330000 114.1667900000,22.3285820000 114.1665740000,22.3290190000 114.1663740000,22.3294450000 114.1663610000,22.3294710000 114.1662950000,22.3295970000 114.1660270000,22.3301590000 114.1659010000,22.3303860000 114.1658780000,22.3304160000 114.1658360000,22.3304670000 114.1658060000,22.3305040000 114.1657240000,22.3306060000 114.1656760000,22.3306640000 114.1655560000,22.3307870000 114.1654080000,22.3309530000 114.1653490000,22.3310240000 114.1652860000,22.3311020000 114.1652670000,22.3311240000 114.1651930000,22.3311980000 114.1650880000,22.3313220000 114.1650010000,22.3314130000 114.1643480000,22.3321450000 114.1640070000,22.3325100000 114.1635840000,22.3329460000 114.1634360000,22.3331180000 114.1633320000,22.3332960000 114.1633210000,22.3333150000 114.1632920000,22.3334480000 114.1632260000,22.3335650000 114.1630880000,22.3338290000 114.1628660000,22.3343980000 114.1627320000,22.3347470000 114.1627070000,22.3348530000 114.1626500000,22.3349990000 114.1626140000,22.3350830000 114.1625800000,22.3351220000 114.1625680000,22.3351490000 114.1625490000,22.3351920000 114.1624740000,22.3353710000 114.1624350000,22.3355120000 114.1624000000,22.3355960000 114.1623380000,22.3357470000 114.1623060000,22.3357890000 114.1622570000,22.3358920000 114.1622360000,22.3359430000 114.1620800000,22.3363090000 114.1619640000,22.3366400000 114.1619500000,22.3367040000 114.1619400000,22.3367810000 114.1619470000,22.3369530000 114.1619480000,22.3369860000 114.1620260000,22.3372740000 114.1621840000,22.3375230000 114.1623680000,22.3377380000 114.1626350000,22.3379990000 114.1628690000,22.3382310000 114.1629830000,22.3383810000 114.1630530000,22.3385440000 114.1630860000,22.3387240000 114.1630730000,22.3389470000 114.1630450000,22.3390770000 114.1629910000,22.3392370000 114.1628030000,22.3395790000 114.1627400000,22.3397060000 114.1625310000,22.3399410000 114.1623900000,22.3400670000 114.1621780000,22.3402070000 114.1616470000,22.3404840000 114.1612210000,22.3406930000 114.1609840000,22.3408030000 114.1605440000,22.3410170000 114.1604500000,22.3410660000 114.1603070000,22.3411470000 114.1601310000,22.3412990000 114.1599800000,22.3414850000 114.1595250000,22.3420880000 114.1593670000,22.3422610000 114.1591030000,22.3424160000 114.1590120000,22.3424590000 114.1589390000,22.3424890000 114.1588180000,22.3425320000 114.1587310000,22.3425590000 114.1585530000,22.3426020000 114.1583600000,22.3426380000 114.1581700000,22.3426560000 114.1579890000,22.3426650000 114.1577730000,22.3426680000 114.1573400000,22.3426550000 114.1563560000,22.3425630000 114.1561270000,22.3425590000 114.1558390000,22.3425670000 114.1556040000,22.3425960000 114.1552900000,22.3426530000 114.1551290000,22.3426710000 114.1550950000,22.3426770000 114.1549110000,22.3426830000 114.1548090000,22.3426870000 114.1546770000,22.3426770000 114.1545550000,22.3426670000 114.1544250000,22.3426560000 114.1542660000,22.3425960000 114.1541070000,22.3425240000 114.1538770000,22.3424310000 114.1537490000,22.3423820000 114.1535410000,22.3423270000 114.1531180000,22.3421470000 114.1508650000,22.3411960000 114.1505890000,22.3410750000 114.1500430000,22.3408430000 114.1497260000,22.3407120000 114.1496440000,22.3406820000 114.1495670000,22.3406550000 114.1494990000,22.3406340000 114.1494220000,22.3406120000 114.1470770000,22.3399400000 114.1469650000,22.3399100000 114.1468690000,22.3398890000 114.1467810000,22.3398760000 114.1466880000,22.3398640000 114.1464880000,22.3398470000 114.1464150000,22.3398440000 114.1455730000,22.3398230000 114.1454390000,22.3398280000 114.1453370000,22.3398330000 114.1451710000,22.3398560000 114.1450930000,22.3398750000 114.1450020000,22.3399020000 114.1449420000,22.3399260000 114.1448680000,22.3399640000 114.1447740000,22.3400250000 114.1446930000,22.3400840000 114.1446250000,22.3401380000 114.1445830000,22.3401830000 114.1445540000,22.3402220000 114.1445290000,22.3402580000 114.1445040000,22.3402950000 114.1444600000,22.3403550000 114.1443960000,22.3404390000 114.1443420000,22.3405110000 114.1442930000,22.3405780000 114.1442590000,22.3406220000 114.1442280000,22.3406650000 114.1441900000,22.3407080000 114.1441580000,22.3407460000 114.1441230000,22.3407820000 114.1440850000,22.3408190000 114.1440460000,22.3408540000 114.1440040000,22.3408880000 114.1439630000,22.3409160000 114.1439210000,22.3409430000 114.1438720000,22.3409690000 114.1438440000,22.3409840000 114.1438150000,22.3409970000 114.1437890000,22.3410080000 114.1437610000,22.3410180000 114.1437130000,22.3410340000 114.1436300000,22.3410590000 114.1435720000,22.3410740000 114.1435300000,22.3410840000 114.1434910000,22.3410910000 114.1434540000,22.3410950000 114.1434230000,22.3410970000 114.1433880000,22.3410970000 114.1433580000,22.3410950000 114.1433350000,22.3410930000 114.1433050000,22.3410900000 114.1432500000,22.3410800000 114.1431700000,22.3410630000 114.1431190000,22.3410500000 114.1430840000,22.3410390000 114.1430350000,22.3410220000 114.1429800000,22.3410000000 114.1429300000,22.3409760000 114.1429120000,22.3409660000 114.1428830000,22.3409500000 114.1428120000,22.3409060000 114.1427460000,22.3408620000 114.1426380000,22.3407790000 114.1424880000,22.3406520000 114.1422080000,22.3404100000 114.1419180000,22.3401450000 114.1418440000,22.3400860000 114.1417240000,22.3399970000 114.1416430000,22.3399540000 114.1415710000,22.3399190000 114.1414990000,22.3398880000 114.1414000000,22.3398530000 114.1413250000,22.3398320000 114.1412410000,22.3398170000 114.1411430000,22.3398070000 114.1410280000,22.3398080000 114.1409190000,22.3398200000 114.1408140000,22.3398410000 114.1407130000,22.3398660000 114.1405980000,22.3399050000 114.1404710000,22.3399500000 114.1403640000,22.3399960000 114.1403070000,22.3400210000 114.1402040000,22.3400710000 114.1400950000,22.3401310000 114.1399630000,22.3402120000 114.1398240000,22.3403050000 114.1397570000,22.3403520000 114.1394970000,22.3405450000 114.1393610000,22.3406380000 114.1392210000,22.3407350000 114.1391370000,22.3407870000 114.1388920000,22.3409320000 114.1388420000,22.3409580000 114.1387900000,22.3409820000 114.1386730000,22.3410330000 114.1386150000,22.3410570000 114.1385450000,22.3410860000 114.1384780000,22.3411130000 114.1384100000,22.3411390000 114.1383370000,22.3411660000 114.1382900000,22.3411820000 114.1382410000,22.3411980000 114.1381960000,22.3412110000 114.1381450000,22.3412250000 114.1380940000,22.3412390000 114.1380430000,22.3412510000 114.1380120000,22.3412580000 114.1379880000,22.3412620000 114.1379640000,22.3412660000 114.1379300000,22.3412700000 114.1378930000,22.3412750000 114.1378630000,22.3412770000 114.1378380000,22.3412790000 114.1377780000,22.3412810000 114.1376950000,22.3412830000 114.1376500000,22.3412820000 114.1376130000,22.3412810000 114.1375750000,22.3412790000 114.1375380000,22.3412760000 114.1375050000,22.3412730000 114.1374850000,22.3412700000 114.1374690000,22.3412680000 114.1374530000,22.3412660000 114.1374390000,22.3412640000 114.1374160000,22.3412590000 114.1373800000,22.3412510000 114.1373450000,22.3412420000 114.1372880000,22.3412250000 114.1372440000,22.3412120000 114.1371890000,22.3411940000 114.1371490000,22.3411800000 114.1371160000,22.3411670000 114.1370830000,22.3411540000 114.1370530000,22.3411400000 114.1370260000,22.3411280000 114.1369930000,22.3411120000 114.1369700000,22.3410990000 114.1369480000,22.3410850000 114.1369070000,22.3410590000 114.1368670000,22.3410320000 114.1368130000,22.3409920000 114.1367750000,22.3409610000 114.1367370000,22.3409270000 114.1367040000,22.3408970000 114.1366620000,22.3408510000 114.1366050000,22.3407810000 114.1365770000,22.3407450000 114.1365530000,22.3407130000 114.1365310000,22.3406800000 114.1365110000,22.3406490000 114.1364950000,22.3406230000 114.1364770000,22.3405890000 114.1364460000,22.3405190000 114.1364100000,22.3404390000 114.1363990000,22.3402660000 114.1362580000,22.3396430000 114.1361280000,22.3390840000 114.1360650000,22.3387210000 114.1360570000,22.3384750000 114.1360890000,22.3380640000 114.1360940000,22.3378930000 114.1360790000,22.3377040000 114.1360670000,22.3376230000 114.1360460000,22.3375240000 114.1360360000,22.3374800000 114.1360250000,22.3374430000 114.1360040000,22.3372870000 114.1358730000,22.3368700000 114.1357910000,22.3366140000 114.1357250000,22.3364120000 114.1356710000,22.3362620000 114.1356120000,22.3361150000 114.1355850000,22.3360560000 114.1355580000,22.3360010000 114.1355300000,22.3359510000 114.1354880000,22.3358820000 114.1354410000,22.3358150000 114.1353990000,22.3357600000 114.1353590000,22.3357140000 114.1353100000,22.3356600000 114.1352550000,22.3356020000 114.1352020000,22.3355530000 114.1351620000,22.3355190000 114.1351200000,22.3354870000 114.1350780000,22.3354550000 114.1350290000,22.3354200000 114.1349780000,22.3353870000 114.1349140000,22.3353500000 114.1348510000,22.3353170000 114.1347810000,22.3352830000 114.1346980000,22.3352480000 114.1346230000,22.3352200000 114.1345630000,22.3352010000 114.1345010000,22.3351840000 114.1343970000,22.3351600000 114.1343290000,22.3351460000 114.1342620000,22.3351370000 114.1341960000,22.3351310000 114.1341250000,22.3351280000 114.1340580000,22.3351280000 114.1339950000,22.3351290000 114.1339260000,22.3351330000 114.1338540000,22.3351400000 114.1337930000,22.3351480000 114.1337210000,22.3351610000 114.1336520000,22.3351760000 114.1335770000,22.3351960000 114.1335030000,22.3352190000 114.1334340000,22.3352430000 114.1333700000,22.3352690000 114.1333100000,22.3352950000 114.1332520000,22.3353250000 114.1331910000,22.3353600000 114.1331280000,22.3354000000 114.1330670000,22.3354420000 114.1330000000,22.3354940000 114.1329380000,22.3355460000 114.1328770000,22.3356000000 114.1328200000,22.3356580000 114.1327680000,22.3357170000 114.1327180000,22.3357780000 114.1326700000,22.3358460000 114.1326250000,22.3359180000 114.1325840000,22.3359910000 114.1325530000,22.3360560000 114.1325160000,22.3361380000 114.1324860000,22.3362130000 114.1324600000,22.3362850000 114.1324210000,22.3364080000 114.1323000000,22.3368450000 114.1322520000,22.3370040000 114.1322040000,22.3371560000 114.1321290000,22.3373840000 114.1320660000,22.3375650000 114.1320160000,22.3377030000 114.1319540000,22.3378590000 114.1318670000,22.3380700000 114.1315410000,22.3388270000 114.1312090000,22.3396950000 114.1310840000,22.3401370000 114.1310520000,22.3402090000 114.1308880000,22.3405740000 114.1307190000,22.3409130000 114.1306100000,22.3411150000 114.1305390000,22.3412470000 114.1304770000,22.3413520000 114.1303560000,22.3415400000 114.1302640000,22.3416710000 114.1301950000,22.3417640000 114.1300900000,22.3418930000 114.1300170000,22.3419770000 114.1299130000,22.3420940000 114.1297960000,22.3422120000 114.1296700000,22.3423320000 114.1295520000,22.3424400000 114.1294840000,22.3425000000 114.1293200000,22.3426370000 114.1291160000,22.3427790000 114.1289430000,22.3428890000 114.1287970000,22.3429780000 114.1286030000,22.3430850000 114.1283130000,22.3432270000 114.1281970000,22.3432800000 114.1280870000,22.3433250000 114.1275370000,22.3435510000 114.1272190000,22.3436900000 114.1270920000,22.3437490000 114.1269950000,22.3437970000 114.1269170000,22.3438390000 114.1268020000,22.3439050000 114.1265700000,22.3440470000 114.1263600000,22.3441870000 114.1261980000,22.3443040000 114.1260630000,22.3444120000 114.1259430000,22.3445150000 114.1257850000,22.3446620000 114.1256620000,22.3447850000 114.1254920000,22.3449680000 114.1252790000,22.3452360000 114.1251700000,22.3453840000 114.1250580000,22.3455550000 114.1249770000,22.3456920000 114.1248640000,22.3459010000 114.1247360000,22.3461850000 114.1246960000,22.3462860000 114.1246630000,22.3463740000 114.1245840000,22.3465980000 114.1245610000,22.3466700000 114.1245370000,22.3467470000 114.1244890000,22.3469170000 114.1244630000,22.3470250000 114.1244530000,22.3470760000 114.1244430000,22.3471290000 114.1244350000,22.3471890000 114.1244300000,22.3472230000 114.1243930000,22.3475460000 114.1243650000,22.3479040000 114.1243660000,22.3480910000 114.1243750000,22.3483980000 114.1243700000,22.3487140000 114.1243510000,22.3491910000 114.1242990000,22.3496090000 114.1241960000,22.3499950000 114.1240920000,22.3503190000 114.1239530000,22.3506300000 114.1237610000,22.3509160000 114.1234880000,22.3512340000 114.1232610000,22.3513600000 114.1229090000,22.3516260000 114.1224810000,22.3518720000 114.1221250000,22.3519970000 114.1218800000,22.3520480000 114.1216210000,22.3520850000 114.1213080000,22.3520870000 114.1208510000,22.3520100000 114.1204700000,22.3518680000 114.1203610000,22.3518090000 114.1202110000,22.3517280000 114.1200700000,22.3516420000 114.1198640000,22.3514840000 114.1194000000,22.3510500000 114.1186930000,22.3504170000 114.1185030000,22.3502420000 114.1181730000,22.3499370000 114.1180210000,22.3498100000 114.1178600000,22.3497350000 114.1176420000,22.3495570000 114.1174680000,22.3494520000 114.1173320000,22.3493750000 114.1171870000,22.3493040000 114.1170050000,22.3492400000 114.1168280000,22.3491740000 114.1166770000,22.3491260000 114.1165100000,22.3490740000 114.1136600000,22.3483270000 114.1121360000,22.3479460000 114.1119830000,22.3478760000 114.1116370000,22.3477480000 114.1115260000,22.3477000000 114.1113880000,22.3476290000 114.1112440000,22.3475460000 114.1111760000,22.3475050000 114.1110340000,22.3473870000 114.1109500000,22.3473220000 114.1108550000,22.3472520000 114.1107870000,22.3471940000 114.1107320000,22.3471240000 114.1106930000,22.3470460000 114.1106710000,22.3469630000 114.1106670000,22.3468770000 114.1106780000,22.3467920000 114.1106860000,22.3467350000 114.1106830000,22.3466880000 114.1106610000,22.3466290000 114.1106220000,22.3465790000 114.1105690000,22.3465400000 114.1105090000,22.3465180000 114.1104450000,22.3465110000 114.1103760000,22.3465220000 114.1103130000,22.3465510000 114.1102620000,22.3465950000 114.1102200000,22.3466720000 114.1102130000,22.3467580000 114.1102420000,22.3468390000 114.1102400000,22.3469640000 114.1102690000,22.3471590000 114.1102840000,22.3473130000 114.1102930000,22.3474240000 114.1102850000,22.3475130000 114.1102560000,22.3475550000 114.1102380000,22.3476010000 114.1102310000,22.3476500000 114.1102360000,22.3476990000 114.1102520000,22.3477450000 114.1102780000,22.3477880000 114.1102970000,22.3479180000 114.1102890000,22.3480240000 114.1102760000,22.3481900000 114.1102710000,22.3482100000 114.1102410000,22.3483020000 114.1101990000,22.3484160000 114.1101370000,22.3485890000 114.1100640000,22.3487060000 114.1099770000,22.3488360000 114.1097960000,22.3490700000 114.1091000000,22.3499420000 114.1090770000,22.3499700000 114.1090510000,22.3500040000 114.1089390000,22.3500980000 114.1088370000,22.3502220000 114.1087750000,22.3502960000 114.1086870000,22.3504050000 114.1085630000,22.3505650000 114.1085440000,22.3505900000 114.1083550000,22.3508510000 114.1083020000,22.3509250000 114.1082150000,22.3510230000 114.1081640000,22.3510820000 114.1080310000,22.3512400000 114.1079780000,22.3513020000 114.1076130000,22.3517290000 114.1075780000,22.3517700000 114.1074560000,22.3519280000 114.1073470000,22.3520590000 114.1072350000,22.3521910000 114.1071330000,22.3522830000 114.1070510000,22.3523670000 114.1069660000,22.3523880000 114.1068870000,22.3524220000 114.1068160000,22.3524700000 114.1067380000,22.3525490000 114.1066820000,22.3526430000 114.1066530000,22.3527470000 114.1066520000,22.3528550000 114.1066780000,22.3529590000 114.1067240000,22.3530470000 114.1067900000,22.3531220000 114.1068410000,22.3532140000 114.1068950000,22.3533000000 114.1069180000,22.3533950000 114.1069330000,22.3534970000 114.1069320000,22.3535900000 114.1069260000,22.3536670000 114.1069180000,22.3537510000 114.1069150000,22.3538300000 114.1069080000,22.3540680000 114.1069010000,22.3542920000 114.1068980000,22.3543680000 114.1068720000,22.3547160000 114.1068110000,22.3547160000 114.1065540000,22.3546890000 114.1063530000,22.3546590000 114.1062030000,22.3545690000 114.1061230000,22.3544640000 114.1061010000,22.3543900000 114.1060940000,22.3543320000 114.1060890000,22.3538630000 114.1060700000,22.3537060000 114.1060040000,22.3535350000 114.1058710000,22.3533470000 114.1057270000,22.3532250000 114.1055380000,22.3531320000 114.1052800000,22.3530940000 114.1051610000,22.3530800000 114.1050540000,22.3530660000 114.1050320000,22.3530640000 114.1049920000,22.3530630000 114.1048910000,22.3530560000 114.1047030000,22.3530640000 114.1044300000,22.3531320000 114.1042100000,22.3532510000 114.1041550000,22.3533130000 114.1040810000,22.3533970000 114.1039990000,22.3535250000 114.1039460000,22.3536710000 114.1039260000,22.3537840000 114.1039180000,22.3538460000 114.1039090000,22.3540540000 114.1039070000,22.3541100000 114.1039000000,22.3542830000 114.1038980000,22.3543320000 114.1038940000,22.3544720000 114.1038850000,22.3547680000 114.1038780000,22.3549020000 114.1038410000,22.3549120000 114.1038090000,22.3549320000 114.1037860000,22.3549600000 114.1037720000,22.3549930000 114.1037710000,22.3550290000 114.1033340000,22.3550970000 114.1030720000,22.3551380000 114.1029450000,22.3551580000 114.1025340000,22.3552130000 114.1024410000,22.3552110000 114.1023180000,22.3552060000 114.1022270000,22.3552040000 114.1022060000,22.3553610000 114.1021790000,22.3555540000 114.1021460000,22.3557970000 114.1021250000,22.3559520000 114.1020170000,22.3563490000 114.1019090000,22.3567460000 114.1017860000,22.3571230000 114.1017290000,22.3572970000 114.1016600000,22.3574660000 114.1015810000,22.3575930000 114.1015300000,22.3576560000 114.1014570000,22.3577290000 114.1015110000,22.3578080000 114.1015520000,22.3578870000 114.1016170000,22.3580820000 114.1016240000,22.3581200000 114.1016430000,22.3582140000 114.1016640000,22.3583100000 114.1016990000,22.3584060000 114.1017400000,22.3584980000 114.1017840000,22.3585840000 114.1018350000,22.3586710000 114.1019050000,22.3587650000 114.1019760000,22.3588460000 114.1020620000,22.3589320000 114.1021630000,22.3590190000 114.1022360000,22.3590900000 114.1023280000,22.3592350000 114.1023640000,22.3593460000 114.1023720000,22.3593910000 114.1023760000,22.3594950000 114.1023420000,22.3595650000 114.1023110000,22.3596350000 114.1023050000,22.3597050000 114.1023170000,22.3597980000 114.1023700000,22.3599290000 114.1024280000,22.3600010000 114.1025030000,22.3600650000 114.1026000000,22.3601010000 114.1027270000,22.3601280000 114.1028540000,22.3601340000 114.1029390000,22.3601230000 114.1029970000,22.3601040000 114.1030500000,22.3600900000 114.1031470000,22.3601460000 114.1032190000,22.3602050000 114.1032760000,22.3602660000 114.1033520000,22.3603980000 114.1033760000,22.3604480000 114.1034170000,22.3605300000 114.1034540000,22.3605930000 114.1034850000,22.3606410000 114.1036200000,22.3608220000 114.1037260000,22.3609590000 114.1037710000,22.3610170000 114.1038670000,22.3610940000 114.1039700000,22.3611590000 114.1039580000,22.3611780000 114.1039280000,22.3612270000 114.1037340000,22.3615510000 114.1036840000,22.3616100000 114.1033090000,22.3616130000 114.1029930000,22.3616120000</coordinates>
                </LineString>
                <ExtendedData>
                    <Data name="length">
                        <value>39337.80138143162</value>
                    </Data>
                    <Data name="duration">
                        <value>00:53:34</value>
                    </Data>
                </ExtendedData>
            </Placemark>
        </Document>
    </Document>
</kml>