<?xml version="1.0" encoding="UTF-8"?>
<kml xmlns="http://www.opengis.net/kml/2.2" xmlns:gx="http://www.google.com/kml/ext/2.2">
    <Document>
        <name>Route</name>
        <Folder>
            <name>Route Request</name>
            <Placemark>
                <address>Paradise Mall (Central Commercial Block), Shing Tai Road, Shau Kei Wan, Eastern District, Hong Kong Island, Hong Kong, China</address>
                <Point>
                    <coordinates>114.2404356017,22.2773333711</coordinates>
                </Point>
                <ExtendedData>
                    <Data name="shop">
                        <value>Paradise Mall (Central Commercial Block)</value>
                    </Data>
                    <Data name="country">
                        <value>China</value>
                    </Data>
                    <Data name="city">
                        <value>Hong Kong Island</value>
                    </Data>
                    <Data name="state">
                        <value>Hong Kong</value>
                    </Data>
                    <Data name="road">
                        <value>Shing Tai Road</value>
                    </Data>
                    <Data name="suburb">
                        <value>Shau Kei Wan</value>
                    </Data>
                    <Data name="city_district">
                        <value>Eastern District</value>
                    </Data>
                    <Data name="country_code">
                        <value>cn</value>
                    </Data>
                    <Data name="ISO3166-2-lvl3">
                        <value>CN-HK</value>
                    </Data>
                </ExtendedData>
            </Placemark>
            <Placemark>
                <address>Chai Wan Road, Chai Wan East Industrial Area, Chai Wan District, Eastern District, Hong Kong Island, Hong Kong, China</address>
                <Point>
                    <coordinates>114.2430721409,22.2659338622</coordinates>
                </Point>
                <ExtendedData>
                    <Data name="borough">
                        <value>Chai Wan District</value>
                    </Data>
                    <Data name="country">
                        <value>China</value>
                    </Data>
                    <Data name="city">
                        <value>Hong Kong Island</value>
                    </Data>
                    <Data name="state">
                        <value>Hong Kong</value>
                    </Data>
                    <Data name="road">
                        <value>Chai Wan Road</value>
                    </Data>
                    <Data name="city_district">
                        <value>Eastern District</value>
                    </Data>
                    <Data name="quarter">
                        <value>Chai Wan East Industrial Area</value>
                    </Data>
                    <Data name="country_code">
                        <value>cn</value>
                    </Data>
                    <Data name="ISO3166-2-lvl3">
                        <value>CN-HK</value>
                    </Data>
                </ExtendedData>
            </Placemark>
            <Placemark>
                <address>Tung Hei Road, Aldrich Bay, Shau Kei Wan, Eastern District, Hong Kong Island, Hong Kong, China</address>
                <Point>
                    <coordinates>114.2276114895,22.2788899599</coordinates>
                </Point>
                <ExtendedData>
                    <Data name="country">
                        <value>China</value>
                    </Data>
                    <Data name="city">
                        <value>Hong Kong Island</value>
                    </Data>
                    <Data name="state">
                        <value>Hong Kong</value>
                    </Data>
                    <Data name="road">
                        <value>Tung Hei Road</value>
                    </Data>
                    <Data name="neighbourhood">
                        <value>Aldrich Bay</value>
                    </Data>
                    <Data name="suburb">
                        <value>Shau Kei Wan</value>
                    </Data>
                    <Data name="city_district">
                        <value>Eastern District</value>
                    </Data>
                    <Data name="country_code">
                        <value>cn</value>
                    </Data>
                    <Data name="ISO3166-2-lvl3">
                        <value>CN-HK</value>
                    </Data>
                </ExtendedData>
            </Placemark>
            <Placemark>
                <address>KMB Kowloon Bay Depot, 1, Lam Wah Street, Kowloon Bay Business Area, Kowloon Bay, Kwun Tong District, Kowloon, Hong Kong, 000000, China</address>
                <Point>
                    <coordinates>114.2084724180,22.3241605586</coordinates>
                </Point>
                <ExtendedData>
                    <Data name="country">
                        <value>China</value>
                    </Data>
                    <Data name="city">
                        <value>Kowloon</value>
                    </Data>
                    <Data name="state">
                        <value>Hong Kong</value>
                    </Data>
                    <Data name="postcode">
                        <value>000000</value>
                    </Data>
                    <Data name="road">
                        <value>Lam Wah Street</value>
                    </Data>
                    <Data name="suburb">
                        <value>Kowloon Bay</value>
                    </Data>
                    <Data name="house_number">
                        <value>1</value>
                    </Data>
                    <Data name="city_district">
                        <value>Kwun Tong District</value>
                    </Data>
                    <Data name="building">
                        <value>KMB Kowloon Bay Depot</value>
                    </Data>
                    <Data name="quarter">
                        <value>Kowloon Bay Business Area</value>
                    </Data>
                    <Data name="country_code">
                        <value>cn</value>
                    </Data>
                    <Data name="ISO3166-2-lvl3">
                        <value>CN-HK</value>
                    </Data>
                </ExtendedData>
            </Placemark>
            <Placemark>
                <address>SKH Kowloon Bay Kei Lok Primary School, 6, Kai Yan Street, Kowloon Bay Business Area, Kowloon Bay, Kwun Tong District, Kowloon, Hong Kong, 000000, China</address>
                <Point>
                    <coordinates>114.2063904066,22.3290786365</coordinates>
                </Point>
                <ExtendedData>
                    <Data name="amenity">
                        <value>SKH Kowloon Bay Kei Lok Primary School</value>
                    </Data>
                    <Data name="country">
                        <value>China</value>
                    </Data>
                    <Data name="city">
                        <value>Kowloon</value>
                    </Data>
                    <Data name="state">
                        <value>Hong Kong</value>
                    </Data>
                    <Data name="postcode">
                        <value>000000</value>
                    </Data>
                    <Data name="road">
                        <value>Kai Yan Street</value>
                    </Data>
                    <Data name="suburb">
                        <value>Kowloon Bay</value>
                    </Data>
                    <Data name="house_number">
                        <value>6</value>
                    </Data>
                    <Data name="city_district">
                        <value>Kwun Tong District</value>
                    </Data>
                    <Data name="quarter">
                        <value>Kowloon Bay Business Area</value>
                    </Data>
                    <Data name="country_code">
                        <value>cn</value>
                    </Data>
                    <Data name="ISO3166-2-lvl3">
                        <value>CN-HK</value>
                    </Data>
                </ExtendedData>
            </Placemark>
            <Placemark>
                <address>Kai San Road, Tai Hom, San Po Kong, Wong Tai Sin District, Kowloon, Hong Kong, 000000, China</address>
                <Point>
                    <coordinates>114.1999667058,22.3348296087</coordinates>
                </Point>
                <ExtendedData>
                    <Data name="country">
                        <value>China</value>
                    </Data>
                    <Data name="city">
                        <value>Kowloon</value>
                    </Data>
                    <Data name="state">
                        <value>Hong Kong</value>
                    </Data>
                    <Data name="postcode">
                        <value>000000</value>
                    </Data>
                    <Data name="road">
                        <value>Kai San Road</value>
                    </Data>
                    <Data name="neighbourhood">
                        <value>Tai Hom</value>
                    </Data>
                    <Data name="suburb">
                        <value>San Po Kong</value>
                    </Data>
                    <Data name="city_district">
                        <value>Wong Tai Sin District</value>
                    </Data>
                    <Data name="country_code">
                        <value>cn</value>
                    </Data>
                    <Data name="ISO3166-2-lvl3">
                        <value>CN-HK</value>
                    </Data>
                </ExtendedData>
            </Placemark>
            <Placemark>
                <address>Tai Hom Road, Tai Hom, San Po Kong, Wong Tai Sin District, Kowloon, Hong Kong, 000000, China</address>
                <Point>
                    <coordinates>114.2028109746,22.3395503228</coordinates>
                </Point>
                <ExtendedData>
                    <Data name="country">
                        <value>China</value>
                    </Data>
                    <Data name="city">
                        <value>Kowloon</value>
                    </Data>
                    <Data name="state">
                        <value>Hong Kong</value>
                    </Data>
                    <Data name="postcode">
                        <value>000000</value>
                    </Data>
                    <Data name="road">
                        <value>Tai Hom Road</value>
                    </Data>
                    <Data name="neighbourhood">
                        <value>Tai Hom</value>
                    </Data>
                    <Data name="suburb">
                        <value>San Po Kong</value>
                    </Data>
                    <Data name="city_district">
                        <value>Wong Tai Sin District</value>
                    </Data>
                    <Data name="country_code">
                        <value>cn</value>
                    </Data>
                    <Data name="ISO3166-2-lvl3">
                        <value>CN-HK</value>
                    </Data>
                </ExtendedData>
            </Placemark>
            <Placemark>
                <Point>
                    <coordinates>114.2180181261,22.3349510560</coordinates>
                </Point>
            </Placemark>
            <Placemark>
                <address>Anderson Road Quarry, On Pik Road, Lung Wo Tsuen, Tseng Lan Shue, Sai Kung District, New Territories, Hong Kong, 000000, China</address>
                <Point>
                    <coordinates>114.2341205628,22.3282984414</coordinates>
                </Point>
                <ExtendedData>
                    <Data name="country">
                        <value>China</value>
                    </Data>
                    <Data name="city">
                        <value>Sai Kung District</value>
                    </Data>
                    <Data name="state">
                        <value>Hong Kong</value>
                    </Data>
                    <Data name="postcode">
                        <value>000000</value>
                    </Data>
                    <Data name="road">
                        <value>On Pik Road</value>
                    </Data>
                    <Data name="municipality">
                        <value>New Territories</value>
                    </Data>
                    <Data name="historic">
                        <value>Anderson Road Quarry</value>
                    </Data>
                    <Data name="village">
                        <value>Tseng Lan Shue</value>
                    </Data>
                    <Data name="country_code">
                        <value>cn</value>
                    </Data>
                    <Data name="hamlet">
                        <value>Lung Wo Tsuen</value>
                    </Data>
                    <Data name="ISO3166-2-lvl3">
                        <value>CN-HK</value>
                    </Data>
                </ExtendedData>
            </Placemark>
            <Placemark>
                <address>Kam Wan House, Lung Cheung Road, Tai Hom, Ngau Chi Wan, Wong Tai Sin District, Kowloon, Hong Kong, 000000, China</address>
                <Point>
                    <coordinates>114.2046023370,22.3372769585</coordinates>
                </Point>
                <ExtendedData>
                    <Data name="country">
                        <value>China</value>
                    </Data>
                    <Data name="city">
                        <value>Kowloon</value>
                    </Data>
                    <Data name="state">
                        <value>Hong Kong</value>
                    </Data>
                    <Data name="postcode">
                        <value>000000</value>
                    </Data>
                    <Data name="road">
                        <value>Lung Cheung Road</value>
                    </Data>
                    <Data name="neighbourhood">
                        <value>Tai Hom</value>
                    </Data>
                    <Data name="suburb">
                        <value>Ngau Chi Wan</value>
                    </Data>
                    <Data name="city_district">
                        <value>Wong Tai Sin District</value>
                    </Data>
                    <Data name="building">
                        <value>Kam Wan House</value>
                    </Data>
                    <Data name="country_code">
                        <value>cn</value>
                    </Data>
                    <Data name="ISO3166-2-lvl3">
                        <value>CN-HK</value>
                    </Data>
                </ExtendedData>
            </Placemark>
            <Placemark>
                <address>Wang Chiu Road, Ping Shek, Kwun Tong District, Kowloon, Hong Kong, 000000, China</address>
                <Point>
                    <coordinates>114.2072696046,22.3308067564</coordinates>
                </Point>
                <ExtendedData>
                    <Data name="country">
                        <value>China</value>
                    </Data>
                    <Data name="city">
                        <value>Kowloon</value>
                    </Data>
                    <Data name="state">
                        <value>Hong Kong</value>
                    </Data>
                    <Data name="postcode">
                        <value>000000</value>
                    </Data>
                    <Data name="road">
                        <value>Wang Chiu Road</value>
                    </Data>
                    <Data name="suburb">
                        <value>Ping Shek</value>
                    </Data>
                    <Data name="city_district">
                        <value>Kwun Tong District</value>
                    </Data>
                    <Data name="country_code">
                        <value>cn</value>
                    </Data>
                    <Data name="ISO3166-2-lvl3">
                        <value>CN-HK</value>
                    </Data>
                </ExtendedData>
            </Placemark>
            <Placemark>
                <address>Wang Chiu Road, Kowloon Bay Business Area, Kowloon Bay, Kwun Tong District, Kowloon, Hong Kong, 000000, China</address>
                <Point>
                    <coordinates>114.2093690051,22.3190836610</coordinates>
                </Point>
                <ExtendedData>
                    <Data name="country">
                        <value>China</value>
                    </Data>
                    <Data name="city">
                        <value>Kowloon</value>
                    </Data>
                    <Data name="state">
                        <value>Hong Kong</value>
                    </Data>
                    <Data name="postcode">
                        <value>000000</value>
                    </Data>
                    <Data name="road">
                        <value>Wang Chiu Road</value>
                    </Data>
                    <Data name="suburb">
                        <value>Kowloon Bay</value>
                    </Data>
                    <Data name="city_district">
                        <value>Kwun Tong District</value>
                    </Data>
                    <Data name="quarter">
                        <value>Kowloon Bay Business Area</value>
                    </Data>
                    <Data name="country_code">
                        <value>cn</value>
                    </Data>
                    <Data name="ISO3166-2-lvl3">
                        <value>CN-HK</value>
                    </Data>
                </ExtendedData>
            </Placemark>
            <Placemark>
                <address>Shau Kei Wan Road Sitting-out Area, Shau Kei Wan Road, Aldrich Bay, Shau Kei Wan, Eastern District, Hong Kong Island, Hong Kong, China</address>
                <Point>
                    <coordinates>114.2287016012,22.2766397300</coordinates>
                </Point>
                <ExtendedData>
                    <Data name="country">
                        <value>China</value>
                    </Data>
                    <Data name="city">
                        <value>Hong Kong Island</value>
                    </Data>
                    <Data name="state">
                        <value>Hong Kong</value>
                    </Data>
                    <Data name="road">
                        <value>Shau Kei Wan Road</value>
                    </Data>
                    <Data name="neighbourhood">
                        <value>Aldrich Bay</value>
                    </Data>
                    <Data name="suburb">
                        <value>Shau Kei Wan</value>
                    </Data>
                    <Data name="city_district">
                        <value>Eastern District</value>
                    </Data>
                    <Data name="leisure">
                        <value>Shau Kei Wan Road Sitting-out Area</value>
                    </Data>
                    <Data name="country_code">
                        <value>cn</value>
                    </Data>
                    <Data name="ISO3166-2-lvl3">
                        <value>CN-HK</value>
                    </Data>
                </ExtendedData>
            </Placemark>
            <Placemark>
                <address>Wing Tai Road, Chai Wan East Industrial Area, Chai Wan District, Eastern District, Hong Kong Island, Hong Kong, China</address>
                <Point>
                    <coordinates>114.2427822200,22.2663238204</coordinates>
                </Point>
                <ExtendedData>
                    <Data name="borough">
                        <value>Chai Wan District</value>
                    </Data>
                    <Data name="country">
                        <value>China</value>
                    </Data>
                    <Data name="city">
                        <value>Hong Kong Island</value>
                    </Data>
                    <Data name="state">
                        <value>Hong Kong</value>
                    </Data>
                    <Data name="road">
                        <value>Wing Tai Road</value>
                    </Data>
                    <Data name="city_district">
                        <value>Eastern District</value>
                    </Data>
                    <Data name="quarter">
                        <value>Chai Wan East Industrial Area</value>
                    </Data>
                    <Data name="country_code">
                        <value>cn</value>
                    </Data>
                    <Data name="ISO3166-2-lvl3">
                        <value>CN-HK</value>
                    </Data>
                </ExtendedData>
            </Placemark>
            <Placemark>
                <address>Paradise Mall (Central Commercial Block), Shing Tai Road, Shau Kei Wan, Eastern District, Hong Kong Island, Hong Kong, China</address>
                <Point>
                    <coordinates>114.2404645120,22.2773882931</coordinates>
                </Point>
                <ExtendedData>
                    <Data name="shop">
                        <value>Paradise Mall (Central Commercial Block)</value>
                    </Data>
                    <Data name="country">
                        <value>China</value>
                    </Data>
                    <Data name="city">
                        <value>Hong Kong Island</value>
                    </Data>
                    <Data name="state">
                        <value>Hong Kong</value>
                    </Data>
                    <Data name="road">
                        <value>Shing Tai Road</value>
                    </Data>
                    <Data name="suburb">
                        <value>Shau Kei Wan</value>
                    </Data>
                    <Data name="city_district">
                        <value>Eastern District</value>
                    </Data>
                    <Data name="country_code">
                        <value>cn</value>
                    </Data>
                    <Data name="ISO3166-2-lvl3">
                        <value>CN-HK</value>
                    </Data>
                </ExtendedData>
            </Placemark>
        </Folder>
        <Document>
            <name>48.6 km; 01:05 h (OSRM)</name>
            <Placemark>
                <name>Route</name>
                <LineString>
                    <coordinates>114.2405710000,22.2772470000 114.2404740000,22.2771180000 114.2404660000,22.2771050000 114.2404320000,22.2770030000 114.2404430000,22.2769650000 114.2404420000,22.2769250000 114.2404280000,22.2768880000 114.2404500000,22.2767780000 114.2404670000,22.2765800000 114.2405850000,22.2764070000 114.2407600000,22.2761960000 114.2408750000,22.2760570000 114.2409330000,22.2759870000 114.2410100000,22.2758940000 114.2410890000,22.2757990000 114.2411190000,22.2757630000 114.2411970000,22.2756480000 114.2413040000,22.2754630000 114.2414090000,22.2752090000 114.2414400000,22.2750960000 114.2414670000,22.2749260000 114.2414890000,22.2747380000 114.2414940000,22.2746370000 114.2414970000,22.2745570000 114.2414960000,22.2744460000 114.2414950000,22.2744050000 114.2414900000,22.2739670000 114.2414980000,22.2736650000 114.2414890000,22.2732080000 114.2414610000,22.2729170000 114.2414130000,22.2726530000 114.2412820000,22.2722380000 114.2410890000,22.2717740000 114.2408290000,22.2711600000 114.2408000000,22.2710900000 114.2407810000,22.2709370000 114.2405810000,22.2704850000 114.2404840000,22.2702790000 114.2404600000,22.2702290000 114.2404020000,22.2701060000 114.2403360000,22.2699710000 114.2401390000,22.2695720000 114.2401150000,22.2694940000 114.2401070000,22.2694150000 114.2401140000,22.2693430000 114.2401280000,22.2692880000 114.2401460000,22.2692430000 114.2401680000,22.2692020000 114.2402180000,22.2691350000 114.2403010000,22.2690550000 114.2403950000,22.2689720000 114.2409050000,22.2687450000 114.2413990000,22.2685270000 114.2414770000,22.2684870000 114.2415490000,22.2684420000 114.2416210000,22.2683920000 114.2417440000,22.2682910000 114.2418170000,22.2682180000 114.2423070000,22.2676280000 114.2426820000,22.2671710000 114.2427390000,22.2671000000 114.2428080000,22.2670000000 114.2431070000,22.2665200000 114.2431860000,22.2663800000 114.2432320000,22.2663050000 114.2432580000,22.2662660000 114.2433210000,22.2661860000 114.2431400000,22.2660530000 114.2430990000,22.2660230000 114.2430360000,22.2659780000 114.2426260000,22.2656880000 114.2421620000,22.2653560000 114.2417790000,22.2650770000 114.2414720000,22.2648500000 114.2408530000,22.2643850000 114.2407250000,22.2642900000 114.2403230000,22.2639950000 114.2399550000,22.2637210000 114.2396690000,22.2635200000 114.2396370000,22.2634960000 114.2395440000,22.2634350000 114.2393700000,22.2633300000 114.2392770000,22.2632900000 114.2391920000,22.2632610000 114.2390980000,22.2632350000 114.2389870000,22.2632100000 114.2388990000,22.2631950000 114.2388450000,22.2631900000 114.2387840000,22.2631890000 114.2385890000,22.2631970000 114.2382660000,22.2632180000 114.2381350000,22.2632220000 114.2380060000,22.2632190000 114.2379430000,22.2632090000 114.2378740000,22.2631960000 114.2378270000,22.2631830000 114.2377900000,22.2631510000 114.2377380000,22.2631200000 114.2376740000,22.2630890000 114.2376130000,22.2630670000 114.2375550000,22.2630490000 114.2375030000,22.2630380000 114.2374530000,22.2630320000 114.2374110000,22.2630320000 114.2373780000,22.2630350000 114.2373380000,22.2630440000 114.2373020000,22.2630550000 114.2372610000,22.2630750000 114.2372150000,22.2631020000 114.2371500000,22.2631500000 114.2371070000,22.2632200000 114.2370400000,22.2632600000 114.2369600000,22.2632900000 114.2368600000,22.2633100000 114.2362500000,22.2633490000 114.2361300000,22.2633630000 114.2360080000,22.2633880000 114.2359000000,22.2634200000 114.2357900000,22.2634600000 114.2357000000,22.2634980000 114.2356130000,22.2635390000 114.2355210000,22.2635900000 114.2354480000,22.2636370000 114.2353480000,22.2637080000 114.2350070000,22.2639710000 114.2348820000,22.2640680000 114.2346700000,22.2642320000 114.2343610000,22.2644700000 114.2343330000,22.2644910000 114.2342250000,22.2645750000 114.2340500000,22.2647300000 114.2338800000,22.2649000000 114.2337970000,22.2650270000 114.2337200000,22.2651800000 114.2336820000,22.2652800000 114.2336600000,22.2653700000 114.2336380000,22.2655800000 114.2334800000,22.2676540000 114.2334650000,22.2678440000 114.2334500000,22.2681750000 114.2334500000,22.2683000000 114.2335170000,22.2687950000 114.2335300000,22.2688900000 114.2335460000,22.2689920000 114.2336380000,22.2695840000 114.2336510000,22.2696850000 114.2336560000,22.2697710000 114.2336560000,22.2698530000 114.2336510000,22.2699360000 114.2336350000,22.2700560000 114.2335400000,22.2704700000 114.2335000000,22.2706100000 114.2334670000,22.2707050000 114.2334140000,22.2708060000 114.2333960000,22.2708320000 114.2333120000,22.2709560000 114.2331750000,22.2711440000 114.2331450000,22.2712030000 114.2331250000,22.2712460000 114.2331070000,22.2712920000 114.2329430000,22.2717860000 114.2328250000,22.2721310000 114.2327280000,22.2724120000 114.2326340000,22.2726550000 114.2325970000,22.2727280000 114.2325560000,22.2727990000 114.2325170000,22.2728590000 114.2323880000,22.2730400000 114.2323390000,22.2731000000 114.2322880000,22.2731530000 114.2322260000,22.2732030000 114.2321910000,22.2732300000 114.2321350000,22.2732690000 114.2320020000,22.2733640000 114.2316410000,22.2736120000 114.2315350000,22.2736970000 114.2314380000,22.2737820000 114.2313520000,22.2738700000 114.2312680000,22.2739680000 114.2312090000,22.2740490000 114.2311610000,22.2741220000 114.2311190000,22.2741980000 114.2310440000,22.2743600000 114.2309610000,22.2745890000 114.2309180000,22.2747340000 114.2308900000,22.2748400000 114.2308210000,22.2751230000 114.2307770000,22.2752990000 114.2307550000,22.2753660000 114.2307200000,22.2754320000 114.2306700000,22.2755010000 114.2306300000,22.2755430000 114.2305830000,22.2755860000 114.2305400000,22.2756170000 114.2304980000,22.2756410000 114.2304190000,22.2756700000 114.2303270000,22.2756930000 114.2301860000,22.2757220000 114.2300870000,22.2757470000 114.2299330000,22.2757980000 114.2297940000,22.2758640000 114.2296620000,22.2759370000 114.2295030000,22.2760640000 114.2293760000,22.2761510000 114.2292430000,22.2762420000 114.2291000000,22.2763400000 114.2290280000,22.2763720000 114.2284580000,22.2766580000 114.2284180000,22.2766810000 114.2283810000,22.2767050000 114.2283450000,22.2767290000 114.2283150000,22.2767520000 114.2282880000,22.2767750000 114.2282640000,22.2767990000 114.2282400000,22.2768260000 114.2282170000,22.2768530000 114.2281860000,22.2768960000 114.2281700000,22.2769240000 114.2281520000,22.2769580000 114.2281410000,22.2769860000 114.2281330000,22.2770110000 114.2281220000,22.2770460000 114.2281170000,22.2770750000 114.2281110000,22.2771100000 114.2281080000,22.2771460000 114.2281070000,22.2771890000 114.2281080000,22.2772300000 114.2281110000,22.2772680000 114.2281150000,22.2773020000 114.2281280000,22.2773710000 114.2281680000,22.2775480000 114.2281750000,22.2775900000 114.2281790000,22.2776320000 114.2281800000,22.2776680000 114.2281790000,22.2777100000 114.2281750000,22.2777610000 114.2281690000,22.2778080000 114.2281610000,22.2778510000 114.2281500000,22.2778920000 114.2281320000,22.2779490000 114.2281140000,22.2779940000 114.2280760000,22.2780770000 114.2277500000,22.2786870000 114.2277150000,22.2787460000 114.2276770000,22.2788040000 114.2276520000,22.2788370000 114.2276280000,22.2788650000 114.2276080000,22.2788870000 114.2275990000,22.2788970000 114.2275650000,22.2789320000 114.2275260000,22.2789670000 114.2271390000,22.2792710000 114.2268930000,22.2794670000 114.2267710000,22.2796070000 114.2265580000,22.2798310000 114.2263740000,22.2800270000 114.2261900000,22.2802290000 114.2260020000,22.2804210000 114.2257350000,22.2806190000 114.2255450000,22.2807470000 114.2251880000,22.2809320000 114.2246470000,22.2811710000 114.2242770000,22.2813510000 114.2240040000,22.2815230000 114.2237970000,22.2816730000 114.2236060000,22.2818400000 114.2233730000,22.2820850000 114.2225600000,22.2830850000 114.2222970000,22.2834090000 114.2219170000,22.2838780000 114.2216550000,22.2842510000 114.2215660000,22.2844270000 114.2214950000,22.2845880000 114.2214380000,22.2847610000 114.2213980000,22.2849180000 114.2213560000,22.2851750000 114.2213520000,22.2852210000 114.2213500000,22.2852670000 114.2213520000,22.2852960000 114.2213590000,22.2853570000 114.2213530000,22.2855080000 114.2213570000,22.2858410000 114.2213610000,22.2860780000 114.2213760000,22.2866650000 114.2213690000,22.2867960000 114.2213550000,22.2869820000 114.2213220000,22.2871970000 114.2212320000,22.2874440000 114.2211840000,22.2875360000 114.2211090000,22.2876640000 114.2210020000,22.2877990000 114.2209110000,22.2878780000 114.2207880000,22.2879490000 114.2206690000,22.2880380000 114.2204850000,22.2881450000 114.2203750000,22.2882000000 114.2202220000,22.2882780000 114.2200180000,22.2883510000 114.2198480000,22.2883900000 114.2198020000,22.2884010000 114.2197290000,22.2884130000 114.2196740000,22.2884270000 114.2194880000,22.2884760000 114.2192360000,22.2885300000 114.2190490000,22.2885710000 114.2185110000,22.2886880000 114.2180910000,22.2887630000 114.2172060000,22.2889130000 114.2168930000,22.2890210000 114.2168200000,22.2890410000 114.2164400000,22.2891410000 114.2163350000,22.2891640000 114.2162170000,22.2891910000 114.2159540000,22.2892490000 114.2157180000,22.2892830000 114.2155490000,22.2892950000 114.2154710000,22.2892940000 114.2153940000,22.2892900000 114.2153140000,22.2892820000 114.2152420000,22.2892700000 114.2151640000,22.2892520000 114.2150940000,22.2892310000 114.2150380000,22.2892090000 114.2149340000,22.2891600000 114.2148280000,22.2890970000 114.2147370000,22.2890360000 114.2146260000,22.2889480000 114.2145380000,22.2888700000 114.2143840000,22.2887230000 114.2141000000,22.2884500000 114.2140110000,22.2883790000 114.2138980000,22.2883180000 114.2137920000,22.2882740000 114.2136750000,22.2882370000 114.2136030000,22.2882020000 114.2135370000,22.2881750000 114.2134660000,22.2881490000 114.2133820000,22.2881230000 114.2132940000,22.2881050000 114.2131950000,22.2880920000 114.2130990000,22.2880840000 114.2130170000,22.2880830000 114.2129340000,22.2880870000 114.2128530000,22.2880970000 114.2127660000,22.2881130000 114.2126830000,22.2881350000 114.2126010000,22.2881630000 114.2125260000,22.2881950000 114.2124590000,22.2882310000 114.2123840000,22.2882800000 114.2123150000,22.2883320000 114.2122030000,22.2884390000 114.2121350000,22.2885230000 114.2120840000,22.2886010000 114.2120370000,22.2886930000 114.2120010000,22.2887840000 114.2119720000,22.2888790000 114.2119580000,22.2889660000 114.2119550000,22.2890450000 114.2119580000,22.2891450000 114.2119690000,22.2892500000 114.2119970000,22.2893500000 114.2120420000,22.2894630000 114.2121120000,22.2895840000 114.2122180000,22.2897150000 114.2123300000,22.2898230000 114.2124640000,22.2899170000 114.2126450000,22.2900160000 114.2133860000,22.2903240000 114.2136110000,22.2904260000 114.2297660000,22.2988660000 114.2301500000,22.2990810000 114.2305860000,22.2993080000 114.2310270000,22.2995370000 114.2312510000,22.2996750000 114.2313630000,22.2997440000 114.2314970000,22.2998390000 114.2315650000,22.2998840000 114.2316890000,22.2999690000 114.2318000000,22.3000360000 114.2323930000,22.3005240000 114.2325490000,22.3006640000 114.2326190000,22.3007050000 114.2326880000,22.3007430000 114.2334740000,22.3009780000 114.2335600000,22.3010210000 114.2339000000,22.3012080000 114.2342370000,22.3014240000 114.2343910000,22.3015270000 114.2345160000,22.3016160000 114.2346740000,22.3017530000 114.2347090000,22.3017810000 114.2348090000,22.3018840000 114.2349020000,22.3019920000 114.2349880000,22.3021050000 114.2350660000,22.3022230000 114.2351370000,22.3023440000 114.2352000000,22.3024690000 114.2352550000,22.3025980000 114.2353020000,22.3027290000 114.2353410000,22.3028620000 114.2353700000,22.3029980000 114.2353920000,22.3031340000 114.2354040000,22.3032720000 114.2354080000,22.3034100000 114.2354030000,22.3035480000 114.2353890000,22.3036850000 114.2353790000,22.3037720000 114.2353530000,22.3039040000 114.2353200000,22.3040390000 114.2352800000,22.3041730000 114.2352520000,22.3042540000 114.2352220000,22.3043270000 114.2351890000,22.3043980000 114.2351540000,22.3044680000 114.2351150000,22.3045360000 114.2350670000,22.3046100000 114.2349470000,22.3048070000 114.2348410000,22.3049440000 114.2346900000,22.3051210000 114.2346510000,22.3051670000 114.2345360000,22.3053020000 114.2341460000,22.3057490000 114.2340400000,22.3058750000 114.2336090000,22.3062930000 114.2328750000,22.3071600000 114.2327820000,22.3073290000 114.2326090000,22.3075390000 114.2324720000,22.3077040000 114.2321620000,22.3080620000 114.2319560000,22.3082750000 114.2318160000,22.3084030000 114.2317150000,22.3084950000 114.2314630000,22.3086630000 114.2313100000,22.3087470000 114.2311220000,22.3088280000 114.2309510000,22.3088810000 114.2308060000,22.3089160000 114.2306690000,22.3089360000 114.2305290000,22.3089480000 114.2303910000,22.3089520000 114.2302910000,22.3089500000 114.2301680000,22.3089420000 114.2300590000,22.3089280000 114.2299710000,22.3089100000 114.2289010000,22.3086800000 114.2286200000,22.3086180000 114.2282390000,22.3085340000 114.2277850000,22.3084280000 114.2277430000,22.3084170000 114.2276430000,22.3083830000 114.2274300000,22.3083140000 114.2273290000,22.3082770000 114.2272690000,22.3082570000 114.2272070000,22.3082370000 114.2271300000,22.3082050000 114.2269900000,22.3081470000 114.2268560000,22.3080850000 114.2267930000,22.3080550000 114.2267110000,22.3080080000 114.2265700000,22.3079270000 114.2263910000,22.3078080000 114.2262800000,22.3077310000 114.2253870000,22.3070680000 114.2248690000,22.3066690000 114.2247250000,22.3065580000 114.2245460000,22.3064210000 114.2243610000,22.3063010000 114.2243140000,22.3062740000 114.2241870000,22.3061970000 114.2241050000,22.3061550000 114.2240250000,22.3061200000 114.2239390000,22.3060840000 114.2238590000,22.3060590000 114.2237720000,22.3060320000 114.2236920000,22.3060080000 114.2236620000,22.3060020000 114.2236010000,22.3059900000 114.2235180000,22.3059770000 114.2234270000,22.3059640000 114.2233360000,22.3059580000 114.2232530000,22.3059560000 114.2231590000,22.3059550000 114.2230750000,22.3059580000 114.2229880000,22.3059680000 114.2229010000,22.3059790000 114.2228110000,22.3059970000 114.2227170000,22.3060210000 114.2226160000,22.3060440000 114.2225570000,22.3060650000 114.2224700000,22.3060990000 114.2223830000,22.3061350000 114.2223530000,22.3061500000 114.2222940000,22.3061800000 114.2222660000,22.3061980000 114.2222410000,22.3062140000 114.2222140000,22.3062290000 114.2221880000,22.3062460000 114.2221410000,22.3062770000 114.2221040000,22.3063010000 114.2219890000,22.3063770000 114.2218560000,22.3064870000 114.2217540000,22.3065870000 114.2216280000,22.3067100000 114.2215010000,22.3068920000 114.2211590000,22.3074240000 114.2210730000,22.3075480000 114.2210220000,22.3076230000 114.2210020000,22.3076520000 114.2207530000,22.3079900000 114.2205820000,22.3082080000 114.2201910000,22.3087040000 114.2192820000,22.3098570000 114.2189020000,22.3103410000 114.2185710000,22.3107330000 114.2181640000,22.3111990000 114.2179470000,22.3114370000 114.2176990000,22.3117080000 114.2174100000,22.3119890000 114.2172860000,22.3121100000 114.2163760000,22.3130530000 114.2152860000,22.3141730000 114.2147630000,22.3147110000 114.2144750000,22.3150060000 114.2144120000,22.3150710000 114.2141400000,22.3153500000 114.2137790000,22.3157210000 114.2133820000,22.3161450000 114.2131930000,22.3163010000 114.2130460000,22.3164050000 114.2129730000,22.3164550000 114.2128790000,22.3165200000 114.2126550000,22.3166460000 114.2125020000,22.3167240000 114.2124270000,22.3167550000 114.2123210000,22.3167980000 114.2122390000,22.3168220000 114.2121170000,22.3168520000 114.2120210000,22.3168740000 114.2119200000,22.3168980000 114.2115700000,22.3168980000 114.2115060000,22.3168990000 114.2114610000,22.3168980000 114.2114020000,22.3168990000 114.2107230000,22.3168930000 114.2106750000,22.3168920000 114.2105480000,22.3168910000 114.2103120000,22.3169380000 114.2102890000,22.3169450000 114.2102560000,22.3169530000 114.2102100000,22.3169710000 114.2101770000,22.3169820000 114.2101220000,22.3170040000 114.2100710000,22.3170270000 114.2100250000,22.3170510000 114.2099680000,22.3170850000 114.2099150000,22.3171190000 114.2098790000,22.3171450000 114.2098340000,22.3171810000 114.2097570000,22.3172470000 114.2096720000,22.3173270000 114.2096100000,22.3173970000 114.2095600000,22.3174600000 114.2095190000,22.3175190000 114.2094850000,22.3175760000 114.2094560000,22.3176270000 114.2094300000,22.3176790000 114.2094120000,22.3177220000 114.2093860000,22.3177910000 114.2093690000,22.3178440000 114.2093550000,22.3179000000 114.2093330000,22.3180470000 114.2093720000,22.3181720000 114.2093510000,22.3182880000 114.2093370000,22.3183800000 114.2093300000,22.3184300000 114.2093110000,22.3185160000 114.2092970000,22.3185780000 114.2092770000,22.3187500000 114.2092600000,22.3187910000 114.2092090000,22.3189660000 114.2092080000,22.3190010000 114.2092060000,22.3190440000 114.2091990000,22.3191950000 114.2091990000,22.3192440000 114.2091850000,22.3193930000 114.2091800000,22.3194860000 114.2092100000,22.3196840000 114.2092130000,22.3197040000 114.2092050000,22.3197710000 114.2091990000,22.3198160000 114.2091840000,22.3199120000 114.2091570000,22.3202110000 114.2091520000,22.3202680000 114.2091390000,22.3203900000 114.2091270000,22.3204980000 114.2091240000,22.3205300000 114.2090830000,22.3209740000 114.2090700000,22.3211240000 114.2090590000,22.3212430000 114.2090530000,22.3213100000 114.2090350000,22.3215100000 114.2090310000,22.3215460000 114.2090240000,22.3216420000 114.2090140000,22.3217350000 114.2090000000,22.3218640000 114.2089980000,22.3218880000 114.2089680000,22.3221910000 114.2089450000,22.3224140000 114.2089400000,22.3224630000 114.2089300000,22.3225590000 114.2089290000,22.3225750000 114.2088550000,22.3233060000 114.2088320000,22.3235290000 114.2088220000,22.3236340000 114.2087660000,22.3241870000 114.2087570000,22.3242740000 114.2087360000,22.3244800000 114.2087250000,22.3245870000 114.2086990000,22.3248200000 114.2086670000,22.3251230000 114.2086540000,22.3252460000 114.2086500000,22.3252840000 114.2086280000,22.3254190000 114.2086130000,22.3255360000 114.2086040000,22.3256480000 114.2086000000,22.3256960000 114.2085850000,22.3258850000 114.2085660000,22.3260710000 114.2085480000,22.3262600000 114.2085240000,22.3264940000 114.2085150000,22.3265930000 114.2085110000,22.3266280000 114.2085030000,22.3267090000 114.2084940000,22.3268070000 114.2084240000,22.3275090000 114.2084110000,22.3276460000 114.2082750000,22.3276340000 114.2074330000,22.3275600000 114.2073140000,22.3275500000 114.2069040000,22.3275140000 114.2068880000,22.3276560000 114.2068330000,22.3281500000 114.2067280000,22.3290910000 114.2067200000,22.3291260000 114.2067120000,22.3291640000 114.2066850000,22.3291920000 114.2066700000,22.3292050000 114.2066110000,22.3292280000 114.2065350000,22.3292270000 114.2063760000,22.3292130000 114.2063320000,22.3292090000 114.2062230000,22.3292000000 114.2057630000,22.3291610000 114.2055930000,22.3291460000 114.2055800000,22.3292880000 114.2055480000,22.3295840000 114.2055340000,22.3297110000 114.2055230000,22.3298140000 114.2054410000,22.3305810000 114.2054080000,22.3308910000 114.2054030000,22.3309900000 114.2054170000,22.3310590000 114.2053260000,22.3310990000 114.2052390000,22.3311180000 114.2048750000,22.3311250000 114.2047720000,22.3311390000 114.2047680000,22.3312200000 114.2047690000,22.3313390000 114.2047700000,22.3317060000 114.2047700000,22.3318290000 114.2047720000,22.3320850000 114.2047380000,22.3323510000 114.2047290000,22.3324150000 114.2047090000,22.3325770000 114.2046980000,22.3326610000 114.2046820000,22.3327830000 114.2046570000,22.3329780000 114.2046570000,22.3330070000 114.2046550000,22.3330850000 114.2046530000,22.3331510000 114.2046570000,22.3332520000 114.2046600000,22.3333220000 114.2046610000,22.3333530000 114.2046710000,22.3336090000 114.2046710000,22.3338940000 114.2046300000,22.3340780000 114.2045370000,22.3342580000 114.2045070000,22.3343080000 114.2044490000,22.3344070000 114.2043160000,22.3345440000 114.2041930000,22.3346190000 114.2040960000,22.3346410000 114.2039410000,22.3346560000 114.2039060000,22.3346120000 114.2038600000,22.3345770000 114.2038060000,22.3345530000 114.2037480000,22.3345420000 114.2036880000,22.3345430000 114.2036310000,22.3345570000 114.2035940000,22.3345740000 114.2035560000,22.3346000000 114.2035160000,22.3346440000 114.2034880000,22.3346950000 114.2034750000,22.3347510000 114.2033540000,22.3348640000 114.2032220000,22.3349290000 114.2031120000,22.3349590000 114.2030650000,22.3349600000 114.2029720000,22.3349600000 114.2029460000,22.3349580000 114.2029040000,22.3349510000 114.2028280000,22.3349350000 114.2027190000,22.3349050000 114.2026530000,22.3348850000 114.2025620000,22.3348490000 114.2024600000,22.3348010000 114.2023580000,22.3347460000 114.2022680000,22.3346870000 114.2021930000,22.3346300000 114.2021220000,22.3345680000 114.2020660000,22.3345110000 114.2020080000,22.3344440000 114.2019360000,22.3343560000 114.2018720000,22.3342710000 114.2018100000,22.3341810000 114.2016800000,22.3339740000 114.2016440000,22.3339210000 114.2016160000,22.3338840000 114.2015790000,22.3338360000 114.2015390000,22.3337840000 114.2015020000,22.3337400000 114.2014560000,22.3336900000 114.2013980000,22.3336340000 114.2013290000,22.3335720000 114.2012680000,22.3335230000 114.2011860000,22.3334570000 114.2011330000,22.3334220000 114.2010880000,22.3333940000 114.2010650000,22.3333840000 114.2009950000,22.3333530000 114.2009370000,22.3333320000 114.2008400000,22.3332970000 114.2007610000,22.3332680000 114.2006800000,22.3332380000 114.2006190000,22.3332200000 114.2005910000,22.3331930000 114.2005550000,22.3331740000 114.2005160000,22.3331660000 114.2004750000,22.3331680000 114.2003910000,22.3330860000 114.2002670000,22.3329850000 114.2000100000,22.3328860000 114.1999420000,22.3328600000 114.1999130000,22.3328480000 114.1998750000,22.3328340000 114.1987660000,22.3324100000 114.1985890000,22.3323310000 114.1984680000,22.3322710000 114.1983070000,22.3322410000 114.1981770000,22.3321730000 114.1981350000,22.3321520000 114.1979820000,22.3320440000 114.1978310000,22.3319330000 114.1977600000,22.3318750000 114.1976150000,22.3317570000 114.1975890000,22.3317330000 114.1975470000,22.3316950000 114.1974980000,22.3316380000 114.1974550000,22.3315700000 114.1974120000,22.3314820000 114.1974000000,22.3314180000 114.1973830000,22.3313890000 114.1973660000,22.3313620000 114.1973140000,22.3313180000 114.1972500000,22.3312920000 114.1971800000,22.3312860000 114.1971120000,22.3313020000 114.1970530000,22.3313370000 114.1970100000,22.3313870000 114.1969850000,22.3314480000 114.1969840000,22.3315120000 114.1970040000,22.3315740000 114.1970440000,22.3316260000 114.1970970000,22.3316620000 114.1971580000,22.3316810000 114.1972220000,22.3316830000 114.1972780000,22.3316700000 114.1973690000,22.3317050000 114.1974360000,22.3317300000 114.1974800000,22.3317520000 114.1975350000,22.3317900000 114.1975470000,22.3317980000 114.1977070000,22.3319270000 114.1977840000,22.3319890000 114.1978330000,22.3320260000 114.1979450000,22.3321120000 114.1980230000,22.3321650000 114.1981030000,22.3322200000 114.1981650000,22.3322580000 114.1982590000,22.3323160000 114.1984900000,22.3323800000 114.1988000000,22.3325130000 114.1998400000,22.3329180000 114.2001000000,22.3330200000 114.2002750000,22.3331350000 114.2003610000,22.3332510000 114.2003870000,22.3332860000 114.2004260000,22.3334440000 114.2004130000,22.3335700000 114.2003880000,22.3336780000 114.2002680000,22.3340190000 114.2000580000,22.3346240000 114.1999790000,22.3348340000 114.1999290000,22.3349670000 114.1998270000,22.3352240000 114.1997210000,22.3354840000 114.1996780000,22.3355900000 114.1996310000,22.3356940000 114.1995790000,22.3357970000 114.1995230000,22.3358970000 114.1994630000,22.3359950000 114.1993990000,22.3360910000 114.1993420000,22.3361690000 114.1992850000,22.3362300000 114.1991900000,22.3362680000 114.1989830000,22.3363540000 114.1986810000,22.3365510000 114.1980950000,22.3369320000 114.1980360000,22.3369710000 114.1979760000,22.3370100000 114.1980640000,22.3371350000 114.1982120000,22.3373450000 114.1983070000,22.3374740000 114.1984030000,22.3376050000 114.1985580000,22.3378020000 114.1986320000,22.3379030000 114.1987720000,22.3380880000 114.1988330000,22.3381730000 114.1990100000,22.3384240000 114.1991550000,22.3386350000 114.1992410000,22.3387670000 114.1993560000,22.3389420000 114.1993800000,22.3389780000 114.1994630000,22.3391050000 114.1993640000,22.3391420000 114.1992390000,22.3391820000 114.1991450000,22.3392080000 114.1990370000,22.3392330000 114.1989390000,22.3392510000 114.1988340000,22.3392670000 114.1986770000,22.3392860000 114.1985490000,22.3393040000 114.1984630000,22.3393200000 114.1983750000,22.3393420000 114.1982610000,22.3393800000 114.1981520000,22.3394220000 114.1981130000,22.3394400000 114.1980180000,22.3394950000 114.1979200000,22.3395700000 114.1979570000,22.3396230000 114.1979970000,22.3396930000 114.1980380000,22.3397650000 114.1980660000,22.3398230000 114.1981090000,22.3399530000 114.1981250000,22.3400160000 114.1981470000,22.3401050000 114.1981650000,22.3402270000 114.1981780000,22.3403170000 114.1981980000,22.3404530000 114.1982060000,22.3405070000 114.1982110000,22.3405440000 114.1982140000,22.3405630000 114.1982180000,22.3405930000 114.1982210000,22.3406150000 114.1982320000,22.3406880000 114.1982480000,22.3407820000 114.1982560000,22.3408230000 114.1983260000,22.3412300000 114.1983620000,22.3414140000 114.1984240000,22.3417610000 114.1984570000,22.3419020000 114.1984780000,22.3420050000 114.1984850000,22.3420410000 114.1984920000,22.3421000000 114.1985020000,22.3421540000 114.1985120000,22.3422190000 114.1985200000,22.3422550000 114.1985260000,22.3422930000 114.1985300000,22.3423220000 114.1985590000,22.3423380000 114.1985930000,22.3423570000 114.1986440000,22.3423710000 114.1987130000,22.3423730000 114.1989140000,22.3423600000 114.1990210000,22.3423490000 114.1991410000,22.3423040000 114.1992550000,22.3422460000 114.1993670000,22.3421580000 114.1994280000,22.3420650000 114.1994530000,22.3419710000 114.1994600000,22.3418630000 114.1994660000,22.3416950000 114.1995010000,22.3414920000 114.1995430000,22.3413790000 114.1995890000,22.3413100000 114.1996230000,22.3412620000 114.1996490000,22.3412300000 114.1997100000,22.3411640000 114.1997460000,22.3411300000 114.1997770000,22.3411000000 114.1998590000,22.3410330000 114.1999750000,22.3409820000 114.2003110000,22.3408550000 114.2006380000,22.3407230000 114.2007560000,22.3406750000 114.2009420000,22.3406020000 114.2010520000,22.3405460000 114.2012790000,22.3404310000 114.2022050000,22.3398660000 114.2022610000,22.3398350000 114.2024040000,22.3397530000 114.2024350000,22.3397350000 114.2025060000,22.3396840000 114.2027740000,22.3395030000 114.2027850000,22.3394950000 114.2028110000,22.3394780000 114.2030620000,22.3393190000 114.2035020000,22.3389530000 114.2036950000,22.3387740000 114.2038150000,22.3386550000 114.2039810000,22.3385010000 114.2044920000,22.3382080000 114.2045710000,22.3381630000 114.2049180000,22.3379640000 114.2052840000,22.3377490000 114.2053430000,22.3377150000 114.2054050000,22.3376790000 114.2057640000,22.3374760000 114.2058990000,22.3374080000 114.2060760000,22.3373200000 114.2062130000,22.3372520000 114.2066060000,22.3370130000 114.2066980000,22.3369560000 114.2068700000,22.3368380000 114.2069610000,22.3367740000 114.2069830000,22.3367580000 114.2069960000,22.3367490000 114.2070810000,22.3366810000 114.2071530000,22.3366230000 114.2072260000,22.3365590000 114.2072650000,22.3365220000 114.2073100000,22.3364680000 114.2073510000,22.3364190000 114.2073980000,22.3363490000 114.2074210000,22.3363160000 114.2074450000,22.3362820000 114.2074570000,22.3362600000 114.2074740000,22.3362340000 114.2074940000,22.3361920000 114.2075110000,22.3361570000 114.2075290000,22.3361170000 114.2075470000,22.3360780000 114.2075580000,22.3360540000 114.2076470000,22.3359770000 114.2076870000,22.3358960000 114.2076950000,22.3358720000 114.2077450000,22.3357330000 114.2078980000,22.3353860000 114.2079280000,22.3353210000 114.2080100000,22.3351430000 114.2080410000,22.3350770000 114.2081290000,22.3348870000 114.2082070000,22.3347140000 114.2082370000,22.3346490000 114.2082550000,22.3346220000 114.2082860000,22.3345920000 114.2083240000,22.3345580000 114.2083500000,22.3345380000 114.2083940000,22.3345030000 114.2084160000,22.3344870000 114.2086020000,22.3343400000 114.2086830000,22.3342710000 114.2087260000,22.3342360000 114.2087620000,22.3342120000 114.2088030000,22.3341930000 114.2088510000,22.3341790000 114.2089090000,22.3341670000 114.2090480000,22.3341590000 114.2091240000,22.3341650000 114.2091910000,22.3341720000 114.2093750000,22.3342290000 114.2097000000,22.3342980000 114.2099930000,22.3343570000 114.2103020000,22.3344120000 114.2105890000,22.3344660000 114.2106840000,22.3344810000 114.2107910000,22.3344900000 114.2108900000,22.3344910000 114.2109970000,22.3344830000 114.2111550000,22.3344620000 114.2112220000,22.3344510000 114.2113490000,22.3344190000 114.2115010000,22.3343730000 114.2116950000,22.3342990000 114.2118800000,22.3342110000 114.2119940000,22.3341360000 114.2120530000,22.3340810000 114.2121990000,22.3339200000 114.2123980000,22.3336670000 114.2125230000,22.3335320000 114.2126150000,22.3335980000 114.2126360000,22.3336150000 114.2126550000,22.3336300000 114.2127420000,22.3336820000 114.2128170000,22.3337170000 114.2129110000,22.3337430000 114.2130000000,22.3337600000 114.2130530000,22.3337650000 114.2131190000,22.3337650000 114.2131850000,22.3337540000 114.2132990000,22.3337180000 114.2134680000,22.3336540000 114.2136130000,22.3335930000 114.2137520000,22.3335420000 114.2138670000,22.3335060000 114.2140340000,22.3334750000 114.2142200000,22.3334740000 114.2144250000,22.3334870000 114.2145920000,22.3335170000 114.2147300000,22.3335420000 114.2150780000,22.3336040000 114.2152540000,22.3336350000 114.2153410000,22.3336460000 114.2155070000,22.3337000000 114.2156700000,22.3337540000 114.2157880000,22.3338020000 114.2158670000,22.3339390000 114.2158790000,22.3339840000 114.2158840000,22.3340130000 114.2158780000,22.3340470000 114.2158690000,22.3340830000 114.2158250000,22.3341690000 114.2156660000,22.3342550000 114.2152460000,22.3344860000 114.2152120000,22.3345140000 114.2153070000,22.3346600000 114.2153710000,22.3347580000 114.2154780000,22.3348430000 114.2156010000,22.3349110000 114.2162080000,22.3349650000 114.2165040000,22.3349730000 114.2168710000,22.3349630000 114.2171860000,22.3349500000 114.2175190000,22.3349370000 114.2177650000,22.3349310000 114.2178320000,22.3349260000 114.2180070000,22.3348960000 114.2180180000,22.3348940000 114.2180990000,22.3348420000 114.2181420000,22.3348150000 114.2182050000,22.3347550000 114.2182520000,22.3346700000 114.2182890000,22.3345800000 114.2182870000,22.3345270000 114.2181940000,22.3342770000 114.2181790000,22.3341740000 114.2181740000,22.3339760000 114.2181670000,22.3339290000 114.2181450000,22.3338600000 114.2182170000,22.3338310000 114.2182370000,22.3338250000 114.2184620000,22.3337510000 114.2186390000,22.3337260000 114.2188060000,22.3337160000 114.2192760000,22.3337490000 114.2196830000,22.3337780000 114.2207350000,22.3338480000 114.2207720000,22.3338500000 114.2208340000,22.3338540000 114.2210910000,22.3338760000 114.2212070000,22.3338830000 114.2212640000,22.3338870000 114.2213630000,22.3338950000 114.2214970000,22.3339030000 114.2215860000,22.3339090000 114.2217870000,22.3339260000 114.2218510000,22.3339380000 114.2224460000,22.3340870000 114.2226090000,22.3341230000 114.2234800000,22.3343810000 114.2237620000,22.3344580000 114.2239130000,22.3344910000 114.2239930000,22.3344960000 114.2240490000,22.3344940000 114.2241320000,22.3344880000 114.2242620000,22.3344420000 114.2243380000,22.3344060000 114.2243960000,22.3343770000 114.2244750000,22.3343300000 114.2245790000,22.3342610000 114.2246900000,22.3342090000 114.2248060000,22.3341700000 114.2248870000,22.3341920000 114.2249170000,22.3341870000 114.2249300000,22.3341850000 114.2249760000,22.3341780000 114.2250160000,22.3341760000 114.2250770000,22.3341770000 114.2251250000,22.3341760000 114.2251670000,22.3341570000 114.2252440000,22.3341650000 114.2252890000,22.3341690000 114.2257710000,22.3342170000 114.2260480000,22.3343320000 114.2262680000,22.3344270000 114.2263490000,22.3344610000 114.2265340000,22.3345130000 114.2266840000,22.3345220000 114.2267930000,22.3345280000 114.2268720000,22.3345280000 114.2269510000,22.3345240000 114.2269760000,22.3345230000 114.2269970000,22.3345210000 114.2270140000,22.3345170000 114.2270340000,22.3345100000 114.2270530000,22.3345010000 114.2270710000,22.3344890000 114.2271030000,22.3344670000 114.2271830000,22.3344340000 114.2272050000,22.3344130000 114.2272280000,22.3343880000 114.2272680000,22.3343370000 114.2275750000,22.3343730000 114.2276950000,22.3343720000 114.2278070000,22.3343710000 114.2279480000,22.3343690000 114.2280470000,22.3343690000 114.2281550000,22.3343380000 114.2282410000,22.3343160000 114.2283290000,22.3343160000 114.2283750000,22.3343100000 114.2284040000,22.3342940000 114.2284340000,22.3342630000 114.2284380000,22.3342300000 114.2284400000,22.3341210000 114.2284420000,22.3340670000 114.2284460000,22.3337100000 114.2284800000,22.3332480000 114.2284830000,22.3331840000 114.2284950000,22.3330350000 114.2285000000,22.3329620000 114.2285120000,22.3328830000 114.2285340000,22.3328050000 114.2286050000,22.3326160000 114.2286520000,22.3325140000 114.2287110000,22.3324010000 114.2287750000,22.3322700000 114.2287930000,22.3321850000 114.2288120000,22.3321010000 114.2288170000,22.3320400000 114.2288200000,22.3319940000 114.2288200000,22.3319460000 114.2288190000,22.3319030000 114.2288170000,22.3318570000 114.2288120000,22.3318140000 114.2288050000,22.3317660000 114.2287940000,22.3317110000 114.2287770000,22.3316500000 114.2287510000,22.3315810000 114.2287090000,22.3314850000 114.2286640000,22.3314040000 114.2284420000,22.3310470000 114.2283980000,22.3309650000 114.2283730000,22.3309090000 114.2283490000,22.3308490000 114.2283320000,22.3308000000 114.2283080000,22.3307030000 114.2282960000,22.3306420000 114.2282890000,22.3305830000 114.2282860000,22.3305250000 114.2282860000,22.3304660000 114.2282890000,22.3304100000 114.2282940000,22.3303560000 114.2283050000,22.3302970000 114.2283160000,22.3302430000 114.2283320000,22.3301880000 114.2283520000,22.3301270000 114.2283780000,22.3300620000 114.2284090000,22.3299990000 114.2284560000,22.3299150000 114.2285060000,22.3298450000 114.2285630000,22.3297730000 114.2286330000,22.3297020000 114.2287100000,22.3296360000 114.2287810000,22.3295820000 114.2288500000,22.3295340000 114.2290220000,22.3294170000 114.2291430000,22.3293330000 114.2292880000,22.3292220000 114.2293930000,22.3291340000 114.2296130000,22.3289310000 114.2296930000,22.3288480000 114.2297620000,22.3287730000 114.2299520000,22.3285490000 114.2300480000,22.3284210000 114.2301300000,22.3283000000 114.2302070000,22.3281780000 114.2302750000,22.3280620000 114.2303250000,22.3279840000 114.2303670000,22.3279260000 114.2303840000,22.3279080000 114.2304040000,22.3278880000 114.2304570000,22.3278350000 114.2304920000,22.3278190000 114.2305210000,22.3277970000 114.2305440000,22.3277680000 114.2305580000,22.3277350000 114.2305630000,22.3277000000 114.2305590000,22.3276640000 114.2305460000,22.3276310000 114.2305500000,22.3275390000 114.2305540000,22.3274900000 114.2305590000,22.3274290000 114.2305700000,22.3273780000 114.2306150000,22.3272230000 114.2306690000,22.3270190000 114.2306950000,22.3268400000 114.2307050000,22.3266980000 114.2307090000,22.3265730000 114.2307110000,22.3264690000 114.2307120000,22.3264240000 114.2307130000,22.3263560000 114.2307160000,22.3262060000 114.2308350000,22.3262040000 114.2308600000,22.3262020000 114.2310850000,22.3262040000 114.2311440000,22.3261950000 114.2312020000,22.3261780000 114.2312570000,22.3261550000 114.2313080000,22.3261250000 114.2313570000,22.3260860000 114.2314000000,22.3260410000 114.2314350000,22.3259900000 114.2315100000,22.3257970000 114.2318840000,22.3249260000 114.2321940000,22.3240970000 114.2324800000,22.3235990000 114.2325270000,22.3235180000 114.2325810000,22.3234420000 114.2326410000,22.3233710000 114.2327260000,22.3232790000 114.2333410000,22.3228730000 114.2335240000,22.3227460000 114.2336290000,22.3227340000 114.2336730000,22.3227280000 114.2336990000,22.3227240000 114.2337470000,22.3227180000 114.2337900000,22.3227360000 114.2338370000,22.3227410000 114.2338840000,22.3227310000 114.2339350000,22.3227540000 114.2339630000,22.3227660000 114.2339960000,22.3227800000 114.2340720000,22.3227970000 114.2344040000,22.3230140000 114.2345730000,22.3231250000 114.2347420000,22.3232380000 114.2347930000,22.3232710000 114.2348370000,22.3233000000 114.2348690000,22.3233210000 114.2349160000,22.3233510000 114.2351940000,22.3235330000 114.2356470000,22.3238220000 114.2358840000,22.3239740000 114.2359320000,22.3240470000 114.2359630000,22.3240690000 114.2359950000,22.3240900000 114.2360590000,22.3241330000 114.2360260000,22.3241850000 114.2359950000,22.3242380000 114.2359780000,22.3242700000 114.2359620000,22.3243110000 114.2359690000,22.3243850000 114.2359320000,22.3244870000 114.2359050000,22.3245920000 114.2358870000,22.3246950000 114.2357570000,22.3256510000 114.2357230000,22.3259910000 114.2356590000,22.3263280000 114.2355640000,22.3266580000 114.2354400000,22.3269800000 114.2352710000,22.3273250000 114.2351060000,22.3275890000 114.2348990000,22.3278720000 114.2346670000,22.3281380000 114.2343450000,22.3284620000 114.2342500000,22.3285570000 114.2341350000,22.3284670000 114.2340370000,22.3283890000 114.2334380000,22.3279170000 114.2341350000,22.3284670000 114.2342500000,22.3285570000 114.2343450000,22.3284620000 114.2346670000,22.3281380000 114.2348990000,22.3278720000 114.2351060000,22.3275890000 114.2352710000,22.3273250000 114.2354400000,22.3269800000 114.2355640000,22.3266580000 114.2356590000,22.3263280000 114.2357230000,22.3259910000 114.2357570000,22.3256510000 114.2358870000,22.3246950000 114.2359050000,22.3245920000 114.2359320000,22.3244870000 114.2359690000,22.3243850000 114.2360310000,22.3243360000 114.2360530000,22.3243030000 114.2360700000,22.3242710000 114.2360970000,22.3242240000 114.2361260000,22.3241780000 114.2361690000,22.3241180000 114.2361360000,22.3240960000 114.2361020000,22.3240730000 114.2360400000,22.3240310000 114.2360090000,22.3240100000 114.2359770000,22.3239890000 114.2358840000,22.3239740000 114.2356470000,22.3238220000 114.2351940000,22.3235330000 114.2349160000,22.3233510000 114.2348690000,22.3233210000 114.2348370000,22.3233000000 114.2347930000,22.3232710000 114.2347420000,22.3232380000 114.2345730000,22.3231250000 114.2344040000,22.3230140000 114.2340720000,22.3227970000 114.2340460000,22.3227290000 114.2340250000,22.3227000000 114.2340060000,22.3226730000 114.2339720000,22.3226300000 114.2339720000,22.3225850000 114.2339560000,22.3225440000 114.2339270000,22.3225090000 114.2338880000,22.3224850000 114.2338420000,22.3224740000 114.2337950000,22.3224770000 114.2337510000,22.3224950000 114.2337160000,22.3225240000 114.2336930000,22.3225620000 114.2336440000,22.3226170000 114.2336160000,22.3226480000 114.2335950000,22.3226720000 114.2335240000,22.3227460000 114.2333410000,22.3228730000 114.2327260000,22.3232790000 114.2326410000,22.3233710000 114.2325810000,22.3234420000 114.2325270000,22.3235180000 114.2324800000,22.3235990000 114.2321940000,22.3240970000 114.2318840000,22.3249260000 114.2315100000,22.3257970000 114.2314350000,22.3259900000 114.2314000000,22.3260410000 114.2313570000,22.3260860000 114.2313080000,22.3261250000 114.2312570000,22.3261550000 114.2312020000,22.3261780000 114.2311440000,22.3261950000 114.2310850000,22.3262040000 114.2308600000,22.3262020000 114.2308350000,22.3262040000 114.2307160000,22.3262060000 114.2306270000,22.3262110000 114.2306220000,22.3263620000 114.2306240000,22.3264270000 114.2306250000,22.3264660000 114.2306260000,22.3264970000 114.2306240000,22.3265780000 114.2306160000,22.3266940000 114.2306030000,22.3268420000 114.2305790000,22.3270050000 114.2305320000,22.3272120000 114.2304890000,22.3273540000 114.2304610000,22.3274100000 114.2304430000,22.3274460000 114.2304140000,22.3275020000 114.2303740000,22.3275560000 114.2303400000,22.3275670000 114.2303090000,22.3275850000 114.2302830000,22.3276090000 114.2302650000,22.3276380000 114.2302540000,22.3276670000 114.2302510000,22.3276980000 114.2302540000,22.3277290000 114.2302650000,22.3277590000 114.2302590000,22.3278240000 114.2302540000,22.3278590000 114.2302440000,22.3278990000 114.2302250000,22.3279600000 114.2301970000,22.3280220000 114.2301640000,22.3280860000 114.2301280000,22.3281460000 114.2300540000,22.3282610000 114.2299290000,22.3284380000 114.2297020000,22.3287150000 114.2295860000,22.3288430000 114.2294800000,22.3289460000 114.2293640000,22.3290510000 114.2292640000,22.3291350000 114.2290920000,22.3292730000 114.2289180000,22.3293940000 114.2288030000,22.3294720000 114.2286880000,22.3295560000 114.2286090000,22.3296190000 114.2285710000,22.3296540000 114.2285340000,22.3296930000 114.2284960000,22.3297400000 114.2284560000,22.3297920000 114.2284170000,22.3298460000 114.2283880000,22.3298910000 114.2283510000,22.3299580000 114.2283170000,22.3300370000 114.2282900000,22.3301060000 114.2282640000,22.3301830000 114.2282440000,22.3302670000 114.2282330000,22.3303380000 114.2282270000,22.3303910000 114.2282220000,22.3304630000 114.2282230000,22.3305640000 114.2282310000,22.3306600000 114.2282420000,22.3307420000 114.2282590000,22.3308240000 114.2282880000,22.3309110000 114.2283070000,22.3309590000 114.2283290000,22.3310090000 114.2283510000,22.3310560000 114.2283750000,22.3310990000 114.2284060000,22.3311500000 114.2284350000,22.3311970000 114.2284630000,22.3312440000 114.2284900000,22.3312890000 114.2285180000,22.3313390000 114.2285440000,22.3313830000 114.2285710000,22.3314320000 114.2285970000,22.3314790000 114.2286240000,22.3315260000 114.2286500000,22.3315770000 114.2286710000,22.3316240000 114.2286880000,22.3316760000 114.2287000000,22.3317260000 114.2287100000,22.3317800000 114.2287190000,22.3318350000 114.2287240000,22.3318850000 114.2287250000,22.3319320000 114.2287240000,22.3319780000 114.2287200000,22.3320340000 114.2287100000,22.3320890000 114.2286950000,22.3321700000 114.2286820000,22.3322400000 114.2286240000,22.3323670000 114.2285640000,22.3324750000 114.2284990000,22.3325850000 114.2284280000,22.3327850000 114.2284030000,22.3328660000 114.2283900000,22.3329500000 114.2283820000,22.3330320000 114.2283710000,22.3331780000 114.2283670000,22.3332510000 114.2283480000,22.3337090000 114.2283370000,22.3339070000 114.2283320000,22.3339710000 114.2282490000,22.3340920000 114.2282230000,22.3341220000 114.2282060000,22.3341420000 114.2281310000,22.3341940000 114.2280750000,22.3342400000 114.2277940000,22.3342420000 114.2276810000,22.3342430000 114.2275880000,22.3342410000 114.2274470000,22.3342370000 114.2273070000,22.3342530000 114.2272540000,22.3342680000 114.2271550000,22.3343140000 114.2271210000,22.3343710000 114.2271140000,22.3343850000 114.2271070000,22.3343990000 114.2271030000,22.3344670000 114.2270710000,22.3344890000 114.2270530000,22.3345010000 114.2270340000,22.3345100000 114.2270140000,22.3345170000 114.2269970000,22.3345210000 114.2269760000,22.3345230000 114.2269510000,22.3345240000 114.2268390000,22.3344910000 114.2266300000,22.3343890000 114.2264630000,22.3343140000 114.2264060000,22.3342910000 114.2263740000,22.3342800000 114.2263350000,22.3342690000 114.2262910000,22.3342590000 114.2257710000,22.3342170000 114.2252890000,22.3341690000 114.2252440000,22.3341650000 114.2251670000,22.3341570000 114.2251250000,22.3341370000 114.2251100000,22.3341330000 114.2250640000,22.3341280000 114.2250120000,22.3341230000 114.2249720000,22.3341230000 114.2249280000,22.3341240000 114.2249170000,22.3341260000 114.2248840000,22.3341290000 114.2248060000,22.3341700000 114.2246900000,22.3342090000 114.2245790000,22.3342610000 114.2244750000,22.3343300000 114.2243960000,22.3343770000 114.2243380000,22.3344060000 114.2242620000,22.3344420000 114.2241320000,22.3344880000 114.2240490000,22.3344940000 114.2239930000,22.3344960000 114.2239130000,22.3344910000 114.2237620000,22.3344580000 114.2234800000,22.3343810000 114.2226090000,22.3341230000 114.2224460000,22.3340870000 114.2218510000,22.3339380000 114.2217870000,22.3339260000 114.2215860000,22.3339090000 114.2214970000,22.3339030000 114.2213630000,22.3338950000 114.2212640000,22.3338870000 114.2212070000,22.3338830000 114.2210910000,22.3338760000 114.2208340000,22.3338540000 114.2207720000,22.3338500000 114.2207350000,22.3338480000 114.2196830000,22.3337780000 114.2192760000,22.3337490000 114.2188060000,22.3337160000 114.2186390000,22.3337260000 114.2184620000,22.3337510000 114.2182370000,22.3338250000 114.2182170000,22.3338310000 114.2181450000,22.3338600000 114.2180180000,22.3339350000 114.2179590000,22.3339670000 114.2177640000,22.3341050000 114.2176050000,22.3342170000 114.2174840000,22.3342770000 114.2173080000,22.3343340000 114.2170840000,22.3343890000 114.2168050000,22.3344410000 114.2166530000,22.3344440000 114.2164920000,22.3344010000 114.2163890000,22.3343370000 114.2163010000,22.3342620000 114.2161270000,22.3340920000 114.2160690000,22.3340350000 114.2159710000,22.3339410000 114.2159150000,22.3338880000 114.2157880000,22.3338020000 114.2156700000,22.3337540000 114.2155070000,22.3337000000 114.2153410000,22.3336460000 114.2152540000,22.3336350000 114.2150780000,22.3336040000 114.2147300000,22.3335420000 114.2145920000,22.3335170000 114.2144250000,22.3334870000 114.2142200000,22.3334740000 114.2140340000,22.3334750000 114.2138670000,22.3335060000 114.2137520000,22.3335420000 114.2136130000,22.3335930000 114.2134680000,22.3336540000 114.2132990000,22.3337180000 114.2131850000,22.3337540000 114.2131190000,22.3337650000 114.2130530000,22.3337650000 114.2130000000,22.3337600000 114.2129110000,22.3337430000 114.2128170000,22.3337170000 114.2127420000,22.3336820000 114.2126550000,22.3336300000 114.2126360000,22.3336150000 114.2126150000,22.3335980000 114.2125230000,22.3335320000 114.2124270000,22.3334660000 114.2122090000,22.3337590000 114.2120330000,22.3339410000 114.2119050000,22.3340380000 114.2116770000,22.3341500000 114.2115060000,22.3342190000 114.2113180000,22.3342760000 114.2110930000,22.3343140000 114.2110010000,22.3343230000 114.2108550000,22.3343290000 114.2107120000,22.3343220000 114.2106140000,22.3343170000 114.2104470000,22.3343000000 114.2102250000,22.3342630000 114.2098980000,22.3341950000 114.2097940000,22.3341720000 114.2092650000,22.3340640000 114.2090910000,22.3340490000 114.2087050000,22.3340720000 114.2085150000,22.3341390000 114.2083270000,22.3342060000 114.2081940000,22.3342530000 114.2081090000,22.3342900000 114.2080000000,22.3343360000 114.2080050000,22.3344320000 114.2080030000,22.3345270000 114.2079940000,22.3345770000 114.2079880000,22.3346070000 114.2079790000,22.3346360000 114.2079570000,22.3346940000 114.2078730000,22.3348950000 114.2077320000,22.3351980000 114.2077250000,22.3352110000 114.2076860000,22.3352950000 114.2076510000,22.3353700000 114.2076190000,22.3354420000 114.2075480000,22.3355980000 114.2074350000,22.3358460000 114.2074100000,22.3359010000 114.2074010000,22.3359970000 114.2073760000,22.3360480000 114.2073560000,22.3360870000 114.2073230000,22.3361410000 114.2072850000,22.3361990000 114.2072740000,22.3362150000 114.2072580000,22.3362400000 114.2072210000,22.3362940000 114.2071800000,22.3363450000 114.2071440000,22.3363850000 114.2071020000,22.3364290000 114.2070320000,22.3364970000 114.2069650000,22.3365610000 114.2068930000,22.3366200000 114.2068400000,22.3366590000 114.2067850000,22.3366990000 114.2067040000,22.3367530000 114.2065980000,22.3368240000 114.2065370000,22.3368620000 114.2065140000,22.3368770000 114.2064720000,22.3369040000 114.2063830000,22.3369600000 114.2063260000,22.3369950000 114.2062660000,22.3370330000 114.2061340000,22.3371140000 114.2060170000,22.3371880000 114.2058320000,22.3372900000 114.2056660000,22.3373870000 114.2053080000,22.3375820000 114.2052530000,22.3375940000 114.2051460000,22.3375920000 114.2050520000,22.3375830000 114.2049260000,22.3375560000 114.2047910000,22.3375010000 114.2047630000,22.3374610000 114.2047270000,22.3374130000 114.2046360000,22.3373070000 114.2046060000,22.3372740000 114.2045900000,22.3372570000 114.2045240000,22.3371850000 114.2044780000,22.3371370000 114.2044330000,22.3370870000 114.2043880000,22.3370350000 114.2043570000,22.3369930000 114.2043310000,22.3369500000 114.2043100000,22.3369020000 114.2042700000,22.3367740000 114.2042730000,22.3367480000 114.2042710000,22.3367220000 114.2042660000,22.3366960000 114.2042520000,22.3366570000 114.2042290000,22.3366190000 114.2042000000,22.3365920000 114.2041620000,22.3365660000 114.2041180000,22.3365480000 114.2040890000,22.3365410000 114.2040590000,22.3365380000 114.2040280000,22.3365390000 114.2039900000,22.3365450000 114.2039530000,22.3365570000 114.2039190000,22.3365760000 114.2038890000,22.3365990000 114.2038640000,22.3366270000 114.2038450000,22.3366590000 114.2038320000,22.3366930000 114.2038250000,22.3367290000 114.2036130000,22.3369050000 114.2033700000,22.3371200000 114.2031680000,22.3372450000 114.2031400000,22.3372620000 114.2029660000,22.3374210000 114.2029080000,22.3374740000 114.2027220000,22.3375530000 114.2024620000,22.3376590000 114.2024210000,22.3376740000 114.2023620000,22.3376960000 114.2023130000,22.3377150000 114.2022930000,22.3376530000 114.2022740000,22.3376230000 114.2022200000,22.3375630000 114.2021380000,22.3374790000 114.2020610000,22.3374120000 114.2020270000,22.3374010000 114.2019920000,22.3373970000 114.2014950000,22.3373930000 114.2014010000,22.3373860000 114.2013120000,22.3373760000 114.2012380000,22.3373680000 114.2011880000,22.3373640000 114.2011060000,22.3373470000 114.2010650000,22.3370690000 114.2010380000,22.3367690000 114.2010280000,22.3366150000 114.2010270000,22.3364460000 114.2010250000,22.3364230000 114.2010240000,22.3363860000 114.2010160000,22.3363120000 114.2010220000,22.3362920000 114.2010210000,22.3362700000 114.2010150000,22.3362500000 114.2010090000,22.3362380000 114.2009870000,22.3362150000 114.2009660000,22.3362040000 114.2009430000,22.3361980000 114.2009180000,22.3361980000 114.2008970000,22.3362030000 114.2008780000,22.3362130000 114.2008610000,22.3362270000 114.2008490000,22.3362440000 114.2007920000,22.3363110000 114.2007400000,22.3363730000 114.2005580000,22.3364850000 114.2004750000,22.3365430000 114.2002890000,22.3366560000 114.2002410000,22.3366540000 114.2001860000,22.3366420000 114.2001430000,22.3366290000 114.2001070000,22.3366180000 114.1996100000,22.3364310000 114.1994530000,22.3363700000 114.1991900000,22.3362680000 114.1992850000,22.3362300000 114.1993420000,22.3361690000 114.1993990000,22.3360910000 114.1994630000,22.3359950000 114.1995230000,22.3358970000 114.1995790000,22.3357970000 114.1996310000,22.3356940000 114.1996780000,22.3355900000 114.1997210000,22.3354840000 114.1998270000,22.3352240000 114.1999290000,22.3349670000 114.2000580000,22.3346240000 114.2002680000,22.3340190000 114.2003880000,22.3336780000 114.2004130000,22.3335700000 114.2004260000,22.3334440000 114.2003870000,22.3332860000 114.2003610000,22.3332510000 114.2002750000,22.3331350000 114.2001000000,22.3330200000 114.1998400000,22.3329180000 114.1988000000,22.3325130000 114.1984900000,22.3323800000 114.1983070000,22.3322410000 114.1981770000,22.3321730000 114.1981350000,22.3321520000 114.1979820000,22.3320440000 114.1978310000,22.3319330000 114.1977600000,22.3318750000 114.1976150000,22.3317570000 114.1975890000,22.3317330000 114.1975470000,22.3316950000 114.1974980000,22.3316380000 114.1974550000,22.3315700000 114.1974120000,22.3314820000 114.1974000000,22.3314180000 114.1973830000,22.3313890000 114.1973660000,22.3313620000 114.1973140000,22.3313180000 114.1972500000,22.3312920000 114.1971800000,22.3312860000 114.1971120000,22.3313020000 114.1970530000,22.3313370000 114.1970100000,22.3313870000 114.1969850000,22.3314480000 114.1969840000,22.3315120000 114.1970040000,22.3315740000 114.1970440000,22.3316260000 114.1970970000,22.3316620000 114.1971580000,22.3316810000 114.1972220000,22.3316830000 114.1972780000,22.3316700000 114.1973690000,22.3317050000 114.1974360000,22.3317300000 114.1974800000,22.3317520000 114.1975350000,22.3317900000 114.1975470000,22.3317980000 114.1977070000,22.3319270000 114.1977840000,22.3319890000 114.1978330000,22.3320260000 114.1979450000,22.3321120000 114.1980230000,22.3321650000 114.1981030000,22.3322200000 114.1981650000,22.3322580000 114.1982590000,22.3323160000 114.1983930000,22.3324120000 114.1986350000,22.3325370000 114.1987400000,22.3325800000 114.1991440000,22.3327360000 114.1992840000,22.3327930000 114.1998130000,22.3329940000 114.1998440000,22.3330060000 114.1998770000,22.3330180000 114.2002190000,22.3331460000 114.2002820000,22.3331940000 114.2003620000,22.3332830000 114.2003610000,22.3333110000 114.2003690000,22.3333390000 114.2003910000,22.3333770000 114.2004240000,22.3334060000 114.2004660000,22.3334240000 114.2005280000,22.3334280000 114.2005570000,22.3334190000 114.2005960000,22.3333970000 114.2006610000,22.3333980000 114.2007470000,22.3334060000 114.2008110000,22.3334120000 114.2009140000,22.3334230000 114.2009760000,22.3334430000 114.2010180000,22.3334600000 114.2010810000,22.3335010000 114.2011400000,22.3335390000 114.2012310000,22.3336060000 114.2012790000,22.3336410000 114.2013260000,22.3336830000 114.2013850000,22.3337400000 114.2014260000,22.3337830000 114.2014650000,22.3338280000 114.2015080000,22.3338820000 114.2015320000,22.3339140000 114.2015560000,22.3339450000 114.2015950000,22.3340010000 114.2016340000,22.3340620000 114.2017720000,22.3342740000 114.2018280000,22.3343540000 114.2019000000,22.3344470000 114.2019770000,22.3345390000 114.2020340000,22.3346010000 114.2020880000,22.3346520000 114.2021360000,22.3346920000 114.2021850000,22.3347290000 114.2022560000,22.3347790000 114.2023240000,22.3348220000 114.2023940000,22.3348610000 114.2024580000,22.3348930000 114.2025210000,22.3349220000 114.2025880000,22.3349480000 114.2026730000,22.3349770000 114.2027620000,22.3350040000 114.2028490000,22.3350240000 114.2029330000,22.3350410000 114.2029750000,22.3350450000 114.2030640000,22.3350560000 114.2031110000,22.3350590000 114.2031780000,22.3350620000 114.2033770000,22.3350490000 114.2036650000,22.3349970000 114.2037300000,22.3350040000 114.2037960000,22.3349940000 114.2038560000,22.3349690000 114.2039070000,22.3349310000 114.2039460000,22.3348810000 114.2041190000,22.3347760000 114.2042280000,22.3347000000 114.2043250000,22.3346220000 114.2044190000,22.3345280000 114.2045090000,22.3344250000 114.2045690000,22.3343420000 114.2046190000,22.3342650000 114.2046630000,22.3341820000 114.2046970000,22.3341020000 114.2047240000,22.3340190000 114.2047430000,22.3339380000 114.2047550000,22.3338710000 114.2047630000,22.3337800000 114.2047640000,22.3336190000 114.2047600000,22.3333530000 114.2047600000,22.3333210000 114.2047590000,22.3332450000 114.2047590000,22.3331420000 114.2047610000,22.3330820000 114.2047640000,22.3330090000 114.2047640000,22.3329830000 114.2047860000,22.3327960000 114.2048000000,22.3326640000 114.2048100000,22.3325870000 114.2048300000,22.3324220000 114.2048710000,22.3320820000 114.2048740000,22.3317050000 114.2048750000,22.3314220000 114.2048760000,22.3313870000 114.2048770000,22.3312170000 114.2053360000,22.3312100000 114.2053860000,22.3311950000 114.2054670000,22.3311690000 114.2055110000,22.3312180000 114.2055300000,22.3312310000 114.2055660000,22.3312570000 114.2056600000,22.3312890000 114.2058060000,22.3312980000 114.2058560000,22.3313000000 114.2060440000,22.3313090000 114.2061510000,22.3313070000 114.2062240000,22.3312960000 114.2062460000,22.3312910000 114.2063530000,22.3312630000 114.2064750000,22.3312160000 114.2065670000,22.3311600000 114.2066550000,22.3310940000 114.2068990000,22.3309080000 114.2069670000,22.3308570000 114.2070250000,22.3308130000 114.2071730000,22.3306990000 114.2072440000,22.3306450000 114.2073210000,22.3305800000 114.2079850000,22.3300530000 114.2080100000,22.3300310000 114.2080840000,22.3299500000 114.2081390000,22.3298540000 114.2081640000,22.3297910000 114.2081850000,22.3297420000 114.2082120000,22.3296660000 114.2082380000,22.3293990000 114.2082620000,22.3291580000 114.2082680000,22.3290950000 114.2082820000,22.3289500000 114.2083150000,22.3286200000 114.2083540000,22.3282260000 114.2083950000,22.3278020000 114.2084110000,22.3276460000 114.2084240000,22.3275090000 114.2084940000,22.3268070000 114.2085030000,22.3267090000 114.2085110000,22.3266280000 114.2085150000,22.3265930000 114.2085240000,22.3264940000 114.2085480000,22.3262600000 114.2085660000,22.3260710000 114.2085850000,22.3258850000 114.2086000000,22.3256960000 114.2086040000,22.3256480000 114.2086130000,22.3255360000 114.2086280000,22.3254190000 114.2086500000,22.3252840000 114.2086540000,22.3252460000 114.2086670000,22.3251230000 114.2086990000,22.3248200000 114.2087250000,22.3245870000 114.2087360000,22.3244800000 114.2087570000,22.3242740000 114.2088220000,22.3236340000 114.2088320000,22.3235290000 114.2088550000,22.3233060000 114.2089290000,22.3225750000 114.2089300000,22.3225590000 114.2089400000,22.3224630000 114.2089450000,22.3224140000 114.2089680000,22.3221910000 114.2089980000,22.3218880000 114.2090000000,22.3218640000 114.2090140000,22.3217350000 114.2090240000,22.3216420000 114.2090310000,22.3215460000 114.2090350000,22.3215100000 114.2090530000,22.3213100000 114.2090590000,22.3212430000 114.2090700000,22.3211240000 114.2090830000,22.3209740000 114.2091240000,22.3205300000 114.2091270000,22.3204980000 114.2091390000,22.3203900000 114.2091520000,22.3202680000 114.2091570000,22.3202110000 114.2091840000,22.3199120000 114.2091990000,22.3198160000 114.2092050000,22.3197710000 114.2092130000,22.3197040000 114.2092190000,22.3196830000 114.2092740000,22.3194940000 114.2092780000,22.3194510000 114.2092950000,22.3192970000 114.2093060000,22.3192010000 114.2093130000,22.3190810000 114.2093150000,22.3190520000 114.2093170000,22.3190080000 114.2093190000,22.3189730000 114.2092970000,22.3187910000 114.2092770000,22.3187500000 114.2092970000,22.3185780000 114.2093110000,22.3185160000 114.2093300000,22.3184300000 114.2093370000,22.3183800000 114.2093510000,22.3182880000 114.2093720000,22.3181720000 114.2094220000,22.3180200000 114.2094620000,22.3179210000 114.2095090000,22.3178320000 114.2095840000,22.3178000000 114.2096850000,22.3176990000 114.2097720000,22.3176150000 114.2098800000,22.3175340000 114.2099480000,22.3174830000 114.2100110000,22.3174430000 114.2100790000,22.3174050000 114.2102040000,22.3173480000 114.2103040000,22.3173100000 114.2103910000,22.3172830000 114.2104700000,22.3172670000 114.2105740000,22.3172490000 114.2106810000,22.3172390000 114.2107860000,22.3172350000 114.2108870000,22.3172340000 114.2111870000,22.3172340000 114.2113070000,22.3172270000 114.2114440000,22.3172180000 114.2115280000,22.3172040000 114.2116190000,22.3171870000 114.2117670000,22.3171540000 114.2118800000,22.3171270000 114.2119770000,22.3170990000 114.2120540000,22.3170760000 114.2121070000,22.3170510000 114.2122780000,22.3169410000 114.2123740000,22.3169050000 114.2124740000,22.3168660000 114.2125880000,22.3168170000 114.2126860000,22.3167710000 114.2128020000,22.3167100000 114.2128780000,22.3166650000 114.2129570000,22.3166170000 114.2130380000,22.3165620000 114.2131120000,22.3165080000 114.2131720000,22.3164640000 114.2132510000,22.3164000000 114.2134680000,22.3162080000 114.2138690000,22.3158060000 114.2142290000,22.3154490000 114.2144950000,22.3151780000 114.2145580000,22.3151140000 114.2148470000,22.3148200000 114.2153530000,22.3142870000 114.2163560000,22.3132420000 114.2173930000,22.3121960000 114.2177430000,22.3118360000 114.2181890000,22.3113600000 114.2187700000,22.3106940000 114.2194920000,22.3097790000 114.2201190000,22.3089800000 114.2206900000,22.3082660000 114.2208580000,22.3080590000 114.2211120000,22.3077160000 114.2211320000,22.3076900000 114.2212710000,22.3074870000 114.2216420000,22.3069660000 114.2217420000,22.3068270000 114.2218470000,22.3066940000 114.2219330000,22.3065930000 114.2220580000,22.3064760000 114.2221670000,22.3063960000 114.2222180000,22.3063640000 114.2222530000,22.3063430000 114.2222790000,22.3063270000 114.2223060000,22.3063110000 114.2223280000,22.3063000000 114.2223460000,22.3062920000 114.2224310000,22.3062490000 114.2225170000,22.3062080000 114.2225920000,22.3061770000 114.2226550000,22.3061540000 114.2227520000,22.3061270000 114.2228370000,22.3061070000 114.2229130000,22.3060920000 114.2230030000,22.3060800000 114.2230840000,22.3060760000 114.2231720000,22.3060700000 114.2232510000,22.3060690000 114.2233290000,22.3060720000 114.2234080000,22.3060790000 114.2235050000,22.3060910000 114.2235800000,22.3061040000 114.2236310000,22.3061140000 114.2236610000,22.3061190000 114.2237260000,22.3061370000 114.2238140000,22.3061650000 114.2238910000,22.3061920000 114.2239620000,22.3062230000 114.2240380000,22.3062580000 114.2241160000,22.3062990000 114.2242250000,22.3063630000 114.2242840000,22.3063970000 114.2244660000,22.3065270000 114.2246430000,22.3066550000 114.2247820000,22.3067600000 114.2253170000,22.3071670000 114.2261930000,22.3078320000 114.2263050000,22.3079090000 114.2263390000,22.3079310000 114.2265030000,22.3080390000 114.2266330000,22.3081100000 114.2267610000,22.3081800000 114.2269680000,22.3082750000 114.2270750000,22.3083210000 114.2271530000,22.3083550000 114.2272160000,22.3083810000 114.2272570000,22.3083980000 114.2273690000,22.3084400000 114.2276000000,22.3085110000 114.2277000000,22.3085340000 114.2277540000,22.3085460000 114.2286010000,22.3087410000 114.2288660000,22.3087920000 114.2292800000,22.3088830000 114.2295850000,22.3089080000 114.2296840000,22.3089260000 114.2297230000,22.3089350000 114.2299840000,22.3089970000 114.2301460000,22.3090300000 114.2302740000,22.3090520000 114.2303890000,22.3090620000 114.2306130000,22.3090710000 114.2307740000,22.3090660000 114.2309120000,22.3090500000 114.2310670000,22.3090210000 114.2311800000,22.3089880000 114.2312760000,22.3089540000 114.2314070000,22.3088970000 114.2315090000,22.3088430000 114.2316160000,22.3087700000 114.2317040000,22.3087010000 114.2317980000,22.3086180000 114.2319070000,22.3085110000 114.2320500000,22.3083540000 114.2325270000,22.3078050000 114.2330240000,22.3072430000 114.2333730000,22.3068320000 114.2334400000,22.3067510000 114.2334880000,22.3066920000 114.2335350000,22.3066360000 114.2335690000,22.3065960000 114.2336010000,22.3065590000 114.2337480000,22.3063870000 114.2339860000,22.3060810000 114.2341080000,22.3059240000 114.2342170000,22.3057950000 114.2346240000,22.3053270000 114.2347410000,22.3052050000 114.2349220000,22.3049880000 114.2350090000,22.3048730000 114.2351640000,22.3046430000 114.2352000000,22.3045790000 114.2352410000,22.3045080000 114.2352780000,22.3044340000 114.2353120000,22.3043600000 114.2353430000,22.3042840000 114.2353690000,22.3042160000 114.2354120000,22.3040690000 114.2354480000,22.3039210000 114.2354810000,22.3036930000 114.2354950000,22.3035510000 114.2355000000,22.3034080000 114.2354960000,22.3032660000 114.2354830000,22.3031240000 114.2354610000,22.3029820000 114.2354300000,22.3028420000 114.2353910000,22.3027050000 114.2353420000,22.3025680000 114.2352850000,22.3024350000 114.2352190000,22.3023050000 114.2351460000,22.3021790000 114.2350640000,22.3020580000 114.2349750000,22.3019400000 114.2348790000,22.3018280000 114.2347780000,22.3017240000 114.2346390000,22.3015520000 114.2345070000,22.3014210000 114.2343180000,22.3012460000 114.2341660000,22.3011500000 114.2340250000,22.3010750000 114.2339420000,22.3010210000 114.2336720000,22.3008600000 114.2335880000,22.3008100000 114.2333650000,22.3006800000 114.2332200000,22.3004080000 114.2329980000,22.3002730000 114.2329560000,22.3002480000 114.2328710000,22.3001990000 114.2327510000,22.3001320000 114.2325430000,22.3000570000 114.2320890000,22.2999830000 114.2318680000,22.2998750000 114.2317430000,22.2998160000 114.2316660000,22.2997790000 114.2315800000,22.2997260000 114.2314320000,22.2996350000 114.2313190000,22.2995710000 114.2310720000,22.2994350000 114.2306520000,22.2992110000 114.2302200000,22.2989800000 114.2298200000,22.2987710000 114.2130560000,22.2900030000 114.2128440000,22.2899070000 114.2127060000,22.2898440000 114.2125860000,22.2897730000 114.2124740000,22.2897070000 114.2123600000,22.2896000000 114.2122670000,22.2894860000 114.2122090000,22.2893950000 114.2121680000,22.2892920000 114.2121400000,22.2891850000 114.2121200000,22.2890270000 114.2121470000,22.2888410000 114.2122100000,22.2886710000 114.2122970000,22.2885530000 114.2123720000,22.2884540000 114.2124960000,22.2883420000 114.2125380000,22.2883110000 114.2125850000,22.2882810000 114.2126310000,22.2882570000 114.2126850000,22.2882350000 114.2127430000,22.2882140000 114.2127940000,22.2882010000 114.2128560000,22.2881890000 114.2129360000,22.2881790000 114.2129840000,22.2881760000 114.2130360000,22.2881770000 114.2130960000,22.2881810000 114.2131550000,22.2881860000 114.2132400000,22.2881960000 114.2132850000,22.2882050000 114.2133340000,22.2882180000 114.2133790000,22.2882330000 114.2134300000,22.2882510000 114.2134880000,22.2882750000 114.2135370000,22.2882990000 114.2135840000,22.2883260000 114.2137210000,22.2884180000 114.2138170000,22.2884990000 114.2138970000,22.2885760000 114.2140250000,22.2887080000 114.2142780000,22.2889890000 114.2143530000,22.2890690000 114.2144450000,22.2891560000 114.2145170000,22.2892190000 114.2146040000,22.2892840000 114.2147290000,22.2893620000 114.2148450000,22.2894180000 114.2149300000,22.2894480000 114.2150310000,22.2894730000 114.2151300000,22.2894900000 114.2152190000,22.2894980000 114.2152940000,22.2895020000 114.2153770000,22.2895000000 114.2155120000,22.2894880000 114.2156530000,22.2894700000 114.2157550000,22.2894540000 114.2164130000,22.2893270000 114.2164800000,22.2893130000 114.2167600000,22.2892600000 114.2170150000,22.2892090000 114.2175060000,22.2891330000 114.2189290000,22.2887910000 114.2192940000,22.2887030000 114.2194430000,22.2886760000 114.2201540000,22.2885500000 114.2203430000,22.2885060000 114.2205780000,22.2884310000 114.2207340000,22.2883680000 114.2208710000,22.2882970000 114.2209830000,22.2882290000 114.2210790000,22.2881610000 114.2212180000,22.2880420000 114.2213650000,22.2878910000 114.2214470000,22.2877890000 114.2215190000,22.2876910000 114.2215890000,22.2875770000 114.2216580000,22.2874390000 114.2217170000,22.2872920000 114.2217670000,22.2871360000 114.2217910000,22.2870320000 114.2218150000,22.2868850000 114.2218330000,22.2867310000 114.2218430000,22.2865610000 114.2218440000,22.2863850000 114.2218350000,22.2862270000 114.2217780000,22.2855990000 114.2217650000,22.2854190000 114.2217630000,22.2852390000 114.2217660000,22.2850970000 114.2217700000,22.2850060000 114.2217870000,22.2848230000 114.2218020000,22.2847340000 114.2218180000,22.2846630000 114.2218390000,22.2845850000 114.2218660000,22.2844980000 114.2218990000,22.2844080000 114.2219460000,22.2842920000 114.2219980000,22.2841830000 114.2220520000,22.2840830000 114.2221160000,22.2839800000 114.2221810000,22.2838840000 114.2222630000,22.2837750000 114.2236130000,22.2820710000 114.2236950000,22.2819720000 114.2237730000,22.2818930000 114.2238680000,22.2817980000 114.2239940000,22.2816860000 114.2240740000,22.2816230000 114.2243320000,22.2814630000 114.2247000000,22.2812770000 114.2253170000,22.2809880000 114.2256640000,22.2807990000 114.2260690000,22.2805100000 114.2262700000,22.2803170000 114.2264320000,22.2801820000 114.2267530000,22.2798990000 114.2269200000,22.2797610000 114.2271600000,22.2796100000 114.2272000000,22.2795900000 114.2276640000,22.2794070000 114.2277160000,22.2793840000 114.2277690000,22.2793580000 114.2278320000,22.2793200000 114.2278850000,22.2792800000 114.2279320000,22.2792390000 114.2279800000,22.2791910000 114.2280290000,22.2791330000 114.2280740000,22.2790650000 114.2281080000,22.2789990000 114.2281340000,22.2789340000 114.2281510000,22.2788730000 114.2281630000,22.2788100000 114.2281730000,22.2787370000 114.2282510000,22.2778930000 114.2282580000,22.2777710000 114.2282570000,22.2777060000 114.2282520000,22.2776390000 114.2282440000,22.2775730000 114.2282330000,22.2775110000 114.2282050000,22.2774010000 114.2281980000,22.2773560000 114.2281880000,22.2772930000 114.2281830000,22.2772430000 114.2281810000,22.2771950000 114.2281820000,22.2771480000 114.2281860000,22.2771010000 114.2281940000,22.2770560000 114.2282070000,22.2770120000 114.2282330000,22.2769560000 114.2282670000,22.2769030000 114.2282900000,22.2768750000 114.2283150000,22.2768480000 114.2283670000,22.2768000000 114.2284320000,22.2767500000 114.2285110000,22.2767050000 114.2285990000,22.2766630000 114.2286900000,22.2766190000 114.2291290000,22.2764080000 114.2294120000,22.2762800000 114.2294590000,22.2762400000 114.2295230000,22.2761780000 114.2295560000,22.2761490000 114.2295950000,22.2761170000 114.2297530000,22.2759980000 114.2298280000,22.2759560000 114.2299010000,22.2759190000 114.2299900000,22.2758800000 114.2301700000,22.2758300000 114.2303600000,22.2757880000 114.2304510000,22.2757610000 114.2305390000,22.2757280000 114.2306330000,22.2756830000 114.2307100000,22.2756380000 114.2307410000,22.2756130000 114.2307720000,22.2755880000 114.2308090000,22.2755580000 114.2308440000,22.2755120000 114.2308760000,22.2754510000 114.2308950000,22.2753940000 114.2310180000,22.2748910000 114.2310850000,22.2746350000 114.2311680000,22.2744030000 114.2312180000,22.2742900000 114.2312750000,22.2741770000 114.2313640000,22.2740490000 114.2314730000,22.2739210000 114.2315910000,22.2738040000 114.2316730000,22.2737380000 114.2319450000,22.2735490000 114.2320690000,22.2734620000 114.2321510000,22.2734040000 114.2322780000,22.2733100000 114.2323490000,22.2732520000 114.2323990000,22.2732040000 114.2324620000,22.2731350000 114.2325200000,22.2730660000 114.2325820000,22.2729820000 114.2326380000,22.2728990000 114.2326860000,22.2728180000 114.2327310000,22.2727310000 114.2327740000,22.2726390000 114.2328030000,22.2725650000 114.2330300000,22.2719100000 114.2331900000,22.2714510000 114.2332450000,22.2713120000 114.2333040000,22.2711840000 114.2333230000,22.2711500000 114.2333400000,22.2711180000 114.2334140000,22.2709930000 114.2335170000,22.2708500000 114.2335680000,22.2707610000 114.2336030000,22.2706830000 114.2336320000,22.2706050000 114.2336600000,22.2705030000 114.2337520000,22.2700790000 114.2337650000,22.2700050000 114.2337760000,22.2699160000 114.2337810000,22.2698310000 114.2337790000,22.2697430000 114.2337730000,22.2696550000 114.2337380000,22.2694270000 114.2336780000,22.2690620000 114.2336710000,22.2690220000 114.2336450000,22.2688730000 114.2335910000,22.2685100000 114.2335780000,22.2683920000 114.2335700000,22.2682800000 114.2335710000,22.2681820000 114.2335900000,22.2678530000 114.2336130000,22.2675010000 114.2336320000,22.2672200000 114.2337650000,22.2655900000 114.2337910000,22.2653900000 114.2338300000,22.2652500000 114.2338890000,22.2651100000 114.2339720000,22.2649900000 114.2340900000,22.2648700000 114.2342170000,22.2647650000 114.2343200000,22.2646800000 114.2344270000,22.2645940000 114.2346580000,22.2644090000 114.2347670000,22.2643220000 114.2349620000,22.2641650000 114.2350800000,22.2640700000 114.2350900000,22.2640630000 114.2354440000,22.2637920000 114.2355110000,22.2637400000 114.2355890000,22.2636900000 114.2356730000,22.2636420000 114.2357680000,22.2635970000 114.2358800000,22.2635540000 114.2359700000,22.2635270000 114.2360400000,22.2635080000 114.2361200000,22.2634900000 114.2362000000,22.2634750000 114.2363100000,22.2634620000 114.2365200000,22.2634500000 114.2367700000,22.2634400000 114.2368600000,22.2634380000 114.2369700000,22.2634500000 114.2370890000,22.2634860000 114.2371700000,22.2635300000 114.2373260000,22.2636430000 114.2373760000,22.2636710000 114.2374360000,22.2636960000 114.2374940000,22.2637150000 114.2375500000,22.2637220000 114.2376200000,22.2637200000 114.2377100000,22.2637000000 114.2378250000,22.2636360000 114.2378790000,22.2635620000 114.2379500000,22.2634860000 114.2380120000,22.2634230000 114.2380610000,22.2633830000 114.2381220000,22.2633470000 114.2381760000,22.2633220000 114.2382370000,22.2633010000 114.2383030000,22.2632890000 114.2383670000,22.2632820000 114.2386550000,22.2632730000 114.2387300000,22.2632740000 114.2387960000,22.2632790000 114.2388840000,22.2632910000 114.2389810000,22.2633100000 114.2390720000,22.2633330000 114.2391440000,22.2633560000 114.2392150000,22.2633860000 114.2392780000,22.2634160000 114.2393860000,22.2634700000 114.2394760000,22.2635200000 114.2395630000,22.2635810000 114.2399460000,22.2638600000 114.2402520000,22.2640810000 114.2404460000,22.2642240000 114.2406180000,22.2643500000 114.2406860000,22.2643990000 114.2407800000,22.2644710000 114.2408980000,22.2645580000 114.2417990000,22.2652170000 114.2420970000,22.2654330000 114.2424540000,22.2656840000 114.2426890000,22.2658520000 114.2427250000,22.2659210000 114.2427500000,22.2659690000 114.2427780000,22.2660330000 114.2428060000,22.2660950000 114.2428260000,22.2661690000 114.2428420000,22.2662580000 114.2428430000,22.2663230000 114.2428450000,22.2664140000 114.2427270000,22.2667420000 114.2425220000,22.2670540000 114.2419950000,22.2676980000 114.2419220000,22.2678040000 114.2418100000,22.2679900000 114.2416930000,22.2681530000 114.2415340000,22.2682790000 114.2413910000,22.2683650000 114.2410990000,22.2685190000 114.2408070000,22.2686470000 114.2398400000,22.2690690000 114.2397860000,22.2690900000 114.2395950000,22.2690920000 114.2394650000,22.2690060000 114.2392870000,22.2686790000 114.2391310000,22.2686130000 114.2389260000,22.2685970000 114.2388460000,22.2686320000 114.2386290000,22.2687430000 114.2385300000,22.2688420000 114.2384580000,22.2689600000 114.2384250000,22.2690920000 114.2384320000,22.2692400000 114.2385490000,22.2695210000 114.2388580000,22.2701210000 114.2389780000,22.2702620000 114.2390430000,22.2703170000 114.2391310000,22.2703750000 114.2391960000,22.2704060000 114.2392490000,22.2704240000 114.2393360000,22.2704470000 114.2394060000,22.2704510000 114.2394660000,22.2704570000 114.2395360000,22.2704540000 114.2396060000,22.2704430000 114.2396260000,22.2704370000 114.2396630000,22.2704250000 114.2400230000,22.2702520000 114.2401390000,22.2702080000 114.2401930000,22.2701860000 114.2402910000,22.2701490000 114.2403530000,22.2702650000 114.2403790000,22.2703150000 114.2406900000,22.2709730000 114.2408000000,22.2710900000 114.2408290000,22.2711600000 114.2410890000,22.2717740000 114.2412820000,22.2722380000 114.2414130000,22.2726530000 114.2414610000,22.2729170000 114.2414890000,22.2732080000 114.2414980000,22.2736650000 114.2414900000,22.2739670000 114.2414950000,22.2744050000 114.2414960000,22.2744460000 114.2414970000,22.2745570000 114.2414940000,22.2746370000 114.2414890000,22.2747380000 114.2414670000,22.2749260000 114.2414400000,22.2750960000 114.2414090000,22.2752090000 114.2413040000,22.2754630000 114.2411970000,22.2756480000 114.2411190000,22.2757630000 114.2410890000,22.2757990000 114.2410100000,22.2758940000 114.2409330000,22.2759870000 114.2408750000,22.2760570000 114.2407600000,22.2761960000 114.2405850000,22.2764070000 114.2404670000,22.2765800000 114.2403450000,22.2767240000 114.2402790000,22.2768180000 114.2402360000,22.2768320000 114.2402000000,22.2768570000 114.2401740000,22.2768910000 114.2401600000,22.2769310000 114.2401620000,22.2769770000 114.2401820000,22.2770200000 114.2402160000,22.2770550000 114.2402490000,22.2770720000 114.2402860000,22.2770800000 114.2403240000,22.2770790000 114.2403600000,22.2770690000 114.2404660000,22.2771050000 114.2404740000,22.2771180000 114.2406580000,22.2773630000 114.2405750000,22.2774450000</coordinates>
                </LineString>
                <ExtendedData>
                    <Data name="duration">
                        <value>01:05:41</value>
                    </Data>
                    <Data name="length">
                        <value>48564.87628791657</value>
                    </Data>
                </ExtendedData>
            </Placemark>
        </Document>
    </Document>
</kml>