<?xml version="1.0" encoding="UTF-8"?>
<kml xmlns="http://www.opengis.net/kml/2.2" xmlns:gx="http://www.google.com/kml/ext/2.2">
    <Document>
        <name>Route</name>
        <Folder>
            <name>Route Request</name>
            <Placemark>
                <address>Central (Macau Ferry), Chung Kong Road, Tai Ping Shan, Sheung Wan, Central and Western District, Hong Kong Island, Hong Kong, China</address>
                <Point>
                    <coordinates>114.1498768801,22.2889290601</coordinates>
                </Point>
                <ExtendedData>
                    <Data name="highway">
                        <value>Central (Macau Ferry)</value>
                    </Data>
                    <Data name="road">
                        <value>Chung Kong Road</value>
                    </Data>
                    <Data name="state">
                        <value>Hong Kong</value>
                    </Data>
                    <Data name="neighbourhood">
                        <value>Tai Ping Shan</value>
                    </Data>
                    <Data name="ISO3166-2-lvl3">
                        <value>CN-HK</value>
                    </Data>
                    <Data name="suburb">
                        <value>Sheung Wan</value>
                    </Data>
                    <Data name="country">
                        <value>China</value>
                    </Data>
                    <Data name="city_district">
                        <value>Central and Western District</value>
                    </Data>
                    <Data name="country_code">
                        <value>cn</value>
                    </Data>
                    <Data name="city">
                        <value>Hong Kong Island</value>
                    </Data>
                </ExtendedData>
            </Placemark>
            <Placemark>
                <address>Shiu Kin Lane, Morrison Hill, Wan Chai, Wan Chai District, Hong Kong Island, Hong Kong, 000000, China</address>
                <Point>
                    <coordinates>114.1780593181,22.2752100621</coordinates>
                </Point>
                <ExtendedData>
                    <Data name="road">
                        <value>Shiu Kin Lane</value>
                    </Data>
                    <Data name="quarter">
                        <value>Morrison Hill</value>
                    </Data>
                    <Data name="state">
                        <value>Hong Kong</value>
                    </Data>
                    <Data name="ISO3166-2-lvl3">
                        <value>CN-HK</value>
                    </Data>
                    <Data name="suburb">
                        <value>Wan Chai</value>
                    </Data>
                    <Data name="city_district">
                        <value>Wan Chai District</value>
                    </Data>
                    <Data name="country">
                        <value>China</value>
                    </Data>
                    <Data name="country_code">
                        <value>cn</value>
                    </Data>
                    <Data name="city">
                        <value>Hong Kong Island</value>
                    </Data>
                    <Data name="postcode">
                        <value>000000</value>
                    </Data>
                </ExtendedData>
            </Placemark>
            <Placemark>
                <address>Vessel 3, 86, Hoi Bun Road, Ngau Tau Kok Industrial Area, Ngau Tau Kok, Kwun Tong District, Kowloon, Hong Kong, China</address>
                <Point>
                    <coordinates>114.2156621581,22.3135932726</coordinates>
                </Point>
                <ExtendedData>
                    <Data name="road">
                        <value>Hoi Bun Road</value>
                    </Data>
                    <Data name="quarter">
                        <value>Ngau Tau Kok Industrial Area</value>
                    </Data>
                    <Data name="state">
                        <value>Hong Kong</value>
                    </Data>
                    <Data name="amenity">
                        <value>Vessel 3</value>
                    </Data>
                    <Data name="ISO3166-2-lvl3">
                        <value>CN-HK</value>
                    </Data>
                    <Data name="suburb">
                        <value>Ngau Tau Kok</value>
                    </Data>
                    <Data name="country">
                        <value>China</value>
                    </Data>
                    <Data name="city_district">
                        <value>Kwun Tong District</value>
                    </Data>
                    <Data name="country_code">
                        <value>cn</value>
                    </Data>
                    <Data name="house_number">
                        <value>86</value>
                    </Data>
                    <Data name="city">
                        <value>Kowloon</value>
                    </Data>
                </ExtendedData>
            </Placemark>
            <Placemark>
                <address>Mazda, 15, Wang Chiu Road, Kowloon Bay Business Area, Kowloon Bay, Kwun Tong District, Kowloon, Hong Kong, China</address>
                <Point>
                    <coordinates>114.2086476420,22.3242294310</coordinates>
                </Point>
                <ExtendedData>
                    <Data name="road">
                        <value>Wang Chiu Road</value>
                    </Data>
                    <Data name="quarter">
                        <value>Kowloon Bay Business Area</value>
                    </Data>
                    <Data name="state">
                        <value>Hong Kong</value>
                    </Data>
                    <Data name="ISO3166-2-lvl3">
                        <value>CN-HK</value>
                    </Data>
                    <Data name="shop">
                        <value>Mazda</value>
                    </Data>
                    <Data name="suburb">
                        <value>Kowloon Bay</value>
                    </Data>
                    <Data name="country">
                        <value>China</value>
                    </Data>
                    <Data name="city_district">
                        <value>Kwun Tong District</value>
                    </Data>
                    <Data name="country_code">
                        <value>cn</value>
                    </Data>
                    <Data name="house_number">
                        <value>15</value>
                    </Data>
                    <Data name="city">
                        <value>Kowloon</value>
                    </Data>
                </ExtendedData>
            </Placemark>
            <Placemark>
                <address>SKH Kowloon Bay Kei Lok Primary School, 6, Kai Yan Street, Kowloon Bay Business Area, Kowloon Bay, Kwun Tong District, Kowloon, Hong Kong, China</address>
                <Point>
                    <coordinates>114.2061922210,22.3290702100</coordinates>
                </Point>
                <ExtendedData>
                    <Data name="road">
                        <value>Kai Yan Street</value>
                    </Data>
                    <Data name="quarter">
                        <value>Kowloon Bay Business Area</value>
                    </Data>
                    <Data name="state">
                        <value>Hong Kong</value>
                    </Data>
                    <Data name="amenity">
                        <value>SKH Kowloon Bay Kei Lok Primary School</value>
                    </Data>
                    <Data name="ISO3166-2-lvl3">
                        <value>CN-HK</value>
                    </Data>
                    <Data name="suburb">
                        <value>Kowloon Bay</value>
                    </Data>
                    <Data name="country">
                        <value>China</value>
                    </Data>
                    <Data name="city_district">
                        <value>Kwun Tong District</value>
                    </Data>
                    <Data name="country_code">
                        <value>cn</value>
                    </Data>
                    <Data name="house_number">
                        <value>6</value>
                    </Data>
                    <Data name="city">
                        <value>Kowloon</value>
                    </Data>
                </ExtendedData>
            </Placemark>
            <Placemark>
                <address>Tak Sui House, Shin Lun Lane, Kai Tak Grid Neighbourhood, Kai Tak, Kowloon City District, Kowloon, Hong Kong, China</address>
                <Point>
                    <coordinates>114.2043172287,22.3279673225</coordinates>
                </Point>
                <ExtendedData>
                    <Data name="building">
                        <value>Tak Sui House</value>
                    </Data>
                    <Data name="road">
                        <value>Shin Lun Lane</value>
                    </Data>
                    <Data name="state">
                        <value>Hong Kong</value>
                    </Data>
                    <Data name="neighbourhood">
                        <value>Kai Tak Grid Neighbourhood</value>
                    </Data>
                    <Data name="ISO3166-2-lvl3">
                        <value>CN-HK</value>
                    </Data>
                    <Data name="suburb">
                        <value>Kai Tak</value>
                    </Data>
                    <Data name="country">
                        <value>China</value>
                    </Data>
                    <Data name="city_district">
                        <value>Kowloon City District</value>
                    </Data>
                    <Data name="country_code">
                        <value>cn</value>
                    </Data>
                    <Data name="city">
                        <value>Kowloon</value>
                    </Data>
                </ExtendedData>
            </Placemark>
            <Placemark>
                <address>Kai San Road, Nga Tsin Wai, Tai Hom, San Po Kong, Wong Tai Sin District, Kowloon, Hong Kong, China</address>
                <Point>
                    <coordinates>114.1997555471,22.3356746670</coordinates>
                </Point>
                <ExtendedData>
                    <Data name="road">
                        <value>Kai San Road</value>
                    </Data>
                    <Data name="state">
                        <value>Hong Kong</value>
                    </Data>
                    <Data name="neighbourhood">
                        <value>Tai Hom</value>
                    </Data>
                    <Data name="ISO3166-2-lvl3">
                        <value>CN-HK</value>
                    </Data>
                    <Data name="suburb">
                        <value>San Po Kong</value>
                    </Data>
                    <Data name="country">
                        <value>China</value>
                    </Data>
                    <Data name="city_district">
                        <value>Wong Tai Sin District</value>
                    </Data>
                    <Data name="country_code">
                        <value>cn</value>
                    </Data>
                    <Data name="city">
                        <value>Kowloon</value>
                    </Data>
                </ExtendedData>
            </Placemark>
            <Placemark>
                <address>Tsz Wan Shan (North) Bus Terminus, Tsz Wan Shan Road, Fung Wong New Village, Tsz Wan Shan, Wong Tai Sin District, Kowloon, Hong Kong, China</address>
                <Point>
                    <coordinates>114.1981108837,22.3511184332</coordinates>
                </Point>
                <ExtendedData>
                    <Data name="highway">
                        <value>Tsz Wan Shan (North) Bus Terminus</value>
                    </Data>
                    <Data name="road">
                        <value>Tsz Wan Shan Road</value>
                    </Data>
                    <Data name="state">
                        <value>Hong Kong</value>
                    </Data>
                    <Data name="neighbourhood">
                        <value>Fung Wong New Village</value>
                    </Data>
                    <Data name="ISO3166-2-lvl3">
                        <value>CN-HK</value>
                    </Data>
                    <Data name="suburb">
                        <value>Tsz Wan Shan</value>
                    </Data>
                    <Data name="country">
                        <value>China</value>
                    </Data>
                    <Data name="city_district">
                        <value>Wong Tai Sin District</value>
                    </Data>
                    <Data name="country_code">
                        <value>cn</value>
                    </Data>
                    <Data name="city">
                        <value>Kowloon</value>
                    </Data>
                </ExtendedData>
            </Placemark>
            <Placemark>
                <address>Kai Tak Substation, Concorde Road, Kai Tak North, Kai Tak, Kowloon City District, Kowloon, Hong Kong, 000000, China</address>
                <Point>
                    <coordinates>114.2003721833,22.3337601131</coordinates>
                </Point>
                <ExtendedData>
                    <Data name="building">
                        <value>Kai Tak Substation</value>
                    </Data>
                    <Data name="road">
                        <value>Concorde Road</value>
                    </Data>
                    <Data name="state">
                        <value>Hong Kong</value>
                    </Data>
                    <Data name="neighbourhood">
                        <value>Kai Tak North</value>
                    </Data>
                    <Data name="ISO3166-2-lvl3">
                        <value>CN-HK</value>
                    </Data>
                    <Data name="suburb">
                        <value>Kai Tak</value>
                    </Data>
                    <Data name="city_district">
                        <value>Kowloon City District</value>
                    </Data>
                    <Data name="country">
                        <value>China</value>
                    </Data>
                    <Data name="country_code">
                        <value>cn</value>
                    </Data>
                    <Data name="city">
                        <value>Kowloon</value>
                    </Data>
                    <Data name="postcode">
                        <value>000000</value>
                    </Data>
                </ExtendedData>
            </Placemark>
            <Placemark>
                <address>Block 14, Wang Chiu Road, Ping Shek, Kwun Tong District, Kowloon, Hong Kong, China</address>
                <Point>
                    <coordinates>114.2072555030,22.3304950409</coordinates>
                </Point>
                <ExtendedData>
                    <Data name="building">
                        <value>Block 14</value>
                    </Data>
                    <Data name="road">
                        <value>Wang Chiu Road</value>
                    </Data>
                    <Data name="state">
                        <value>Hong Kong</value>
                    </Data>
                    <Data name="ISO3166-2-lvl3">
                        <value>CN-HK</value>
                    </Data>
                    <Data name="suburb">
                        <value>Ping Shek</value>
                    </Data>
                    <Data name="country">
                        <value>China</value>
                    </Data>
                    <Data name="city_district">
                        <value>Kwun Tong District</value>
                    </Data>
                    <Data name="country_code">
                        <value>cn</value>
                    </Data>
                    <Data name="city">
                        <value>Kowloon</value>
                    </Data>
                </ExtendedData>
            </Placemark>
            <Placemark>
                <address>Sheung Yuet Road, Kowloon Bay, Wang Chiu Road, Kowloon Bay Business Area, Kowloon Bay, Kwun Tong District, Kowloon, Hong Kong, China</address>
                <Point>
                    <coordinates>114.2090358863,22.3206690016</coordinates>
                </Point>
                <ExtendedData>
                    <Data name="highway">
                        <value>Sheung Yuet Road, Kowloon Bay</value>
                    </Data>
                    <Data name="road">
                        <value>Wang Chiu Road</value>
                    </Data>
                    <Data name="quarter">
                        <value>Kowloon Bay Business Area</value>
                    </Data>
                    <Data name="state">
                        <value>Hong Kong</value>
                    </Data>
                    <Data name="ISO3166-2-lvl3">
                        <value>CN-HK</value>
                    </Data>
                    <Data name="suburb">
                        <value>Kowloon Bay</value>
                    </Data>
                    <Data name="country">
                        <value>China</value>
                    </Data>
                    <Data name="city_district">
                        <value>Kwun Tong District</value>
                    </Data>
                    <Data name="country_code">
                        <value>cn</value>
                    </Data>
                    <Data name="city">
                        <value>Kowloon</value>
                    </Data>
                </ExtendedData>
            </Placemark>
            <Placemark>
                <address>Hoi Bun Road, Kwun Tong Business Area, Kwun Tong, Kwun Tong District, Kowloon, Hong Kong, China</address>
                <Point>
                    <coordinates>114.2196350552,22.3095556054</coordinates>
                </Point>
                <ExtendedData>
                    <Data name="road">
                        <value>Hoi Bun Road</value>
                    </Data>
                    <Data name="quarter">
                        <value>Kwun Tong Business Area</value>
                    </Data>
                    <Data name="state">
                        <value>Hong Kong</value>
                    </Data>
                    <Data name="ISO3166-2-lvl3">
                        <value>CN-HK</value>
                    </Data>
                    <Data name="suburb">
                        <value>Kwun Tong</value>
                    </Data>
                    <Data name="country">
                        <value>China</value>
                    </Data>
                    <Data name="city_district">
                        <value>Kwun Tong District</value>
                    </Data>
                    <Data name="country_code">
                        <value>cn</value>
                    </Data>
                    <Data name="city">
                        <value>Kowloon</value>
                    </Data>
                </ExtendedData>
            </Placemark>
            <Placemark>
                <address>Wanchai Post Office, 197-213, Queen's Road East, Wan Chai South, Wan Chai, Wan Chai District, Hong Kong Island, Hong Kong, China</address>
                <Point>
                    <coordinates>114.1726860419,22.2744172909</coordinates>
                </Point>
                <ExtendedData>
                    <Data name="road">
                        <value>Queen's Road East</value>
                    </Data>
                    <Data name="quarter">
                        <value>Wan Chai South</value>
                    </Data>
                    <Data name="amenity">
                        <value>Wanchai Post Office</value>
                    </Data>
                    <Data name="state">
                        <value>Hong Kong</value>
                    </Data>
                    <Data name="ISO3166-2-lvl3">
                        <value>CN-HK</value>
                    </Data>
                    <Data name="suburb">
                        <value>Wan Chai</value>
                    </Data>
                    <Data name="city_district">
                        <value>Wan Chai District</value>
                    </Data>
                    <Data name="country">
                        <value>China</value>
                    </Data>
                    <Data name="country_code">
                        <value>cn</value>
                    </Data>
                    <Data name="house_number">
                        <value>197-213</value>
                    </Data>
                    <Data name="city">
                        <value>Hong Kong Island</value>
                    </Data>
                </ExtendedData>
            </Placemark>
            <Placemark>
                <address>Lam Kie Yuen Tea Shop, Bonham Strand, Tai Ping Shan, Sheung Wan, Central and Western District, Hong Kong Island, Hong Kong, China</address>
                <Point>
                    <coordinates>114.1506669179,22.2860755580</coordinates>
                </Point>
                <ExtendedData>
                    <Data name="road">
                        <value>Bonham Strand</value>
                    </Data>
                    <Data name="state">
                        <value>Hong Kong</value>
                    </Data>
                    <Data name="neighbourhood">
                        <value>Tai Ping Shan</value>
                    </Data>
                    <Data name="ISO3166-2-lvl3">
                        <value>CN-HK</value>
                    </Data>
                    <Data name="shop">
                        <value>Lam Kie Yuen Tea Shop</value>
                    </Data>
                    <Data name="suburb">
                        <value>Sheung Wan</value>
                    </Data>
                    <Data name="country">
                        <value>China</value>
                    </Data>
                    <Data name="city_district">
                        <value>Central and Western District</value>
                    </Data>
                    <Data name="country_code">
                        <value>cn</value>
                    </Data>
                    <Data name="city">
                        <value>Hong Kong Island</value>
                    </Data>
                </ExtendedData>
            </Placemark>
            <Placemark>
                <address>Central (Macau Ferry), Rumsey Street Flyover, Tai Ping Shan, Sheung Wan, Central and Western District, Hong Kong Island, Hong Kong, China</address>
                <Point>
                    <coordinates>114.1504891223,22.2885888575</coordinates>
                </Point>
                <ExtendedData>
                    <Data name="road">
                        <value>Rumsey Street Flyover</value>
                    </Data>
                    <Data name="amenity">
                        <value>Central (Macau Ferry)</value>
                    </Data>
                    <Data name="state">
                        <value>Hong Kong</value>
                    </Data>
                    <Data name="neighbourhood">
                        <value>Tai Ping Shan</value>
                    </Data>
                    <Data name="ISO3166-2-lvl3">
                        <value>CN-HK</value>
                    </Data>
                    <Data name="suburb">
                        <value>Sheung Wan</value>
                    </Data>
                    <Data name="city_district">
                        <value>Central and Western District</value>
                    </Data>
                    <Data name="country">
                        <value>China</value>
                    </Data>
                    <Data name="country_code">
                        <value>cn</value>
                    </Data>
                    <Data name="city">
                        <value>Hong Kong Island</value>
                    </Data>
                </ExtendedData>
            </Placemark>
        </Folder>
        <Document>
            <name>45.1 km; 00:58 h (OSRM)</name>
            <Placemark>
                <name>Route</name>
                <LineString>
                    <coordinates>114.1498540000,22.2888510000 114.1501790000,22.2887700000 114.1502660000,22.2887210000 114.1503190000,22.2886600000 114.1503620000,22.2886000000 114.1504400000,22.2885050000 114.1505050000,22.2884310000 114.1505700000,22.2883700000 114.1506420000,22.2883280000 114.1507680000,22.2882990000 114.1510240000,22.2882370000 114.1510620000,22.2882280000 114.1521560000,22.2879600000 114.1520460000,22.2876350000 114.1520300000,22.2875900000 114.1520190000,22.2875570000 114.1520040000,22.2875130000 114.1519860000,22.2874630000 114.1522920000,22.2873700000 114.1523810000,22.2873410000 114.1525100000,22.2873010000 114.1527610000,22.2872270000 114.1532200000,22.2870900000 114.1533330000,22.2870650000 114.1534050000,22.2870010000 114.1534330000,22.2869540000 114.1534450000,22.2868460000 114.1534190000,22.2867440000 114.1534140000,22.2867260000 114.1534100000,22.2867100000 114.1533970000,22.2866670000 114.1533460000,22.2864880000 114.1533370000,22.2864570000 114.1533300000,22.2864320000 114.1533190000,22.2863950000 114.1533070000,22.2863470000 114.1532980000,22.2862950000 114.1533470000,22.2862720000 114.1533950000,22.2862460000 114.1536090000,22.2861220000 114.1538310000,22.2859930000 114.1540740000,22.2858520000 114.1547170000,22.2854780000 114.1548210000,22.2854180000 114.1551100000,22.2852490000 114.1552520000,22.2851670000 114.1553130000,22.2851290000 114.1553650000,22.2850890000 114.1554490000,22.2850040000 114.1557010000,22.2846970000 114.1557210000,22.2846710000 114.1557800000,22.2846000000 114.1558320000,22.2845360000 114.1558520000,22.2845130000 114.1558890000,22.2844680000 114.1559300000,22.2844190000 114.1559920000,22.2843430000 114.1560220000,22.2843060000 114.1560450000,22.2842770000 114.1561130000,22.2841940000 114.1561510000,22.2841470000 114.1562840000,22.2839810000 114.1564810000,22.2837360000 114.1565030000,22.2837100000 114.1565300000,22.2836750000 114.1565550000,22.2836430000 114.1565820000,22.2836080000 114.1567600000,22.2833830000 114.1568590000,22.2832570000 114.1570290000,22.2830420000 114.1571430000,22.2828960000 114.1574510000,22.2825030000 114.1574890000,22.2824530000 114.1575660000,22.2823580000 114.1576590000,22.2822430000 114.1576780000,22.2822190000 114.1576940000,22.2822000000 114.1578280000,22.2820330000 114.1579440000,22.2819950000 114.1580810000,22.2819560000 114.1581520000,22.2819350000 114.1583830000,22.2818690000 114.1584100000,22.2818610000 114.1584940000,22.2818370000 114.1585230000,22.2818290000 114.1585450000,22.2818220000 114.1586800000,22.2817840000 114.1588020000,22.2817490000 114.1588690000,22.2817320000 114.1588900000,22.2817260000 114.1589800000,22.2817010000 114.1590740000,22.2816910000 114.1591530000,22.2816700000 114.1595070000,22.2815690000 114.1595440000,22.2815590000 114.1595940000,22.2815460000 114.1596490000,22.2815310000 114.1597490000,22.2815060000 114.1598080000,22.2815050000 114.1599740000,22.2814610000 114.1601270000,22.2814200000 114.1602600000,22.2813880000 114.1602980000,22.2813790000 114.1603590000,22.2813630000 114.1604530000,22.2813530000 114.1605890000,22.2813180000 114.1606310000,22.2813040000 114.1606770000,22.2812900000 114.1607050000,22.2812830000 114.1607420000,22.2812730000 114.1607960000,22.2812350000 114.1608520000,22.2812180000 114.1609520000,22.2811900000 114.1610490000,22.2811630000 114.1612430000,22.2811110000 114.1613660000,22.2810790000 114.1615170000,22.2810390000 114.1619060000,22.2809410000 114.1619460000,22.2809280000 114.1619660000,22.2809110000 114.1620010000,22.2808790000 114.1620420000,22.2807810000 114.1619590000,22.2806210000 114.1617930000,22.2800600000 114.1617640000,22.2799740000 114.1617610000,22.2799440000 114.1617670000,22.2798980000 114.1618210000,22.2798220000 114.1619180000,22.2797670000 114.1622910000,22.2796350000 114.1625660000,22.2795200000 114.1627940000,22.2794240000 114.1630800000,22.2792270000 114.1632720000,22.2790910000 114.1634860000,22.2789320000 114.1636320000,22.2788350000 114.1637480000,22.2787750000 114.1637880000,22.2787560000 114.1639140000,22.2786900000 114.1640790000,22.2786140000 114.1641980000,22.2785630000 114.1643650000,22.2784940000 114.1644550000,22.2784640000 114.1646060000,22.2784170000 114.1647480000,22.2783810000 114.1650100000,22.2783170000 114.1650660000,22.2783010000 114.1651810000,22.2782750000 114.1654420000,22.2782290000 114.1656290000,22.2782060000 114.1659150000,22.2781710000 114.1661510000,22.2781340000 114.1663180000,22.2781070000 114.1669630000,22.2780500000 114.1671340000,22.2780250000 114.1672900000,22.2779990000 114.1673230000,22.2779720000 114.1673730000,22.2779330000 114.1673980000,22.2779050000 114.1674650000,22.2778220000 114.1676070000,22.2777350000 114.1676380000,22.2777150000 114.1680270000,22.2774750000 114.1680410000,22.2774670000 114.1681050000,22.2774330000 114.1683290000,22.2772810000 114.1684790000,22.2771850000 114.1685820000,22.2771190000 114.1687350000,22.2770170000 114.1689060000,22.2769030000 114.1690390000,22.2768190000 114.1693520000,22.2766090000 114.1696130000,22.2764320000 114.1697480000,22.2763480000 114.1701250000,22.2760990000 114.1701900000,22.2760530000 114.1702410000,22.2760140000 114.1702840000,22.2759830000 114.1706320000,22.2757140000 114.1708500000,22.2755910000 114.1708620000,22.2755840000 114.1708970000,22.2755640000 114.1709480000,22.2755350000 114.1710690000,22.2754660000 114.1714090000,22.2752500000 114.1714240000,22.2752420000 114.1716660000,22.2751110000 114.1719840000,22.2749330000 114.1721910000,22.2748170000 114.1722380000,22.2747900000 114.1723140000,22.2747480000 114.1723550000,22.2747320000 114.1726110000,22.2746320000 114.1730880000,22.2745080000 114.1732120000,22.2744750000 114.1733120000,22.2744550000 114.1733950000,22.2744440000 114.1737370000,22.2744160000 114.1738470000,22.2744110000 114.1739120000,22.2744100000 114.1739610000,22.2744110000 114.1740020000,22.2744110000 114.1740350000,22.2744110000 114.1741330000,22.2744120000 114.1745510000,22.2744150000 114.1745890000,22.2744150000 114.1749890000,22.2744240000 114.1751480000,22.2744280000 114.1752540000,22.2744870000 114.1753310000,22.2745500000 114.1753510000,22.2745720000 114.1753820000,22.2746050000 114.1754450000,22.2746660000 114.1755620000,22.2747440000 114.1757010000,22.2748120000 114.1758250000,22.2748630000 114.1759530000,22.2748970000 114.1762470000,22.2749600000 114.1763650000,22.2749870000 114.1765830000,22.2750380000 114.1768430000,22.2750990000 114.1768670000,22.2751040000 114.1770440000,22.2751420000 114.1772340000,22.2751840000 114.1773340000,22.2752020000 114.1773990000,22.2752550000 114.1774530000,22.2752650000 114.1775310000,22.2752700000 114.1776840000,22.2752560000 114.1777530000,22.2752400000 114.1778180000,22.2752240000 114.1778500000,22.2752090000 114.1779280000,22.2751720000 114.1779970000,22.2751370000 114.1779970000,22.2751370000 114.1780690000,22.2750800000 114.1783460000,22.2749830000 114.1784960000,22.2749430000 114.1789400000,22.2748180000 114.1791040000,22.2748330000 114.1791690000,22.2748530000 114.1793600000,22.2749280000 114.1794570000,22.2750030000 114.1795640000,22.2750380000 114.1796010000,22.2751050000 114.1796630000,22.2751680000 114.1799410000,22.2754570000 114.1800190000,22.2755580000 114.1800890000,22.2756730000 114.1801690000,22.2758050000 114.1802480000,22.2759630000 114.1803700000,22.2760170000 114.1804550000,22.2761220000 114.1804780000,22.2761490000 114.1805430000,22.2762320000 114.1805640000,22.2762580000 114.1806200000,22.2763350000 114.1806410000,22.2763650000 114.1806750000,22.2764120000 114.1807630000,22.2765030000 114.1809650000,22.2766080000 114.1809860000,22.2766760000 114.1809960000,22.2767090000 114.1809980000,22.2769360000 114.1809970000,22.2770110000 114.1810100000,22.2772780000 114.1810260000,22.2776120000 114.1810390000,22.2777850000 114.1810710000,22.2778480000 114.1811520000,22.2791380000 114.1811710000,22.2791850000 114.1811860000,22.2792300000 114.1811830000,22.2792750000 114.1811590000,22.2794500000 114.1811140000,22.2795580000 114.1810910000,22.2796060000 114.1809900000,22.2798370000 114.1809620000,22.2799000000 114.1809190000,22.2799990000 114.1808410000,22.2801760000 114.1807490000,22.2803850000 114.1806940000,22.2805160000 114.1806350000,22.2806540000 114.1806010000,22.2807110000 114.1805830000,22.2807380000 114.1805630000,22.2807730000 114.1805510000,22.2808030000 114.1805240000,22.2808610000 114.1804410000,22.2809500000 114.1802070000,22.2811200000 114.1801760000,22.2811460000 114.1801350000,22.2811870000 114.1801030000,22.2812230000 114.1800750000,22.2812650000 114.1800440000,22.2813240000 114.1800140000,22.2814400000 114.1800220000,22.2815230000 114.1800300000,22.2815710000 114.1800420000,22.2816020000 114.1800800000,22.2816770000 114.1801350000,22.2817640000 114.1802160000,22.2818350000 114.1802810000,22.2818710000 114.1803390000,22.2818920000 114.1803780000,22.2819240000 114.1804110000,22.2819500000 114.1804800000,22.2819790000 114.1806280000,22.2820340000 114.1807760000,22.2820760000 114.1809360000,22.2821050000 114.1810680000,22.2821240000 114.1812100000,22.2821400000 114.1813560000,22.2821090000 114.1814960000,22.2820650000 114.1816110000,22.2820320000 114.1817260000,22.2819980000 114.1818980000,22.2819460000 114.1820740000,22.2819080000 114.1821660000,22.2818980000 114.1822440000,22.2818990000 114.1823330000,22.2819020000 114.1824040000,22.2819130000 114.1824850000,22.2819340000 114.1826300000,22.2819870000 114.1827130000,22.2820200000 114.1827980000,22.2820550000 114.1829230000,22.2820710000 114.1830180000,22.2821070000 114.1831550000,22.2821590000 114.1833640000,22.2822340000 114.1835080000,22.2822920000 114.1835630000,22.2823140000 114.1838660000,22.2824360000 114.1840860000,22.2825590000 114.1842650000,22.2826710000 114.1844800000,22.2828210000 114.1845330000,22.2828740000 114.1846660000,22.2830090000 114.1849700000,22.2832450000 114.1852740000,22.2834880000 114.1855820000,22.2837280000 114.1856950000,22.2837910000 114.1857960000,22.2838410000 114.1859320000,22.2838970000 114.1860540000,22.2839410000 114.1861730000,22.2839750000 114.1862920000,22.2840060000 114.1864260000,22.2840350000 114.1864880000,22.2840470000 114.1866930000,22.2840500000 114.1867750000,22.2840620000 114.1869530000,22.2841100000 114.1871010000,22.2841500000 114.1876080000,22.2842870000 114.1877600000,22.2843330000 114.1878710000,22.2843690000 114.1879750000,22.2844070000 114.1880870000,22.2844520000 114.1882060000,22.2845030000 114.1883220000,22.2845600000 114.1884160000,22.2846110000 114.1885120000,22.2846740000 114.1886060000,22.2847470000 114.1886940000,22.2848230000 114.1887610000,22.2848880000 114.1888380000,22.2849770000 114.1889120000,22.2850790000 114.1889710000,22.2851710000 114.1890180000,22.2852520000 114.1890540000,22.2853340000 114.1890910000,22.2854260000 114.1891200000,22.2855190000 114.1891440000,22.2856130000 114.1891730000,22.2857430000 114.1891900000,22.2858510000 114.1892000000,22.2859350000 114.1892080000,22.2860240000 114.1892130000,22.2861140000 114.1892260000,22.2864900000 114.1892310000,22.2865770000 114.1892390000,22.2866600000 114.1892520000,22.2867540000 114.1892640000,22.2868280000 114.1892800000,22.2869010000 114.1892930000,22.2869560000 114.1893120000,22.2870220000 114.1893520000,22.2871420000 114.1893760000,22.2872080000 114.1894130000,22.2872940000 114.1894620000,22.2874010000 114.1895110000,22.2875030000 114.1896410000,22.2877610000 114.1897480000,22.2879730000 114.1897680000,22.2880120000 114.1899050000,22.2882920000 114.1900860000,22.2886490000 114.1902500000,22.2889500000 114.1903820000,22.2891680000 114.1904500000,22.2892800000 114.1905550000,22.2894300000 114.1905900000,22.2894800000 114.1907500000,22.2896800000 114.1910500000,22.2900000000 114.1913660000,22.2902870000 114.1921570000,22.2909910000 114.1923870000,22.2911680000 114.1924300000,22.2912020000 114.1925570000,22.2913050000 114.1926230000,22.2913590000 114.1926890000,22.2914090000 114.1928130000,22.2914980000 114.1930120000,22.2916410000 114.1930980000,22.2917060000 114.1931220000,22.2917220000 114.1931500000,22.2917410000 114.1931790000,22.2917610000 114.1933530000,22.2918870000 114.1934530000,22.2919710000 114.1935380000,22.2920420000 114.1935600000,22.2920570000 114.1935890000,22.2920770000 114.1936150000,22.2920950000 114.1937360000,22.2921760000 114.1938530000,22.2922540000 114.1939710000,22.2923350000 114.1942000000,22.2924760000 114.1942290000,22.2924940000 114.1943770000,22.2925660000 114.1944670000,22.2926100000 114.1946230000,22.2926870000 114.1946890000,22.2927190000 114.1947490000,22.2927490000 114.1949190000,22.2928180000 114.1950130000,22.2928550000 114.1951890000,22.2929160000 114.1952860000,22.2929460000 114.1954310000,22.2929870000 114.1955320000,22.2930090000 114.1956910000,22.2930430000 114.1958170000,22.2930670000 114.1960670000,22.2931130000 114.1961620000,22.2931270000 114.1963610000,22.2931600000 114.1964840000,22.2931820000 114.1966050000,22.2932070000 114.1967740000,22.2932440000 114.1968570000,22.2932610000 114.1971240000,22.2933140000 114.1979380000,22.2934830000 114.1980630000,22.2935070000 114.1981920000,22.2935260000 114.1984040000,22.2935500000 114.1985630000,22.2935620000 114.1987190000,22.2935680000 114.1989060000,22.2935720000 114.1992000000,22.2935690000 114.1994040000,22.2935740000 114.1995900000,22.2935850000 114.1997700000,22.2936020000 114.1999500000,22.2936270000 114.2001000000,22.2936520000 114.2004940000,22.2937360000 114.2005620000,22.2937500000 114.2013180000,22.2939100000 114.2015380000,22.2939610000 114.2018510000,22.2940330000 114.2020960000,22.2940870000 114.2021880000,22.2941020000 114.2025300000,22.2941540000 114.2026050000,22.2941710000 114.2028680000,22.2942240000 114.2031620000,22.2942590000 114.2034130000,22.2942700000 114.2035000000,22.2942730000 114.2037630000,22.2942770000 114.2039330000,22.2942720000 114.2040330000,22.2942680000 114.2042530000,22.2942480000 114.2045700000,22.2942130000 114.2047400000,22.2941890000 114.2049620000,22.2940980000 114.2050390000,22.2940670000 114.2051840000,22.2940170000 114.2052500000,22.2939940000 114.2054060000,22.2939330000 114.2057000000,22.2938320000 114.2062130000,22.2936730000 114.2066920000,22.2935400000 114.2071880000,22.2934050000 114.2072470000,22.2933900000 114.2074590000,22.2933300000 114.2077610000,22.2932760000 114.2081980000,22.2931480000 114.2084650000,22.2930590000 114.2087620000,22.2929640000 114.2088920000,22.2929160000 114.2090400000,22.2928580000 114.2092310000,22.2927830000 114.2094910000,22.2926640000 114.2097870000,22.2924670000 114.2103300000,22.2920690000 114.2107360000,22.2917730000 114.2110800000,22.2915210000 114.2112770000,22.2913910000 114.2114890000,22.2912520000 114.2115750000,22.2911980000 114.2117400000,22.2910950000 114.2120130000,22.2909330000 114.2121350000,22.2908620000 114.2122140000,22.2908150000 114.2122920000,22.2907670000 114.2124160000,22.2906960000 114.2125630000,22.2906120000 114.2128380000,22.2904560000 114.2130210000,22.2903450000 114.2131250000,22.2902810000 114.2131960000,22.2902380000 114.2132610000,22.2902130000 114.2133660000,22.2901710000 114.2135280000,22.2901000000 114.2136590000,22.2900410000 114.2137560000,22.2899900000 114.2138680000,22.2899210000 114.2139440000,22.2898650000 114.2140250000,22.2897950000 114.2141100000,22.2896970000 114.2141750000,22.2896120000 114.2142180000,22.2895390000 114.2142570000,22.2894470000 114.2142840000,22.2893540000 114.2143000000,22.2892680000 114.2143050000,22.2891830000 114.2143020000,22.2891020000 114.2142900000,22.2890200000 114.2142760000,22.2889600000 114.2142520000,22.2888850000 114.2142160000,22.2887940000 114.2141720000,22.2887080000 114.2141170000,22.2886220000 114.2140560000,22.2885410000 114.2139790000,22.2884580000 114.2139080000,22.2883930000 114.2138320000,22.2883340000 114.2137610000,22.2882860000 114.2136750000,22.2882370000 114.2136030000,22.2882020000 114.2135370000,22.2881750000 114.2134660000,22.2881490000 114.2133820000,22.2881230000 114.2132940000,22.2881050000 114.2131950000,22.2880920000 114.2130990000,22.2880840000 114.2130170000,22.2880830000 114.2129340000,22.2880870000 114.2128530000,22.2880970000 114.2127660000,22.2881130000 114.2126830000,22.2881350000 114.2126010000,22.2881630000 114.2125260000,22.2881950000 114.2124590000,22.2882310000 114.2123840000,22.2882800000 114.2123150000,22.2883320000 114.2122030000,22.2884390000 114.2121350000,22.2885230000 114.2120840000,22.2886010000 114.2120370000,22.2886930000 114.2120010000,22.2887840000 114.2119720000,22.2888790000 114.2119580000,22.2889660000 114.2119550000,22.2890450000 114.2119580000,22.2891450000 114.2119690000,22.2892500000 114.2119970000,22.2893500000 114.2120420000,22.2894630000 114.2121120000,22.2895840000 114.2122180000,22.2897150000 114.2123300000,22.2898230000 114.2124640000,22.2899170000 114.2126450000,22.2900160000 114.2133860000,22.2903240000 114.2136110000,22.2904260000 114.2297660000,22.2988660000 114.2301500000,22.2990810000 114.2305860000,22.2993080000 114.2310270000,22.2995370000 114.2312510000,22.2996750000 114.2313630000,22.2997440000 114.2314970000,22.2998390000 114.2315650000,22.2998840000 114.2316890000,22.2999690000 114.2318000000,22.3000360000 114.2323930000,22.3005240000 114.2325490000,22.3006640000 114.2326190000,22.3007050000 114.2326880000,22.3007430000 114.2334740000,22.3009780000 114.2335600000,22.3010210000 114.2339000000,22.3012080000 114.2342370000,22.3014240000 114.2343910000,22.3015270000 114.2345160000,22.3016160000 114.2346740000,22.3017530000 114.2347090000,22.3017810000 114.2348090000,22.3018840000 114.2349020000,22.3019920000 114.2349880000,22.3021050000 114.2350660000,22.3022230000 114.2351370000,22.3023440000 114.2352000000,22.3024690000 114.2352550000,22.3025980000 114.2353020000,22.3027290000 114.2353410000,22.3028620000 114.2353700000,22.3029980000 114.2353920000,22.3031340000 114.2354040000,22.3032720000 114.2354080000,22.3034100000 114.2354030000,22.3035480000 114.2353890000,22.3036850000 114.2353790000,22.3037720000 114.2353530000,22.3039040000 114.2353200000,22.3040390000 114.2352800000,22.3041730000 114.2352520000,22.3042540000 114.2352220000,22.3043270000 114.2351890000,22.3043980000 114.2351540000,22.3044680000 114.2351150000,22.3045360000 114.2350670000,22.3046100000 114.2349470000,22.3048070000 114.2348410000,22.3049440000 114.2346900000,22.3051210000 114.2346510000,22.3051670000 114.2345360000,22.3053020000 114.2341460000,22.3057490000 114.2340400000,22.3058750000 114.2336090000,22.3062930000 114.2328750000,22.3071600000 114.2327820000,22.3073290000 114.2326090000,22.3075390000 114.2324720000,22.3077040000 114.2321620000,22.3080620000 114.2319560000,22.3082750000 114.2318160000,22.3084030000 114.2317150000,22.3084950000 114.2314630000,22.3086630000 114.2313100000,22.3087470000 114.2311220000,22.3088280000 114.2309510000,22.3088810000 114.2308060000,22.3089160000 114.2306690000,22.3089360000 114.2305290000,22.3089480000 114.2303910000,22.3089520000 114.2302910000,22.3089500000 114.2301680000,22.3089420000 114.2300590000,22.3089280000 114.2299710000,22.3089100000 114.2289010000,22.3086800000 114.2286200000,22.3086180000 114.2282390000,22.3085340000 114.2277850000,22.3084280000 114.2277430000,22.3084170000 114.2276430000,22.3083830000 114.2274300000,22.3083140000 114.2273290000,22.3082770000 114.2272690000,22.3082570000 114.2272070000,22.3082370000 114.2271300000,22.3082050000 114.2269900000,22.3081470000 114.2268560000,22.3080850000 114.2267930000,22.3080550000 114.2267110000,22.3080080000 114.2265700000,22.3079270000 114.2263910000,22.3078080000 114.2262800000,22.3077310000 114.2253870000,22.3070680000 114.2248690000,22.3066690000 114.2247250000,22.3065580000 114.2245460000,22.3064210000 114.2243610000,22.3063010000 114.2243140000,22.3062740000 114.2241870000,22.3061970000 114.2241050000,22.3061550000 114.2240250000,22.3061200000 114.2239390000,22.3060840000 114.2238590000,22.3060590000 114.2237720000,22.3060320000 114.2236920000,22.3060080000 114.2236620000,22.3060020000 114.2236010000,22.3059900000 114.2235180000,22.3059770000 114.2234270000,22.3059640000 114.2233360000,22.3059580000 114.2232530000,22.3059560000 114.2231590000,22.3059550000 114.2230750000,22.3059580000 114.2229880000,22.3059680000 114.2229010000,22.3059790000 114.2228110000,22.3059970000 114.2227170000,22.3060210000 114.2226160000,22.3060440000 114.2225570000,22.3060650000 114.2224700000,22.3060990000 114.2223830000,22.3061350000 114.2223530000,22.3061500000 114.2222940000,22.3061800000 114.2222660000,22.3061980000 114.2222410000,22.3062140000 114.2222140000,22.3062290000 114.2221880000,22.3062460000 114.2221410000,22.3062770000 114.2221040000,22.3063010000 114.2219890000,22.3063770000 114.2218560000,22.3064870000 114.2217540000,22.3065870000 114.2216280000,22.3067100000 114.2215010000,22.3068920000 114.2211590000,22.3074240000 114.2210730000,22.3075480000 114.2210220000,22.3076230000 114.2210020000,22.3076520000 114.2207530000,22.3079900000 114.2205820000,22.3082080000 114.2201910000,22.3087040000 114.2192820000,22.3098570000 114.2189020000,22.3103410000 114.2185710000,22.3107330000 114.2181640000,22.3111990000 114.2179470000,22.3114370000 114.2176990000,22.3117080000 114.2174100000,22.3119890000 114.2172860000,22.3121100000 114.2163760000,22.3130530000 114.2157660000,22.3136800000 114.2152860000,22.3141730000 114.2147630000,22.3147110000 114.2144750000,22.3150060000 114.2144120000,22.3150710000 114.2141400000,22.3153500000 114.2137790000,22.3157210000 114.2133820000,22.3161450000 114.2131930000,22.3163010000 114.2130460000,22.3164050000 114.2129730000,22.3164550000 114.2128790000,22.3165200000 114.2126550000,22.3166460000 114.2125020000,22.3167240000 114.2124270000,22.3167550000 114.2123210000,22.3167980000 114.2122390000,22.3168220000 114.2121170000,22.3168520000 114.2120210000,22.3168740000 114.2119200000,22.3168980000 114.2115700000,22.3168980000 114.2115060000,22.3168990000 114.2114610000,22.3168980000 114.2114020000,22.3168990000 114.2107230000,22.3168930000 114.2106750000,22.3168920000 114.2105480000,22.3168910000 114.2103120000,22.3169380000 114.2102890000,22.3169450000 114.2102560000,22.3169530000 114.2102100000,22.3169710000 114.2101770000,22.3169820000 114.2101220000,22.3170040000 114.2100710000,22.3170270000 114.2100250000,22.3170510000 114.2099680000,22.3170850000 114.2099150000,22.3171190000 114.2098790000,22.3171450000 114.2098340000,22.3171810000 114.2097570000,22.3172470000 114.2096720000,22.3173270000 114.2096100000,22.3173970000 114.2095600000,22.3174600000 114.2095190000,22.3175190000 114.2094850000,22.3175760000 114.2094560000,22.3176270000 114.2094300000,22.3176790000 114.2094120000,22.3177220000 114.2093860000,22.3177910000 114.2093690000,22.3178440000 114.2093550000,22.3179000000 114.2093330000,22.3180470000 114.2093720000,22.3181720000 114.2093510000,22.3182880000 114.2093370000,22.3183800000 114.2093300000,22.3184300000 114.2093110000,22.3185160000 114.2092970000,22.3185780000 114.2092770000,22.3187500000 114.2092600000,22.3187910000 114.2092090000,22.3189660000 114.2092080000,22.3190010000 114.2092060000,22.3190440000 114.2091990000,22.3191950000 114.2091990000,22.3192440000 114.2091850000,22.3193930000 114.2091800000,22.3194860000 114.2092100000,22.3196840000 114.2092130000,22.3197040000 114.2092050000,22.3197710000 114.2091990000,22.3198160000 114.2091840000,22.3199120000 114.2091570000,22.3202110000 114.2091520000,22.3202680000 114.2091390000,22.3203900000 114.2091270000,22.3204980000 114.2091240000,22.3205300000 114.2090830000,22.3209740000 114.2090700000,22.3211240000 114.2090590000,22.3212430000 114.2090530000,22.3213100000 114.2090350000,22.3215100000 114.2090310000,22.3215460000 114.2090240000,22.3216420000 114.2090140000,22.3217350000 114.2090000000,22.3218640000 114.2089980000,22.3218880000 114.2089680000,22.3221910000 114.2089450000,22.3224140000 114.2089400000,22.3224630000 114.2089300000,22.3225590000 114.2089290000,22.3225750000 114.2088550000,22.3233060000 114.2088320000,22.3235290000 114.2088220000,22.3236340000 114.2087610000,22.3242390000 114.2087570000,22.3242740000 114.2087360000,22.3244800000 114.2087250000,22.3245870000 114.2086990000,22.3248200000 114.2086670000,22.3251230000 114.2086540000,22.3252460000 114.2086500000,22.3252840000 114.2086280000,22.3254190000 114.2086130000,22.3255360000 114.2086040000,22.3256480000 114.2086000000,22.3256960000 114.2085850000,22.3258850000 114.2085660000,22.3260710000 114.2085480000,22.3262600000 114.2085240000,22.3264940000 114.2085150000,22.3265930000 114.2085110000,22.3266280000 114.2085030000,22.3267090000 114.2084940000,22.3268070000 114.2084240000,22.3275090000 114.2084110000,22.3276460000 114.2082750000,22.3276340000 114.2074330000,22.3275600000 114.2073140000,22.3275500000 114.2069040000,22.3275140000 114.2068880000,22.3276560000 114.2068330000,22.3281500000 114.2067280000,22.3290910000 114.2067200000,22.3291260000 114.2067120000,22.3291640000 114.2066850000,22.3291920000 114.2066700000,22.3292050000 114.2066110000,22.3292280000 114.2065350000,22.3292270000 114.2063320000,22.3292100000 114.2061810000,22.3291990000 114.2057600000,22.3291670000 114.2055940000,22.3291540000 114.2056900000,22.3281330000 114.2057050000,22.3279700000 114.2057430000,22.3275190000 114.2057540000,22.3274140000 114.2058130000,22.3268870000 114.2058280000,22.3267540000 114.2058360000,22.3266840000 114.2056680000,22.3266680000 114.2052100000,22.3266310000 114.2050300000,22.3266160000 114.2048500000,22.3266000000 114.2048100000,22.3266000000 114.2047680000,22.3266030000 114.2046730000,22.3266230000 114.2046100000,22.3266420000 114.2045200000,22.3266800000 114.2044400000,22.3267200000 114.2043450000,22.3267990000 114.2043110000,22.3268290000 114.2041640000,22.3269620000 114.2039580000,22.3271460000 114.2039390000,22.3271610000 114.2038290000,22.3272630000 114.2037280000,22.3273510000 114.2038030000,22.3274190000 114.2038790000,22.3274900000 114.2041650000,22.3277610000 114.2042560000,22.3278600000 114.2042970000,22.3279110000 114.2043210000,22.3279410000 114.2043330000,22.3279560000 114.2043460000,22.3279720000 114.2044230000,22.3280800000 114.2044870000,22.3281890000 114.2045430000,22.3282970000 114.2045940000,22.3284060000 114.2046720000,22.3286180000 114.2046950000,22.3287300000 114.2047050000,22.3287810000 114.2047140000,22.3289370000 114.2047280000,22.3292720000 114.2047450000,22.3296300000 114.2047600000,22.3298960000 114.2047670000,22.3300350000 114.2047770000,22.3303270000 114.2047830000,22.3305340000 114.2047830000,22.3306970000 114.2047790000,22.3309430000 114.2047780000,22.3309850000 114.2047720000,22.3311390000 114.2047680000,22.3312200000 114.2047690000,22.3313390000 114.2047700000,22.3317060000 114.2047700000,22.3318290000 114.2047720000,22.3320850000 114.2047380000,22.3323510000 114.2047290000,22.3324150000 114.2047090000,22.3325770000 114.2046980000,22.3326610000 114.2046820000,22.3327830000 114.2046570000,22.3329780000 114.2046570000,22.3330070000 114.2046550000,22.3330850000 114.2046530000,22.3331510000 114.2046570000,22.3332520000 114.2046600000,22.3333220000 114.2046610000,22.3333530000 114.2046710000,22.3336090000 114.2046710000,22.3338940000 114.2046300000,22.3340780000 114.2045370000,22.3342580000 114.2045070000,22.3343080000 114.2044490000,22.3344070000 114.2043160000,22.3345440000 114.2041930000,22.3346190000 114.2040960000,22.3346410000 114.2039410000,22.3346560000 114.2039060000,22.3346120000 114.2038600000,22.3345770000 114.2038060000,22.3345530000 114.2037480000,22.3345420000 114.2036880000,22.3345430000 114.2036310000,22.3345570000 114.2035940000,22.3345740000 114.2035560000,22.3346000000 114.2035160000,22.3346440000 114.2034880000,22.3346950000 114.2034750000,22.3347510000 114.2033540000,22.3348640000 114.2032220000,22.3349290000 114.2031120000,22.3349590000 114.2030650000,22.3349600000 114.2029720000,22.3349600000 114.2029460000,22.3349580000 114.2029040000,22.3349510000 114.2028280000,22.3349350000 114.2027190000,22.3349050000 114.2026530000,22.3348850000 114.2025620000,22.3348490000 114.2024600000,22.3348010000 114.2023580000,22.3347460000 114.2022680000,22.3346870000 114.2021930000,22.3346300000 114.2021220000,22.3345680000 114.2020660000,22.3345110000 114.2020080000,22.3344440000 114.2019360000,22.3343560000 114.2018720000,22.3342710000 114.2018100000,22.3341810000 114.2016800000,22.3339740000 114.2016440000,22.3339210000 114.2016160000,22.3338840000 114.2015790000,22.3338360000 114.2015390000,22.3337840000 114.2015020000,22.3337400000 114.2014560000,22.3336900000 114.2013980000,22.3336340000 114.2013290000,22.3335720000 114.2012680000,22.3335230000 114.2011860000,22.3334570000 114.2011330000,22.3334220000 114.2010880000,22.3333940000 114.2010650000,22.3333840000 114.2009950000,22.3333530000 114.2009370000,22.3333320000 114.2008400000,22.3332970000 114.2007610000,22.3332680000 114.2006800000,22.3332380000 114.2006190000,22.3332200000 114.2005910000,22.3331930000 114.2005550000,22.3331740000 114.2005160000,22.3331660000 114.2004750000,22.3331680000 114.2003910000,22.3330860000 114.2002670000,22.3329850000 114.2000100000,22.3328860000 114.1999420000,22.3328600000 114.1999130000,22.3328480000 114.1998750000,22.3328340000 114.1987660000,22.3324100000 114.1985890000,22.3323310000 114.1984680000,22.3322710000 114.1983070000,22.3322410000 114.1981770000,22.3321730000 114.1981350000,22.3321520000 114.1979820000,22.3320440000 114.1978310000,22.3319330000 114.1977600000,22.3318750000 114.1976150000,22.3317570000 114.1975890000,22.3317330000 114.1975470000,22.3316950000 114.1974980000,22.3316380000 114.1974550000,22.3315700000 114.1974120000,22.3314820000 114.1974000000,22.3314180000 114.1973830000,22.3313890000 114.1973660000,22.3313620000 114.1973140000,22.3313180000 114.1972500000,22.3312920000 114.1971800000,22.3312860000 114.1971120000,22.3313020000 114.1970530000,22.3313370000 114.1970100000,22.3313870000 114.1969850000,22.3314480000 114.1969840000,22.3315120000 114.1970040000,22.3315740000 114.1970440000,22.3316260000 114.1970970000,22.3316620000 114.1971580000,22.3316810000 114.1972220000,22.3316830000 114.1972780000,22.3316700000 114.1973690000,22.3317050000 114.1974360000,22.3317300000 114.1974800000,22.3317520000 114.1975350000,22.3317900000 114.1975470000,22.3317980000 114.1977070000,22.3319270000 114.1977840000,22.3319890000 114.1978330000,22.3320260000 114.1979450000,22.3321120000 114.1980230000,22.3321650000 114.1981030000,22.3322200000 114.1981650000,22.3322580000 114.1982590000,22.3323160000 114.1984900000,22.3323800000 114.1988000000,22.3325130000 114.1998400000,22.3329180000 114.2001000000,22.3330200000 114.2002750000,22.3331350000 114.2003610000,22.3332510000 114.2003870000,22.3332860000 114.2004260000,22.3334440000 114.2004130000,22.3335700000 114.2003880000,22.3336780000 114.2002680000,22.3340190000 114.2000580000,22.3346240000 114.1999290000,22.3349670000 114.1998270000,22.3352240000 114.1997210000,22.3354840000 114.1996780000,22.3355900000 114.1996570000,22.3356370000 114.1996310000,22.3356940000 114.1995790000,22.3357970000 114.1995230000,22.3358970000 114.1994630000,22.3359950000 114.1993990000,22.3360910000 114.1993420000,22.3361690000 114.1992850000,22.3362300000 114.1991900000,22.3362680000 114.1989830000,22.3363540000 114.1986810000,22.3365510000 114.1980950000,22.3369320000 114.1980360000,22.3369710000 114.1979760000,22.3370100000 114.1980640000,22.3371350000 114.1982120000,22.3373450000 114.1983070000,22.3374740000 114.1984030000,22.3376050000 114.1985580000,22.3378020000 114.1986320000,22.3379030000 114.1987720000,22.3380880000 114.1988330000,22.3381730000 114.1990100000,22.3384240000 114.1991550000,22.3386350000 114.1992410000,22.3387670000 114.1993560000,22.3389420000 114.1993800000,22.3389780000 114.1994630000,22.3391050000 114.1993640000,22.3391420000 114.1992390000,22.3391820000 114.1991450000,22.3392080000 114.1990370000,22.3392330000 114.1989390000,22.3392510000 114.1988340000,22.3392670000 114.1986770000,22.3392860000 114.1985490000,22.3393040000 114.1984630000,22.3393200000 114.1983750000,22.3393420000 114.1982610000,22.3393800000 114.1981520000,22.3394220000 114.1981130000,22.3394400000 114.1980180000,22.3394950000 114.1979200000,22.3395700000 114.1979570000,22.3396230000 114.1979970000,22.3396930000 114.1980380000,22.3397650000 114.1980660000,22.3398230000 114.1981090000,22.3399530000 114.1981250000,22.3400160000 114.1981470000,22.3401050000 114.1981650000,22.3402270000 114.1981780000,22.3403170000 114.1981980000,22.3404530000 114.1982060000,22.3405070000 114.1982110000,22.3405440000 114.1982140000,22.3405630000 114.1982180000,22.3405930000 114.1982210000,22.3406150000 114.1982320000,22.3406880000 114.1982480000,22.3407820000 114.1982560000,22.3408230000 114.1983260000,22.3412300000 114.1983620000,22.3414140000 114.1984240000,22.3417610000 114.1984570000,22.3419020000 114.1984780000,22.3420050000 114.1984850000,22.3420410000 114.1984920000,22.3421000000 114.1985020000,22.3421540000 114.1985120000,22.3422190000 114.1985200000,22.3422550000 114.1985260000,22.3422930000 114.1985300000,22.3423220000 114.1985270000,22.3423460000 114.1985250000,22.3423690000 114.1985210000,22.3423920000 114.1985170000,22.3424220000 114.1985220000,22.3424520000 114.1985290000,22.3424980000 114.1985420000,22.3425730000 114.1985570000,22.3426750000 114.1985820000,22.3428480000 114.1986130000,22.3430310000 114.1986380000,22.3431710000 114.1986780000,22.3432480000 114.1986970000,22.3433470000 114.1987050000,22.3433890000 114.1987380000,22.3435590000 114.1987570000,22.3436440000 114.1988430000,22.3440860000 114.1990230000,22.3448590000 114.1990560000,22.3449740000 114.1990910000,22.3450680000 114.1991450000,22.3451820000 114.1992020000,22.3452810000 114.1992510000,22.3453510000 114.1993200000,22.3454400000 114.1993920000,22.3455190000 114.1994730000,22.3455970000 114.1995740000,22.3456770000 114.1995040000,22.3457480000 114.1994710000,22.3457800000 114.1989770000,22.3462480000 114.1989140000,22.3462980000 114.1988720000,22.3463320000 114.1987730000,22.3463990000 114.1986700000,22.3464580000 114.1986060000,22.3464710000 114.1985240000,22.3464710000 114.1984350000,22.3464540000 114.1983930000,22.3464410000 114.1983610000,22.3464310000 114.1983390000,22.3464280000 114.1982800000,22.3464190000 114.1981720000,22.3464120000 114.1980980000,22.3464150000 114.1979980000,22.3464280000 114.1978860000,22.3464400000 114.1977930000,22.3464730000 114.1977450000,22.3465030000 114.1977100000,22.3465430000 114.1977140000,22.3465950000 114.1977230000,22.3467260000 114.1977360000,22.3469030000 114.1977700000,22.3473620000 114.1977810000,22.3474730000 114.1978480000,22.3481850000 114.1978580000,22.3482490000 114.1978780000,22.3483070000 114.1979100000,22.3483680000 114.1979480000,22.3484230000 114.1979950000,22.3484760000 114.1980550000,22.3485190000 114.1981220000,22.3485520000 114.1981930000,22.3485730000 114.1982680000,22.3485830000 114.1984870000,22.3485760000 114.1987800000,22.3485660000 114.1990560000,22.3485570000 114.1991140000,22.3485550000 114.1991720000,22.3485720000 114.1992160000,22.3485700000 114.1992800000,22.3485680000 114.1994180000,22.3485680000 114.1994980000,22.3485880000 114.1995690000,22.3486260000 114.1996270000,22.3486800000 114.1996810000,22.3487650000 114.1997090000,22.3488640000 114.1997300000,22.3489730000 114.1997660000,22.3490890000 114.1997770000,22.3491420000 114.1998730000,22.3494670000 114.1999450000,22.3496990000 114.2000100000,22.3498610000 114.2001730000,22.3502720000 114.2002330000,22.3504220000 114.1997020000,22.3506260000 114.1995240000,22.3506860000 114.1993260000,22.3507520000 114.1992340000,22.3507830000 114.1991120000,22.3508190000 114.1989970000,22.3508410000 114.1988380000,22.3508580000 114.1987230000,22.3508600000 114.1985850000,22.3508580000 114.1985200000,22.3508500000 114.1985090000,22.3508810000 114.1985030000,22.3508960000 114.1984940000,22.3509220000 114.1984700000,22.3509640000 114.1983670000,22.3510990000 114.1983450000,22.3511150000 114.1983200000,22.3511260000 114.1982930000,22.3511250000 114.1982930000,22.3511250000 114.1983200000,22.3511260000 114.1983450000,22.3511150000 114.1983670000,22.3510990000 114.1984700000,22.3509640000 114.1984940000,22.3509220000 114.1985030000,22.3508960000 114.1985090000,22.3508810000 114.1985200000,22.3508500000 114.1985850000,22.3508580000 114.1987230000,22.3508600000 114.1988380000,22.3508580000 114.1989970000,22.3508410000 114.1991120000,22.3508190000 114.1992340000,22.3507830000 114.1993260000,22.3507520000 114.1995240000,22.3506860000 114.1997020000,22.3506260000 114.2002330000,22.3504220000 114.2001730000,22.3502720000 114.2000100000,22.3498610000 114.1999450000,22.3496990000 114.1998730000,22.3494670000 114.1997770000,22.3491420000 114.1997660000,22.3490890000 114.1997680000,22.3489670000 114.1997470000,22.3488570000 114.1997170000,22.3487510000 114.1996850000,22.3484840000 114.1996770000,22.3483620000 114.1996500000,22.3474580000 114.1996430000,22.3473690000 114.1996350000,22.3472630000 114.1996020000,22.3468680000 114.1995640000,22.3465770000 114.1995140000,22.3465260000 114.1994440000,22.3464580000 114.1993120000,22.3464170000 114.1991650000,22.3464160000 114.1990960000,22.3464080000 114.1990150000,22.3463600000 114.1989890000,22.3463050000 114.1989770000,22.3462480000 114.1994710000,22.3457800000 114.1995040000,22.3457480000 114.1995740000,22.3456770000 114.1996260000,22.3456250000 114.1996200000,22.3456200000 114.1994910000,22.3455000000 114.1992790000,22.3452820000 114.1991810000,22.3451300000 114.1991170000,22.3449730000 114.1990680000,22.3447720000 114.1989940000,22.3443570000 114.1989750000,22.3442600000 114.1988450000,22.3436110000 114.1988050000,22.3433690000 114.1987980000,22.3433340000 114.1987910000,22.3432990000 114.1987770000,22.3432330000 114.1987620000,22.3431470000 114.1987270000,22.3429030000 114.1987150000,22.3428030000 114.1987030000,22.3427290000 114.1986870000,22.3426350000 114.1986560000,22.3424300000 114.1986510000,22.3424070000 114.1986440000,22.3423710000 114.1986370000,22.3423340000 114.1986320000,22.3423090000 114.1986280000,22.3422800000 114.1986200000,22.3422350000 114.1986140000,22.3422010000 114.1986010000,22.3421440000 114.1985890000,22.3420800000 114.1985890000,22.3420230000 114.1985900000,22.3419830000 114.1985740000,22.3418850000 114.1985470000,22.3417230000 114.1984780000,22.3413780000 114.1984360000,22.3410920000 114.1984210000,22.3410070000 114.1984070000,22.3409380000 114.1983860000,22.3408180000 114.1983740000,22.3407580000 114.1983600000,22.3406690000 114.1983480000,22.3406000000 114.1983450000,22.3405770000 114.1983400000,22.3405490000 114.1983390000,22.3405390000 114.1983370000,22.3405280000 114.1983340000,22.3404960000 114.1983290000,22.3404460000 114.1982850000,22.3402100000 114.1982670000,22.3400830000 114.1982510000,22.3399810000 114.1982290000,22.3399050000 114.1983000000,22.3397010000 114.1983140000,22.3396630000 114.1983770000,22.3395520000 114.1984200000,22.3395060000 114.1985290000,22.3394060000 114.1986000000,22.3393830000 114.1986990000,22.3393560000 114.1987880000,22.3393370000 114.1989330000,22.3393140000 114.1990780000,22.3392880000 114.1993490000,22.3392280000 114.1994100000,22.3392110000 114.1994370000,22.3391800000 114.1994600000,22.3391500000 114.1994660000,22.3391320000 114.1994630000,22.3391050000 114.1993800000,22.3389780000 114.1993560000,22.3389420000 114.1992410000,22.3387670000 114.1991550000,22.3386350000 114.1990100000,22.3384240000 114.1988330000,22.3381730000 114.1987720000,22.3380880000 114.1986320000,22.3379030000 114.1985580000,22.3378020000 114.1984030000,22.3376050000 114.1983070000,22.3374740000 114.1982120000,22.3373450000 114.1980640000,22.3371350000 114.1979760000,22.3370100000 114.1978610000,22.3368600000 114.1976660000,22.3366120000 114.1974660000,22.3363460000 114.1974490000,22.3363240000 114.1973750000,22.3362260000 114.1975100000,22.3361430000 114.1975400000,22.3361250000 114.1979650000,22.3358300000 114.1980790000,22.3358720000 114.1980980000,22.3358790000 114.1982710000,22.3359050000 114.1985300000,22.3359980000 114.1985870000,22.3360210000 114.1989710000,22.3361690000 114.1991900000,22.3362680000 114.1992850000,22.3362300000 114.1993420000,22.3361690000 114.1993990000,22.3360910000 114.1994630000,22.3359950000 114.1995230000,22.3358970000 114.1995790000,22.3357970000 114.1996310000,22.3356940000 114.1996780000,22.3355900000 114.1997210000,22.3354840000 114.1998270000,22.3352240000 114.1999290000,22.3349670000 114.2000580000,22.3346240000 114.2002680000,22.3340190000 114.2003600000,22.3337560000 114.2003880000,22.3336780000 114.2004130000,22.3335700000 114.2004260000,22.3334440000 114.2003870000,22.3332860000 114.2003610000,22.3332510000 114.2002750000,22.3331350000 114.2001000000,22.3330200000 114.1998400000,22.3329180000 114.1988000000,22.3325130000 114.1984900000,22.3323800000 114.1983070000,22.3322410000 114.1981770000,22.3321730000 114.1981350000,22.3321520000 114.1979820000,22.3320440000 114.1978310000,22.3319330000 114.1977600000,22.3318750000 114.1976150000,22.3317570000 114.1975890000,22.3317330000 114.1975470000,22.3316950000 114.1974980000,22.3316380000 114.1974550000,22.3315700000 114.1974120000,22.3314820000 114.1974000000,22.3314180000 114.1973830000,22.3313890000 114.1973660000,22.3313620000 114.1973140000,22.3313180000 114.1972500000,22.3312920000 114.1971800000,22.3312860000 114.1971120000,22.3313020000 114.1970530000,22.3313370000 114.1970100000,22.3313870000 114.1969850000,22.3314480000 114.1969840000,22.3315120000 114.1970040000,22.3315740000 114.1970440000,22.3316260000 114.1970970000,22.3316620000 114.1971580000,22.3316810000 114.1972220000,22.3316830000 114.1972780000,22.3316700000 114.1973690000,22.3317050000 114.1974360000,22.3317300000 114.1974800000,22.3317520000 114.1975350000,22.3317900000 114.1975470000,22.3317980000 114.1977070000,22.3319270000 114.1977840000,22.3319890000 114.1978330000,22.3320260000 114.1979450000,22.3321120000 114.1980230000,22.3321650000 114.1981030000,22.3322200000 114.1981650000,22.3322580000 114.1982590000,22.3323160000 114.1983930000,22.3324120000 114.1986350000,22.3325370000 114.1987400000,22.3325800000 114.1991440000,22.3327360000 114.1992840000,22.3327930000 114.1998130000,22.3329940000 114.1998440000,22.3330060000 114.1998770000,22.3330180000 114.2002190000,22.3331460000 114.2002820000,22.3331940000 114.2003620000,22.3332830000 114.2003610000,22.3333110000 114.2003690000,22.3333390000 114.2003910000,22.3333770000 114.2004240000,22.3334060000 114.2004660000,22.3334240000 114.2005280000,22.3334280000 114.2005570000,22.3334190000 114.2005960000,22.3333970000 114.2006610000,22.3333980000 114.2007470000,22.3334060000 114.2008110000,22.3334120000 114.2009140000,22.3334230000 114.2009760000,22.3334430000 114.2010180000,22.3334600000 114.2010810000,22.3335010000 114.2011400000,22.3335390000 114.2012310000,22.3336060000 114.2012790000,22.3336410000 114.2013260000,22.3336830000 114.2013850000,22.3337400000 114.2014260000,22.3337830000 114.2014650000,22.3338280000 114.2015080000,22.3338820000 114.2015320000,22.3339140000 114.2015560000,22.3339450000 114.2015950000,22.3340010000 114.2016340000,22.3340620000 114.2017720000,22.3342740000 114.2018280000,22.3343540000 114.2019000000,22.3344470000 114.2019770000,22.3345390000 114.2020340000,22.3346010000 114.2020880000,22.3346520000 114.2021360000,22.3346920000 114.2021850000,22.3347290000 114.2022560000,22.3347790000 114.2023240000,22.3348220000 114.2023940000,22.3348610000 114.2024580000,22.3348930000 114.2025210000,22.3349220000 114.2025880000,22.3349480000 114.2026730000,22.3349770000 114.2027620000,22.3350040000 114.2028490000,22.3350240000 114.2029330000,22.3350410000 114.2029750000,22.3350450000 114.2030640000,22.3350560000 114.2031110000,22.3350590000 114.2031780000,22.3350620000 114.2033770000,22.3350490000 114.2036650000,22.3349970000 114.2037300000,22.3350040000 114.2037960000,22.3349940000 114.2038560000,22.3349690000 114.2039070000,22.3349310000 114.2039460000,22.3348810000 114.2041190000,22.3347760000 114.2042280000,22.3347000000 114.2043250000,22.3346220000 114.2044190000,22.3345280000 114.2045090000,22.3344250000 114.2045690000,22.3343420000 114.2046190000,22.3342650000 114.2046630000,22.3341820000 114.2046970000,22.3341020000 114.2047240000,22.3340190000 114.2047430000,22.3339380000 114.2047550000,22.3338710000 114.2047630000,22.3337800000 114.2047640000,22.3336190000 114.2047600000,22.3333530000 114.2047600000,22.3333210000 114.2047590000,22.3332450000 114.2047590000,22.3331420000 114.2047610000,22.3330820000 114.2047640000,22.3330090000 114.2047640000,22.3329830000 114.2047860000,22.3327960000 114.2048000000,22.3326640000 114.2048100000,22.3325870000 114.2048300000,22.3324220000 114.2048710000,22.3320820000 114.2048740000,22.3317050000 114.2048750000,22.3314220000 114.2048760000,22.3313870000 114.2048770000,22.3312170000 114.2053360000,22.3312100000 114.2053860000,22.3311950000 114.2054670000,22.3311690000 114.2055110000,22.3312180000 114.2055300000,22.3312310000 114.2055660000,22.3312570000 114.2056600000,22.3312890000 114.2058060000,22.3312980000 114.2058560000,22.3313000000 114.2060440000,22.3313090000 114.2061510000,22.3313070000 114.2062240000,22.3312960000 114.2062460000,22.3312910000 114.2063530000,22.3312630000 114.2064750000,22.3312160000 114.2065670000,22.3311600000 114.2066550000,22.3310940000 114.2068990000,22.3309080000 114.2069670000,22.3308570000 114.2070250000,22.3308130000 114.2072440000,22.3306450000 114.2073210000,22.3305800000 114.2073290000,22.3305740000 114.2079850000,22.3300530000 114.2080100000,22.3300310000 114.2080840000,22.3299500000 114.2081390000,22.3298540000 114.2081640000,22.3297910000 114.2081850000,22.3297420000 114.2082120000,22.3296660000 114.2082380000,22.3293990000 114.2082620000,22.3291580000 114.2082680000,22.3290950000 114.2082820000,22.3289500000 114.2083150000,22.3286200000 114.2083540000,22.3282260000 114.2083950000,22.3278020000 114.2084110000,22.3276460000 114.2084240000,22.3275090000 114.2084940000,22.3268070000 114.2085030000,22.3267090000 114.2085110000,22.3266280000 114.2085150000,22.3265930000 114.2085240000,22.3264940000 114.2085480000,22.3262600000 114.2085660000,22.3260710000 114.2085850000,22.3258850000 114.2086000000,22.3256960000 114.2086040000,22.3256480000 114.2086130000,22.3255360000 114.2086280000,22.3254190000 114.2086500000,22.3252840000 114.2086540000,22.3252460000 114.2086670000,22.3251230000 114.2086990000,22.3248200000 114.2087250000,22.3245870000 114.2087360000,22.3244800000 114.2087570000,22.3242740000 114.2088220000,22.3236340000 114.2088320000,22.3235290000 114.2088550000,22.3233060000 114.2089290000,22.3225750000 114.2089300000,22.3225590000 114.2089400000,22.3224630000 114.2089450000,22.3224140000 114.2089680000,22.3221910000 114.2089980000,22.3218880000 114.2090000000,22.3218640000 114.2090140000,22.3217350000 114.2090240000,22.3216420000 114.2090310000,22.3215460000 114.2090350000,22.3215100000 114.2090530000,22.3213100000 114.2090590000,22.3212430000 114.2090700000,22.3211240000 114.2090830000,22.3209740000 114.2091110000,22.3206750000 114.2091240000,22.3205300000 114.2091270000,22.3204980000 114.2091390000,22.3203900000 114.2091520000,22.3202680000 114.2091570000,22.3202110000 114.2091840000,22.3199120000 114.2091990000,22.3198160000 114.2092050000,22.3197710000 114.2092130000,22.3197040000 114.2092190000,22.3196830000 114.2092740000,22.3194940000 114.2092780000,22.3194510000 114.2092950000,22.3192970000 114.2093060000,22.3192010000 114.2093150000,22.3190520000 114.2093170000,22.3190080000 114.2093190000,22.3189730000 114.2092970000,22.3187910000 114.2092770000,22.3187500000 114.2092970000,22.3185780000 114.2093110000,22.3185160000 114.2093300000,22.3184300000 114.2093370000,22.3183800000 114.2093510000,22.3182880000 114.2093720000,22.3181720000 114.2094220000,22.3180200000 114.2094620000,22.3179210000 114.2095090000,22.3178320000 114.2095840000,22.3178000000 114.2096850000,22.3176990000 114.2097720000,22.3176150000 114.2098800000,22.3175340000 114.2099480000,22.3174830000 114.2100110000,22.3174430000 114.2100790000,22.3174050000 114.2102040000,22.3173480000 114.2103040000,22.3173100000 114.2103910000,22.3172830000 114.2104700000,22.3172670000 114.2105740000,22.3172490000 114.2106810000,22.3172390000 114.2107860000,22.3172350000 114.2108870000,22.3172340000 114.2111870000,22.3172340000 114.2113070000,22.3172270000 114.2114440000,22.3172180000 114.2115280000,22.3172040000 114.2116190000,22.3171870000 114.2117670000,22.3171540000 114.2118800000,22.3171270000 114.2119770000,22.3170990000 114.2120540000,22.3170760000 114.2121070000,22.3170510000 114.2122780000,22.3169410000 114.2123740000,22.3169050000 114.2124740000,22.3168660000 114.2125880000,22.3168170000 114.2126860000,22.3167710000 114.2128020000,22.3167100000 114.2128780000,22.3166650000 114.2129570000,22.3166170000 114.2130380000,22.3165620000 114.2131120000,22.3165080000 114.2131720000,22.3164640000 114.2132510000,22.3164000000 114.2134680000,22.3162080000 114.2138690000,22.3158060000 114.2142290000,22.3154490000 114.2144950000,22.3151780000 114.2145580000,22.3151140000 114.2148470000,22.3148200000 114.2153530000,22.3142870000 114.2163560000,22.3132420000 114.2173930000,22.3121960000 114.2177430000,22.3118360000 114.2181890000,22.3113600000 114.2187700000,22.3106940000 114.2194920000,22.3097790000 114.2196560000,22.3095700000 114.2201190000,22.3089800000 114.2206900000,22.3082660000 114.2208580000,22.3080590000 114.2211120000,22.3077160000 114.2211320000,22.3076900000 114.2212710000,22.3074870000 114.2216420000,22.3069660000 114.2217420000,22.3068270000 114.2218470000,22.3066940000 114.2219330000,22.3065930000 114.2220580000,22.3064760000 114.2221670000,22.3063960000 114.2222180000,22.3063640000 114.2222530000,22.3063430000 114.2222790000,22.3063270000 114.2223060000,22.3063110000 114.2223280000,22.3063000000 114.2223460000,22.3062920000 114.2224310000,22.3062490000 114.2225170000,22.3062080000 114.2225920000,22.3061770000 114.2226550000,22.3061540000 114.2227520000,22.3061270000 114.2228370000,22.3061070000 114.2229130000,22.3060920000 114.2230030000,22.3060800000 114.2230840000,22.3060760000 114.2231720000,22.3060700000 114.2232510000,22.3060690000 114.2233290000,22.3060720000 114.2234080000,22.3060790000 114.2235050000,22.3060910000 114.2235800000,22.3061040000 114.2236310000,22.3061140000 114.2236610000,22.3061190000 114.2237260000,22.3061370000 114.2238140000,22.3061650000 114.2238910000,22.3061920000 114.2239620000,22.3062230000 114.2240380000,22.3062580000 114.2241160000,22.3062990000 114.2242250000,22.3063630000 114.2242840000,22.3063970000 114.2244660000,22.3065270000 114.2246430000,22.3066550000 114.2247820000,22.3067600000 114.2253170000,22.3071670000 114.2261930000,22.3078320000 114.2263050000,22.3079090000 114.2263390000,22.3079310000 114.2265030000,22.3080390000 114.2266330000,22.3081100000 114.2267610000,22.3081800000 114.2269680000,22.3082750000 114.2270750000,22.3083210000 114.2271530000,22.3083550000 114.2272160000,22.3083810000 114.2272570000,22.3083980000 114.2273690000,22.3084400000 114.2276000000,22.3085110000 114.2277000000,22.3085340000 114.2277540000,22.3085460000 114.2286010000,22.3087410000 114.2288660000,22.3087920000 114.2292800000,22.3088830000 114.2295850000,22.3089080000 114.2296840000,22.3089260000 114.2297230000,22.3089350000 114.2299840000,22.3089970000 114.2301460000,22.3090300000 114.2302740000,22.3090520000 114.2303890000,22.3090620000 114.2306130000,22.3090710000 114.2307740000,22.3090660000 114.2309120000,22.3090500000 114.2310670000,22.3090210000 114.2311800000,22.3089880000 114.2312760000,22.3089540000 114.2314070000,22.3088970000 114.2315090000,22.3088430000 114.2316160000,22.3087700000 114.2317040000,22.3087010000 114.2317980000,22.3086180000 114.2319070000,22.3085110000 114.2320500000,22.3083540000 114.2325270000,22.3078050000 114.2330240000,22.3072430000 114.2333730000,22.3068320000 114.2334400000,22.3067510000 114.2334880000,22.3066920000 114.2335350000,22.3066360000 114.2335690000,22.3065960000 114.2336010000,22.3065590000 114.2337480000,22.3063870000 114.2339860000,22.3060810000 114.2341080000,22.3059240000 114.2342170000,22.3057950000 114.2346240000,22.3053270000 114.2347410000,22.3052050000 114.2349220000,22.3049880000 114.2350090000,22.3048730000 114.2351640000,22.3046430000 114.2352000000,22.3045790000 114.2352410000,22.3045080000 114.2352780000,22.3044340000 114.2353120000,22.3043600000 114.2353430000,22.3042840000 114.2353690000,22.3042160000 114.2354120000,22.3040690000 114.2354480000,22.3039210000 114.2354810000,22.3036930000 114.2354950000,22.3035510000 114.2355000000,22.3034080000 114.2354960000,22.3032660000 114.2354830000,22.3031240000 114.2354610000,22.3029820000 114.2354300000,22.3028420000 114.2353910000,22.3027050000 114.2353420000,22.3025680000 114.2352850000,22.3024350000 114.2352190000,22.3023050000 114.2351460000,22.3021790000 114.2350640000,22.3020580000 114.2349750000,22.3019400000 114.2348790000,22.3018280000 114.2347780000,22.3017240000 114.2346390000,22.3015520000 114.2345070000,22.3014210000 114.2343180000,22.3012460000 114.2341660000,22.3011500000 114.2340250000,22.3010750000 114.2339420000,22.3010210000 114.2336720000,22.3008600000 114.2335880000,22.3008100000 114.2333650000,22.3006800000 114.2332200000,22.3004080000 114.2329980000,22.3002730000 114.2329560000,22.3002480000 114.2328710000,22.3001990000 114.2327510000,22.3001320000 114.2325430000,22.3000570000 114.2320890000,22.2999830000 114.2318680000,22.2998750000 114.2317430000,22.2998160000 114.2316660000,22.2997790000 114.2315800000,22.2997260000 114.2314320000,22.2996350000 114.2313190000,22.2995710000 114.2310720000,22.2994350000 114.2306520000,22.2992110000 114.2302200000,22.2989800000 114.2298200000,22.2987710000 114.2130560000,22.2900030000 114.2128440000,22.2899070000 114.2127060000,22.2898440000 114.2125860000,22.2897730000 114.2124740000,22.2897070000 114.2123600000,22.2896000000 114.2122670000,22.2894860000 114.2122090000,22.2893950000 114.2121680000,22.2892920000 114.2121400000,22.2891850000 114.2121200000,22.2890270000 114.2121470000,22.2888410000 114.2122100000,22.2886710000 114.2122970000,22.2885530000 114.2123720000,22.2884540000 114.2125140000,22.2883720000 114.2125620000,22.2883450000 114.2126130000,22.2883210000 114.2126640000,22.2883030000 114.2127070000,22.2882900000 114.2127630000,22.2882800000 114.2128140000,22.2882710000 114.2128650000,22.2882660000 114.2129350000,22.2882650000 114.2130390000,22.2882650000 114.2131260000,22.2882710000 114.2132330000,22.2882970000 114.2133040000,22.2883230000 114.2133720000,22.2883500000 114.2134540000,22.2883920000 114.2135280000,22.2884390000 114.2135770000,22.2884740000 114.2136250000,22.2885150000 114.2136680000,22.2885550000 114.2137090000,22.2886030000 114.2137680000,22.2886870000 114.2138070000,22.2887510000 114.2138390000,22.2888150000 114.2138650000,22.2888760000 114.2138790000,22.2889200000 114.2138910000,22.2889800000 114.2138970000,22.2890600000 114.2138950000,22.2891510000 114.2138780000,22.2892930000 114.2138430000,22.2893960000 114.2137990000,22.2894820000 114.2137390000,22.2895790000 114.2136370000,22.2896870000 114.2135430000,22.2897790000 114.2134820000,22.2898300000 114.2133850000,22.2898990000 114.2132830000,22.2899810000 114.2131690000,22.2900720000 114.2127380000,22.2903170000 114.2124830000,22.2904610000 114.2123200000,22.2905530000 114.2122130000,22.2906180000 114.2121310000,22.2906670000 114.2120320000,22.2907270000 114.2119230000,22.2907940000 114.2116530000,22.2909590000 114.2114960000,22.2910550000 114.2114030000,22.2911130000 114.2111810000,22.2912530000 114.2110560000,22.2913310000 114.2109730000,22.2913830000 114.2106220000,22.2916380000 114.2102020000,22.2919430000 114.2096790000,22.2923280000 114.2094250000,22.2924890000 114.2091620000,22.2926270000 114.2088160000,22.2927860000 114.2086880000,22.2928400000 114.2084250000,22.2929190000 114.2081530000,22.2930010000 114.2077170000,22.2931270000 114.2072230000,22.2932690000 114.2071640000,22.2932870000 114.2066740000,22.2934340000 114.2061700000,22.2935940000 114.2056640000,22.2937480000 114.2053700000,22.2938370000 114.2050060000,22.2939470000 114.2049120000,22.2939730000 114.2046900000,22.2940290000 114.2045330000,22.2940650000 114.2042430000,22.2941180000 114.2040330000,22.2941470000 114.2039120000,22.2941540000 114.2037320000,22.2941650000 114.2035270000,22.2941680000 114.2034090000,22.2941650000 114.2032010000,22.2941380000 114.2031730000,22.2941340000 114.2030020000,22.2941110000 114.2029330000,22.2941020000 114.2028290000,22.2940850000 114.2026460000,22.2940560000 114.2025500000,22.2940360000 114.2022170000,22.2939690000 114.2021190000,22.2939490000 114.2018350000,22.2938920000 114.2015540000,22.2938360000 114.2013450000,22.2937940000 114.2005900000,22.2936420000 114.2005170000,22.2936260000 114.2000710000,22.2935390000 114.1999040000,22.2935110000 114.1997390000,22.2934890000 114.1995910000,22.2934740000 114.1994500000,22.2934640000 114.1992990000,22.2934600000 114.1989250000,22.2934630000 114.1987990000,22.2934610000 114.1986680000,22.2934560000 114.1984820000,22.2934470000 114.1983720000,22.2934380000 114.1982150000,22.2934210000 114.1980750000,22.2933990000 114.1971540000,22.2932100000 114.1968890000,22.2931570000 114.1966340000,22.2931040000 114.1963890000,22.2930500000 114.1963650000,22.2930450000 114.1962830000,22.2930270000 114.1961050000,22.2929900000 114.1958550000,22.2929350000 114.1956370000,22.2928790000 114.1955750000,22.2928640000 114.1955000000,22.2928430000 114.1953420000,22.2928020000 114.1950760000,22.2927130000 114.1949500000,22.2926590000 114.1948340000,22.2926050000 114.1947770000,22.2925780000 114.1947230000,22.2925510000 114.1945570000,22.2924640000 114.1944720000,22.2924140000 114.1943380000,22.2923400000 114.1943010000,22.2923180000 114.1940990000,22.2921780000 114.1939740000,22.2920840000 114.1938490000,22.2919940000 114.1937010000,22.2918840000 114.1936750000,22.2918610000 114.1936060000,22.2918030000 114.1935350000,22.2917410000 114.1934410000,22.2916610000 114.1933890000,22.2916150000 114.1933500000,22.2915810000 114.1933240000,22.2915550000 114.1933070000,22.2915380000 114.1932510000,22.2914830000 114.1931350000,22.2913490000 114.1931050000,22.2912530000 114.1930930000,22.2912180000 114.1930760000,22.2911620000 114.1930060000,22.2910820000 114.1929330000,22.2909960000 114.1928030000,22.2908470000 114.1922990000,22.2903210000 114.1915880000,22.2895560000 114.1913760000,22.2893230000 114.1912520000,22.2891910000 114.1906770000,22.2885810000 114.1903320000,22.2882150000 114.1900190000,22.2878880000 114.1899830000,22.2878420000 114.1898890000,22.2877330000 114.1898310000,22.2876540000 114.1897600000,22.2875550000 114.1896840000,22.2874280000 114.1896380000,22.2873400000 114.1895570000,22.2872390000 114.1894580000,22.2870630000 114.1894350000,22.2869950000 114.1894190000,22.2869350000 114.1894020000,22.2868650000 114.1893850000,22.2867830000 114.1893780000,22.2867270000 114.1893710000,22.2866570000 114.1893630000,22.2865650000 114.1893570000,22.2864690000 114.1893520000,22.2863510000 114.1893440000,22.2860110000 114.1893380000,22.2859370000 114.1893310000,22.2858670000 114.1893190000,22.2857830000 114.1893060000,22.2857010000 114.1892870000,22.2856040000 114.1892600000,22.2854970000 114.1892280000,22.2853930000 114.1891830000,22.2852740000 114.1891130000,22.2851340000 114.1890310000,22.2850070000 114.1889800000,22.2849320000 114.1888980000,22.2848300000 114.1888130000,22.2847440000 114.1887120000,22.2846530000 114.1885960000,22.2845670000 114.1884740000,22.2844880000 114.1883480000,22.2844200000 114.1882350000,22.2843700000 114.1880960000,22.2843140000 114.1879710000,22.2842690000 114.1877860000,22.2842120000 114.1876240000,22.2841670000 114.1871890000,22.2840570000 114.1871400000,22.2840320000 114.1870940000,22.2839960000 114.1869060000,22.2839590000 114.1866430000,22.2839070000 114.1865190000,22.2838830000 114.1864390000,22.2838650000 114.1863640000,22.2838430000 114.1862310000,22.2837970000 114.1860990000,22.2837360000 114.1859880000,22.2836800000 114.1859020000,22.2836190000 114.1857900000,22.2835350000 114.1854100000,22.2832190000 114.1852890000,22.2831460000 114.1851240000,22.2830460000 114.1849060000,22.2828830000 114.1846060000,22.2826830000 114.1843680000,22.2825090000 114.1842400000,22.2824220000 114.1840550000,22.2823030000 114.1836400000,22.2821430000 114.1835710000,22.2821150000 114.1834410000,22.2820630000 114.1832710000,22.2819960000 114.1831930000,22.2819650000 114.1831000000,22.2819290000 114.1830130000,22.2818950000 114.1828970000,22.2818500000 114.1827910000,22.2818100000 114.1826870000,22.2817690000 114.1823980000,22.2816580000 114.1823200000,22.2816240000 114.1822920000,22.2816120000 114.1821640000,22.2815570000 114.1820580000,22.2815120000 114.1819390000,22.2814620000 114.1818240000,22.2814020000 114.1817500000,22.2813760000 114.1816690000,22.2813450000 114.1815870000,22.2813120000 114.1812430000,22.2811660000 114.1810850000,22.2810930000 114.1810550000,22.2810810000 114.1808510000,22.2810020000 114.1808190000,22.2809850000 114.1807930000,22.2809610000 114.1807780000,22.2809430000 114.1807650000,22.2809150000 114.1807560000,22.2808850000 114.1807460000,22.2808410000 114.1807420000,22.2808030000 114.1807380000,22.2807610000 114.1807390000,22.2806910000 114.1808040000,22.2805450000 114.1808610000,22.2804160000 114.1809500000,22.2802120000 114.1810290000,22.2800310000 114.1810660000,22.2799330000 114.1810880000,22.2798650000 114.1812520000,22.2794790000 114.1812860000,22.2793120000 114.1812870000,22.2790460000 114.1812860000,22.2789260000 114.1812370000,22.2779650000 114.1812260000,22.2774140000 114.1812420000,22.2772840000 114.1812720000,22.2770000000 114.1812410000,22.2767380000 114.1812130000,22.2766150000 114.1811660000,22.2764600000 114.1810800000,22.2762690000 114.1810020000,22.2761330000 114.1808920000,22.2759690000 114.1808100000,22.2758640000 114.1807350000,22.2757790000 114.1806500000,22.2756880000 114.1802450000,22.2752830000 114.1801920000,22.2752310000 114.1800030000,22.2751660000 114.1799360000,22.2750910000 114.1798290000,22.2749600000 114.1797520000,22.2748520000 114.1796820000,22.2747400000 114.1796230000,22.2746330000 114.1795220000,22.2746190000 114.1793970000,22.2746150000 114.1791540000,22.2746610000 114.1785960000,22.2748080000 114.1784700000,22.2748410000 114.1784210000,22.2748550000 114.1780130000,22.2749760000 114.1779780000,22.2749870000 114.1778800000,22.2750120000 114.1777910000,22.2750360000 114.1775420000,22.2750940000 114.1774010000,22.2751120000 114.1773060000,22.2751130000 114.1772330000,22.2751100000 114.1771560000,22.2750970000 114.1768550000,22.2750350000 114.1765850000,22.2749740000 114.1762320000,22.2748940000 114.1759660000,22.2748410000 114.1758370000,22.2748060000 114.1757230000,22.2747630000 114.1755930000,22.2746930000 114.1755400000,22.2746600000 114.1754630000,22.2746130000 114.1754150000,22.2745600000 114.1753950000,22.2745380000 114.1753310000,22.2744650000 114.1752520000,22.2744350000 114.1751480000,22.2744280000 114.1749890000,22.2744240000 114.1745890000,22.2744150000 114.1745510000,22.2744150000 114.1741330000,22.2744120000 114.1740350000,22.2744110000 114.1740020000,22.2744110000 114.1739610000,22.2744110000 114.1739120000,22.2744100000 114.1738470000,22.2744110000 114.1737370000,22.2744160000 114.1733950000,22.2744440000 114.1733120000,22.2744550000 114.1732120000,22.2744750000 114.1730880000,22.2745080000 114.1727410000,22.2745980000 114.1726110000,22.2746320000 114.1723550000,22.2747320000 114.1723140000,22.2747480000 114.1722380000,22.2747900000 114.1721910000,22.2748170000 114.1719840000,22.2749330000 114.1716660000,22.2751110000 114.1714240000,22.2752420000 114.1714090000,22.2752500000 114.1710690000,22.2754660000 114.1709480000,22.2755350000 114.1708970000,22.2755640000 114.1708620000,22.2755840000 114.1708500000,22.2755910000 114.1706320000,22.2757140000 114.1702840000,22.2759830000 114.1702410000,22.2760140000 114.1701900000,22.2760530000 114.1701250000,22.2760990000 114.1697480000,22.2763480000 114.1696130000,22.2764320000 114.1693520000,22.2766090000 114.1690390000,22.2768190000 114.1689060000,22.2769030000 114.1687350000,22.2770170000 114.1685820000,22.2771190000 114.1684790000,22.2771850000 114.1683290000,22.2772810000 114.1681050000,22.2774330000 114.1680410000,22.2774670000 114.1680270000,22.2774750000 114.1676380000,22.2777150000 114.1676070000,22.2777350000 114.1674650000,22.2778220000 114.1673240000,22.2778430000 114.1663690000,22.2779390000 114.1661220000,22.2779690000 114.1659210000,22.2779930000 114.1657880000,22.2780080000 114.1654950000,22.2780460000 114.1654670000,22.2780500000 114.1654250000,22.2780560000 114.1649730000,22.2781170000 114.1648760000,22.2781360000 114.1646860000,22.2781740000 114.1644950000,22.2782280000 114.1643070000,22.2782990000 114.1640380000,22.2784180000 114.1638230000,22.2785170000 114.1637050000,22.2785840000 114.1636400000,22.2786240000 114.1634530000,22.2787390000 114.1633770000,22.2787880000 114.1630190000,22.2790660000 114.1628030000,22.2792020000 114.1627540000,22.2792320000 114.1625970000,22.2793340000 114.1625700000,22.2793420000 114.1624630000,22.2793960000 114.1624150000,22.2794190000 114.1622890000,22.2794780000 114.1620130000,22.2795920000 114.1618520000,22.2796470000 114.1615670000,22.2797490000 114.1615240000,22.2797580000 114.1613930000,22.2797870000 114.1613130000,22.2798000000 114.1610710000,22.2798410000 114.1608870000,22.2798740000 114.1607940000,22.2799100000 114.1607310000,22.2799330000 114.1606710000,22.2799490000 114.1605230000,22.2799630000 114.1604820000,22.2799670000 114.1603650000,22.2799660000 114.1602120000,22.2799520000 114.1598470000,22.2798960000 114.1598280000,22.2798930000 114.1597000000,22.2798740000 114.1596730000,22.2798700000 114.1596530000,22.2798700000 114.1595240000,22.2798700000 114.1594410000,22.2798800000 114.1593040000,22.2799080000 114.1591270000,22.2799530000 114.1587870000,22.2800460000 114.1584870000,22.2801230000 114.1580780000,22.2802080000 114.1580240000,22.2802220000 114.1579060000,22.2802550000 114.1578680000,22.2802690000 114.1578270000,22.2802870000 114.1577870000,22.2803150000 114.1577420000,22.2803570000 114.1575190000,22.2806240000 114.1573380000,22.2808460000 114.1572550000,22.2809390000 114.1572390000,22.2809570000 114.1572080000,22.2809950000 114.1571500000,22.2810650000 114.1569830000,22.2812640000 114.1569530000,22.2812990000 114.1568840000,22.2813790000 114.1568100000,22.2814600000 114.1567690000,22.2815040000 114.1567270000,22.2815500000 114.1566540000,22.2816300000 114.1565830000,22.2817090000 114.1565450000,22.2817470000 114.1565180000,22.2817800000 114.1564860000,22.2818210000 114.1564730000,22.2818380000 114.1559090000,22.2825310000 114.1558930000,22.2825510000 114.1556900000,22.2828040000 114.1555480000,22.2829700000 114.1554840000,22.2830640000 114.1553510000,22.2832530000 114.1552360000,22.2833860000 114.1552170000,22.2834090000 114.1551300000,22.2835100000 114.1550900000,22.2835460000 114.1549400000,22.2836500000 114.1548360000,22.2837280000 114.1548060000,22.2837510000 114.1547300000,22.2838090000 114.1545130000,22.2839720000 114.1541970000,22.2841820000 114.1540630000,22.2842790000 114.1540250000,22.2843050000 114.1538510000,22.2844390000 114.1536380000,22.2846230000 114.1533510000,22.2848580000 114.1531100000,22.2850720000 114.1530070000,22.2851760000 114.1529620000,22.2852000000 114.1528410000,22.2852620000 114.1527530000,22.2853130000 114.1526260000,22.2853810000 114.1523930000,22.2855070000 114.1522760000,22.2855830000 114.1521980000,22.2856260000 114.1518610000,22.2857630000 114.1518050000,22.2857790000 114.1517420000,22.2857960000 114.1511380000,22.2859560000 114.1511160000,22.2859610000 114.1510870000,22.2859690000 114.1509540000,22.2860010000 114.1507890000,22.2860410000 114.1506730000,22.2860890000 114.1506440000,22.2861010000 114.1504380000,22.2862120000 114.1503140000,22.2862830000 114.1502950000,22.2862940000 114.1502640000,22.2863120000 114.1502810000,22.2863370000 114.1503360000,22.2864200000 114.1504000000,22.2865200000 114.1504500000,22.2867600000 114.1504580000,22.2867990000 114.1504800000,22.2869050000 114.1504880000,22.2869520000 114.1504940000,22.2869860000 114.1504820000,22.2870600000 114.1505350000,22.2872380000 114.1505910000,22.2874270000 114.1506010000,22.2874630000 114.1506320000,22.2875640000 114.1506300000,22.2876060000 114.1506280000,22.2876460000 114.1506270000,22.2876970000 114.1496140000,22.2879640000 114.1495260000,22.2880190000 114.1495080000,22.2880890000 114.1495090000,22.2881700000 114.1494730000,22.2883150000 114.1495180000,22.2884660000 114.1495940000,22.2887180000 114.1496170000,22.2887880000 114.1496590000,22.2888350000 114.1497120000,22.2888680000 114.1497820000,22.2888690000 114.1501790000,22.2887700000 114.1502660000,22.2887210000 114.1503190000,22.2886600000 114.1503620000,22.2886000000 114.1504140000,22.2885360000</coordinates>
                </LineString>
                <ExtendedData>
                    <Data name="length">
                        <value>45104.0719028047</value>
                    </Data>
                    <Data name="duration">
                        <value>00:58:38</value>
                    </Data>
                </ExtendedData>
            </Placemark>
        </Document>
    </Document>
</kml>