<?xml version="1.0" encoding="UTF-8"?>
<kml xmlns="http://www.opengis.net/kml/2.2" xmlns:gx="http://www.google.com/kml/ext/2.2">
    <Document>
        <name>Route</name>
        <Folder>
            <name>Route Request</name>
            <Placemark>
                <address>Kowloon City District, Kowloon, Hong Kong, PRC</address>
                <Point>
                    <coordinates>114.2735261854,22.3815480382</coordinates>
                </Point>
                <ExtendedData>
                    <Data name="county">
                        <value>Kowloon City District</value>
                    </Data>
                    <Data name="region">
                        <value>Kowloon</value>
                    </Data>
                    <Data name="country">
                        <value>PRC</value>
                    </Data>
                    <Data name="country_code">
                        <value>cn</value>
                    </Data>
                    <Data name="state">
                        <value>Hong Kong</value>
                    </Data>
                    <Data name="routingVisited">
                        <value>false</value>
                    </Data>
                </ExtendedData>
            </Placemark>
            <Placemark>
                <Point>
                    <coordinates>114.2660097716,22.3188847532</coordinates>
                </Point>
                <ExtendedData>
                    <Data name="routingVisited">
                        <value>false</value>
                    </Data>
                </ExtendedData>
            </Placemark>
            <Placemark>
                <Point>
                    <coordinates>114.2078496158,22.3218945492</coordinates>
                </Point>
            </Placemark>
            <Placemark>
                <Point>
                    <coordinates>114.2153563969,22.3043914478</coordinates>
                </Point>
                <ExtendedData>
                    <Data name="routingVisited">
                        <value>false</value>
                    </Data>
                </ExtendedData>
            </Placemark>
            <Placemark>
                <Point>
                    <coordinates>114.2078269004,22.3219552419</coordinates>
                </Point>
            </Placemark>
            <Placemark>
                <Point>
                    <coordinates>114.2691698365,22.3179012555</coordinates>
                </Point>
                <ExtendedData>
                    <Data name="routingVisited">
                        <value>false</value>
                    </Data>
                </ExtendedData>
            </Placemark>
            <Placemark>
                <address>Olympian City One, Hoi Fan Road, Kwun Chung, Tai Kok Tsui, Yau Tsim Mong District, Kowloon, Hong Kong, KIL 3348, PRC</address>
                <Point>
                    <coordinates>114.2735261850,22.3815427800</coordinates>
                </Point>
                <ExtendedData>
                    <Data name="mall">
                        <value>Olympian City One</value>
                    </Data>
                    <Data name="neighbourhood">
                        <value>Kwun Chung</value>
                    </Data>
                    <Data name="county">
                        <value>Yau Tsim Mong District</value>
                    </Data>
                    <Data name="postcode">
                        <value>KIL 3348</value>
                    </Data>
                    <Data name="region">
                        <value>Kowloon</value>
                    </Data>
                    <Data name="country">
                        <value>PRC</value>
                    </Data>
                    <Data name="country_code">
                        <value>cn</value>
                    </Data>
                    <Data name="road">
                        <value>Hoi Fan Road</value>
                    </Data>
                    <Data name="state">
                        <value>Hong Kong</value>
                    </Data>
                    <Data name="suburb">
                        <value>Tai Kok Tsui</value>
                    </Data>
                    <Data name="routingVisited">
                        <value>false</value>
                    </Data>
                </ExtendedData>
            </Placemark>
        </Folder>
        <Document>
            <name>44.1 km; 01:45 h (OSRM)</name>
            <Placemark>
                <name>Route</name>
                <LineString>
                    <coordinates>114.2735350000,22.3815580000 114.2734500000,22.3816240000 114.2734420000,22.3816310000 114.2734380000,22.3816410000 114.2734370000,22.3816520000 114.2734400000,22.3816620000 114.2734470000,22.3816710000 114.2734650000,22.3816910000 114.2734950000,22.3817230000 114.2735230000,22.3817540000 114.2735500000,22.3817830000 114.2735760000,22.3818110000 114.2735820000,22.3818230000 114.2735860000,22.3818360000 114.2735880000,22.3818490000 114.2735880000,22.3818620000 114.2735860000,22.3818750000 114.2735820000,22.3818890000 114.2735770000,22.3819060000 114.2735640000,22.3819180000 114.2733400000,22.3821010000 114.2730750000,22.3823090000 114.2730580000,22.3823230000 114.2725480000,22.3827120000 114.2723310000,22.3828820000 114.2718780000,22.3832380000 114.2717600000,22.3833320000 114.2716850000,22.3833920000 114.2715670000,22.3834860000 114.2715420000,22.3835020000 114.2715100000,22.3835190000 114.2714690000,22.3835400000 114.2714270000,22.3835540000 114.2713890000,22.3835660000 114.2713170000,22.3835810000 114.2710720000,22.3836330000 114.2709850000,22.3836590000 114.2709550000,22.3835750000 114.2709150000,22.3834710000 114.2709070000,22.3834070000 114.2709030000,22.3832710000 114.2709100000,22.3832050000 114.2709170000,22.3831580000 114.2709670000,22.3829400000 114.2710090000,22.3827060000 114.2710140000,22.3826780000 114.2710370000,22.3825010000 114.2710420000,22.3824080000 114.2710350000,22.3822930000 114.2709990000,22.3821450000 114.2709370000,22.3819950000 114.2708530000,22.3817940000 114.2708070000,22.3817080000 114.2707570000,22.3816300000 114.2707300000,22.3815960000 114.2706320000,22.3815000000 114.2705600000,22.3814370000 114.2705090000,22.3814000000 114.2704240000,22.3813560000 114.2703370000,22.3813180000 114.2702640000,22.3812890000 114.2701920000,22.3812630000 114.2700840000,22.3812290000 114.2699930000,22.3812070000 114.2699200000,22.3811980000 114.2698110000,22.3811860000 114.2697070000,22.3811670000 114.2696410000,22.3811520000 114.2694820000,22.3810970000 114.2691600000,22.3809780000 114.2690160000,22.3809160000 114.2689190000,22.3808760000 114.2687890000,22.3808230000 114.2687430000,22.3808040000 114.2684810000,22.3806920000 114.2684450000,22.3806740000 114.2683190000,22.3806090000 114.2681860000,22.3805320000 114.2680860000,22.3804320000 114.2679920000,22.3803780000 114.2678970000,22.3803240000 114.2677870000,22.3802630000 114.2676750000,22.3802340000 114.2672960000,22.3800120000 114.2668470000,22.3797590000 114.2664210000,22.3795200000 114.2663130000,22.3794540000 114.2662180000,22.3793770000 114.2661350000,22.3793040000 114.2660560000,22.3792280000 114.2659560000,22.3791150000 114.2654850000,22.3784740000 114.2654680000,22.3784500000 114.2653500000,22.3782770000 114.2649790000,22.3777360000 114.2645190000,22.3771870000 114.2644410000,22.3771190000 114.2636690000,22.3764340000 114.2634800000,22.3763490000 114.2632950000,22.3762990000 114.2631850000,22.3762670000 114.2630560000,22.3761960000 114.2623050000,22.3754960000 114.2622670000,22.3754620000 114.2621190000,22.3753300000 114.2616680000,22.3750580000 114.2615920000,22.3750110000 114.2614870000,22.3749270000 114.2613660000,22.3748090000 114.2612910000,22.3746750000 114.2612680000,22.3745910000 114.2612490000,22.3745190000 114.2612220000,22.3744380000 114.2610260000,22.3738430000 114.2609680000,22.3736160000 114.2608820000,22.3734210000 114.2608510000,22.3733720000 114.2608140000,22.3733270000 114.2606600000,22.3731880000 114.2604750000,22.3730770000 114.2603800000,22.3729900000 114.2603190000,22.3729220000 114.2602810000,22.3728490000 114.2601080000,22.3722780000 114.2600460000,22.3721090000 114.2599690000,22.3719010000 114.2599090000,22.3716730000 114.2598870000,22.3715890000 114.2597350000,22.3709300000 114.2596280000,22.3704390000 114.2596210000,22.3702820000 114.2596140000,22.3701060000 114.2596340000,22.3699130000 114.2598550000,22.3688430000 114.2599400000,22.3683650000 114.2600340000,22.3679000000 114.2600520000,22.3677820000 114.2600920000,22.3675700000 114.2600940000,22.3674040000 114.2600970000,22.3672430000 114.2600870000,22.3671240000 114.2600730000,22.3670180000 114.2600180000,22.3666170000 114.2599470000,22.3662780000 114.2599190000,22.3661920000 114.2596970000,22.3655100000 114.2594940000,22.3650510000 114.2594460000,22.3649410000 114.2593550000,22.3646960000 114.2593390000,22.3646650000 114.2592960000,22.3645830000 114.2591990000,22.3644020000 114.2589520000,22.3638800000 114.2589130000,22.3638190000 114.2588520000,22.3637450000 114.2587890000,22.3636890000 114.2586750000,22.3636150000 114.2585770000,22.3635610000 114.2583030000,22.3634030000 114.2579850000,22.3632430000 114.2579180000,22.3631990000 114.2578620000,22.3631580000 114.2578100000,22.3630920000 114.2573360000,22.3623470000 114.2571480000,22.3620960000 114.2570470000,22.3619740000 114.2568610000,22.3617600000 114.2567650000,22.3616470000 114.2566850000,22.3614890000 114.2566700000,22.3613010000 114.2566860000,22.3608380000 114.2566770000,22.3607120000 114.2566550000,22.3605920000 114.2565970000,22.3604610000 114.2563160000,22.3599540000 114.2562600000,22.3598690000 114.2561990000,22.3597990000 114.2561350000,22.3597440000 114.2560320000,22.3596870000 114.2558700000,22.3596350000 114.2557850000,22.3596260000 114.2556330000,22.3596360000 114.2554970000,22.3596600000 114.2554310000,22.3597050000 114.2547160000,22.3602830000 114.2543690000,22.3604060000 114.2539780000,22.3605110000 114.2536410000,22.3605220000 114.2533590000,22.3604870000 114.2531080000,22.3603950000 114.2530050000,22.3603400000 114.2527830000,22.3602000000 114.2526090000,22.3600310000 114.2523830000,22.3597490000 114.2522780000,22.3595380000 114.2522210000,22.3593130000 114.2520960000,22.3586070000 114.2520770000,22.3585090000 114.2520230000,22.3582360000 114.2519090000,22.3576450000 114.2517490000,22.3568240000 114.2517180000,22.3566760000 114.2516450000,22.3563160000 114.2515890000,22.3560400000 114.2515700000,22.3559480000 114.2515430000,22.3558230000 114.2515130000,22.3556660000 114.2514630000,22.3555270000 114.2513800000,22.3553700000 114.2512460000,22.3552240000 114.2511350000,22.3551030000 114.2510100000,22.3549980000 114.2509230000,22.3549260000 114.2504530000,22.3545470000 114.2502570000,22.3543490000 114.2502340000,22.3543260000 114.2501610000,22.3541890000 114.2501230000,22.3539780000 114.2501350000,22.3537550000 114.2501910000,22.3535330000 114.2502270000,22.3534280000 114.2502320000,22.3534080000 114.2502460000,22.3533990000 114.2502970000,22.3533560000 114.2503080000,22.3533370000 114.2503320000,22.3532960000 114.2503430000,22.3532780000 114.2503620000,22.3531910000 114.2503520000,22.3531030000 114.2503160000,22.3530230000 114.2502560000,22.3529550000 114.2502850000,22.3528130000 114.2502990000,22.3527660000 114.2504090000,22.3526340000 114.2507420000,22.3523360000 114.2511190000,22.3521470000 114.2515150000,22.3519740000 114.2519220000,22.3518170000 114.2524780000,22.3516140000 114.2528530000,22.3514400000 114.2529680000,22.3513760000 114.2531390000,22.3512820000 114.2532980000,22.3511700000 114.2535370000,22.3509640000 114.2537220000,22.3507700000 114.2538880000,22.3504980000 114.2540820000,22.3501160000 114.2542340000,22.3496840000 114.2543200000,22.3493990000 114.2544360000,22.3489420000 114.2545430000,22.3485750000 114.2546830000,22.3482720000 114.2548480000,22.3479610000 114.2550930000,22.3476040000 114.2552850000,22.3473960000 114.2555130000,22.3470700000 114.2556910000,22.3467430000 114.2558680000,22.3462500000 114.2560710000,22.3453110000 114.2562350000,22.3447000000 114.2564560000,22.3441030000 114.2567140000,22.3434070000 114.2570280000,22.3426870000 114.2571300000,22.3424900000 114.2572660000,22.3422750000 114.2575550000,22.3419370000 114.2576710000,22.3417730000 114.2577610000,22.3416050000 114.2578050000,22.3414670000 114.2578420000,22.3413550000 114.2578700000,22.3411610000 114.2578870000,22.3410740000 114.2579310000,22.3410060000 114.2580950000,22.3408280000 114.2583180000,22.3406480000 114.2584590000,22.3405100000 114.2584920000,22.3404760000 114.2589050000,22.3398860000 114.2589740000,22.3398120000 114.2591650000,22.3397230000 114.2592240000,22.3397030000 114.2592740000,22.3396680000 114.2593110000,22.3396210000 114.2593310000,22.3395670000 114.2593330000,22.3395090000 114.2593250000,22.3394710000 114.2593080000,22.3394360000 114.2592850000,22.3394040000 114.2592550000,22.3393770000 114.2592200000,22.3393560000 114.2590800000,22.3391940000 114.2590190000,22.3391280000 114.2589580000,22.3390600000 114.2588920000,22.3389840000 114.2588430000,22.3389090000 114.2587820000,22.3388130000 114.2587660000,22.3387200000 114.2587870000,22.3385190000 114.2588610000,22.3381810000 114.2588940000,22.3380850000 114.2590970000,22.3373480000 114.2591120000,22.3373060000 114.2591970000,22.3370580000 114.2592480000,22.3369090000 114.2592630000,22.3368650000 114.2593470000,22.3366240000 114.2594050000,22.3364460000 114.2594410000,22.3363360000 114.2594550000,22.3362950000 114.2595830000,22.3359040000 114.2596070000,22.3358290000 114.2597670000,22.3354070000 114.2597900000,22.3353490000 114.2598650000,22.3351600000 114.2603580000,22.3341290000 114.2605920000,22.3336410000 114.2608400000,22.3331470000 114.2610840000,22.3326590000 114.2614730000,22.3318860000 114.2616970000,22.3314560000 114.2618870000,22.3311870000 114.2619580000,22.3311220000 114.2619750000,22.3311060000 114.2622470000,22.3308160000 114.2623520000,22.3307110000 114.2627220000,22.3303280000 114.2627590000,22.3302890000 114.2628180000,22.3302250000 114.2630600000,22.3299610000 114.2636740000,22.3294300000 114.2639530000,22.3291990000 114.2642560000,22.3289860000 114.2643790000,22.3288630000 114.2644330000,22.3287910000 114.2644890000,22.3287090000 114.2647160000,22.3283410000 114.2649130000,22.3279920000 114.2650360000,22.3277660000 114.2652470000,22.3273690000 114.2654750000,22.3268870000 114.2655610000,22.3267450000 114.2656950000,22.3265760000 114.2658150000,22.3264970000 114.2658980000,22.3264500000 114.2660530000,22.3263280000 114.2661820000,22.3261810000 114.2662560000,22.3260590000 114.2663200000,22.3259610000 114.2664420000,22.3258390000 114.2665620000,22.3257430000 114.2667290000,22.3256260000 114.2668510000,22.3255100000 114.2670280000,22.3253010000 114.2670990000,22.3252070000 114.2671750000,22.3251340000 114.2672600000,22.3250620000 114.2673610000,22.3249870000 114.2674510000,22.3249400000 114.2677040000,22.3248490000 114.2678260000,22.3247950000 114.2679080000,22.3247430000 114.2680400000,22.3246130000 114.2685280000,22.3240670000 114.2687230000,22.3238660000 114.2689860000,22.3234490000 114.2690140000,22.3234040000 114.2690570000,22.3233000000 114.2690780000,22.3232570000 114.2691780000,22.3230380000 114.2692250000,22.3230090000 114.2692540000,22.3229790000 114.2692740000,22.3229280000 114.2692730000,22.3228480000 114.2692550000,22.3227910000 114.2692190000,22.3227420000 114.2691670000,22.3227000000 114.2690980000,22.3226650000 114.2690500000,22.3226460000 114.2690140000,22.3225690000 114.2689830000,22.3224930000 114.2689560000,22.3224100000 114.2689680000,22.3223420000 114.2690090000,22.3221810000 114.2690420000,22.3220560000 114.2690690000,22.3218420000 114.2690620000,22.3216150000 114.2690380000,22.3214160000 114.2690260000,22.3213180000 114.2690220000,22.3212860000 114.2690010000,22.3211200000 114.2690110000,22.3209720000 114.2690420000,22.3208200000 114.2691370000,22.3207030000 114.2692530000,22.3206060000 114.2697660000,22.3203580000 114.2699320000,22.3202450000 114.2700130000,22.3201450000 114.2700430000,22.3201080000 114.2701250000,22.3199420000 114.2701640000,22.3198440000 114.2703140000,22.3194630000 114.2703370000,22.3194140000 114.2703990000,22.3192810000 114.2704870000,22.3191530000 114.2707230000,22.3189570000 114.2707800000,22.3188990000 114.2709910000,22.3186980000 114.2710680000,22.3185950000 114.2711270000,22.3184580000 114.2711410000,22.3182850000 114.2711190000,22.3181070000 114.2710640000,22.3177900000 114.2709780000,22.3175390000 114.2709460000,22.3174660000 114.2709080000,22.3173770000 114.2708540000,22.3172830000 114.2708370000,22.3172440000 114.2708130000,22.3172050000 114.2707620000,22.3171080000 114.2707320000,22.3170550000 114.2706740000,22.3169500000 114.2706170000,22.3168330000 114.2705530000,22.3166870000 114.2705060000,22.3165220000 114.2704980000,22.3164590000 114.2704690000,22.3164020000 114.2704230000,22.3163550000 114.2703630000,22.3163240000 114.2703130000,22.3163130000 114.2702330000,22.3163190000 114.2701610000,22.3163500000 114.2701060000,22.3164030000 114.2700760000,22.3164710000 114.2700420000,22.3165800000 114.2699950000,22.3166490000 114.2699480000,22.3167090000 114.2698600000,22.3168020000 114.2695770000,22.3170400000 114.2694680000,22.3171250000 114.2692550000,22.3172950000 114.2688710000,22.3175760000 114.2687900000,22.3176440000 114.2687070000,22.3177140000 114.2685180000,22.3178740000 114.2681710000,22.3181380000 114.2676740000,22.3185110000 114.2673710000,22.3186830000 114.2669710000,22.3188280000 114.2662790000,22.3189670000 114.2660310000,22.3190040000 114.2659890000,22.3190100000 114.2657540000,22.3190070000 114.2656900000,22.3189510000 114.2655890000,22.3189240000 114.2654880000,22.3189470000 114.2654390000,22.3189810000 114.2654040000,22.3190260000 114.2652420000,22.3190960000 114.2641750000,22.3192240000 114.2638280000,22.3192620000 114.2637520000,22.3192710000 114.2634930000,22.3192990000 114.2631390000,22.3193120000 114.2628910000,22.3193010000 114.2628440000,22.3192660000 114.2627880000,22.3192440000 114.2626660000,22.3190520000 114.2624050000,22.3185560000 114.2621050000,22.3181590000 114.2620660000,22.3181060000 114.2619490000,22.3178870000 114.2618000000,22.3176730000 114.2617040000,22.3175430000 114.2615890000,22.3173460000 114.2614940000,22.3171720000 114.2614090000,22.3169910000 114.2611550000,22.3163980000 114.2610660000,22.3162470000 114.2609020000,22.3160420000 114.2607360000,22.3159080000 114.2605510000,22.3158310000 114.2602530000,22.3158060000 114.2601250000,22.3158210000 114.2599930000,22.3158590000 114.2597930000,22.3159530000 114.2595880000,22.3160930000 114.2594010000,22.3162490000 114.2586260000,22.3168180000 114.2583220000,22.3170540000 114.2580940000,22.3172470000 114.2571880000,22.3179420000 114.2569280000,22.3182130000 114.2567840000,22.3183750000 114.2564080000,22.3187810000 114.2561510000,22.3190590000 114.2559180000,22.3193280000 114.2552920000,22.3200520000 114.2550350000,22.3203100000 114.2547560000,22.3205580000 114.2544450000,22.3207570000 114.2541340000,22.3209350000 114.2538440000,22.3210640000 114.2535330000,22.3211730000 114.2532110000,22.3212490000 114.2529560000,22.3212810000 114.2527190000,22.3212800000 114.2524300000,22.3212720000 114.2521630000,22.3212430000 114.2518740000,22.3212120000 114.2514590000,22.3211670000 114.2508720000,22.3210870000 114.2505150000,22.3210100000 114.2501480000,22.3209090000 114.2500490000,22.3208820000 114.2495710000,22.3207460000 114.2491810000,22.3206100000 114.2487480000,22.3204260000 114.2427430000,22.3169550000 114.2420440000,22.3165910000 114.2417360000,22.3164260000 114.2415200000,22.3162760000 114.2411240000,22.3159720000 114.2404100000,22.3153820000 114.2398890000,22.3148750000 114.2395180000,22.3145450000 114.2389850000,22.3140830000 114.2387130000,22.3138600000 114.2385500000,22.3137530000 114.2382780000,22.3135990000 114.2378940000,22.3134200000 114.2375240000,22.3132570000 114.2368820000,22.3129700000 114.2365910000,22.3128370000 114.2361920000,22.3126560000 114.2358190000,22.3124960000 114.2355560000,22.3123870000 114.2354250000,22.3123320000 114.2351180000,22.3122130000 114.2349080000,22.3121320000 114.2344030000,22.3119370000 114.2339150000,22.3117920000 114.2334570000,22.3116590000 114.2331360000,22.3115510000 114.2328230000,22.3114620000 114.2325570000,22.3113770000 114.2322940000,22.3112790000 114.2320000000,22.3111450000 114.2317880000,22.3110270000 114.2315570000,22.3108190000 114.2315090000,22.3107690000 114.2314410000,22.3106970000 114.2313240000,22.3105870000 114.2311360000,22.3103790000 114.2309710000,22.3101630000 114.2308100000,22.3099350000 114.2306370000,22.3096750000 114.2304750000,22.3093690000 114.2303910000,22.3092760000 114.2302890000,22.3091620000 114.2301760000,22.3090420000 114.2300170000,22.3089260000 114.2298730000,22.3088180000 114.2297150000,22.3087490000 114.2294750000,22.3086780000 114.2291470000,22.3086000000 114.2285190000,22.3084790000 114.2280480000,22.3083970000 114.2278080000,22.3083690000 114.2276600000,22.3083350000 114.2275040000,22.3083120000 114.2273240000,22.3083090000 114.2270840000,22.3082100000 114.2267940000,22.3080810000 114.2265630000,22.3079480000 114.2265020000,22.3079100000 114.2264230000,22.3078580000 114.2253870000,22.3070680000 114.2245180000,22.3064530000 114.2242970000,22.3062910000 114.2241950000,22.3062300000 114.2240210000,22.3061420000 114.2237420000,22.3060320000 114.2233830000,22.3059810000 114.2232760000,22.3059700000 114.2231710000,22.3059710000 114.2230800000,22.3059760000 114.2227950000,22.3060030000 114.2225050000,22.3060720000 114.2223270000,22.3061530000 114.2221850000,22.3062350000 114.2220480000,22.3063180000 114.2218690000,22.3064560000 114.2216350000,22.3066930000 114.2214520000,22.3069370000 114.2209550000,22.3076590000 114.2201670000,22.3087190000 114.2192820000,22.3098570000 114.2189020000,22.3103410000 114.2185710000,22.3107330000 114.2181640000,22.3111990000 114.2179470000,22.3114370000 114.2176990000,22.3117080000 114.2174100000,22.3119890000 114.2172860000,22.3121100000 114.2163760000,22.3130530000 114.2137790000,22.3157210000 114.2133820000,22.3161450000 114.2131930000,22.3163010000 114.2130460000,22.3164050000 114.2128790000,22.3165200000 114.2126690000,22.3166710000 114.2124170000,22.3167340000 114.2120990000,22.3168200000 114.2117640000,22.3168770000 114.2114070000,22.3168860000 114.2109610000,22.3168830000 114.2107650000,22.3168810000 114.2104130000,22.3169210000 114.2102090000,22.3169710000 114.2098860000,22.3171480000 114.2096800000,22.3173390000 114.2095600000,22.3174660000 114.2094460000,22.3176970000 114.2093810000,22.3178720000 114.2093500000,22.3180420000 114.2093290000,22.3182790000 114.2092360000,22.3189080000 114.2092050000,22.3192380000 114.2092030000,22.3193080000 114.2091980000,22.3194220000 114.2092320000,22.3195110000 114.2091400000,22.3203850000 114.2091320000,22.3204440000 114.2091000000,22.3208050000 114.2090700000,22.3211240000 114.2090370000,22.3214780000 114.2090240000,22.3216420000 114.2088860000,22.3216660000 114.2088150000,22.3216610000 114.2083640000,22.3216230000 114.2082760000,22.3225090000 114.2078100000,22.3224690000 114.2078740000,22.3218970000 114.2079090000,22.3215840000 114.2078000000,22.3215750000 114.2076380000,22.3215620000 114.2076820000,22.3209350000 114.2076840000,22.3209010000 114.2077480000,22.3203520000 114.2077590000,22.3202740000 114.2077690000,22.3201750000 114.2078580000,22.3195820000 114.2078860000,22.3194470000 114.2079030000,22.3193640000 114.2079480000,22.3192790000 114.2080290000,22.3192250000 114.2081200000,22.3191970000 114.2082440000,22.3191960000 114.2090380000,22.3192830000 114.2092030000,22.3193080000 114.2093000000,22.3193230000 114.2093060000,22.3192480000 114.2093310000,22.3189150000 114.2094000000,22.3182950000 114.2094630000,22.3180350000 114.2095370000,22.3178660000 114.2096210000,22.3177170000 114.2097390000,22.3175560000 114.2099340000,22.3173740000 114.2100930000,22.3172920000 114.2102680000,22.3172220000 114.2104600000,22.3171720000 114.2107460000,22.3171460000 114.2116350000,22.3171110000 114.2117020000,22.3171120000 114.2117150000,22.3169130000 114.2116990000,22.3167350000 114.2117060000,22.3166460000 114.2117040000,22.3165730000 114.2116970000,22.3164580000 114.2116670000,22.3162810000 114.2116140000,22.3161820000 114.2115100000,22.3160520000 114.2112230000,22.3157410000 114.2111490000,22.3156720000 114.2109880000,22.3156010000 114.2108930000,22.3155670000 114.2107400000,22.3155360000 114.2106310000,22.3155610000 114.2105090000,22.3156010000 114.2103580000,22.3156960000 114.2102240000,22.3158000000 114.2099040000,22.3161000000 114.2097550000,22.3162280000 114.2097170000,22.3162430000 114.2095900000,22.3162900000 114.2094340000,22.3163560000 114.2093070000,22.3164330000 114.2091320000,22.3165810000 114.2090090000,22.3167050000 114.2089060000,22.3168240000 114.2087820000,22.3169430000 114.2086630000,22.3170300000 114.2084600000,22.3172260000 114.2084130000,22.3172710000 114.2083090000,22.3173290000 114.2082070000,22.3173370000 114.2081050000,22.3173170000 114.2080040000,22.3172710000 114.2079230000,22.3171910000 114.2078470000,22.3171080000 114.2078230000,22.3170360000 114.2077460000,22.3167790000 114.2076850000,22.3166390000 114.2075180000,22.3164660000 114.2063510000,22.3153890000 114.2059150000,22.3149860000 114.2058910000,22.3149620000 114.2058700000,22.3149320000 114.2058990000,22.3148350000 114.2059410000,22.3147800000 114.2061330000,22.3146100000 114.2062950000,22.3144850000 114.2064310000,22.3143750000 114.2066410000,22.3141890000 114.2101850000,22.3110600000 114.2116160000,22.3098090000 114.2117100000,22.3096850000 114.2117630000,22.3095890000 114.2117950000,22.3094810000 114.2117660000,22.3093550000 114.2117030000,22.3092230000 114.2116120000,22.3091120000 114.2115030000,22.3090170000 114.2113860000,22.3089250000 114.2112880000,22.3088090000 114.2112350000,22.3087280000 114.2112030000,22.3086290000 114.2112290000,22.3085360000 114.2112930000,22.3084110000 114.2113210000,22.3084130000 114.2113740000,22.3084010000 114.2114190000,22.3083730000 114.2114530000,22.3083330000 114.2114700000,22.3082850000 114.2114690000,22.3082340000 114.2114560000,22.3081950000 114.2114930000,22.3081330000 114.2115520000,22.3080620000 114.2155500000,22.3044740000 114.2155690000,22.3044330000 114.2155440000,22.3043700000 114.2154980000,22.3043290000 114.2154380000,22.3043340000 114.2153830000,22.3043730000 114.2153800000,22.3043940000 114.2153730000,22.3044430000 114.2153560000,22.3045250000 114.2145700000,22.3052260000 114.2144910000,22.3052970000 114.2128050000,22.3068060000 114.2127070000,22.3068940000 114.2117090000,22.3077930000 114.2115560000,22.3079310000 114.2114580000,22.3080210000 114.2113770000,22.3080900000 114.2113140000,22.3081080000 114.2112640000,22.3081130000 114.2112180000,22.3081320000 114.2111780000,22.3081650000 114.2111510000,22.3082100000 114.2111410000,22.3082600000 114.2111500000,22.3083100000 114.2111520000,22.3084060000 114.2111660000,22.3084950000 114.2112030000,22.3086290000 114.2112350000,22.3087280000 114.2112880000,22.3088090000 114.2113860000,22.3089250000 114.2115030000,22.3090170000 114.2116120000,22.3091120000 114.2117030000,22.3092230000 114.2117660000,22.3093550000 114.2117950000,22.3094810000 114.2117630000,22.3095890000 114.2117100000,22.3096850000 114.2116160000,22.3098090000 114.2101850000,22.3110600000 114.2066410000,22.3141890000 114.2064310000,22.3143750000 114.2062950000,22.3144850000 114.2061330000,22.3146100000 114.2059410000,22.3147800000 114.2058990000,22.3148350000 114.2058700000,22.3149320000 114.2058910000,22.3149620000 114.2059150000,22.3149860000 114.2063510000,22.3153890000 114.2075180000,22.3164660000 114.2076850000,22.3166390000 114.2077460000,22.3167790000 114.2078230000,22.3170360000 114.2078470000,22.3171080000 114.2079230000,22.3171910000 114.2080040000,22.3172710000 114.2081050000,22.3173170000 114.2082070000,22.3173370000 114.2083090000,22.3173290000 114.2084130000,22.3172710000 114.2084600000,22.3172260000 114.2086630000,22.3170300000 114.2087820000,22.3169430000 114.2089060000,22.3168240000 114.2090090000,22.3167050000 114.2091320000,22.3165810000 114.2093070000,22.3164330000 114.2094340000,22.3163560000 114.2095900000,22.3162900000 114.2097170000,22.3162430000 114.2097550000,22.3162280000 114.2099040000,22.3161000000 114.2102240000,22.3158000000 114.2103580000,22.3156960000 114.2105090000,22.3156010000 114.2106310000,22.3155610000 114.2107400000,22.3155360000 114.2108930000,22.3155670000 114.2109880000,22.3156010000 114.2111490000,22.3156720000 114.2112230000,22.3157410000 114.2115100000,22.3160520000 114.2116140000,22.3161820000 114.2116670000,22.3162810000 114.2116970000,22.3164580000 114.2117040000,22.3165730000 114.2117060000,22.3166460000 114.2116990000,22.3167350000 114.2116540000,22.3169150000 114.2109890000,22.3169510000 114.2104490000,22.3169770000 114.2101710000,22.3170820000 114.2098590000,22.3173300000 114.2096700000,22.3175300000 114.2095540000,22.3177010000 114.2094840000,22.3178370000 114.2093940000,22.3180200000 114.2093290000,22.3182790000 114.2092360000,22.3189080000 114.2092050000,22.3192380000 114.2092030000,22.3193080000 114.2091980000,22.3194220000 114.2092320000,22.3195110000 114.2091400000,22.3203850000 114.2091320000,22.3204440000 114.2091000000,22.3208050000 114.2090700000,22.3211240000 114.2090370000,22.3214780000 114.2090240000,22.3216420000 114.2088860000,22.3216660000 114.2088150000,22.3216610000 114.2083640000,22.3216230000 114.2082760000,22.3225090000 114.2078100000,22.3224690000 114.2078670000,22.3219590000 114.2079090000,22.3215840000 114.2078000000,22.3215750000 114.2076380000,22.3215620000 114.2076820000,22.3209350000 114.2076840000,22.3209010000 114.2077480000,22.3203520000 114.2077590000,22.3202740000 114.2077690000,22.3201750000 114.2078580000,22.3195820000 114.2078860000,22.3194470000 114.2079030000,22.3193640000 114.2079480000,22.3192790000 114.2080290000,22.3192250000 114.2081200000,22.3191970000 114.2082440000,22.3191960000 114.2090380000,22.3192830000 114.2092030000,22.3193080000 114.2093000000,22.3193230000 114.2093060000,22.3192480000 114.2093310000,22.3189150000 114.2094000000,22.3182950000 114.2094630000,22.3180350000 114.2095370000,22.3178660000 114.2096950000,22.3177120000 114.2098800000,22.3175180000 114.2100580000,22.3174060000 114.2102220000,22.3173360000 114.2104000000,22.3172730000 114.2105540000,22.3172400000 114.2108810000,22.3172280000 114.2113230000,22.3172140000 114.2115920000,22.3171840000 114.2118170000,22.3171360000 114.2120720000,22.3170580000 114.2122850000,22.3169500000 114.2124730000,22.3168770000 114.2127070000,22.3167740000 114.2129200000,22.3166520000 114.2131030000,22.3165470000 114.2132790000,22.3163970000 114.2134740000,22.3162110000 114.2138690000,22.3158060000 114.2142290000,22.3154490000 114.2145580000,22.3151140000 114.2148470000,22.3148200000 114.2163560000,22.3132420000 114.2173930000,22.3121960000 114.2177430000,22.3118360000 114.2181890000,22.3113600000 114.2187700000,22.3106940000 114.2194920000,22.3097790000 114.2202700000,22.3087720000 114.2210710000,22.3077190000 114.2215620000,22.3070150000 114.2216430000,22.3069010000 114.2218020000,22.3066840000 114.2219420000,22.3065490000 114.2221130000,22.3064120000 114.2222910000,22.3063130000 114.2224020000,22.3062630000 114.2225810000,22.3061920000 114.2227370000,22.3061450000 114.2228630000,22.3061150000 114.2230330000,22.3060980000 114.2231470000,22.3060950000 114.2233980000,22.3061030000 114.2234760000,22.3061140000 114.2237290000,22.3061530000 114.2239750000,22.3062510000 114.2242370000,22.3063660000 114.2246560000,22.3066730000 114.2261910000,22.3078620000 114.2264960000,22.3080600000 114.2267550000,22.3082010000 114.2271910000,22.3083820000 114.2277470000,22.3085360000 114.2285990000,22.3087580000 114.2288100000,22.3088060000 114.2290690000,22.3088570000 114.2293260000,22.3089500000 114.2296230000,22.3090580000 114.2298580000,22.3091610000 114.2299500000,22.3092140000 114.2300300000,22.3092630000 114.2301010000,22.3093250000 114.2302800000,22.3095410000 114.2305130000,22.3098580000 114.2308770000,22.3104050000 114.2309700000,22.3105340000 114.2311020000,22.3106980000 114.2312620000,22.3108590000 114.2314500000,22.3110120000 114.2316710000,22.3111730000 114.2318810000,22.3112950000 114.2321580000,22.3114160000 114.2324370000,22.3115200000 114.2327180000,22.3116070000 114.2330890000,22.3117130000 114.2336110000,22.3118310000 114.2338830000,22.3119190000 114.2344900000,22.3121040000 114.2349170000,22.3122580000 114.2354360000,22.3124650000 114.2367560000,22.3130380000 114.2369630000,22.3131340000 114.2374850000,22.3133750000 114.2378950000,22.3135750000 114.2384370000,22.3138400000 114.2387190000,22.3140380000 114.2390200000,22.3142720000 114.2393870000,22.3145990000 114.2397070000,22.3149090000 114.2404440000,22.3156850000 114.2409450000,22.3161590000 114.2415480000,22.3166610000 114.2418220000,22.3168610000 114.2420540000,22.3170160000 114.2425440000,22.3173100000 114.2476410000,22.3201620000 114.2482710000,22.3204930000 114.2487660000,22.3207460000 114.2492130000,22.3209330000 114.2495760000,22.3210540000 114.2500220000,22.3211440000 114.2502300000,22.3211740000 114.2504770000,22.3212110000 114.2508460000,22.3212610000 114.2511760000,22.3212870000 114.2515440000,22.3213280000 114.2518740000,22.3213540000 114.2523450000,22.3213910000 114.2527550000,22.3214000000 114.2531250000,22.3213820000 114.2534790000,22.3213020000 114.2537370000,22.3212280000 114.2539910000,22.3211320000 114.2542530000,22.3210200000 114.2545400000,22.3208550000 114.2547740000,22.3206880000 114.2550410000,22.3204710000 114.2553460000,22.3201510000 114.2557970000,22.3196350000 114.2559400000,22.3194730000 114.2562260000,22.3191490000 114.2567520000,22.3185530000 114.2569270000,22.3183790000 114.2571810000,22.3181260000 114.2575860000,22.3177550000 114.2579760000,22.3174730000 114.2585270000,22.3171700000 114.2588110000,22.3169850000 114.2589750000,22.3169010000 114.2592310000,22.3167800000 114.2594370000,22.3166990000 114.2596840000,22.3166380000 114.2599610000,22.3166080000 114.2602010000,22.3166310000 114.2604250000,22.3167190000 114.2606660000,22.3168750000 114.2608510000,22.3170070000 114.2610060000,22.3171610000 114.2611280000,22.3173020000 114.2614920000,22.3177020000 114.2616170000,22.3178400000 114.2617870000,22.3179760000 114.2620760000,22.3184080000 114.2622420000,22.3186560000 114.2624560000,22.3190660000 114.2625090000,22.3192140000 114.2625400000,22.3193700000 114.2625310000,22.3194030000 114.2625290000,22.3194370000 114.2625340000,22.3194710000 114.2625620000,22.3195350000 114.2626120000,22.3195860000 114.2626790000,22.3196160000 114.2627530000,22.3196230000 114.2628260000,22.3196060000 114.2628540000,22.3195910000 114.2628790000,22.3195730000 114.2629010000,22.3195510000 114.2631840000,22.3194790000 114.2636560000,22.3194110000 114.2637670000,22.3193970000 114.2642380000,22.3193350000 114.2643620000,22.3193190000 114.2644470000,22.3193080000 114.2650110000,22.3192490000 114.2652560000,22.3192340000 114.2654400000,22.3192450000 114.2654920000,22.3192810000 114.2655530000,22.3192990000 114.2656180000,22.3192990000 114.2656880000,22.3192750000 114.2657450000,22.3192300000 114.2657800000,22.3191690000 114.2660200000,22.3191530000 114.2663670000,22.3190970000 114.2668290000,22.3189990000 114.2671370000,22.3189190000 114.2673520000,22.3188340000 114.2675830000,22.3187150000 114.2676400000,22.3186860000 114.2679390000,22.3184850000 114.2682640000,22.3182080000 114.2684570000,22.3180540000 114.2685600000,22.3179720000 114.2686130000,22.3179300000 114.2687440000,22.3179240000 114.2688140000,22.3178840000 114.2690060000,22.3177280000 114.2693080000,22.3174820000 114.2693120000,22.3174230000 114.2693390000,22.3173510000 114.2695300000,22.3172020000 114.2698630000,22.3169440000 114.2700670000,22.3168160000 114.2701590000,22.3167710000 114.2702650000,22.3167130000 114.2703790000,22.3167760000 114.2704820000,22.3168330000 114.2705850000,22.3169120000 114.2707620000,22.3171080000 114.2708130000,22.3172050000 114.2708370000,22.3172440000 114.2708540000,22.3172830000 114.2709080000,22.3173770000 114.2709460000,22.3174660000 114.2709780000,22.3175390000 114.2710640000,22.3177900000 114.2711190000,22.3181070000 114.2711410000,22.3182850000 114.2711270000,22.3184580000 114.2710680000,22.3185950000 114.2709910000,22.3186980000 114.2707800000,22.3188990000 114.2707230000,22.3189570000 114.2704870000,22.3191530000 114.2703990000,22.3192810000 114.2703370000,22.3194140000 114.2703140000,22.3194630000 114.2701640000,22.3198440000 114.2701250000,22.3199420000 114.2700430000,22.3201080000 114.2700130000,22.3201450000 114.2699320000,22.3202450000 114.2697660000,22.3203580000 114.2692530000,22.3206060000 114.2691370000,22.3207030000 114.2690420000,22.3208200000 114.2690110000,22.3209720000 114.2690010000,22.3211200000 114.2690220000,22.3212860000 114.2690260000,22.3213180000 114.2690380000,22.3214160000 114.2690620000,22.3216150000 114.2690690000,22.3218420000 114.2690420000,22.3220560000 114.2690090000,22.3221810000 114.2689680000,22.3223420000 114.2689560000,22.3224100000 114.2689070000,22.3225530000 114.2688730000,22.3226720000 114.2688460000,22.3226940000 114.2688270000,22.3227420000 114.2688160000,22.3227980000 114.2688230000,22.3228540000 114.2688470000,22.3229060000 114.2689150000,22.3229710000 114.2689630000,22.3230000000 114.2690200000,22.3230270000 114.2690540000,22.3231320000 114.2690780000,22.3232570000 114.2690570000,22.3233000000 114.2690140000,22.3234040000 114.2689860000,22.3234490000 114.2687230000,22.3238660000 114.2685280000,22.3240670000 114.2680400000,22.3246130000 114.2679080000,22.3247430000 114.2678260000,22.3247950000 114.2677040000,22.3248490000 114.2674510000,22.3249400000 114.2673610000,22.3249870000 114.2672600000,22.3250620000 114.2671750000,22.3251340000 114.2670990000,22.3252070000 114.2670280000,22.3253010000 114.2668510000,22.3255100000 114.2667290000,22.3256260000 114.2665620000,22.3257430000 114.2664420000,22.3258390000 114.2663200000,22.3259610000 114.2662560000,22.3260590000 114.2661820000,22.3261810000 114.2660530000,22.3263280000 114.2658980000,22.3264500000 114.2658150000,22.3264970000 114.2656950000,22.3265760000 114.2655610000,22.3267450000 114.2654750000,22.3268870000 114.2652470000,22.3273690000 114.2650360000,22.3277660000 114.2649130000,22.3279920000 114.2647160000,22.3283410000 114.2644890000,22.3287090000 114.2644330000,22.3287910000 114.2643790000,22.3288630000 114.2642560000,22.3289860000 114.2639530000,22.3291990000 114.2636740000,22.3294300000 114.2630600000,22.3299610000 114.2628180000,22.3302250000 114.2627590000,22.3302890000 114.2627220000,22.3303280000 114.2623520000,22.3307110000 114.2622470000,22.3308160000 114.2619750000,22.3311060000 114.2619580000,22.3311220000 114.2618870000,22.3311870000 114.2616970000,22.3314560000 114.2614730000,22.3318860000 114.2610840000,22.3326590000 114.2608400000,22.3331470000 114.2605920000,22.3336410000 114.2603580000,22.3341290000 114.2598650000,22.3351600000 114.2597900000,22.3353490000 114.2597670000,22.3354070000 114.2596070000,22.3358290000 114.2595830000,22.3359040000 114.2594550000,22.3362950000 114.2594410000,22.3363360000 114.2594050000,22.3364460000 114.2593470000,22.3366240000 114.2592630000,22.3368650000 114.2592480000,22.3369090000 114.2591970000,22.3370580000 114.2591120000,22.3373060000 114.2590970000,22.3373480000 114.2588940000,22.3380850000 114.2588610000,22.3381810000 114.2587870000,22.3385190000 114.2587660000,22.3387200000 114.2587820000,22.3388130000 114.2587980000,22.3389470000 114.2588460000,22.3391380000 114.2588890000,22.3392850000 114.2589100000,22.3393910000 114.2589200000,22.3394740000 114.2589110000,22.3395290000 114.2589190000,22.3395850000 114.2589090000,22.3396810000 114.2588870000,22.3397610000 114.2584860000,22.3403360000 114.2582830000,22.3405260000 114.2580410000,22.3407510000 114.2578100000,22.3409360000 114.2577290000,22.3410050000 114.2576170000,22.3411290000 114.2575470000,22.3412360000 114.2575000000,22.3413770000 114.2574780000,22.3415000000 114.2574620000,22.3417060000 114.2574480000,22.3418260000 114.2574140000,22.3419360000 114.2572960000,22.3421700000 114.2571120000,22.3424230000 114.2570380000,22.3425340000 114.2569180000,22.3427710000 114.2568760000,22.3428660000 114.2567250000,22.3432110000 114.2566450000,22.3433950000 114.2561440000,22.3448180000 114.2558270000,22.3462340000 114.2556410000,22.3467280000 114.2556050000,22.3467900000 114.2555580000,22.3468700000 114.2554570000,22.3470440000 114.2552680000,22.3473030000 114.2550320000,22.3475550000 114.2547850000,22.3478950000 114.2545870000,22.3482650000 114.2543890000,22.3487930000 114.2542040000,22.3494930000 114.2540380000,22.3499750000 114.2538980000,22.3503220000 114.2534860000,22.3509120000 114.2530840000,22.3512200000 114.2529050000,22.3513230000 114.2519330000,22.3517180000 114.2518100000,22.3517740000 114.2516280000,22.3518460000 114.2512200000,22.3520070000 114.2509780000,22.3521030000 114.2506370000,22.3522910000 114.2504650000,22.3524390000 114.2503520000,22.3525640000 114.2502320000,22.3526840000 114.2500310000,22.3528780000 114.2499500000,22.3528900000 114.2498760000,22.3529200000 114.2498110000,22.3529660000 114.2497620000,22.3530260000 114.2497300000,22.3530950000 114.2497180000,22.3531700000 114.2497260000,22.3532450000 114.2497550000,22.3533150000 114.2497960000,22.3533710000 114.2498500000,22.3534170000 114.2499140000,22.3534510000 114.2499520000,22.3534630000 114.2500320000,22.3535230000 114.2501000000,22.3536290000 114.2501350000,22.3537550000 114.2501230000,22.3539780000 114.2501610000,22.3541890000 114.2502340000,22.3543260000 114.2502570000,22.3543490000 114.2504530000,22.3545470000 114.2509230000,22.3549260000 114.2510100000,22.3549980000 114.2511350000,22.3551030000 114.2512460000,22.3552240000 114.2513800000,22.3553700000 114.2514630000,22.3555270000 114.2515130000,22.3556660000 114.2515430000,22.3558230000 114.2515700000,22.3559480000 114.2515890000,22.3560400000 114.2516450000,22.3563160000 114.2517180000,22.3566760000 114.2517490000,22.3568240000 114.2519090000,22.3576450000 114.2520230000,22.3582360000 114.2520770000,22.3585090000 114.2520960000,22.3586070000 114.2522210000,22.3593130000 114.2522780000,22.3595380000 114.2523830000,22.3597490000 114.2526090000,22.3600310000 114.2527830000,22.3602000000 114.2530050000,22.3603400000 114.2531080000,22.3603950000 114.2533590000,22.3604870000 114.2536410000,22.3605220000 114.2539780000,22.3605110000 114.2543690000,22.3604060000 114.2547160000,22.3602830000 114.2554310000,22.3597050000 114.2554970000,22.3596600000 114.2556330000,22.3596360000 114.2557850000,22.3596260000 114.2558700000,22.3596350000 114.2560320000,22.3596870000 114.2561350000,22.3597440000 114.2561990000,22.3597990000 114.2562600000,22.3598690000 114.2563160000,22.3599540000 114.2565970000,22.3604610000 114.2566550000,22.3605920000 114.2566770000,22.3607120000 114.2566860000,22.3608380000 114.2566700000,22.3613010000 114.2566850000,22.3614890000 114.2567650000,22.3616470000 114.2568610000,22.3617600000 114.2570470000,22.3619740000 114.2571480000,22.3620960000 114.2573360000,22.3623470000 114.2578100000,22.3630920000 114.2578620000,22.3631580000 114.2579180000,22.3631990000 114.2579850000,22.3632430000 114.2583030000,22.3634030000 114.2585770000,22.3635610000 114.2586750000,22.3636150000 114.2587890000,22.3636890000 114.2588520000,22.3637450000 114.2589130000,22.3638190000 114.2589520000,22.3638800000 114.2591990000,22.3644020000 114.2592960000,22.3645830000 114.2593390000,22.3646650000 114.2593550000,22.3646960000 114.2594460000,22.3649410000 114.2594940000,22.3650510000 114.2596970000,22.3655100000 114.2599190000,22.3661920000 114.2599470000,22.3662780000 114.2600180000,22.3666170000 114.2600730000,22.3670180000 114.2600870000,22.3671240000 114.2600970000,22.3672430000 114.2600940000,22.3674040000 114.2600920000,22.3675700000 114.2600520000,22.3677820000 114.2600340000,22.3679000000 114.2599400000,22.3683650000 114.2598550000,22.3688430000 114.2596340000,22.3699130000 114.2596140000,22.3701060000 114.2596210000,22.3702820000 114.2596280000,22.3704390000 114.2597350000,22.3709300000 114.2598870000,22.3715890000 114.2599090000,22.3716730000 114.2599690000,22.3719010000 114.2600460000,22.3721090000 114.2601080000,22.3722780000 114.2602810000,22.3728490000 114.2603190000,22.3729220000 114.2603800000,22.3729900000 114.2604750000,22.3730770000 114.2606600000,22.3731880000 114.2608140000,22.3733270000 114.2608510000,22.3733720000 114.2608820000,22.3734210000 114.2609680000,22.3736160000 114.2610260000,22.3738430000 114.2612220000,22.3744380000 114.2612490000,22.3745190000 114.2612680000,22.3745910000 114.2612910000,22.3746750000 114.2613660000,22.3748090000 114.2614870000,22.3749270000 114.2615920000,22.3750110000 114.2616680000,22.3750580000 114.2621190000,22.3753300000 114.2622670000,22.3754620000 114.2623050000,22.3754960000 114.2630560000,22.3761960000 114.2631850000,22.3762670000 114.2632950000,22.3762990000 114.2634800000,22.3763490000 114.2636690000,22.3764340000 114.2644410000,22.3771190000 114.2645190000,22.3771870000 114.2649790000,22.3777360000 114.2653500000,22.3782770000 114.2654680000,22.3784500000 114.2654850000,22.3784740000 114.2659560000,22.3791150000 114.2660560000,22.3792280000 114.2661350000,22.3793040000 114.2662180000,22.3793770000 114.2663130000,22.3794540000 114.2664210000,22.3795200000 114.2668470000,22.3797590000 114.2672960000,22.3800120000 114.2676750000,22.3802340000 114.2677590000,22.3803250000 114.2678580000,22.3803830000 114.2679520000,22.3804380000 114.2680590000,22.3805000000 114.2681860000,22.3805320000 114.2683190000,22.3806090000 114.2684450000,22.3806740000 114.2684810000,22.3806920000 114.2687430000,22.3808040000 114.2687890000,22.3808230000 114.2689190000,22.3808760000 114.2690160000,22.3809160000 114.2691600000,22.3809780000 114.2694820000,22.3810970000 114.2696410000,22.3811520000 114.2697070000,22.3811670000 114.2698110000,22.3811860000 114.2699200000,22.3811980000 114.2699930000,22.3812070000 114.2700840000,22.3812290000 114.2701920000,22.3812630000 114.2702640000,22.3812890000 114.2703370000,22.3813180000 114.2704240000,22.3813560000 114.2705090000,22.3814000000 114.2705600000,22.3814370000 114.2706320000,22.3815000000 114.2707300000,22.3815960000 114.2707570000,22.3816300000 114.2708070000,22.3817080000 114.2708530000,22.3817940000 114.2709370000,22.3819950000 114.2709990000,22.3821450000 114.2710350000,22.3822930000 114.2710420000,22.3824080000 114.2710370000,22.3825010000 114.2710140000,22.3826780000 114.2710090000,22.3827060000 114.2709670000,22.3829400000 114.2709170000,22.3831580000 114.2709100000,22.3832050000 114.2709030000,22.3832710000 114.2709070000,22.3834070000 114.2709150000,22.3834710000 114.2709550000,22.3835750000 114.2709850000,22.3836590000 114.2710720000,22.3836330000 114.2713170000,22.3835810000 114.2713890000,22.3835660000 114.2714270000,22.3835540000 114.2714690000,22.3835400000 114.2715100000,22.3835190000 114.2715420000,22.3835020000 114.2715670000,22.3834860000 114.2716850000,22.3833920000 114.2717600000,22.3833320000 114.2718780000,22.3832380000 114.2723310000,22.3828820000 114.2725480000,22.3827120000 114.2730580000,22.3823230000 114.2730750000,22.3823090000 114.2733400000,22.3821010000 114.2734950000,22.3820230000 114.2736120000,22.3819660000 114.2740850000,22.3817190000 114.2740970000,22.3816980000 114.2741020000,22.3816740000 114.2741000000,22.3816500000 114.2740920000,22.3816270000 114.2740770000,22.3816070000 114.2740570000,22.3815920000 114.2740330000,22.3815820000 114.2740080000,22.3815780000 114.2739820000,22.3815810000 114.2739580000,22.3815890000 114.2739450000,22.3815910000 114.2739350000,22.3815920000 114.2739250000,22.3815920000 114.2739130000,22.3815920000 114.2739020000,22.3815920000 114.2738920000,22.3815910000 114.2738830000,22.3815880000 114.2738770000,22.3815860000 114.2738730000,22.3815840000 114.2738470000,22.3815550000 114.2738210000,22.3815260000 114.2737930000,22.3814950000 114.2737640000,22.3814630000 114.2737430000,22.3814400000 114.2737360000,22.3814320000 114.2737250000,22.3814280000 114.2737140000,22.3814270000 114.2737030000,22.3814290000 114.2736930000,22.3814350000 114.2735380000,22.3815560000</coordinates>
                </LineString>
                <ExtendedData>
                    <Data name="duration">
                        <value>01:45:41</value>
                    </Data>
                    <Data name="length">
                        <value>44141.19066109768</value>
                    </Data>
                </ExtendedData>
            </Placemark>
        </Document>
    </Document>
</kml>