<?xml version="1.0" encoding="UTF-8"?>
<kml xmlns="http://www.opengis.net/kml/2.2" xmlns:gx="http://www.google.com/kml/ext/2.2">
    <Document>
        <name>Route</name>
        <Folder>
            <name>Route Request</name>
            <Placemark>
                <address>Fo Tan Station, Lok King Street, Fo Tan, Pat Tsz Wo Village, New Territories, Hong Kong, DD193 1132, China</address>
                <Point>
                    <coordinates>114.2559736220,22.4312914221</coordinates>
                </Point>
                <ExtendedData>
                    <Data name="country_code">
                        <value>cn</value>
                    </Data>
                    <Data name="state">
                        <value>Hong Kong</value>
                    </Data>
                    <Data name="road">
                        <value>Lok King Street</value>
                    </Data>
                    <Data name="bus_stop">
                        <value>Fo Tan Station</value>
                    </Data>
                    <Data name="routingVisited">
                        <value>false</value>
                    </Data>
                    <Data name="suburb">
                        <value>Fo Tan</value>
                    </Data>
                    <Data name="hamlet">
                        <value>Pat Tsz Wo Village</value>
                    </Data>
                    <Data name="region">
                        <value>New Territories</value>
                    </Data>
                    <Data name="country">
                        <value>China</value>
                    </Data>
                    <Data name="postcode">
                        <value>DD193 1132</value>
                    </Data>
                </ExtendedData>
            </Placemark>
            <Placemark>
                <Point>
                    <coordinates>114.2328799132,22.4228712439</coordinates>
                </Point>
                <ExtendedData>
                    <Data name="routingVisited">
                        <value>false</value>
                    </Data>
                </ExtendedData>
            </Placemark>
            <Placemark>
                <address>Ma On Shan Road, Ma On Terrace, Wu Kai Sha, Shun Yee San Tsuen, Sha Tin District, Hong Kong, DD193 1191, PRC</address>
                <Point>
                    <coordinates>114.2295201710,22.4142488600</coordinates>
                </Point>
                <ExtendedData>
                    <Data name="country_code">
                        <value>cn</value>
                    </Data>
                    <Data name="neighbourhood">
                        <value>Ma On Terrace</value>
                    </Data>
                    <Data name="road">
                        <value>Ma On Shan Road</value>
                    </Data>
                    <Data name="suburb">
                        <value>Wu Kai Sha</value>
                    </Data>
                    <Data name="hamlet">
                        <value>Shun Yee San Tsuen</value>
                    </Data>
                    <Data name="county">
                        <value>Sha Tin District</value>
                    </Data>
                    <Data name="country">
                        <value>PRC</value>
                    </Data>
                    <Data name="postcode">
                        <value>DD193 1191</value>
                    </Data>
                </ExtendedData>
            </Placemark>
            <Placemark>
                <address>Tseung Kwan O Hospital, 2, Po Ning Lane, Hang Hau, Shui Bin Tsuen, Sai Kung District, Hong Kong, DD243 1557, PRC</address>
                <Point>
                    <coordinates>114.2690315412,22.3187391251</coordinates>
                </Point>
                <ExtendedData>
                    <Data name="house_number">
                        <value>2</value>
                    </Data>
                    <Data name="country_code">
                        <value>cn</value>
                    </Data>
                    <Data name="road">
                        <value>Po Ning Lane</value>
                    </Data>
                    <Data name="suburb">
                        <value>Hang Hau</value>
                    </Data>
                    <Data name="hamlet">
                        <value>Shui Bin Tsuen</value>
                    </Data>
                    <Data name="hospital">
                        <value>Tseung Kwan O Hospital</value>
                    </Data>
                    <Data name="county">
                        <value>Sai Kung District</value>
                    </Data>
                    <Data name="country">
                        <value>PRC</value>
                    </Data>
                    <Data name="postcode">
                        <value>DD243 1557</value>
                    </Data>
                </ExtendedData>
            </Placemark>
            <Placemark>
                <address>Tseung Kwan O East Low Level Fresh Water Service Reservoir, Pak Shing Kok Road, Pak Shing Kok, O Pui Village, Sai Kung District, Hong Kong, DD243 1558, PRC</address>
                <Point>
                    <coordinates>114.2747096131,22.3093578967</coordinates>
                </Point>
                <ExtendedData>
                    <Data name="country_code">
                        <value>cn</value>
                    </Data>
                    <Data name="road">
                        <value>Pak Shing Kok Road</value>
                    </Data>
                    <Data name="address29">
                        <value>Tseung Kwan O East Low Level Fresh Water Service Reservoir</value>
                    </Data>
                    <Data name="suburb">
                        <value>Pak Shing Kok</value>
                    </Data>
                    <Data name="hamlet">
                        <value>O Pui Village</value>
                    </Data>
                    <Data name="county">
                        <value>Sai Kung District</value>
                    </Data>
                    <Data name="country">
                        <value>PRC</value>
                    </Data>
                    <Data name="postcode">
                        <value>DD243 1558</value>
                    </Data>
                </ExtendedData>
            </Placemark>
            <Placemark>
                <address>Chun Wang Street, Fat Tong Chau, Tai Au Mun, Sai Kung District, Hong Kong, CWIL 176, PRC</address>
                <Point>
                    <coordinates>114.2702986731,22.2831831969</coordinates>
                </Point>
                <ExtendedData>
                    <Data name="country_code">
                        <value>cn</value>
                    </Data>
                    <Data name="road">
                        <value>Chun Wang Street</value>
                    </Data>
                    <Data name="suburb">
                        <value>Fat Tong Chau</value>
                    </Data>
                    <Data name="hamlet">
                        <value>Tai Au Mun</value>
                    </Data>
                    <Data name="county">
                        <value>Sai Kung District</value>
                    </Data>
                    <Data name="country">
                        <value>PRC</value>
                    </Data>
                    <Data name="postcode">
                        <value>CWIL 176</value>
                    </Data>
                </ExtendedData>
            </Placemark>
            <Placemark>
                <address>Tseung Kwan O East Low Level Fresh Water Service Reservoir, Pak Shing Kok Road, Pak Shing Kok, O Pui Village, Sai Kung District, Hong Kong, DD243 1558, PRC</address>
                <Point>
                    <coordinates>114.2747098782,22.3093852163</coordinates>
                </Point>
                <ExtendedData>
                    <Data name="country_code">
                        <value>cn</value>
                    </Data>
                    <Data name="road">
                        <value>Pak Shing Kok Road</value>
                    </Data>
                    <Data name="address29">
                        <value>Tseung Kwan O East Low Level Fresh Water Service Reservoir</value>
                    </Data>
                    <Data name="suburb">
                        <value>Pak Shing Kok</value>
                    </Data>
                    <Data name="hamlet">
                        <value>O Pui Village</value>
                    </Data>
                    <Data name="county">
                        <value>Sai Kung District</value>
                    </Data>
                    <Data name="country">
                        <value>PRC</value>
                    </Data>
                    <Data name="postcode">
                        <value>DD243 1558</value>
                    </Data>
                </ExtendedData>
            </Placemark>
            <Placemark>
                <address>Pui Shing Road, Hang Hau, Tin Ha Wan Village, Sai Kung District, Hong Kong, DD243 1557, PRC</address>
                <Point>
                    <coordinates>114.2640381695,22.3153111590</coordinates>
                </Point>
                <ExtendedData>
                    <Data name="country_code">
                        <value>cn</value>
                    </Data>
                    <Data name="road">
                        <value>Pui Shing Road</value>
                    </Data>
                    <Data name="bus_stop">
                        <value>Pui Shing Road</value>
                    </Data>
                    <Data name="suburb">
                        <value>Hang Hau</value>
                    </Data>
                    <Data name="hamlet">
                        <value>Tin Ha Wan Village</value>
                    </Data>
                    <Data name="county">
                        <value>Sai Kung District</value>
                    </Data>
                    <Data name="country">
                        <value>PRC</value>
                    </Data>
                    <Data name="postcode">
                        <value>DD243 1557</value>
                    </Data>
                </ExtendedData>
            </Placemark>
            <Placemark>
                <address>Ma On Shan Sports Ground, 1, Hang Hong Street, Ma On Terrace, Wu Kai Sha, Ma On Shan, Sha Tin District, Hong Kong, DD193 1191, PRC</address>
                <Point>
                    <coordinates>114.2282932665,22.4218544712</coordinates>
                </Point>
                <ExtendedData>
                    <Data name="town">
                        <value>Ma On Shan</value>
                    </Data>
                    <Data name="house_number">
                        <value>1</value>
                    </Data>
                    <Data name="country_code">
                        <value>cn</value>
                    </Data>
                    <Data name="neighbourhood">
                        <value>Ma On Terrace</value>
                    </Data>
                    <Data name="road">
                        <value>Hang Hong Street</value>
                    </Data>
                    <Data name="sports_centre">
                        <value>Ma On Shan Sports Ground</value>
                    </Data>
                    <Data name="suburb">
                        <value>Wu Kai Sha</value>
                    </Data>
                    <Data name="county">
                        <value>Sha Tin District</value>
                    </Data>
                    <Data name="country">
                        <value>PRC</value>
                    </Data>
                    <Data name="postcode">
                        <value>DD193 1191</value>
                    </Data>
                </ExtendedData>
            </Placemark>
            <Placemark>
                <address>Multi-storey Car Park, 6, Kam Ying Road, Ma On Terrace, Wu Kai Sha, Ma On Shan, Sha Tin District, Hong Kong, DD165 1471, PRC</address>
                <Point>
                    <coordinates>114.2374315294,22.4242645188</coordinates>
                </Point>
                <ExtendedData>
                    <Data name="town">
                        <value>Ma On Shan</value>
                    </Data>
                    <Data name="house_number">
                        <value>6</value>
                    </Data>
                    <Data name="country_code">
                        <value>cn</value>
                    </Data>
                    <Data name="neighbourhood">
                        <value>Ma On Terrace</value>
                    </Data>
                    <Data name="road">
                        <value>Kam Ying Road</value>
                    </Data>
                    <Data name="parking">
                        <value>Multi-storey Car Park</value>
                    </Data>
                    <Data name="suburb">
                        <value>Wu Kai Sha</value>
                    </Data>
                    <Data name="county">
                        <value>Sha Tin District</value>
                    </Data>
                    <Data name="country">
                        <value>PRC</value>
                    </Data>
                    <Data name="postcode">
                        <value>DD165 1471</value>
                    </Data>
                </ExtendedData>
            </Placemark>
            <Placemark>
                <address>Shap Sze Heung, Nai Chung, Tai Po District, Hong Kong, DD165 1471, PRC</address>
                <Point>
                    <coordinates>114.2559440648,22.4312914224</coordinates>
                </Point>
                <ExtendedData>
                    <Data name="country_code">
                        <value>cn</value>
                    </Data>
                    <Data name="suburb">
                        <value>Shap Sze Heung</value>
                    </Data>
                    <Data name="hamlet">
                        <value>Nai Chung</value>
                    </Data>
                    <Data name="county">
                        <value>Tai Po District</value>
                    </Data>
                    <Data name="country">
                        <value>PRC</value>
                    </Data>
                    <Data name="postcode">
                        <value>DD165 1471</value>
                    </Data>
                </ExtendedData>
            </Placemark>
        </Folder>
        <Document>
            <name>64.8 km; 01:58 h (OSRM)</name>
            <Placemark>
                <name>Route</name>
                <LineString>
                    <coordinates>114.2559430000,22.4309810000 114.2559750000,22.4309780000 114.2560290000,22.4309600000 114.2560560000,22.4309280000 114.2560680000,22.4309140000 114.2561050000,22.4308350000 114.2561810000,22.4306600000 114.2562140000,22.4305650000 114.2562280000,22.4305380000 114.2562600000,22.4304720000 114.2552120000,22.4305570000 114.2545540000,22.4306210000 114.2541880000,22.4306500000 114.2537910000,22.4306880000 114.2534550000,22.4306890000 114.2533430000,22.4306850000 114.2532780000,22.4306680000 114.2532120000,22.4306290000 114.2532030000,22.4306140000 114.2531650000,22.4305680000 114.2531150000,22.4305340000 114.2530560000,22.4305150000 114.2530150000,22.4305120000 114.2529740000,22.4305160000 114.2529350000,22.4305280000 114.2527970000,22.4305910000 114.2527100000,22.4306010000 114.2526160000,22.4305990000 114.2525200000,22.4305760000 114.2518500000,22.4303390000 114.2511500000,22.4300980000 114.2510330000,22.4300570000 114.2504840000,22.4298680000 114.2491390000,22.4294050000 114.2486500000,22.4292260000 114.2485510000,22.4291900000 114.2480520000,22.4290100000 114.2474570000,22.4288060000 114.2470150000,22.4286470000 114.2467540000,22.4285200000 114.2465640000,22.4284370000 114.2462270000,22.4282710000 114.2460630000,22.4281670000 114.2457390000,22.4278970000 114.2456430000,22.4277880000 114.2455680000,22.4276460000 114.2455420000,22.4275000000 114.2455570000,22.4273730000 114.2455900000,22.4272850000 114.2456290000,22.4272180000 114.2457010000,22.4271310000 114.2457490000,22.4270900000 114.2457970000,22.4270590000 114.2458790000,22.4270190000 114.2459600000,22.4269920000 114.2460500000,22.4269790000 114.2461500000,22.4269750000 114.2462400000,22.4269810000 114.2463300000,22.4270000000 114.2464000000,22.4270200000 114.2464710000,22.4270470000 114.2465420000,22.4270810000 114.2466500000,22.4271500000 114.2466900000,22.4271810000 114.2467310000,22.4272200000 114.2468070000,22.4273070000 114.2468590000,22.4273800000 114.2469350000,22.4275500000 114.2469610000,22.4277150000 114.2469630000,22.4278150000 114.2469250000,22.4280010000 114.2467900000,22.4282780000 114.2464440000,22.4286780000 114.2461730000,22.4289160000 114.2459370000,22.4290940000 114.2457840000,22.4291930000 114.2456890000,22.4292540000 114.2453800000,22.4294160000 114.2450150000,22.4295400000 114.2447260000,22.4295840000 114.2444340000,22.4296000000 114.2440920000,22.4295830000 114.2438970000,22.4295560000 114.2437750000,22.4295320000 114.2437050000,22.4295130000 114.2435090000,22.4294610000 114.2433050000,22.4293660000 114.2431840000,22.4292910000 114.2430590000,22.4291820000 114.2429160000,22.4290530000 114.2427730000,22.4289050000 114.2427330000,22.4288400000 114.2426900000,22.4287950000 114.2426390000,22.4287560000 114.2425830000,22.4287270000 114.2425210000,22.4287070000 114.2424560000,22.4286970000 114.2423910000,22.4286980000 114.2423270000,22.4287090000 114.2422800000,22.4287240000 114.2421840000,22.4286950000 114.2420900000,22.4286500000 114.2419410000,22.4285370000 114.2416740000,22.4283350000 114.2410180000,22.4277830000 114.2405890000,22.4274560000 114.2403920000,22.4273130000 114.2399840000,22.4270180000 114.2398050000,22.4268780000 114.2394020000,22.4265580000 114.2392510000,22.4264510000 114.2393050000,22.4263830000 114.2393550000,22.4263200000 114.2394850000,22.4261420000 114.2397870000,22.4257550000 114.2399290000,22.4255140000 114.2399800000,22.4253670000 114.2400290000,22.4252210000 114.2400540000,22.4249520000 114.2400290000,22.4245930000 114.2399110000,22.4242520000 114.2397390000,22.4240340000 114.2395380000,22.4238740000 114.2393170000,22.4237950000 114.2390950000,22.4237720000 114.2388190000,22.4237960000 114.2381110000,22.4239250000 114.2376820000,22.4239750000 114.2374280000,22.4239810000 114.2371660000,22.4239570000 114.2369770000,22.4238970000 114.2368230000,22.4238220000 114.2365150000,22.4236120000 114.2362350000,22.4233720000 114.2361390000,22.4232890000 114.2360280000,22.4231960000 114.2359370000,22.4231140000 114.2354870000,22.4227060000 114.2352550000,22.4224840000 114.2347150000,22.4219770000 114.2344650000,22.4218030000 114.2343390000,22.4217360000 114.2342350000,22.4216910000 114.2340730000,22.4216430000 114.2338560000,22.4215990000 114.2335180000,22.4216030000 114.2331950000,22.4216520000 114.2327570000,22.4217850000 114.2325980000,22.4218330000 114.2324800000,22.4218650000 114.2325800000,22.4220770000 114.2327020000,22.4222860000 114.2328210000,22.4224740000 114.2329400000,22.4226410000 114.2330380000,22.4227520000 114.2331900000,22.4229240000 114.2334660000,22.4232390000 114.2334120000,22.4232910000 114.2333410000,22.4233520000 114.2331850000,22.4234820000 114.2330810000,22.4235500000 114.2329950000,22.4235930000 114.2329710000,22.4235980000 114.2329500000,22.4236100000 114.2329360000,22.4236240000 114.2329260000,22.4236400000 114.2329200000,22.4236580000 114.2328920000,22.4236880000 114.2327930000,22.4237520000 114.2327180000,22.4237880000 114.2326280000,22.4238160000 114.2325230000,22.4238350000 114.2324350000,22.4238230000 114.2323110000,22.4237940000 114.2318790000,22.4236730000 114.2315160000,22.4235680000 114.2313400000,22.4235120000 114.2310930000,22.4234470000 114.2303900000,22.4232590000 114.2303150000,22.4232430000 114.2302330000,22.4232380000 114.2301220000,22.4232540000 114.2300510000,22.4232870000 114.2299820000,22.4233180000 114.2299330000,22.4233600000 114.2298800000,22.4234190000 114.2298210000,22.4235410000 114.2297830000,22.4236550000 114.2296660000,22.4238070000 114.2295810000,22.4238830000 114.2294710000,22.4239090000 114.2293600000,22.4239160000 114.2291880000,22.4238940000 114.2290980000,22.4238450000 114.2289320000,22.4237390000 114.2287260000,22.4235930000 114.2285650000,22.4234610000 114.2283550000,22.4232730000 114.2281200000,22.4229960000 114.2278290000,22.4225130000 114.2277550000,22.4224100000 114.2279350000,22.4223100000 114.2284140000,22.4220540000 114.2287170000,22.4218830000 114.2288810000,22.4217590000 114.2290240000,22.4216510000 114.2292170000,22.4214680000 114.2293320000,22.4213400000 114.2295260000,22.4210490000 114.2295710000,22.4209600000 114.2295970000,22.4208550000 114.2296220000,22.4207260000 114.2296320000,22.4206340000 114.2296270000,22.4204850000 114.2296120000,22.4203840000 114.2295830000,22.4202410000 114.2295440000,22.4201200000 114.2294870000,22.4199480000 114.2294280000,22.4198030000 114.2293890000,22.4196790000 114.2293520000,22.4194750000 114.2293430000,22.4193810000 114.2293500000,22.4192900000 114.2293580000,22.4192180000 114.2293770000,22.4191340000 114.2294020000,22.4190340000 114.2294430000,22.4189390000 114.2295060000,22.4188110000 114.2296090000,22.4186850000 114.2296930000,22.4185970000 114.2298130000,22.4184880000 114.2299020000,22.4184230000 114.2299870000,22.4183770000 114.2300760000,22.4183300000 114.2313850000,22.4177110000 114.2314960000,22.4176890000 114.2316410000,22.4176700000 114.2317120000,22.4176860000 114.2317720000,22.4176810000 114.2318270000,22.4176610000 114.2318750000,22.4176270000 114.2319100000,22.4175820000 114.2319180000,22.4175660000 114.2319320000,22.4175170000 114.2319320000,22.4174650000 114.2319170000,22.4174160000 114.2318890000,22.4173710000 114.2318490000,22.4173350000 114.2317930000,22.4173080000 114.2316880000,22.4172500000 114.2315440000,22.4171280000 114.2309720000,22.4166080000 114.2306140000,22.4162290000 114.2305280000,22.4161200000 114.2304430000,22.4159850000 114.2303840000,22.4158680000 114.2303500000,22.4157300000 114.2303260000,22.4155230000 114.2302990000,22.4153880000 114.2302520000,22.4152420000 114.2302070000,22.4151330000 114.2301360000,22.4150090000 114.2300580000,22.4149210000 114.2299870000,22.4148550000 114.2297700000,22.4147050000 114.2295100000,22.4145660000 114.2293810000,22.4145060000 114.2291930000,22.4144190000 114.2286180000,22.4141720000 114.2285150000,22.4141360000 114.2280430000,22.4139550000 114.2277310000,22.4138320000 114.2273860000,22.4137430000 114.2270030000,22.4135610000 114.2265960000,22.4133530000 114.2265000000,22.4132990000 114.2260530000,22.4130260000 114.2259100000,22.4129420000 114.2257200000,22.4128130000 114.2254740000,22.4126330000 114.2252640000,22.4124780000 114.2250900000,22.4123140000 114.2246980000,22.4119140000 114.2244630000,22.4116350000 114.2243330000,22.4114610000 114.2242330000,22.4112930000 114.2240810000,22.4110080000 114.2239600000,22.4107640000 114.2238250000,22.4104580000 114.2237460000,22.4101940000 114.2236430000,22.4098570000 114.2234520000,22.4092830000 114.2229540000,22.4083950000 114.2226980000,22.4079890000 114.2223940000,22.4075370000 114.2221860000,22.4072270000 114.2221460000,22.4071760000 114.2217680000,22.4067080000 114.2216750000,22.4065910000 114.2215310000,22.4064220000 114.2213950000,22.4062720000 114.2212080000,22.4060800000 114.2210540000,22.4059280000 114.2208620000,22.4057350000 114.2207010000,22.4055900000 114.2205110000,22.4054210000 114.2203060000,22.4052530000 114.2201880000,22.4051450000 114.2196890000,22.4047680000 114.2194540000,22.4045920000 114.2192770000,22.4044650000 114.2190010000,22.4042830000 114.2179360000,22.4035990000 114.2175730000,22.4033740000 114.2173320000,22.4032320000 114.2170910000,22.4031010000 114.2169160000,22.4030090000 114.2167510000,22.4029210000 114.2165730000,22.4028420000 114.2163480000,22.4027340000 114.2161990000,22.4026640000 114.2159130000,22.4025340000 114.2156460000,22.4023860000 114.2155150000,22.4023630000 114.2151960000,22.4021380000 114.2149990000,22.4019880000 114.2148570000,22.4018710000 114.2146710000,22.4017240000 114.2145020000,22.4015780000 114.2143300000,22.4014230000 114.2142090000,22.4013060000 114.2140240000,22.4011200000 114.2137620000,22.4008400000 114.2127810000,22.3998020000 114.2126010000,22.3995960000 114.2124720000,22.3994680000 114.2118760000,22.3987410000 114.2117210000,22.3985150000 114.2115700000,22.3982940000 114.2114550000,22.3981230000 114.2113420000,22.3979240000 114.2111970000,22.3976840000 114.2110310000,22.3973870000 114.2108630000,22.3971000000 114.2107240000,22.3968120000 114.2105710000,22.3965130000 114.2104070000,22.3961210000 114.2102840000,22.3958400000 114.2101620000,22.3955270000 114.2099900000,22.3950030000 114.2098520000,22.3945370000 114.2097560000,22.3942140000 114.2096620000,22.3938580000 114.2096370000,22.3937240000 114.2096120000,22.3935550000 114.2096000000,22.3933870000 114.2095850000,22.3932130000 114.2095880000,22.3930360000 114.2095880000,22.3928670000 114.2095980000,22.3927040000 114.2096240000,22.3923990000 114.2096510000,22.3921930000 114.2096980000,22.3919600000 114.2097490000,22.3917730000 114.2098110000,22.3915490000 114.2098750000,22.3913520000 114.2099490000,22.3911610000 114.2100360000,22.3909630000 114.2100910000,22.3908310000 114.2101480000,22.3907110000 114.2102240000,22.3905480000 114.2103460000,22.3902950000 114.2104760000,22.3900290000 114.2105550000,22.3898690000 114.2106480000,22.3896770000 114.2107760000,22.3894240000 114.2108670000,22.3892400000 114.2109560000,22.3890440000 114.2110510000,22.3887890000 114.2111330000,22.3885190000 114.2111770000,22.3882950000 114.2112240000,22.3880230000 114.2112370000,22.3878200000 114.2112210000,22.3873360000 114.2112150000,22.3871660000 114.2111410000,22.3867200000 114.2110690000,22.3863140000 114.2110060000,22.3859590000 114.2109100000,22.3854200000 114.2108610000,22.3851580000 114.2107060000,22.3842910000 114.2105700000,22.3835670000 114.2105250000,22.3832700000 114.2104390000,22.3827410000 114.2103610000,22.3823120000 114.2102970000,22.3818960000 114.2102770000,22.3816230000 114.2102610000,22.3811320000 114.2102450000,22.3807760000 114.2102800000,22.3800980000 114.2103560000,22.3797280000 114.2104270000,22.3794310000 114.2105030000,22.3791600000 114.2106200000,22.3789120000 114.2107540000,22.3786890000 114.2108930000,22.3784770000 114.2110350000,22.3782830000 114.2110800000,22.3782390000 114.2112720000,22.3780530000 114.2117400000,22.3776370000 114.2117800000,22.3776010000 114.2118630000,22.3775380000 114.2123110000,22.3771630000 114.2125220000,22.3769600000 114.2128340000,22.3766900000 114.2130050000,22.3764410000 114.2132730000,22.3760500000 114.2133850000,22.3758450000 114.2134900000,22.3756340000 114.2135830000,22.3754400000 114.2136620000,22.3752500000 114.2137340000,22.3750400000 114.2138090000,22.3748200000 114.2138700000,22.3746200000 114.2139200000,22.3744100000 114.2139600000,22.3742100000 114.2139900000,22.3739900000 114.2140100000,22.3738200000 114.2140300000,22.3736200000 114.2140430000,22.3734200000 114.2140470000,22.3732200000 114.2140470000,22.3730200000 114.2140390000,22.3728200000 114.2140200000,22.3725900000 114.2139900000,22.3723500000 114.2139580000,22.3721200000 114.2139100000,22.3718900000 114.2138830000,22.3717800000 114.2083200000,22.3495900000 114.2082620000,22.3493800000 114.2081850000,22.3491100000 114.2081120000,22.3488600000 114.2080360000,22.3486000000 114.2079650000,22.3483650000 114.2078860000,22.3481300000 114.2077980000,22.3478750000 114.2077160000,22.3476550000 114.2076370000,22.3474500000 114.2075600000,22.3472510000 114.2074820000,22.3470500000 114.2074320000,22.3469220000 114.2073200000,22.3466400000 114.2072320000,22.3464380000 114.2071500000,22.3462500000 114.2070620000,22.3460490000 114.2069700000,22.3458400000 114.2068550000,22.3455880000 114.2067400000,22.3453400000 114.2066200000,22.3451000000 114.2064930000,22.3448500000 114.2063600000,22.3445900000 114.2062700000,22.3444200000 114.2061700000,22.3442500000 114.2060250000,22.3439910000 114.2058840000,22.3437400000 114.2047240000,22.3418420000 114.2044970000,22.3414770000 114.2044510000,22.3414030000 114.2043560000,22.3412500000 114.2042370000,22.3410570000 114.2041840000,22.3409730000 114.2040200000,22.3406790000 114.2037790000,22.3402780000 114.2036200000,22.3399190000 114.2035500000,22.3396800000 114.2034870000,22.3394100000 114.2034670000,22.3390760000 114.2034620000,22.3386790000 114.2035020000,22.3383580000 114.2035650000,22.3380700000 114.2036490000,22.3377920000 114.2037200000,22.3375820000 114.2038410000,22.3372750000 114.2039750000,22.3369650000 114.2041430000,22.3365950000 114.2042040000,22.3364470000 114.2043440000,22.3361790000 114.2046930000,22.3353780000 114.2050590000,22.3345000000 114.2051940000,22.3339950000 114.2052160000,22.3338580000 114.2052260000,22.3335740000 114.2051690000,22.3325050000 114.2051430000,22.3318860000 114.2051260000,22.3313350000 114.2051220000,22.3312480000 114.2051220000,22.3311800000 114.2051190000,22.3308610000 114.2050880000,22.3298020000 114.2051000000,22.3295330000 114.2051350000,22.3293270000 114.2052090000,22.3289700000 114.2052630000,22.3287390000 114.2053080000,22.3284440000 114.2053110000,22.3282570000 114.2052980000,22.3280500000 114.2052590000,22.3278390000 114.2051810000,22.3276170000 114.2050770000,22.3273830000 114.2047580000,22.3268260000 114.2046890000,22.3267030000 114.2046160000,22.3265220000 114.2045670000,22.3263810000 114.2045440000,22.3262680000 114.2043350000,22.3252700000 114.2043050000,22.3250260000 114.2042960000,22.3248660000 114.2043020000,22.3247010000 114.2043210000,22.3244120000 114.2044120000,22.3237360000 114.2044900000,22.3231760000 114.2045590000,22.3225480000 114.2046040000,22.3223500000 114.2046700000,22.3221590000 114.2047860000,22.3219400000 114.2049050000,22.3217510000 114.2050760000,22.3215480000 114.2052900000,22.3213410000 114.2061850000,22.3205420000 114.2063390000,22.3203870000 114.2065000000,22.3202200000 114.2067740000,22.3198670000 114.2081000000,22.3183510000 114.2082600000,22.3181770000 114.2084360000,22.3180280000 114.2086810000,22.3178020000 114.2089020000,22.3176460000 114.2091070000,22.3175270000 114.2093220000,22.3174180000 114.2095400000,22.3173270000 114.2097620000,22.3172540000 114.2100330000,22.3171920000 114.2102760000,22.3171420000 114.2105500000,22.3171210000 114.2114570000,22.3170970000 114.2117560000,22.3170730000 114.2119880000,22.3170340000 114.2122850000,22.3169500000 114.2124730000,22.3168770000 114.2127070000,22.3167740000 114.2129200000,22.3166520000 114.2131030000,22.3165470000 114.2132790000,22.3163970000 114.2134740000,22.3162110000 114.2138690000,22.3158060000 114.2142290000,22.3154490000 114.2145580000,22.3151140000 114.2148470000,22.3148200000 114.2163560000,22.3132420000 114.2173930000,22.3121960000 114.2177430000,22.3118360000 114.2181890000,22.3113600000 114.2187700000,22.3106940000 114.2194920000,22.3097790000 114.2202700000,22.3087720000 114.2210710000,22.3077190000 114.2215620000,22.3070150000 114.2216430000,22.3069010000 114.2218020000,22.3066840000 114.2219420000,22.3065490000 114.2221130000,22.3064120000 114.2222910000,22.3063130000 114.2224020000,22.3062630000 114.2225810000,22.3061920000 114.2227370000,22.3061450000 114.2228630000,22.3061150000 114.2230330000,22.3060980000 114.2231470000,22.3060950000 114.2233980000,22.3061030000 114.2234760000,22.3061140000 114.2237290000,22.3061530000 114.2239750000,22.3062510000 114.2242370000,22.3063660000 114.2246560000,22.3066730000 114.2261910000,22.3078620000 114.2264960000,22.3080600000 114.2267550000,22.3082010000 114.2271910000,22.3083820000 114.2277470000,22.3085360000 114.2285990000,22.3087580000 114.2288100000,22.3088060000 114.2290690000,22.3088570000 114.2293260000,22.3089500000 114.2296230000,22.3090580000 114.2298580000,22.3091610000 114.2299500000,22.3092140000 114.2300300000,22.3092630000 114.2301010000,22.3093250000 114.2302800000,22.3095410000 114.2305130000,22.3098580000 114.2308770000,22.3104050000 114.2309700000,22.3105340000 114.2311020000,22.3106980000 114.2312620000,22.3108590000 114.2314500000,22.3110120000 114.2316710000,22.3111730000 114.2318810000,22.3112950000 114.2321580000,22.3114160000 114.2324370000,22.3115200000 114.2327180000,22.3116070000 114.2330890000,22.3117130000 114.2336110000,22.3118310000 114.2338830000,22.3119190000 114.2344900000,22.3121040000 114.2349170000,22.3122580000 114.2354200000,22.3124590000 114.2367560000,22.3130380000 114.2369630000,22.3131340000 114.2374850000,22.3133750000 114.2378950000,22.3135750000 114.2384370000,22.3138400000 114.2387190000,22.3140380000 114.2390200000,22.3142720000 114.2393870000,22.3145990000 114.2397070000,22.3149090000 114.2404440000,22.3156850000 114.2409450000,22.3161590000 114.2415480000,22.3166610000 114.2417400000,22.3168530000 114.2417870000,22.3169000000 114.2420030000,22.3170850000 114.2424630000,22.3174140000 114.2476410000,22.3201620000 114.2482710000,22.3204930000 114.2487660000,22.3207460000 114.2492130000,22.3209330000 114.2495760000,22.3210540000 114.2500220000,22.3211440000 114.2502300000,22.3211740000 114.2504770000,22.3212110000 114.2508460000,22.3212610000 114.2511760000,22.3212870000 114.2515440000,22.3213280000 114.2518740000,22.3213540000 114.2523450000,22.3213910000 114.2527550000,22.3214000000 114.2531250000,22.3213820000 114.2534790000,22.3213020000 114.2537370000,22.3212280000 114.2539910000,22.3211320000 114.2542530000,22.3210200000 114.2545400000,22.3208550000 114.2547740000,22.3206880000 114.2550410000,22.3204710000 114.2553460000,22.3201510000 114.2557970000,22.3196350000 114.2559400000,22.3194730000 114.2562260000,22.3191490000 114.2567520000,22.3185530000 114.2569270000,22.3183790000 114.2571810000,22.3181260000 114.2575860000,22.3177550000 114.2579760000,22.3174730000 114.2585270000,22.3171700000 114.2588110000,22.3169850000 114.2589750000,22.3169010000 114.2592310000,22.3167800000 114.2594370000,22.3166990000 114.2596840000,22.3166380000 114.2599610000,22.3166080000 114.2602010000,22.3166310000 114.2604250000,22.3167190000 114.2606660000,22.3168750000 114.2608510000,22.3170070000 114.2610060000,22.3171610000 114.2611280000,22.3173020000 114.2614920000,22.3177020000 114.2616170000,22.3178400000 114.2617870000,22.3179760000 114.2620760000,22.3184080000 114.2622420000,22.3186560000 114.2624560000,22.3190660000 114.2625090000,22.3192140000 114.2625400000,22.3193700000 114.2625310000,22.3194030000 114.2625290000,22.3194370000 114.2625340000,22.3194710000 114.2625620000,22.3195350000 114.2626120000,22.3195860000 114.2626790000,22.3196160000 114.2627530000,22.3196230000 114.2628260000,22.3196060000 114.2628540000,22.3195910000 114.2628790000,22.3195730000 114.2629010000,22.3195510000 114.2631840000,22.3194790000 114.2636560000,22.3194110000 114.2637670000,22.3193970000 114.2642380000,22.3193350000 114.2643620000,22.3193190000 114.2644470000,22.3193080000 114.2650110000,22.3192490000 114.2652560000,22.3192340000 114.2654400000,22.3192450000 114.2654920000,22.3192810000 114.2655530000,22.3192990000 114.2656180000,22.3192990000 114.2656880000,22.3192750000 114.2657450000,22.3192300000 114.2657800000,22.3191690000 114.2660200000,22.3191530000 114.2663670000,22.3190970000 114.2668290000,22.3189990000 114.2671370000,22.3189190000 114.2673520000,22.3188340000 114.2675830000,22.3187150000 114.2676400000,22.3186860000 114.2679390000,22.3184850000 114.2682640000,22.3182080000 114.2685780000,22.3185900000 114.2686920000,22.3187250000 114.2687830000,22.3187770000 114.2689000000,22.3187390000 114.2689150000,22.3187700000 114.2689420000,22.3187930000 114.2689850000,22.3188040000 114.2690280000,22.3187940000 114.2690600000,22.3187660000 114.2690660000,22.3187490000 114.2690730000,22.3187270000 114.2690650000,22.3186870000 114.2690360000,22.3186570000 114.2689980000,22.3186430000 114.2689560000,22.3186460000 114.2689220000,22.3186670000 114.2689010000,22.3187010000 114.2689000000,22.3187390000 114.2687830000,22.3187770000 114.2686920000,22.3187250000 114.2685780000,22.3185900000 114.2682640000,22.3182080000 114.2684570000,22.3180540000 114.2685600000,22.3179720000 114.2686130000,22.3179300000 114.2689980000,22.3176230000 114.2691190000,22.3175270000 114.2691800000,22.3174780000 114.2693390000,22.3173510000 114.2695300000,22.3172020000 114.2698630000,22.3169440000 114.2700670000,22.3168160000 114.2701590000,22.3167710000 114.2702650000,22.3167130000 114.2703360000,22.3167090000 114.2704010000,22.3166850000 114.2704550000,22.3166420000 114.2704910000,22.3165860000 114.2705060000,22.3165220000 114.2704980000,22.3164590000 114.2704690000,22.3164020000 114.2704230000,22.3163550000 114.2703630000,22.3163240000 114.2703130000,22.3163130000 114.2702070000,22.3162800000 114.2701000000,22.3162090000 114.2699780000,22.3161130000 114.2698650000,22.3160180000 114.2689060000,22.3150240000 114.2687840000,22.3148980000 114.2685750000,22.3146810000 114.2684680000,22.3145700000 114.2677730000,22.3139230000 114.2675890000,22.3137590000 114.2675100000,22.3136930000 114.2673900000,22.3135930000 114.2669550000,22.3132320000 114.2666700000,22.3129820000 114.2664280000,22.3127150000 114.2662910000,22.3125590000 114.2661970000,22.3124560000 114.2661150000,22.3122950000 114.2660560000,22.3121840000 114.2660130000,22.3120840000 114.2659990000,22.3119840000 114.2659960000,22.3118400000 114.2660050000,22.3117180000 114.2660360000,22.3115990000 114.2660760000,22.3114650000 114.2661480000,22.3112160000 114.2662060000,22.3109860000 114.2662640000,22.3108500000 114.2663560000,22.3106160000 114.2665180000,22.3102160000 114.2666240000,22.3099520000 114.2667620000,22.3097040000 114.2668860000,22.3094920000 114.2671510000,22.3092380000 114.2674490000,22.3089340000 114.2676790000,22.3086740000 114.2678790000,22.3084000000 114.2679210000,22.3083180000 114.2679940000,22.3081730000 114.2680930000,22.3079180000 114.2682820000,22.3074160000 114.2684050000,22.3072000000 114.2685200000,22.3069980000 114.2686660000,22.3068090000 114.2688170000,22.3066480000 114.2691640000,22.3063060000 114.2696180000,22.3059260000 114.2699740000,22.3056120000 114.2701370000,22.3054570000 114.2703160000,22.3052100000 114.2708130000,22.3043130000 114.2709630000,22.3040770000 114.2712430000,22.3037820000 114.2714990000,22.3035580000 114.2716810000,22.3034110000 114.2719300000,22.3032140000 114.2722050000,22.3030330000 114.2723010000,22.3030090000 114.2724740000,22.3030510000 114.2725730000,22.3031070000 114.2728060000,22.3031570000 114.2735630000,22.3035950000 114.2738210000,22.3037980000 114.2740190000,22.3039680000 114.2742320000,22.3042540000 114.2743590000,22.3044580000 114.2744380000,22.3046510000 114.2744900000,22.3048250000 114.2745540000,22.3050850000 114.2745920000,22.3053410000 114.2745960000,22.3055510000 114.2745960000,22.3055660000 114.2746360000,22.3057050000 114.2746320000,22.3061670000 114.2745920000,22.3076650000 114.2746160000,22.3081620000 114.2746300000,22.3083770000 114.2746490000,22.3087490000 114.2746860000,22.3093250000 114.2747170000,22.3093520000 114.2747840000,22.3094100000 114.2746860000,22.3093250000 114.2746490000,22.3087490000 114.2746300000,22.3083770000 114.2746160000,22.3081620000 114.2745920000,22.3076650000 114.2746320000,22.3061670000 114.2746360000,22.3057050000 114.2745960000,22.3055660000 114.2745960000,22.3055510000 114.2745920000,22.3053410000 114.2745540000,22.3050850000 114.2744900000,22.3048250000 114.2744380000,22.3046510000 114.2743590000,22.3044580000 114.2742320000,22.3042540000 114.2740190000,22.3039680000 114.2738210000,22.3037980000 114.2735630000,22.3035950000 114.2728060000,22.3031570000 114.2725150000,22.3029830000 114.2724170000,22.3028620000 114.2723820000,22.3027520000 114.2723930000,22.3024720000 114.2724150000,22.3023680000 114.2724260000,22.3022140000 114.2724180000,22.3019670000 114.2723880000,22.3017870000 114.2723580000,22.3016910000 114.2723170000,22.3015580000 114.2722060000,22.3013290000 114.2719460000,22.3010390000 114.2717790000,22.3008700000 114.2716630000,22.3007300000 114.2715430000,22.3005580000 114.2714480000,22.3003350000 114.2713660000,22.2998170000 114.2714190000,22.2994100000 114.2715990000,22.2989870000 114.2721270000,22.2980860000 114.2724880000,22.2974650000 114.2725360000,22.2973810000 114.2728110000,22.2969030000 114.2731050000,22.2963860000 114.2732790000,22.2960300000 114.2734260000,22.2956450000 114.2734550000,22.2955340000 114.2734830000,22.2954320000 114.2735640000,22.2949720000 114.2736020000,22.2944950000 114.2736020000,22.2944680000 114.2736030000,22.2943940000 114.2736040000,22.2943240000 114.2736070000,22.2940200000 114.2736060000,22.2934970000 114.2736030000,22.2923780000 114.2736020000,22.2920440000 114.2736100000,22.2915030000 114.2736530000,22.2910120000 114.2737160000,22.2906790000 114.2738360000,22.2902910000 114.2739870000,22.2899510000 114.2740420000,22.2898430000 114.2746770000,22.2887010000 114.2750410000,22.2880270000 114.2752660000,22.2873930000 114.2753850000,22.2869700000 114.2754770000,22.2865530000 114.2755620000,22.2858890000 114.2755900000,22.2852300000 114.2755990000,22.2848880000 114.2756100000,22.2845710000 114.2756190000,22.2837660000 114.2755290000,22.2833590000 114.2753350000,22.2829010000 114.2748700000,22.2819840000 114.2745230000,22.2813080000 114.2744760000,22.2812000000 114.2743720000,22.2812330000 114.2730240000,22.2817550000 114.2714840000,22.2823850000 114.2713320000,22.2825050000 114.2710120000,22.2826260000 114.2705260000,22.2828220000 114.2701930000,22.2829550000 114.2697180000,22.2831440000 114.2699730000,22.2837400000 114.2702770000,22.2844050000 114.2707460000,22.2854460000 114.2711160000,22.2862670000 114.2714050000,22.2869070000 114.2715850000,22.2873050000 114.2716010000,22.2873440000 114.2716120000,22.2873660000 114.2718160000,22.2877690000 114.2718700000,22.2878840000 114.2718840000,22.2880380000 114.2719850000,22.2882780000 114.2720610000,22.2884420000 114.2721830000,22.2886970000 114.2723280000,22.2889380000 114.2724260000,22.2890600000 114.2725320000,22.2891850000 114.2726440000,22.2892880000 114.2727590000,22.2893660000 114.2729140000,22.2894600000 114.2730770000,22.2895380000 114.2734450000,22.2897020000 114.2735090000,22.2897720000 114.2735760000,22.2898790000 114.2735970000,22.2899260000 114.2736270000,22.2899950000 114.2736500000,22.2901100000 114.2736440000,22.2902290000 114.2735480000,22.2906240000 114.2734870000,22.2909720000 114.2734530000,22.2912710000 114.2734370000,22.2915930000 114.2734310000,22.2920210000 114.2734320000,22.2921250000 114.2734920000,22.2924110000 114.2734920000,22.2925910000 114.2734820000,22.2934260000 114.2734940000,22.2939530000 114.2734910000,22.2942390000 114.2734940000,22.2944080000 114.2734690000,22.2947600000 114.2734260000,22.2951940000 114.2733750000,22.2954410000 114.2733640000,22.2955190000 114.2733450000,22.2956260000 114.2731610000,22.2959850000 114.2730070000,22.2963350000 114.2727070000,22.2968530000 114.2723840000,22.2974220000 114.2720860000,22.2979460000 114.2720270000,22.2980410000 114.2715510000,22.2988610000 114.2713640000,22.2992970000 114.2712780000,22.2997340000 114.2713850000,22.3004020000 114.2715100000,22.3006620000 114.2717030000,22.3009070000 114.2720540000,22.3012740000 114.2721790000,22.3014490000 114.2722720000,22.3016430000 114.2723110000,22.3017990000 114.2723250000,22.3019520000 114.2723180000,22.3022290000 114.2723010000,22.3023760000 114.2722420000,22.3025510000 114.2721790000,22.3027040000 114.2721490000,22.3027700000 114.2721010000,22.3028500000 114.2721890000,22.3029010000 114.2724740000,22.3030510000 114.2725730000,22.3031070000 114.2728060000,22.3031570000 114.2735630000,22.3035950000 114.2738210000,22.3037980000 114.2740190000,22.3039680000 114.2742320000,22.3042540000 114.2743590000,22.3044580000 114.2744380000,22.3046510000 114.2744900000,22.3048250000 114.2745540000,22.3050850000 114.2745920000,22.3053410000 114.2745960000,22.3055510000 114.2745960000,22.3055660000 114.2746360000,22.3057050000 114.2746320000,22.3061670000 114.2745920000,22.3076650000 114.2746160000,22.3081620000 114.2746300000,22.3083770000 114.2746490000,22.3087490000 114.2746860000,22.3093250000 114.2747310000,22.3093640000 114.2747840000,22.3094100000 114.2746860000,22.3093250000 114.2746490000,22.3087490000 114.2746300000,22.3083770000 114.2746160000,22.3081620000 114.2745920000,22.3076650000 114.2746320000,22.3061670000 114.2746360000,22.3057050000 114.2745960000,22.3055660000 114.2745960000,22.3055510000 114.2745920000,22.3053410000 114.2745540000,22.3050850000 114.2744900000,22.3048250000 114.2744380000,22.3046510000 114.2743590000,22.3044580000 114.2742320000,22.3042540000 114.2740190000,22.3039680000 114.2738210000,22.3037980000 114.2735630000,22.3035950000 114.2728060000,22.3031570000 114.2725150000,22.3029830000 114.2722370000,22.3028180000 114.2721490000,22.3027700000 114.2721010000,22.3028500000 114.2720350000,22.3029370000 114.2719420000,22.3030490000 114.2717980000,22.3031980000 114.2716130000,22.3033440000 114.2714320000,22.3034970000 114.2711810000,22.3037340000 114.2709060000,22.3040270000 114.2707350000,22.3042800000 114.2704230000,22.3048300000 114.2703260000,22.3050170000 114.2702170000,22.3051850000 114.2700370000,22.3054180000 114.2698560000,22.3055990000 114.2697310000,22.3057090000 114.2696050000,22.3058190000 114.2695010000,22.3059050000 114.2691430000,22.3061930000 114.2686870000,22.3066060000 114.2684530000,22.3068920000 114.2682840000,22.3071410000 114.2681050000,22.3075740000 114.2679880000,22.3078740000 114.2679130000,22.3080670000 114.2678200000,22.3082850000 114.2676980000,22.3084950000 114.2675350000,22.3086960000 114.2673660000,22.3088840000 114.2671190000,22.3091180000 114.2668960000,22.3093540000 114.2666870000,22.3095870000 114.2665010000,22.3097790000 114.2663870000,22.3099280000 114.2663500000,22.3099940000 114.2661500000,22.3103550000 114.2660450000,22.3106050000 114.2658780000,22.3110140000 114.2658360000,22.3111190000 114.2657870000,22.3112220000 114.2656940000,22.3113680000 114.2655130000,22.3115070000 114.2654790000,22.3115100000 114.2654450000,22.3115160000 114.2653620000,22.3115460000 114.2652890000,22.3115940000 114.2652320000,22.3116580000 114.2651940000,22.3117320000 114.2651880000,22.3117520000 114.2651830000,22.3118850000 114.2652360000,22.3120080000 114.2653370000,22.3121020000 114.2654710000,22.3121500000 114.2656140000,22.3121440000 114.2657640000,22.3121770000 114.2659030000,22.3122790000 114.2661850000,22.3126150000 114.2665850000,22.3130460000 114.2668790000,22.3133200000 114.2674390000,22.3137600000 114.2672430000,22.3139400000 114.2666360000,22.3144450000 114.2664000000,22.3146550000 114.2662710000,22.3147740000 114.2659380000,22.3150800000 114.2658690000,22.3151330000 114.2657860000,22.3151580000 114.2656780000,22.3151490000 114.2656080000,22.3151240000 114.2655270000,22.3150880000 114.2654420000,22.3150100000 114.2652790000,22.3148410000 114.2651280000,22.3147210000 114.2650400000,22.3146920000 114.2649830000,22.3146870000 114.2649240000,22.3146790000 114.2648810000,22.3146770000 114.2648210000,22.3146740000 114.2647180000,22.3147460000 114.2646200000,22.3148180000 114.2641530000,22.3152030000 114.2640350000,22.3153080000 114.2639700000,22.3153660000 114.2638640000,22.3154370000 114.2637780000,22.3155070000 114.2636780000,22.3155870000 114.2636650000,22.3156610000 114.2636600000,22.3157080000 114.2636590000,22.3157690000 114.2636680000,22.3158640000 114.2637250000,22.3159250000 114.2637900000,22.3159980000 114.2638690000,22.3161060000 114.2639200000,22.3161630000 114.2642940000,22.3165690000 114.2645540000,22.3168370000 114.2650340000,22.3172980000 114.2652310000,22.3175320000 114.2653170000,22.3176940000 114.2653740000,22.3178660000 114.2654260000,22.3182180000 114.2655000000,22.3187140000 114.2654980000,22.3188730000 114.2654880000,22.3189470000 114.2654390000,22.3189810000 114.2654040000,22.3190260000 114.2652420000,22.3190960000 114.2641750000,22.3192240000 114.2638280000,22.3192620000 114.2637520000,22.3192710000 114.2634930000,22.3192990000 114.2631390000,22.3193120000 114.2628910000,22.3193010000 114.2628440000,22.3192660000 114.2627880000,22.3192440000 114.2626660000,22.3190520000 114.2624050000,22.3185560000 114.2621050000,22.3181590000 114.2620660000,22.3181060000 114.2619490000,22.3178870000 114.2618000000,22.3176730000 114.2617040000,22.3175430000 114.2615890000,22.3173460000 114.2614940000,22.3171720000 114.2614090000,22.3169910000 114.2611550000,22.3163980000 114.2610660000,22.3162470000 114.2609020000,22.3160420000 114.2607360000,22.3159080000 114.2605510000,22.3158310000 114.2602530000,22.3158060000 114.2601250000,22.3158210000 114.2599930000,22.3158590000 114.2597930000,22.3159530000 114.2595880000,22.3160930000 114.2594010000,22.3162490000 114.2586260000,22.3168180000 114.2583220000,22.3170540000 114.2580940000,22.3172470000 114.2571880000,22.3179420000 114.2569280000,22.3182130000 114.2567840000,22.3183750000 114.2564080000,22.3187810000 114.2561510000,22.3190590000 114.2559180000,22.3193280000 114.2552920000,22.3200520000 114.2550350000,22.3203100000 114.2547560000,22.3205580000 114.2544450000,22.3207570000 114.2541340000,22.3209350000 114.2538440000,22.3210640000 114.2535330000,22.3211730000 114.2532110000,22.3212490000 114.2529560000,22.3212810000 114.2527190000,22.3212800000 114.2524300000,22.3212720000 114.2521630000,22.3212430000 114.2518740000,22.3212120000 114.2514590000,22.3211670000 114.2508720000,22.3210870000 114.2505150000,22.3210100000 114.2501480000,22.3209090000 114.2500490000,22.3208820000 114.2495710000,22.3207460000 114.2491810000,22.3206100000 114.2487480000,22.3204260000 114.2426560000,22.3170550000 114.2422160000,22.3167640000 114.2420150000,22.3166350000 114.2417360000,22.3164260000 114.2413210000,22.3161260000 114.2411240000,22.3159720000 114.2398890000,22.3148750000 114.2387130000,22.3138600000 114.2385500000,22.3137530000 114.2382780000,22.3135990000 114.2378940000,22.3134200000 114.2375240000,22.3132570000 114.2368820000,22.3129700000 114.2365910000,22.3128370000 114.2361920000,22.3126560000 114.2358190000,22.3124960000 114.2355560000,22.3123870000 114.2354250000,22.3123320000 114.2351180000,22.3122130000 114.2349080000,22.3121320000 114.2344030000,22.3119370000 114.2339150000,22.3117920000 114.2334570000,22.3116590000 114.2331360000,22.3115510000 114.2328230000,22.3114620000 114.2325570000,22.3113770000 114.2322940000,22.3112790000 114.2320000000,22.3111450000 114.2317880000,22.3110270000 114.2315570000,22.3108190000 114.2315090000,22.3107690000 114.2314410000,22.3106970000 114.2313240000,22.3105870000 114.2311360000,22.3103790000 114.2309710000,22.3101630000 114.2308100000,22.3099350000 114.2306370000,22.3096750000 114.2304750000,22.3093690000 114.2303910000,22.3092760000 114.2302890000,22.3091620000 114.2301760000,22.3090420000 114.2300170000,22.3089260000 114.2298730000,22.3088180000 114.2297150000,22.3087490000 114.2294750000,22.3086780000 114.2291470000,22.3086000000 114.2285190000,22.3084790000 114.2280480000,22.3083970000 114.2278080000,22.3083690000 114.2276600000,22.3083350000 114.2275040000,22.3083120000 114.2273210000,22.3083020000 114.2270840000,22.3082100000 114.2267940000,22.3080810000 114.2265630000,22.3079480000 114.2265020000,22.3079100000 114.2264230000,22.3078580000 114.2253870000,22.3070680000 114.2245180000,22.3064530000 114.2242970000,22.3062910000 114.2241950000,22.3062300000 114.2240210000,22.3061420000 114.2237420000,22.3060320000 114.2233830000,22.3059810000 114.2232760000,22.3059700000 114.2231710000,22.3059710000 114.2230800000,22.3059760000 114.2227950000,22.3060030000 114.2225050000,22.3060720000 114.2223270000,22.3061530000 114.2221850000,22.3062350000 114.2220480000,22.3063180000 114.2218690000,22.3064560000 114.2216350000,22.3066930000 114.2214520000,22.3069370000 114.2209550000,22.3076590000 114.2201670000,22.3087190000 114.2192820000,22.3098570000 114.2189020000,22.3103410000 114.2185710000,22.3107330000 114.2181640000,22.3111990000 114.2179470000,22.3114370000 114.2176990000,22.3117080000 114.2174100000,22.3119890000 114.2172860000,22.3121100000 114.2163760000,22.3130530000 114.2137790000,22.3157210000 114.2133820000,22.3161450000 114.2131930000,22.3163010000 114.2130460000,22.3164050000 114.2128790000,22.3165200000 114.2126690000,22.3166710000 114.2123770000,22.3168160000 114.2122190000,22.3168740000 114.2119860000,22.3169380000 114.2117240000,22.3169860000 114.2114660000,22.3170140000 114.2105620000,22.3170430000 114.2102690000,22.3170690000 114.2100120000,22.3171130000 114.2097500000,22.3171800000 114.2095300000,22.3172550000 114.2092780000,22.3173540000 114.2090540000,22.3174680000 114.2088220000,22.3175940000 114.2086310000,22.3177450000 114.2083900000,22.3179430000 114.2081970000,22.3181360000 114.2080400000,22.3183040000 114.2066910000,22.3198560000 114.2061010000,22.3205150000 114.2052320000,22.3213090000 114.2050130000,22.3215190000 114.2048290000,22.3217380000 114.2046960000,22.3219410000 114.2045880000,22.3221620000 114.2045210000,22.3223460000 114.2044690000,22.3225610000 114.2043790000,22.3231960000 114.2043130000,22.3237630000 114.2042210000,22.3244010000 114.2042010000,22.3246760000 114.2042030000,22.3248580000 114.2042110000,22.3250080000 114.2042410000,22.3252630000 114.2044370000,22.3262760000 114.2044630000,22.3263880000 114.2045180000,22.3265500000 114.2045830000,22.3267130000 114.2046420000,22.3268410000 114.2049840000,22.3274340000 114.2050800000,22.3276420000 114.2051680000,22.3278610000 114.2051980000,22.3280440000 114.2052140000,22.3282530000 114.2052140000,22.3284240000 114.2051800000,22.3287150000 114.2051220000,22.3289480000 114.2050330000,22.3293050000 114.2049920000,22.3295240000 114.2049650000,22.3297930000 114.2050030000,22.3313350000 114.2050200000,22.3320150000 114.2050480000,22.3322640000 114.2050630000,22.3324570000 114.2050910000,22.3327410000 114.2050960000,22.3335240000 114.2050940000,22.3338400000 114.2050750000,22.3339740000 114.2049210000,22.3345550000 114.2045840000,22.3353330000 114.2043520000,22.3358800000 114.2040440000,22.3365710000 114.2038910000,22.3369040000 114.2037360000,22.3372380000 114.2036040000,22.3375490000 114.2035310000,22.3377850000 114.2034560000,22.3380510000 114.2033970000,22.3383380000 114.2033500000,22.3386890000 114.2033600000,22.3391140000 114.2033640000,22.3394700000 114.2034330000,22.3397730000 114.2035260000,22.3401130000 114.2038120000,22.3408620000 114.2038340000,22.3409070000 114.2038860000,22.3409910000 114.2042960000,22.3416610000 114.2043110000,22.3416850000 114.2043790000,22.3417970000 114.2044810000,22.3419620000 114.2053200000,22.3433150000 114.2054350000,22.3435200000 114.2055500000,22.3437290000 114.2056630000,22.3439250000 114.2057790000,22.3441400000 114.2058890000,22.3443450000 114.2060000000,22.3445600000 114.2061000000,22.3447600000 114.2062070000,22.3449750000 114.2063090000,22.3451800000 114.2064100000,22.3453900000 114.2065010000,22.3455900000 114.2065900000,22.3457900000 114.2066830000,22.3460000000 114.2067680000,22.3462000000 114.2068510000,22.3464000000 114.2069320000,22.3465990000 114.2070130000,22.3468000000 114.2071030000,22.3470300000 114.2072050000,22.3473000000 114.2073180000,22.3476000000 114.2074280000,22.3479000000 114.2075260000,22.3482000000 114.2076200000,22.3484900000 114.2076880000,22.3487000000 114.2077600000,22.3489400000 114.2078440000,22.3492500000 114.2079100000,22.3495000000 114.2135960000,22.3721800000 114.2136400000,22.3723800000 114.2136800000,22.3726000000 114.2137070000,22.3728000000 114.2137270000,22.3730000000 114.2137370000,22.3732000000 114.2137370000,22.3734000000 114.2137320000,22.3736000000 114.2137200000,22.3738000000 114.2136930000,22.3740200000 114.2136600000,22.3742200000 114.2136180000,22.3744700000 114.2135700000,22.3746800000 114.2135000000,22.3749100000 114.2134300000,22.3751100000 114.2133500000,22.3753100000 114.2132580000,22.3755300000 114.2131500000,22.3757400000 114.2130380000,22.3759400000 114.2128100000,22.3762900000 114.2127220000,22.3764120000 114.2124270000,22.3767490000 114.2121920000,22.3769590000 114.2119220000,22.3771500000 114.2115880000,22.3774160000 114.2112650000,22.3777380000 114.2109840000,22.3780490000 114.2107670000,22.3783370000 114.2106640000,22.3785000000 114.2105650000,22.3786520000 114.2104420000,22.3789940000 114.2103620000,22.3792260000 114.2103220000,22.3793520000 114.2102880000,22.3794810000 114.2102530000,22.3796580000 114.2101970000,22.3800990000 114.2101600000,22.3805130000 114.2101500000,22.3809730000 114.2101750000,22.3815010000 114.2102070000,22.3818990000 114.2102730000,22.3823180000 114.2103460000,22.3827530000 114.2104170000,22.3831650000 114.2104830000,22.3835810000 114.2105810000,22.3840880000 114.2107790000,22.3851800000 114.2107920000,22.3853990000 114.2109760000,22.3863920000 114.2110930000,22.3873440000 114.2110970000,22.3875330000 114.2110970000,22.3877150000 114.2110510000,22.3880820000 114.2110260000,22.3882700000 114.2109820000,22.3884920000 114.2109030000,22.3887750000 114.2108270000,22.3889850000 114.2107510000,22.3891670000 114.2106300000,22.3894110000 114.2105050000,22.3896260000 114.2102590000,22.3900050000 114.2101320000,22.3902270000 114.2100130000,22.3904140000 114.2099450000,22.3905420000 114.2098700000,22.3906850000 114.2098480000,22.3907490000 114.2096910000,22.3910970000 114.2096310000,22.3912610000 114.2095650000,22.3914620000 114.2095030000,22.3916800000 114.2094540000,22.3919080000 114.2094030000,22.3921420000 114.2093790000,22.3923090000 114.2093650000,22.3925010000 114.2093420000,22.3926810000 114.2093330000,22.3928410000 114.2093380000,22.3930220000 114.2093380000,22.3932050000 114.2093450000,22.3933860000 114.2093690000,22.3935770000 114.2093890000,22.3937210000 114.2094190000,22.3938870000 114.2094580000,22.3940560000 114.2095090000,22.3942450000 114.2095850000,22.3945390000 114.2097380000,22.3950350000 114.2099260000,22.3956020000 114.2100380000,22.3959000000 114.2101640000,22.3962190000 114.2103200000,22.3965720000 114.2104900000,22.3969110000 114.2106350000,22.3971770000 114.2107910000,22.3974660000 114.2109610000,22.3977650000 114.2110390000,22.3979000000 114.2111200000,22.3980430000 114.2112350000,22.3982320000 114.2113330000,22.3983770000 114.2114900000,22.3986080000 114.2116440000,22.3988240000 114.2118450000,22.3990970000 114.2120290000,22.3993280000 114.2122000000,22.3995360000 114.2124120000,22.3997700000 114.2126170000,22.3999970000 114.2132020000,22.4006480000 114.2135430000,22.4010000000 114.2138280000,22.4012920000 114.2141330000,22.4015620000 114.2143300000,22.4017400000 114.2144840000,22.4018760000 114.2146780000,22.4020320000 114.2148270000,22.4021430000 114.2150380000,22.4023140000 114.2152070000,22.4025060000 114.2155470000,22.4028060000 114.2158970000,22.4030700000 114.2164810000,22.4034100000 114.2170000000,22.4036460000 114.2174760000,22.4038320000 114.2181560000,22.4040980000 114.2184720000,22.4042460000 114.2187930000,22.4044300000 114.2191360000,22.4046510000 114.2192840000,22.4047580000 114.2195160000,22.4049240000 114.2199690000,22.4052770000 114.2201440000,22.4054070000 114.2202980000,22.4055540000 114.2205280000,22.4057460000 114.2206630000,22.4058830000 114.2208490000,22.4060530000 114.2210100000,22.4062160000 114.2212000000,22.4063990000 114.2213120000,22.4065290000 114.2215330000,22.4067870000 114.2217190000,22.4070380000 114.2218480000,22.4072140000 114.2219220000,22.4073280000 114.2220290000,22.4075160000 114.2222160000,22.4078530000 114.2223630000,22.4081550000 114.2224730000,22.4083630000 114.2225980000,22.4085800000 114.2231090000,22.4095930000 114.2233190000,22.4100120000 114.2233890000,22.4101590000 114.2235430000,22.4103880000 114.2235920000,22.4104560000 114.2236440000,22.4105390000 114.2238350000,22.4109060000 114.2240550000,22.4113130000 114.2242800000,22.4116340000 114.2244770000,22.4118890000 114.2245610000,22.4119860000 114.2247930000,22.4122050000 114.2249970000,22.4123820000 114.2251820000,22.4125310000 114.2253860000,22.4126900000 114.2256300000,22.4128660000 114.2258220000,22.4130140000 114.2260500000,22.4131670000 114.2262720000,22.4133020000 114.2265150000,22.4134400000 114.2267430000,22.4135800000 114.2270230000,22.4137180000 114.2272970000,22.4138490000 114.2275520000,22.4139590000 114.2278380000,22.4140930000 114.2281460000,22.4142260000 114.2282280000,22.4142650000 114.2288470000,22.4146670000 114.2290220000,22.4147990000 114.2291460000,22.4148980000 114.2294190000,22.4151310000 114.2295890000,22.4153030000 114.2296980000,22.4154310000 114.2300060000,22.4157790000 114.2303050000,22.4160700000 114.2306590000,22.4164070000 114.2311720000,22.4168840000 114.2314400000,22.4171690000 114.2314830000,22.4172140000 114.2315280000,22.4172800000 114.2315460000,22.4173280000 114.2315500000,22.4173800000 114.2315210000,22.4174360000 114.2314660000,22.4175150000 114.2314170000,22.4175760000 114.2313270000,22.4176260000 114.2302440000,22.4181400000 114.2300770000,22.4182170000 114.2299380000,22.4182930000 114.2298550000,22.4183400000 114.2296910000,22.4184620000 114.2295970000,22.4185480000 114.2294890000,22.4186590000 114.2294140000,22.4187610000 114.2293790000,22.4188250000 114.2293400000,22.4189010000 114.2293060000,22.4189950000 114.2292810000,22.4190730000 114.2292590000,22.4191750000 114.2292420000,22.4192760000 114.2292320000,22.4193810000 114.2292420000,22.4194960000 114.2292790000,22.4197070000 114.2293480000,22.4199130000 114.2294410000,22.4201560000 114.2294850000,22.4202710000 114.2295310000,22.4204950000 114.2295440000,22.4206290000 114.2295140000,22.4208400000 114.2294820000,22.4209350000 114.2294360000,22.4210220000 114.2292540000,22.4212720000 114.2291640000,22.4213800000 114.2289180000,22.4215990000 114.2286700000,22.4217930000 114.2285600000,22.4218580000 114.2283710000,22.4219680000 114.2283000000,22.4220090000 114.2279360000,22.4221980000 114.2276910000,22.4223250000 114.2276340000,22.4223580000 114.2274610000,22.4224550000 114.2275170000,22.4225470000 114.2276380000,22.4227190000 114.2280010000,22.4232450000 114.2281640000,22.4234330000 114.2283040000,22.4235650000 114.2284140000,22.4236760000 114.2285370000,22.4237700000 114.2287530000,22.4239310000 114.2291010000,22.4241460000 114.2293610000,22.4242910000 114.2294650000,22.4243340000 114.2295700000,22.4243780000 114.2296770000,22.4244180000 114.2298150000,22.4244700000 114.2300410000,22.4245370000 114.2303300000,22.4246150000 114.2309010000,22.4247760000 114.2318300000,22.4250460000 114.2326840000,22.4252770000 114.2333020000,22.4254400000 114.2338210000,22.4255470000 114.2340170000,22.4255860000 114.2341040000,22.4256000000 114.2341580000,22.4253530000 114.2342130000,22.4251150000 114.2342430000,22.4249360000 114.2342570000,22.4248030000 114.2342570000,22.4246600000 114.2342260000,22.4243110000 114.2341750000,22.4241110000 114.2340300000,22.4237640000 114.2337650000,22.4234720000 114.2335650000,22.4232320000 114.2330030000,22.4226040000 114.2329030000,22.4224630000 114.2327790000,22.4222470000 114.2326840000,22.4220530000 114.2326510000,22.4219670000 114.2325980000,22.4218330000 114.2327570000,22.4217850000 114.2331950000,22.4216520000 114.2335180000,22.4216030000 114.2338560000,22.4215990000 114.2340730000,22.4216430000 114.2342350000,22.4216910000 114.2343390000,22.4217360000 114.2344650000,22.4218030000 114.2347150000,22.4219770000 114.2352550000,22.4224840000 114.2354870000,22.4227060000 114.2359370000,22.4231140000 114.2360280000,22.4231960000 114.2361390000,22.4232890000 114.2362350000,22.4233720000 114.2365150000,22.4236120000 114.2368230000,22.4238220000 114.2369770000,22.4238970000 114.2371660000,22.4239570000 114.2374280000,22.4239810000 114.2374280000,22.4239810000 114.2376820000,22.4239750000 114.2381110000,22.4239250000 114.2388190000,22.4237960000 114.2390950000,22.4237720000 114.2393170000,22.4237950000 114.2395380000,22.4238740000 114.2397390000,22.4240340000 114.2399110000,22.4242520000 114.2400290000,22.4245930000 114.2400540000,22.4249520000 114.2400290000,22.4252210000 114.2399800000,22.4253670000 114.2399290000,22.4255140000 114.2397870000,22.4257550000 114.2394850000,22.4261420000 114.2393550000,22.4263200000 114.2393050000,22.4263830000 114.2392510000,22.4264510000 114.2390970000,22.4266380000 114.2392190000,22.4267240000 114.2399290000,22.4272610000 114.2403960000,22.4276060000 114.2410850000,22.4281340000 114.2418100000,22.4287280000 114.2419400000,22.4288900000 114.2420550000,22.4290870000 114.2420660000,22.4291390000 114.2420870000,22.4291900000 114.2421150000,22.4292370000 114.2421510000,22.4292790000 114.2421970000,22.4293180000 114.2422490000,22.4293490000 114.2423050000,22.4293720000 114.2423650000,22.4293870000 114.2424270000,22.4293910000 114.2424890000,22.4293870000 114.2425190000,22.4293840000 114.2425610000,22.4293720000 114.2426740000,22.4293840000 114.2428220000,22.4294080000 114.2430570000,22.4294810000 114.2432210000,22.4295330000 114.2433880000,22.4295800000 114.2435220000,22.4296080000 114.2437080000,22.4296470000 114.2440480000,22.4297030000 114.2442220000,22.4297120000 114.2444170000,22.4297130000 114.2446330000,22.4296970000 114.2449420000,22.4296580000 114.2452750000,22.4295550000 114.2462600000,22.4292070000 114.2467120000,22.4290910000 114.2470740000,22.4290500000 114.2472260000,22.4290560000 114.2473930000,22.4290750000 114.2496870000,22.4296820000 114.2498170000,22.4297270000 114.2501850000,22.4298560000 114.2506460000,22.4300080000 114.2510530000,22.4301520000 114.2516700000,22.4303690000 114.2520430000,22.4305050000 114.2522270000,22.4305660000 114.2526240000,22.4306800000 114.2527460000,22.4307200000 114.2528380000,22.4308040000 114.2528760000,22.4308480000 114.2528870000,22.4308550000 114.2529250000,22.4308790000 114.2529830000,22.4308970000 114.2529980000,22.4308970000 114.2530430000,22.4308980000 114.2530910000,22.4308870000 114.2531140000,22.4308770000 114.2531350000,22.4308660000 114.2531540000,22.4308510000 114.2532670000,22.4308040000 114.2534100000,22.4307920000 114.2535080000,22.4307850000 114.2535990000,22.4307640000 114.2537910000,22.4306880000 114.2541880000,22.4306500000 114.2545540000,22.4306210000 114.2552120000,22.4305570000 114.2552500000,22.4306160000 114.2552590000,22.4306300000 114.2553300000,22.4307160000 114.2554470000,22.4309040000 114.2554850000,22.4309380000 114.2555190000,22.4309680000 114.2555790000,22.4309970000 114.2556930000,22.4310010000 114.2559150000,22.4309830000</coordinates>
                </LineString>
                <ExtendedData>
                    <Data name="duration">
                        <value>01:58:37</value>
                    </Data>
                    <Data name="length">
                        <value>64780.01009937775</value>
                    </Data>
                </ExtendedData>
            </Placemark>
        </Document>
    </Document>
</kml>