<?xml version="1.0" encoding="UTF-8"?>
<kml xmlns="http://www.opengis.net/kml/2.2" xmlns:gx="http://www.google.com/kml/ext/2.2">
    <Document>
        <name>Route</name>
        <Folder>
            <name>Route Request</name>
            <Placemark>
                <address>Kennedy Town (Belcher Bay), Shing Sai Road, Kennedy Town, Sai Wan, Central and Western District, Hong Kong, 1F, PRC</address>
                <Point>
                    <coordinates>114.1279361282,22.2844696113</coordinates>
                </Point>
                <ExtendedData>
                    <Data name="road">
                        <value>Shing Sai Road</value>
                    </Data>
                    <Data name="bus_station">
                        <value>Kennedy Town (Belcher Bay)</value>
                    </Data>
                    <Data name="suburb">
                        <value>Kennedy Town</value>
                    </Data>
                    <Data name="town">
                        <value>Sai Wan</value>
                    </Data>
                    <Data name="county">
                        <value>Central and Western District</value>
                    </Data>
                    <Data name="postcode">
                        <value>1F</value>
                    </Data>
                    <Data name="country">
                        <value>PRC</value>
                    </Data>
                    <Data name="country_code">
                        <value>cn</value>
                    </Data>
                </ExtendedData>
            </Placemark>
            <Placemark>
                <address>Hill Road, Des Voeux Road West, Shek Tong Tsui, Sai Wan, Central and Western District, Hong Kong, 1F, PRC</address>
                <Point>
                    <coordinates>114.1351626761,22.2869960227</coordinates>
                </Point>
                <ExtendedData>
                    <Data name="road">
                        <value>Des Voeux Road West</value>
                    </Data>
                    <Data name="bus_stop">
                        <value>Hill Road</value>
                    </Data>
                    <Data name="suburb">
                        <value>Shek Tong Tsui</value>
                    </Data>
                    <Data name="town">
                        <value>Sai Wan</value>
                    </Data>
                    <Data name="county">
                        <value>Central and Western District</value>
                    </Data>
                    <Data name="postcode">
                        <value>1F</value>
                    </Data>
                    <Data name="country">
                        <value>PRC</value>
                    </Data>
                    <Data name="country_code">
                        <value>cn</value>
                    </Data>
                </ExtendedData>
            </Placemark>
            <Placemark>
                <address>Block B, Des Voeux Road West, Shek Tong Tsui, Sai Wan, Central and Western District, Hong Kong, 1F, PRC</address>
                <Point>
                    <coordinates>114.1379289407,22.2872725381</coordinates>
                </Point>
                <ExtendedData>
                    <Data name="building">
                        <value>Block B</value>
                    </Data>
                    <Data name="road">
                        <value>Des Voeux Road West</value>
                    </Data>
                    <Data name="suburb">
                        <value>Shek Tong Tsui</value>
                    </Data>
                    <Data name="town">
                        <value>Sai Wan</value>
                    </Data>
                    <Data name="routingVisited">
                        <value>false</value>
                    </Data>
                    <Data name="county">
                        <value>Central and Western District</value>
                    </Data>
                    <Data name="postcode">
                        <value>1F</value>
                    </Data>
                    <Data name="country">
                        <value>PRC</value>
                    </Data>
                    <Data name="country_code">
                        <value>cn</value>
                    </Data>
                </ExtendedData>
            </Placemark>
            <Placemark>
                <address>Central–Wan Chai Bypass Tunnel, Kellett Island, Wan Chai District, Hong Kong, HYSAN PLACE 12F, PRC</address>
                <Point>
                    <coordinates>114.1891326486,22.2878216101</coordinates>
                </Point>
                <ExtendedData>
                    <Data name="road">
                        <value>Central–Wan Chai Bypass Tunnel</value>
                    </Data>
                    <Data name="suburb">
                        <value>Kellett Island</value>
                    </Data>
                    <Data name="county">
                        <value>Wan Chai District</value>
                    </Data>
                    <Data name="postcode">
                        <value>HYSAN PLACE 12F</value>
                    </Data>
                    <Data name="country">
                        <value>PRC</value>
                    </Data>
                    <Data name="country_code">
                        <value>cn</value>
                    </Data>
                </ExtendedData>
            </Placemark>
            <Placemark>
                <address>Tin Chiu Street, Fortress Hill, North Point, Eastern District, Hong Kong, KINGSFIELD MANSION LEVEL B, PRC</address>
                <Point>
                    <coordinates>114.2026595629,22.2936770556</coordinates>
                </Point>
                <ExtendedData>
                    <Data name="road">
                        <value>Tin Chiu Street</value>
                    </Data>
                    <Data name="neighbourhood">
                        <value>Fortress Hill</value>
                    </Data>
                    <Data name="suburb">
                        <value>North Point</value>
                    </Data>
                    <Data name="county">
                        <value>Eastern District</value>
                    </Data>
                    <Data name="postcode">
                        <value>KINGSFIELD MANSION LEVEL B</value>
                    </Data>
                    <Data name="country">
                        <value>PRC</value>
                    </Data>
                    <Data name="country_code">
                        <value>cn</value>
                    </Data>
                </ExtendedData>
            </Placemark>
            <Placemark>
                <address>Tin Hau, 1, King's Road, Tai Hang, Wan Chai District, Hong Kong, IL 2258, PRC</address>
                <Point>
                    <coordinates>114.1916100225,22.2826980417</coordinates>
                </Point>
                <ExtendedData>
                    <Data name="road">
                        <value>King's Road</value>
                    </Data>
                    <Data name="suburb">
                        <value>Tai Hang</value>
                    </Data>
                    <Data name="county">
                        <value>Wan Chai District</value>
                    </Data>
                    <Data name="house_number">
                        <value>1</value>
                    </Data>
                    <Data name="house">
                        <value>Tin Hau</value>
                    </Data>
                    <Data name="postcode">
                        <value>IL 2258</value>
                    </Data>
                    <Data name="country">
                        <value>PRC</value>
                    </Data>
                    <Data name="country_code">
                        <value>cn</value>
                    </Data>
                </ExtendedData>
            </Placemark>
            <Placemark>
                <address>Shun Kala Typhoon Shelter, Central–Wan Chai Bypass Tunnel, Kellett Island, Wan Chai District, Hong Kong, HYSAN PLACE 12F, PRC</address>
                <Point>
                    <coordinates>114.1863265047,22.2843212820</coordinates>
                </Point>
                <ExtendedData>
                    <Data name="road">
                        <value>Central–Wan Chai Bypass Tunnel</value>
                    </Data>
                    <Data name="suburb">
                        <value>Kellett Island</value>
                    </Data>
                    <Data name="address29">
                        <value>Shun Kala Typhoon Shelter</value>
                    </Data>
                    <Data name="county">
                        <value>Wan Chai District</value>
                    </Data>
                    <Data name="postcode">
                        <value>HYSAN PLACE 12F</value>
                    </Data>
                    <Data name="country">
                        <value>PRC</value>
                    </Data>
                    <Data name="country_code">
                        <value>cn</value>
                    </Data>
                </ExtendedData>
            </Placemark>
            <Placemark>
                <address>Watsons, Des Voeux Road West, Shek Tong Tsui, Sai Wan, Central and Western District, Hong Kong, 1F, PRC</address>
                <Point>
                    <coordinates>114.1357180408,22.2866711172</coordinates>
                </Point>
                <ExtendedData>
                    <Data name="road">
                        <value>Des Voeux Road West</value>
                    </Data>
                    <Data name="suburb">
                        <value>Shek Tong Tsui</value>
                    </Data>
                    <Data name="town">
                        <value>Sai Wan</value>
                    </Data>
                    <Data name="routingVisited">
                        <value>false</value>
                    </Data>
                    <Data name="county">
                        <value>Central and Western District</value>
                    </Data>
                    <Data name="pharmacy">
                        <value>Watsons</value>
                    </Data>
                    <Data name="postcode">
                        <value>1F</value>
                    </Data>
                    <Data name="country">
                        <value>PRC</value>
                    </Data>
                    <Data name="country_code">
                        <value>cn</value>
                    </Data>
                </ExtendedData>
            </Placemark>
            <Placemark>
                <address>Kennedy Town (Belcher Bay), Shing Sai Road, Kennedy Town, Sai Wan, Central and Western District, Hong Kong, CENTRAL, PRC</address>
                <Point>
                    <coordinates>114.1279508911,22.2844764416</coordinates>
                </Point>
                <ExtendedData>
                    <Data name="road">
                        <value>Shing Sai Road</value>
                    </Data>
                    <Data name="bus_station">
                        <value>Kennedy Town (Belcher Bay)</value>
                    </Data>
                    <Data name="suburb">
                        <value>Kennedy Town</value>
                    </Data>
                    <Data name="town">
                        <value>Sai Wan</value>
                    </Data>
                    <Data name="county">
                        <value>Central and Western District</value>
                    </Data>
                    <Data name="postcode">
                        <value>CENTRAL</value>
                    </Data>
                    <Data name="country">
                        <value>PRC</value>
                    </Data>
                    <Data name="country_code">
                        <value>cn</value>
                    </Data>
                </ExtendedData>
            </Placemark>
        </Folder>
        <Document>
            <name>19.9 km; 00:53 h (OSRM)</name>
            <Placemark>
                <name>Route</name>
                <LineString>
                    <coordinates>114.1281010000,22.2841650000 114.1281730000,22.2841900000 114.1282450000,22.2842120000 114.1284920000,22.2842720000 114.1285810000,22.2842990000 114.1286660000,22.2843290000 114.1287950000,22.2843860000 114.1288870000,22.2844330000 114.1289820000,22.2844880000 114.1290830000,22.2845550000 114.1291770000,22.2846220000 114.1294390000,22.2848550000 114.1297200000,22.2851050000 114.1305270000,22.2858220000 114.1306330000,22.2859210000 114.1307220000,22.2860070000 114.1307840000,22.2859470000 114.1308470000,22.2858830000 114.1308910000,22.2858370000 114.1313190000,22.2854150000 114.1313810000,22.2853520000 114.1314380000,22.2853000000 114.1315330000,22.2853990000 114.1316110000,22.2854880000 114.1316670000,22.2855770000 114.1318710000,22.2859360000 114.1321210000,22.2863660000 114.1322440000,22.2865890000 114.1323250000,22.2867290000 114.1323940000,22.2868440000 114.1324620000,22.2869550000 114.1325370000,22.2870630000 114.1326120000,22.2871700000 114.1326910000,22.2872350000 114.1327570000,22.2872770000 114.1328550000,22.2873220000 114.1329290000,22.2873470000 114.1330150000,22.2873640000 114.1330930000,22.2873720000 114.1331940000,22.2873750000 114.1333400000,22.2873700000 114.1336320000,22.2873130000 114.1339960000,22.2872360000 114.1341860000,22.2871940000 114.1347730000,22.2870470000 114.1350500000,22.2869780000 114.1351480000,22.2869510000 114.1351720000,22.2869440000 114.1352490000,22.2869220000 114.1353270000,22.2869050000 114.1354550000,22.2868740000 114.1357050000,22.2868150000 114.1359970000,22.2867550000 114.1360770000,22.2867370000 114.1361140000,22.2867360000 114.1361580000,22.2867440000 114.1365110000,22.2868510000 114.1365640000,22.2868660000 114.1369880000,22.2869850000 114.1374180000,22.2871050000 114.1375140000,22.2871310000 114.1376110000,22.2871570000 114.1379370000,22.2872480000 114.1382790000,22.2873430000 114.1384740000,22.2873970000 114.1387390000,22.2874670000 114.1388050000,22.2874850000 114.1387790000,22.2875600000 114.1386710000,22.2879170000 114.1386610000,22.2879490000 114.1386310000,22.2880400000 114.1385620000,22.2882530000 114.1385290000,22.2883540000 114.1385580000,22.2883790000 114.1385820000,22.2883980000 114.1386800000,22.2884790000 114.1392190000,22.2887740000 114.1393810000,22.2888670000 114.1395480000,22.2889530000 114.1397440000,22.2890360000 114.1399900000,22.2891330000 114.1402300000,22.2892200000 114.1404790000,22.2892860000 114.1406700000,22.2893240000 114.1408700000,22.2893550000 114.1411300000,22.2893880000 114.1413300000,22.2894020000 114.1415300000,22.2894080000 114.1417200000,22.2894030000 114.1419100000,22.2893900000 114.1422700000,22.2893500000 114.1431390000,22.2892070000 114.1433120000,22.2891850000 114.1438210000,22.2891320000 114.1440640000,22.2890990000 114.1441870000,22.2890640000 114.1442990000,22.2890220000 114.1444410000,22.2889750000 114.1446130000,22.2889220000 114.1448020000,22.2888810000 114.1451500000,22.2888330000 114.1455140000,22.2887910000 114.1458670000,22.2887890000 114.1459970000,22.2887830000 114.1465680000,22.2887430000 114.1468500000,22.2887060000 114.1475740000,22.2886080000 114.1486240000,22.2883850000 114.1488300000,22.2883290000 114.1499140000,22.2880400000 114.1501420000,22.2879790000 114.1504980000,22.2878820000 114.1507790000,22.2878060000 114.1510020000,22.2877460000 114.1523540000,22.2873400000 114.1526930000,22.2872720000 114.1529490000,22.2871970000 114.1532590000,22.2871120000 114.1535440000,22.2870580000 114.1537620000,22.2870270000 114.1539430000,22.2870220000 114.1542390000,22.2870290000 114.1545900000,22.2870690000 114.1547690000,22.2870860000 114.1551710000,22.2871270000 114.1553840000,22.2871480000 114.1555850000,22.2871670000 114.1558900000,22.2871870000 114.1560600000,22.2871930000 114.1561800000,22.2871900000 114.1564400000,22.2871770000 114.1566200000,22.2871560000 114.1568030000,22.2871290000 114.1569880000,22.2870970000 114.1571800000,22.2870520000 114.1574500000,22.2869730000 114.1577600000,22.2868700000 114.1582000000,22.2867000000 114.1584200000,22.2865980000 114.1586590000,22.2864510000 114.1590950000,22.2862220000 114.1631330000,22.2838940000 114.1638610000,22.2834790000 114.1645180000,22.2831880000 114.1651480000,22.2829840000 114.1656310000,22.2828690000 114.1661520000,22.2827670000 114.1666350000,22.2826760000 114.1670700000,22.2825890000 114.1688610000,22.2823690000 114.1697610000,22.2823090000 114.1707090000,22.2822780000 114.1711590000,22.2822620000 114.1718140000,22.2822540000 114.1731560000,22.2823000000 114.1740420000,22.2823610000 114.1746280000,22.2823910000 114.1749850000,22.2824210000 114.1754620000,22.2824730000 114.1809290000,22.2832320000 114.1818510000,22.2833680000 114.1822590000,22.2834450000 114.1827730000,22.2835840000 114.1832300000,22.2837190000 114.1844560000,22.2841080000 114.1848910000,22.2842950000 114.1853950000,22.2845420000 114.1858760000,22.2848500000 114.1863130000,22.2851780000 114.1866410000,22.2854140000 114.1870350000,22.2857100000 114.1874410000,22.2860740000 114.1879310000,22.2865420000 114.1885990000,22.2872120000 114.1889060000,22.2875260000 114.1891720000,22.2877890000 114.1907580000,22.2893580000 114.1915530000,22.2901590000 114.1919220000,22.2905300000 114.1924760000,22.2910880000 114.1926200000,22.2912330000 114.1934820000,22.2919690000 114.1939800000,22.2923650000 114.1943820000,22.2926650000 114.1946970000,22.2928220000 114.1950310000,22.2929330000 114.1953540000,22.2929900000 114.1955810000,22.2930280000 114.1963230000,22.2932360000 114.1967850000,22.2933720000 114.1974710000,22.2935680000 114.1976570000,22.2936070000 114.1978850000,22.2936210000 114.1980000000,22.2935900000 114.1981700000,22.2935420000 114.1982890000,22.2934570000 114.1983550000,22.2933920000 114.1984110000,22.2933390000 114.1984510000,22.2932890000 114.1984890000,22.2932040000 114.1985230000,22.2930870000 114.1985620000,22.2929500000 114.1985710000,22.2929120000 114.1986940000,22.2923740000 114.1987690000,22.2920510000 114.1987770000,22.2920150000 114.2000420000,22.2922820000 114.2008440000,22.2924500000 114.2013940000,22.2925660000 114.2023880000,22.2927630000 114.2028370000,22.2928520000 114.2028120000,22.2929760000 114.2027410000,22.2932540000 114.2027100000,22.2933730000 114.2026950000,22.2934360000 114.2026580000,22.2936770000 114.2026550000,22.2936990000 114.2026950000,22.2934360000 114.2027100000,22.2933730000 114.2027410000,22.2932540000 114.2028120000,22.2929760000 114.2028370000,22.2928520000 114.2040090000,22.2931060000 114.2041030000,22.2931160000 114.2041780000,22.2931160000 114.2042870000,22.2931030000 114.2043840000,22.2930770000 114.2044760000,22.2930580000 114.2049780000,22.2929460000 114.2050730000,22.2929390000 114.2050330000,22.2927520000 114.2049810000,22.2926340000 114.2049240000,22.2925340000 114.2048480000,22.2924350000 114.2048220000,22.2923980000 114.2046890000,22.2922390000 114.2045670000,22.2920910000 114.2045480000,22.2920490000 114.2045400000,22.2920230000 114.2045250000,22.2919710000 114.2040180000,22.2918590000 114.2031280000,22.2916610000 114.2018200000,22.2913940000 114.2016840000,22.2913660000 114.2013070000,22.2912900000 114.2004230000,22.2911100000 114.2003270000,22.2910910000 114.1998410000,22.2909940000 114.1994500000,22.2909130000 114.1990260000,22.2908250000 114.1989530000,22.2908100000 114.1989340000,22.2908060000 114.1987230000,22.2907620000 114.1982760000,22.2906680000 114.1975540000,22.2905160000 114.1967150000,22.2903390000 114.1966270000,22.2903210000 114.1957690000,22.2901410000 114.1956650000,22.2901150000 114.1955620000,22.2900900000 114.1954320000,22.2900520000 114.1952860000,22.2899810000 114.1951860000,22.2899150000 114.1951590000,22.2898970000 114.1949980000,22.2897410000 114.1947690000,22.2894870000 114.1946820000,22.2894040000 114.1944520000,22.2891560000 114.1942630000,22.2889450000 114.1935240000,22.2881370000 114.1934140000,22.2880160000 114.1933840000,22.2879830000 114.1931530000,22.2877300000 114.1930830000,22.2875960000 114.1930260000,22.2874290000 114.1930040000,22.2872760000 114.1929970000,22.2872370000 114.1930070000,22.2865300000 114.1930160000,22.2862050000 114.1930230000,22.2859620000 114.1930260000,22.2858050000 114.1930240000,22.2856890000 114.1930230000,22.2854830000 114.1930130000,22.2853430000 114.1930090000,22.2853030000 114.1929220000,22.2847760000 114.1928440000,22.2843610000 114.1928130000,22.2841850000 114.1926600000,22.2834280000 114.1926070000,22.2832730000 114.1925310000,22.2830860000 114.1924420000,22.2829150000 114.1923760000,22.2827880000 114.1922540000,22.2825610000 114.1921030000,22.2823000000 114.1920340000,22.2822190000 114.1920050000,22.2821920000 114.1919310000,22.2821380000 114.1913990000,22.2818080000 114.1913810000,22.2818180000 114.1913630000,22.2818380000 114.1913090000,22.2819050000 114.1912600000,22.2819980000 114.1912580000,22.2820770000 114.1912380000,22.2825130000 114.1912340000,22.2826040000 114.1912320000,22.2826720000 114.1914320000,22.2826760000 114.1916100000,22.2826780000 114.1917480000,22.2826800000 114.1917520000,22.2827430000 114.1917620000,22.2828070000 114.1918040000,22.2828500000 114.1921960000,22.2828190000 114.1922210000,22.2828650000 114.1922600000,22.2829390000 114.1922720000,22.2829640000 114.1923360000,22.2830930000 114.1923120000,22.2836550000 114.1922910000,22.2842300000 114.1920940000,22.2842160000 114.1920160000,22.2841960000 114.1917180000,22.2841650000 114.1917510000,22.2836380000 114.1917660000,22.2832960000 114.1916990000,22.2831620000 114.1916370000,22.2830730000 114.1913720000,22.2829980000 114.1913040000,22.2829950000 114.1912180000,22.2829940000 114.1911980000,22.2833720000 114.1911780000,22.2837530000 114.1911770000,22.2838100000 114.1911730000,22.2839760000 114.1911250000,22.2842380000 114.1910570000,22.2843810000 114.1909940000,22.2844700000 114.1909040000,22.2845380000 114.1907930000,22.2845700000 114.1904700000,22.2845950000 114.1897530000,22.2846120000 114.1896720000,22.2846060000 114.1892600000,22.2844250000 114.1889000000,22.2842550000 114.1885250000,22.2840440000 114.1883700000,22.2839700000 114.1882170000,22.2839140000 114.1880750000,22.2838710000 114.1879060000,22.2838370000 114.1877800000,22.2838230000 114.1876280000,22.2838270000 114.1874880000,22.2838380000 114.1873100000,22.2838650000 114.1872130000,22.2838890000 114.1871180000,22.2839230000 114.1869400000,22.2840030000 114.1864700000,22.2842200000 114.1863090000,22.2842820000 114.1861970000,22.2843250000 114.1859150000,22.2844060000 114.1856400000,22.2844290000 114.1853700000,22.2843780000 114.1849020000,22.2841790000 114.1844740000,22.2839880000 114.1830850000,22.2835320000 114.1826610000,22.2834080000 114.1822940000,22.2833230000 114.1818400000,22.2832270000 114.1810050000,22.2830450000 114.1754920000,22.2822970000 114.1750470000,22.2822520000 114.1746750000,22.2822160000 114.1739920000,22.2821710000 114.1717570000,22.2820450000 114.1710490000,22.2820520000 114.1704110000,22.2820780000 114.1698550000,22.2820910000 114.1683260000,22.2822470000 114.1672870000,22.2824010000 114.1666020000,22.2824840000 114.1661110000,22.2825700000 114.1655830000,22.2826840000 114.1650570000,22.2828180000 114.1644620000,22.2830230000 114.1638030000,22.2833210000 114.1630460000,22.2837350000 114.1602300000,22.2853890000 114.1601940000,22.2854090000 114.1600750000,22.2854820000 114.1590350000,22.2860910000 114.1585600000,22.2863200000 114.1581200000,22.2865700000 114.1577110000,22.2867570000 114.1574130000,22.2868680000 114.1571610000,22.2869520000 114.1567900000,22.2870380000 114.1564330000,22.2870900000 114.1561800000,22.2871040000 114.1558400000,22.2870920000 114.1553100000,22.2870400000 114.1546200000,22.2869530000 114.1542500000,22.2869200000 114.1537860000,22.2869110000 114.1536660000,22.2869140000 114.1535400000,22.2869180000 114.1533310000,22.2869370000 114.1531920000,22.2869840000 114.1510010000,22.2876360000 114.1507380000,22.2877100000 114.1504730000,22.2877840000 114.1501090000,22.2878870000 114.1498740000,22.2879470000 114.1485800000,22.2882650000 114.1479400000,22.2883200000 114.1464590000,22.2884390000 114.1461700000,22.2884570000 114.1450270000,22.2885930000 114.1442620000,22.2886210000 114.1438520000,22.2886000000 114.1438180000,22.2885980000 114.1426320000,22.2886310000 114.1417960000,22.2886450000 114.1410590000,22.2886560000 114.1408960000,22.2886580000 114.1408610000,22.2880390000 114.1408600000,22.2880110000 114.1408590000,22.2879880000 114.1408580000,22.2879640000 114.1408560000,22.2879360000 114.1407870000,22.2879290000 114.1403010000,22.2877970000 114.1394410000,22.2875640000 114.1388310000,22.2874000000 114.1387760000,22.2873850000 114.1385040000,22.2873090000 114.1376370000,22.2870760000 114.1375640000,22.2870560000 114.1375370000,22.2870480000 114.1374510000,22.2870250000 114.1370100000,22.2869070000 114.1365890000,22.2867940000 114.1365330000,22.2867810000 114.1361680000,22.2866860000 114.1361170000,22.2866790000 114.1360640000,22.2866830000 114.1359830000,22.2867000000 114.1357370000,22.2867500000 114.1357240000,22.2867530000 114.1356140000,22.2867770000 114.1354460000,22.2868140000 114.1353320000,22.2868380000 114.1341000000,22.2871100000 114.1333310000,22.2873020000 114.1331980000,22.2873140000 114.1331010000,22.2873090000 114.1330370000,22.2872990000 114.1329650000,22.2872800000 114.1328960000,22.2872540000 114.1328100000,22.2872120000 114.1327520000,22.2871790000 114.1326820000,22.2871270000 114.1326090000,22.2870430000 114.1325470000,22.2869340000 114.1324280000,22.2867010000 114.1319920000,22.2858790000 114.1320820000,22.2858390000 114.1324220000,22.2856880000 114.1324860000,22.2856570000 114.1322580000,22.2851140000 114.1321200000,22.2849070000 114.1320310000,22.2848010000 114.1319760000,22.2847460000 114.1314610000,22.2843270000 114.1312440000,22.2841480000 114.1311790000,22.2840990000 114.1308910000,22.2838650000 114.1302350000,22.2833310000 114.1301260000,22.2832420000 114.1300100000,22.2831550000 114.1297400000,22.2829520000 114.1295960000,22.2828700000 114.1294460000,22.2828230000 114.1292150000,22.2827640000 114.1290990000,22.2827440000 114.1290100000,22.2827280000 114.1283010000,22.2826040000 114.1282140000,22.2825900000 114.1281260000,22.2825760000 114.1280280000,22.2825600000 114.1272510000,22.2824370000 114.1270210000,22.2824000000 114.1269070000,22.2823810000 114.1268900000,22.2823790000 114.1266380000,22.2823420000 114.1262940000,22.2822910000 114.1261840000,22.2822740000 114.1261450000,22.2823350000 114.1261110000,22.2823770000 114.1260820000,22.2824140000 114.1260390000,22.2824880000 114.1259600000,22.2829120000 114.1259530000,22.2829520000 114.1258450000,22.2835250000 114.1258460000,22.2835560000 114.1258580000,22.2835830000 114.1258800000,22.2836100000 114.1259130000,22.2836300000 114.1259580000,22.2836480000 114.1260080000,22.2836570000 114.1265800000,22.2837540000 114.1275610000,22.2839190000 114.1277100000,22.2839480000 114.1278290000,22.2839850000 114.1279470000,22.2840750000 114.1280380000,22.2841370000 114.1281010000,22.2841650000 114.1281010000,22.2841650000</coordinates>
                </LineString>
                <ExtendedData>
                    <Data name="duration">
                        <value>00:53:34</value>
                    </Data>
                    <Data name="length">
                        <value>19929.242476220865</value>
                    </Data>
                </ExtendedData>
            </Placemark>
        </Document>
    </Document>
</kml>