<?xml version="1.0" encoding="UTF-8"?>
<kml xmlns="http://www.opengis.net/kml/2.2" xmlns:gx="http://www.google.com/kml/ext/2.2">
    <Document>
        <name>Route</name>
        <Folder>
            <name>Route Request</name>
            <Placemark>
                <Point>
                    <coordinates>114.1391836942,22.2574827279</coordinates>
                </Point>
            </Placemark>
            <Placemark>
                <Point>
                    <coordinates>114.1480453584,22.2898607284</coordinates>
                </Point>
                <ExtendedData>
                    <Data name="routingVisited">
                        <value>false</value>
                    </Data>
                </ExtendedData>
            </Placemark>
            <Placemark>
                <Point>
                    <coordinates>114.1552107253,22.2867858650</coordinates>
                </Point>
            </Placemark>
            <Placemark>
                <Point>
                    <coordinates>114.1591117637,22.2827676545</coordinates>
                </Point>
            </Placemark>
            <Placemark>
                <Point>
                    <coordinates>114.1648549350,22.2802885110</coordinates>
                </Point>
            </Placemark>
            <Placemark>
                <Point>
                    <coordinates>114.1739471210,22.2462052866</coordinates>
                </Point>
                <ExtendedData>
                    <Data name="routingVisited">
                        <value>false</value>
                    </Data>
                </ExtendedData>
            </Placemark>
            <Placemark>
                <Point>
                    <coordinates>114.1654696043,22.2481033891</coordinates>
                </Point>
            </Placemark>
            <Placemark>
                <Point>
                    <coordinates>114.1355024155,22.2532492619</coordinates>
                </Point>
                <ExtendedData>
                    <Data name="routingVisited">
                        <value>false</value>
                    </Data>
                </ExtendedData>
            </Placemark>
            <Placemark>
                <Point>
                    <coordinates>114.1392364106,22.2574856224</coordinates>
                </Point>
                <ExtendedData>
                    <Data name="routingVisited">
                        <value>false</value>
                    </Data>
                </ExtendedData>
            </Placemark>
        </Folder>
        <Document>
            <name>21.2 km; 00:52 h (OSRM)</name>
            <Placemark>
                <name>Route</name>
                <LineString>
                    <coordinates>114.1394050000,22.2576300000 114.1393220000,22.2577370000 114.1390780000,22.2580290000 114.1388250000,22.2583430000 114.1385600000,22.2586720000 114.1384330000,22.2588660000 114.1383150000,22.2589570000 114.1379480000,22.2590320000 114.1372530000,22.2591740000 114.1370430000,22.2592470000 114.1369200000,22.2593300000 114.1368670000,22.2593790000 114.1368010000,22.2594370000 114.1367150000,22.2594870000 114.1366440000,22.2595110000 114.1365310000,22.2595270000 114.1364830000,22.2595310000 114.1364010000,22.2595380000 114.1363300000,22.2595470000 114.1362630000,22.2595780000 114.1362020000,22.2596190000 114.1361490000,22.2596730000 114.1361110000,22.2597600000 114.1361070000,22.2598180000 114.1361170000,22.2598860000 114.1361550000,22.2599390000 114.1362540000,22.2600310000 114.1363320000,22.2600860000 114.1364190000,22.2601390000 114.1363160000,22.2603820000 114.1361920000,22.2606750000 114.1361420000,22.2608620000 114.1361000000,22.2610630000 114.1360650000,22.2616210000 114.1358560000,22.2619970000 114.1356240000,22.2623430000 114.1355430000,22.2624590000 114.1354390000,22.2625480000 114.1353370000,22.2626260000 114.1351430000,22.2627350000 114.1348260000,22.2629520000 114.1346990000,22.2630730000 114.1342890000,22.2635430000 114.1340160000,22.2638640000 114.1339000000,22.2640070000 114.1335300000,22.2644180000 114.1334280000,22.2645570000 114.1333500000,22.2646830000 114.1333080000,22.2648240000 114.1332610000,22.2657940000 114.1330980000,22.2661930000 114.1328710000,22.2664500000 114.1327700000,22.2665510000 114.1323870000,22.2668890000 114.1322790000,22.2669850000 114.1319910000,22.2673090000 114.1318370000,22.2675790000 114.1317420000,22.2677380000 114.1316860000,22.2678120000 114.1315150000,22.2680410000 114.1311100000,22.2685260000 114.1308200000,22.2689380000 114.1307780000,22.2689980000 114.1305080000,22.2694620000 114.1302630000,22.2698500000 114.1301420000,22.2700850000 114.1300720000,22.2703490000 114.1300550000,22.2706010000 114.1300880000,22.2708020000 114.1301410000,22.2709420000 114.1302030000,22.2711000000 114.1304310000,22.2714870000 114.1306670000,22.2719450000 114.1307000000,22.2720910000 114.1307060000,22.2722310000 114.1306880000,22.2723890000 114.1306260000,22.2726030000 114.1301360000,22.2735290000 114.1299890000,22.2738970000 114.1299660000,22.2742240000 114.1299620000,22.2743800000 114.1299160000,22.2747970000 114.1297110000,22.2753890000 114.1296660000,22.2756560000 114.1296670000,22.2758460000 114.1297070000,22.2760300000 114.1297750000,22.2762700000 114.1298700000,22.2764800000 114.1300530000,22.2767940000 114.1302590000,22.2770640000 114.1304970000,22.2773780000 114.1305630000,22.2774570000 114.1306420000,22.2775700000 114.1307710000,22.2776450000 114.1309020000,22.2778280000 114.1309920000,22.2780220000 114.1310580000,22.2782230000 114.1310880000,22.2784100000 114.1310740000,22.2788970000 114.1310760000,22.2789190000 114.1311430000,22.2792560000 114.1312230000,22.2795450000 114.1313620000,22.2800440000 114.1314680000,22.2804240000 114.1315100000,22.2805740000 114.1315460000,22.2807030000 114.1316360000,22.2809600000 114.1317060000,22.2810950000 114.1318680000,22.2813290000 114.1320360000,22.2815680000 114.1321680000,22.2817730000 114.1323100000,22.2820320000 114.1323410000,22.2821200000 114.1323920000,22.2822580000 114.1324310000,22.2823830000 114.1325010000,22.2826090000 114.1326300000,22.2830040000 114.1327260000,22.2831900000 114.1328430000,22.2833370000 114.1335180000,22.2840090000 114.1336880000,22.2841780000 114.1337100000,22.2841980000 114.1337530000,22.2842300000 114.1338260000,22.2842690000 114.1339160000,22.2843030000 114.1339870000,22.2843230000 114.1340620000,22.2843410000 114.1341590000,22.2843560000 114.1342550000,22.2843630000 114.1343640000,22.2843650000 114.1344700000,22.2843640000 114.1345760000,22.2843490000 114.1346680000,22.2843290000 114.1347660000,22.2843050000 114.1348840000,22.2842660000 114.1350400000,22.2842040000 114.1352070000,22.2841170000 114.1354320000,22.2839230000 114.1354840000,22.2838770000 114.1355590000,22.2838880000 114.1356520000,22.2839060000 114.1356990000,22.2839180000 114.1357300000,22.2839320000 114.1357580000,22.2839520000 114.1357890000,22.2839810000 114.1358130000,22.2840090000 114.1358310000,22.2840390000 114.1358430000,22.2840710000 114.1358510000,22.2841020000 114.1358580000,22.2841360000 114.1358630000,22.2841740000 114.1358690000,22.2842350000 114.1358700000,22.2842650000 114.1358990000,22.2849600000 114.1359010000,22.2850270000 114.1358990000,22.2850910000 114.1358920000,22.2851490000 114.1358820000,22.2851940000 114.1358640000,22.2852340000 114.1358350000,22.2852780000 114.1358010000,22.2853160000 114.1357580000,22.2853540000 114.1357150000,22.2853820000 114.1356600000,22.2854110000 114.1356030000,22.2854350000 114.1354200000,22.2855000000 114.1353710000,22.2855220000 114.1353290000,22.2855440000 114.1352860000,22.2855710000 114.1352520000,22.2855970000 114.1352190000,22.2856290000 114.1351910000,22.2856630000 114.1351670000,22.2857020000 114.1351490000,22.2857420000 114.1351370000,22.2857900000 114.1351320000,22.2858280000 114.1351330000,22.2858600000 114.1351380000,22.2858900000 114.1352820000,22.2864290000 114.1352960000,22.2864900000 114.1353080000,22.2865510000 114.1354200000,22.2872300000 114.1354400000,22.2873200000 114.1354700000,22.2874300000 114.1355040000,22.2875280000 114.1355350000,22.2875950000 114.1355700000,22.2876500000 114.1356120000,22.2876970000 114.1356830000,22.2877540000 114.1357500000,22.2877920000 114.1358280000,22.2878220000 114.1359000000,22.2878400000 114.1361100000,22.2878800000 114.1368800000,22.2879500000 114.1372540000,22.2879420000 114.1377190000,22.2879630000 114.1381100000,22.2881040000 114.1382660000,22.2881790000 114.1383580000,22.2882300000 114.1384500000,22.2882880000 114.1385290000,22.2883540000 114.1385580000,22.2883790000 114.1386800000,22.2884790000 114.1392190000,22.2887740000 114.1393810000,22.2888670000 114.1395480000,22.2889530000 114.1397440000,22.2890360000 114.1399900000,22.2891330000 114.1402300000,22.2892200000 114.1404790000,22.2892860000 114.1406700000,22.2893240000 114.1408700000,22.2893550000 114.1411300000,22.2893880000 114.1413300000,22.2894020000 114.1415300000,22.2894080000 114.1417200000,22.2894030000 114.1419100000,22.2893900000 114.1422700000,22.2893500000 114.1431390000,22.2892070000 114.1433120000,22.2891850000 114.1438210000,22.2891320000 114.1440640000,22.2890990000 114.1441870000,22.2890640000 114.1442990000,22.2890220000 114.1444410000,22.2889750000 114.1446130000,22.2889220000 114.1448020000,22.2888810000 114.1451500000,22.2888330000 114.1455140000,22.2887910000 114.1458670000,22.2887890000 114.1459970000,22.2887830000 114.1468660000,22.2888250000 114.1469200000,22.2888300000 114.1470800000,22.2888400000 114.1471500000,22.2888600000 114.1472200000,22.2889000000 114.1472700000,22.2889500000 114.1473100000,22.2890000000 114.1473600000,22.2891000000 114.1475900000,22.2898800000 114.1476800000,22.2899000000 114.1480330000,22.2898170000 114.1483330000,22.2897460000 114.1483810000,22.2897300000 114.1484300000,22.2896900000 114.1484500000,22.2896500000 114.1484500000,22.2895900000 114.1483430000,22.2892000000 114.1481900000,22.2886900000 114.1481230000,22.2884670000 114.1494660000,22.2881150000 114.1500720000,22.2879630000 114.1502400000,22.2879200000 114.1505910000,22.2878290000 114.1512740000,22.2876330000 114.1516730000,22.2875220000 114.1519760000,22.2874370000 114.1523630000,22.2873270000 114.1532200000,22.2870900000 114.1534500000,22.2870450000 114.1536500000,22.2870210000 114.1536980000,22.2870310000 114.1540240000,22.2870700000 114.1541740000,22.2870920000 114.1544190000,22.2871190000 114.1546050000,22.2870410000 114.1546570000,22.2870180000 114.1547130000,22.2869990000 114.1547910000,22.2869730000 114.1551010000,22.2868170000 114.1552000000,22.2867670000 114.1554570000,22.2866380000 114.1556400000,22.2865440000 114.1557890000,22.2864600000 114.1558800000,22.2864190000 114.1559590000,22.2862930000 114.1560390000,22.2861660000 114.1562320000,22.2857620000 114.1563870000,22.2853920000 114.1564650000,22.2851570000 114.1565090000,22.2850730000 114.1565460000,22.2849800000 114.1566530000,22.2847890000 114.1568680000,22.2845270000 114.1569320000,22.2844470000 114.1572590000,22.2839930000 114.1573730000,22.2838690000 114.1576480000,22.2836510000 114.1578960000,22.2834650000 114.1582350000,22.2831800000 114.1585180000,22.2829540000 114.1586470000,22.2828860000 114.1588460000,22.2827870000 114.1589640000,22.2827280000 114.1590470000,22.2826890000 114.1590650000,22.2826810000 114.1591690000,22.2826330000 114.1593320000,22.2825600000 114.1595440000,22.2824640000 114.1597760000,22.2823610000 114.1598010000,22.2823510000 114.1598840000,22.2823180000 114.1601130000,22.2822270000 114.1605680000,22.2820660000 114.1609710000,22.2819220000 114.1610540000,22.2819010000 114.1615250000,22.2817850000 114.1616970000,22.2817420000 114.1621480000,22.2816190000 114.1622540000,22.2815890000 114.1624980000,22.2815190000 114.1628280000,22.2814340000 114.1631780000,22.2812880000 114.1634360000,22.2811530000 114.1637110000,22.2809990000 114.1639610000,22.2808600000 114.1641170000,22.2807650000 114.1643450000,22.2805520000 114.1645930000,22.2803650000 114.1647970000,22.2802190000 114.1650430000,22.2800440000 114.1653010000,22.2798510000 114.1654940000,22.2797710000 114.1656930000,22.2796690000 114.1658140000,22.2796390000 114.1660270000,22.2796120000 114.1664610000,22.2795810000 114.1669190000,22.2796220000 114.1672300000,22.2796690000 114.1674970000,22.2797090000 114.1677130000,22.2797360000 114.1678580000,22.2797440000 114.1680280000,22.2797520000 114.1682800000,22.2797520000 114.1684340000,22.2797360000 114.1687110000,22.2797020000 114.1688830000,22.2796730000 114.1691640000,22.2796260000 114.1698190000,22.2795450000 114.1707800000,22.2794600000 114.1712450000,22.2793910000 114.1716500000,22.2793300000 114.1718200000,22.2793200000 114.1720500000,22.2793150000 114.1722800000,22.2793200000 114.1727000000,22.2793500000 114.1728090000,22.2793610000 114.1729700000,22.2793770000 114.1730000000,22.2793800000 114.1733400000,22.2794140000 114.1737200000,22.2794400000 114.1748700000,22.2795500000 114.1753380000,22.2796050000 114.1762550000,22.2797130000 114.1765030000,22.2797510000 114.1769900000,22.2798800000 114.1773850000,22.2800130000 114.1777610000,22.2801360000 114.1782220000,22.2803010000 114.1787020000,22.2804780000 114.1788900000,22.2805600000 114.1790940000,22.2806580000 114.1793030000,22.2807980000 114.1795290000,22.2809410000 114.1797500000,22.2810520000 114.1798300000,22.2810800000 114.1799900000,22.2811240000 114.1800700000,22.2811410000 114.1803600000,22.2811820000 114.1804400000,22.2811970000 114.1805000000,22.2812120000 114.1805490000,22.2812290000 114.1805900000,22.2812460000 114.1806300000,22.2812670000 114.1806600000,22.2812870000 114.1806910000,22.2813140000 114.1807210000,22.2813480000 114.1807420000,22.2813790000 114.1807600000,22.2814200000 114.1807690000,22.2814590000 114.1807740000,22.2815100000 114.1807710000,22.2815600000 114.1807590000,22.2816100000 114.1807390000,22.2816510000 114.1807100000,22.2816900000 114.1806900000,22.2817100000 114.1806600000,22.2817300000 114.1806000000,22.2817630000 114.1805300000,22.2817900000 114.1804670000,22.2818050000 114.1803950000,22.2818090000 114.1803440000,22.2817930000 114.1802970000,22.2817710000 114.1802630000,22.2817490000 114.1802180000,22.2817110000 114.1801790000,22.2816700000 114.1801590000,22.2816420000 114.1801420000,22.2816090000 114.1801310000,22.2815800000 114.1801240000,22.2815490000 114.1801190000,22.2815010000 114.1801180000,22.2814550000 114.1801220000,22.2814110000 114.1801290000,22.2813700000 114.1801400000,22.2813330000 114.1801570000,22.2812950000 114.1801800000,22.2812600000 114.1802180000,22.2812160000 114.1802490000,22.2811870000 114.1802830000,22.2811590000 114.1805500000,22.2809600000 114.1806400000,22.2808600000 114.1807100000,22.2807400000 114.1807700000,22.2806010000 114.1808380000,22.2804550000 114.1809020000,22.2803030000 114.1812740000,22.2794530000 114.1813200000,22.2793220000 114.1813320000,22.2792640000 114.1813460000,22.2791470000 114.1813540000,22.2790250000 114.1813500000,22.2789040000 114.1812980000,22.2776000000 114.1812850000,22.2774690000 114.1812760000,22.2773120000 114.1812560000,22.2771210000 114.1812270000,22.2768810000 114.1811910000,22.2767280000 114.1811320000,22.2765590000 114.1810640000,22.2763900000 114.1809810000,22.2762270000 114.1808630000,22.2760560000 114.1807340000,22.2759040000 114.1799720000,22.2751000000 114.1798330000,22.2749440000 114.1797550000,22.2748320000 114.1796680000,22.2746790000 114.1795830000,22.2744950000 114.1795420000,22.2743720000 114.1795170000,22.2742550000 114.1795090000,22.2741490000 114.1795110000,22.2739570000 114.1795180000,22.2737920000 114.1795290000,22.2737190000 114.1795710000,22.2735560000 114.1800600000,22.2722210000 114.1804550000,22.2712140000 114.1804930000,22.2710900000 114.1805370000,22.2709580000 114.1806350000,22.2706000000 114.1806900000,22.2703850000 114.1807300000,22.2702000000 114.1807580000,22.2700400000 114.1807820000,22.2698400000 114.1808020000,22.2696300000 114.1808090000,22.2694500000 114.1808070000,22.2692500000 114.1802400000,22.2556900000 114.1802180000,22.2553100000 114.1801900000,22.2550600000 114.1801600000,22.2548700000 114.1801200000,22.2546600000 114.1800880000,22.2545100000 114.1800480000,22.2543700000 114.1800200000,22.2542800000 114.1799800000,22.2541600000 114.1799400000,22.2540500000 114.1798900000,22.2539300000 114.1798420000,22.2538200000 114.1797820000,22.2536900000 114.1796790000,22.2534830000 114.1796200000,22.2533780000 114.1794750000,22.2531400000 114.1792360000,22.2528030000 114.1790090000,22.2524780000 114.1789020000,22.2523260000 114.1785050000,22.2517580000 114.1782820000,22.2514390000 114.1782400000,22.2513780000 114.1782100000,22.2513370000 114.1778290000,22.2507910000 114.1775180000,22.2504830000 114.1771150000,22.2502100000 114.1770440000,22.2501600000 114.1767120000,22.2500290000 114.1762560000,22.2498880000 114.1761060000,22.2498640000 114.1758030000,22.2498350000 114.1755620000,22.2498150000 114.1752860000,22.2498140000 114.1750010000,22.2498240000 114.1745950000,22.2498470000 114.1741340000,22.2499170000 114.1728140000,22.2501980000 114.1718820000,22.2503840000 114.1717090000,22.2504090000 114.1714180000,22.2503240000 114.1713260000,22.2502810000 114.1712240000,22.2501880000 114.1711760000,22.2500660000 114.1711800000,22.2498160000 114.1711710000,22.2497040000 114.1711720000,22.2494800000 114.1711600000,22.2492990000 114.1711240000,22.2492340000 114.1711110000,22.2490010000 114.1711280000,22.2488990000 114.1711490000,22.2488230000 114.1711990000,22.2487100000 114.1712360000,22.2486250000 114.1712560000,22.2485980000 114.1712670000,22.2485660000 114.1712680000,22.2485330000 114.1713680000,22.2485100000 114.1714840000,22.2484890000 114.1716470000,22.2484700000 114.1721410000,22.2484320000 114.1724980000,22.2483940000 114.1728120000,22.2483330000 114.1735320000,22.2481570000 114.1736800000,22.2481820000 114.1736970000,22.2481970000 114.1737180000,22.2482070000 114.1737410000,22.2482120000 114.1737710000,22.2482100000 114.1737990000,22.2481980000 114.1738200000,22.2481790000 114.1738340000,22.2481550000 114.1738380000,22.2481280000 114.1738320000,22.2481010000 114.1738180000,22.2480770000 114.1737950000,22.2480590000 114.1738080000,22.2480310000 114.1738210000,22.2480090000 114.1738520000,22.2479530000 114.1738920000,22.2478580000 114.1738870000,22.2477510000 114.1738800000,22.2475640000 114.1738820000,22.2474230000 114.1738850000,22.2472370000 114.1738860000,22.2471650000 114.1738870000,22.2470560000 114.1738900000,22.2468740000 114.1738930000,22.2467480000 114.1738930000,22.2467000000 114.1739030000,22.2465840000 114.1739090000,22.2465120000 114.1739130000,22.2464550000 114.1739130000,22.2464180000 114.1739400000,22.2463620000 114.1739180000,22.2463800000 114.1738910000,22.2463890000 114.1738650000,22.2463890000 114.1738380000,22.2463810000 114.1738150000,22.2463650000 114.1738020000,22.2463460000 114.1737940000,22.2463210000 114.1737970000,22.2462950000 114.1738100000,22.2462680000 114.1738310000,22.2462500000 114.1738580000,22.2462400000 114.1738810000,22.2462380000 114.1739090000,22.2462440000 114.1739330000,22.2462590000 114.1739140000,22.2462180000 114.1739140000,22.2462180000 114.1738770000,22.2461790000 114.1738480000,22.2461510000 114.1738420000,22.2462050000 114.1738310000,22.2462500000 114.1738100000,22.2462680000 114.1737970000,22.2462950000 114.1737940000,22.2463210000 114.1738020000,22.2463460000 114.1738150000,22.2463650000 114.1738250000,22.2464300000 114.1738170000,22.2465270000 114.1738130000,22.2467130000 114.1737880000,22.2479400000 114.1737690000,22.2480490000 114.1737400000,22.2480480000 114.1737130000,22.2480540000 114.1736890000,22.2480690000 114.1736710000,22.2480890000 114.1735320000,22.2481570000 114.1728120000,22.2483330000 114.1724980000,22.2483940000 114.1721410000,22.2484320000 114.1716470000,22.2484700000 114.1714840000,22.2484890000 114.1713680000,22.2485100000 114.1712680000,22.2485330000 114.1712570000,22.2484960000 114.1712330000,22.2484650000 114.1712000000,22.2484420000 114.1711600000,22.2484300000 114.1711190000,22.2484310000 114.1710840000,22.2484420000 114.1710540000,22.2484620000 114.1710320000,22.2484890000 114.1710190000,22.2485210000 114.1710160000,22.2485550000 114.1710240000,22.2485880000 114.1710430000,22.2486180000 114.1710690000,22.2486410000 114.1710660000,22.2487110000 114.1710340000,22.2488160000 114.1710150000,22.2488930000 114.1710100000,22.2489850000 114.1710200000,22.2492110000 114.1709770000,22.2493200000 114.1709720000,22.2494740000 114.1709910000,22.2500550000 114.1709820000,22.2501150000 114.1709610000,22.2501640000 114.1709200000,22.2502230000 114.1708650000,22.2502750000 114.1707960000,22.2503130000 114.1707230000,22.2503300000 114.1705110000,22.2503580000 114.1703590000,22.2503250000 114.1702070000,22.2502840000 114.1700690000,22.2502400000 114.1699110000,22.2501870000 114.1697010000,22.2501050000 114.1690860000,22.2497800000 114.1676350000,22.2490650000 114.1674400000,22.2489680000 114.1664920000,22.2484900000 114.1662480000,22.2483800000 114.1661290000,22.2483410000 114.1659610000,22.2482940000 114.1657050000,22.2482320000 114.1654980000,22.2481830000 114.1654590000,22.2481780000 114.1653410000,22.2481640000 114.1652360000,22.2481630000 114.1650110000,22.2481610000 114.1648690000,22.2481690000 114.1643730000,22.2482520000 114.1638050000,22.2483320000 114.1629250000,22.2484600000 114.1621560000,22.2485630000 114.1619990000,22.2485680000 114.1619120000,22.2485720000 114.1616860000,22.2485500000 114.1616700000,22.2485480000 114.1614880000,22.2485060000 114.1612790000,22.2484260000 114.1606730000,22.2481590000 114.1599590000,22.2478500000 114.1595500000,22.2477080000 114.1595210000,22.2476980000 114.1591600000,22.2475730000 114.1586620000,22.2474000000 114.1582370000,22.2472400000 114.1573450000,22.2469330000 114.1569170000,22.2468590000 114.1566960000,22.2468610000 114.1565530000,22.2468810000 114.1564380000,22.2469000000 114.1562220000,22.2469640000 114.1559470000,22.2470450000 114.1559100000,22.2470560000 114.1556580000,22.2471300000 114.1552920000,22.2472380000 114.1544870000,22.2474770000 114.1538060000,22.2476890000 114.1536280000,22.2477440000 114.1534900000,22.2477860000 114.1532020000,22.2478780000 114.1530860000,22.2479060000 114.1526020000,22.2479980000 114.1524230000,22.2480350000 114.1514710000,22.2481930000 114.1512320000,22.2482430000 114.1502850000,22.2484460000 114.1501730000,22.2484690000 114.1500380000,22.2484870000 114.1499360000,22.2484920000 114.1498240000,22.2484910000 114.1493910000,22.2484690000 114.1492530000,22.2484660000 114.1491510000,22.2484680000 114.1489890000,22.2484800000 114.1488270000,22.2485030000 114.1485200000,22.2485680000 114.1473960000,22.2488110000 114.1472460000,22.2488450000 114.1460500000,22.2491150000 114.1457320000,22.2491810000 114.1453880000,22.2492450000 114.1451560000,22.2492470000 114.1449750000,22.2492390000 114.1448090000,22.2492250000 114.1442880000,22.2491580000 114.1436800000,22.2490800000 114.1434190000,22.2490690000 114.1432790000,22.2490720000 114.1431620000,22.2490830000 114.1429500000,22.2491300000 114.1423490000,22.2493480000 114.1421500000,22.2494300000 114.1419400000,22.2495400000 114.1417900000,22.2496500000 114.1416490000,22.2497870000 114.1415500000,22.2499040000 114.1414730000,22.2500130000 114.1413970000,22.2501580000 114.1413400000,22.2502900000 114.1412800000,22.2504700000 114.1411220000,22.2510960000 114.1409450000,22.2517180000 114.1409010000,22.2518280000 114.1408410000,22.2519610000 114.1406040000,22.2522150000 114.1405270000,22.2522870000 114.1404470000,22.2523370000 114.1403790000,22.2523610000 114.1403130000,22.2523620000 114.1402370000,22.2523340000 114.1400190000,22.2521550000 114.1399130000,22.2520650000 114.1398490000,22.2520320000 114.1397730000,22.2520180000 114.1395300000,22.2518730000 114.1393790000,22.2518220000 114.1392110000,22.2517840000 114.1389780000,22.2517740000 114.1382400000,22.2517690000 114.1381290000,22.2517490000 114.1380140000,22.2516950000 114.1378570000,22.2515550000 114.1373920000,22.2510680000 114.1372850000,22.2509770000 114.1371690000,22.2509220000 114.1370450000,22.2509060000 114.1369270000,22.2509130000 114.1368150000,22.2509350000 114.1367190000,22.2509650000 114.1366420000,22.2510080000 114.1365320000,22.2510850000 114.1364610000,22.2512250000 114.1363830000,22.2513730000 114.1362220000,22.2517360000 114.1359880000,22.2521710000 114.1359540000,22.2522710000 114.1359470000,22.2524040000 114.1359590000,22.2527870000 114.1359630000,22.2530200000 114.1359610000,22.2531020000 114.1359470000,22.2531610000 114.1358670000,22.2533030000 114.1357640000,22.2534310000 114.1357350000,22.2534660000 114.1356780000,22.2535520000 114.1356380000,22.2535670000 114.1356040000,22.2535950000 114.1355820000,22.2536320000 114.1355760000,22.2536540000 114.1355840000,22.2537150000 114.1356080000,22.2537510000 114.1356280000,22.2537690000 114.1358440000,22.2540780000 114.1359030000,22.2541450000 114.1359680000,22.2541930000 114.1360370000,22.2542120000 114.1361120000,22.2542200000 114.1362000000,22.2542250000 114.1365910000,22.2546680000 114.1368630000,22.2544780000 114.1370040000,22.2543800000 114.1371840000,22.2542710000 114.1373710000,22.2541600000 114.1375020000,22.2540810000 114.1377300000,22.2538920000 114.1378310000,22.2538060000 114.1380200000,22.2536290000 114.1381460000,22.2535220000 114.1382800000,22.2534430000 114.1384110000,22.2533980000 114.1385760000,22.2533760000 114.1387370000,22.2534000000 114.1388790000,22.2534590000 114.1389570000,22.2535060000 114.1389920000,22.2535870000 114.1389950000,22.2536590000 114.1389700000,22.2537380000 114.1389120000,22.2538640000 114.1385770000,22.2542820000 114.1382960000,22.2546590000 114.1380840000,22.2550520000 114.1379370000,22.2553770000 114.1375690000,22.2562290000 114.1375040000,22.2564050000 114.1373980000,22.2564830000 114.1373430000,22.2564990000 114.1372860000,22.2565000000 114.1372150000,22.2564680000 114.1371820000,22.2564230000 114.1371760000,22.2563610000 114.1371970000,22.2562900000 114.1372290000,22.2562240000 114.1373020000,22.2561830000 114.1373640000,22.2561580000 114.1374440000,22.2561360000 114.1378640000,22.2561050000 114.1380130000,22.2560860000 114.1380960000,22.2560620000 114.1381790000,22.2560290000 114.1382600000,22.2559690000 114.1383200000,22.2559130000 114.1384360000,22.2557310000 114.1385400000,22.2555750000 114.1386220000,22.2555060000 114.1387160000,22.2554420000 114.1388310000,22.2553860000 114.1390360000,22.2553060000 114.1392920000,22.2551940000 114.1394800000,22.2551210000 114.1395820000,22.2551050000 114.1396590000,22.2551150000 114.1397020000,22.2551340000 114.1397460000,22.2551570000 114.1397900000,22.2552030000 114.1398350000,22.2552570000 114.1398600000,22.2553010000 114.1398850000,22.2554310000 114.1398700000,22.2555150000 114.1398220000,22.2557210000 114.1397750000,22.2559010000 114.1397650000,22.2559760000 114.1397720000,22.2560520000 114.1397850000,22.2561320000 114.1397960000,22.2561790000 114.1398880000,22.2566420000 114.1399190000,22.2568780000 114.1399040000,22.2569300000 114.1398800000,22.2569980000 114.1398080000,22.2571030000 114.1396820000,22.2572650000 114.1395580000,22.2574320000 114.1394210000,22.2576090000</coordinates>
                </LineString>
                <ExtendedData>
                    <Data name="length">
                        <value>21213.842683010866</value>
                    </Data>
                    <Data name="duration">
                        <value>00:52:40</value>
                    </Data>
                </ExtendedData>
            </Placemark>
        </Document>
    </Document>
</kml>