<?xml version="1.0" encoding="UTF-8"?>
<kml xmlns="http://www.opengis.net/kml/2.2" xmlns:gx="http://www.google.com/kml/ext/2.2">
    <Document>
        <name>Route</name>
        <Folder>
            <name>Route Request</name>
            <Placemark>
                <address>Island West Transfer Station, 88, Victoria Road, Kennedy Town, Ex-Mount Davis Cottage Area, Central and Western District, Hong Kong, 1F, PRC</address>
                <Point>
                    <coordinates>114.1202675449,22.2813881787</coordinates>
                </Point>
                <ExtendedData>
                    <Data name="address29">
                        <value>Island West Transfer Station</value>
                    </Data>
                    <Data name="suburb">
                        <value>Kennedy Town</value>
                    </Data>
                    <Data name="hamlet">
                        <value>Ex-Mount Davis Cottage Area</value>
                    </Data>
                    <Data name="postcode">
                        <value>1F</value>
                    </Data>
                    <Data name="road">
                        <value>Victoria Road</value>
                    </Data>
                    <Data name="county">
                        <value>Central and Western District</value>
                    </Data>
                    <Data name="country">
                        <value>PRC</value>
                    </Data>
                    <Data name="country_code">
                        <value>cn</value>
                    </Data>
                    <Data name="house_number">
                        <value>88</value>
                    </Data>
                </ExtendedData>
            </Placemark>
            <Placemark>
                <Point>
                    <coordinates>114.1370802037,22.2870752236</coordinates>
                </Point>
                <ExtendedData>
                    <Data name="routingVisited">
                        <value>false</value>
                    </Data>
                </ExtendedData>
            </Placemark>
            <Placemark>
                <Point>
                    <coordinates>114.1462513622,22.2879001738</coordinates>
                </Point>
                <ExtendedData>
                    <Data name="routingVisited">
                        <value>false</value>
                    </Data>
                </ExtendedData>
            </Placemark>
            <Placemark>
                <address>Central Preliminary Sewage Treatrment Works, 8, Western Fire Services Street, Admiralty, Sheung Wan, Hong Kong, Central and Western District, Hong Kong, 1F, PRC</address>
                <Point>
                    <coordinates>114.1483706950,22.2895299506</coordinates>
                </Point>
                <ExtendedData>
                    <Data name="neighbourhood">
                        <value>Admiralty</value>
                    </Data>
                    <Data name="address29">
                        <value>Central Preliminary Sewage Treatrment Works</value>
                    </Data>
                    <Data name="suburb">
                        <value>Sheung Wan</value>
                    </Data>
                    <Data name="postcode">
                        <value>1F</value>
                    </Data>
                    <Data name="road">
                        <value>Western Fire Services Street</value>
                    </Data>
                    <Data name="county">
                        <value>Central and Western District</value>
                    </Data>
                    <Data name="country">
                        <value>PRC</value>
                    </Data>
                    <Data name="country_code">
                        <value>cn</value>
                    </Data>
                    <Data name="house_number">
                        <value>8</value>
                    </Data>
                    <Data name="city">
                        <value>Hong Kong</value>
                    </Data>
                </ExtendedData>
            </Placemark>
            <Placemark>
                <Point>
                    <coordinates>114.2260117052,22.2592097073</coordinates>
                </Point>
            </Placemark>
            <Placemark>
                <Point>
                    <coordinates>114.2215790982,22.2443827433</coordinates>
                </Point>
                <ExtendedData>
                    <Data name="routingVisited">
                        <value>false</value>
                    </Data>
                </ExtendedData>
            </Placemark>
            <Placemark>
                <Point>
                    <coordinates>114.2051405232,22.2244661789</coordinates>
                </Point>
                <ExtendedData>
                    <Data name="routingVisited">
                        <value>false</value>
                    </Data>
                </ExtendedData>
            </Placemark>
            <Placemark>
                <Point>
                    <coordinates>114.2202922753,22.2122408978</coordinates>
                </Point>
                <ExtendedData>
                    <Data name="routingVisited">
                        <value>false</value>
                    </Data>
                </ExtendedData>
            </Placemark>
            <Placemark>
                <Point>
                    <coordinates>114.2313183776,22.2670718008</coordinates>
                </Point>
            </Placemark>
            <Placemark>
                <address>Agricultural Bank of China Building, 50, Connaught Road Central, Admiralty, Sheung Wan, Hong Kong, Central and Western District, Hong Kong, IL 2, PRC</address>
                <Point>
                    <coordinates>114.1558887464,22.2851637790</coordinates>
                </Point>
                <ExtendedData>
                    <Data name="neighbourhood">
                        <value>Admiralty</value>
                    </Data>
                    <Data name="suburb">
                        <value>Sheung Wan</value>
                    </Data>
                    <Data name="postcode">
                        <value>IL 2</value>
                    </Data>
                    <Data name="road">
                        <value>Connaught Road Central</value>
                    </Data>
                    <Data name="county">
                        <value>Central and Western District</value>
                    </Data>
                    <Data name="country">
                        <value>PRC</value>
                    </Data>
                    <Data name="country_code">
                        <value>cn</value>
                    </Data>
                    <Data name="building">
                        <value>Agricultural Bank of China Building</value>
                    </Data>
                    <Data name="house_number">
                        <value>50</value>
                    </Data>
                    <Data name="city">
                        <value>Hong Kong</value>
                    </Data>
                </ExtendedData>
            </Placemark>
            <Placemark>
                <address>Des Voeux Road West, Sai Ying Pun, Hong Kong, Central and Western District, Hong Kong, 1F, PRC</address>
                <Point>
                    <coordinates>114.1452254428,22.2878010732</coordinates>
                </Point>
                <ExtendedData>
                    <Data name="suburb">
                        <value>Sai Ying Pun</value>
                    </Data>
                    <Data name="postcode">
                        <value>1F</value>
                    </Data>
                    <Data name="road">
                        <value>Des Voeux Road West</value>
                    </Data>
                    <Data name="county">
                        <value>Central and Western District</value>
                    </Data>
                    <Data name="country">
                        <value>PRC</value>
                    </Data>
                    <Data name="subway_entrance">
                        <value>Des Voeux Road West</value>
                    </Data>
                    <Data name="country_code">
                        <value>cn</value>
                    </Data>
                    <Data name="city">
                        <value>Hong Kong</value>
                    </Data>
                </ExtendedData>
            </Placemark>
            <Placemark>
                <Point>
                    <coordinates>114.1350576403,22.2868566410</coordinates>
                </Point>
            </Placemark>
            <Placemark>
                <address>Island West Transfer Station, 88, Victoria Road, Kennedy Town, Ex-Mount Davis Cottage Area, Central and Western District, Hong Kong, 1F, PRC</address>
                <Point>
                    <coordinates>114.1202638542,22.2813915938</coordinates>
                </Point>
                <ExtendedData>
                    <Data name="address29">
                        <value>Island West Transfer Station</value>
                    </Data>
                    <Data name="suburb">
                        <value>Kennedy Town</value>
                    </Data>
                    <Data name="hamlet">
                        <value>Ex-Mount Davis Cottage Area</value>
                    </Data>
                    <Data name="postcode">
                        <value>1F</value>
                    </Data>
                    <Data name="road">
                        <value>Victoria Road</value>
                    </Data>
                    <Data name="county">
                        <value>Central and Western District</value>
                    </Data>
                    <Data name="country">
                        <value>PRC</value>
                    </Data>
                    <Data name="country_code">
                        <value>cn</value>
                    </Data>
                    <Data name="house_number">
                        <value>88</value>
                    </Data>
                </ExtendedData>
            </Placemark>
        </Folder>
        <Document>
            <name>51.2 km; 01:59 h (OSRM)</name>
            <Placemark>
                <name>Route</name>
                <LineString>
                    <coordinates>114.1202650000,22.2813970000 114.1205010000,22.2814620000 114.1221950000,22.2820160000 114.1223280000,22.2820600000 114.1229080000,22.2822540000 114.1230000000,22.2822880000 114.1230430000,22.2822970000 114.1230940000,22.2822990000 114.1231340000,22.2822910000 114.1231660000,22.2822710000 114.1231910000,22.2822440000 114.1232120000,22.2822090000 114.1232200000,22.2821800000 114.1232720000,22.2820140000 114.1233230000,22.2818510000 114.1240670000,22.2819750000 114.1247530000,22.2820890000 114.1252720000,22.2821650000 114.1254140000,22.2821880000 114.1259310000,22.2822710000 114.1260040000,22.2823340000 114.1260410000,22.2823870000 114.1260500000,22.2824220000 114.1260390000,22.2824880000 114.1259600000,22.2829120000 114.1260530000,22.2829260000 114.1266020000,22.2830130000 114.1267550000,22.2830360000 114.1279580000,22.2832430000 114.1280680000,22.2832620000 114.1281710000,22.2832800000 114.1288560000,22.2834000000 114.1289500000,22.2834170000 114.1290470000,22.2834340000 114.1291620000,22.2834570000 114.1292700000,22.2834960000 114.1293440000,22.2835380000 114.1295210000,22.2836750000 114.1296260000,22.2837670000 114.1296960000,22.2838220000 114.1298770000,22.2840020000 114.1301390000,22.2842060000 114.1302700000,22.2843090000 114.1305640000,22.2845420000 114.1306840000,22.2846360000 114.1309380000,22.2848510000 114.1313160000,22.2851690000 114.1313840000,22.2852390000 114.1314380000,22.2853000000 114.1315330000,22.2853990000 114.1316110000,22.2854880000 114.1316670000,22.2855770000 114.1318710000,22.2859360000 114.1321210000,22.2863660000 114.1322440000,22.2865890000 114.1323250000,22.2867290000 114.1323940000,22.2868440000 114.1324620000,22.2869550000 114.1325370000,22.2870630000 114.1326120000,22.2871700000 114.1326910000,22.2872350000 114.1327570000,22.2872770000 114.1328550000,22.2873220000 114.1329290000,22.2873470000 114.1330150000,22.2873640000 114.1330930000,22.2873720000 114.1331940000,22.2873750000 114.1333400000,22.2873700000 114.1336320000,22.2873130000 114.1339960000,22.2872360000 114.1341860000,22.2871940000 114.1347730000,22.2870470000 114.1350500000,22.2869780000 114.1351720000,22.2869440000 114.1352490000,22.2869220000 114.1353270000,22.2869050000 114.1354550000,22.2868740000 114.1357050000,22.2868150000 114.1359970000,22.2867550000 114.1360770000,22.2867370000 114.1361140000,22.2867360000 114.1361580000,22.2867440000 114.1365110000,22.2868510000 114.1365640000,22.2868660000 114.1369880000,22.2869850000 114.1370990000,22.2870160000 114.1374180000,22.2871050000 114.1375140000,22.2871310000 114.1376110000,22.2871570000 114.1382790000,22.2873430000 114.1384740000,22.2873970000 114.1387390000,22.2874670000 114.1388050000,22.2874850000 114.1394180000,22.2876350000 114.1404230000,22.2879110000 114.1407670000,22.2880040000 114.1408140000,22.2880090000 114.1408600000,22.2880110000 114.1409040000,22.2880110000 114.1412910000,22.2879880000 114.1415200000,22.2879830000 114.1419160000,22.2879680000 114.1423240000,22.2879490000 114.1423960000,22.2879450000 114.1427060000,22.2879360000 114.1430590000,22.2879290000 114.1434110000,22.2879260000 114.1437190000,22.2879130000 114.1438080000,22.2879090000 114.1438990000,22.2879070000 114.1441330000,22.2879000000 114.1444160000,22.2878900000 114.1448280000,22.2878810000 114.1448810000,22.2878800000 114.1453890000,22.2878540000 114.1458810000,22.2878180000 114.1460050000,22.2878000000 114.1462400000,22.2877810000 114.1466000000,22.2877530000 114.1470370000,22.2877160000 114.1471310000,22.2877090000 114.1472090000,22.2877060000 114.1472380000,22.2877060000 114.1472730000,22.2877180000 114.1475040000,22.2878610000 114.1478880000,22.2881430000 114.1479480000,22.2881860000 114.1479890000,22.2882190000 114.1480730000,22.2883040000 114.1480920000,22.2883550000 114.1481230000,22.2884670000 114.1480300000,22.2886200000 114.1480000000,22.2886800000 114.1479400000,22.2887200000 114.1473500000,22.2888700000 114.1473100000,22.2889100000 114.1473000000,22.2889500000 114.1473100000,22.2890000000 114.1473600000,22.2891000000 114.1475900000,22.2898800000 114.1476800000,22.2899000000 114.1483330000,22.2897460000 114.1483810000,22.2897300000 114.1484300000,22.2896900000 114.1484500000,22.2896500000 114.1484500000,22.2895900000 114.1484300000,22.2895160000 114.1483430000,22.2892000000 114.1481900000,22.2886900000 114.1481230000,22.2884670000 114.1494660000,22.2881150000 114.1500720000,22.2879630000 114.1502400000,22.2879200000 114.1505910000,22.2878290000 114.1512740000,22.2876330000 114.1516730000,22.2875220000 114.1519760000,22.2874370000 114.1523630000,22.2873270000 114.1532200000,22.2870900000 114.1534500000,22.2870450000 114.1536500000,22.2870210000 114.1536980000,22.2870310000 114.1540240000,22.2870700000 114.1541740000,22.2870920000 114.1544190000,22.2871190000 114.1549900000,22.2872600000 114.1551200000,22.2872910000 114.1552600000,22.2873190000 114.1553900000,22.2873420000 114.1555200000,22.2873550000 114.1556700000,22.2873600000 114.1557810000,22.2873570000 114.1558900000,22.2873500000 114.1562100000,22.2873300000 114.1565700000,22.2872700000 114.1570000000,22.2871900000 114.1572800000,22.2871100000 114.1576500000,22.2869800000 114.1580300000,22.2868100000 114.1582000000,22.2867000000 114.1584200000,22.2865980000 114.1586590000,22.2864510000 114.1590950000,22.2862220000 114.1631330000,22.2838940000 114.1638610000,22.2834790000 114.1645180000,22.2831880000 114.1651480000,22.2829840000 114.1656310000,22.2828690000 114.1661520000,22.2827670000 114.1666350000,22.2826760000 114.1670700000,22.2825890000 114.1688610000,22.2823690000 114.1700730000,22.2822920000 114.1707090000,22.2822780000 114.1711590000,22.2822620000 114.1718140000,22.2822540000 114.1731560000,22.2823000000 114.1740420000,22.2823610000 114.1746280000,22.2823910000 114.1749850000,22.2824210000 114.1754620000,22.2824730000 114.1809290000,22.2832320000 114.1818510000,22.2833680000 114.1822590000,22.2834450000 114.1827730000,22.2835840000 114.1832300000,22.2837190000 114.1844560000,22.2841080000 114.1848910000,22.2842950000 114.1853950000,22.2845420000 114.1858760000,22.2848500000 114.1863130000,22.2851780000 114.1866410000,22.2854140000 114.1870350000,22.2857100000 114.1874410000,22.2860740000 114.1879310000,22.2865420000 114.1885990000,22.2872120000 114.1889060000,22.2875260000 114.1907580000,22.2893580000 114.1915530000,22.2901590000 114.1919220000,22.2905300000 114.1924760000,22.2910880000 114.1926200000,22.2912330000 114.1934820000,22.2919690000 114.1939800000,22.2923650000 114.1943820000,22.2926650000 114.1946970000,22.2928220000 114.1950310000,22.2929330000 114.1953540000,22.2929900000 114.1955810000,22.2930280000 114.1974960000,22.2934010000 114.1979200000,22.2934800000 114.1981920000,22.2935260000 114.1983380000,22.2935420000 114.1987100000,22.2935630000 114.1992000000,22.2935690000 114.1995900000,22.2935850000 114.1997700000,22.2936020000 114.1999500000,22.2936270000 114.2001000000,22.2936520000 114.2015930000,22.2939620000 114.2024440000,22.2941380000 114.2030190000,22.2942370000 114.2035020000,22.2942680000 114.2039500000,22.2942790000 114.2043590000,22.2942530000 114.2046320000,22.2942350000 114.2056300000,22.2941000000 114.2060900000,22.2940100000 114.2063200000,22.2939500000 114.2065000000,22.2938900000 114.2069100000,22.2937200000 114.2072200000,22.2936000000 114.2075100000,22.2934900000 114.2077100000,22.2934200000 114.2084500000,22.2931800000 114.2088400000,22.2930500000 114.2090900000,22.2929400000 114.2092910000,22.2928400000 114.2094860000,22.2927210000 114.2096620000,22.2925980000 114.2110150000,22.2916200000 114.2112930000,22.2914300000 114.2115520000,22.2912760000 114.2118010000,22.2911320000 114.2126730000,22.2906220000 114.2129690000,22.2904590000 114.2131950000,22.2903500000 114.2134090000,22.2902650000 114.2137490000,22.2901430000 114.2141960000,22.2900090000 114.2148540000,22.2898400000 114.2152500000,22.2897340000 114.2155800000,22.2896460000 114.2162200000,22.2894900000 114.2167600000,22.2893500000 114.2170400000,22.2892800000 114.2176540000,22.2891050000 114.2178060000,22.2890760000 114.2183750000,22.2889240000 114.2194790000,22.2886690000 114.2198500000,22.2885910000 114.2200910000,22.2885370000 114.2204300000,22.2884520000 114.2207260000,22.2883510000 114.2209320000,22.2882420000 114.2211450000,22.2881120000 114.2213840000,22.2879030000 114.2215190000,22.2877050000 114.2216670000,22.2874450000 114.2217740000,22.2871600000 114.2218140000,22.2869840000 114.2218440000,22.2868040000 114.2218520000,22.2866160000 114.2218500000,22.2863740000 114.2217620000,22.2854180000 114.2217700000,22.2850060000 114.2217820000,22.2848680000 114.2218150000,22.2847100000 114.2218610000,22.2845360000 114.2219440000,22.2843380000 114.2220000000,22.2841940000 114.2220720000,22.2840540000 114.2233290000,22.2823980000 114.2236790000,22.2819900000 114.2238720000,22.2817700000 114.2240470000,22.2816200000 114.2243320000,22.2814590000 114.2247000000,22.2812770000 114.2254340000,22.2809570000 114.2257030000,22.2808350000 114.2258800000,22.2807090000 114.2260940000,22.2805250000 114.2262980000,22.2803310000 114.2264650000,22.2801820000 114.2267530000,22.2798990000 114.2269200000,22.2797610000 114.2271600000,22.2796100000 114.2272000000,22.2795900000 114.2276800000,22.2794020000 114.2277800000,22.2793500000 114.2278670000,22.2792900000 114.2279330000,22.2792330000 114.2279890000,22.2791780000 114.2280510000,22.2790990000 114.2280910000,22.2790320000 114.2281220000,22.2789600000 114.2281510000,22.2788700000 114.2281710000,22.2787700000 114.2282670000,22.2779750000 114.2282910000,22.2778030000 114.2282900000,22.2776680000 114.2282700000,22.2775400000 114.2282340000,22.2773990000 114.2282100000,22.2772080000 114.2282460000,22.2770240000 114.2282850000,22.2769180000 114.2283700000,22.2768050000 114.2284320000,22.2767500000 114.2285040000,22.2767020000 114.2288320000,22.2765300000 114.2292640000,22.2763140000 114.2294710000,22.2761990000 114.2295800000,22.2761160000 114.2297800000,22.2759680000 114.2299900000,22.2758800000 114.2301700000,22.2758300000 114.2303600000,22.2757880000 114.2304510000,22.2757610000 114.2305390000,22.2757280000 114.2306330000,22.2756830000 114.2307100000,22.2756380000 114.2308090000,22.2755580000 114.2308600000,22.2754880000 114.2308760000,22.2754510000 114.2308950000,22.2753940000 114.2310180000,22.2748910000 114.2310850000,22.2746350000 114.2311680000,22.2744030000 114.2312060000,22.2743250000 114.2312750000,22.2741770000 114.2313640000,22.2740490000 114.2314730000,22.2739210000 114.2315910000,22.2738040000 114.2316910000,22.2737180000 114.2320620000,22.2734430000 114.2322060000,22.2733440000 114.2324500000,22.2731390000 114.2326330000,22.2728930000 114.2327450000,22.2726680000 114.2328330000,22.2724410000 114.2328850000,22.2723020000 114.2330400000,22.2718430000 114.2332450000,22.2713120000 114.2332900000,22.2712090000 114.2333400000,22.2711180000 114.2334140000,22.2709930000 114.2333120000,22.2709560000 114.2332100000,22.2709100000 114.2331560000,22.2708730000 114.2331190000,22.2708200000 114.2330810000,22.2707430000 114.2330690000,22.2706670000 114.2330630000,22.2706010000 114.2330650000,22.2705200000 114.2330830000,22.2702900000 114.2330950000,22.2702090000 114.2331100000,22.2701000000 114.2331190000,22.2700550000 114.2331300000,22.2700000000 114.2331390000,22.2699000000 114.2331390000,22.2698000000 114.2331290000,22.2697000000 114.2330700000,22.2694600000 114.2330470000,22.2694220000 114.2327800000,22.2689800000 114.2327460000,22.2689360000 114.2323010000,22.2684020000 114.2322180000,22.2682200000 114.2321920000,22.2680170000 114.2321810000,22.2676060000 114.2322170000,22.2671980000 114.2322320000,22.2670690000 114.2322260000,22.2669770000 114.2322120000,22.2668930000 114.2319970000,22.2664470000 114.2319320000,22.2663330000 114.2319100000,22.2662640000 114.2316710000,22.2655960000 114.2315420000,22.2653350000 114.2311860000,22.2647990000 114.2308300000,22.2642600000 114.2306950000,22.2640590000 114.2303550000,22.2635010000 114.2301900000,22.2632300000 114.2299860000,22.2629030000 114.2297960000,22.2626460000 114.2296700000,22.2625500000 114.2288960000,22.2622560000 114.2281960000,22.2620230000 114.2278820000,22.2620070000 114.2274970000,22.2620750000 114.2271890000,22.2622860000 114.2268780000,22.2626570000 114.2265810000,22.2630110000 114.2264230000,22.2631400000 114.2263110000,22.2631830000 114.2262300000,22.2632000000 114.2261410000,22.2632070000 114.2260850000,22.2632050000 114.2257580000,22.2631780000 114.2256300000,22.2631520000 114.2255300000,22.2631110000 114.2254730000,22.2630700000 114.2254200000,22.2630000000 114.2253920000,22.2629380000 114.2253830000,22.2628650000 114.2253880000,22.2628140000 114.2254030000,22.2627600000 114.2254280000,22.2626970000 114.2254600000,22.2626400000 114.2256750000,22.2623400000 114.2257080000,22.2622870000 114.2257360000,22.2622300000 114.2257550000,22.2621640000 114.2257600000,22.2621000000 114.2257580000,22.2620580000 114.2257510000,22.2620140000 114.2257400000,22.2619750000 114.2257210000,22.2619300000 114.2256200000,22.2617450000 114.2256020000,22.2617050000 114.2255750000,22.2616120000 114.2255490000,22.2615010000 114.2255240000,22.2613210000 114.2255260000,22.2613030000 114.2256850000,22.2598730000 114.2256850000,22.2598470000 114.2256980000,22.2592050000 114.2257000000,22.2590990000 114.2257060000,22.2587580000 114.2257070000,22.2586700000 114.2256870000,22.2585320000 114.2256720000,22.2584760000 114.2256470000,22.2583800000 114.2256050000,22.2582630000 114.2255920000,22.2581820000 114.2256010000,22.2580770000 114.2256650000,22.2579690000 114.2257590000,22.2579080000 114.2258390000,22.2578820000 114.2260380000,22.2578780000 114.2262810000,22.2578900000 114.2264000000,22.2578940000 114.2265720000,22.2578990000 114.2268270000,22.2578800000 114.2269030000,22.2578750000 114.2273640000,22.2578050000 114.2277560000,22.2577580000 114.2279010000,22.2577270000 114.2279610000,22.2576930000 114.2280070000,22.2576670000 114.2280580000,22.2576070000 114.2281220000,22.2575060000 114.2281360000,22.2574680000 114.2281590000,22.2574040000 114.2281960000,22.2571810000 114.2281850000,22.2571340000 114.2281590000,22.2570650000 114.2279160000,22.2563420000 114.2277940000,22.2560350000 114.2277740000,22.2559820000 114.2276550000,22.2556450000 114.2276350000,22.2555890000 114.2275510000,22.2552010000 114.2274820000,22.2548830000 114.2274720000,22.2547940000 114.2274590000,22.2546750000 114.2274750000,22.2543750000 114.2274760000,22.2543540000 114.2275350000,22.2541000000 114.2275250000,22.2540740000 114.2274890000,22.2539780000 114.2273810000,22.2538900000 114.2270460000,22.2536670000 114.2270120000,22.2536450000 114.2268680000,22.2534540000 114.2263120000,22.2527210000 114.2262360000,22.2526210000 114.2258420000,22.2521880000 114.2258230000,22.2521680000 114.2257600000,22.2520980000 114.2256500000,22.2519500000 114.2255900000,22.2518600000 114.2255700000,22.2518300000 114.2255270000,22.2517600000 114.2254600000,22.2516300000 114.2253770000,22.2514320000 114.2252200000,22.2510600000 114.2251810000,22.2509910000 114.2251280000,22.2509300000 114.2250650000,22.2508900000 114.2250440000,22.2508810000 114.2250180000,22.2508700000 114.2249800000,22.2508620000 114.2249600000,22.2508580000 114.2249390000,22.2508590000 114.2249000000,22.2508600000 114.2248280000,22.2508770000 114.2248090000,22.2508880000 114.2247640000,22.2509130000 114.2245100000,22.2511400000 114.2244680000,22.2511680000 114.2244510000,22.2511750000 114.2244100000,22.2511900000 114.2243730000,22.2511940000 114.2243500000,22.2511970000 114.2243100000,22.2511920000 114.2242700000,22.2511790000 114.2242400000,22.2511600000 114.2242260000,22.2511460000 114.2242100000,22.2511300000 114.2241980000,22.2511120000 114.2241840000,22.2510800000 114.2241810000,22.2510660000 114.2241750000,22.2510400000 114.2241600000,22.2509000000 114.2241490000,22.2507500000 114.2241420000,22.2505500000 114.2241420000,22.2505340000 114.2241460000,22.2503400000 114.2241480000,22.2502600000 114.2241420000,22.2502100000 114.2241300000,22.2501710000 114.2241270000,22.2501600000 114.2240990000,22.2501060000 114.2240720000,22.2500650000 114.2240620000,22.2500500000 114.2239440000,22.2498800000 114.2235630000,22.2493310000 114.2233000000,22.2489520000 114.2232700000,22.2489080000 114.2232370000,22.2488500000 114.2232060000,22.2487900000 114.2231800000,22.2487320000 114.2231580000,22.2486780000 114.2231400000,22.2486200000 114.2231200000,22.2485400000 114.2231170000,22.2485220000 114.2231100000,22.2484700000 114.2231000000,22.2483500000 114.2230900000,22.2482300000 114.2230800000,22.2481800000 114.2230740000,22.2481600000 114.2230660000,22.2481300000 114.2230500000,22.2480900000 114.2230300000,22.2480500000 114.2230160000,22.2480290000 114.2230000000,22.2480050000 114.2229710000,22.2479650000 114.2229420000,22.2479320000 114.2229010000,22.2478990000 114.2228780000,22.2478850000 114.2228550000,22.2478700000 114.2228110000,22.2478470000 114.2227610000,22.2478250000 114.2227140000,22.2478060000 114.2226600000,22.2477870000 114.2226010000,22.2477690000 114.2225400000,22.2477570000 114.2224800000,22.2477510000 114.2224320000,22.2477500000 114.2224100000,22.2477490000 114.2223500000,22.2477500000 114.2222800000,22.2477550000 114.2222200000,22.2477640000 114.2221500000,22.2477790000 114.2221100000,22.2477900000 114.2216000000,22.2479510000 114.2215390000,22.2479680000 114.2215120000,22.2479710000 114.2214800000,22.2479750000 114.2214050000,22.2479630000 114.2213550000,22.2479370000 114.2213040000,22.2479020000 114.2212510000,22.2478450000 114.2212430000,22.2478300000 114.2212180000,22.2477860000 114.2211960000,22.2476360000 114.2212000000,22.2474740000 114.2212030000,22.2465660000 114.2212140000,22.2460720000 114.2212000000,22.2459860000 114.2211620000,22.2457400000 114.2210770000,22.2452670000 114.2210480000,22.2450790000 114.2210650000,22.2449420000 114.2210900000,22.2448650000 114.2211160000,22.2448050000 114.2211280000,22.2447770000 114.2213840000,22.2442940000 114.2219660000,22.2431950000 114.2219820000,22.2431650000 114.2220040000,22.2431150000 114.2220170000,22.2430720000 114.2220220000,22.2430320000 114.2220190000,22.2429890000 114.2220090000,22.2429600000 114.2219890000,22.2429210000 114.2219270000,22.2427670000 114.2219000000,22.2427000000 114.2218800000,22.2426400000 114.2218610000,22.2425500000 114.2218560000,22.2424900000 114.2218600000,22.2424470000 114.2218670000,22.2424100000 114.2218790000,22.2423700000 114.2218900000,22.2423450000 114.2219190000,22.2422890000 114.2219610000,22.2422110000 114.2219800000,22.2421700000 114.2219990000,22.2421140000 114.2220110000,22.2420600000 114.2220140000,22.2420300000 114.2220140000,22.2420100000 114.2219700000,22.2415300000 114.2219540000,22.2414460000 114.2219490000,22.2414200000 114.2219340000,22.2413780000 114.2218980000,22.2413010000 114.2218810000,22.2412730000 114.2218490000,22.2412400000 114.2218000000,22.2412090000 114.2216900000,22.2411490000 114.2216500000,22.2411250000 114.2216040000,22.2410890000 114.2215850000,22.2410670000 114.2215610000,22.2410400000 114.2215400000,22.2410100000 114.2215200000,22.2409740000 114.2215000000,22.2409200000 114.2214970000,22.2409040000 114.2214900000,22.2408700000 114.2214710000,22.2404550000 114.2214570000,22.2401550000 114.2214450000,22.2400210000 114.2214380000,22.2399570000 114.2212640000,22.2385810000 114.2212640000,22.2384540000 114.2212770000,22.2383430000 114.2213130000,22.2382530000 114.2213760000,22.2381410000 114.2215210000,22.2379360000 114.2216280000,22.2376820000 114.2218490000,22.2370810000 114.2219540000,22.2368600000 114.2221740000,22.2366330000 114.2224630000,22.2363900000 114.2227050000,22.2361530000 114.2228710000,22.2359090000 114.2229780000,22.2355830000 114.2229960000,22.2353590000 114.2229890000,22.2351250000 114.2229020000,22.2347960000 114.2228420000,22.2345870000 114.2227800000,22.2344600000 114.2227420000,22.2342600000 114.2226150000,22.2335830000 114.2224860000,22.2331410000 114.2223890000,22.2327890000 114.2223760000,22.2326570000 114.2223790000,22.2325330000 114.2224100000,22.2323070000 114.2224050000,22.2321210000 114.2223990000,22.2320390000 114.2223610000,22.2319490000 114.2222630000,22.2318430000 114.2220360000,22.2316420000 114.2218460000,22.2314100000 114.2215770000,22.2309840000 114.2213600000,22.2305670000 114.2210830000,22.2299130000 114.2210000000,22.2297760000 114.2208750000,22.2296320000 114.2207030000,22.2295040000 114.2204450000,22.2293640000 114.2201740000,22.2292530000 114.2199830000,22.2291910000 114.2197980000,22.2291620000 114.2196320000,22.2291910000 114.2194800000,22.2292710000 114.2193600000,22.2293590000 114.2192580000,22.2295090000 114.2192000000,22.2297160000 114.2191310000,22.2298490000 114.2190470000,22.2299620000 114.2189520000,22.2300440000 114.2188060000,22.2301130000 114.2184770000,22.2301440000 114.2182450000,22.2301140000 114.2181130000,22.2300670000 114.2180150000,22.2299920000 114.2179220000,22.2298800000 114.2178710000,22.2297220000 114.2178600000,22.2293870000 114.2178530000,22.2290390000 114.2178240000,22.2287940000 114.2177500000,22.2285110000 114.2177220000,22.2284240000 114.2176820000,22.2283150000 114.2176260000,22.2281720000 114.2175300000,22.2279340000 114.2174020000,22.2275620000 114.2173520000,22.2274340000 114.2172670000,22.2272630000 114.2171060000,22.2269710000 114.2168070000,22.2265210000 114.2167110000,22.2263870000 114.2166410000,22.2263040000 114.2164320000,22.2260830000 114.2162550000,22.2259160000 114.2160570000,22.2257520000 114.2158270000,22.2255750000 114.2156440000,22.2254500000 114.2152610000,22.2252340000 114.2148820000,22.2250720000 114.2147940000,22.2250390000 114.2147220000,22.2250230000 114.2146240000,22.2250170000 114.2145780000,22.2250190000 114.2145240000,22.2250170000 114.2144750000,22.2250100000 114.2144040000,22.2249930000 114.2143220000,22.2249470000 114.2141620000,22.2248330000 114.2141020000,22.2247980000 114.2140010000,22.2247570000 114.2136730000,22.2246770000 114.2134550000,22.2246430000 114.2131930000,22.2246210000 114.2130610000,22.2246240000 114.2129360000,22.2246400000 114.2126190000,22.2247460000 114.2125700000,22.2247490000 114.2124500000,22.2247410000 114.2123700000,22.2247250000 114.2123210000,22.2247100000 114.2122770000,22.2246920000 114.2122380000,22.2246720000 114.2122020000,22.2246470000 114.2121200000,22.2245700000 114.2116410000,22.2240500000 114.2116110000,22.2240200000 114.2115610000,22.2239810000 114.2114900000,22.2239400000 114.2114300000,22.2239200000 114.2113700000,22.2239120000 114.2113100000,22.2239130000 114.2112600000,22.2239210000 114.2112000000,22.2239400000 114.2111500000,22.2239650000 114.2110310000,22.2240400000 114.2105550000,22.2244730000 114.2104380000,22.2246250000 114.2103720000,22.2247110000 114.2099400000,22.2253380000 114.2098300000,22.2254340000 114.2097730000,22.2254670000 114.2097210000,22.2254970000 114.2096440000,22.2254970000 114.2096030000,22.2254970000 114.2095170000,22.2254810000 114.2094480000,22.2254230000 114.2093960000,22.2253340000 114.2093730000,22.2252340000 114.2093330000,22.2242380000 114.2092810000,22.2240950000 114.2092560000,22.2240250000 114.2091030000,22.2238340000 114.2090800000,22.2238060000 114.2089630000,22.2237080000 114.2087890000,22.2236160000 114.2087380000,22.2236030000 114.2086010000,22.2235680000 114.2083470000,22.2235380000 114.2082870000,22.2235310000 114.2078680000,22.2235170000 114.2076080000,22.2235400000 114.2071740000,22.2236680000 114.2066330000,22.2238700000 114.2061460000,22.2240990000 114.2058870000,22.2242510000 114.2056930000,22.2244220000 114.2055760000,22.2245950000 114.2055620000,22.2246270000 114.2054820000,22.2248060000 114.2054100000,22.2249050000 114.2053200000,22.2249770000 114.2052220000,22.2250110000 114.2051180000,22.2250260000 114.2049270000,22.2250300000 114.2048460000,22.2250320000 114.2039030000,22.2250860000 114.2038840000,22.2249270000 114.2038410000,22.2246330000 114.2037730000,22.2240240000 114.2037080000,22.2238310000 114.2035740000,22.2236920000 114.2034130000,22.2235980000 114.2031660000,22.2234450000 114.2030470000,22.2232960000 114.2029620000,22.2231030000 114.2029370000,22.2228940000 114.2030180000,22.2225590000 114.2030640000,22.2222360000 114.2030680000,22.2221220000 114.2030310000,22.2217880000 114.2030010000,22.2214760000 114.2029900000,22.2211820000 114.2030100000,22.2210430000 114.2030220000,22.2210090000 114.2034040000,22.2199030000 114.2034630000,22.2197580000 114.2034780000,22.2197230000 114.2035810000,22.2195770000 114.2036390000,22.2195310000 114.2037060000,22.2194770000 114.2038810000,22.2193620000 114.2042940000,22.2191150000 114.2044520000,22.2189510000 114.2045560000,22.2188220000 114.2046510000,22.2186890000 114.2046760000,22.2186250000 114.2047420000,22.2184400000 114.2047710000,22.2182540000 114.2047580000,22.2180790000 114.2046420000,22.2177120000 114.2048420000,22.2176320000 114.2049380000,22.2175520000 114.2050040000,22.2174730000 114.2050710000,22.2173770000 114.2051170000,22.2172870000 114.2052780000,22.2170270000 114.2053970000,22.2168210000 114.2054670000,22.2167460000 114.2055810000,22.2166790000 114.2057170000,22.2166370000 114.2058440000,22.2166430000 114.2059960000,22.2167240000 114.2061480000,22.2168670000 114.2062300000,22.2169560000 114.2062750000,22.2170460000 114.2063290000,22.2172960000 114.2063870000,22.2175670000 114.2064180000,22.2176300000 114.2064330000,22.2176620000 114.2064960000,22.2177570000 114.2065970000,22.2178300000 114.2066780000,22.2178990000 114.2067530000,22.2180190000 114.2067830000,22.2181550000 114.2068070000,22.2183300000 114.2067820000,22.2185040000 114.2067240000,22.2187570000 114.2067030000,22.2188750000 114.2066850000,22.2190000000 114.2067140000,22.2191660000 114.2068060000,22.2194370000 114.2068530000,22.2195950000 114.2068950000,22.2197160000 114.2069310000,22.2198820000 114.2069500000,22.2200650000 114.2068560000,22.2203100000 114.2067740000,22.2204570000 114.2067110000,22.2205530000 114.2066150000,22.2206450000 114.2064020000,22.2207830000 114.2062120000,22.2208740000 114.2059560000,22.2209280000 114.2054720000,22.2209890000 114.2052940000,22.2210450000 114.2051400000,22.2211310000 114.2050430000,22.2212280000 114.2049620000,22.2213450000 114.2048900000,22.2215360000 114.2048830000,22.2217320000 114.2049330000,22.2219160000 114.2050180000,22.2220470000 114.2051720000,22.2221830000 114.2053730000,22.2222640000 114.2055970000,22.2222780000 114.2059010000,22.2222690000 114.2062560000,22.2222510000 114.2066160000,22.2222470000 114.2067350000,22.2222420000 114.2072200000,22.2222100000 114.2074290000,22.2221660000 114.2076230000,22.2220810000 114.2077990000,22.2219580000 114.2079150000,22.2218220000 114.2087200000,22.2208390000 114.2089650000,22.2206450000 114.2093120000,22.2204210000 114.2095400000,22.2202460000 114.2096500000,22.2201520000 114.2098560000,22.2199650000 114.2100290000,22.2198280000 114.2105560000,22.2193750000 114.2107320000,22.2192610000 114.2108740000,22.2191900000 114.2109860000,22.2191700000 114.2110940000,22.2191540000 114.2112030000,22.2191690000 114.2113360000,22.2192220000 114.2114670000,22.2193060000 114.2115700000,22.2193810000 114.2118830000,22.2196640000 114.2121440000,22.2199110000 114.2123530000,22.2200710000 114.2125810000,22.2202890000 114.2126290000,22.2203170000 114.2126810000,22.2203440000 114.2127120000,22.2203600000 114.2128240000,22.2194040000 114.2128560000,22.2192380000 114.2128820000,22.2191150000 114.2129510000,22.2187990000 114.2129830000,22.2187090000 114.2130020000,22.2186340000 114.2130420000,22.2185670000 114.2131160000,22.2185080000 114.2132940000,22.2183670000 114.2133380000,22.2183240000 114.2133950000,22.2182730000 114.2134460000,22.2181810000 114.2135020000,22.2182190000 114.2135540000,22.2182270000 114.2138900000,22.2182460000 114.2139770000,22.2182420000 114.2140670000,22.2182170000 114.2142120000,22.2181560000 114.2144000000,22.2180800000 114.2149800000,22.2178340000 114.2155030000,22.2176260000 114.2157720000,22.2175010000 114.2159590000,22.2174230000 114.2160730000,22.2173670000 114.2161090000,22.2173450000 114.2161330000,22.2173300000 114.2166550000,22.2169320000 114.2170310000,22.2166950000 114.2172770000,22.2165530000 114.2174420000,22.2164380000 114.2175530000,22.2162610000 114.2175650000,22.2162420000 114.2176740000,22.2159330000 114.2178100000,22.2155500000 114.2178800000,22.2153700000 114.2180000000,22.2150600000 114.2180220000,22.2150030000 114.2182750000,22.2143470000 114.2185210000,22.2136260000 114.2185430000,22.2135830000 114.2185570000,22.2135420000 114.2185590000,22.2134960000 114.2185530000,22.2134620000 114.2188830000,22.2133960000 114.2189330000,22.2133920000 114.2190080000,22.2133920000 114.2196000000,22.2134740000 114.2196210000,22.2134740000 114.2196500000,22.2134710000 114.2196850000,22.2134580000 114.2197070000,22.2134370000 114.2197200000,22.2134110000 114.2199450000,22.2121860000 114.2199560000,22.2121250000 114.2197200000,22.2134110000 114.2197070000,22.2134370000 114.2196850000,22.2134580000 114.2196500000,22.2134710000 114.2196210000,22.2134740000 114.2196000000,22.2134740000 114.2190080000,22.2133920000 114.2189330000,22.2133920000 114.2188830000,22.2133960000 114.2185530000,22.2134620000 114.2185470000,22.2134310000 114.2185280000,22.2133880000 114.2184850000,22.2133490000 114.2184230000,22.2133240000 114.2183070000,22.2132930000 114.2175780000,22.2131940000 114.2176070000,22.2128800000 114.2173260000,22.2127600000 114.2168440000,22.2125280000 114.2166850000,22.2124480000 114.2165860000,22.2125960000 114.2164290000,22.2128330000 114.2163660000,22.2129290000 114.2163170000,22.2130050000 114.2162540000,22.2130650000 114.2162050000,22.2131050000 114.2161280000,22.2131520000 114.2160300000,22.2131990000 114.2158950000,22.2132510000 114.2154230000,22.2134180000 114.2150290000,22.2135890000 114.2149300000,22.2136720000 114.2148490000,22.2137750000 114.2147980000,22.2139080000 114.2147870000,22.2140160000 114.2148240000,22.2142890000 114.2148290000,22.2144570000 114.2147890000,22.2146130000 114.2147270000,22.2147280000 114.2146450000,22.2148270000 114.2142230000,22.2151140000 114.2140790000,22.2152330000 114.2139190000,22.2154270000 114.2138680000,22.2155190000 114.2138300000,22.2156530000 114.2138380000,22.2158130000 114.2139530000,22.2161590000 114.2139980000,22.2163490000 114.2140020000,22.2165150000 114.2139120000,22.2168200000 114.2138350000,22.2169450000 114.2136950000,22.2171130000 114.2136070000,22.2172230000 114.2135470000,22.2173500000 114.2135150000,22.2174780000 114.2135110000,22.2176120000 114.2135320000,22.2177740000 114.2135400000,22.2178900000 114.2135180000,22.2180260000 114.2134460000,22.2181810000 114.2133950000,22.2182730000 114.2133380000,22.2183240000 114.2132940000,22.2183670000 114.2131160000,22.2185080000 114.2130420000,22.2185670000 114.2130020000,22.2186340000 114.2129830000,22.2187090000 114.2129510000,22.2187990000 114.2128820000,22.2191150000 114.2128560000,22.2192380000 114.2128240000,22.2194040000 114.2127120000,22.2203600000 114.2127110000,22.2204530000 114.2127120000,22.2205610000 114.2127120000,22.2207140000 114.2126710000,22.2208560000 114.2126250000,22.2209360000 114.2125300000,22.2210100000 114.2124120000,22.2210610000 114.2122800000,22.2210910000 114.2120660000,22.2210810000 114.2119330000,22.2210700000 114.2117580000,22.2210730000 114.2116340000,22.2210940000 114.2115440000,22.2211350000 114.2114360000,22.2212070000 114.2113440000,22.2212840000 114.2112850000,22.2213760000 114.2112450000,22.2214830000 114.2112160000,22.2216030000 114.2112110000,22.2217040000 114.2112220000,22.2218010000 114.2112730000,22.2219300000 114.2113090000,22.2219830000 114.2113480000,22.2220370000 114.2114370000,22.2221240000 114.2115080000,22.2221760000 114.2116040000,22.2222170000 114.2118450000,22.2223000000 114.2121050000,22.2223710000 114.2122620000,22.2224520000 114.2123330000,22.2225130000 114.2123910000,22.2225730000 114.2124980000,22.2228220000 114.2125370000,22.2229960000 114.2126060000,22.2232540000 114.2126530000,22.2233530000 114.2127190000,22.2234510000 114.2127970000,22.2235350000 114.2128830000,22.2236130000 114.2131740000,22.2238660000 114.2133500000,22.2239890000 114.2135700000,22.2241070000 114.2136860000,22.2241750000 114.2137840000,22.2242500000 114.2139220000,22.2243750000 114.2140490000,22.2245460000 114.2141650000,22.2246590000 114.2144620000,22.2248150000 114.2145780000,22.2248830000 114.2146010000,22.2249140000 114.2146170000,22.2249610000 114.2146240000,22.2250170000 114.2147220000,22.2250230000 114.2147940000,22.2250390000 114.2148820000,22.2250720000 114.2152610000,22.2252340000 114.2156440000,22.2254500000 114.2158270000,22.2255750000 114.2160570000,22.2257520000 114.2162550000,22.2259160000 114.2164320000,22.2260830000 114.2166410000,22.2263040000 114.2167110000,22.2263870000 114.2168070000,22.2265210000 114.2171060000,22.2269710000 114.2172670000,22.2272630000 114.2173520000,22.2274340000 114.2174020000,22.2275620000 114.2175300000,22.2279340000 114.2176260000,22.2281720000 114.2176820000,22.2283150000 114.2177220000,22.2284240000 114.2177500000,22.2285110000 114.2178240000,22.2287940000 114.2178530000,22.2290390000 114.2178600000,22.2293870000 114.2178710000,22.2297220000 114.2179220000,22.2298800000 114.2180150000,22.2299920000 114.2181130000,22.2300670000 114.2182450000,22.2301140000 114.2184770000,22.2301440000 114.2188060000,22.2301130000 114.2189520000,22.2300440000 114.2190470000,22.2299620000 114.2191310000,22.2298490000 114.2192000000,22.2297160000 114.2192580000,22.2295090000 114.2193600000,22.2293590000 114.2194800000,22.2292710000 114.2196320000,22.2291910000 114.2197980000,22.2291620000 114.2199830000,22.2291910000 114.2201740000,22.2292530000 114.2204450000,22.2293640000 114.2207030000,22.2295040000 114.2208750000,22.2296320000 114.2210000000,22.2297760000 114.2210830000,22.2299130000 114.2213600000,22.2305670000 114.2215770000,22.2309840000 114.2218460000,22.2314100000 114.2220360000,22.2316420000 114.2222630000,22.2318430000 114.2223610000,22.2319490000 114.2223990000,22.2320390000 114.2224050000,22.2321210000 114.2224100000,22.2323070000 114.2223790000,22.2325330000 114.2223760000,22.2326570000 114.2223890000,22.2327890000 114.2224860000,22.2331410000 114.2226150000,22.2335830000 114.2227420000,22.2342600000 114.2227800000,22.2344600000 114.2227780000,22.2346060000 114.2228520000,22.2350520000 114.2228600000,22.2352290000 114.2228490000,22.2353730000 114.2228160000,22.2355620000 114.2228090000,22.2355940000 114.2227110000,22.2358280000 114.2225760000,22.2360400000 114.2224000000,22.2362410000 114.2222650000,22.2363850000 114.2221120000,22.2365690000 114.2219540000,22.2368600000 114.2218490000,22.2370810000 114.2216280000,22.2376820000 114.2215210000,22.2379360000 114.2213760000,22.2381410000 114.2213130000,22.2382530000 114.2212770000,22.2383430000 114.2212640000,22.2384540000 114.2212640000,22.2385810000 114.2214380000,22.2399570000 114.2214450000,22.2400210000 114.2214570000,22.2401550000 114.2214710000,22.2404550000 114.2214900000,22.2408700000 114.2214970000,22.2409040000 114.2215000000,22.2409200000 114.2215200000,22.2409740000 114.2215400000,22.2410100000 114.2215610000,22.2410400000 114.2215850000,22.2410670000 114.2216040000,22.2410890000 114.2216500000,22.2411250000 114.2216900000,22.2411490000 114.2218000000,22.2412090000 114.2218490000,22.2412400000 114.2218810000,22.2412730000 114.2218980000,22.2413010000 114.2219340000,22.2413780000 114.2219490000,22.2414200000 114.2219540000,22.2414460000 114.2219700000,22.2415300000 114.2220140000,22.2420100000 114.2220140000,22.2420300000 114.2220110000,22.2420600000 114.2219990000,22.2421140000 114.2219800000,22.2421700000 114.2219610000,22.2422110000 114.2219190000,22.2422890000 114.2218900000,22.2423450000 114.2218790000,22.2423700000 114.2218670000,22.2424100000 114.2218600000,22.2424470000 114.2218560000,22.2424900000 114.2218610000,22.2425500000 114.2218800000,22.2426400000 114.2219000000,22.2427000000 114.2219270000,22.2427670000 114.2219890000,22.2429210000 114.2220090000,22.2429600000 114.2220190000,22.2429890000 114.2220220000,22.2430320000 114.2220170000,22.2430720000 114.2220040000,22.2431150000 114.2219820000,22.2431650000 114.2219660000,22.2431950000 114.2211280000,22.2447770000 114.2211160000,22.2448050000 114.2210900000,22.2448650000 114.2210650000,22.2449420000 114.2210480000,22.2450790000 114.2210770000,22.2452670000 114.2211620000,22.2457400000 114.2212000000,22.2459860000 114.2212140000,22.2460720000 114.2212030000,22.2465660000 114.2212000000,22.2474740000 114.2211960000,22.2476360000 114.2212180000,22.2477860000 114.2212430000,22.2478300000 114.2212510000,22.2478450000 114.2213040000,22.2479020000 114.2213550000,22.2479370000 114.2214050000,22.2479630000 114.2214800000,22.2479750000 114.2215120000,22.2479710000 114.2215390000,22.2479680000 114.2216000000,22.2479510000 114.2221100000,22.2477900000 114.2221500000,22.2477790000 114.2222200000,22.2477640000 114.2222800000,22.2477550000 114.2223500000,22.2477500000 114.2224100000,22.2477490000 114.2224320000,22.2477500000 114.2224800000,22.2477510000 114.2225400000,22.2477570000 114.2226010000,22.2477690000 114.2226600000,22.2477870000 114.2227140000,22.2478060000 114.2227610000,22.2478250000 114.2228110000,22.2478470000 114.2228550000,22.2478700000 114.2228780000,22.2478850000 114.2229010000,22.2478990000 114.2229420000,22.2479320000 114.2229710000,22.2479650000 114.2230000000,22.2480050000 114.2230160000,22.2480290000 114.2230300000,22.2480500000 114.2230500000,22.2480900000 114.2230660000,22.2481300000 114.2230740000,22.2481600000 114.2230800000,22.2481800000 114.2230900000,22.2482300000 114.2231000000,22.2483500000 114.2231100000,22.2484700000 114.2231170000,22.2485220000 114.2231200000,22.2485400000 114.2231400000,22.2486200000 114.2231580000,22.2486780000 114.2231800000,22.2487320000 114.2232060000,22.2487900000 114.2232370000,22.2488500000 114.2232700000,22.2489080000 114.2233000000,22.2489520000 114.2235630000,22.2493310000 114.2239440000,22.2498800000 114.2240620000,22.2500500000 114.2240720000,22.2500650000 114.2240990000,22.2501060000 114.2241270000,22.2501600000 114.2241300000,22.2501710000 114.2241420000,22.2502100000 114.2241480000,22.2502600000 114.2241460000,22.2503400000 114.2241420000,22.2505340000 114.2241420000,22.2505500000 114.2241490000,22.2507500000 114.2241600000,22.2509000000 114.2241750000,22.2510400000 114.2241810000,22.2510660000 114.2241840000,22.2510800000 114.2241980000,22.2511120000 114.2242100000,22.2511300000 114.2242260000,22.2511460000 114.2242400000,22.2511600000 114.2242700000,22.2511790000 114.2243100000,22.2511920000 114.2243500000,22.2511970000 114.2243730000,22.2511940000 114.2244100000,22.2511900000 114.2244510000,22.2511750000 114.2244680000,22.2511680000 114.2245100000,22.2511400000 114.2247640000,22.2509130000 114.2248090000,22.2508880000 114.2248280000,22.2508770000 114.2249000000,22.2508600000 114.2249390000,22.2508590000 114.2249600000,22.2508580000 114.2249800000,22.2508620000 114.2250180000,22.2508700000 114.2250440000,22.2508810000 114.2250650000,22.2508900000 114.2251280000,22.2509300000 114.2251810000,22.2509910000 114.2252200000,22.2510600000 114.2253770000,22.2514320000 114.2254600000,22.2516300000 114.2255270000,22.2517600000 114.2255700000,22.2518300000 114.2255900000,22.2518600000 114.2256500000,22.2519500000 114.2257600000,22.2520980000 114.2258230000,22.2521680000 114.2258420000,22.2521880000 114.2262360000,22.2526210000 114.2263120000,22.2527210000 114.2268680000,22.2534540000 114.2270120000,22.2536450000 114.2270460000,22.2536670000 114.2273810000,22.2538900000 114.2274890000,22.2539780000 114.2275250000,22.2540740000 114.2275350000,22.2541000000 114.2274760000,22.2543540000 114.2274750000,22.2543750000 114.2274590000,22.2546750000 114.2274720000,22.2547940000 114.2274820000,22.2548830000 114.2275510000,22.2552010000 114.2276350000,22.2555890000 114.2276550000,22.2556450000 114.2277740000,22.2559820000 114.2277940000,22.2560350000 114.2279160000,22.2563420000 114.2281590000,22.2570650000 114.2281850000,22.2571340000 114.2281960000,22.2571810000 114.2281590000,22.2574040000 114.2281360000,22.2574680000 114.2281220000,22.2575060000 114.2280580000,22.2576070000 114.2280070000,22.2576670000 114.2279610000,22.2576930000 114.2279010000,22.2577270000 114.2277560000,22.2577580000 114.2273640000,22.2578050000 114.2269030000,22.2578750000 114.2268270000,22.2578800000 114.2265720000,22.2578990000 114.2264000000,22.2578940000 114.2262810000,22.2578900000 114.2260380000,22.2578780000 114.2258390000,22.2578820000 114.2257590000,22.2579080000 114.2256650000,22.2579690000 114.2256010000,22.2580770000 114.2255920000,22.2581820000 114.2256050000,22.2582630000 114.2256470000,22.2583800000 114.2256720000,22.2584760000 114.2256870000,22.2585320000 114.2257070000,22.2586700000 114.2257060000,22.2587580000 114.2257000000,22.2590990000 114.2256850000,22.2598470000 114.2256850000,22.2598730000 114.2255260000,22.2613030000 114.2255240000,22.2613210000 114.2255490000,22.2615010000 114.2255750000,22.2616120000 114.2256020000,22.2617050000 114.2256200000,22.2617450000 114.2257210000,22.2619300000 114.2257400000,22.2619750000 114.2257510000,22.2620140000 114.2257580000,22.2620580000 114.2257600000,22.2621000000 114.2257550000,22.2621640000 114.2257360000,22.2622300000 114.2257080000,22.2622870000 114.2256750000,22.2623400000 114.2254600000,22.2626400000 114.2254280000,22.2626970000 114.2254030000,22.2627600000 114.2253880000,22.2628140000 114.2253830000,22.2628650000 114.2253920000,22.2629380000 114.2254200000,22.2630000000 114.2254730000,22.2630700000 114.2255300000,22.2631110000 114.2256300000,22.2631520000 114.2257580000,22.2631780000 114.2260850000,22.2632050000 114.2261410000,22.2632070000 114.2262300000,22.2632000000 114.2263110000,22.2631830000 114.2264230000,22.2631400000 114.2265810000,22.2630110000 114.2268780000,22.2626570000 114.2271890000,22.2622860000 114.2274970000,22.2620750000 114.2278820000,22.2620070000 114.2281960000,22.2620230000 114.2288960000,22.2622560000 114.2296700000,22.2625500000 114.2297960000,22.2626460000 114.2299860000,22.2629030000 114.2301900000,22.2632300000 114.2303550000,22.2635010000 114.2306950000,22.2640590000 114.2308300000,22.2642600000 114.2311860000,22.2647990000 114.2315420000,22.2653350000 114.2316710000,22.2655960000 114.2319100000,22.2662640000 114.2319320000,22.2663330000 114.2319970000,22.2664470000 114.2321360000,22.2667340000 114.2322120000,22.2668930000 114.2322260000,22.2669770000 114.2322320000,22.2670690000 114.2322170000,22.2671980000 114.2321810000,22.2676060000 114.2321920000,22.2680170000 114.2322180000,22.2682200000 114.2323010000,22.2684020000 114.2327460000,22.2689360000 114.2327800000,22.2689800000 114.2330470000,22.2694220000 114.2330700000,22.2694600000 114.2331290000,22.2697000000 114.2331390000,22.2698000000 114.2331390000,22.2699000000 114.2331300000,22.2700000000 114.2331190000,22.2700550000 114.2331100000,22.2701000000 114.2330950000,22.2702090000 114.2330830000,22.2702900000 114.2330650000,22.2705200000 114.2330630000,22.2706010000 114.2330690000,22.2706670000 114.2330810000,22.2707430000 114.2331190000,22.2708200000 114.2331560000,22.2708730000 114.2332100000,22.2709100000 114.2333120000,22.2709560000 114.2332380000,22.2710840000 114.2332020000,22.2711530000 114.2331440000,22.2712760000 114.2329440000,22.2718200000 114.2327860000,22.2722650000 114.2327280000,22.2724120000 114.2326410000,22.2726370000 114.2325410000,22.2728520000 114.2323310000,22.2730990000 114.2322800000,22.2731420000 114.2322180000,22.2731940000 114.2321620000,22.2732320000 114.2319980000,22.2733580000 114.2316410000,22.2736120000 114.2314380000,22.2737820000 114.2313150000,22.2739040000 114.2312060000,22.2740490000 114.2311190000,22.2741980000 114.2310440000,22.2743600000 114.2309610000,22.2745890000 114.2309180000,22.2747290000 114.2308900000,22.2748400000 114.2308300000,22.2750840000 114.2307350000,22.2753930000 114.2307000000,22.2754540000 114.2306370000,22.2755390000 114.2305750000,22.2755930000 114.2304980000,22.2756410000 114.2304190000,22.2756700000 114.2303270000,22.2756930000 114.2301860000,22.2757220000 114.2300870000,22.2757470000 114.2299330000,22.2757980000 114.2297940000,22.2758640000 114.2296620000,22.2759370000 114.2295030000,22.2760640000 114.2294850000,22.2760770000 114.2293730000,22.2761690000 114.2292390000,22.2762560000 114.2288040000,22.2764840000 114.2284580000,22.2766580000 114.2283860000,22.2767030000 114.2283220000,22.2767500000 114.2282210000,22.2768560000 114.2281710000,22.2769360000 114.2281400000,22.2770120000 114.2281250000,22.2771000000 114.2281210000,22.2771670000 114.2281250000,22.2772290000 114.2281470000,22.2773760000 114.2281920000,22.2775960000 114.2282010000,22.2777090000 114.2281880000,22.2778090000 114.2281650000,22.2778960000 114.2281260000,22.2779970000 114.2277030000,22.2787940000 114.2275480000,22.2789710000 114.2272410000,22.2792020000 114.2269900000,22.2794380000 114.2268030000,22.2796150000 114.2265720000,22.2798450000 114.2263940000,22.2800430000 114.2261900000,22.2802580000 114.2260020000,22.2804210000 114.2257350000,22.2806190000 114.2255450000,22.2807470000 114.2251880000,22.2809320000 114.2246470000,22.2811710000 114.2242770000,22.2813510000 114.2239950000,22.2815130000 114.2237780000,22.2816570000 114.2235840000,22.2818260000 114.2233580000,22.2820850000 114.2222830000,22.2834070000 114.2218840000,22.2838670000 114.2216390000,22.2842430000 114.2215480000,22.2844190000 114.2214810000,22.2845900000 114.2214190000,22.2847590000 114.2213950000,22.2848930000 114.2213720000,22.2850060000 114.2213560000,22.2852290000 114.2213700000,22.2855360000 114.2213670000,22.2856240000 114.2213670000,22.2857330000 114.2213670000,22.2858790000 114.2213770000,22.2861640000 114.2213830000,22.2865040000 114.2213800000,22.2867150000 114.2213680000,22.2869820000 114.2213220000,22.2871970000 114.2212480000,22.2874290000 114.2211840000,22.2875360000 114.2211090000,22.2876640000 114.2210020000,22.2877990000 114.2208470000,22.2879460000 114.2206800000,22.2880740000 114.2205610000,22.2881500000 114.2201860000,22.2882970000 114.2192040000,22.2885140000 114.2183930000,22.2886590000 114.2178650000,22.2887540000 114.2175780000,22.2887990000 114.2171230000,22.2888780000 114.2163450000,22.2890210000 114.2160060000,22.2890940000 114.2157280000,22.2891530000 114.2154590000,22.2892130000 114.2149660000,22.2893430000 114.2147540000,22.2894150000 114.2142840000,22.2895810000 114.2137740000,22.2897990000 114.2132930000,22.2900340000 114.2130020000,22.2901740000 114.2112110000,22.2912520000 114.2110520000,22.2913550000 114.2102020000,22.2919430000 114.2096630000,22.2923130000 114.2094140000,22.2924730000 114.2091510000,22.2926110000 114.2088090000,22.2927710000 114.2086260000,22.2928390000 114.2066660000,22.2934180000 114.2048450000,22.2939720000 114.2044740000,22.2940720000 114.2040710000,22.2941290000 114.2036420000,22.2941610000 114.2031550000,22.2941450000 114.2025710000,22.2940510000 114.2021610000,22.2939730000 114.1999680000,22.2935100000 114.1996280000,22.2934690000 114.1992060000,22.2934470000 114.1987250000,22.2934460000 114.1983660000,22.2934260000 114.1979580000,22.2933590000 114.1975110000,22.2932730000 114.1959400000,22.2929700000 114.1956750000,22.2929240000 114.1954150000,22.2928670000 114.1952160000,22.2928310000 114.1950220000,22.2927680000 114.1948140000,22.2926860000 114.1946450000,22.2926110000 114.1944520000,22.2925320000 114.1942080000,22.2923860000 114.1937870000,22.2920820000 114.1932690000,22.2916340000 114.1925710000,22.2910210000 114.1916280000,22.2900800000 114.1908310000,22.2892850000 114.1896270000,22.2880510000 114.1890070000,22.2874240000 114.1887100000,22.2871190000 114.1880630000,22.2864400000 114.1875550000,22.2859550000 114.1871420000,22.2855720000 114.1866620000,22.2851510000 114.1862310000,22.2848250000 114.1857820000,22.2845010000 114.1853990000,22.2842880000 114.1849510000,22.2840740000 114.1845390000,22.2839000000 114.1831910000,22.2834360000 114.1826270000,22.2832920000 114.1823140000,22.2832240000 114.1819090000,22.2831690000 114.1810050000,22.2830450000 114.1754920000,22.2822970000 114.1750470000,22.2822520000 114.1746750000,22.2822160000 114.1739920000,22.2821710000 114.1717570000,22.2820450000 114.1714910000,22.2820020000 114.1714100000,22.2819910000 114.1702700000,22.2820430000 114.1701430000,22.2819890000 114.1700770000,22.2819410000 114.1700270000,22.2818740000 114.1699830000,22.2818090000 114.1699520000,22.2817460000 114.1699280000,22.2816380000 114.1699260000,22.2815370000 114.1699410000,22.2814100000 114.1699980000,22.2808680000 114.1698200000,22.2808530000 114.1695710000,22.2808320000 114.1693680000,22.2807780000 114.1690580000,22.2807330000 114.1687700000,22.2806980000 114.1685560000,22.2806330000 114.1684440000,22.2805710000 114.1683500000,22.2804700000 114.1683000000,22.2803680000 114.1682200000,22.2800200000 114.1681800000,22.2799200000 114.1681400000,22.2798500000 114.1680800000,22.2797700000 114.1679900000,22.2796900000 114.1678870000,22.2796300000 114.1677700000,22.2795900000 114.1676500000,22.2795700000 114.1670590000,22.2794910000 114.1665540000,22.2794390000 114.1661830000,22.2794620000 114.1659240000,22.2794830000 114.1657070000,22.2795330000 114.1655280000,22.2795920000 114.1653450000,22.2796690000 114.1649120000,22.2799240000 114.1642610000,22.2803460000 114.1639590000,22.2805550000 114.1633860000,22.2809860000 114.1631250000,22.2811370000 114.1629830000,22.2812030000 114.1627940000,22.2812940000 114.1624180000,22.2814300000 114.1621600000,22.2815060000 114.1619220000,22.2815780000 114.1617620000,22.2816260000 114.1614070000,22.2817270000 114.1612190000,22.2817730000 114.1610120000,22.2818360000 114.1606730000,22.2819250000 114.1604510000,22.2819800000 114.1590190000,22.2824470000 114.1587620000,22.2825410000 114.1585160000,22.2826490000 114.1583130000,22.2827810000 114.1581260000,22.2829270000 114.1579190000,22.2831270000 114.1577180000,22.2833390000 114.1575190000,22.2835720000 114.1571080000,22.2840700000 114.1566900000,22.2845970000 114.1565330000,22.2848090000 114.1563280000,22.2849810000 114.1562790000,22.2850330000 114.1562110000,22.2851110000 114.1561260000,22.2852120000 114.1560550000,22.2852910000 114.1560170000,22.2853340000 114.1559320000,22.2854240000 114.1557630000,22.2855460000 114.1551560000,22.2859080000 114.1550160000,22.2860100000 114.1544060000,22.2863470000 114.1541800000,22.2864760000 114.1538660000,22.2866500000 114.1537000000,22.2867220000 114.1536180000,22.2867580000 114.1534870000,22.2868010000 114.1531360000,22.2868940000 114.1526930000,22.2870120000 114.1522300000,22.2871200000 114.1514970000,22.2873210000 114.1506320000,22.2875640000 114.1503020000,22.2876310000 114.1500800000,22.2876730000 114.1495910000,22.2877900000 114.1487790000,22.2879980000 114.1481470000,22.2881600000 114.1481130000,22.2881610000 114.1480780000,22.2881490000 114.1480480000,22.2881320000 114.1479480000,22.2880620000 114.1475620000,22.2878060000 114.1472790000,22.2876130000 114.1472300000,22.2875980000 114.1468880000,22.2876330000 114.1458760000,22.2877340000 114.1453900000,22.2877730000 114.1452240000,22.2877820000 114.1448780000,22.2878020000 114.1444120000,22.2878120000 114.1441290000,22.2878200000 114.1438010000,22.2878300000 114.1434090000,22.2878370000 114.1430590000,22.2878460000 114.1427020000,22.2878590000 114.1423930000,22.2878690000 114.1419120000,22.2878880000 114.1415150000,22.2879050000 114.1412880000,22.2879130000 114.1408560000,22.2879360000 114.1407870000,22.2879290000 114.1403010000,22.2877970000 114.1394410000,22.2875640000 114.1388310000,22.2874000000 114.1387760000,22.2873850000 114.1385040000,22.2873090000 114.1376370000,22.2870760000 114.1375640000,22.2870560000 114.1375370000,22.2870480000 114.1374510000,22.2870250000 114.1370100000,22.2869070000 114.1365890000,22.2867940000 114.1365330000,22.2867810000 114.1361680000,22.2866860000 114.1361170000,22.2866790000 114.1360640000,22.2866830000 114.1359830000,22.2867000000 114.1357240000,22.2867530000 114.1356140000,22.2867770000 114.1354460000,22.2868140000 114.1353320000,22.2868380000 114.1350680000,22.2868960000 114.1341000000,22.2871100000 114.1333310000,22.2873020000 114.1331980000,22.2873140000 114.1331010000,22.2873090000 114.1330370000,22.2872990000 114.1329650000,22.2872800000 114.1328960000,22.2872540000 114.1328100000,22.2872120000 114.1327520000,22.2871790000 114.1326820000,22.2871270000 114.1326090000,22.2870430000 114.1325470000,22.2869340000 114.1324280000,22.2867010000 114.1319920000,22.2858790000 114.1320820000,22.2858390000 114.1324220000,22.2856880000 114.1324860000,22.2856570000 114.1322580000,22.2851140000 114.1321200000,22.2849070000 114.1320310000,22.2848010000 114.1319760000,22.2847460000 114.1314610000,22.2843270000 114.1312440000,22.2841480000 114.1311790000,22.2840990000 114.1308910000,22.2838650000 114.1302350000,22.2833310000 114.1301260000,22.2832420000 114.1300100000,22.2831550000 114.1297400000,22.2829520000 114.1295960000,22.2828700000 114.1294460000,22.2828230000 114.1292150000,22.2827640000 114.1290990000,22.2827440000 114.1290100000,22.2827280000 114.1283010000,22.2826040000 114.1282140000,22.2825900000 114.1281260000,22.2825760000 114.1280280000,22.2825600000 114.1272510000,22.2824370000 114.1270210000,22.2824000000 114.1269070000,22.2823810000 114.1268900000,22.2823790000 114.1266380000,22.2823420000 114.1262940000,22.2822910000 114.1261840000,22.2822740000 114.1260980000,22.2822720000 114.1260710000,22.2822750000 114.1260240000,22.2822740000 114.1259310000,22.2822710000 114.1254140000,22.2821880000 114.1252720000,22.2821650000 114.1247530000,22.2820890000 114.1240670000,22.2819750000 114.1233230000,22.2818510000 114.1232720000,22.2820140000 114.1232200000,22.2821800000 114.1232120000,22.2822090000 114.1231910000,22.2822440000 114.1231660000,22.2822710000 114.1231340000,22.2822910000 114.1230940000,22.2822990000 114.1230430000,22.2822970000 114.1230000000,22.2822880000 114.1229080000,22.2822540000 114.1223280000,22.2820600000 114.1221950000,22.2820160000 114.1205010000,22.2814620000 114.1202630000,22.2813960000</coordinates>
                </LineString>
                <ExtendedData>
                    <Data name="duration">
                        <value>01:59:16</value>
                    </Data>
                    <Data name="length">
                        <value>51178.49575678349</value>
                    </Data>
                </ExtendedData>
            </Placemark>
        </Document>
    </Document>
</kml>