<?xml version="1.0" encoding="UTF-8"?>
<kml xmlns="http://www.opengis.net/kml/2.2" xmlns:gx="http://www.google.com/kml/ext/2.2">
    <Document>
        <name>Route</name>
        <Folder>
            <name>Route Request</name>
            <Placemark>
                <Point>
                    <coordinates>114.1299515510,22.2620132466</coordinates>
                </Point>
                <ExtendedData>
                    <Data name="routingVisited">
                        <value>false</value>
                    </Data>
                </ExtendedData>
            </Placemark>
            <Placemark>
                <Point>
                    <coordinates>114.1372430566,22.2564807155</coordinates>
                </Point>
            </Placemark>
            <Placemark>
                <Point>
                    <coordinates>114.1394570921,22.2575871694</coordinates>
                </Point>
            </Placemark>
            <Placemark>
                <Point>
                    <coordinates>114.1366230006,22.2509806582</coordinates>
                </Point>
                <ExtendedData>
                    <Data name="routingVisited">
                        <value>false</value>
                    </Data>
                </ExtendedData>
            </Placemark>
            <Placemark>
                <Point>
                    <coordinates>114.1397520862,22.2515884228</coordinates>
                </Point>
            </Placemark>
            <Placemark>
                <Point>
                    <coordinates>114.1505577086,22.2513290572</coordinates>
                </Point>
                <ExtendedData>
                    <Data name="routingVisited">
                        <value>false</value>
                    </Data>
                </ExtendedData>
            </Placemark>
            <Placemark>
                <Point>
                    <coordinates>114.1548559840,22.2495892122</coordinates>
                </Point>
            </Placemark>
            <Placemark>
                <address>Ocean Park, Ocean Park Road, Wong Chuk Hang, Wong Chuk Hang San Wai, Southern District, Hong Kong, AIL 89, PRC</address>
                <Point>
                    <coordinates>114.1741737450,22.2475422425</coordinates>
                </Point>
                <ExtendedData>
                    <Data name="road">
                        <value>Ocean Park Road</value>
                    </Data>
                    <Data name="country">
                        <value>PRC</value>
                    </Data>
                    <Data name="postcode">
                        <value>AIL 89</value>
                    </Data>
                    <Data name="county">
                        <value>Southern District</value>
                    </Data>
                    <Data name="country_code">
                        <value>cn</value>
                    </Data>
                    <Data name="bus_stop">
                        <value>Ocean Park</value>
                    </Data>
                    <Data name="suburb">
                        <value>Wong Chuk Hang</value>
                    </Data>
                    <Data name="hamlet">
                        <value>Wong Chuk Hang San Wai</value>
                    </Data>
                </ExtendedData>
            </Placemark>
            <Placemark>
                <Point>
                    <coordinates>114.1705501780,22.2507561208</coordinates>
                </Point>
            </Placemark>
            <Placemark>
                <address>大坑道天橋 Tai Hang Road Flyover, Caroline Hill, Causeway Bay, Wan Chai District, Hong Kong, HYSAN PLACE 12F, China</address>
                <Point>
                    <coordinates>114.1871493636,22.2807395448</coordinates>
                </Point>
                <ExtendedData>
                    <Data name="road">
                        <value>大坑道天橋 Tai Hang Road Flyover</value>
                    </Data>
                    <Data name="country">
                        <value>China</value>
                    </Data>
                    <Data name="neighbourhood">
                        <value>Caroline Hill</value>
                    </Data>
                    <Data name="postcode">
                        <value>HYSAN PLACE 12F</value>
                    </Data>
                    <Data name="county">
                        <value>Wan Chai District</value>
                    </Data>
                    <Data name="country_code">
                        <value>cn</value>
                    </Data>
                    <Data name="suburb">
                        <value>Causeway Bay</value>
                    </Data>
                </ExtendedData>
            </Placemark>
            <Placemark>
                <Point>
                    <coordinates>114.2021728290,22.2927731804</coordinates>
                </Point>
            </Placemark>
            <Placemark>
                <address>King's Road, Kornhill, Sai Wan Ho, Eastern District, Hong Kong Island, Hong Kong, 000000, China</address>
                <Point>
                    <coordinates>114.2183813432,22.2850309550</coordinates>
                </Point>
                <ExtendedData>
                    <Data name="road">
                        <value>King's Road</value>
                    </Data>
                    <Data name="country">
                        <value>China</value>
                    </Data>
                    <Data name="postcode">
                        <value>000000</value>
                    </Data>
                    <Data name="state">
                        <value>Hong Kong</value>
                    </Data>
                    <Data name="quarter">
                        <value>Kornhill</value>
                    </Data>
                    <Data name="city">
                        <value>Hong Kong Island</value>
                    </Data>
                    <Data name="country_code">
                        <value>cn</value>
                    </Data>
                    <Data name="suburb">
                        <value>Sai Wan Ho</value>
                    </Data>
                    <Data name="city_district">
                        <value>Eastern District</value>
                    </Data>
                    <Data name="ISO3166-2-lvl3">
                        <value>CN-HK</value>
                    </Data>
                </ExtendedData>
            </Placemark>
            <Placemark>
                <address>Tin Chiu Street, Fortress Hill, North Point, Eastern District, Hong Kong, KINGSFIELD MANSION LEVEL B, China</address>
                <Point>
                    <coordinates>114.2249396462,22.2850718256</coordinates>
                </Point>
                <ExtendedData>
                    <Data name="road">
                        <value>Tin Chiu Street</value>
                    </Data>
                    <Data name="country">
                        <value>China</value>
                    </Data>
                    <Data name="neighbourhood">
                        <value>Fortress Hill</value>
                    </Data>
                    <Data name="postcode">
                        <value>KINGSFIELD MANSION LEVEL B</value>
                    </Data>
                    <Data name="county">
                        <value>Eastern District</value>
                    </Data>
                    <Data name="country_code">
                        <value>cn</value>
                    </Data>
                    <Data name="suburb">
                        <value>North Point</value>
                    </Data>
                    <Data name="routingVisited">
                        <value>false</value>
                    </Data>
                </ExtendedData>
            </Placemark>
            <Placemark>
                <Point>
                    <coordinates>114.2154730134,22.2846075644</coordinates>
                </Point>
            </Placemark>
            <Placemark>
                <address>Standard Chartered, King's Road, Fortress Hill, North Point, Eastern District, Hong Kong, KINGSFIELD MANSION LEVEL B, China</address>
                <Point>
                    <coordinates>114.1948845733,22.2897853037</coordinates>
                </Point>
                <ExtendedData>
                    <Data name="bank">
                        <value>Standard Chartered</value>
                    </Data>
                    <Data name="road">
                        <value>King's Road</value>
                    </Data>
                    <Data name="country">
                        <value>China</value>
                    </Data>
                    <Data name="neighbourhood">
                        <value>Fortress Hill</value>
                    </Data>
                    <Data name="postcode">
                        <value>KINGSFIELD MANSION LEVEL B</value>
                    </Data>
                    <Data name="county">
                        <value>Eastern District</value>
                    </Data>
                    <Data name="country_code">
                        <value>cn</value>
                    </Data>
                    <Data name="suburb">
                        <value>North Point</value>
                    </Data>
                </ExtendedData>
            </Placemark>
            <Placemark>
                <address>Shelter Street, Causeway Road, Caroline Hill, Causeway Bay, Wan Chai District, Hong Kong, HYSAN PLACE 12F, China</address>
                <Point>
                    <coordinates>114.1883079992,22.2796586128</coordinates>
                </Point>
                <ExtendedData>
                    <Data name="road">
                        <value>Causeway Road</value>
                    </Data>
                    <Data name="country">
                        <value>China</value>
                    </Data>
                    <Data name="neighbourhood">
                        <value>Caroline Hill</value>
                    </Data>
                    <Data name="postcode">
                        <value>HYSAN PLACE 12F</value>
                    </Data>
                    <Data name="county">
                        <value>Wan Chai District</value>
                    </Data>
                    <Data name="tram_stop">
                        <value>Shelter Street</value>
                    </Data>
                    <Data name="country_code">
                        <value>cn</value>
                    </Data>
                    <Data name="suburb">
                        <value>Causeway Bay</value>
                    </Data>
                </ExtendedData>
            </Placemark>
            <Placemark>
                <address>Ocean Park, Ocean Park Road, Wong Chuk Hang, Wong Chuk Hang San Wai, Southern District, Hong Kong, AIL 89, PRC</address>
                <Point>
                    <coordinates>114.1741737450,22.2475422425</coordinates>
                </Point>
                <ExtendedData>
                    <Data name="road">
                        <value>Ocean Park Road</value>
                    </Data>
                    <Data name="country">
                        <value>PRC</value>
                    </Data>
                    <Data name="postcode">
                        <value>AIL 89</value>
                    </Data>
                    <Data name="county">
                        <value>Southern District</value>
                    </Data>
                    <Data name="country_code">
                        <value>cn</value>
                    </Data>
                    <Data name="bus_stop">
                        <value>Ocean Park</value>
                    </Data>
                    <Data name="suburb">
                        <value>Wong Chuk Hang</value>
                    </Data>
                    <Data name="hamlet">
                        <value>Wong Chuk Hang San Wai</value>
                    </Data>
                </ExtendedData>
            </Placemark>
            <Placemark>
                <address>SKH Tin Wan Chi Nam Primary School, Tin Wan New Street, Tin Wan Estate, Tin Wan, Southern District, Hong Kong Island, Hong Kong, China</address>
                <Point>
                    <coordinates>114.1505577085,22.2513427176</coordinates>
                </Point>
                <ExtendedData>
                    <Data name="amenity">
                        <value>SKH Tin Wan Chi Nam Primary School</value>
                    </Data>
                    <Data name="road">
                        <value>Tin Wan New Street</value>
                    </Data>
                    <Data name="country">
                        <value>China</value>
                    </Data>
                    <Data name="state">
                        <value>Hong Kong</value>
                    </Data>
                    <Data name="city">
                        <value>Hong Kong Island</value>
                    </Data>
                    <Data name="country_code">
                        <value>cn</value>
                    </Data>
                    <Data name="residential">
                        <value>Tin Wan Estate</value>
                    </Data>
                    <Data name="suburb">
                        <value>Tin Wan</value>
                    </Data>
                    <Data name="city_district">
                        <value>Southern District</value>
                    </Data>
                    <Data name="ISO3166-2-lvl3">
                        <value>CN-HK</value>
                    </Data>
                </ExtendedData>
            </Placemark>
            <Placemark>
                <address>Tin Wan Praya Road, Tin Wan, Shui Choi Tin Village, Southern District, Hong Kong, AIL 83, China</address>
                <Point>
                    <coordinates>114.1461717851,22.2486967626</coordinates>
                </Point>
                <ExtendedData>
                    <Data name="road">
                        <value>Tin Wan Praya Road</value>
                    </Data>
                    <Data name="country">
                        <value>China</value>
                    </Data>
                    <Data name="postcode">
                        <value>AIL 83</value>
                    </Data>
                    <Data name="county">
                        <value>Southern District</value>
                    </Data>
                    <Data name="country_code">
                        <value>cn</value>
                    </Data>
                    <Data name="suburb">
                        <value>Tin Wan</value>
                    </Data>
                    <Data name="hamlet">
                        <value>Shui Choi Tin Village</value>
                    </Data>
                </ExtendedData>
            </Placemark>
            <Placemark>
                <address>Wah Fu Road, Kellett Bay, Shui Choi Tin Village, Southern District, Hong Kong Island, Hong Kong, China</address>
                <Point>
                    <coordinates>114.1357965520,22.2523672100</coordinates>
                </Point>
                <ExtendedData>
                    <Data name="road">
                        <value>Wah Fu Road</value>
                    </Data>
                    <Data name="country">
                        <value>China</value>
                    </Data>
                    <Data name="state">
                        <value>Hong Kong</value>
                    </Data>
                    <Data name="quarter">
                        <value>Kellett Bay</value>
                    </Data>
                    <Data name="city">
                        <value>Hong Kong Island</value>
                    </Data>
                    <Data name="country_code">
                        <value>cn</value>
                    </Data>
                    <Data name="hamlet">
                        <value>Shui Choi Tin Village</value>
                    </Data>
                    <Data name="city_district">
                        <value>Southern District</value>
                    </Data>
                    <Data name="ISO3166-2-lvl3">
                        <value>CN-HK</value>
                    </Data>
                </ExtendedData>
            </Placemark>
            <Placemark>
                <address>Chi Fu Landmark, Chi Fu Road, Pok Fu Lam, Southern District, Hong Kong Island, Hong Kong, China</address>
                <Point>
                    <coordinates>114.1394645411,22.2575461827</coordinates>
                </Point>
                <ExtendedData>
                    <Data name="road">
                        <value>Chi Fu Road</value>
                    </Data>
                    <Data name="country">
                        <value>China</value>
                    </Data>
                    <Data name="state">
                        <value>Hong Kong</value>
                    </Data>
                    <Data name="shop">
                        <value>Chi Fu Landmark</value>
                    </Data>
                    <Data name="city">
                        <value>Hong Kong Island</value>
                    </Data>
                    <Data name="country_code">
                        <value>cn</value>
                    </Data>
                    <Data name="suburb">
                        <value>Pok Fu Lam</value>
                    </Data>
                    <Data name="city_district">
                        <value>Southern District</value>
                    </Data>
                    <Data name="ISO3166-2-lvl3">
                        <value>CN-HK</value>
                    </Data>
                </ExtendedData>
            </Placemark>
            <Placemark>
                <address>Wah Kwai Estate, Tin Wan Praya Road, Telegraph Bay, Tin Wan, Shui Choi Tin Village, Southern District, Hong Kong, AIL 83, China</address>
                <Point>
                    <coordinates>114.1299515513,22.2619995862</coordinates>
                </Point>
                <ExtendedData>
                    <Data name="road">
                        <value>Tin Wan Praya Road</value>
                    </Data>
                    <Data name="country">
                        <value>China</value>
                    </Data>
                    <Data name="neighbourhood">
                        <value>Telegraph Bay</value>
                    </Data>
                    <Data name="postcode">
                        <value>AIL 83</value>
                    </Data>
                    <Data name="county">
                        <value>Southern District</value>
                    </Data>
                    <Data name="country_code">
                        <value>cn</value>
                    </Data>
                    <Data name="bus_station">
                        <value>Wah Kwai Estate</value>
                    </Data>
                    <Data name="suburb">
                        <value>Tin Wan</value>
                    </Data>
                    <Data name="hamlet">
                        <value>Shui Choi Tin Village</value>
                    </Data>
                    <Data name="routingVisited">
                        <value>false</value>
                    </Data>
                </ExtendedData>
            </Placemark>
        </Folder>
        <Document>
            <name>46.5 km; 01:12 h (OSRM)</name>
            <Placemark>
                <name>Route</name>
                <LineString>
                    <coordinates>114.1300170000,22.2615710000 114.1300170000,22.2615710000 114.1302430000,22.2615330000 114.1303670000,22.2614890000 114.1304380000,22.2614240000 114.1304730000,22.2613810000 114.1305360000,22.2613030000 114.1307930000,22.2611990000 114.1309400000,22.2611400000 114.1310260000,22.2611050000 114.1311220000,22.2610550000 114.1312400000,22.2609760000 114.1312780000,22.2609450000 114.1315740000,22.2607040000 114.1316290000,22.2606600000 114.1318560000,22.2604820000 114.1319820000,22.2603900000 114.1321120000,22.2602540000 114.1322160000,22.2601350000 114.1323850000,22.2599160000 114.1325020000,22.2597150000 114.1325350000,22.2596470000 114.1326290000,22.2594490000 114.1326490000,22.2594020000 114.1328030000,22.2590440000 114.1329190000,22.2587730000 114.1329490000,22.2586800000 114.1329900000,22.2585040000 114.1330240000,22.2583360000 114.1330290000,22.2582560000 114.1330340000,22.2581970000 114.1330370000,22.2580960000 114.1330370000,22.2579390000 114.1330330000,22.2578910000 114.1330150000,22.2577050000 114.1329760000,22.2575040000 114.1329200000,22.2572910000 114.1329150000,22.2572730000 114.1329060000,22.2572400000 114.1328930000,22.2571910000 114.1328000000,22.2569110000 114.1327390000,22.2567230000 114.1327180000,22.2566590000 114.1325310000,22.2560820000 114.1324360000,22.2558130000 114.1324130000,22.2557260000 114.1323060000,22.2553140000 114.1322040000,22.2547490000 114.1319970000,22.2538910000 114.1319750000,22.2537710000 114.1319650000,22.2536750000 114.1319670000,22.2535820000 114.1319790000,22.2534890000 114.1320050000,22.2533890000 114.1320450000,22.2532950000 114.1320960000,22.2532050000 114.1321500000,22.2531320000 114.1322080000,22.2530700000 114.1322800000,22.2530050000 114.1323540000,22.2529520000 114.1324360000,22.2529050000 114.1325310000,22.2528650000 114.1326370000,22.2528330000 114.1327280000,22.2528180000 114.1328260000,22.2528110000 114.1329100000,22.2528110000 114.1329890000,22.2528180000 114.1330600000,22.2528310000 114.1331570000,22.2528570000 114.1332560000,22.2528960000 114.1333330000,22.2529370000 114.1334180000,22.2529950000 114.1335060000,22.2530740000 114.1335750000,22.2531510000 114.1336330000,22.2532360000 114.1336820000,22.2533260000 114.1337160000,22.2534190000 114.1337380000,22.2535260000 114.1337510000,22.2536630000 114.1337340000,22.2543390000 114.1337330000,22.2544800000 114.1337280000,22.2547490000 114.1337140000,22.2554460000 114.1337140000,22.2558500000 114.1337120000,22.2560570000 114.1337120000,22.2561370000 114.1337180000,22.2562430000 114.1337280000,22.2563630000 114.1337850000,22.2564730000 114.1338450000,22.2565510000 114.1339170000,22.2566210000 114.1339790000,22.2566710000 114.1340230000,22.2567010000 114.1341800000,22.2567900000 114.1342180000,22.2566860000 114.1342680000,22.2566000000 114.1343590000,22.2564690000 114.1344840000,22.2563530000 114.1346550000,22.2562550000 114.1348100000,22.2562000000 114.1349150000,22.2561690000 114.1351940000,22.2561120000 114.1353670000,22.2560640000 114.1355080000,22.2560120000 114.1356460000,22.2559180000 114.1357700000,22.2557810000 114.1358700000,22.2556100000 114.1358960000,22.2555650000 114.1359400000,22.2554640000 114.1359750000,22.2553100000 114.1360480000,22.2551980000 114.1361390000,22.2550570000 114.1362090000,22.2549960000 114.1365620000,22.2546910000 114.1368630000,22.2544780000 114.1370040000,22.2543800000 114.1371840000,22.2542710000 114.1373710000,22.2541600000 114.1375020000,22.2540810000 114.1377300000,22.2538920000 114.1378310000,22.2538060000 114.1380200000,22.2536290000 114.1381460000,22.2535220000 114.1382030000,22.2534890000 114.1382800000,22.2534430000 114.1384110000,22.2533980000 114.1384880000,22.2533830000 114.1385790000,22.2533770000 114.1386570000,22.2533870000 114.1387370000,22.2534000000 114.1388550000,22.2534490000 114.1388790000,22.2534590000 114.1389570000,22.2535060000 114.1390250000,22.2535560000 114.1390490000,22.2535730000 114.1391220000,22.2536270000 114.1390370000,22.2537080000 114.1389800000,22.2537740000 114.1387610000,22.2540530000 114.1385770000,22.2542820000 114.1382960000,22.2546590000 114.1382590000,22.2547270000 114.1382540000,22.2547910000 114.1381080000,22.2550610000 114.1379660000,22.2553890000 114.1379540000,22.2554510000 114.1379330000,22.2555040000 114.1378960000,22.2555870000 114.1378430000,22.2556780000 114.1378050000,22.2557650000 114.1377410000,22.2559170000 114.1375670000,22.2563170000 114.1375330000,22.2564000000 114.1373860000,22.2564710000 114.1373570000,22.2564810000 114.1373260000,22.2564880000 114.1372940000,22.2564910000 114.1372690000,22.2564880000 114.1372460000,22.2564830000 114.1372430000,22.2564820000 114.1372240000,22.2564730000 114.1372020000,22.2564590000 114.1371830000,22.2564430000 114.1371650000,22.2564200000 114.1371530000,22.2563930000 114.1371460000,22.2563630000 114.1371450000,22.2563370000 114.1371510000,22.2562930000 114.1371640000,22.2562670000 114.1371830000,22.2562380000 114.1372100000,22.2562070000 114.1372420000,22.2561780000 114.1372730000,22.2561570000 114.1373090000,22.2561400000 114.1373760000,22.2561210000 114.1374230000,22.2561140000 114.1378020000,22.2560930000 114.1380360000,22.2560920000 114.1381090000,22.2560770000 114.1381880000,22.2560390000 114.1382610000,22.2559970000 114.1383020000,22.2559520000 114.1383410000,22.2559010000 114.1383710000,22.2558500000 114.1384010000,22.2557900000 114.1384240000,22.2557470000 114.1384530000,22.2556990000 114.1384860000,22.2556530000 114.1385120000,22.2556210000 114.1385410000,22.2555900000 114.1386610000,22.2554940000 114.1386960000,22.2554700000 114.1387310000,22.2554490000 114.1387690000,22.2554270000 114.1389760000,22.2553140000 114.1394740000,22.2551100000 114.1395210000,22.2550950000 114.1395640000,22.2550870000 114.1396090000,22.2550850000 114.1396620000,22.2550920000 114.1397130000,22.2551060000 114.1397470000,22.2551220000 114.1397850000,22.2551450000 114.1398210000,22.2551750000 114.1398480000,22.2552070000 114.1398730000,22.2552490000 114.1398900000,22.2552870000 114.1399000000,22.2553330000 114.1399030000,22.2553770000 114.1399000000,22.2554140000 114.1398410000,22.2556810000 114.1398010000,22.2558610000 114.1397920000,22.2559120000 114.1397870000,22.2559640000 114.1397870000,22.2560140000 114.1397930000,22.2560640000 114.1398030000,22.2561230000 114.1398900000,22.2566400000 114.1399210000,22.2568220000 114.1399260000,22.2568760000 114.1399230000,22.2569210000 114.1399140000,22.2569570000 114.1398980000,22.2569940000 114.1398760000,22.2570320000 114.1398450000,22.2570740000 114.1395210000,22.2574770000 114.1394410000,22.2575760000 114.1393110000,22.2577370000 114.1390710000,22.2580350000 114.1388240000,22.2583410000 114.1386640000,22.2585400000 114.1385090000,22.2587310000 114.1383990000,22.2588670000 114.1383670000,22.2589040000 114.1383350000,22.2589310000 114.1383040000,22.2589510000 114.1382740000,22.2589650000 114.1374830000,22.2591270000 114.1372530000,22.2591740000 114.1370430000,22.2592470000 114.1369390000,22.2593110000 114.1369590000,22.2593810000 114.1369540000,22.2594600000 114.1369350000,22.2594820000 114.1368520000,22.2595600000 114.1367960000,22.2595700000 114.1367500000,22.2595710000 114.1367250000,22.2595650000 114.1366930000,22.2595500000 114.1366290000,22.2594980000 114.1365930000,22.2591280000 114.1365880000,22.2588030000 114.1365870000,22.2586940000 114.1365770000,22.2581790000 114.1365800000,22.2580900000 114.1365850000,22.2580250000 114.1365980000,22.2579530000 114.1366170000,22.2578760000 114.1366400000,22.2578040000 114.1366690000,22.2577350000 114.1367060000,22.2576630000 114.1367440000,22.2575980000 114.1367860000,22.2575380000 114.1368300000,22.2574840000 114.1369080000,22.2574000000 114.1369990000,22.2573110000 114.1370230000,22.2572240000 114.1371860000,22.2570470000 114.1372800000,22.2569140000 114.1373130000,22.2568690000 114.1373540000,22.2568060000 114.1373760000,22.2567610000 114.1374160000,22.2566850000 114.1374540000,22.2566000000 114.1374660000,22.2565710000 114.1374820000,22.2565320000 114.1374940000,22.2565010000 114.1375330000,22.2564000000 114.1375670000,22.2563170000 114.1377410000,22.2559170000 114.1378050000,22.2557650000 114.1378430000,22.2556780000 114.1378960000,22.2555870000 114.1379330000,22.2555040000 114.1379540000,22.2554510000 114.1379660000,22.2553890000 114.1381080000,22.2550610000 114.1382540000,22.2547910000 114.1383120000,22.2547560000 114.1383620000,22.2546900000 114.1384600000,22.2545610000 114.1386250000,22.2543480000 114.1388270000,22.2541170000 114.1390780000,22.2538280000 114.1391440000,22.2537570000 114.1392070000,22.2537010000 114.1391220000,22.2536270000 114.1390490000,22.2535730000 114.1390250000,22.2535560000 114.1389570000,22.2535060000 114.1388790000,22.2534590000 114.1388550000,22.2534490000 114.1387370000,22.2534000000 114.1386570000,22.2533870000 114.1385790000,22.2533770000 114.1384880000,22.2533830000 114.1384110000,22.2533980000 114.1382800000,22.2534430000 114.1382030000,22.2534890000 114.1381460000,22.2535220000 114.1380200000,22.2536290000 114.1378310000,22.2538060000 114.1377300000,22.2538920000 114.1375020000,22.2540810000 114.1373710000,22.2541600000 114.1371840000,22.2542710000 114.1370040000,22.2543800000 114.1368630000,22.2544780000 114.1365620000,22.2546910000 114.1362190000,22.2542210000 114.1361120000,22.2542200000 114.1360370000,22.2542120000 114.1359680000,22.2541930000 114.1359030000,22.2541450000 114.1358340000,22.2540200000 114.1358360000,22.2536900000 114.1358350000,22.2536480000 114.1358250000,22.2536170000 114.1358120000,22.2534760000 114.1358170000,22.2533380000 114.1359380000,22.2531500000 114.1359530000,22.2531050000 114.1359630000,22.2530340000 114.1359600000,22.2528720000 114.1359590000,22.2527870000 114.1359510000,22.2524560000 114.1359450000,22.2522680000 114.1359770000,22.2521570000 114.1360820000,22.2519660000 114.1362060000,22.2517310000 114.1363290000,22.2514610000 114.1364420000,22.2512210000 114.1365030000,22.2510880000 114.1365540000,22.2510390000 114.1366120000,22.2509990000 114.1366290000,22.2509890000 114.1366830000,22.2509570000 114.1367650000,22.2509170000 114.1368430000,22.2508840000 114.1369080000,22.2508660000 114.1369740000,22.2508620000 114.1370600000,22.2508660000 114.1371540000,22.2508840000 114.1372380000,22.2509150000 114.1373030000,22.2509540000 114.1373660000,22.2510090000 114.1374080000,22.2510510000 114.1378570000,22.2515550000 114.1379750000,22.2516590000 114.1381070000,22.2517230000 114.1382370000,22.2517440000 114.1386170000,22.2517520000 114.1387410000,22.2517530000 114.1389740000,22.2517590000 114.1391670000,22.2517650000 114.1393390000,22.2517760000 114.1395280000,22.2518290000 114.1395320000,22.2517580000 114.1395820000,22.2516450000 114.1397570000,22.2516260000 114.1397990000,22.2516220000 114.1401060000,22.2515990000 114.1403710000,22.2515240000 114.1404660000,22.2514360000 114.1405010000,22.2512270000 114.1405220000,22.2510740000 114.1405580000,22.2508150000 114.1406320000,22.2506880000 114.1407730000,22.2504520000 114.1407910000,22.2501160000 114.1408260000,22.2499920000 114.1413200000,22.2494330000 114.1413550000,22.2493250000 114.1413470000,22.2492670000 114.1413260000,22.2492230000 114.1413010000,22.2492070000 114.1412800000,22.2491930000 114.1412250000,22.2491940000 114.1411670000,22.2492100000 114.1409980000,22.2492890000 114.1409740000,22.2492720000 114.1409340000,22.2492640000 114.1404810000,22.2493340000 114.1404190000,22.2493310000 114.1403780000,22.2493180000 114.1402720000,22.2492450000 114.1402390000,22.2492230000 114.1402820000,22.2491690000 114.1403570000,22.2490750000 114.1404090000,22.2490340000 114.1404770000,22.2490010000 114.1406620000,22.2489420000 114.1411050000,22.2488120000 114.1414400000,22.2487100000 114.1416170000,22.2486630000 114.1417760000,22.2486340000 114.1419800000,22.2486190000 114.1424360000,22.2486170000 114.1434130000,22.2485970000 114.1436960000,22.2485830000 114.1437430000,22.2485800000 114.1439110000,22.2485780000 114.1444460000,22.2486200000 114.1445170000,22.2486250000 114.1447390000,22.2486670000 114.1449090000,22.2486920000 114.1452080000,22.2487150000 114.1461620000,22.2488040000 114.1465660000,22.2488400000 114.1467190000,22.2488630000 114.1468030000,22.2488850000 114.1468710000,22.2489070000 114.1469520000,22.2489410000 114.1470500000,22.2490270000 114.1471050000,22.2490840000 114.1471690000,22.2491520000 114.1471830000,22.2492080000 114.1472060000,22.2492860000 114.1472410000,22.2494070000 114.1472690000,22.2495180000 114.1472960000,22.2496080000 114.1473050000,22.2496380000 114.1473890000,22.2497740000 114.1475000000,22.2497520000 114.1477880000,22.2496780000 114.1479040000,22.2496410000 114.1479800000,22.2496130000 114.1481220000,22.2495500000 114.1482130000,22.2495020000 114.1483210000,22.2494340000 114.1487910000,22.2491110000 114.1488470000,22.2491820000 114.1491050000,22.2495070000 114.1495770000,22.2500880000 114.1496840000,22.2502200000 114.1498120000,22.2503780000 114.1498990000,22.2504850000 114.1499360000,22.2505400000 114.1499610000,22.2505830000 114.1499820000,22.2506240000 114.1499970000,22.2506750000 114.1500040000,22.2507180000 114.1500050000,22.2507570000 114.1500030000,22.2507980000 114.1499940000,22.2508570000 114.1499490000,22.2509580000 114.1499490000,22.2509580000 114.1499160000,22.2509970000 114.1498710000,22.2510460000 114.1497930000,22.2511080000 114.1495910000,22.2512280000 114.1495100000,22.2512730000 114.1494700000,22.2512850000 114.1494140000,22.2512950000 114.1493680000,22.2512980000 114.1493110000,22.2512940000 114.1492650000,22.2512900000 114.1492330000,22.2512830000 114.1492020000,22.2512720000 114.1491660000,22.2512640000 114.1490950000,22.2512350000 114.1488380000,22.2511000000 114.1487900000,22.2510770000 114.1487440000,22.2510600000 114.1486920000,22.2510520000 114.1486380000,22.2510540000 114.1485940000,22.2510630000 114.1485510000,22.2510790000 114.1485090000,22.2510970000 114.1484700000,22.2511160000 114.1484090000,22.2511450000 114.1483560000,22.2511600000 114.1483030000,22.2511660000 114.1482500000,22.2511460000 114.1481060000,22.2510180000 114.1479880000,22.2509090000 114.1478790000,22.2508070000 114.1477820000,22.2506840000 114.1477760000,22.2506760000 114.1476990000,22.2505640000 114.1476240000,22.2504220000 114.1475210000,22.2501520000 114.1474290000,22.2498880000 114.1474180000,22.2498580000 114.1473890000,22.2497740000 114.1475000000,22.2497520000 114.1477880000,22.2496780000 114.1479040000,22.2496410000 114.1479800000,22.2496130000 114.1481220000,22.2495500000 114.1482130000,22.2495020000 114.1483210000,22.2494340000 114.1487910000,22.2491110000 114.1488780000,22.2490550000 114.1492510000,22.2488130000 114.1493050000,22.2487830000 114.1493630000,22.2487590000 114.1493960000,22.2487460000 114.1494510000,22.2487230000 114.1495290000,22.2486960000 114.1496080000,22.2486840000 114.1496580000,22.2486720000 114.1497150000,22.2486580000 114.1497570000,22.2486480000 114.1498810000,22.2486170000 114.1499450000,22.2486010000 114.1500190000,22.2485850000 114.1501620000,22.2485710000 114.1502940000,22.2485460000 114.1512710000,22.2483360000 114.1514950000,22.2482900000 114.1517780000,22.2482330000 114.1518290000,22.2482530000 114.1519580000,22.2483080000 114.1520010000,22.2483250000 114.1520290000,22.2483390000 114.1520850000,22.2483630000 114.1521530000,22.2483900000 114.1524740000,22.2485250000 114.1525480000,22.2485560000 114.1527600000,22.2486450000 114.1528700000,22.2486910000 114.1529520000,22.2487300000 114.1530410000,22.2487760000 114.1531020000,22.2488150000 114.1531520000,22.2488550000 114.1531930000,22.2488950000 114.1532250000,22.2489430000 114.1532550000,22.2490140000 114.1533520000,22.2494060000 114.1533890000,22.2495380000 114.1534510000,22.2496310000 114.1535420000,22.2496970000 114.1536520000,22.2497640000 114.1537350000,22.2497880000 114.1537950000,22.2497880000 114.1542250000,22.2497130000 114.1543020000,22.2497000000 114.1547270000,22.2496210000 114.1548580000,22.2495990000 114.1551980000,22.2495410000 114.1553510000,22.2495110000 114.1555280000,22.2494510000 114.1556150000,22.2494160000 114.1556340000,22.2494080000 114.1556830000,22.2493660000 114.1556930000,22.2492820000 114.1556960000,22.2492210000 114.1557080000,22.2490830000 114.1557150000,22.2490140000 114.1557210000,22.2488380000 114.1557360000,22.2485480000 114.1557450000,22.2484040000 114.1557490000,22.2483300000 114.1557780000,22.2482070000 114.1557910000,22.2480490000 114.1558100000,22.2477430000 114.1558220000,22.2476280000 114.1558290000,22.2475800000 114.1558460000,22.2475300000 114.1558560000,22.2475080000 114.1558670000,22.2474810000 114.1558720000,22.2474710000 114.1558810000,22.2474480000 114.1559120000,22.2473980000 114.1559400000,22.2473510000 114.1559670000,22.2473140000 114.1560730000,22.2472240000 114.1561210000,22.2471840000 114.1561790000,22.2471460000 114.1562580000,22.2471110000 114.1563500000,22.2470630000 114.1564560000,22.2470050000 114.1565970000,22.2469830000 114.1566900000,22.2469750000 114.1567750000,22.2469760000 114.1569190000,22.2469810000 114.1571050000,22.2470010000 114.1572010000,22.2470200000 114.1573510000,22.2470560000 114.1574090000,22.2470710000 114.1575050000,22.2471020000 114.1576060000,22.2471360000 114.1583710000,22.2474200000 114.1588000000,22.2475720000 114.1588620000,22.2476000000 114.1590070000,22.2476560000 114.1593200000,22.2477620000 114.1597010000,22.2479030000 114.1597540000,22.2479150000 114.1598380000,22.2479330000 114.1599600000,22.2479760000 114.1601460000,22.2480500000 114.1602500000,22.2480900000 114.1602780000,22.2481010000 114.1603540000,22.2481350000 114.1605270000,22.2482510000 114.1605500000,22.2482630000 114.1606150000,22.2482960000 114.1606920000,22.2483370000 114.1608540000,22.2484220000 114.1611890000,22.2485540000 114.1613640000,22.2486110000 114.1614400000,22.2486250000 114.1615350000,22.2486430000 114.1615660000,22.2486490000 114.1617330000,22.2486760000 114.1617500000,22.2486790000 114.1619530000,22.2486880000 114.1621080000,22.2486850000 114.1621460000,22.2486840000 114.1629360000,22.2485920000 114.1630580000,22.2485780000 114.1633510000,22.2485380000 114.1637150000,22.2484880000 114.1637960000,22.2484770000 114.1641180000,22.2484260000 114.1642800000,22.2484000000 114.1643530000,22.2483880000 114.1644330000,22.2483970000 114.1645000000,22.2483980000 114.1645360000,22.2483960000 114.1649270000,22.2483690000 114.1650650000,22.2483700000 114.1651690000,22.2483720000 114.1654780000,22.2484030000 114.1656620000,22.2484360000 114.1658240000,22.2484730000 114.1660280000,22.2485370000 114.1661500000,22.2485830000 114.1662050000,22.2486020000 114.1663980000,22.2486910000 114.1669170000,22.2489510000 114.1670810000,22.2490420000 114.1672600000,22.2491250000 114.1673250000,22.2491550000 114.1673900000,22.2491920000 114.1674290000,22.2492100000 114.1674760000,22.2492260000 114.1675310000,22.2492520000 114.1677890000,22.2493740000 114.1680260000,22.2494860000 114.1680880000,22.2495170000 114.1683750000,22.2496590000 114.1690450000,22.2499930000 114.1691970000,22.2500610000 114.1693290000,22.2501220000 114.1694100000,22.2501390000 114.1694770000,22.2501480000 114.1695740000,22.2501900000 114.1696880000,22.2502320000 114.1698570000,22.2502960000 114.1699640000,22.2503370000 114.1700250000,22.2503980000 114.1700830000,22.2504560000 114.1701310000,22.2504890000 114.1701600000,22.2505180000 114.1701910000,22.2505490000 114.1702200000,22.2505810000 114.1702600000,22.2506300000 114.1702930000,22.2506770000 114.1703440000,22.2507750000 114.1704100000,22.2509200000 114.1704300000,22.2509600000 114.1704600000,22.2510100000 114.1705000000,22.2510600000 114.1705500000,22.2511010000 114.1706000000,22.2511370000 114.1706500000,22.2511620000 114.1707530000,22.2511820000 114.1708600000,22.2511830000 114.1709120000,22.2511520000 114.1709370000,22.2511370000 114.1709590000,22.2511260000 114.1710030000,22.2511010000 114.1710300000,22.2510700000 114.1710910000,22.2510030000 114.1711220000,22.2509310000 114.1711340000,22.2508880000 114.1711100000,22.2508190000 114.1711100000,22.2507740000 114.1711020000,22.2505820000 114.1710850000,22.2501670000 114.1710810000,22.2498860000 114.1710760000,22.2496050000 114.1710650000,22.2493030000 114.1710630000,22.2492600000 114.1710590000,22.2492030000 114.1710550000,22.2491510000 114.1710470000,22.2490700000 114.1710440000,22.2489500000 114.1711110000,22.2488920000 114.1711410000,22.2488200000 114.1711520000,22.2487920000 114.1711700000,22.2487500000 114.1711880000,22.2487090000 114.1712070000,22.2486550000 114.1712340000,22.2486230000 114.1713160000,22.2485990000 114.1713330000,22.2485950000 114.1713640000,22.2485870000 114.1713940000,22.2485780000 114.1714640000,22.2485470000 114.1715310000,22.2485430000 114.1716240000,22.2485380000 114.1718770000,22.2485260000 114.1721590000,22.2485110000 114.1724940000,22.2484800000 114.1725810000,22.2484690000 114.1726620000,22.2484550000 114.1727410000,22.2484330000 114.1733550000,22.2482260000 114.1734320000,22.2482130000 114.1735750000,22.2481880000 114.1736050000,22.2481860000 114.1736340000,22.2481900000 114.1736620000,22.2482000000 114.1736800000,22.2482130000 114.1737000000,22.2482210000 114.1737220000,22.2482250000 114.1737500000,22.2482220000 114.1737760000,22.2482120000 114.1737960000,22.2481960000 114.1738100000,22.2481750000 114.1738180000,22.2481520000 114.1738180000,22.2481280000 114.1738090000,22.2481020000 114.1737920000,22.2480800000 114.1737690000,22.2480640000 114.1737410000,22.2480550000 114.1737110000,22.2480550000 114.1736830000,22.2480640000 114.1737030000,22.2480510000 114.1737190000,22.2480350000 114.1737320000,22.2480170000 114.1737420000,22.2479970000 114.1737570000,22.2479400000 114.1737660000,22.2478910000 114.1737670000,22.2478430000 114.1737750000,22.2468610000 114.1738080000,22.2465790000 114.1738120000,22.2465570000 114.1738250000,22.2465400000 114.1738540000,22.2464730000 114.1738530000,22.2464620000 114.1738610000,22.2463250000 114.1738480000,22.2461510000 114.1739240000,22.2461110000 114.1740040000,22.2461010000 114.1740760000,22.2461400000 114.1741010000,22.2462180000 114.1741020000,22.2464910000 114.1741040000,22.2467600000 114.1741160000,22.2475290000 114.1741360000,22.2475620000 114.1742640000,22.2477720000 114.1742970000,22.2478250000 114.1743930000,22.2479960000 114.1744270000,22.2480600000 114.1744370000,22.2481220000 114.1744400000,22.2481750000 114.1744300000,22.2482260000 114.1744080000,22.2482750000 114.1743750000,22.2483170000 114.1743320000,22.2483520000 114.1742830000,22.2483770000 114.1739500000,22.2482380000 114.1739140000,22.2482140000 114.1738790000,22.2481880000 114.1738470000,22.2481590000 114.1738180000,22.2481280000 114.1738090000,22.2481020000 114.1737920000,22.2480800000 114.1737690000,22.2480640000 114.1737410000,22.2480550000 114.1737110000,22.2480550000 114.1736830000,22.2480640000 114.1736600000,22.2480800000 114.1736430000,22.2481010000 114.1736220000,22.2481220000 114.1735970000,22.2481380000 114.1735690000,22.2481510000 114.1734280000,22.2482010000 114.1733550000,22.2482260000 114.1727410000,22.2484330000 114.1726620000,22.2484550000 114.1725810000,22.2484690000 114.1724940000,22.2484800000 114.1721590000,22.2485110000 114.1718770000,22.2485260000 114.1716240000,22.2485380000 114.1715310000,22.2485430000 114.1714640000,22.2485470000 114.1714030000,22.2485100000 114.1713750000,22.2485070000 114.1713510000,22.2485040000 114.1713200000,22.2484980000 114.1712300000,22.2485020000 114.1712100000,22.2484860000 114.1711760000,22.2484640000 114.1711370000,22.2484520000 114.1710950000,22.2484530000 114.1710600000,22.2484640000 114.1710310000,22.2484840000 114.1710080000,22.2485110000 114.1709950000,22.2485430000 114.1709930000,22.2485770000 114.1710010000,22.2486100000 114.1710190000,22.2486400000 114.1710460000,22.2486630000 114.1710490000,22.2487000000 114.1710530000,22.2487320000 114.1710510000,22.2487600000 114.1710340000,22.2488160000 114.1710150000,22.2488760000 114.1710440000,22.2489500000 114.1710470000,22.2490700000 114.1710550000,22.2491510000 114.1710590000,22.2492030000 114.1710630000,22.2492600000 114.1710650000,22.2493030000 114.1710760000,22.2496050000 114.1710810000,22.2498860000 114.1710850000,22.2501670000 114.1711020000,22.2505820000 114.1711100000,22.2507740000 114.1711100000,22.2508190000 114.1710690000,22.2508810000 114.1710530000,22.2509270000 114.1710290000,22.2509740000 114.1709900000,22.2510300000 114.1709500000,22.2510610000 114.1709100000,22.2510790000 114.1708500000,22.2511000000 114.1708000000,22.2511080000 114.1707500000,22.2511080000 114.1707050000,22.2511000000 114.1706600000,22.2510800000 114.1706200000,22.2510580000 114.1705800000,22.2510250000 114.1705450000,22.2509800000 114.1705200000,22.2509280000 114.1705100000,22.2508800000 114.1705100000,22.2508200000 114.1705200000,22.2507800000 114.1705330000,22.2507500000 114.1705400000,22.2507350000 114.1705800000,22.2506900000 114.1706220000,22.2506500000 114.1706700000,22.2506170000 114.1706960000,22.2506050000 114.1707470000,22.2505890000 114.1708090000,22.2505570000 114.1708640000,22.2505350000 114.1709710000,22.2505390000 114.1712300000,22.2505490000 114.1713550000,22.2505500000 114.1715300000,22.2505420000 114.1716580000,22.2505320000 114.1718190000,22.2505070000 114.1719570000,22.2504570000 114.1719960000,22.2504500000 114.1723150000,22.2503850000 114.1723780000,22.2503720000 114.1724990000,22.2503470000 114.1726150000,22.2503230000 114.1728290000,22.2502770000 114.1740470000,22.2500220000 114.1741470000,22.2500060000 114.1744890000,22.2499480000 114.1745760000,22.2499410000 114.1750070000,22.2499050000 114.1751600000,22.2498960000 114.1753250000,22.2498950000 114.1753940000,22.2498960000 114.1755570000,22.2499030000 114.1757290000,22.2499160000 114.1758800000,22.2499360000 114.1760220000,22.2499620000 114.1760840000,22.2499760000 114.1761860000,22.2500010000 114.1763430000,22.2500510000 114.1765050000,22.2501060000 114.1766710000,22.2501750000 114.1767850000,22.2502340000 114.1769080000,22.2502990000 114.1769680000,22.2503350000 114.1770160000,22.2503660000 114.1770570000,22.2503960000 114.1770950000,22.2504260000 114.1771280000,22.2505110000 114.1772830000,22.2506400000 114.1774210000,22.2507680000 114.1775460000,22.2508990000 114.1776520000,22.2510260000 114.1777490000,22.2511650000 114.1778550000,22.2513240000 114.1779680000,22.2514850000 114.1780040000,22.2515380000 114.1780390000,22.2515900000 114.1782310000,22.2518910000 114.1785930000,22.2524730000 114.1786850000,22.2526170000 114.1787110000,22.2526580000 114.1788030000,22.2528010000 114.1790350000,22.2531650000 114.1791240000,22.2533270000 114.1792610000,22.2535740000 114.1793690000,22.2537830000 114.1794600000,22.2539900000 114.1795500000,22.2542100000 114.1796300000,22.2544200000 114.1796800000,22.2545700000 114.1797300000,22.2547500000 114.1797660000,22.2549200000 114.1797900000,22.2551000000 114.1798100000,22.2552900000 114.1798200000,22.2554200000 114.1804190000,22.2697400000 114.1804200000,22.2700300000 114.1804100000,22.2703000000 114.1803900000,22.2705480000 114.1803770000,22.2706310000 114.1803610000,22.2707340000 114.1803260000,22.2709880000 114.1803110000,22.2710690000 114.1802970000,22.2711460000 114.1802440000,22.2713430000 114.1802380000,22.2713920000 114.1802320000,22.2714480000 114.1802250000,22.2715050000 114.1802010000,22.2715830000 114.1801400000,22.2717640000 114.1800710000,22.2719570000 114.1794830000,22.2735410000 114.1794490000,22.2736720000 114.1794210000,22.2738100000 114.1794140000,22.2740100000 114.1794250000,22.2741760000 114.1794370000,22.2743080000 114.1794680000,22.2744360000 114.1795100000,22.2745830000 114.1795570000,22.2746880000 114.1797060000,22.2749470000 114.1798050000,22.2750750000 114.1799140000,22.2751900000 114.1802720000,22.2755450000 114.1807610000,22.2760690000 114.1809280000,22.2763100000 114.1809390000,22.2763260000 114.1809600000,22.2763570000 114.1809790000,22.2763860000 114.1810460000,22.2765300000 114.1810460000,22.2766090000 114.1810460000,22.2766710000 114.1810590000,22.2767290000 114.1810760000,22.2768090000 114.1810840000,22.2768830000 114.1811080000,22.2771100000 114.1811200000,22.2775980000 114.1811380000,22.2777370000 114.1812100000,22.2789240000 114.1812170000,22.2790490000 114.1812190000,22.2791020000 114.1812180000,22.2791440000 114.1812080000,22.2791810000 114.1811860000,22.2792300000 114.1811830000,22.2792750000 114.1811590000,22.2794500000 114.1811140000,22.2795580000 114.1810910000,22.2796060000 114.1809900000,22.2798370000 114.1809620000,22.2799000000 114.1809190000,22.2799990000 114.1808410000,22.2801760000 114.1807490000,22.2803850000 114.1806940000,22.2805160000 114.1806350000,22.2806540000 114.1806010000,22.2807110000 114.1805830000,22.2807380000 114.1805630000,22.2807730000 114.1805510000,22.2808030000 114.1805240000,22.2808610000 114.1804410000,22.2809500000 114.1802070000,22.2811200000 114.1801760000,22.2811460000 114.1801350000,22.2811870000 114.1801030000,22.2812230000 114.1800750000,22.2812650000 114.1800440000,22.2813240000 114.1800140000,22.2814400000 114.1800220000,22.2815230000 114.1800300000,22.2815710000 114.1800420000,22.2816020000 114.1800800000,22.2816770000 114.1801350000,22.2817640000 114.1802160000,22.2818350000 114.1802810000,22.2818710000 114.1803390000,22.2818920000 114.1803780000,22.2819240000 114.1804110000,22.2819500000 114.1804800000,22.2819790000 114.1806280000,22.2820340000 114.1807760000,22.2820760000 114.1809360000,22.2821050000 114.1810680000,22.2821240000 114.1812100000,22.2821400000 114.1813560000,22.2821090000 114.1814960000,22.2820650000 114.1816110000,22.2820320000 114.1817260000,22.2819980000 114.1818980000,22.2819460000 114.1820740000,22.2819080000 114.1821660000,22.2818980000 114.1822440000,22.2818990000 114.1823330000,22.2819020000 114.1824040000,22.2819130000 114.1824850000,22.2819340000 114.1826300000,22.2819870000 114.1827130000,22.2820200000 114.1827980000,22.2820550000 114.1829230000,22.2820710000 114.1830180000,22.2821070000 114.1831550000,22.2821590000 114.1833640000,22.2822340000 114.1835080000,22.2822920000 114.1835630000,22.2823140000 114.1838660000,22.2824360000 114.1840860000,22.2825590000 114.1842650000,22.2826710000 114.1844800000,22.2828210000 114.1845510000,22.2828580000 114.1847280000,22.2829580000 114.1852190000,22.2833510000 114.1853990000,22.2834910000 114.1854520000,22.2835280000 114.1855110000,22.2835590000 114.1855760000,22.2835790000 114.1856400000,22.2835890000 114.1857000000,22.2835920000 114.1857680000,22.2835880000 114.1858430000,22.2835750000 114.1859080000,22.2835560000 114.1859600000,22.2835300000 114.1859990000,22.2835040000 114.1860300000,22.2834780000 114.1860660000,22.2834400000 114.1861200000,22.2833700000 114.1861600000,22.2832900000 114.1861780000,22.2832200000 114.1861830000,22.2831500000 114.1861620000,22.2830540000 114.1861670000,22.2829620000 114.1861810000,22.2828710000 114.1862000000,22.2827800000 114.1862720000,22.2825900000 114.1863400000,22.2824580000 114.1865020000,22.2820020000 114.1865510000,22.2818700000 114.1866110000,22.2817060000 114.1866860000,22.2814880000 114.1868310000,22.2811570000 114.1868860000,22.2810130000 114.1869080000,22.2809620000 114.1869380000,22.2808900000 114.1869640000,22.2808350000 114.1870150000,22.2807810000 114.1870430000,22.2807060000 114.1872160000,22.2802410000 114.1872730000,22.2801340000 114.1873190000,22.2800780000 114.1873750000,22.2800240000 114.1874280000,22.2799720000 114.1874460000,22.2799470000 114.1874660000,22.2798870000 114.1875110000,22.2797270000 114.1875300000,22.2796890000 114.1875620000,22.2796700000 114.1876000000,22.2796680000 114.1876480000,22.2796760000 114.1877320000,22.2797050000 114.1878220000,22.2797470000 114.1879630000,22.2798220000 114.1881040000,22.2799140000 114.1881360000,22.2799280000 114.1881710000,22.2799370000 114.1882000000,22.2799430000 114.1882610000,22.2799380000 114.1883320000,22.2799260000 114.1886080000,22.2801090000 114.1888300000,22.2802620000 114.1894050000,22.2806560000 114.1896180000,22.2808030000 114.1907300000,22.2815450000 114.1908350000,22.2816170000 114.1909610000,22.2817060000 114.1912010000,22.2818720000 114.1912280000,22.2818910000 114.1912890000,22.2819310000 114.1912600000,22.2819980000 114.1912580000,22.2820770000 114.1912390000,22.2824800000 114.1912380000,22.2825130000 114.1912340000,22.2826160000 114.1912320000,22.2826720000 114.1912310000,22.2826750000 114.1912210000,22.2829090000 114.1912180000,22.2829940000 114.1911980000,22.2833720000 114.1911740000,22.2837530000 114.1911600000,22.2839750000 114.1911480000,22.2841510000 114.1911370000,22.2843100000 114.1911270000,22.2843800000 114.1911140000,22.2844460000 114.1910980000,22.2844980000 114.1910300000,22.2846920000 114.1910010000,22.2847700000 114.1909730000,22.2848400000 114.1909220000,22.2849480000 114.1908430000,22.2850990000 114.1908210000,22.2851380000 114.1907780000,22.2852160000 114.1907860000,22.2852330000 114.1907810000,22.2852540000 114.1907650000,22.2852860000 114.1907360000,22.2853280000 114.1907190000,22.2853570000 114.1907090000,22.2853880000 114.1907070000,22.2854080000 114.1907090000,22.2854270000 114.1907230000,22.2854500000 114.1909330000,22.2855920000 114.1909780000,22.2856210000 114.1910630000,22.2856790000 114.1910790000,22.2856890000 114.1913500000,22.2858720000 114.1914040000,22.2859080000 114.1914310000,22.2859190000 114.1914760000,22.2859510000 114.1915150000,22.2859880000 114.1915440000,22.2860340000 114.1915590000,22.2860840000 114.1915600000,22.2861370000 114.1915280000,22.2866830000 114.1915220000,22.2867600000 114.1915280000,22.2868370000 114.1915470000,22.2869120000 114.1915770000,22.2869840000 114.1916140000,22.2870460000 114.1916730000,22.2871190000 114.1918540000,22.2873200000 114.1918710000,22.2873390000 114.1919360000,22.2874170000 114.1919990000,22.2874960000 114.1921490000,22.2876610000 114.1928140000,22.2883870000 114.1928470000,22.2884230000 114.1932230000,22.2888410000 114.1935690000,22.2892020000 114.1935820000,22.2892150000 114.1936850000,22.2893290000 114.1940390000,22.2897420000 114.1940690000,22.2897750000 114.1941280000,22.2898330000 114.1948160000,22.2906000000 114.1948400000,22.2906260000 114.1950170000,22.2908170000 114.1951340000,22.2909430000 114.1952500000,22.2910400000 114.1953390000,22.2910970000 114.1955040000,22.2911690000 114.1955250000,22.2911790000 114.1960580000,22.2914110000 114.1963320000,22.2915170000 114.1963580000,22.2915290000 114.1965580000,22.2915780000 114.1967070000,22.2916090000 114.1967440000,22.2916160000 114.1971080000,22.2916850000 114.1984160000,22.2919430000 114.1984600000,22.2919510000 114.1985700000,22.2919730000 114.1987650000,22.2920130000 114.1988570000,22.2920320000 114.1989210000,22.2920450000 114.1998850000,22.2922530000 114.1999400000,22.2922630000 114.2000440000,22.2922820000 114.2001400000,22.2923020000 114.2008440000,22.2924500000 114.2013000000,22.2925460000 114.2013940000,22.2925660000 114.2015150000,22.2925890000 114.2021850000,22.2927220000 114.2023880000,22.2927630000 114.2027040000,22.2928260000 114.2027600000,22.2928370000 114.2028370000,22.2928520000 114.2037650000,22.2930550000 114.2038670000,22.2930770000 114.2040090000,22.2931060000 114.2040940000,22.2931020000 114.2041260000,22.2930980000 114.2041660000,22.2930940000 114.2042730000,22.2930730000 114.2043390000,22.2930540000 114.2043960000,22.2930400000 114.2044240000,22.2930320000 114.2044470000,22.2930260000 114.2044750000,22.2930160000 114.2048000000,22.2929270000 114.2048470000,22.2929140000 114.2049510000,22.2928860000 114.2050520000,22.2928610000 114.2052970000,22.2928030000 114.2058490000,22.2926730000 114.2058950000,22.2926630000 114.2059610000,22.2926440000 114.2060510000,22.2926190000 114.2062100000,22.2925510000 114.2063730000,22.2925070000 114.2064940000,22.2924740000 114.2072060000,22.2922730000 114.2072410000,22.2922630000 114.2073230000,22.2922390000 114.2074540000,22.2921980000 114.2077060000,22.2921200000 114.2079130000,22.2920560000 114.2082680000,22.2919460000 114.2082950000,22.2919380000 114.2083200000,22.2919300000 114.2083490000,22.2919210000 114.2083640000,22.2919160000 114.2084430000,22.2918920000 114.2084960000,22.2918750000 114.2085760000,22.2918500000 114.2086760000,22.2918180000 114.2087900000,22.2917810000 114.2089870000,22.2917170000 114.2090310000,22.2917030000 114.2091120000,22.2916770000 114.2091170000,22.2916730000 114.2092060000,22.2915960000 114.2092740000,22.2915050000 114.2093040000,22.2914440000 114.2093250000,22.2913790000 114.2093340000,22.2913080000 114.2093340000,22.2912350000 114.2093270000,22.2911650000 114.2093130000,22.2911020000 114.2092600000,22.2909060000 114.2092460000,22.2908560000 114.2092320000,22.2907690000 114.2092410000,22.2906320000 114.2092840000,22.2905340000 114.2093340000,22.2904190000 114.2093980000,22.2902350000 114.2094930000,22.2899470000 114.2095350000,22.2898200000 114.2096180000,22.2895630000 114.2096450000,22.2894760000 114.2096710000,22.2893920000 114.2096790000,22.2893630000 114.2097850000,22.2890430000 114.2098990000,22.2887200000 114.2099850000,22.2884730000 114.2100990000,22.2881000000 114.2102430000,22.2876710000 114.2102500000,22.2876500000 114.2102600000,22.2876160000 114.2102690000,22.2875870000 114.2102780000,22.2875550000 114.2103080000,22.2874660000 114.2104320000,22.2870870000 114.2105270000,22.2868150000 114.2105580000,22.2867460000 114.2105640000,22.2867340000 114.2105760000,22.2867100000 114.2106090000,22.2866570000 114.2106530000,22.2865830000 114.2107150000,22.2864800000 114.2108730000,22.2862390000 114.2110340000,22.2859930000 114.2111150000,22.2858650000 114.2111360000,22.2858320000 114.2111870000,22.2857520000 114.2113210000,22.2855440000 114.2113460000,22.2854980000 114.2114280000,22.2853540000 114.2114810000,22.2852650000 114.2115260000,22.2852060000 114.2116720000,22.2850900000 114.2117680000,22.2850370000 114.2118790000,22.2849970000 114.2119370000,22.2849770000 114.2121640000,22.2848970000 114.2122930000,22.2848570000 114.2123180000,22.2848510000 114.2123760000,22.2848320000 114.2125620000,22.2847730000 114.2125910000,22.2847660000 114.2127110000,22.2847370000 114.2128970000,22.2847300000 114.2129370000,22.2847290000 114.2130720000,22.2847280000 114.2132730000,22.2847320000 114.2135540000,22.2847330000 114.2136670000,22.2847340000 114.2142410000,22.2847510000 114.2144420000,22.2847500000 114.2146170000,22.2847530000 114.2146900000,22.2847770000 114.2147390000,22.2847980000 114.2147880000,22.2848260000 114.2148290000,22.2848540000 114.2148660000,22.2848850000 114.2148980000,22.2849160000 114.2149170000,22.2849360000 114.2149260000,22.2849460000 114.2149430000,22.2849680000 114.2149470000,22.2849720000 114.2149650000,22.2849990000 114.2149850000,22.2850360000 114.2151070000,22.2853240000 114.2151430000,22.2853960000 114.2151860000,22.2854540000 114.2152400000,22.2855170000 114.2153090000,22.2855800000 114.2154190000,22.2856630000 114.2155300000,22.2857290000 114.2156110000,22.2857640000 114.2156890000,22.2857930000 114.2157840000,22.2858190000 114.2158650000,22.2858370000 114.2159440000,22.2858500000 114.2160350000,22.2858610000 114.2161430000,22.2858660000 114.2162780000,22.2858570000 114.2163480000,22.2858430000 114.2164350000,22.2858200000 114.2165140000,22.2857920000 114.2165920000,22.2857580000 114.2167230000,22.2856900000 114.2170030000,22.2855160000 114.2171440000,22.2854440000 114.2172430000,22.2853970000 114.2173370000,22.2853570000 114.2173540000,22.2853510000 114.2175780000,22.2852570000 114.2176310000,22.2852370000 114.2176410000,22.2852330000 114.2178070000,22.2851730000 114.2179570000,22.2851330000 114.2182640000,22.2850660000 114.2183840000,22.2850450000 114.2185780000,22.2850100000 114.2187810000,22.2849790000 114.2189420000,22.2849780000 114.2190210000,22.2849720000 114.2190980000,22.2849680000 114.2192360000,22.2849470000 114.2193910000,22.2849110000 114.2195190000,22.2848720000 114.2196560000,22.2848180000 114.2198190000,22.2847380000 114.2199030000,22.2846840000 114.2199810000,22.2846250000 114.2200420000,22.2845750000 114.2201230000,22.2844980000 114.2202410000,22.2843540000 114.2206620000,22.2838130000 114.2209860000,22.2834030000 114.2212450000,22.2830700000 114.2213170000,22.2829780000 114.2213770000,22.2830200000 114.2215850000,22.2831620000 114.2216600000,22.2832130000 114.2218290000,22.2833290000 114.2218720000,22.2833580000 114.2219410000,22.2834050000 114.2219920000,22.2834400000 114.2221230000,22.2835410000 114.2221380000,22.2835530000 114.2221560000,22.2835670000 114.2221720000,22.2835790000 114.2222160000,22.2836120000 114.2222670000,22.2836510000 114.2223560000,22.2837240000 114.2223700000,22.2837360000 114.2223890000,22.2837500000 114.2224780000,22.2838170000 114.2226060000,22.2839380000 114.2231380000,22.2844430000 114.2237840000,22.2850610000 114.2240400000,22.2853030000 114.2241030000,22.2853620000 114.2241900000,22.2854430000 114.2242630000,22.2855100000 114.2242980000,22.2854780000 114.2243400000,22.2854420000 114.2248400000,22.2849800000 114.2250140000,22.2848190000 114.2250140000,22.2847870000 114.2248820000,22.2846650000 114.2248120000,22.2845980000 114.2247150000,22.2845090000 114.2246300000,22.2844180000 114.2246180000,22.2844050000 114.2245920000,22.2843800000 114.2245470000,22.2843370000 114.2246000000,22.2842870000 114.2242920000,22.2839960000 114.2239530000,22.2836760000 114.2235520000,22.2833100000 114.2234700000,22.2832350000 114.2234210000,22.2831890000 114.2233600000,22.2831340000 114.2232320000,22.2830210000 114.2231990000,22.2829900000 114.2230870000,22.2828800000 114.2230710000,22.2828650000 114.2230630000,22.2828560000 114.2230500000,22.2828440000 114.2229740000,22.2827720000 114.2229100000,22.2827240000 114.2227960000,22.2826470000 114.2226230000,22.2825280000 114.2225770000,22.2824960000 114.2224410000,22.2823990000 114.2223970000,22.2823670000 114.2222020000,22.2822340000 114.2221620000,22.2822170000 114.2220490000,22.2821710000 114.2219780000,22.2821440000 114.2218900000,22.2821170000 114.2218650000,22.2821120000 114.2218180000,22.2821090000 114.2217610000,22.2821820000 114.2215420000,22.2824650000 114.2212900000,22.2827900000 114.2212030000,22.2828980000 114.2211280000,22.2829910000 114.2209590000,22.2832080000 114.2208720000,22.2833270000 114.2206720000,22.2835830000 114.2205490000,22.2837380000 114.2200900000,22.2843030000 114.2200800000,22.2843170000 114.2200130000,22.2843980000 114.2199520000,22.2844710000 114.2199080000,22.2845200000 114.2198680000,22.2845620000 114.2198140000,22.2846060000 114.2197520000,22.2846470000 114.2196810000,22.2846880000 114.2196080000,22.2847260000 114.2195070000,22.2847710000 114.2193900000,22.2848080000 114.2192710000,22.2848380000 114.2191350000,22.2848640000 114.2189620000,22.2848800000 114.2188380000,22.2848850000 114.2186930000,22.2848790000 114.2185050000,22.2848580000 114.2183270000,22.2848280000 114.2180130000,22.2847520000 114.2178720000,22.2847160000 114.2174830000,22.2846240000 114.2172680000,22.2845900000 114.2170510000,22.2845630000 114.2167690000,22.2845540000 114.2157680000,22.2845600000 114.2156560000,22.2845690000 114.2155520000,22.2845760000 114.2154710000,22.2845830000 114.2153420000,22.2845930000 114.2149420000,22.2846250000 114.2147470000,22.2846360000 114.2144610000,22.2846360000 114.2142890000,22.2846290000 114.2136740000,22.2846060000 114.2135550000,22.2846010000 114.2130270000,22.2845940000 114.2129870000,22.2845940000 114.2129300000,22.2845990000 114.2128000000,22.2846110000 114.2126900000,22.2846260000 114.2125430000,22.2846460000 114.2124270000,22.2846740000 114.2123310000,22.2847010000 114.2122800000,22.2847170000 114.2121840000,22.2847460000 114.2120790000,22.2847770000 114.2119570000,22.2848190000 114.2118510000,22.2848580000 114.2117960000,22.2848790000 114.2117070000,22.2849210000 114.2116350000,22.2849550000 114.2115690000,22.2849970000 114.2115200000,22.2850330000 114.2114750000,22.2850740000 114.2114250000,22.2851330000 114.2113790000,22.2851950000 114.2111410000,22.2855670000 114.2110610000,22.2856900000 114.2110400000,22.2857230000 114.2110140000,22.2857620000 114.2108180000,22.2860740000 114.2107710000,22.2861480000 114.2105260000,22.2865330000 114.2104800000,22.2866050000 114.2104470000,22.2866630000 114.2104350000,22.2866890000 114.2104290000,22.2867010000 114.2104000000,22.2867620000 114.2103130000,22.2870220000 114.2102970000,22.2870710000 114.2102600000,22.2871620000 114.2102330000,22.2872410000 114.2102120000,22.2873050000 114.2101400000,22.2875460000 114.2101270000,22.2875850000 114.2101170000,22.2876140000 114.2101080000,22.2876390000 114.2100960000,22.2876750000 114.2100300000,22.2878640000 114.2099700000,22.2880490000 114.2099350000,22.2881560000 114.2098500000,22.2884060000 114.2098400000,22.2884330000 114.2097480000,22.2886950000 114.2097240000,22.2887680000 114.2095520000,22.2893280000 114.2093600000,22.2898980000 114.2092590000,22.2901990000 114.2091910000,22.2903930000 114.2091480000,22.2905020000 114.2090960000,22.2906130000 114.2090470000,22.2907030000 114.2090160000,22.2907530000 114.2089830000,22.2908030000 114.2089670000,22.2908250000 114.2089110000,22.2908950000 114.2088700000,22.2909420000 114.2088300000,22.2909850000 114.2087920000,22.2910230000 114.2087190000,22.2910920000 114.2086440000,22.2911540000 114.2085780000,22.2912030000 114.2085130000,22.2912440000 114.2084420000,22.2912850000 114.2083580000,22.2913270000 114.2082580000,22.2913750000 114.2082170000,22.2913940000 114.2081820000,22.2914090000 114.2081390000,22.2914250000 114.2080520000,22.2914560000 114.2078710000,22.2915220000 114.2073340000,22.2917160000 114.2072860000,22.2917340000 114.2071610000,22.2917780000 114.2068080000,22.2919010000 114.2067540000,22.2919160000 114.2066850000,22.2919250000 114.2065100000,22.2919400000 114.2061150000,22.2919710000 114.2059010000,22.2919760000 114.2058780000,22.2919740000 114.2058380000,22.2919730000 114.2057680000,22.2919730000 114.2053830000,22.2919700000 114.2049910000,22.2919640000 114.2049430000,22.2919630000 114.2046920000,22.2919580000 114.2046400000,22.2919570000 114.2045120000,22.2919470000 114.2043640000,22.2919390000 114.2042950000,22.2919310000 114.2040150000,22.2918710000 114.2038270000,22.2918310000 114.2035030000,22.2917660000 114.2033670000,22.2917390000 114.2033410000,22.2917340000 114.2033240000,22.2917310000 114.2033040000,22.2917270000 114.2032910000,22.2917240000 114.2031770000,22.2917010000 114.2031080000,22.2916870000 114.2027420000,22.2916130000 114.2025740000,22.2915780000 114.2023540000,22.2915320000 114.2023230000,22.2915260000 114.2021560000,22.2914910000 114.2021070000,22.2914810000 114.2017780000,22.2914140000 114.2016760000,22.2913940000 114.2013020000,22.2913170000 114.2009440000,22.2912410000 114.2006030000,22.2911730000 114.2004610000,22.2911450000 114.2003230000,22.2911150000 114.1998350000,22.2910140000 114.1995200000,22.2909490000 114.1995030000,22.2909460000 114.1993870000,22.2909220000 114.1993660000,22.2909170000 114.1991330000,22.2908660000 114.1991220000,22.2908640000 114.1990180000,22.2908420000 114.1989490000,22.2908270000 114.1988950000,22.2908150000 114.1987320000,22.2907840000 114.1982720000,22.2906850000 114.1976010000,22.2905490000 114.1970670000,22.2904410000 114.1968590000,22.2904120000 114.1966180000,22.2903630000 114.1965740000,22.2903540000 114.1958210000,22.2902000000 114.1958000000,22.2901950000 114.1957510000,22.2901850000 114.1955490000,22.2901400000 114.1954640000,22.2901190000 114.1954350000,22.2901090000 114.1953600000,22.2900850000 114.1952220000,22.2900220000 114.1951230000,22.2899600000 114.1950440000,22.2899000000 114.1949620000,22.2898250000 114.1949120000,22.2897660000 114.1947570000,22.2895830000 114.1947000000,22.2895280000 114.1946360000,22.2894580000 114.1946050000,22.2894080000 114.1945520000,22.2893250000 114.1944580000,22.2892190000 114.1944490000,22.2892090000 114.1944390000,22.2891980000 114.1944310000,22.2891880000 114.1944220000,22.2891790000 114.1943110000,22.2890520000 114.1942340000,22.2889650000 114.1938690000,22.2885610000 114.1936620000,22.2883330000 114.1934520000,22.2880920000 114.1933680000,22.2879940000 114.1932260000,22.2878210000 114.1931440000,22.2877040000 114.1930900000,22.2875930000 114.1930560000,22.2875150000 114.1930250000,22.2874440000 114.1930080000,22.2873910000 114.1929920000,22.2873240000 114.1929780000,22.2872280000 114.1929710000,22.2871600000 114.1929670000,22.2870700000 114.1929680000,22.2870230000 114.1929650000,22.2869900000 114.1929670000,22.2869200000 114.1929810000,22.2868530000 114.1929890000,22.2866020000 114.1929910000,22.2865540000 114.1929920000,22.2864730000 114.1930010000,22.2862070000 114.1930060000,22.2859650000 114.1930080000,22.2858200000 114.1930070000,22.2855770000 114.1930010000,22.2854810000 114.1929890000,22.2853700000 114.1929770000,22.2853080000 114.1928810000,22.2847740000 114.1928040000,22.2843680000 114.1927660000,22.2841910000 114.1926440000,22.2836020000 114.1926200000,22.2835040000 114.1925970000,22.2834320000 114.1925410000,22.2832850000 114.1924650000,22.2831050000 114.1923930000,22.2829500000 114.1923570000,22.2828710000 114.1922150000,22.2825790000 114.1921440000,22.2824650000 114.1920560000,22.2823530000 114.1920140000,22.2823010000 114.1919750000,22.2822570000 114.1919140000,22.2821900000 114.1918890000,22.2821650000 114.1918560000,22.2821370000 114.1917750000,22.2820740000 114.1917060000,22.2820260000 114.1914710000,22.2818590000 114.1914570000,22.2818500000 114.1913330000,22.2817660000 114.1909050000,22.2814850000 114.1908100000,22.2814230000 114.1903820000,22.2811300000 114.1896480000,22.2806270000 114.1895030000,22.2805270000 114.1894430000,22.2804860000 114.1889260000,22.2801340000 114.1886970000,22.2799780000 114.1882770000,22.2796990000 114.1881330000,22.2796030000 114.1879860000,22.2795050000 114.1878300000,22.2794030000 114.1876680000,22.2792970000 114.1873360000,22.2791450000 114.1872690000,22.2790210000 114.1872290000,22.2789720000 114.1870950000,22.2788060000 114.1870360000,22.2787430000 114.1868840000,22.2785920000 114.1867550000,22.2784640000 114.1864490000,22.2781620000 114.1862270000,22.2779420000 114.1861410000,22.2778640000 114.1860680000,22.2777980000 114.1856940000,22.2774040000 114.1855020000,22.2772050000 114.1854710000,22.2771870000 114.1854420000,22.2771750000 114.1854170000,22.2771650000 114.1853500000,22.2771380000 114.1852850000,22.2771300000 114.1852150000,22.2771350000 114.1851850000,22.2771450000 114.1850660000,22.2771850000 114.1849380000,22.2772470000 114.1847980000,22.2773200000 114.1846050000,22.2774220000 114.1845360000,22.2774590000 114.1841430000,22.2776660000 114.1840350000,22.2777240000 114.1839010000,22.2777860000 114.1837810000,22.2778120000 114.1836580000,22.2777930000 114.1836000000,22.2777800000 114.1835170000,22.2777570000 114.1834620000,22.2777450000 114.1829150000,22.2773850000 114.1828620000,22.2773500000 114.1827770000,22.2772990000 114.1825700000,22.2771750000 114.1825260000,22.2771590000 114.1824620000,22.2771370000 114.1823440000,22.2770920000 114.1822050000,22.2770340000 114.1821890000,22.2770280000 114.1821690000,22.2769850000 114.1821280000,22.2769680000 114.1820870000,22.2769520000 114.1820400000,22.2769620000 114.1819820000,22.2769380000 114.1819350000,22.2769180000 114.1819010000,22.2768720000 114.1814400000,22.2766880000 114.1813090000,22.2766350000 114.1812440000,22.2764930000 114.1811810000,22.2763450000 114.1811070000,22.2761890000 114.1810760000,22.2761310000 114.1810520000,22.2760870000 114.1809510000,22.2759430000 114.1808860000,22.2758570000 114.1808230000,22.2757790000 114.1807550000,22.2757060000 114.1805800000,22.2755290000 114.1802440000,22.2751940000 114.1800730000,22.2750340000 114.1799480000,22.2749080000 114.1798500000,22.2747930000 114.1797740000,22.2746810000 114.1797230000,22.2746070000 114.1796080000,22.2743830000 114.1795610000,22.2742180000 114.1795460000,22.2739750000 114.1795510000,22.2738380000 114.1795640000,22.2737390000 114.1795760000,22.2736530000 114.1795990000,22.2735440000 114.1796290000,22.2735010000 114.1796670000,22.2734540000 114.1798000000,22.2731330000 114.1798810000,22.2729250000 114.1799880000,22.2726280000 114.1800730000,22.2724050000 114.1801360000,22.2722310000 114.1802190000,22.2720070000 114.1802750000,22.2718640000 114.1803180000,22.2717390000 114.1803970000,22.2714830000 114.1803850000,22.2714020000 114.1803760000,22.2713630000 114.1804400000,22.2711750000 114.1804790000,22.2710850000 114.1805070000,22.2710100000 114.1805270000,22.2709550000 114.1805880000,22.2707710000 114.1806150000,22.2706730000 114.1806350000,22.2706000000 114.1806900000,22.2703850000 114.1807300000,22.2702000000 114.1807580000,22.2700400000 114.1807820000,22.2698400000 114.1808020000,22.2696300000 114.1808090000,22.2694500000 114.1808070000,22.2692500000 114.1802400000,22.2556900000 114.1802180000,22.2553100000 114.1801900000,22.2550600000 114.1801600000,22.2548700000 114.1801200000,22.2546600000 114.1800880000,22.2545100000 114.1800480000,22.2543700000 114.1800200000,22.2542800000 114.1799800000,22.2541600000 114.1799400000,22.2540500000 114.1798900000,22.2539300000 114.1798420000,22.2538200000 114.1797820000,22.2536900000 114.1796790000,22.2534830000 114.1796200000,22.2533780000 114.1794750000,22.2531400000 114.1793910000,22.2530110000 114.1792820000,22.2528430000 114.1792340000,22.2527720000 114.1791430000,22.2526540000 114.1790090000,22.2524780000 114.1789830000,22.2524410000 114.1789020000,22.2523260000 114.1785050000,22.2517580000 114.1782830000,22.2514440000 114.1782430000,22.2513870000 114.1782100000,22.2513420000 114.1780790000,22.2511710000 114.1779300000,22.2509950000 114.1777730000,22.2508170000 114.1776520000,22.2506960000 114.1775590000,22.2506080000 114.1774340000,22.2504980000 114.1772550000,22.2503640000 114.1770660000,22.2502400000 114.1768470000,22.2501160000 114.1767140000,22.2500600000 114.1765820000,22.2500040000 114.1764220000,22.2499480000 114.1762060000,22.2499150000 114.1761160000,22.2498970000 114.1760150000,22.2498690000 114.1758030000,22.2498350000 114.1755620000,22.2498150000 114.1752860000,22.2498140000 114.1750010000,22.2498240000 114.1745950000,22.2498470000 114.1744950000,22.2498620000 114.1741340000,22.2499170000 114.1740430000,22.2499360000 114.1728140000,22.2501980000 114.1726090000,22.2502420000 114.1724650000,22.2502280000 114.1723380000,22.2502600000 114.1722840000,22.2502730000 114.1719850000,22.2503420000 114.1719410000,22.2503500000 114.1717820000,22.2503790000 114.1714570000,22.2504130000 114.1714060000,22.2503750000 114.1713670000,22.2503440000 114.1713370000,22.2503250000 114.1713010000,22.2502990000 114.1712530000,22.2502500000 114.1712150000,22.2501930000 114.1711900000,22.2501310000 114.1711770000,22.2500660000 114.1711620000,22.2497410000 114.1711500000,22.2494850000 114.1711410000,22.2493010000 114.1711350000,22.2492550000 114.1711020000,22.2492120000 114.1710550000,22.2491510000 114.1710470000,22.2490700000 114.1710440000,22.2489500000 114.1711110000,22.2488920000 114.1711410000,22.2488200000 114.1711520000,22.2487920000 114.1711700000,22.2487500000 114.1711880000,22.2487090000 114.1712070000,22.2486550000 114.1712340000,22.2486230000 114.1713160000,22.2485990000 114.1713330000,22.2485950000 114.1713640000,22.2485870000 114.1713940000,22.2485780000 114.1714640000,22.2485470000 114.1715310000,22.2485430000 114.1716240000,22.2485380000 114.1718770000,22.2485260000 114.1721590000,22.2485110000 114.1724940000,22.2484800000 114.1725810000,22.2484690000 114.1726620000,22.2484550000 114.1727410000,22.2484330000 114.1733550000,22.2482260000 114.1734320000,22.2482130000 114.1735750000,22.2481880000 114.1736050000,22.2481860000 114.1736340000,22.2481900000 114.1736620000,22.2482000000 114.1736800000,22.2482130000 114.1737000000,22.2482210000 114.1737220000,22.2482250000 114.1737500000,22.2482220000 114.1737760000,22.2482120000 114.1737960000,22.2481960000 114.1738100000,22.2481750000 114.1738180000,22.2481520000 114.1738180000,22.2481280000 114.1738090000,22.2481020000 114.1737920000,22.2480800000 114.1737690000,22.2480640000 114.1737410000,22.2480550000 114.1737110000,22.2480550000 114.1736830000,22.2480640000 114.1737030000,22.2480510000 114.1737190000,22.2480350000 114.1737320000,22.2480170000 114.1737420000,22.2479970000 114.1737570000,22.2479400000 114.1737660000,22.2478910000 114.1737670000,22.2478430000 114.1737750000,22.2468610000 114.1738080000,22.2465790000 114.1738120000,22.2465570000 114.1738250000,22.2465400000 114.1738540000,22.2464730000 114.1738530000,22.2464620000 114.1738610000,22.2463250000 114.1738480000,22.2461510000 114.1739240000,22.2461110000 114.1740040000,22.2461010000 114.1740760000,22.2461400000 114.1741010000,22.2462180000 114.1741020000,22.2464910000 114.1741040000,22.2467600000 114.1741160000,22.2475290000 114.1741360000,22.2475620000 114.1742640000,22.2477720000 114.1742970000,22.2478250000 114.1743930000,22.2479960000 114.1744270000,22.2480600000 114.1744370000,22.2481220000 114.1744400000,22.2481750000 114.1744300000,22.2482260000 114.1744080000,22.2482750000 114.1743750000,22.2483170000 114.1743320000,22.2483520000 114.1742830000,22.2483770000 114.1739500000,22.2482380000 114.1739140000,22.2482140000 114.1738790000,22.2481880000 114.1738470000,22.2481590000 114.1738180000,22.2481280000 114.1738090000,22.2481020000 114.1737920000,22.2480800000 114.1737690000,22.2480640000 114.1737410000,22.2480550000 114.1737110000,22.2480550000 114.1736830000,22.2480640000 114.1736600000,22.2480800000 114.1736430000,22.2481010000 114.1736220000,22.2481220000 114.1735970000,22.2481380000 114.1735690000,22.2481510000 114.1734280000,22.2482010000 114.1733550000,22.2482260000 114.1727410000,22.2484330000 114.1726620000,22.2484550000 114.1725810000,22.2484690000 114.1724940000,22.2484800000 114.1721590000,22.2485110000 114.1718770000,22.2485260000 114.1716240000,22.2485380000 114.1715310000,22.2485430000 114.1714640000,22.2485470000 114.1714030000,22.2485100000 114.1713750000,22.2485070000 114.1713510000,22.2485040000 114.1713200000,22.2484980000 114.1712300000,22.2485020000 114.1712100000,22.2484860000 114.1711760000,22.2484640000 114.1711370000,22.2484520000 114.1710950000,22.2484530000 114.1710600000,22.2484640000 114.1710310000,22.2484840000 114.1710080000,22.2485110000 114.1709950000,22.2485430000 114.1709930000,22.2485770000 114.1710010000,22.2486100000 114.1710190000,22.2486400000 114.1710460000,22.2486630000 114.1710490000,22.2487000000 114.1710530000,22.2487320000 114.1710510000,22.2487600000 114.1710340000,22.2488160000 114.1710150000,22.2488760000 114.1710440000,22.2489500000 114.1710470000,22.2490700000 114.1710550000,22.2491510000 114.1710040000,22.2492180000 114.1709760000,22.2492610000 114.1709770000,22.2493200000 114.1709790000,22.2493600000 114.1709840000,22.2494740000 114.1709910000,22.2500550000 114.1709820000,22.2501150000 114.1709610000,22.2501640000 114.1709200000,22.2502230000 114.1708650000,22.2502750000 114.1708010000,22.2503100000 114.1707550000,22.2503230000 114.1706810000,22.2503420000 114.1706040000,22.2503680000 114.1703590000,22.2503250000 114.1702070000,22.2502840000 114.1700780000,22.2502430000 114.1700000000,22.2502180000 114.1699110000,22.2501870000 114.1697340000,22.2501350000 114.1695340000,22.2500520000 114.1694700000,22.2500320000 114.1694030000,22.2500090000 114.1687230000,22.2496780000 114.1677090000,22.2491830000 114.1669950000,22.2488320000 114.1666140000,22.2486500000 114.1664850000,22.2485870000 114.1662300000,22.2484620000 114.1660710000,22.2484040000 114.1658990000,22.2483570000 114.1657200000,22.2483050000 114.1654920000,22.2482610000 114.1652610000,22.2482330000 114.1652080000,22.2482290000 114.1650780000,22.2482230000 114.1649200000,22.2482210000 114.1645270000,22.2482690000 114.1644740000,22.2482680000 114.1644100000,22.2482640000 114.1643490000,22.2482740000 114.1642680000,22.2482880000 114.1640890000,22.2483180000 114.1637820000,22.2483580000 114.1637020000,22.2483700000 114.1633490000,22.2484250000 114.1630580000,22.2484660000 114.1629330000,22.2484850000 114.1621560000,22.2485630000 114.1619990000,22.2485680000 114.1619120000,22.2485720000 114.1617370000,22.2485580000 114.1615640000,22.2485250000 114.1614880000,22.2485060000 114.1614050000,22.2484840000 114.1613020000,22.2484500000 114.1611840000,22.2484110000 114.1610270000,22.2483710000 114.1608740000,22.2483070000 114.1607260000,22.2482380000 114.1606350000,22.2481890000 114.1605770000,22.2481580000 114.1603800000,22.2480520000 114.1603140000,22.2480170000 114.1602870000,22.2480050000 114.1602030000,22.2479670000 114.1601150000,22.2479310000 114.1600160000,22.2478880000 114.1599040000,22.2478380000 114.1597970000,22.2478000000 114.1595500000,22.2477080000 114.1595210000,22.2476980000 114.1590050000,22.2475220000 114.1589170000,22.2474920000 114.1588380000,22.2474640000 114.1585910000,22.2473660000 114.1584720000,22.2473460000 114.1581800000,22.2472400000 114.1580330000,22.2471710000 114.1575520000,22.2469990000 114.1574450000,22.2469630000 114.1573960000,22.2469460000 114.1573130000,22.2469210000 114.1571310000,22.2468850000 114.1569170000,22.2468590000 114.1568210000,22.2468580000 114.1567040000,22.2468570000 114.1565800000,22.2468640000 114.1563630000,22.2469000000 114.1562700000,22.2469120000 114.1561920000,22.2469320000 114.1559250000,22.2470110000 114.1558890000,22.2470220000 114.1556370000,22.2470960000 114.1552700000,22.2472100000 114.1551430000,22.2472630000 114.1550750000,22.2472850000 114.1544870000,22.2474770000 114.1542140000,22.2475580000 114.1540390000,22.2475890000 114.1538640000,22.2476430000 114.1535470000,22.2477440000 114.1532260000,22.2478460000 114.1526940000,22.2479780000 114.1526020000,22.2479980000 114.1524070000,22.2480390000 114.1523300000,22.2480510000 114.1521800000,22.2480760000 114.1521540000,22.2480810000 114.1520670000,22.2480950000 114.1519360000,22.2481160000 114.1518110000,22.2481370000 114.1517640000,22.2481450000 114.1514710000,22.2481930000 114.1512320000,22.2482430000 114.1502850000,22.2484460000 114.1501730000,22.2484690000 114.1500380000,22.2484870000 114.1499360000,22.2484920000 114.1498870000,22.2484920000 114.1497610000,22.2484940000 114.1497280000,22.2484930000 114.1491350000,22.2484680000 114.1488100000,22.2485070000 114.1487540000,22.2484940000 114.1486940000,22.2484790000 114.1486450000,22.2484700000 114.1484160000,22.2484180000 114.1481850000,22.2483040000 114.1481480000,22.2482740000 114.1481150000,22.2482370000 114.1481100000,22.2482100000 114.1480980000,22.2481850000 114.1480770000,22.2481620000 114.1480520000,22.2481400000 114.1480110000,22.2481280000 114.1479790000,22.2481300000 114.1479530000,22.2481390000 114.1478710000,22.2481400000 114.1478260000,22.2481480000 114.1477880000,22.2481540000 114.1477290000,22.2481810000 114.1476080000,22.2482090000 114.1474790000,22.2482420000 114.1473880000,22.2482680000 114.1473170000,22.2483050000 114.1472560000,22.2483490000 114.1471930000,22.2484040000 114.1471520000,22.2484450000 114.1471090000,22.2485080000 114.1470790000,22.2485980000 114.1470660000,22.2486950000 114.1470710000,22.2487840000 114.1470870000,22.2488590000 114.1471280000,22.2489990000 114.1471690000,22.2491520000 114.1471830000,22.2492080000 114.1472060000,22.2492860000 114.1472410000,22.2494070000 114.1472690000,22.2495180000 114.1472960000,22.2496080000 114.1473050000,22.2496380000 114.1473890000,22.2497740000 114.1475000000,22.2497520000 114.1477880000,22.2496780000 114.1479040000,22.2496410000 114.1479800000,22.2496130000 114.1481220000,22.2495500000 114.1482130000,22.2495020000 114.1483210000,22.2494340000 114.1487910000,22.2491110000 114.1488470000,22.2491820000 114.1491050000,22.2495070000 114.1495770000,22.2500880000 114.1496840000,22.2502200000 114.1498120000,22.2503780000 114.1498990000,22.2504850000 114.1499360000,22.2505400000 114.1499610000,22.2505830000 114.1499820000,22.2506240000 114.1499970000,22.2506750000 114.1500040000,22.2507180000 114.1500050000,22.2507570000 114.1500030000,22.2507980000 114.1499940000,22.2508570000 114.1499490000,22.2509580000 114.1499490000,22.2509580000 114.1499160000,22.2509970000 114.1498710000,22.2510460000 114.1497930000,22.2511080000 114.1495910000,22.2512280000 114.1495100000,22.2512730000 114.1494700000,22.2512850000 114.1494140000,22.2512950000 114.1493680000,22.2512980000 114.1493110000,22.2512940000 114.1492650000,22.2512900000 114.1492330000,22.2512830000 114.1492020000,22.2512720000 114.1491660000,22.2512640000 114.1490950000,22.2512350000 114.1488380000,22.2511000000 114.1487900000,22.2510770000 114.1487440000,22.2510600000 114.1486920000,22.2510520000 114.1486380000,22.2510540000 114.1485940000,22.2510630000 114.1485510000,22.2510790000 114.1485090000,22.2510970000 114.1484700000,22.2511160000 114.1484090000,22.2511450000 114.1483560000,22.2511600000 114.1483030000,22.2511660000 114.1482500000,22.2511460000 114.1481060000,22.2510180000 114.1479880000,22.2509090000 114.1478790000,22.2508070000 114.1477820000,22.2506840000 114.1477760000,22.2506760000 114.1476990000,22.2505640000 114.1476240000,22.2504220000 114.1475210000,22.2501520000 114.1474290000,22.2498880000 114.1474180000,22.2498580000 114.1473890000,22.2497740000 114.1473050000,22.2496380000 114.1472960000,22.2496080000 114.1472690000,22.2495180000 114.1472410000,22.2494070000 114.1472060000,22.2492860000 114.1471830000,22.2492080000 114.1471690000,22.2491520000 114.1471280000,22.2489990000 114.1470870000,22.2488590000 114.1470710000,22.2487840000 114.1470660000,22.2486950000 114.1470790000,22.2485980000 114.1471090000,22.2485080000 114.1471520000,22.2484450000 114.1471930000,22.2484040000 114.1472560000,22.2483490000 114.1473170000,22.2483050000 114.1473880000,22.2482680000 114.1474790000,22.2482420000 114.1476080000,22.2482090000 114.1477290000,22.2481810000 114.1477890000,22.2481950000 114.1478100000,22.2482010000 114.1478420000,22.2482160000 114.1479050000,22.2482570000 114.1479160000,22.2482860000 114.1479330000,22.2483060000 114.1479270000,22.2483460000 114.1479270000,22.2483670000 114.1479130000,22.2484120000 114.1478460000,22.2484810000 114.1477840000,22.2485110000 114.1475980000,22.2485520000 114.1474860000,22.2485770000 114.1474090000,22.2485940000 114.1472880000,22.2486210000 114.1469560000,22.2486920000 114.1468610000,22.2487080000 114.1467140000,22.2487180000 114.1465860000,22.2487180000 114.1463510000,22.2487090000 114.1461720000,22.2487000000 114.1448190000,22.2486290000 114.1447280000,22.2486290000 114.1445170000,22.2486250000 114.1444460000,22.2486200000 114.1439110000,22.2485780000 114.1437430000,22.2485800000 114.1436960000,22.2485830000 114.1434130000,22.2485970000 114.1424360000,22.2486170000 114.1419800000,22.2486190000 114.1417760000,22.2486340000 114.1416170000,22.2486630000 114.1414400000,22.2487100000 114.1411050000,22.2488120000 114.1406620000,22.2489420000 114.1404770000,22.2490010000 114.1404090000,22.2490340000 114.1403570000,22.2490750000 114.1402820000,22.2491690000 114.1402390000,22.2492230000 114.1402720000,22.2492450000 114.1403780000,22.2493180000 114.1404190000,22.2493310000 114.1404810000,22.2493340000 114.1409340000,22.2492640000 114.1409740000,22.2492720000 114.1409980000,22.2492890000 114.1411670000,22.2492100000 114.1412250000,22.2491940000 114.1412800000,22.2491930000 114.1413010000,22.2492070000 114.1413260000,22.2492230000 114.1413470000,22.2492670000 114.1413550000,22.2493250000 114.1413200000,22.2494330000 114.1408260000,22.2499920000 114.1407910000,22.2501160000 114.1407730000,22.2504520000 114.1406320000,22.2506880000 114.1405580000,22.2508150000 114.1405220000,22.2510740000 114.1405010000,22.2512270000 114.1404660000,22.2514360000 114.1403710000,22.2515240000 114.1401060000,22.2515990000 114.1397990000,22.2516220000 114.1395820000,22.2516450000 114.1395320000,22.2517580000 114.1395280000,22.2518290000 114.1393390000,22.2517760000 114.1391670000,22.2517650000 114.1389740000,22.2517590000 114.1387410000,22.2517530000 114.1386170000,22.2517520000 114.1382370000,22.2517440000 114.1381070000,22.2517230000 114.1379750000,22.2516590000 114.1378570000,22.2515550000 114.1374080000,22.2510510000 114.1373660000,22.2510090000 114.1373030000,22.2509540000 114.1372380000,22.2509150000 114.1371540000,22.2508840000 114.1370600000,22.2508660000 114.1368700000,22.2507770000 114.1367170000,22.2506500000 114.1367270000,22.2499190000 114.1367050000,22.2498470000 114.1366910000,22.2498210000 114.1366710000,22.2497960000 114.1366440000,22.2497750000 114.1366220000,22.2497630000 114.1365950000,22.2497550000 114.1365620000,22.2497470000 114.1365290000,22.2497400000 114.1361240000,22.2497460000 114.1360920000,22.2497550000 114.1360140000,22.2497780000 114.1357740000,22.2499220000 114.1355890000,22.2500370000 114.1354460000,22.2501540000 114.1353410000,22.2502590000 114.1351140000,22.2505080000 114.1351060000,22.2505190000 114.1350610000,22.2505820000 114.1349720000,22.2507310000 114.1348930000,22.2509020000 114.1347650000,22.2511760000 114.1346510000,22.2514770000 114.1345890000,22.2517350000 114.1345540000,22.2518830000 114.1345640000,22.2519990000 114.1346130000,22.2521100000 114.1346800000,22.2521980000 114.1347560000,22.2522500000 114.1348160000,22.2522650000 114.1348750000,22.2522740000 114.1356880000,22.2522740000 114.1357780000,22.2522970000 114.1358260000,22.2523310000 114.1358430000,22.2523420000 114.1359010000,22.2524030000 114.1359510000,22.2524560000 114.1359590000,22.2527870000 114.1359600000,22.2528720000 114.1359630000,22.2530340000 114.1359530000,22.2531050000 114.1359380000,22.2531500000 114.1358170000,22.2533380000 114.1357350000,22.2534660000 114.1356780000,22.2535520000 114.1356380000,22.2535670000 114.1356040000,22.2535950000 114.1355820000,22.2536320000 114.1355760000,22.2536540000 114.1355840000,22.2537150000 114.1356080000,22.2537510000 114.1356280000,22.2537690000 114.1358340000,22.2540200000 114.1359030000,22.2541450000 114.1359680000,22.2541930000 114.1360370000,22.2542120000 114.1361120000,22.2542200000 114.1362190000,22.2542210000 114.1362720000,22.2542040000 114.1363320000,22.2541750000 114.1364420000,22.2540900000 114.1365010000,22.2540420000 114.1366080000,22.2539550000 114.1366820000,22.2538990000 114.1367560000,22.2538430000 114.1368300000,22.2537890000 114.1369460000,22.2537020000 114.1371470000,22.2535630000 114.1372220000,22.2534960000 114.1372640000,22.2534480000 114.1372830000,22.2534140000 114.1374580000,22.2536010000 114.1377300000,22.2538920000 114.1378310000,22.2538060000 114.1380200000,22.2536290000 114.1381460000,22.2535220000 114.1382030000,22.2534890000 114.1382800000,22.2534430000 114.1384110000,22.2533980000 114.1384880000,22.2533830000 114.1385790000,22.2533770000 114.1386570000,22.2533870000 114.1387370000,22.2534000000 114.1388550000,22.2534490000 114.1388790000,22.2534590000 114.1389570000,22.2535060000 114.1390250000,22.2535560000 114.1390490000,22.2535730000 114.1391220000,22.2536270000 114.1390370000,22.2537080000 114.1389800000,22.2537740000 114.1387610000,22.2540530000 114.1385770000,22.2542820000 114.1382960000,22.2546590000 114.1382590000,22.2547270000 114.1382540000,22.2547910000 114.1381080000,22.2550610000 114.1379660000,22.2553890000 114.1379540000,22.2554510000 114.1379330000,22.2555040000 114.1378960000,22.2555870000 114.1378430000,22.2556780000 114.1378050000,22.2557650000 114.1377410000,22.2559170000 114.1375670000,22.2563170000 114.1375330000,22.2564000000 114.1374940000,22.2565010000 114.1374820000,22.2565320000 114.1374660000,22.2565710000 114.1374540000,22.2566000000 114.1374160000,22.2566850000 114.1373760000,22.2567610000 114.1373540000,22.2568060000 114.1373130000,22.2568690000 114.1372800000,22.2569140000 114.1371860000,22.2570470000 114.1370230000,22.2572240000 114.1369290000,22.2572620000 114.1368140000,22.2573740000 114.1367530000,22.2574380000 114.1367150000,22.2574910000 114.1366770000,22.2575540000 114.1366410000,22.2576220000 114.1366040000,22.2577010000 114.1365740000,22.2577730000 114.1365500000,22.2578430000 114.1365320000,22.2579150000 114.1365170000,22.2579890000 114.1365090000,22.2580560000 114.1365050000,22.2581390000 114.1365140000,22.2586950000 114.1365180000,22.2591380000 114.1365350000,22.2593970000 114.1365460000,22.2595580000 114.1365500000,22.2596110000 114.1365450000,22.2596910000 114.1365390000,22.2597840000 114.1365250000,22.2598880000 114.1364990000,22.2600300000 114.1364060000,22.2600880000 114.1363800000,22.2600900000 114.1363490000,22.2600930000 114.1362540000,22.2600310000 114.1362320000,22.2600100000 114.1361550000,22.2599390000 114.1361170000,22.2598860000 114.1361070000,22.2598180000 114.1361110000,22.2597600000 114.1361490000,22.2596730000 114.1362020000,22.2596190000 114.1362630000,22.2595780000 114.1363300000,22.2595470000 114.1364010000,22.2595380000 114.1364830000,22.2595310000 114.1365310000,22.2595270000 114.1366440000,22.2595110000 114.1367150000,22.2594870000 114.1368010000,22.2594370000 114.1368670000,22.2593790000 114.1369390000,22.2593110000 114.1370430000,22.2592470000 114.1372530000,22.2591740000 114.1374830000,22.2591270000 114.1382740000,22.2589650000 114.1383040000,22.2589510000 114.1383350000,22.2589310000 114.1383670000,22.2589040000 114.1383990000,22.2588670000 114.1385090000,22.2587310000 114.1386640000,22.2585400000 114.1388240000,22.2583410000 114.1390710000,22.2580350000 114.1393110000,22.2577370000 114.1394650000,22.2575460000 114.1395210000,22.2574770000 114.1398450000,22.2570740000 114.1398760000,22.2570320000 114.1398980000,22.2569940000 114.1399140000,22.2569570000 114.1399230000,22.2569210000 114.1399260000,22.2568760000 114.1399210000,22.2568220000 114.1398900000,22.2566400000 114.1398030000,22.2561230000 114.1397930000,22.2560640000 114.1397870000,22.2560140000 114.1397870000,22.2559640000 114.1397920000,22.2559120000 114.1398010000,22.2558610000 114.1398410000,22.2556810000 114.1399000000,22.2554140000 114.1399030000,22.2553770000 114.1399000000,22.2553330000 114.1398900000,22.2552870000 114.1398730000,22.2552490000 114.1398480000,22.2552070000 114.1398210000,22.2551750000 114.1397850000,22.2551450000 114.1397470000,22.2551220000 114.1397130000,22.2551060000 114.1396620000,22.2550920000 114.1396090000,22.2550850000 114.1395640000,22.2550870000 114.1395210000,22.2550950000 114.1394740000,22.2551100000 114.1389760000,22.2553140000 114.1388140000,22.2553650000 114.1387440000,22.2553900000 114.1386470000,22.2554280000 114.1386150000,22.2554430000 114.1385870000,22.2554600000 114.1385570000,22.2554840000 114.1385400000,22.2554550000 114.1385200000,22.2554300000 114.1384920000,22.2554070000 114.1384570000,22.2553910000 114.1384210000,22.2553830000 114.1383840000,22.2553830000 114.1383520000,22.2553890000 114.1383280000,22.2553990000 114.1383070000,22.2554150000 114.1382920000,22.2554340000 114.1382800000,22.2554610000 114.1382720000,22.2554940000 114.1382450000,22.2556650000 114.1382390000,22.2556950000 114.1382250000,22.2557350000 114.1382090000,22.2557700000 114.1381870000,22.2558070000 114.1381610000,22.2558400000 114.1381310000,22.2558700000 114.1381020000,22.2558930000 114.1380700000,22.2559110000 114.1380440000,22.2559210000 114.1380170000,22.2559260000 114.1379590000,22.2559100000 114.1379040000,22.2558660000 114.1378840000,22.2558390000 114.1378050000,22.2557650000 114.1378430000,22.2556780000 114.1378960000,22.2555870000 114.1379330000,22.2555040000 114.1379540000,22.2554510000 114.1379660000,22.2553890000 114.1381080000,22.2550610000 114.1382540000,22.2547910000 114.1383120000,22.2547560000 114.1383620000,22.2546900000 114.1384600000,22.2545610000 114.1386250000,22.2543480000 114.1388270000,22.2541170000 114.1390780000,22.2538280000 114.1391440000,22.2537570000 114.1392070000,22.2537010000 114.1391220000,22.2536270000 114.1390490000,22.2535730000 114.1390250000,22.2535560000 114.1389570000,22.2535060000 114.1388790000,22.2534590000 114.1388550000,22.2534490000 114.1387370000,22.2534000000 114.1386570000,22.2533870000 114.1385790000,22.2533770000 114.1384880000,22.2533830000 114.1384110000,22.2533980000 114.1382800000,22.2534430000 114.1382030000,22.2534890000 114.1381460000,22.2535220000 114.1380200000,22.2536290000 114.1378310000,22.2538060000 114.1377300000,22.2538920000 114.1375020000,22.2540810000 114.1373710000,22.2541600000 114.1371840000,22.2542710000 114.1370040000,22.2543800000 114.1368630000,22.2544780000 114.1365620000,22.2546910000 114.1362090000,22.2549960000 114.1361390000,22.2550570000 114.1360480000,22.2551980000 114.1359750000,22.2553100000 114.1359400000,22.2554640000 114.1358960000,22.2555650000 114.1358700000,22.2556100000 114.1357700000,22.2557810000 114.1356460000,22.2559180000 114.1355080000,22.2560120000 114.1353670000,22.2560640000 114.1351940000,22.2561120000 114.1349150000,22.2561690000 114.1348100000,22.2562000000 114.1346550000,22.2562550000 114.1344840000,22.2563530000 114.1343590000,22.2564690000 114.1342680000,22.2566000000 114.1342180000,22.2566860000 114.1341160000,22.2566380000 114.1340640000,22.2566120000 114.1340070000,22.2565800000 114.1339330000,22.2565190000 114.1338660000,22.2564450000 114.1338070000,22.2563490000 114.1337180000,22.2562430000 114.1337120000,22.2561370000 114.1337120000,22.2560570000 114.1337140000,22.2558500000 114.1337140000,22.2554460000 114.1337280000,22.2547490000 114.1337330000,22.2544800000 114.1337340000,22.2543390000 114.1337510000,22.2536630000 114.1337380000,22.2535260000 114.1337160000,22.2534190000 114.1336820000,22.2533260000 114.1336330000,22.2532360000 114.1335750000,22.2531510000 114.1335060000,22.2530740000 114.1334180000,22.2529950000 114.1333330000,22.2529370000 114.1332560000,22.2528960000 114.1331570000,22.2528570000 114.1330600000,22.2528310000 114.1329890000,22.2528180000 114.1329100000,22.2528110000 114.1328260000,22.2528110000 114.1327280000,22.2528180000 114.1326370000,22.2528330000 114.1325310000,22.2528650000 114.1324360000,22.2529050000 114.1323540000,22.2529520000 114.1322800000,22.2530050000 114.1322080000,22.2530700000 114.1321500000,22.2531320000 114.1320960000,22.2532050000 114.1320450000,22.2532950000 114.1320050000,22.2533890000 114.1319790000,22.2534890000 114.1319670000,22.2535820000 114.1319650000,22.2536750000 114.1319750000,22.2537710000 114.1319970000,22.2538910000 114.1322040000,22.2547490000 114.1323060000,22.2553140000 114.1324130000,22.2557260000 114.1324360000,22.2558130000 114.1325310000,22.2560820000 114.1327180000,22.2566590000 114.1327390000,22.2567230000 114.1328000000,22.2569110000 114.1328930000,22.2571910000 114.1329060000,22.2572400000 114.1329150000,22.2572730000 114.1329200000,22.2572910000 114.1329760000,22.2575040000 114.1330150000,22.2577050000 114.1330330000,22.2578910000 114.1330370000,22.2579390000 114.1330370000,22.2580960000 114.1330340000,22.2581970000 114.1330290000,22.2582560000 114.1330240000,22.2583360000 114.1329900000,22.2585040000 114.1329490000,22.2586800000 114.1329190000,22.2587730000 114.1328030000,22.2590440000 114.1326490000,22.2594020000 114.1326290000,22.2594490000 114.1325350000,22.2596470000 114.1325020000,22.2597150000 114.1323850000,22.2599160000 114.1322160000,22.2601350000 114.1321120000,22.2602540000 114.1319820000,22.2603900000 114.1318560000,22.2604820000 114.1316290000,22.2606600000 114.1315740000,22.2607040000 114.1312780000,22.2609450000 114.1312400000,22.2609760000 114.1311220000,22.2610550000 114.1310260000,22.2611050000 114.1309400000,22.2611400000 114.1307930000,22.2611990000 114.1305360000,22.2613030000 114.1303710000,22.2613570000 114.1300350000,22.2614240000 114.1297070000,22.2614760000 114.1297650000,22.2614990000 114.1298630000,22.2615390000 114.1299410000,22.2615610000 114.1300170000,22.2615710000</coordinates>
                </LineString>
                <ExtendedData>
                    <Data name="duration">
                        <value>01:12:17</value>
                    </Data>
                    <Data name="length">
                        <value>46499.88332136313</value>
                    </Data>
                </ExtendedData>
            </Placemark>
        </Document>
    </Document>
</kml>