<?xml version="1.0" encoding="UTF-8"?>
<kml xmlns="http://www.opengis.net/kml/2.2" xmlns:gx="http://www.google.com/kml/ext/2.2">
    <Document>
        <name>Route</name>
        <Folder>
            <name>Route Request</name>
            <Placemark>
                <address>Central (Macau Ferry), Connaught Road West, Tai Ping Shan, Sheung Wan, Central and Western District, Hong Kong Island, Hong Kong, China</address>
                <Point>
                    <coordinates>114.1498248282,22.2886689600</coordinates>
                </Point>
                <ExtendedData>
                    <Data name="suburb">
                        <value>Sheung Wan</value>
                    </Data>
                    <Data name="city_district">
                        <value>Central and Western District</value>
                    </Data>
                    <Data name="city">
                        <value>Hong Kong Island</value>
                    </Data>
                    <Data name="state">
                        <value>Hong Kong</value>
                    </Data>
                    <Data name="neighbourhood">
                        <value>Tai Ping Shan</value>
                    </Data>
                    <Data name="country">
                        <value>China</value>
                    </Data>
                    <Data name="road">
                        <value>Connaught Road West</value>
                    </Data>
                    <Data name="country_code">
                        <value>cn</value>
                    </Data>
                    <Data name="amenity">
                        <value>Central (Macau Ferry)</value>
                    </Data>
                    <Data name="ISO3166-2-lvl3">
                        <value>CN-HK</value>
                    </Data>
                </ExtendedData>
            </Placemark>
            <Placemark>
                <address>Harbour Building, 38, Pier Road, SoHo, Sheung Wan, Central and Western District, Hong Kong Island, Hong Kong, China</address>
                <Point>
                    <coordinates>114.1550503020,22.2867728852</coordinates>
                </Point>
                <ExtendedData>
                    <Data name="house_number">
                        <value>38</value>
                    </Data>
                    <Data name="suburb">
                        <value>Sheung Wan</value>
                    </Data>
                    <Data name="building">
                        <value>Harbour Building</value>
                    </Data>
                    <Data name="city_district">
                        <value>Central and Western District</value>
                    </Data>
                    <Data name="city">
                        <value>Hong Kong Island</value>
                    </Data>
                    <Data name="state">
                        <value>Hong Kong</value>
                    </Data>
                    <Data name="neighbourhood">
                        <value>SoHo</value>
                    </Data>
                    <Data name="country">
                        <value>China</value>
                    </Data>
                    <Data name="road">
                        <value>Pier Road</value>
                    </Data>
                    <Data name="country_code">
                        <value>cn</value>
                    </Data>
                    <Data name="ISO3166-2-lvl3">
                        <value>CN-HK</value>
                    </Data>
                </ExtendedData>
            </Placemark>
            <Placemark>
                <address>Lung Wui Road, Tamar, Admiralty, Central and Western District, Hong Kong Island, Hong Kong, 000000, China</address>
                <Point>
                    <coordinates>114.1674278995,22.2810402686</coordinates>
                </Point>
                <ExtendedData>
                    <Data name="suburb">
                        <value>Admiralty</value>
                    </Data>
                    <Data name="city_district">
                        <value>Central and Western District</value>
                    </Data>
                    <Data name="city">
                        <value>Hong Kong Island</value>
                    </Data>
                    <Data name="state">
                        <value>Hong Kong</value>
                    </Data>
                    <Data name="neighbourhood">
                        <value>Tamar</value>
                    </Data>
                    <Data name="postcode">
                        <value>000000</value>
                    </Data>
                    <Data name="country">
                        <value>China</value>
                    </Data>
                    <Data name="road">
                        <value>Lung Wui Road</value>
                    </Data>
                    <Data name="country_code">
                        <value>cn</value>
                    </Data>
                    <Data name="ISO3166-2-lvl3">
                        <value>CN-HK</value>
                    </Data>
                </ExtendedData>
            </Placemark>
            <Placemark>
                <address>Hung Hing Road, Wan Chai North, Wan Chai, Wan Chai District, Hong Kong Island, Hong Kong, 000000, China</address>
                <Point>
                    <coordinates>114.1776218841,22.2823510478</coordinates>
                </Point>
                <ExtendedData>
                    <Data name="suburb">
                        <value>Wan Chai</value>
                    </Data>
                    <Data name="city_district">
                        <value>Wan Chai District</value>
                    </Data>
                    <Data name="city">
                        <value>Hong Kong Island</value>
                    </Data>
                    <Data name="state">
                        <value>Hong Kong</value>
                    </Data>
                    <Data name="postcode">
                        <value>000000</value>
                    </Data>
                    <Data name="country">
                        <value>China</value>
                    </Data>
                    <Data name="quarter">
                        <value>Wan Chai North</value>
                    </Data>
                    <Data name="road">
                        <value>Hung Hing Road</value>
                    </Data>
                    <Data name="country_code">
                        <value>cn</value>
                    </Data>
                    <Data name="ISO3166-2-lvl3">
                        <value>CN-HK</value>
                    </Data>
                </ExtendedData>
            </Placemark>
            <Placemark>
                <address>太古城中心三座 Cityplaza 3, 14, Taikoo Wan Road, Kornhill, Quarry Bay, Eastern District, Hong Kong Island, Hong Kong, 000000, China</address>
                <Point>
                    <coordinates>114.2173992942,22.2875319108</coordinates>
                </Point>
                <ExtendedData>
                    <Data name="house_number">
                        <value>14</value>
                    </Data>
                    <Data name="suburb">
                        <value>Quarry Bay</value>
                    </Data>
                    <Data name="building">
                        <value>太古城中心三座 Cityplaza 3</value>
                    </Data>
                    <Data name="city_district">
                        <value>Eastern District</value>
                    </Data>
                    <Data name="city">
                        <value>Hong Kong Island</value>
                    </Data>
                    <Data name="state">
                        <value>Hong Kong</value>
                    </Data>
                    <Data name="postcode">
                        <value>000000</value>
                    </Data>
                    <Data name="country">
                        <value>China</value>
                    </Data>
                    <Data name="quarter">
                        <value>Kornhill</value>
                    </Data>
                    <Data name="road">
                        <value>Taikoo Wan Road</value>
                    </Data>
                    <Data name="country_code">
                        <value>cn</value>
                    </Data>
                    <Data name="ISO3166-2-lvl3">
                        <value>CN-HK</value>
                    </Data>
                </ExtendedData>
            </Placemark>
            <Placemark>
                <address>Yiu Hing Road, Kornhill, Sai Wan Ho, Eastern District, Hong Kong Island, Hong Kong, 000000, China</address>
                <Point>
                    <coordinates>114.2193578729,22.2808110950</coordinates>
                </Point>
                <ExtendedData>
                    <Data name="suburb">
                        <value>Sai Wan Ho</value>
                    </Data>
                    <Data name="city_district">
                        <value>Eastern District</value>
                    </Data>
                    <Data name="city">
                        <value>Hong Kong Island</value>
                    </Data>
                    <Data name="state">
                        <value>Hong Kong</value>
                    </Data>
                    <Data name="postcode">
                        <value>000000</value>
                    </Data>
                    <Data name="country">
                        <value>China</value>
                    </Data>
                    <Data name="quarter">
                        <value>Kornhill</value>
                    </Data>
                    <Data name="road">
                        <value>Yiu Hing Road</value>
                    </Data>
                    <Data name="country_code">
                        <value>cn</value>
                    </Data>
                    <Data name="ISO3166-2-lvl3">
                        <value>CN-HK</value>
                    </Data>
                </ExtendedData>
            </Placemark>
            <Placemark>
                <address>Shaukeiwan Plaza, 17, Nam Hong Street, Aldrich Bay, Shau Kei Wan, Eastern District, Hong Kong Island, Hong Kong, China</address>
                <Point>
                    <coordinates>114.2258235346,22.2778189372</coordinates>
                </Point>
                <ExtendedData>
                    <Data name="house_number">
                        <value>17</value>
                    </Data>
                    <Data name="suburb">
                        <value>Shau Kei Wan</value>
                    </Data>
                    <Data name="building">
                        <value>Shaukeiwan Plaza</value>
                    </Data>
                    <Data name="city_district">
                        <value>Eastern District</value>
                    </Data>
                    <Data name="city">
                        <value>Hong Kong Island</value>
                    </Data>
                    <Data name="state">
                        <value>Hong Kong</value>
                    </Data>
                    <Data name="neighbourhood">
                        <value>Aldrich Bay</value>
                    </Data>
                    <Data name="country">
                        <value>China</value>
                    </Data>
                    <Data name="road">
                        <value>Nam Hong Street</value>
                    </Data>
                    <Data name="country_code">
                        <value>cn</value>
                    </Data>
                    <Data name="ISO3166-2-lvl3">
                        <value>CN-HK</value>
                    </Data>
                </ExtendedData>
            </Placemark>
            <Placemark>
                <address>Watsons, 102-104, Shau Kei Wan Main Street East, Aldrich Bay, Shau Kei Wan, Eastern District, Hong Kong Island, Hong Kong, China</address>
                <Point>
                    <coordinates>114.2295159247,22.2785615348</coordinates>
                </Point>
                <ExtendedData>
                    <Data name="house_number">
                        <value>102-104</value>
                    </Data>
                    <Data name="suburb">
                        <value>Shau Kei Wan</value>
                    </Data>
                    <Data name="city_district">
                        <value>Eastern District</value>
                    </Data>
                    <Data name="city">
                        <value>Hong Kong Island</value>
                    </Data>
                    <Data name="state">
                        <value>Hong Kong</value>
                    </Data>
                    <Data name="neighbourhood">
                        <value>Aldrich Bay</value>
                    </Data>
                    <Data name="country">
                        <value>China</value>
                    </Data>
                    <Data name="road">
                        <value>Shau Kei Wan Main Street East</value>
                    </Data>
                    <Data name="country_code">
                        <value>cn</value>
                    </Data>
                    <Data name="shop">
                        <value>Watsons</value>
                    </Data>
                    <Data name="ISO3166-2-lvl3">
                        <value>CN-HK</value>
                    </Data>
                </ExtendedData>
            </Placemark>
            <Placemark>
                <address>Oi Yin Street, Oi Tung Estate, Shau Kei Wan, Eastern District, Hong Kong Island, Hong Kong, China</address>
                <Point>
                    <coordinates>114.2280827343,22.2820124261</coordinates>
                </Point>
                <ExtendedData>
                    <Data name="suburb">
                        <value>Shau Kei Wan</value>
                    </Data>
                    <Data name="city_district">
                        <value>Eastern District</value>
                    </Data>
                    <Data name="city">
                        <value>Hong Kong Island</value>
                    </Data>
                    <Data name="state">
                        <value>Hong Kong</value>
                    </Data>
                    <Data name="country">
                        <value>China</value>
                    </Data>
                    <Data name="road">
                        <value>Oi Yin Street</value>
                    </Data>
                    <Data name="country_code">
                        <value>cn</value>
                    </Data>
                    <Data name="residential">
                        <value>Oi Tung Estate</value>
                    </Data>
                    <Data name="ISO3166-2-lvl3">
                        <value>CN-HK</value>
                    </Data>
                </ExtendedData>
            </Placemark>
            <Placemark>
                <address>Aldrich Bay, Sai Wan Ho, Eastern District, Hong Kong Island, Hong Kong, 000000, China</address>
                <Point>
                    <coordinates>114.2247552433,22.2848383053</coordinates>
                </Point>
                <ExtendedData>
                    <Data name="suburb">
                        <value>Sai Wan Ho</value>
                    </Data>
                    <Data name="city_district">
                        <value>Eastern District</value>
                    </Data>
                    <Data name="city">
                        <value>Hong Kong Island</value>
                    </Data>
                    <Data name="state">
                        <value>Hong Kong</value>
                    </Data>
                    <Data name="neighbourhood">
                        <value>Aldrich Bay</value>
                    </Data>
                    <Data name="postcode">
                        <value>000000</value>
                    </Data>
                    <Data name="country">
                        <value>China</value>
                    </Data>
                    <Data name="country_code">
                        <value>cn</value>
                    </Data>
                    <Data name="ISO3166-2-lvl3">
                        <value>CN-HK</value>
                    </Data>
                </ExtendedData>
            </Placemark>
            <Placemark>
                <address>King Fai Building, 94-112, Shau Kei Wan Main Street East, Aldrich Bay, Shau Kei Wan, Eastern District, Hong Kong Island, Hong Kong, China</address>
                <Point>
                    <coordinates>114.2300273866,22.2789247007</coordinates>
                </Point>
                <ExtendedData>
                    <Data name="house_number">
                        <value>94-112</value>
                    </Data>
                    <Data name="suburb">
                        <value>Shau Kei Wan</value>
                    </Data>
                    <Data name="building">
                        <value>King Fai Building</value>
                    </Data>
                    <Data name="city_district">
                        <value>Eastern District</value>
                    </Data>
                    <Data name="city">
                        <value>Hong Kong Island</value>
                    </Data>
                    <Data name="state">
                        <value>Hong Kong</value>
                    </Data>
                    <Data name="neighbourhood">
                        <value>Aldrich Bay</value>
                    </Data>
                    <Data name="country">
                        <value>China</value>
                    </Data>
                    <Data name="road">
                        <value>Shau Kei Wan Main Street East</value>
                    </Data>
                    <Data name="country_code">
                        <value>cn</value>
                    </Data>
                    <Data name="ISO3166-2-lvl3">
                        <value>CN-HK</value>
                    </Data>
                </ExtendedData>
            </Placemark>
            <Placemark>
                <address>Shaukeiwan Plaza, 17, Nam Hong Street, Aldrich Bay, Shau Kei Wan, Eastern District, Hong Kong Island, Hong Kong, China</address>
                <Point>
                    <coordinates>114.2264092695,22.2779716204</coordinates>
                </Point>
                <ExtendedData>
                    <Data name="house_number">
                        <value>17</value>
                    </Data>
                    <Data name="suburb">
                        <value>Shau Kei Wan</value>
                    </Data>
                    <Data name="building">
                        <value>Shaukeiwan Plaza</value>
                    </Data>
                    <Data name="city_district">
                        <value>Eastern District</value>
                    </Data>
                    <Data name="city">
                        <value>Hong Kong Island</value>
                    </Data>
                    <Data name="state">
                        <value>Hong Kong</value>
                    </Data>
                    <Data name="neighbourhood">
                        <value>Aldrich Bay</value>
                    </Data>
                    <Data name="country">
                        <value>China</value>
                    </Data>
                    <Data name="road">
                        <value>Nam Hong Street</value>
                    </Data>
                    <Data name="country_code">
                        <value>cn</value>
                    </Data>
                    <Data name="ISO3166-2-lvl3">
                        <value>CN-HK</value>
                    </Data>
                </ExtendedData>
            </Placemark>
            <Placemark>
                <address>Hing Tung Shopping Centre, Yiu Hing Road, Hing Tung Estate, Sai Wan Ho, Eastern District, Hong Kong Island, Hong Kong, 000000, China</address>
                <Point>
                    <coordinates>114.2204897205,22.2806630754</coordinates>
                </Point>
                <ExtendedData>
                    <Data name="suburb">
                        <value>Sai Wan Ho</value>
                    </Data>
                    <Data name="city_district">
                        <value>Eastern District</value>
                    </Data>
                    <Data name="city">
                        <value>Hong Kong Island</value>
                    </Data>
                    <Data name="state">
                        <value>Hong Kong</value>
                    </Data>
                    <Data name="postcode">
                        <value>000000</value>
                    </Data>
                    <Data name="country">
                        <value>China</value>
                    </Data>
                    <Data name="road">
                        <value>Yiu Hing Road</value>
                    </Data>
                    <Data name="country_code">
                        <value>cn</value>
                    </Data>
                    <Data name="residential">
                        <value>Hing Tung Estate</value>
                    </Data>
                    <Data name="shop">
                        <value>Hing Tung Shopping Centre</value>
                    </Data>
                    <Data name="ISO3166-2-lvl3">
                        <value>CN-HK</value>
                    </Data>
                </ExtendedData>
            </Placemark>
            <Placemark>
                <address>Island Eastern Corridor, Kornhill, Quarry Bay, Eastern District, Hong Kong Island, Hong Kong, 000000, China</address>
                <Point>
                    <coordinates>114.2162624840,22.2889116518</coordinates>
                </Point>
                <ExtendedData>
                    <Data name="suburb">
                        <value>Quarry Bay</value>
                    </Data>
                    <Data name="city_district">
                        <value>Eastern District</value>
                    </Data>
                    <Data name="city">
                        <value>Hong Kong Island</value>
                    </Data>
                    <Data name="state">
                        <value>Hong Kong</value>
                    </Data>
                    <Data name="postcode">
                        <value>000000</value>
                    </Data>
                    <Data name="country">
                        <value>China</value>
                    </Data>
                    <Data name="quarter">
                        <value>Kornhill</value>
                    </Data>
                    <Data name="road">
                        <value>Island Eastern Corridor</value>
                    </Data>
                    <Data name="country_code">
                        <value>cn</value>
                    </Data>
                    <Data name="ISO3166-2-lvl3">
                        <value>CN-HK</value>
                    </Data>
                </ExtendedData>
            </Placemark>
            <Placemark>
                <address>PLC Lighting, 210, Lockhart Road, Wan Chai North, Wan Chai, Wan Chai District, Hong Kong Island, Hong Kong, 000000, China</address>
                <Point>
                    <coordinates>114.1749864718,22.2782842179</coordinates>
                </Point>
                <ExtendedData>
                    <Data name="house_number">
                        <value>210</value>
                    </Data>
                    <Data name="suburb">
                        <value>Wan Chai</value>
                    </Data>
                    <Data name="city_district">
                        <value>Wan Chai District</value>
                    </Data>
                    <Data name="city">
                        <value>Hong Kong Island</value>
                    </Data>
                    <Data name="state">
                        <value>Hong Kong</value>
                    </Data>
                    <Data name="postcode">
                        <value>000000</value>
                    </Data>
                    <Data name="country">
                        <value>China</value>
                    </Data>
                    <Data name="quarter">
                        <value>Wan Chai North</value>
                    </Data>
                    <Data name="road">
                        <value>Lockhart Road</value>
                    </Data>
                    <Data name="country_code">
                        <value>cn</value>
                    </Data>
                    <Data name="shop">
                        <value>PLC Lighting</value>
                    </Data>
                    <Data name="ISO3166-2-lvl3">
                        <value>CN-HK</value>
                    </Data>
                </ExtendedData>
            </Placemark>
            <Placemark>
                <address>Kamcourt Building, 60-62, Bonham Strand, Tai Ping Shan, Sheung Wan, Central and Western District, Hong Kong Island, Hong Kong, China</address>
                <Point>
                    <coordinates>114.1506723225,22.2860486815</coordinates>
                </Point>
                <ExtendedData>
                    <Data name="house_number">
                        <value>60-62</value>
                    </Data>
                    <Data name="suburb">
                        <value>Sheung Wan</value>
                    </Data>
                    <Data name="building">
                        <value>Kamcourt Building</value>
                    </Data>
                    <Data name="city_district">
                        <value>Central and Western District</value>
                    </Data>
                    <Data name="city">
                        <value>Hong Kong Island</value>
                    </Data>
                    <Data name="state">
                        <value>Hong Kong</value>
                    </Data>
                    <Data name="neighbourhood">
                        <value>Tai Ping Shan</value>
                    </Data>
                    <Data name="country">
                        <value>China</value>
                    </Data>
                    <Data name="road">
                        <value>Bonham Strand</value>
                    </Data>
                    <Data name="country_code">
                        <value>cn</value>
                    </Data>
                    <Data name="ISO3166-2-lvl3">
                        <value>CN-HK</value>
                    </Data>
                </ExtendedData>
            </Placemark>
            <Placemark>
                <address>Central (Macau Ferry), Connaught Road West, Tai Ping Shan, Sheung Wan, Central and Western District, Hong Kong Island, Hong Kong, China</address>
                <Point>
                    <coordinates>114.1498241175,22.2886543532</coordinates>
                </Point>
                <ExtendedData>
                    <Data name="suburb">
                        <value>Sheung Wan</value>
                    </Data>
                    <Data name="city_district">
                        <value>Central and Western District</value>
                    </Data>
                    <Data name="city">
                        <value>Hong Kong Island</value>
                    </Data>
                    <Data name="state">
                        <value>Hong Kong</value>
                    </Data>
                    <Data name="neighbourhood">
                        <value>Tai Ping Shan</value>
                    </Data>
                    <Data name="country">
                        <value>China</value>
                    </Data>
                    <Data name="road">
                        <value>Connaught Road West</value>
                    </Data>
                    <Data name="country_code">
                        <value>cn</value>
                    </Data>
                    <Data name="amenity">
                        <value>Central (Macau Ferry)</value>
                    </Data>
                    <Data name="ISO3166-2-lvl3">
                        <value>CN-HK</value>
                    </Data>
                </ExtendedData>
            </Placemark>
        </Folder>
        <Document>
            <name>28.0 km; 00:41 h (OSRM)</name>
            <Placemark>
                <name>Route</name>
                <LineString>
                    <coordinates>114.1498760000,22.2888450000 114.1501790000,22.2887700000 114.1502660000,22.2887210000 114.1503190000,22.2886600000 114.1503620000,22.2886000000 114.1504400000,22.2885050000 114.1505050000,22.2884310000 114.1505700000,22.2883700000 114.1506420000,22.2883280000 114.1507680000,22.2882990000 114.1510240000,22.2882370000 114.1510620000,22.2882280000 114.1521560000,22.2879600000 114.1520460000,22.2876350000 114.1520300000,22.2875900000 114.1520190000,22.2875570000 114.1520040000,22.2875130000 114.1519860000,22.2874630000 114.1522920000,22.2873700000 114.1523810000,22.2873410000 114.1525100000,22.2873010000 114.1527610000,22.2872270000 114.1532200000,22.2870900000 114.1533330000,22.2870650000 114.1535500000,22.2870330000 114.1536500000,22.2870210000 114.1536980000,22.2870310000 114.1537890000,22.2870490000 114.1538370000,22.2870560000 114.1540080000,22.2870630000 114.1542680000,22.2870890000 114.1544210000,22.2870990000 114.1546050000,22.2870410000 114.1546580000,22.2870200000 114.1547130000,22.2869990000 114.1547910000,22.2869730000 114.1549070000,22.2869150000 114.1549350000,22.2869010000 114.1550820000,22.2868270000 114.1551010000,22.2868170000 114.1554110000,22.2866480000 114.1555390000,22.2865730000 114.1557480000,22.2864890000 114.1558320000,22.2864490000 114.1559230000,22.2863520000 114.1560740000,22.2860920000 114.1561180000,22.2860070000 114.1561670000,22.2858930000 114.1562170000,22.2857520000 114.1563870000,22.2853920000 114.1564650000,22.2851570000 114.1565090000,22.2850730000 114.1565550000,22.2849860000 114.1566090000,22.2848960000 114.1566750000,22.2848040000 114.1568160000,22.2846210000 114.1568500000,22.2845860000 114.1569110000,22.2845240000 114.1571480000,22.2842210000 114.1572600000,22.2840860000 114.1573120000,22.2840240000 114.1573530000,22.2839550000 114.1574040000,22.2838730000 114.1574670000,22.2837700000 114.1576270000,22.2835750000 114.1577170000,22.2834790000 114.1578160000,22.2833810000 114.1579600000,22.2832500000 114.1582290000,22.2830280000 114.1584140000,22.2828980000 114.1585840000,22.2827980000 114.1588250000,22.2826820000 114.1590110000,22.2826020000 114.1596750000,22.2823240000 114.1598490000,22.2822560000 114.1601480000,22.2821500000 114.1603360000,22.2820890000 114.1605950000,22.2820170000 114.1606920000,22.2820150000 114.1609420000,22.2819560000 114.1610630000,22.2819270000 114.1615340000,22.2818100000 114.1616040000,22.2817940000 114.1616600000,22.2817800000 114.1617280000,22.2817610000 114.1619430000,22.2817000000 114.1620640000,22.2816680000 114.1622540000,22.2816150000 114.1624140000,22.2815990000 114.1624510000,22.2815910000 114.1624780000,22.2815840000 114.1627030000,22.2815230000 114.1629300000,22.2814400000 114.1632850000,22.2812570000 114.1634200000,22.2811750000 114.1635050000,22.2811240000 114.1635960000,22.2810680000 114.1636720000,22.2810230000 114.1637760000,22.2809620000 114.1638730000,22.2809050000 114.1639180000,22.2808790000 114.1639510000,22.2808550000 114.1640960000,22.2807640000 114.1643540000,22.2805610000 114.1645530000,22.2804160000 114.1650500000,22.2800530000 114.1652430000,22.2799050000 114.1654260000,22.2797610000 114.1655970000,22.2796790000 114.1657690000,22.2796340000 114.1659470000,22.2796080000 114.1660780000,22.2796470000 114.1661550000,22.2796730000 114.1661850000,22.2796850000 114.1662300000,22.2797120000 114.1663000000,22.2797700000 114.1663500000,22.2798290000 114.1664930000,22.2802110000 114.1665640000,22.2804680000 114.1666840000,22.2809170000 114.1667350000,22.2810600000 114.1667200000,22.2810870000 114.1667150000,22.2811160000 114.1667180000,22.2811460000 114.1667300000,22.2811740000 114.1667530000,22.2811970000 114.1667930000,22.2812200000 114.1668440000,22.2812240000 114.1668810000,22.2812130000 114.1669120000,22.2811900000 114.1669330000,22.2811590000 114.1670860000,22.2810980000 114.1674140000,22.2810010000 114.1678500000,22.2808720000 114.1679250000,22.2808750000 114.1679950000,22.2808980000 114.1680520000,22.2809420000 114.1680860000,22.2809880000 114.1681180000,22.2810420000 114.1681700000,22.2812130000 114.1682900000,22.2816700000 114.1683870000,22.2820430000 114.1683990000,22.2820830000 114.1684250000,22.2821690000 114.1684490000,22.2822920000 114.1685840000,22.2822900000 114.1687390000,22.2822890000 114.1693250000,22.2822580000 114.1698310000,22.2822300000 114.1699570000,22.2822240000 114.1703910000,22.2822060000 114.1706680000,22.2821990000 114.1709840000,22.2821950000 114.1711840000,22.2821940000 114.1716090000,22.2821990000 114.1718380000,22.2822070000 114.1720390000,22.2822170000 114.1723610000,22.2822360000 114.1732190000,22.2822860000 114.1734220000,22.2822890000 114.1735650000,22.2822900000 114.1736520000,22.2822860000 114.1736800000,22.2822850000 114.1737840000,22.2822770000 114.1738970000,22.2822690000 114.1739450000,22.2822650000 114.1739920000,22.2822600000 114.1740260000,22.2822560000 114.1741550000,22.2822360000 114.1742490000,22.2822160000 114.1743330000,22.2821950000 114.1746310000,22.2821300000 114.1749260000,22.2820730000 114.1750870000,22.2820480000 114.1752220000,22.2820350000 114.1752810000,22.2820320000 114.1754110000,22.2820230000 114.1755440000,22.2820190000 114.1756040000,22.2820190000 114.1756580000,22.2820220000 114.1758780000,22.2820310000 114.1759810000,22.2820360000 114.1760700000,22.2820400000 114.1761640000,22.2820470000 114.1764000000,22.2820690000 114.1765630000,22.2820880000 114.1766010000,22.2820930000 114.1766580000,22.2820990000 114.1767080000,22.2821070000 114.1767710000,22.2821170000 114.1768560000,22.2821350000 114.1769760000,22.2821620000 114.1771100000,22.2821930000 114.1772970000,22.2822400000 114.1773230000,22.2822480000 114.1774300000,22.2822660000 114.1775870000,22.2823060000 114.1776330000,22.2823200000 114.1777870000,22.2823660000 114.1779680000,22.2824210000 114.1780280000,22.2824390000 114.1780700000,22.2824580000 114.1781010000,22.2824700000 114.1781380000,22.2824820000 114.1781870000,22.2824970000 114.1782270000,22.2825090000 114.1782760000,22.2825250000 114.1783380000,22.2825450000 114.1783740000,22.2825570000 114.1784580000,22.2825860000 114.1785280000,22.2826040000 114.1786000000,22.2826190000 114.1788320000,22.2826520000 114.1789370000,22.2826580000 114.1790760000,22.2826810000 114.1791990000,22.2827140000 114.1794900000,22.2828140000 114.1795740000,22.2828280000 114.1796360000,22.2828200000 114.1796900000,22.2828020000 114.1797350000,22.2827750000 114.1797720000,22.2827400000 114.1797920000,22.2827090000 114.1799420000,22.2823500000 114.1799700000,22.2823080000 114.1800240000,22.2822600000 114.1800900000,22.2822250000 114.1801600000,22.2822100000 114.1802200000,22.2822100000 114.1806880000,22.2822700000 114.1808210000,22.2822810000 114.1809340000,22.2822810000 114.1810450000,22.2822710000 114.1811700000,22.2822480000 114.1813030000,22.2822130000 114.1814240000,22.2821760000 114.1815110000,22.2821470000 114.1816220000,22.2820920000 114.1817320000,22.2820360000 114.1818980000,22.2819460000 114.1820740000,22.2819080000 114.1821660000,22.2818980000 114.1822440000,22.2818990000 114.1823330000,22.2819020000 114.1824040000,22.2819130000 114.1824850000,22.2819340000 114.1826300000,22.2819870000 114.1827130000,22.2820200000 114.1827980000,22.2820550000 114.1829230000,22.2820710000 114.1830180000,22.2821070000 114.1831550000,22.2821590000 114.1833640000,22.2822340000 114.1835080000,22.2822920000 114.1835630000,22.2823140000 114.1838660000,22.2824360000 114.1840860000,22.2825590000 114.1842650000,22.2826710000 114.1844800000,22.2828210000 114.1845330000,22.2828740000 114.1846660000,22.2830090000 114.1849700000,22.2832450000 114.1852740000,22.2834880000 114.1855820000,22.2837280000 114.1856950000,22.2837910000 114.1857960000,22.2838410000 114.1859320000,22.2838970000 114.1860540000,22.2839410000 114.1861730000,22.2839750000 114.1862920000,22.2840060000 114.1864260000,22.2840350000 114.1864880000,22.2840470000 114.1866930000,22.2840500000 114.1867750000,22.2840620000 114.1869530000,22.2841100000 114.1871010000,22.2841500000 114.1876080000,22.2842870000 114.1877600000,22.2843330000 114.1878710000,22.2843690000 114.1879750000,22.2844070000 114.1880870000,22.2844520000 114.1882060000,22.2845030000 114.1883220000,22.2845600000 114.1884160000,22.2846110000 114.1885120000,22.2846740000 114.1886060000,22.2847470000 114.1886940000,22.2848230000 114.1887610000,22.2848880000 114.1888380000,22.2849770000 114.1889120000,22.2850790000 114.1889710000,22.2851710000 114.1890180000,22.2852520000 114.1890540000,22.2853340000 114.1890910000,22.2854260000 114.1891200000,22.2855190000 114.1891440000,22.2856130000 114.1891730000,22.2857430000 114.1891900000,22.2858510000 114.1892000000,22.2859350000 114.1892080000,22.2860240000 114.1892130000,22.2861140000 114.1892260000,22.2864900000 114.1892310000,22.2865770000 114.1892390000,22.2866600000 114.1892520000,22.2867540000 114.1892640000,22.2868280000 114.1892800000,22.2869010000 114.1892930000,22.2869560000 114.1893120000,22.2870220000 114.1893520000,22.2871420000 114.1893760000,22.2872080000 114.1894130000,22.2872940000 114.1894620000,22.2874010000 114.1895110000,22.2875030000 114.1896410000,22.2877610000 114.1897480000,22.2879730000 114.1897680000,22.2880120000 114.1899050000,22.2882920000 114.1900860000,22.2886490000 114.1902500000,22.2889500000 114.1903820000,22.2891680000 114.1904500000,22.2892800000 114.1905550000,22.2894300000 114.1905900000,22.2894800000 114.1907500000,22.2896800000 114.1910500000,22.2900000000 114.1913660000,22.2902870000 114.1921570000,22.2909910000 114.1923870000,22.2911680000 114.1924300000,22.2912020000 114.1925570000,22.2913050000 114.1926230000,22.2913590000 114.1926890000,22.2914090000 114.1928130000,22.2914980000 114.1930120000,22.2916410000 114.1930980000,22.2917060000 114.1931220000,22.2917220000 114.1931500000,22.2917410000 114.1931790000,22.2917610000 114.1933530000,22.2918870000 114.1934530000,22.2919710000 114.1935380000,22.2920420000 114.1935600000,22.2920570000 114.1935890000,22.2920770000 114.1936150000,22.2920950000 114.1937360000,22.2921760000 114.1938530000,22.2922540000 114.1939710000,22.2923350000 114.1942000000,22.2924760000 114.1942290000,22.2924940000 114.1943770000,22.2925660000 114.1944670000,22.2926100000 114.1946230000,22.2926870000 114.1946890000,22.2927190000 114.1947490000,22.2927490000 114.1949190000,22.2928180000 114.1950130000,22.2928550000 114.1951890000,22.2929160000 114.1952860000,22.2929460000 114.1954310000,22.2929870000 114.1955320000,22.2930090000 114.1956910000,22.2930430000 114.1958170000,22.2930670000 114.1960670000,22.2931130000 114.1961620000,22.2931270000 114.1963610000,22.2931600000 114.1964840000,22.2931820000 114.1966050000,22.2932070000 114.1967740000,22.2932440000 114.1968570000,22.2932610000 114.1971240000,22.2933140000 114.1979380000,22.2934830000 114.1980630000,22.2935070000 114.1981920000,22.2935260000 114.1984040000,22.2935500000 114.1985630000,22.2935620000 114.1987190000,22.2935680000 114.1989060000,22.2935720000 114.1992000000,22.2935690000 114.1994040000,22.2935740000 114.1995900000,22.2935850000 114.1997700000,22.2936020000 114.1999500000,22.2936270000 114.2001000000,22.2936520000 114.2004940000,22.2937360000 114.2005620000,22.2937500000 114.2013180000,22.2939100000 114.2015380000,22.2939610000 114.2018510000,22.2940330000 114.2020960000,22.2940870000 114.2021880000,22.2941020000 114.2025300000,22.2941540000 114.2026050000,22.2941710000 114.2028680000,22.2942240000 114.2031620000,22.2942590000 114.2034130000,22.2942700000 114.2035000000,22.2942730000 114.2037630000,22.2942770000 114.2039330000,22.2942720000 114.2040330000,22.2942680000 114.2042530000,22.2942480000 114.2045700000,22.2942130000 114.2047400000,22.2941890000 114.2049790000,22.2941720000 114.2050480000,22.2941670000 114.2052070000,22.2941560000 114.2052900000,22.2941450000 114.2057090000,22.2940920000 114.2058390000,22.2940690000 114.2059740000,22.2940410000 114.2061450000,22.2940000000 114.2063050000,22.2939520000 114.2064890000,22.2938890000 114.2073080000,22.2935620000 114.2075320000,22.2934770000 114.2077810000,22.2933920000 114.2082330000,22.2932500000 114.2085090000,22.2931560000 114.2087820000,22.2930640000 114.2089400000,22.2930070000 114.2090780000,22.2929240000 114.2092580000,22.2928120000 114.2094910000,22.2926640000 114.2097870000,22.2924670000 114.2103300000,22.2920690000 114.2107360000,22.2917730000 114.2110800000,22.2915210000 114.2112770000,22.2913910000 114.2114890000,22.2912520000 114.2115750000,22.2911980000 114.2117400000,22.2910950000 114.2120130000,22.2909330000 114.2121350000,22.2908620000 114.2122140000,22.2908150000 114.2122920000,22.2907670000 114.2124160000,22.2906960000 114.2125630000,22.2906120000 114.2128380000,22.2904560000 114.2130110000,22.2903960000 114.2131490000,22.2903480000 114.2132210000,22.2903240000 114.2132900000,22.2903010000 114.2133910000,22.2902620000 114.2136010000,22.2901930000 114.2137590000,22.2901410000 114.2141980000,22.2900120000 114.2152080000,22.2897610000 114.2154240000,22.2897280000 114.2159460000,22.2896540000 114.2160260000,22.2896450000 114.2161080000,22.2896380000 114.2162670000,22.2896280000 114.2166020000,22.2896030000 114.2170400000,22.2895700000 114.2171000000,22.2895620000 114.2171530000,22.2895500000 114.2172130000,22.2895330000 114.2172700000,22.2895140000 114.2173290000,22.2894890000 114.2173810000,22.2894610000 114.2174300000,22.2894300000 114.2175000000,22.2893800000 114.2175550000,22.2893300000 114.2176300000,22.2892450000 114.2176690000,22.2891890000 114.2177020000,22.2891300000 114.2177250000,22.2890800000 114.2177500000,22.2890170000 114.2177690000,22.2889300000 114.2177780000,22.2888600000 114.2177800000,22.2887800000 114.2177700000,22.2886800000 114.2177600000,22.2886300000 114.2177370000,22.2885600000 114.2175500000,22.2881700000 114.2175170000,22.2880910000 114.2174800000,22.2880000000 114.2174590000,22.2879490000 114.2174350000,22.2878720000 114.2173790000,22.2877600000 114.2173660000,22.2876510000 114.2173680000,22.2875890000 114.2173800000,22.2875460000 114.2173840000,22.2875290000 114.2173920000,22.2874990000 114.2174100000,22.2874690000 114.2174320000,22.2874290000 114.2174970000,22.2873740000 114.2176570000,22.2873410000 114.2179050000,22.2873370000 114.2181070000,22.2873370000 114.2182350000,22.2873320000 114.2182700000,22.2873310000 114.2183340000,22.2873280000 114.2184010000,22.2873250000 114.2184840000,22.2873100000 114.2185470000,22.2873110000 114.2185970000,22.2873110000 114.2190420000,22.2873100000 114.2191380000,22.2873100000 114.2192960000,22.2873100000 114.2194000000,22.2873130000 114.2195030000,22.2873120000 114.2196070000,22.2873130000 114.2197320000,22.2873160000 114.2198100000,22.2872940000 114.2198610000,22.2872740000 114.2199090000,22.2872440000 114.2199600000,22.2872010000 114.2200110000,22.2871370000 114.2200130000,22.2868910000 114.2200110000,22.2863590000 114.2200110000,22.2862790000 114.2200570000,22.2862150000 114.2200900000,22.2861960000 114.2202180000,22.2861820000 114.2202670000,22.2861820000 114.2203900000,22.2861820000 114.2205180000,22.2861800000 114.2205900000,22.2861730000 114.2206530000,22.2861540000 114.2207130000,22.2861120000 114.2207620000,22.2860600000 114.2207910000,22.2859980000 114.2208070000,22.2859380000 114.2208290000,22.2858090000 114.2208640000,22.2854750000 114.2208860000,22.2853770000 114.2208840000,22.2852970000 114.2208760000,22.2852260000 114.2208620000,22.2851730000 114.2208430000,22.2851320000 114.2208140000,22.2850660000 114.2207850000,22.2850220000 114.2207500000,22.2849790000 114.2206980000,22.2849220000 114.2206400000,22.2848690000 114.2204410000,22.2847260000 114.2202330000,22.2845770000 114.2202180000,22.2845660000 114.2201230000,22.2844980000 114.2202410000,22.2843540000 114.2206620000,22.2838130000 114.2209860000,22.2834030000 114.2212450000,22.2830700000 114.2213170000,22.2829780000 114.2213770000,22.2830200000 114.2215850000,22.2831620000 114.2216600000,22.2832130000 114.2218290000,22.2833290000 114.2218720000,22.2833580000 114.2219410000,22.2834050000 114.2219920000,22.2834400000 114.2220730000,22.2834370000 114.2221090000,22.2834310000 114.2221420000,22.2834160000 114.2221540000,22.2834040000 114.2221700000,22.2833910000 114.2221820000,22.2833740000 114.2222390000,22.2833020000 114.2223100000,22.2832170000 114.2226330000,22.2828100000 114.2226580000,22.2827760000 114.2226740000,22.2827410000 114.2226800000,22.2826990000 114.2226780000,22.2826860000 114.2226750000,22.2826710000 114.2226670000,22.2826480000 114.2226230000,22.2825280000 114.2225770000,22.2824960000 114.2224410000,22.2823990000 114.2223970000,22.2823670000 114.2222020000,22.2822340000 114.2220900000,22.2821170000 114.2220320000,22.2820670000 114.2219660000,22.2820180000 114.2219480000,22.2820030000 114.2219190000,22.2819810000 114.2218830000,22.2819540000 114.2218190000,22.2819120000 114.2215430000,22.2817240000 114.2214800000,22.2816820000 114.2212590000,22.2815320000 114.2208440000,22.2812560000 114.2207680000,22.2812020000 114.2207070000,22.2811590000 114.2206690000,22.2811300000 114.2206400000,22.2811040000 114.2206160000,22.2810750000 114.2206070000,22.2810490000 114.2206050000,22.2810190000 114.2206100000,22.2809900000 114.2206200000,22.2809640000 114.2206380000,22.2809290000 114.2206600000,22.2808940000 114.2206850000,22.2808590000 114.2207790000,22.2807370000 114.2208180000,22.2806790000 114.2208710000,22.2805850000 114.2209090000,22.2805070000 114.2209290000,22.2804550000 114.2209440000,22.2804090000 114.2209540000,22.2803530000 114.2209600000,22.2803000000 114.2209570000,22.2802290000 114.2209330000,22.2801380000 114.2209170000,22.2800980000 114.2208980000,22.2800600000 114.2208780000,22.2800280000 114.2208550000,22.2799970000 114.2208280000,22.2799670000 114.2207980000,22.2799350000 114.2207610000,22.2799030000 114.2207200000,22.2798740000 114.2206840000,22.2798540000 114.2206420000,22.2798350000 114.2206000000,22.2798190000 114.2205520000,22.2798050000 114.2205030000,22.2797940000 114.2204530000,22.2797870000 114.2204030000,22.2797840000 114.2203520000,22.2797880000 114.2203000000,22.2797980000 114.2202000000,22.2798300000 114.2201000000,22.2798820000 114.2200700000,22.2799000000 114.2199780000,22.2799980000 114.2198990000,22.2801000000 114.2198400000,22.2802000000 114.2197800000,22.2803000000 114.2197500000,22.2803760000 114.2197400000,22.2804000000 114.2196900000,22.2805000000 114.2196300000,22.2806000000 114.2195600000,22.2807000000 114.2194700000,22.2808000000 114.2193990000,22.2808560000 114.2193920000,22.2808610000 114.2193130000,22.2809060000 114.2192630000,22.2809340000 114.2192280000,22.2809880000 114.2191860000,22.2810020000 114.2191210000,22.2810220000 114.2190470000,22.2810450000 114.2189690000,22.2810600000 114.2188920000,22.2810690000 114.2188400000,22.2810700000 114.2187970000,22.2810670000 114.2187490000,22.2810610000 114.2186840000,22.2810500000 114.2185300000,22.2810020000 114.2184760000,22.2809830000 114.2184190000,22.2809590000 114.2183540000,22.2809270000 114.2182870000,22.2808860000 114.2182200000,22.2808370000 114.2181690000,22.2807920000 114.2180850000,22.2806910000 114.2180420000,22.2806250000 114.2180050000,22.2805570000 114.2179740000,22.2804870000 114.2179500000,22.2804150000 114.2179350000,22.2803440000 114.2179250000,22.2802730000 114.2179210000,22.2801940000 114.2179240000,22.2801330000 114.2179350000,22.2800510000 114.2179550000,22.2799640000 114.2179850000,22.2798820000 114.2180100000,22.2798320000 114.2180390000,22.2797840000 114.2180700000,22.2797380000 114.2183880000,22.2792620000 114.2184290000,22.2792050000 114.2184740000,22.2791510000 114.2185130000,22.2791120000 114.2185580000,22.2790720000 114.2186260000,22.2790230000 114.2187030000,22.2789800000 114.2187800000,22.2789440000 114.2188480000,22.2789220000 114.2189190000,22.2789040000 114.2190050000,22.2788900000 114.2190800000,22.2788840000 114.2191630000,22.2788820000 114.2192350000,22.2788840000 114.2193150000,22.2788900000 114.2200670000,22.2789840000 114.2201640000,22.2789990000 114.2202670000,22.2790240000 114.2203930000,22.2790630000 114.2205760000,22.2791210000 114.2207330000,22.2791700000 114.2210200000,22.2792610000 114.2211010000,22.2792810000 114.2211810000,22.2792970000 114.2212660000,22.2793050000 114.2213570000,22.2793070000 114.2214500000,22.2793030000 114.2215490000,22.2792900000 114.2216490000,22.2792680000 114.2217470000,22.2792410000 114.2218680000,22.2791960000 114.2219900000,22.2791410000 114.2221050000,22.2790740000 114.2222170000,22.2789970000 114.2223140000,22.2789120000 114.2223960000,22.2788260000 114.2224680000,22.2787440000 114.2225580000,22.2786280000 114.2225930000,22.2785830000 114.2228310000,22.2782670000 114.2229610000,22.2780950000 114.2232270000,22.2777400000 114.2234000000,22.2775100000 114.2235780000,22.2772730000 114.2237760000,22.2770100000 114.2239530000,22.2767740000 114.2240730000,22.2766150000 114.2245270000,22.2760110000 114.2245940000,22.2759270000 114.2246690000,22.2758460000 114.2247870000,22.2757420000 114.2248670000,22.2756830000 114.2249450000,22.2756330000 114.2250690000,22.2755830000 114.2251990000,22.2755470000 114.2253340000,22.2755260000 114.2254690000,22.2755210000 114.2256050000,22.2755320000 114.2257380000,22.2755580000 114.2258660000,22.2755990000 114.2259880000,22.2756550000 114.2262120000,22.2758010000 114.2262500000,22.2758360000 114.2263220000,22.2759040000 114.2264020000,22.2759880000 114.2264660000,22.2760840000 114.2265120000,22.2761880000 114.2265380000,22.2762970000 114.2265450000,22.2764090000 114.2265310000,22.2765210000 114.2264970000,22.2766290000 114.2264440000,22.2767300000 114.2261350000,22.2772840000 114.2258450000,22.2778280000 114.2258150000,22.2778840000 114.2264770000,22.2782310000 114.2265440000,22.2782660000 114.2265870000,22.2782860000 114.2266080000,22.2782970000 114.2266320000,22.2783090000 114.2268930000,22.2778750000 114.2269840000,22.2777290000 114.2270500000,22.2776460000 114.2271230000,22.2775830000 114.2271790000,22.2775490000 114.2280260000,22.2771020000 114.2282110000,22.2770180000 114.2283010000,22.2774100000 114.2283630000,22.2776890000 114.2283800000,22.2777640000 114.2284600000,22.2781250000 114.2285230000,22.2785590000 114.2285270000,22.2785860000 114.2285440000,22.2786080000 114.2285680000,22.2786210000 114.2285910000,22.2786250000 114.2286670000,22.2786110000 114.2286960000,22.2786050000 114.2293950000,22.2784670000 114.2294480000,22.2784680000 114.2294940000,22.2784750000 114.2295370000,22.2784940000 114.2295620000,22.2785160000 114.2295710000,22.2785230000 114.2295950000,22.2785610000 114.2296120000,22.2786150000 114.2295850000,22.2787370000 114.2295290000,22.2789140000 114.2295080000,22.2789760000 114.2294920000,22.2790300000 114.2294060000,22.2791840000 114.2293970000,22.2792240000 114.2293570000,22.2794130000 114.2292300000,22.2795300000 114.2291820000,22.2795590000 114.2291560000,22.2795740000 114.2291300000,22.2795900000 114.2284740000,22.2795940000 114.2284150000,22.2795950000 114.2283740000,22.2795950000 114.2282210000,22.2796040000 114.2281310000,22.2796040000 114.2281300000,22.2796800000 114.2281300000,22.2798400000 114.2281300000,22.2803200000 114.2281300000,22.2809750000 114.2281300000,22.2814700000 114.2281300000,22.2819650000 114.2281300000,22.2820120000 114.2281300000,22.2821700000 114.2281500000,22.2823000000 114.2281500000,22.2824000000 114.2281500000,22.2826000000 114.2281490000,22.2826480000 114.2281410000,22.2826810000 114.2281240000,22.2827150000 114.2280980000,22.2827470000 114.2280720000,22.2827710000 114.2280340000,22.2827940000 114.2279780000,22.2828110000 114.2279000000,22.2828140000 114.2276070000,22.2828140000 114.2271400000,22.2828140000 114.2270100000,22.2828140000 114.2269200000,22.2828140000 114.2267100000,22.2828140000 114.2265340000,22.2828140000 114.2263400000,22.2828140000 114.2262630000,22.2828200000 114.2261950000,22.2828360000 114.2261230000,22.2828650000 114.2260540000,22.2829170000 114.2259270000,22.2830390000 114.2255720000,22.2833790000 114.2253850000,22.2835570000 114.2247400000,22.2841560000 114.2246700000,22.2842220000 114.2246000000,22.2842870000 114.2245470000,22.2843370000 114.2237840000,22.2850610000 114.2240400000,22.2853030000 114.2240780000,22.2852730000 114.2241100000,22.2852460000 114.2243900000,22.2851320000 114.2247270000,22.2848120000 114.2248820000,22.2846650000 114.2248120000,22.2845980000 114.2247150000,22.2845090000 114.2246300000,22.2844180000 114.2246180000,22.2844050000 114.2245920000,22.2843800000 114.2245470000,22.2843370000 114.2246000000,22.2842870000 114.2246700000,22.2842220000 114.2247400000,22.2841560000 114.2253850000,22.2835570000 114.2255720000,22.2833790000 114.2259270000,22.2830390000 114.2260540000,22.2829170000 114.2261230000,22.2828650000 114.2261950000,22.2828360000 114.2262630000,22.2828200000 114.2263400000,22.2828140000 114.2265340000,22.2828140000 114.2267100000,22.2828140000 114.2269200000,22.2828140000 114.2270100000,22.2828140000 114.2271400000,22.2828140000 114.2276070000,22.2828140000 114.2279000000,22.2828140000 114.2279780000,22.2828110000 114.2280340000,22.2827940000 114.2280720000,22.2827710000 114.2280980000,22.2827470000 114.2281240000,22.2827150000 114.2281410000,22.2826810000 114.2281490000,22.2826480000 114.2281500000,22.2826000000 114.2281500000,22.2824000000 114.2281500000,22.2823000000 114.2281700000,22.2822500000 114.2282000000,22.2822000000 114.2282200000,22.2821700000 114.2283780000,22.2821710000 114.2288050000,22.2821700000 114.2293200000,22.2821750000 114.2295580000,22.2821770000 114.2297270000,22.2821820000 114.2298550000,22.2821850000 114.2299290000,22.2821830000 114.2299790000,22.2821750000 114.2300580000,22.2821580000 114.2301170000,22.2821350000 114.2301690000,22.2821120000 114.2303360000,22.2820300000 114.2303870000,22.2820140000 114.2304140000,22.2820100000 114.2304300000,22.2820070000 114.2305050000,22.2820000000 114.2306970000,22.2819790000 114.2305900000,22.2818500000 114.2305900000,22.2818000000 114.2305990000,22.2816610000 114.2306620000,22.2812030000 114.2306690000,22.2811510000 114.2307060000,22.2810020000 114.2307090000,22.2809760000 114.2307160000,22.2808810000 114.2307160000,22.2808510000 114.2307110000,22.2808160000 114.2306910000,22.2807700000 114.2304250000,22.2802420000 114.2303860000,22.2801660000 114.2303610000,22.2801150000 114.2303360000,22.2800580000 114.2300040000,22.2792050000 114.2299950000,22.2791760000 114.2299910000,22.2791470000 114.2299890000,22.2791220000 114.2299900000,22.2791030000 114.2299950000,22.2790800000 114.2300420000,22.2789290000 114.2302940000,22.2781290000 114.2303080000,22.2780610000 114.2303090000,22.2779920000 114.2302980000,22.2779240000 114.2302750000,22.2778590000 114.2302660000,22.2778330000 114.2302470000,22.2777770000 114.2301150000,22.2775820000 114.2299150000,22.2772160000 114.2298700000,22.2771350000 114.2298610000,22.2771190000 114.2298470000,22.2770930000 114.2298140000,22.2770340000 114.2297770000,22.2769710000 114.2296810000,22.2768130000 114.2296350000,22.2767650000 114.2295540000,22.2767220000 114.2294920000,22.2767040000 114.2294340000,22.2766990000 114.2293830000,22.2767020000 114.2292630000,22.2767190000 114.2291160000,22.2767500000 114.2290490000,22.2767110000 114.2290310000,22.2767140000 114.2288600000,22.2767470000 114.2288360000,22.2767520000 114.2288050000,22.2767580000 114.2287530000,22.2767850000 114.2286510000,22.2768050000 114.2285640000,22.2768210000 114.2284640000,22.2768420000 114.2283180000,22.2768910000 114.2282020000,22.2769410000 114.2278120000,22.2771210000 114.2272170000,22.2774260000 114.2271020000,22.2774880000 114.2270670000,22.2775080000 114.2270000000,22.2775590000 114.2269410000,22.2776260000 114.2269050000,22.2776770000 114.2265440000,22.2782660000 114.2264770000,22.2782310000 114.2263050000,22.2781410000 114.2258150000,22.2778840000 114.2261350000,22.2772840000 114.2264440000,22.2767300000 114.2264970000,22.2766290000 114.2265310000,22.2765210000 114.2265450000,22.2764090000 114.2265380000,22.2762970000 114.2265120000,22.2761880000 114.2264660000,22.2760840000 114.2264020000,22.2759880000 114.2263220000,22.2759040000 114.2262500000,22.2758360000 114.2262120000,22.2758010000 114.2259880000,22.2756550000 114.2258660000,22.2755990000 114.2257380000,22.2755580000 114.2256050000,22.2755320000 114.2254690000,22.2755210000 114.2253340000,22.2755260000 114.2251990000,22.2755470000 114.2250690000,22.2755830000 114.2249450000,22.2756330000 114.2248670000,22.2756830000 114.2247870000,22.2757420000 114.2246690000,22.2758460000 114.2245940000,22.2759270000 114.2245270000,22.2760110000 114.2240730000,22.2766150000 114.2239530000,22.2767740000 114.2237760000,22.2770100000 114.2235780000,22.2772730000 114.2234000000,22.2775100000 114.2232270000,22.2777400000 114.2229610000,22.2780950000 114.2228310000,22.2782670000 114.2225930000,22.2785830000 114.2225580000,22.2786280000 114.2224680000,22.2787440000 114.2223960000,22.2788260000 114.2223140000,22.2789120000 114.2222170000,22.2789970000 114.2221050000,22.2790740000 114.2219900000,22.2791410000 114.2218680000,22.2791960000 114.2217470000,22.2792410000 114.2216490000,22.2792680000 114.2215490000,22.2792900000 114.2214500000,22.2793030000 114.2213570000,22.2793070000 114.2212660000,22.2793050000 114.2211810000,22.2792970000 114.2211010000,22.2792810000 114.2210200000,22.2792610000 114.2207330000,22.2791700000 114.2205760000,22.2791210000 114.2203930000,22.2790630000 114.2202670000,22.2790240000 114.2201640000,22.2789990000 114.2200670000,22.2789840000 114.2193150000,22.2788900000 114.2192350000,22.2788840000 114.2191630000,22.2788820000 114.2190800000,22.2788840000 114.2190050000,22.2788900000 114.2189190000,22.2789040000 114.2188480000,22.2789220000 114.2187800000,22.2789440000 114.2187030000,22.2789800000 114.2186260000,22.2790230000 114.2185580000,22.2790720000 114.2185130000,22.2791120000 114.2184740000,22.2791510000 114.2184290000,22.2792050000 114.2183880000,22.2792620000 114.2180700000,22.2797380000 114.2180390000,22.2797840000 114.2180100000,22.2798320000 114.2179850000,22.2798820000 114.2179550000,22.2799640000 114.2179350000,22.2800510000 114.2179240000,22.2801330000 114.2179210000,22.2801940000 114.2179250000,22.2802730000 114.2179350000,22.2803440000 114.2179500000,22.2804150000 114.2179740000,22.2804870000 114.2180050000,22.2805570000 114.2180420000,22.2806250000 114.2180850000,22.2806910000 114.2181690000,22.2807920000 114.2182200000,22.2808370000 114.2182870000,22.2808860000 114.2183540000,22.2809270000 114.2184190000,22.2809590000 114.2184760000,22.2809830000 114.2185300000,22.2810020000 114.2186840000,22.2810500000 114.2187490000,22.2810610000 114.2187970000,22.2810670000 114.2188400000,22.2810700000 114.2188920000,22.2810690000 114.2189690000,22.2810600000 114.2190470000,22.2810450000 114.2191210000,22.2810220000 114.2191860000,22.2810020000 114.2192280000,22.2809880000 114.2192900000,22.2809810000 114.2193410000,22.2809560000 114.2194200000,22.2809000000 114.2195400000,22.2808000000 114.2196300000,22.2807000000 114.2196900000,22.2806100000 114.2197400000,22.2805100000 114.2198000000,22.2804000000 114.2198400000,22.2803200000 114.2199100000,22.2802000000 114.2199790000,22.2801000000 114.2200460000,22.2800140000 114.2200750000,22.2799830000 114.2201060000,22.2799570000 114.2201450000,22.2799290000 114.2201870000,22.2799050000 114.2202330000,22.2798850000 114.2202840000,22.2798680000 114.2203350000,22.2798560000 114.2203770000,22.2798520000 114.2204200000,22.2798500000 114.2204650000,22.2798510000 114.2205090000,22.2798580000 114.2205530000,22.2798680000 114.2206110000,22.2798900000 114.2206640000,22.2799170000 114.2207000000,22.2799410000 114.2207310000,22.2799660000 114.2207600000,22.2799950000 114.2207890000,22.2800290000 114.2208210000,22.2800750000 114.2208450000,22.2801180000 114.2208660000,22.2801750000 114.2208800000,22.2802320000 114.2208800000,22.2803320000 114.2208720000,22.2803840000 114.2208590000,22.2804370000 114.2208370000,22.2804940000 114.2208140000,22.2805430000 114.2207930000,22.2805820000 114.2207700000,22.2806160000 114.2206530000,22.2807690000 114.2206180000,22.2808160000 114.2205920000,22.2808530000 114.2205680000,22.2808930000 114.2205430000,22.2809400000 114.2205180000,22.2809940000 114.2204930000,22.2810660000 114.2204850000,22.2811170000 114.2204770000,22.2812540000 114.2204780000,22.2813210000 114.2204800000,22.2813480000 114.2205420000,22.2817920000 114.2205200000,22.2819500000 114.2204530000,22.2821940000 114.2203470000,22.2823170000 114.2200110000,22.2827420000 114.2196810000,22.2831480000 114.2201130000,22.2834400000 114.2204770000,22.2836880000 114.2205070000,22.2837080000 114.2205490000,22.2837380000 114.2200900000,22.2843030000 114.2200800000,22.2843170000 114.2200130000,22.2843980000 114.2199520000,22.2844710000 114.2199860000,22.2845140000 114.2200030000,22.2845330000 114.2200420000,22.2845750000 114.2201460000,22.2846610000 114.2203450000,22.2847870000 114.2205850000,22.2849490000 114.2206420000,22.2850000000 114.2207080000,22.2850680000 114.2207320000,22.2851010000 114.2207490000,22.2851280000 114.2207900000,22.2852180000 114.2208170000,22.2852780000 114.2208360000,22.2853380000 114.2208490000,22.2854010000 114.2208640000,22.2854750000 114.2208290000,22.2858090000 114.2208070000,22.2859380000 114.2207910000,22.2859980000 114.2207620000,22.2860600000 114.2207130000,22.2861120000 114.2206530000,22.2861540000 114.2205900000,22.2861730000 114.2205180000,22.2861800000 114.2203900000,22.2861820000 114.2202670000,22.2861820000 114.2202180000,22.2861820000 114.2200950000,22.2861650000 114.2199370000,22.2861630000 114.2198340000,22.2861800000 114.2196670000,22.2861800000 114.2189230000,22.2861760000 114.2188590000,22.2861760000 114.2182620000,22.2861790000 114.2182300000,22.2861790000 114.2181500000,22.2861800000 114.2180590000,22.2861800000 114.2179500000,22.2861800000 114.2177700000,22.2861780000 114.2175490000,22.2861790000 114.2173990000,22.2861810000 114.2173450000,22.2861810000 114.2171390000,22.2861810000 114.2169160000,22.2861780000 114.2167300000,22.2861790000 114.2165420000,22.2861780000 114.2165430000,22.2862890000 114.2165460000,22.2866140000 114.2165480000,22.2869510000 114.2165490000,22.2869990000 114.2165500000,22.2873050000 114.2165560000,22.2873300000 114.2165710000,22.2873500000 114.2166690000,22.2873470000 114.2171050000,22.2873390000 114.2172160000,22.2874010000 114.2172520000,22.2874430000 114.2172740000,22.2874690000 114.2172800000,22.2875020000 114.2172880000,22.2875500000 114.2172930000,22.2875940000 114.2173000000,22.2876500000 114.2172940000,22.2877650000 114.2172920000,22.2878000000 114.2172810000,22.2878660000 114.2172710000,22.2879300000 114.2172030000,22.2880520000 114.2171500000,22.2881400000 114.2170960000,22.2882060000 114.2169670000,22.2883570000 114.2166860000,22.2886740000 114.2166490000,22.2887030000 114.2165010000,22.2888220000 114.2163630000,22.2888880000 114.2162650000,22.2889200000 114.2160260000,22.2889990000 114.2159000000,22.2890340000 114.2158250000,22.2890530000 114.2157560000,22.2890700000 114.2152900000,22.2892520000 114.2151250000,22.2893220000 114.2147580000,22.2894410000 114.2142880000,22.2896070000 114.2137820000,22.2898170000 114.2134510000,22.2899700000 114.2133040000,22.2900230000 114.2131690000,22.2900720000 114.2127380000,22.2903170000 114.2124830000,22.2904610000 114.2123200000,22.2905530000 114.2122130000,22.2906180000 114.2121310000,22.2906670000 114.2120320000,22.2907270000 114.2119230000,22.2907940000 114.2116530000,22.2909590000 114.2114960000,22.2910550000 114.2114030000,22.2911130000 114.2111810000,22.2912530000 114.2110560000,22.2913310000 114.2109730000,22.2913830000 114.2106220000,22.2916380000 114.2102020000,22.2919430000 114.2096790000,22.2923280000 114.2094250000,22.2924890000 114.2091620000,22.2926270000 114.2088160000,22.2927860000 114.2086880000,22.2928400000 114.2084250000,22.2929190000 114.2081530000,22.2930010000 114.2077170000,22.2931270000 114.2072230000,22.2932690000 114.2071640000,22.2932870000 114.2066740000,22.2934340000 114.2061700000,22.2935940000 114.2056640000,22.2937480000 114.2053700000,22.2938370000 114.2050060000,22.2939470000 114.2049120000,22.2939730000 114.2046900000,22.2940290000 114.2045330000,22.2940650000 114.2042430000,22.2941180000 114.2040330000,22.2941470000 114.2039120000,22.2941540000 114.2037320000,22.2941650000 114.2035270000,22.2941680000 114.2034090000,22.2941650000 114.2032010000,22.2941380000 114.2031730000,22.2941340000 114.2030020000,22.2941110000 114.2029330000,22.2941020000 114.2028290000,22.2940850000 114.2026460000,22.2940560000 114.2025500000,22.2940360000 114.2022170000,22.2939690000 114.2021190000,22.2939490000 114.2018350000,22.2938920000 114.2015540000,22.2938360000 114.2013450000,22.2937940000 114.2005900000,22.2936420000 114.2005170000,22.2936260000 114.2000710000,22.2935390000 114.1999040000,22.2935110000 114.1997390000,22.2934890000 114.1995910000,22.2934740000 114.1994500000,22.2934640000 114.1992990000,22.2934600000 114.1989250000,22.2934630000 114.1987990000,22.2934610000 114.1986680000,22.2934560000 114.1984820000,22.2934470000 114.1983720000,22.2934380000 114.1982150000,22.2934210000 114.1980750000,22.2933990000 114.1971540000,22.2932100000 114.1968890000,22.2931570000 114.1966340000,22.2931040000 114.1963890000,22.2930500000 114.1963650000,22.2930450000 114.1962830000,22.2930270000 114.1961050000,22.2929900000 114.1958550000,22.2929350000 114.1956370000,22.2928790000 114.1955750000,22.2928640000 114.1955000000,22.2928430000 114.1953420000,22.2928020000 114.1950760000,22.2927130000 114.1949500000,22.2926590000 114.1948340000,22.2926050000 114.1947770000,22.2925780000 114.1947230000,22.2925510000 114.1945570000,22.2924640000 114.1944720000,22.2924140000 114.1943380000,22.2923400000 114.1943010000,22.2923180000 114.1940990000,22.2921780000 114.1939740000,22.2920840000 114.1938490000,22.2919940000 114.1937010000,22.2918840000 114.1936750000,22.2918610000 114.1936060000,22.2918030000 114.1935350000,22.2917410000 114.1934410000,22.2916610000 114.1933890000,22.2916150000 114.1933500000,22.2915810000 114.1933240000,22.2915550000 114.1933070000,22.2915380000 114.1932510000,22.2914830000 114.1931350000,22.2913490000 114.1931050000,22.2912530000 114.1930930000,22.2912180000 114.1930760000,22.2911620000 114.1930060000,22.2910820000 114.1929330000,22.2909960000 114.1928030000,22.2908470000 114.1922990000,22.2903210000 114.1915880000,22.2895560000 114.1913760000,22.2893230000 114.1912520000,22.2891910000 114.1906770000,22.2885810000 114.1903320000,22.2882150000 114.1900190000,22.2878880000 114.1899830000,22.2878420000 114.1898890000,22.2877330000 114.1898310000,22.2876540000 114.1897600000,22.2875550000 114.1896840000,22.2874280000 114.1896380000,22.2873400000 114.1895570000,22.2872390000 114.1894580000,22.2870630000 114.1894350000,22.2869950000 114.1894190000,22.2869350000 114.1894020000,22.2868650000 114.1893850000,22.2867830000 114.1893780000,22.2867270000 114.1893710000,22.2866570000 114.1893630000,22.2865650000 114.1893570000,22.2864690000 114.1893520000,22.2863510000 114.1893440000,22.2860110000 114.1893380000,22.2859370000 114.1893310000,22.2858670000 114.1893190000,22.2857830000 114.1893060000,22.2857010000 114.1892870000,22.2856040000 114.1892600000,22.2854970000 114.1892280000,22.2853930000 114.1891830000,22.2852740000 114.1891130000,22.2851340000 114.1890310000,22.2850070000 114.1889800000,22.2849320000 114.1888980000,22.2848300000 114.1888130000,22.2847440000 114.1887120000,22.2846530000 114.1885960000,22.2845670000 114.1884740000,22.2844880000 114.1883480000,22.2844200000 114.1882350000,22.2843700000 114.1880960000,22.2843140000 114.1879710000,22.2842690000 114.1877860000,22.2842120000 114.1876240000,22.2841670000 114.1871890000,22.2840570000 114.1871400000,22.2840320000 114.1870940000,22.2839960000 114.1869060000,22.2839590000 114.1866430000,22.2839070000 114.1865190000,22.2838830000 114.1864390000,22.2838650000 114.1863640000,22.2838430000 114.1862310000,22.2837970000 114.1860990000,22.2837360000 114.1859880000,22.2836800000 114.1859020000,22.2836190000 114.1857900000,22.2835350000 114.1854100000,22.2832190000 114.1853700000,22.2830900000 114.1853570000,22.2830570000 114.1853510000,22.2830110000 114.1853570000,22.2829480000 114.1853690000,22.2828840000 114.1854000000,22.2828000000 114.1854150000,22.2827580000 114.1854550000,22.2826640000 114.1851190000,22.2825450000 114.1850410000,22.2825190000 114.1849860000,22.2825020000 114.1848210000,22.2824510000 114.1844310000,22.2823490000 114.1844250000,22.2823480000 114.1840550000,22.2823030000 114.1836400000,22.2821430000 114.1835710000,22.2821150000 114.1834410000,22.2820630000 114.1832710000,22.2819960000 114.1831930000,22.2819650000 114.1831000000,22.2819290000 114.1830130000,22.2818950000 114.1828970000,22.2818500000 114.1827910000,22.2818100000 114.1826870000,22.2817690000 114.1823980000,22.2816580000 114.1823200000,22.2816240000 114.1822920000,22.2816120000 114.1821640000,22.2815570000 114.1820830000,22.2814670000 114.1820720000,22.2814120000 114.1820820000,22.2813460000 114.1820970000,22.2812920000 114.1821130000,22.2812310000 114.1821320000,22.2811620000 114.1822120000,22.2809710000 114.1822400000,22.2809040000 114.1823720000,22.2806030000 114.1823860000,22.2805720000 114.1824400000,22.2804570000 114.1822950000,22.2804030000 114.1822370000,22.2803800000 114.1818560000,22.2802390000 114.1818110000,22.2801920000 114.1811270000,22.2799270000 114.1810340000,22.2798910000 114.1809470000,22.2798580000 114.1803460000,22.2796320000 114.1797300000,22.2794000000 114.1797030000,22.2793900000 114.1796030000,22.2793520000 114.1795250000,22.2793250000 114.1794220000,22.2792880000 114.1793760000,22.2792750000 114.1780650000,22.2788910000 114.1780340000,22.2788810000 114.1778810000,22.2788380000 114.1777420000,22.2788020000 114.1769890000,22.2785760000 114.1769020000,22.2785570000 114.1767580000,22.2785370000 114.1766180000,22.2785220000 114.1753930000,22.2783930000 114.1749780000,22.2783490000 114.1748360000,22.2783340000 114.1747330000,22.2783180000 114.1747420000,22.2782430000 114.1747440000,22.2782270000 114.1747120000,22.2781910000 114.1747400000,22.2779910000 114.1747450000,22.2779540000 114.1747610000,22.2778310000 114.1747750000,22.2777180000 114.1745480000,22.2776960000 114.1742060000,22.2776600000 114.1738680000,22.2776250000 114.1733630000,22.2775710000 114.1732660000,22.2775590000 114.1727110000,22.2774990000 114.1726580000,22.2774930000 114.1726160000,22.2774890000 114.1721470000,22.2774340000 114.1718250000,22.2774610000 114.1717810000,22.2774650000 114.1717310000,22.2774690000 114.1716670000,22.2774760000 114.1716020000,22.2774820000 114.1714550000,22.2774930000 114.1711990000,22.2775120000 114.1708780000,22.2775360000 114.1704740000,22.2775620000 114.1704210000,22.2775660000 114.1703370000,22.2775710000 114.1700670000,22.2775950000 114.1697600000,22.2776220000 114.1694230000,22.2776510000 114.1693980000,22.2776540000 114.1693450000,22.2776590000 114.1692610000,22.2776680000 114.1685170000,22.2777300000 114.1683360000,22.2777460000 114.1679670000,22.2777780000 114.1679210000,22.2777820000 114.1675240000,22.2778170000 114.1674650000,22.2778220000 114.1673240000,22.2778430000 114.1663690000,22.2779390000 114.1661220000,22.2779690000 114.1659210000,22.2779930000 114.1657880000,22.2780080000 114.1654950000,22.2780460000 114.1654670000,22.2780500000 114.1654250000,22.2780560000 114.1649730000,22.2781170000 114.1648760000,22.2781360000 114.1646860000,22.2781740000 114.1644950000,22.2782280000 114.1643070000,22.2782990000 114.1640380000,22.2784180000 114.1638230000,22.2785170000 114.1637050000,22.2785840000 114.1636400000,22.2786240000 114.1634530000,22.2787390000 114.1633770000,22.2787880000 114.1630190000,22.2790660000 114.1628030000,22.2792020000 114.1627540000,22.2792320000 114.1625970000,22.2793340000 114.1625700000,22.2793420000 114.1624630000,22.2793960000 114.1624150000,22.2794190000 114.1622890000,22.2794780000 114.1620130000,22.2795920000 114.1618520000,22.2796470000 114.1615670000,22.2797490000 114.1615240000,22.2797580000 114.1613930000,22.2797870000 114.1613130000,22.2798000000 114.1610710000,22.2798410000 114.1608870000,22.2798740000 114.1607940000,22.2799100000 114.1607310000,22.2799330000 114.1606710000,22.2799490000 114.1605230000,22.2799630000 114.1604820000,22.2799670000 114.1603650000,22.2799660000 114.1602120000,22.2799520000 114.1598470000,22.2798960000 114.1598280000,22.2798930000 114.1597000000,22.2798740000 114.1596730000,22.2798700000 114.1596530000,22.2798700000 114.1595240000,22.2798700000 114.1594410000,22.2798800000 114.1593040000,22.2799080000 114.1591270000,22.2799530000 114.1587870000,22.2800460000 114.1584870000,22.2801230000 114.1580780000,22.2802080000 114.1580240000,22.2802220000 114.1579060000,22.2802550000 114.1578680000,22.2802690000 114.1578270000,22.2802870000 114.1577870000,22.2803150000 114.1577420000,22.2803570000 114.1575190000,22.2806240000 114.1573380000,22.2808460000 114.1572550000,22.2809390000 114.1572390000,22.2809570000 114.1572080000,22.2809950000 114.1571500000,22.2810650000 114.1569830000,22.2812640000 114.1569530000,22.2812990000 114.1568840000,22.2813790000 114.1568100000,22.2814600000 114.1567690000,22.2815040000 114.1567270000,22.2815500000 114.1566540000,22.2816300000 114.1565830000,22.2817090000 114.1565450000,22.2817470000 114.1565180000,22.2817800000 114.1564860000,22.2818210000 114.1564730000,22.2818380000 114.1559090000,22.2825310000 114.1558930000,22.2825510000 114.1556900000,22.2828040000 114.1555480000,22.2829700000 114.1554840000,22.2830640000 114.1553510000,22.2832530000 114.1552360000,22.2833860000 114.1552170000,22.2834090000 114.1551300000,22.2835100000 114.1550900000,22.2835460000 114.1549400000,22.2836500000 114.1548360000,22.2837280000 114.1548060000,22.2837510000 114.1547300000,22.2838090000 114.1545130000,22.2839720000 114.1541970000,22.2841820000 114.1540630000,22.2842790000 114.1540250000,22.2843050000 114.1538510000,22.2844390000 114.1536380000,22.2846230000 114.1533510000,22.2848580000 114.1531100000,22.2850720000 114.1530070000,22.2851760000 114.1529620000,22.2852000000 114.1528410000,22.2852620000 114.1527530000,22.2853130000 114.1526260000,22.2853810000 114.1523930000,22.2855070000 114.1522760000,22.2855830000 114.1521980000,22.2856260000 114.1518610000,22.2857630000 114.1518050000,22.2857790000 114.1517420000,22.2857960000 114.1511380000,22.2859560000 114.1511160000,22.2859610000 114.1510870000,22.2859690000 114.1509540000,22.2860010000 114.1507890000,22.2860410000 114.1506880000,22.2860830000 114.1506440000,22.2861010000 114.1504380000,22.2862120000 114.1503140000,22.2862830000 114.1502950000,22.2862940000 114.1502640000,22.2863120000 114.1502810000,22.2863370000 114.1503360000,22.2864200000 114.1504000000,22.2865200000 114.1504500000,22.2867600000 114.1504580000,22.2867990000 114.1504800000,22.2869050000 114.1504880000,22.2869520000 114.1504940000,22.2869860000 114.1504820000,22.2870600000 114.1505350000,22.2872380000 114.1505910000,22.2874270000 114.1506010000,22.2874630000 114.1506320000,22.2875640000 114.1506300000,22.2876060000 114.1506280000,22.2876460000 114.1506270000,22.2876970000 114.1496140000,22.2879640000 114.1495260000,22.2880190000 114.1495080000,22.2880890000 114.1495090000,22.2881700000 114.1494730000,22.2883150000 114.1495180000,22.2884660000 114.1495940000,22.2887180000 114.1496170000,22.2887880000 114.1496590000,22.2888350000 114.1497120000,22.2888680000 114.1497820000,22.2888690000 114.1498800000,22.2888450000</coordinates>
                </LineString>
                <ExtendedData>
                    <Data name="duration">
                        <value>00:41:34</value>
                    </Data>
                    <Data name="length">
                        <value>27961.323378003</value>
                    </Data>
                </ExtendedData>
            </Placemark>
        </Document>
    </Document>
</kml>