<?xml version="1.0" encoding="UTF-8"?>
<kml xmlns="http://www.opengis.net/kml/2.2" xmlns:gx="http://www.google.com/kml/ext/2.2">
    <Document>
        <name>Route</name>
        <Folder>
            <name>Route Request</name>
            <Placemark>
                <address>Harbour Building, 38, Pier Road, SoHo, Sheung Wan, Central and Western District, Hong Kong Island, Hong Kong, China</address>
                <Point>
                    <coordinates>114.1481102561,22.2896851448</coordinates>
                </Point>
                <ExtendedData>
                    <Data name="routingVisited">
                        <value>false</value>
                    </Data>
                    <Data name="city">
                        <value>Hong Kong Island</value>
                    </Data>
                    <Data name="country">
                        <value>China</value>
                    </Data>
                    <Data name="state">
                        <value>Hong Kong</value>
                    </Data>
                    <Data name="road">
                        <value>Pier Road</value>
                    </Data>
                    <Data name="neighbourhood">
                        <value>SoHo</value>
                    </Data>
                    <Data name="suburb">
                        <value>Sheung Wan</value>
                    </Data>
                    <Data name="house_number">
                        <value>38</value>
                    </Data>
                    <Data name="city_district">
                        <value>Central and Western District</value>
                    </Data>
                    <Data name="building">
                        <value>Harbour Building</value>
                    </Data>
                    <Data name="country_code">
                        <value>cn</value>
                    </Data>
                    <Data name="ISO3166-2-lvl3">
                        <value>CN-HK</value>
                    </Data>
                </ExtendedData>
            </Placemark>
            <Placemark>
                <Point>
                    <coordinates>114.1697142805,22.2794253497</coordinates>
                </Point>
                <ExtendedData>
                    <Data name="routingVisited">
                        <value>false</value>
                    </Data>
                </ExtendedData>
            </Placemark>
            <Placemark>
                <Point>
                    <coordinates>114.1761836841,22.2820923881</coordinates>
                </Point>
            </Placemark>
            <Placemark>
                <Point>
                    <coordinates>114.2217347351,22.2845520041</coordinates>
                </Point>
            </Placemark>
            <Placemark>
                <Point>
                    <coordinates>114.2251842905,22.2804037474</coordinates>
                </Point>
            </Placemark>
            <Placemark>
                <address>Sun Kwong Roasted Goose Restaurant, 2, Po Man Street, Aldrich Bay, Shau Kei Wan, Eastern District, Hong Kong Island, Hong Kong, China</address>
                <Point>
                    <coordinates>114.2294558069,22.2785828582</coordinates>
                </Point>
                <ExtendedData>
                    <Data name="amenity">
                        <value>Sun Kwong Roasted Goose Restaurant</value>
                    </Data>
                    <Data name="city">
                        <value>Hong Kong Island</value>
                    </Data>
                    <Data name="country">
                        <value>China</value>
                    </Data>
                    <Data name="state">
                        <value>Hong Kong</value>
                    </Data>
                    <Data name="road">
                        <value>Po Man Street</value>
                    </Data>
                    <Data name="neighbourhood">
                        <value>Aldrich Bay</value>
                    </Data>
                    <Data name="suburb">
                        <value>Shau Kei Wan</value>
                    </Data>
                    <Data name="house_number">
                        <value>2</value>
                    </Data>
                    <Data name="city_district">
                        <value>Eastern District</value>
                    </Data>
                    <Data name="country_code">
                        <value>cn</value>
                    </Data>
                    <Data name="ISO3166-2-lvl3">
                        <value>CN-HK</value>
                    </Data>
                </ExtendedData>
            </Placemark>
            <Placemark>
                <address>Oi Yin Street, Oi Tung Estate, Shau Kei Wan, Eastern District, Hong Kong Island, Hong Kong, China</address>
                <Point>
                    <coordinates>114.2280827343,22.2820124261</coordinates>
                </Point>
                <ExtendedData>
                    <Data name="city">
                        <value>Hong Kong Island</value>
                    </Data>
                    <Data name="country">
                        <value>China</value>
                    </Data>
                    <Data name="state">
                        <value>Hong Kong</value>
                    </Data>
                    <Data name="road">
                        <value>Oi Yin Street</value>
                    </Data>
                    <Data name="suburb">
                        <value>Shau Kei Wan</value>
                    </Data>
                    <Data name="city_district">
                        <value>Eastern District</value>
                    </Data>
                    <Data name="country_code">
                        <value>cn</value>
                    </Data>
                    <Data name="ISO3166-2-lvl3">
                        <value>CN-HK</value>
                    </Data>
                    <Data name="residential">
                        <value>Oi Tung Estate</value>
                    </Data>
                </ExtendedData>
            </Placemark>
            <Placemark>
                <address>Aldrich Bay, Sai Wan Ho, Eastern District, Hong Kong Island, Hong Kong, 000000, China</address>
                <Point>
                    <coordinates>114.2509156556,22.2663427582</coordinates>
                </Point>
                <ExtendedData>
                    <Data name="routingVisited">
                        <value>false</value>
                    </Data>
                    <Data name="city">
                        <value>Hong Kong Island</value>
                    </Data>
                    <Data name="country">
                        <value>China</value>
                    </Data>
                    <Data name="postcode">
                        <value>000000</value>
                    </Data>
                    <Data name="state">
                        <value>Hong Kong</value>
                    </Data>
                    <Data name="neighbourhood">
                        <value>Aldrich Bay</value>
                    </Data>
                    <Data name="suburb">
                        <value>Sai Wan Ho</value>
                    </Data>
                    <Data name="city_district">
                        <value>Eastern District</value>
                    </Data>
                    <Data name="country_code">
                        <value>cn</value>
                    </Data>
                    <Data name="ISO3166-2-lvl3">
                        <value>CN-HK</value>
                    </Data>
                </ExtendedData>
            </Placemark>
            <Placemark>
                <address>King Fai Building, 94-112, Shau Kei Wan Main Street East, Aldrich Bay, Shau Kei Wan, Eastern District, Hong Kong Island, Hong Kong, China</address>
                <Point>
                    <coordinates>114.2300273866,22.2789247007</coordinates>
                </Point>
                <ExtendedData>
                    <Data name="city">
                        <value>Hong Kong Island</value>
                    </Data>
                    <Data name="country">
                        <value>China</value>
                    </Data>
                    <Data name="state">
                        <value>Hong Kong</value>
                    </Data>
                    <Data name="road">
                        <value>Shau Kei Wan Main Street East</value>
                    </Data>
                    <Data name="neighbourhood">
                        <value>Aldrich Bay</value>
                    </Data>
                    <Data name="suburb">
                        <value>Shau Kei Wan</value>
                    </Data>
                    <Data name="house_number">
                        <value>94-112</value>
                    </Data>
                    <Data name="city_district">
                        <value>Eastern District</value>
                    </Data>
                    <Data name="building">
                        <value>King Fai Building</value>
                    </Data>
                    <Data name="country_code">
                        <value>cn</value>
                    </Data>
                    <Data name="ISO3166-2-lvl3">
                        <value>CN-HK</value>
                    </Data>
                </ExtendedData>
            </Placemark>
            <Placemark>
                <Point>
                    <coordinates>114.2219929314,22.2810205452</coordinates>
                </Point>
            </Placemark>
            <Placemark>
                <address>大中國蔴雀娛樂, 390, Lockhart Road, Bowrington, Wan Chai, Wan Chai District, Hong Kong Island, Hong Kong, 000000, China</address>
                <Point>
                    <coordinates>114.1798565898,22.2794235773</coordinates>
                </Point>
                <ExtendedData>
                    <Data name="amenity">
                        <value>大中國蔴雀娛樂</value>
                    </Data>
                    <Data name="city">
                        <value>Hong Kong Island</value>
                    </Data>
                    <Data name="country">
                        <value>China</value>
                    </Data>
                    <Data name="road">
                        <value>Lockhart Road</value>
                    </Data>
                    <Data name="neighbourhood">
                        <value>Bowrington</value>
                    </Data>
                    <Data name="state">
                        <value>Hong Kong</value>
                    </Data>
                    <Data name="postcode">
                        <value>000000</value>
                    </Data>
                    <Data name="suburb">
                        <value>Wan Chai</value>
                    </Data>
                    <Data name="house_number">
                        <value>390</value>
                    </Data>
                    <Data name="city_district">
                        <value>Wan Chai District</value>
                    </Data>
                    <Data name="country_code">
                        <value>cn</value>
                    </Data>
                    <Data name="ISO3166-2-lvl3">
                        <value>CN-HK</value>
                    </Data>
                </ExtendedData>
            </Placemark>
            <Placemark>
                <address>99 Bonham, 99, Bonham Strand, Tai Ping Shan, Sheung Wan, Central and Western District, Hong Kong Island, Hong Kong, China</address>
                <Point>
                    <coordinates>114.1506145741,22.2860976111</coordinates>
                </Point>
                <ExtendedData>
                    <Data name="city">
                        <value>Hong Kong Island</value>
                    </Data>
                    <Data name="country">
                        <value>China</value>
                    </Data>
                    <Data name="state">
                        <value>Hong Kong</value>
                    </Data>
                    <Data name="road">
                        <value>Bonham Strand</value>
                    </Data>
                    <Data name="neighbourhood">
                        <value>Tai Ping Shan</value>
                    </Data>
                    <Data name="suburb">
                        <value>Sheung Wan</value>
                    </Data>
                    <Data name="house_number">
                        <value>99</value>
                    </Data>
                    <Data name="city_district">
                        <value>Central and Western District</value>
                    </Data>
                    <Data name="tourism">
                        <value>99 Bonham</value>
                    </Data>
                    <Data name="country_code">
                        <value>cn</value>
                    </Data>
                    <Data name="ISO3166-2-lvl3">
                        <value>CN-HK</value>
                    </Data>
                </ExtendedData>
            </Placemark>
            <Placemark>
                <address>Central (Macau Ferry), Connaught Road West, Tai Ping Shan, Sheung Wan, Central and Western District, Hong Kong Island, Hong Kong, China</address>
                <Point>
                    <coordinates>114.1481114227,22.2896305140</coordinates>
                </Point>
                <ExtendedData>
                    <Data name="amenity">
                        <value>Central (Macau Ferry)</value>
                    </Data>
                    <Data name="routingVisited">
                        <value>false</value>
                    </Data>
                    <Data name="city">
                        <value>Hong Kong Island</value>
                    </Data>
                    <Data name="country">
                        <value>China</value>
                    </Data>
                    <Data name="state">
                        <value>Hong Kong</value>
                    </Data>
                    <Data name="road">
                        <value>Connaught Road West</value>
                    </Data>
                    <Data name="neighbourhood">
                        <value>Tai Ping Shan</value>
                    </Data>
                    <Data name="suburb">
                        <value>Sheung Wan</value>
                    </Data>
                    <Data name="city_district">
                        <value>Central and Western District</value>
                    </Data>
                    <Data name="country_code">
                        <value>cn</value>
                    </Data>
                    <Data name="ISO3166-2-lvl3">
                        <value>CN-HK</value>
                    </Data>
                </ExtendedData>
            </Placemark>
        </Folder>
        <Document>
            <name>31.4 km; 00:44 h (OSRM)</name>
            <Placemark>
                <name>Route</name>
                <LineString>
                    <coordinates>114.1481370000,22.2897800000 114.1483570000,22.2897260000 114.1484080000,22.2897050000 114.1484510000,22.2896650000 114.1484620000,22.2896170000 114.1484620000,22.2895890000 114.1483570000,22.2892250000 114.1482060000,22.2887020000 114.1481850000,22.2886290000 114.1481370000,22.2884650000 114.1483350000,22.2884430000 114.1485520000,22.2884030000 114.1488350000,22.2883360000 114.1494260000,22.2881900000 114.1495090000,22.2881700000 114.1500860000,22.2880280000 114.1503900000,22.2879490000 114.1506340000,22.2878810000 114.1510970000,22.2877390000 114.1515710000,22.2875940000 114.1516850000,22.2875580000 114.1519040000,22.2874890000 114.1519860000,22.2874630000 114.1522920000,22.2873700000 114.1523810000,22.2873410000 114.1525100000,22.2873010000 114.1527610000,22.2872270000 114.1532200000,22.2870900000 114.1533330000,22.2870650000 114.1534050000,22.2870010000 114.1534330000,22.2869540000 114.1534450000,22.2868460000 114.1534310000,22.2867420000 114.1534270000,22.2867260000 114.1534250000,22.2867100000 114.1534130000,22.2866680000 114.1533620000,22.2864870000 114.1533520000,22.2864540000 114.1533460000,22.2864300000 114.1533360000,22.2863970000 114.1533230000,22.2863480000 114.1533070000,22.2862930000 114.1533470000,22.2862720000 114.1533950000,22.2862460000 114.1536090000,22.2861220000 114.1538310000,22.2859930000 114.1540740000,22.2858520000 114.1547170000,22.2854780000 114.1548210000,22.2854180000 114.1551100000,22.2852490000 114.1552520000,22.2851670000 114.1553130000,22.2851290000 114.1553650000,22.2850890000 114.1554490000,22.2850040000 114.1557010000,22.2846970000 114.1557210000,22.2846710000 114.1557800000,22.2846000000 114.1558320000,22.2845360000 114.1558520000,22.2845130000 114.1558890000,22.2844680000 114.1559300000,22.2844190000 114.1559920000,22.2843430000 114.1560220000,22.2843060000 114.1560450000,22.2842770000 114.1561130000,22.2841940000 114.1561510000,22.2841470000 114.1562840000,22.2839810000 114.1564810000,22.2837360000 114.1565030000,22.2837100000 114.1565300000,22.2836750000 114.1565550000,22.2836430000 114.1565820000,22.2836080000 114.1567600000,22.2833830000 114.1568590000,22.2832570000 114.1570290000,22.2830420000 114.1571430000,22.2828960000 114.1574510000,22.2825030000 114.1574890000,22.2824530000 114.1575660000,22.2823580000 114.1576590000,22.2822430000 114.1576780000,22.2822190000 114.1576940000,22.2822000000 114.1578280000,22.2820330000 114.1579440000,22.2819950000 114.1580810000,22.2819560000 114.1581520000,22.2819350000 114.1583830000,22.2818690000 114.1584100000,22.2818610000 114.1584940000,22.2818370000 114.1585230000,22.2818290000 114.1585450000,22.2818220000 114.1586800000,22.2817840000 114.1588020000,22.2817490000 114.1588690000,22.2817320000 114.1588900000,22.2817260000 114.1589800000,22.2817010000 114.1590740000,22.2816910000 114.1591530000,22.2816700000 114.1595070000,22.2815690000 114.1595440000,22.2815590000 114.1595940000,22.2815460000 114.1596490000,22.2815310000 114.1597490000,22.2815060000 114.1598080000,22.2815050000 114.1599740000,22.2814610000 114.1601270000,22.2814200000 114.1602600000,22.2813880000 114.1602980000,22.2813790000 114.1603590000,22.2813630000 114.1604530000,22.2813530000 114.1605890000,22.2813180000 114.1606310000,22.2813040000 114.1606770000,22.2812900000 114.1607050000,22.2812830000 114.1607420000,22.2812730000 114.1607960000,22.2812350000 114.1608520000,22.2812180000 114.1609520000,22.2811900000 114.1610490000,22.2811630000 114.1612430000,22.2811110000 114.1613660000,22.2810790000 114.1615170000,22.2810390000 114.1619060000,22.2809410000 114.1619460000,22.2809280000 114.1619700000,22.2809130000 114.1620010000,22.2808790000 114.1620260000,22.2808370000 114.1620420000,22.2807810000 114.1619590000,22.2806210000 114.1617930000,22.2800600000 114.1617640000,22.2799740000 114.1617610000,22.2799440000 114.1617670000,22.2798980000 114.1618210000,22.2798220000 114.1619180000,22.2797670000 114.1622910000,22.2796350000 114.1625660000,22.2795200000 114.1627940000,22.2794240000 114.1630800000,22.2792270000 114.1632720000,22.2790910000 114.1634860000,22.2789320000 114.1636320000,22.2788350000 114.1637480000,22.2787750000 114.1637880000,22.2787560000 114.1639140000,22.2786900000 114.1640790000,22.2786140000 114.1641980000,22.2785630000 114.1643650000,22.2784940000 114.1644550000,22.2784640000 114.1646060000,22.2784170000 114.1647480000,22.2783810000 114.1650100000,22.2783170000 114.1650660000,22.2783010000 114.1651810000,22.2782750000 114.1654420000,22.2782290000 114.1656290000,22.2782060000 114.1659150000,22.2781710000 114.1661510000,22.2781340000 114.1663180000,22.2781070000 114.1669630000,22.2780500000 114.1671340000,22.2780250000 114.1672900000,22.2779990000 114.1676740000,22.2779630000 114.1679990000,22.2779280000 114.1684570000,22.2778830000 114.1685490000,22.2781290000 114.1686000000,22.2782660000 114.1686130000,22.2782980000 114.1686310000,22.2783420000 114.1686660000,22.2784240000 114.1686720000,22.2784380000 114.1686840000,22.2784640000 114.1687300000,22.2785630000 114.1689260000,22.2789820000 114.1689850000,22.2791010000 114.1690780000,22.2792430000 114.1691690000,22.2793310000 114.1692590000,22.2793900000 114.1693580000,22.2794290000 114.1694220000,22.2794420000 114.1695020000,22.2794510000 114.1695860000,22.2794530000 114.1696890000,22.2794480000 114.1697160000,22.2794460000 114.1698770000,22.2794360000 114.1708590000,22.2793630000 114.1712560000,22.2793570000 114.1713150000,22.2793710000 114.1718200000,22.2793200000 114.1720500000,22.2793150000 114.1722800000,22.2793200000 114.1726800000,22.2793560000 114.1728720000,22.2793730000 114.1732280000,22.2794040000 114.1733400000,22.2794140000 114.1739900000,22.2794740000 114.1741380000,22.2795580000 114.1742450000,22.2796180000 114.1743100000,22.2797000000 114.1743390000,22.2797600000 114.1743590000,22.2798250000 114.1742870000,22.2805000000 114.1742850000,22.2805210000 114.1743150000,22.2805600000 114.1743030000,22.2806790000 114.1742500000,22.2812350000 114.1742420000,22.2813200000 114.1742380000,22.2813810000 114.1742200000,22.2816090000 114.1742130000,22.2817690000 114.1742110000,22.2818480000 114.1742540000,22.2819420000 114.1742550000,22.2819800000 114.1742540000,22.2820830000 114.1743330000,22.2821950000 114.1746310000,22.2821300000 114.1749260000,22.2820730000 114.1750870000,22.2820480000 114.1752220000,22.2820350000 114.1752810000,22.2820320000 114.1754110000,22.2820230000 114.1755440000,22.2820190000 114.1756040000,22.2820190000 114.1756580000,22.2820220000 114.1758780000,22.2820310000 114.1759810000,22.2820360000 114.1760700000,22.2820400000 114.1761640000,22.2820470000 114.1761890000,22.2820490000 114.1764000000,22.2820690000 114.1765630000,22.2820880000 114.1766010000,22.2820930000 114.1766580000,22.2820990000 114.1767080000,22.2821070000 114.1767710000,22.2821170000 114.1768560000,22.2821350000 114.1769760000,22.2821620000 114.1771100000,22.2821930000 114.1772970000,22.2822400000 114.1773230000,22.2822480000 114.1774300000,22.2822660000 114.1775870000,22.2823060000 114.1777870000,22.2823660000 114.1779680000,22.2824210000 114.1780280000,22.2824390000 114.1780700000,22.2824580000 114.1781010000,22.2824700000 114.1781380000,22.2824820000 114.1781870000,22.2824970000 114.1782270000,22.2825090000 114.1782760000,22.2825250000 114.1783380000,22.2825450000 114.1783740000,22.2825570000 114.1784580000,22.2825860000 114.1785280000,22.2826040000 114.1786000000,22.2826190000 114.1788320000,22.2826520000 114.1789370000,22.2826580000 114.1790760000,22.2826810000 114.1791990000,22.2827140000 114.1794900000,22.2828140000 114.1795740000,22.2828280000 114.1796360000,22.2828200000 114.1796900000,22.2828020000 114.1797350000,22.2827750000 114.1797720000,22.2827400000 114.1797920000,22.2827090000 114.1799420000,22.2823500000 114.1799700000,22.2823080000 114.1800240000,22.2822600000 114.1800900000,22.2822250000 114.1801600000,22.2822100000 114.1802200000,22.2822100000 114.1806880000,22.2822700000 114.1808210000,22.2822810000 114.1809340000,22.2822810000 114.1810450000,22.2822710000 114.1811700000,22.2822480000 114.1813030000,22.2822130000 114.1814240000,22.2821760000 114.1815110000,22.2821470000 114.1816220000,22.2820920000 114.1817320000,22.2820360000 114.1818980000,22.2819460000 114.1820740000,22.2819080000 114.1821660000,22.2818980000 114.1822440000,22.2818990000 114.1823330000,22.2819020000 114.1824040000,22.2819130000 114.1824850000,22.2819340000 114.1826300000,22.2819870000 114.1827130000,22.2820200000 114.1827980000,22.2820550000 114.1829230000,22.2820710000 114.1830180000,22.2821070000 114.1831550000,22.2821590000 114.1833640000,22.2822340000 114.1835080000,22.2822920000 114.1835630000,22.2823140000 114.1838660000,22.2824360000 114.1840860000,22.2825590000 114.1842650000,22.2826710000 114.1844800000,22.2828210000 114.1845330000,22.2828740000 114.1846660000,22.2830090000 114.1849700000,22.2832450000 114.1852740000,22.2834880000 114.1855820000,22.2837280000 114.1856950000,22.2837910000 114.1857960000,22.2838410000 114.1859320000,22.2838970000 114.1860540000,22.2839410000 114.1861730000,22.2839750000 114.1862920000,22.2840060000 114.1864260000,22.2840350000 114.1864880000,22.2840470000 114.1866930000,22.2840500000 114.1867750000,22.2840620000 114.1869530000,22.2841100000 114.1871010000,22.2841500000 114.1876080000,22.2842870000 114.1877600000,22.2843330000 114.1878710000,22.2843690000 114.1879750000,22.2844070000 114.1880870000,22.2844520000 114.1882060000,22.2845030000 114.1883220000,22.2845600000 114.1884160000,22.2846110000 114.1885120000,22.2846740000 114.1886060000,22.2847470000 114.1886940000,22.2848230000 114.1887610000,22.2848880000 114.1888380000,22.2849770000 114.1889120000,22.2850790000 114.1889710000,22.2851710000 114.1890180000,22.2852520000 114.1890540000,22.2853340000 114.1890910000,22.2854260000 114.1891200000,22.2855190000 114.1891440000,22.2856130000 114.1891730000,22.2857430000 114.1891900000,22.2858510000 114.1892000000,22.2859350000 114.1892080000,22.2860240000 114.1892130000,22.2861140000 114.1892260000,22.2864900000 114.1892310000,22.2865770000 114.1892390000,22.2866600000 114.1892520000,22.2867540000 114.1892640000,22.2868280000 114.1892800000,22.2869010000 114.1892930000,22.2869560000 114.1893120000,22.2870220000 114.1893520000,22.2871420000 114.1893760000,22.2872080000 114.1894130000,22.2872940000 114.1894620000,22.2874010000 114.1895110000,22.2875030000 114.1896410000,22.2877610000 114.1897480000,22.2879730000 114.1897680000,22.2880120000 114.1899050000,22.2882920000 114.1900860000,22.2886490000 114.1902500000,22.2889500000 114.1903820000,22.2891680000 114.1904500000,22.2892800000 114.1905550000,22.2894300000 114.1905900000,22.2894800000 114.1907500000,22.2896800000 114.1910500000,22.2900000000 114.1913660000,22.2902870000 114.1921570000,22.2909910000 114.1923870000,22.2911680000 114.1924300000,22.2912020000 114.1925570000,22.2913050000 114.1926230000,22.2913590000 114.1926890000,22.2914090000 114.1928130000,22.2914980000 114.1930120000,22.2916410000 114.1930980000,22.2917060000 114.1931220000,22.2917220000 114.1931500000,22.2917410000 114.1931790000,22.2917610000 114.1933530000,22.2918870000 114.1934530000,22.2919710000 114.1935380000,22.2920420000 114.1935600000,22.2920570000 114.1935890000,22.2920770000 114.1936150000,22.2920950000 114.1937360000,22.2921760000 114.1938530000,22.2922540000 114.1939710000,22.2923350000 114.1942000000,22.2924760000 114.1942290000,22.2924940000 114.1943770000,22.2925660000 114.1944670000,22.2926100000 114.1946230000,22.2926870000 114.1946890000,22.2927190000 114.1947490000,22.2927490000 114.1949190000,22.2928180000 114.1950130000,22.2928550000 114.1951890000,22.2929160000 114.1952860000,22.2929460000 114.1954310000,22.2929870000 114.1955320000,22.2930090000 114.1956910000,22.2930430000 114.1958170000,22.2930670000 114.1960670000,22.2931130000 114.1961620000,22.2931270000 114.1963610000,22.2931600000 114.1964840000,22.2931820000 114.1966050000,22.2932070000 114.1967740000,22.2932440000 114.1968570000,22.2932610000 114.1971240000,22.2933140000 114.1979380000,22.2934830000 114.1980630000,22.2935070000 114.1981920000,22.2935260000 114.1984040000,22.2935500000 114.1985630000,22.2935620000 114.1987190000,22.2935680000 114.1989060000,22.2935720000 114.1992000000,22.2935690000 114.1994040000,22.2935740000 114.1995900000,22.2935850000 114.1997700000,22.2936020000 114.1999500000,22.2936270000 114.2001000000,22.2936520000 114.2004940000,22.2937360000 114.2005620000,22.2937500000 114.2013180000,22.2939100000 114.2015380000,22.2939610000 114.2018510000,22.2940330000 114.2020960000,22.2940870000 114.2021880000,22.2941020000 114.2025300000,22.2941540000 114.2026050000,22.2941710000 114.2028680000,22.2942240000 114.2031620000,22.2942590000 114.2034130000,22.2942700000 114.2035000000,22.2942730000 114.2037630000,22.2942770000 114.2039330000,22.2942720000 114.2040330000,22.2942680000 114.2042530000,22.2942480000 114.2045700000,22.2942130000 114.2047400000,22.2941890000 114.2049790000,22.2941720000 114.2050480000,22.2941670000 114.2052070000,22.2941560000 114.2052900000,22.2941450000 114.2057090000,22.2940920000 114.2058390000,22.2940690000 114.2059740000,22.2940410000 114.2061450000,22.2940000000 114.2063050000,22.2939520000 114.2064890000,22.2938890000 114.2073080000,22.2935620000 114.2075320000,22.2934770000 114.2077810000,22.2933920000 114.2082330000,22.2932500000 114.2085090000,22.2931560000 114.2087820000,22.2930640000 114.2089400000,22.2930070000 114.2090780000,22.2929240000 114.2092580000,22.2928120000 114.2094910000,22.2926640000 114.2097870000,22.2924670000 114.2103300000,22.2920690000 114.2107360000,22.2917730000 114.2110800000,22.2915210000 114.2112770000,22.2913910000 114.2114890000,22.2912520000 114.2115750000,22.2911980000 114.2117400000,22.2910950000 114.2120130000,22.2909330000 114.2121350000,22.2908620000 114.2122140000,22.2908150000 114.2122920000,22.2907670000 114.2124160000,22.2906960000 114.2125630000,22.2906120000 114.2128380000,22.2904560000 114.2130110000,22.2903960000 114.2131490000,22.2903480000 114.2132210000,22.2903240000 114.2132900000,22.2903010000 114.2133910000,22.2902620000 114.2136010000,22.2901930000 114.2137590000,22.2901410000 114.2141980000,22.2900120000 114.2152080000,22.2897610000 114.2154200000,22.2897020000 114.2159290000,22.2895610000 114.2159970000,22.2895460000 114.2162200000,22.2894900000 114.2167600000,22.2893500000 114.2170400000,22.2892800000 114.2175060000,22.2891330000 114.2189290000,22.2887910000 114.2192940000,22.2887030000 114.2194430000,22.2886760000 114.2201540000,22.2885500000 114.2203430000,22.2885060000 114.2205530000,22.2883420000 114.2208100000,22.2882010000 114.2209880000,22.2880670000 114.2210930000,22.2879740000 114.2211750000,22.2878860000 114.2212490000,22.2877980000 114.2213110000,22.2877160000 114.2213780000,22.2876130000 114.2214340000,22.2875140000 114.2214840000,22.2874070000 114.2215330000,22.2872850000 114.2215700000,22.2871650000 114.2215990000,22.2870380000 114.2216080000,22.2869900000 114.2216280000,22.2868730000 114.2216450000,22.2867330000 114.2216520000,22.2866170000 114.2216580000,22.2864770000 114.2216510000,22.2861350000 114.2216500000,22.2860650000 114.2216380000,22.2858660000 114.2216200000,22.2854930000 114.2216140000,22.2853590000 114.2216140000,22.2852130000 114.2216160000,22.2851660000 114.2216280000,22.2850660000 114.2216390000,22.2849920000 114.2216570000,22.2848460000 114.2217210000,22.2845490000 114.2217290000,22.2845120000 114.2217890000,22.2843640000 114.2218960000,22.2841760000 114.2219450000,22.2841040000 114.2220630000,22.2839340000 114.2221160000,22.2838690000 114.2221460000,22.2838240000 114.2222370000,22.2836940000 114.2222670000,22.2836510000 114.2223440000,22.2835590000 114.2223620000,22.2835380000 114.2223730000,22.2835240000 114.2223880000,22.2835040000 114.2224460000,22.2834310000 114.2226780000,22.2831370000 114.2226920000,22.2831200000 114.2227110000,22.2830960000 114.2227220000,22.2830820000 114.2227410000,22.2830550000 114.2227590000,22.2830340000 114.2228740000,22.2828890000 114.2229740000,22.2827720000 114.2229100000,22.2827240000 114.2227960000,22.2826470000 114.2226230000,22.2825280000 114.2225770000,22.2824960000 114.2224410000,22.2823990000 114.2223970000,22.2823670000 114.2222020000,22.2822340000 114.2220900000,22.2821170000 114.2220320000,22.2820670000 114.2220680000,22.2820190000 114.2221130000,22.2819570000 114.2221610000,22.2818620000 114.2222080000,22.2818010000 114.2223310000,22.2816260000 114.2223690000,22.2815750000 114.2223880000,22.2815450000 114.2224120000,22.2815070000 114.2224640000,22.2814480000 114.2225000000,22.2814120000 114.2225640000,22.2813550000 114.2226280000,22.2813030000 114.2226870000,22.2812600000 114.2227470000,22.2812180000 114.2228500000,22.2811500000 114.2228920000,22.2811240000 114.2229760000,22.2810770000 114.2230730000,22.2810250000 114.2235360000,22.2808090000 114.2238400000,22.2806670000 114.2239520000,22.2806170000 114.2239820000,22.2806050000 114.2240220000,22.2805890000 114.2242660000,22.2805100000 114.2243390000,22.2804910000 114.2246020000,22.2804400000 114.2247070000,22.2804170000 114.2249550000,22.2803650000 114.2251630000,22.2803200000 114.2252120000,22.2803100000 114.2252810000,22.2802910000 114.2253510000,22.2802590000 114.2254130000,22.2802190000 114.2254540000,22.2801860000 114.2254940000,22.2801420000 114.2255160000,22.2801150000 114.2255370000,22.2800870000 114.2255930000,22.2799970000 114.2255990000,22.2799890000 114.2257570000,22.2797370000 114.2258160000,22.2796400000 114.2260390000,22.2792770000 114.2262930000,22.2788620000 114.2263540000,22.2787620000 114.2263630000,22.2787480000 114.2265830000,22.2783890000 114.2266320000,22.2783090000 114.2268930000,22.2778750000 114.2269840000,22.2777290000 114.2270500000,22.2776460000 114.2271230000,22.2775830000 114.2271790000,22.2775490000 114.2280260000,22.2771020000 114.2282110000,22.2770180000 114.2283010000,22.2774100000 114.2283630000,22.2776890000 114.2283800000,22.2777640000 114.2284600000,22.2781250000 114.2285230000,22.2785590000 114.2285270000,22.2785860000 114.2285440000,22.2786080000 114.2285680000,22.2786210000 114.2285910000,22.2786250000 114.2286670000,22.2786110000 114.2286960000,22.2786050000 114.2293950000,22.2784670000 114.2294480000,22.2784680000 114.2294940000,22.2784750000 114.2295090000,22.2784820000 114.2295360000,22.2784940000 114.2295710000,22.2785230000 114.2295950000,22.2785610000 114.2296120000,22.2786150000 114.2295850000,22.2787370000 114.2295290000,22.2789140000 114.2295080000,22.2789760000 114.2294920000,22.2790300000 114.2294060000,22.2791840000 114.2293970000,22.2792240000 114.2293570000,22.2794130000 114.2292300000,22.2795300000 114.2291820000,22.2795590000 114.2291560000,22.2795740000 114.2291300000,22.2795900000 114.2284740000,22.2795940000 114.2284150000,22.2795950000 114.2283740000,22.2795950000 114.2282210000,22.2796040000 114.2281310000,22.2796040000 114.2281300000,22.2796800000 114.2281300000,22.2798400000 114.2281300000,22.2803340000 114.2281300000,22.2809750000 114.2281300000,22.2814700000 114.2281300000,22.2819650000 114.2281300000,22.2820120000 114.2281300000,22.2821700000 114.2282200000,22.2821700000 114.2283780000,22.2821710000 114.2288050000,22.2821700000 114.2293200000,22.2821750000 114.2295580000,22.2821770000 114.2297270000,22.2821820000 114.2298550000,22.2821850000 114.2299290000,22.2821830000 114.2299790000,22.2821750000 114.2300580000,22.2821580000 114.2301170000,22.2821350000 114.2301690000,22.2821120000 114.2303360000,22.2820300000 114.2303870000,22.2820140000 114.2304140000,22.2820100000 114.2304300000,22.2820070000 114.2305050000,22.2820000000 114.2305870000,22.2821030000 114.2307350000,22.2822550000 114.2307890000,22.2823010000 114.2309070000,22.2823960000 114.2310740000,22.2825110000 114.2312140000,22.2825940000 114.2313210000,22.2826500000 114.2315310000,22.2827430000 114.2316140000,22.2827750000 114.2317800000,22.2828230000 114.2320170000,22.2828760000 114.2321590000,22.2828980000 114.2323530000,22.2829130000 114.2324960000,22.2829130000 114.2326390000,22.2829020000 114.2328300000,22.2828820000 114.2329290000,22.2828660000 114.2330780000,22.2828400000 114.2332440000,22.2828050000 114.2334290000,22.2827570000 114.2335300000,22.2827260000 114.2336390000,22.2826870000 114.2337690000,22.2826310000 114.2339410000,22.2825410000 114.2340650000,22.2824680000 114.2342450000,22.2823430000 114.2343940000,22.2822240000 114.2344850000,22.2821390000 114.2345960000,22.2820270000 114.2347550000,22.2818300000 114.2349220000,22.2815870000 114.2349950000,22.2814670000 114.2351760000,22.2811350000 114.2352730000,22.2809770000 114.2354100000,22.2807870000 114.2355000000,22.2806650000 114.2359260000,22.2800860000 114.2360840000,22.2798690000 114.2361770000,22.2797450000 114.2363150000,22.2795400000 114.2363990000,22.2794150000 114.2364910000,22.2792560000 114.2365360000,22.2791650000 114.2365860000,22.2790520000 114.2366270000,22.2789410000 114.2366600000,22.2788280000 114.2366730000,22.2787680000 114.2367000000,22.2786580000 114.2367090000,22.2786230000 114.2367190000,22.2785830000 114.2367290000,22.2785440000 114.2368860000,22.2779410000 114.2369140000,22.2778420000 114.2369490000,22.2777280000 114.2369920000,22.2776060000 114.2370430000,22.2774730000 114.2371080000,22.2773270000 114.2371880000,22.2771640000 114.2373350000,22.2769080000 114.2375000000,22.2766770000 114.2388040000,22.2751210000 114.2390540000,22.2747850000 114.2392060000,22.2745190000 114.2393160000,22.2742690000 114.2393840000,22.2740700000 114.2394400000,22.2738550000 114.2394720000,22.2736770000 114.2394930000,22.2734740000 114.2394940000,22.2732460000 114.2394770000,22.2730170000 114.2394400000,22.2727910000 114.2393280000,22.2723540000 114.2391680000,22.2719100000 114.2387840000,22.2707470000 114.2387460000,22.2705900000 114.2387310000,22.2705030000 114.2387230000,22.2704230000 114.2387210000,22.2703330000 114.2387270000,22.2702400000 114.2387560000,22.2701000000 114.2388060000,22.2699710000 114.2388450000,22.2698950000 114.2389010000,22.2698090000 114.2389570000,22.2697420000 114.2390160000,22.2696830000 114.2390820000,22.2696250000 114.2391540000,22.2695710000 114.2393490000,22.2694660000 114.2395560000,22.2693690000 114.2396640000,22.2693140000 114.2403950000,22.2689720000 114.2409050000,22.2687450000 114.2413990000,22.2685270000 114.2414770000,22.2684870000 114.2415490000,22.2684420000 114.2416210000,22.2683920000 114.2417440000,22.2682910000 114.2418170000,22.2682180000 114.2423070000,22.2676280000 114.2426820000,22.2671710000 114.2427390000,22.2671000000 114.2428080000,22.2670000000 114.2431070000,22.2665200000 114.2431860000,22.2663800000 114.2432320000,22.2663050000 114.2432580000,22.2662660000 114.2433210000,22.2661860000 114.2434650000,22.2660400000 114.2435860000,22.2659580000 114.2437200000,22.2658920000 114.2439200000,22.2658210000 114.2441220000,22.2657760000 114.2442580000,22.2657640000 114.2443920000,22.2657650000 114.2445640000,22.2657840000 114.2446780000,22.2658060000 114.2450480000,22.2658850000 114.2451570000,22.2659060000 114.2452690000,22.2659240000 114.2453750000,22.2659370000 114.2454740000,22.2659430000 114.2456320000,22.2659460000 114.2457800000,22.2659400000 114.2460000000,22.2659200000 114.2461500000,22.2659000000 114.2462900000,22.2658700000 114.2465210000,22.2657970000 114.2465730000,22.2657960000 114.2466070000,22.2657940000 114.2466450000,22.2657990000 114.2466810000,22.2658070000 114.2467100000,22.2658190000 114.2467440000,22.2658410000 114.2467710000,22.2658670000 114.2467970000,22.2659020000 114.2468220000,22.2659450000 114.2468600000,22.2660630000 114.2468480000,22.2665550000 114.2468460000,22.2666590000 114.2468460000,22.2667430000 114.2469380000,22.2667420000 114.2470000000,22.2667410000 114.2470180000,22.2667400000 114.2470680000,22.2666990000 114.2471160000,22.2666970000 114.2474430000,22.2667080000 114.2475990000,22.2666980000 114.2477540000,22.2667160000 114.2478230000,22.2667010000 114.2480400000,22.2666500000 114.2494280000,22.2662880000 114.2495250000,22.2662610000 114.2496040000,22.2662350000 114.2496980000,22.2662030000 114.2497690000,22.2661770000 114.2498340000,22.2661510000 114.2498930000,22.2661260000 114.2499350000,22.2661210000 114.2499760000,22.2661210000 114.2500110000,22.2661260000 114.2500410000,22.2661310000 114.2500750000,22.2661420000 114.2501010000,22.2661520000 114.2501260000,22.2661670000 114.2501640000,22.2661990000 114.2506510000,22.2666490000 114.2506840000,22.2666740000 114.2507100000,22.2666850000 114.2507330000,22.2666940000 114.2507590000,22.2666990000 114.2508690000,22.2667080000 114.2508890000,22.2667070000 114.2509050000,22.2667030000 114.2509210000,22.2666970000 114.2509470000,22.2666790000 114.2511130000,22.2665270000 114.2511610000,22.2664830000 114.2514290000,22.2662390000 114.2514430000,22.2662180000 114.2514530000,22.2661990000 114.2514570000,22.2661820000 114.2514600000,22.2660920000 114.2514570000,22.2660690000 114.2514520000,22.2660490000 114.2514400000,22.2660290000 114.2511060000,22.2657150000 114.2510690000,22.2656880000 114.2510540000,22.2656810000 114.2510380000,22.2656790000 114.2510230000,22.2656800000 114.2510020000,22.2656840000 114.2509790000,22.2656920000 114.2509300000,22.2657170000 114.2509070000,22.2657280000 114.2508840000,22.2657430000 114.2508650000,22.2657640000 114.2508550000,22.2657810000 114.2508470000,22.2658020000 114.2508450000,22.2658370000 114.2508390000,22.2658630000 114.2508300000,22.2658830000 114.2508140000,22.2659040000 114.2507920000,22.2659280000 114.2507400000,22.2659740000 114.2507170000,22.2659870000 114.2506940000,22.2659900000 114.2506660000,22.2659890000 114.2506380000,22.2659780000 114.2506050000,22.2659550000 114.2505450000,22.2659040000 114.2505260000,22.2658840000 114.2505030000,22.2658570000 114.2504630000,22.2658080000 114.2504010000,22.2657440000 114.2503300000,22.2657950000 114.2502640000,22.2658370000 114.2502260000,22.2658690000 114.2500270000,22.2659740000 114.2498320000,22.2660670000 114.2496980000,22.2661200000 114.2495730000,22.2661640000 114.2494490000,22.2662020000 114.2491080000,22.2662900000 114.2484590000,22.2664580000 114.2479290000,22.2665950000 114.2478140000,22.2666250000 114.2477610000,22.2666380000 114.2475990000,22.2666980000 114.2474430000,22.2667080000 114.2471160000,22.2666970000 114.2470680000,22.2666990000 114.2470280000,22.2666640000 114.2470050000,22.2666620000 114.2469400000,22.2666600000 114.2469430000,22.2665570000 114.2469470000,22.2663990000 114.2469580000,22.2660040000 114.2469490000,22.2659010000 114.2469400000,22.2658570000 114.2469300000,22.2658210000 114.2469160000,22.2657820000 114.2468970000,22.2657430000 114.2468550000,22.2656570000 114.2468110000,22.2655690000 114.2467400000,22.2656020000 114.2465200000,22.2656900000 114.2463470000,22.2657440000 114.2462070000,22.2657810000 114.2460540000,22.2658140000 114.2459480000,22.2658310000 114.2457940000,22.2658440000 114.2457140000,22.2658470000 114.2456390000,22.2658500000 114.2455640000,22.2658500000 114.2454900000,22.2658460000 114.2453610000,22.2658340000 114.2452350000,22.2658200000 114.2450700000,22.2657900000 114.2449990000,22.2657750000 114.2447460000,22.2657200000 114.2447000000,22.2657100000 114.2445830000,22.2656860000 114.2444610000,22.2656650000 114.2443480000,22.2656500000 114.2442310000,22.2656440000 114.2441230000,22.2656460000 114.2440380000,22.2656630000 114.2438460000,22.2657250000 114.2437370000,22.2657690000 114.2436300000,22.2658190000 114.2435560000,22.2658600000 114.2434760000,22.2659120000 114.2434170000,22.2659560000 114.2433600000,22.2660040000 114.2432490000,22.2661100000 114.2431150000,22.2662910000 114.2426740000,22.2669910000 114.2420360000,22.2677890000 114.2417570000,22.2680890000 114.2416930000,22.2681530000 114.2415340000,22.2682790000 114.2413910000,22.2683650000 114.2410990000,22.2685190000 114.2408070000,22.2686470000 114.2398400000,22.2690690000 114.2397860000,22.2690900000 114.2395620000,22.2692000000 114.2393870000,22.2693110000 114.2390990000,22.2694620000 114.2389840000,22.2695400000 114.2388680000,22.2696390000 114.2387770000,22.2697460000 114.2386910000,22.2698800000 114.2386590000,22.2699530000 114.2386310000,22.2700350000 114.2386090000,22.2701260000 114.2385960000,22.2702310000 114.2385940000,22.2703180000 114.2386020000,22.2704130000 114.2386260000,22.2705530000 114.2386580000,22.2706890000 114.2388440000,22.2713530000 114.2391590000,22.2722780000 114.2392430000,22.2725450000 114.2392910000,22.2727140000 114.2393240000,22.2728570000 114.2393460000,22.2729910000 114.2393630000,22.2731330000 114.2393730000,22.2732560000 114.2393750000,22.2733820000 114.2393710000,22.2735130000 114.2393540000,22.2736650000 114.2393250000,22.2738250000 114.2392870000,22.2739860000 114.2392450000,22.2741240000 114.2392050000,22.2742440000 114.2391490000,22.2743750000 114.2390890000,22.2745010000 114.2390290000,22.2746120000 114.2389630000,22.2747230000 114.2388870000,22.2748380000 114.2388160000,22.2749360000 114.2387520000,22.2750200000 114.2386830000,22.2751040000 114.2375420000,22.2764650000 114.2374170000,22.2766210000 114.2373250000,22.2767460000 114.2372560000,22.2768480000 114.2371670000,22.2769930000 114.2371030000,22.2771070000 114.2370510000,22.2772100000 114.2369960000,22.2773260000 114.2369350000,22.2774750000 114.2368700000,22.2776600000 114.2367930000,22.2779100000 114.2366440000,22.2785280000 114.2366360000,22.2785600000 114.2366210000,22.2786070000 114.2366090000,22.2786410000 114.2365730000,22.2787530000 114.2364020000,22.2791420000 114.2363310000,22.2792660000 114.2358180000,22.2800200000 114.2353720000,22.2806110000 114.2352810000,22.2807320000 114.2350780000,22.2809760000 114.2349990000,22.2810520000 114.2347300000,22.2813150000 114.2346850000,22.2813650000 114.2341840000,22.2819110000 114.2340320000,22.2820830000 114.2339610000,22.2821620000 114.2338720000,22.2822490000 114.2337240000,22.2823760000 114.2336700000,22.2824180000 114.2335430000,22.2824980000 114.2334740000,22.2825340000 114.2333690000,22.2825800000 114.2332080000,22.2826370000 114.2330380000,22.2826830000 114.2329580000,22.2827020000 114.2328190000,22.2827250000 114.2326230000,22.2827470000 114.2325270000,22.2827500000 114.2323140000,22.2827490000 114.2321960000,22.2827400000 114.2320070000,22.2827130000 114.2318020000,22.2826670000 114.2316750000,22.2826280000 114.2315320000,22.2825670000 114.2313730000,22.2825000000 114.2311590000,22.2823790000 114.2310290000,22.2822890000 114.2309240000,22.2822020000 114.2308170000,22.2821010000 114.2307780000,22.2820630000 114.2306970000,22.2819790000 114.2305900000,22.2818500000 114.2305900000,22.2818000000 114.2305990000,22.2816610000 114.2306620000,22.2812030000 114.2306690000,22.2811510000 114.2307060000,22.2810020000 114.2307090000,22.2809760000 114.2307160000,22.2808810000 114.2307160000,22.2808510000 114.2307110000,22.2808160000 114.2306910000,22.2807700000 114.2304250000,22.2802420000 114.2303860000,22.2801660000 114.2303610000,22.2801150000 114.2303360000,22.2800580000 114.2300040000,22.2792050000 114.2299950000,22.2791760000 114.2299910000,22.2791470000 114.2299890000,22.2791220000 114.2299900000,22.2791030000 114.2299950000,22.2790800000 114.2300420000,22.2789290000 114.2302940000,22.2781290000 114.2303080000,22.2780610000 114.2303090000,22.2779920000 114.2302980000,22.2779240000 114.2302750000,22.2778590000 114.2302660000,22.2778330000 114.2302470000,22.2777770000 114.2301150000,22.2775820000 114.2299150000,22.2772160000 114.2298700000,22.2771350000 114.2298610000,22.2771190000 114.2298470000,22.2770930000 114.2298140000,22.2770340000 114.2297770000,22.2769710000 114.2296810000,22.2768130000 114.2296350000,22.2767650000 114.2295540000,22.2767220000 114.2294920000,22.2767040000 114.2294340000,22.2766990000 114.2293830000,22.2767020000 114.2292630000,22.2767190000 114.2291160000,22.2767500000 114.2290490000,22.2767110000 114.2290310000,22.2767140000 114.2288600000,22.2767470000 114.2288360000,22.2767520000 114.2288050000,22.2767580000 114.2287530000,22.2767850000 114.2286510000,22.2768050000 114.2285640000,22.2768210000 114.2284640000,22.2768420000 114.2283180000,22.2768910000 114.2282020000,22.2769410000 114.2278120000,22.2771210000 114.2272170000,22.2774260000 114.2271020000,22.2774880000 114.2270670000,22.2775080000 114.2270000000,22.2775590000 114.2269410000,22.2776260000 114.2269050000,22.2776770000 114.2265440000,22.2782660000 114.2264970000,22.2783430000 114.2262700000,22.2787140000 114.2261680000,22.2788810000 114.2257310000,22.2795960000 114.2256930000,22.2796580000 114.2255780000,22.2795980000 114.2253800000,22.2794940000 114.2252630000,22.2796930000 114.2252350000,22.2797150000 114.2251930000,22.2797290000 114.2249420000,22.2797820000 114.2249130000,22.2797880000 114.2245710000,22.2798590000 114.2242080000,22.2799350000 114.2237390000,22.2800800000 114.2233260000,22.2802600000 114.2231440000,22.2803470000 114.2226450000,22.2805910000 114.2226090000,22.2806110000 114.2223930000,22.2807400000 114.2222230000,22.2808700000 114.2221130000,22.2809670000 114.2220290000,22.2810520000 114.2219660000,22.2811160000 114.2219410000,22.2811470000 114.2219340000,22.2811820000 114.2219420000,22.2812100000 114.2215880000,22.2816670000 114.2215430000,22.2817240000 114.2215020000,22.2817760000 114.2211920000,22.2821620000 114.2211420000,22.2821940000 114.2210660000,22.2822420000 114.2207770000,22.2826090000 114.2209860000,22.2827500000 114.2211510000,22.2828620000 114.2212030000,22.2828980000 114.2212480000,22.2829300000 114.2212680000,22.2829440000 114.2213170000,22.2829780000 114.2213770000,22.2830200000 114.2215850000,22.2831620000 114.2216600000,22.2832130000 114.2218290000,22.2833290000 114.2218720000,22.2833580000 114.2219410000,22.2834050000 114.2219920000,22.2834400000 114.2221230000,22.2835410000 114.2221380000,22.2835530000 114.2221560000,22.2835670000 114.2221720000,22.2835790000 114.2222160000,22.2836120000 114.2221830000,22.2836590000 114.2220860000,22.2837970000 114.2220570000,22.2838370000 114.2220100000,22.2839020000 114.2218850000,22.2840740000 114.2218230000,22.2841580000 114.2217290000,22.2843330000 114.2216600000,22.2845010000 114.2215600000,22.2848340000 114.2215110000,22.2849770000 114.2214870000,22.2850440000 114.2214500000,22.2851530000 114.2214290000,22.2852100000 114.2214170000,22.2852420000 114.2213990000,22.2852830000 114.2213850000,22.2853120000 114.2213590000,22.2853570000 114.2213530000,22.2855080000 114.2213570000,22.2858410000 114.2213610000,22.2860780000 114.2213760000,22.2866650000 114.2213690000,22.2867960000 114.2213550000,22.2869820000 114.2213220000,22.2871970000 114.2212320000,22.2874440000 114.2211840000,22.2875360000 114.2211090000,22.2876640000 114.2210020000,22.2877990000 114.2209110000,22.2878780000 114.2207880000,22.2879490000 114.2206690000,22.2880380000 114.2204850000,22.2881450000 114.2203750000,22.2882000000 114.2202220000,22.2882780000 114.2200180000,22.2883510000 114.2198480000,22.2883900000 114.2198020000,22.2884010000 114.2197290000,22.2884130000 114.2196740000,22.2884270000 114.2194880000,22.2884760000 114.2192360000,22.2885300000 114.2190490000,22.2885710000 114.2185110000,22.2886880000 114.2180910000,22.2887630000 114.2172060000,22.2889130000 114.2168690000,22.2889320000 114.2167970000,22.2889440000 114.2163450000,22.2890210000 114.2160060000,22.2890940000 114.2159010000,22.2891190000 114.2157740000,22.2891470000 114.2153060000,22.2892730000 114.2151250000,22.2893220000 114.2147580000,22.2894410000 114.2142880000,22.2896070000 114.2137820000,22.2898170000 114.2134510000,22.2899700000 114.2133040000,22.2900230000 114.2131690000,22.2900720000 114.2127380000,22.2903170000 114.2124830000,22.2904610000 114.2123200000,22.2905530000 114.2122130000,22.2906180000 114.2121310000,22.2906670000 114.2120320000,22.2907270000 114.2119230000,22.2907940000 114.2116530000,22.2909590000 114.2114960000,22.2910550000 114.2114030000,22.2911130000 114.2111810000,22.2912530000 114.2110560000,22.2913310000 114.2109730000,22.2913830000 114.2106220000,22.2916380000 114.2102020000,22.2919430000 114.2096790000,22.2923280000 114.2094250000,22.2924890000 114.2091620000,22.2926270000 114.2088160000,22.2927860000 114.2086880000,22.2928400000 114.2084250000,22.2929190000 114.2081530000,22.2930010000 114.2077170000,22.2931270000 114.2072230000,22.2932690000 114.2071640000,22.2932870000 114.2066740000,22.2934340000 114.2061700000,22.2935940000 114.2056640000,22.2937480000 114.2053700000,22.2938370000 114.2050060000,22.2939470000 114.2049120000,22.2939730000 114.2046900000,22.2940290000 114.2045330000,22.2940650000 114.2042430000,22.2941180000 114.2040330000,22.2941470000 114.2039120000,22.2941540000 114.2037320000,22.2941650000 114.2035270000,22.2941680000 114.2034090000,22.2941650000 114.2032010000,22.2941380000 114.2031730000,22.2941340000 114.2030020000,22.2941110000 114.2029330000,22.2941020000 114.2028290000,22.2940850000 114.2026460000,22.2940560000 114.2025500000,22.2940360000 114.2022170000,22.2939690000 114.2021190000,22.2939490000 114.2018350000,22.2938920000 114.2015540000,22.2938360000 114.2013450000,22.2937940000 114.2005900000,22.2936420000 114.2005170000,22.2936260000 114.2000710000,22.2935390000 114.1999040000,22.2935110000 114.1997390000,22.2934890000 114.1995910000,22.2934740000 114.1994500000,22.2934640000 114.1992990000,22.2934600000 114.1989250000,22.2934630000 114.1987990000,22.2934610000 114.1986680000,22.2934560000 114.1984820000,22.2934470000 114.1983720000,22.2934380000 114.1982150000,22.2934210000 114.1980750000,22.2933990000 114.1971540000,22.2932100000 114.1968890000,22.2931570000 114.1966340000,22.2931040000 114.1963890000,22.2930500000 114.1963650000,22.2930450000 114.1962830000,22.2930270000 114.1961050000,22.2929900000 114.1958550000,22.2929350000 114.1956370000,22.2928790000 114.1955750000,22.2928640000 114.1955000000,22.2928430000 114.1953420000,22.2928020000 114.1950760000,22.2927130000 114.1949500000,22.2926590000 114.1948340000,22.2926050000 114.1947770000,22.2925780000 114.1947230000,22.2925510000 114.1945570000,22.2924640000 114.1944720000,22.2924140000 114.1943380000,22.2923400000 114.1943010000,22.2923180000 114.1940990000,22.2921780000 114.1939740000,22.2920840000 114.1938490000,22.2919940000 114.1937010000,22.2918840000 114.1936750000,22.2918610000 114.1936060000,22.2918030000 114.1935350000,22.2917410000 114.1934410000,22.2916610000 114.1933890000,22.2916150000 114.1933500000,22.2915810000 114.1933240000,22.2915550000 114.1933070000,22.2915380000 114.1932510000,22.2914830000 114.1931350000,22.2913490000 114.1931050000,22.2912530000 114.1930930000,22.2912180000 114.1930760000,22.2911620000 114.1930060000,22.2910820000 114.1929330000,22.2909960000 114.1928030000,22.2908470000 114.1922990000,22.2903210000 114.1915880000,22.2895560000 114.1913760000,22.2893230000 114.1912520000,22.2891910000 114.1906770000,22.2885810000 114.1903320000,22.2882150000 114.1900190000,22.2878880000 114.1899830000,22.2878420000 114.1898890000,22.2877330000 114.1898310000,22.2876540000 114.1897600000,22.2875550000 114.1896840000,22.2874280000 114.1896380000,22.2873400000 114.1895570000,22.2872390000 114.1894580000,22.2870630000 114.1894350000,22.2869950000 114.1894190000,22.2869350000 114.1894020000,22.2868650000 114.1893850000,22.2867830000 114.1893780000,22.2867270000 114.1893710000,22.2866570000 114.1893630000,22.2865650000 114.1893570000,22.2864690000 114.1893520000,22.2863510000 114.1893440000,22.2860110000 114.1893380000,22.2859370000 114.1893310000,22.2858670000 114.1893190000,22.2857830000 114.1893060000,22.2857010000 114.1892870000,22.2856040000 114.1892600000,22.2854970000 114.1892280000,22.2853930000 114.1891830000,22.2852740000 114.1891130000,22.2851340000 114.1890310000,22.2850070000 114.1889800000,22.2849320000 114.1888980000,22.2848300000 114.1888130000,22.2847440000 114.1887120000,22.2846530000 114.1885960000,22.2845670000 114.1884740000,22.2844880000 114.1883480000,22.2844200000 114.1882350000,22.2843700000 114.1880960000,22.2843140000 114.1879710000,22.2842690000 114.1877860000,22.2842120000 114.1876240000,22.2841670000 114.1871890000,22.2840570000 114.1871400000,22.2840320000 114.1870940000,22.2839960000 114.1869060000,22.2839590000 114.1866430000,22.2839070000 114.1865190000,22.2838830000 114.1864390000,22.2838650000 114.1863640000,22.2838430000 114.1862310000,22.2837970000 114.1860990000,22.2837360000 114.1859880000,22.2836800000 114.1859020000,22.2836190000 114.1857900000,22.2835350000 114.1854100000,22.2832190000 114.1853700000,22.2830900000 114.1853570000,22.2830570000 114.1853510000,22.2830110000 114.1853570000,22.2829480000 114.1853690000,22.2828840000 114.1854000000,22.2828000000 114.1854150000,22.2827580000 114.1854550000,22.2826640000 114.1851190000,22.2825450000 114.1850410000,22.2825190000 114.1849860000,22.2825020000 114.1848210000,22.2824510000 114.1844310000,22.2823490000 114.1844250000,22.2823480000 114.1840550000,22.2823030000 114.1836400000,22.2821430000 114.1835710000,22.2821150000 114.1834410000,22.2820630000 114.1832710000,22.2819960000 114.1831930000,22.2819650000 114.1831000000,22.2819290000 114.1830130000,22.2818950000 114.1828970000,22.2818500000 114.1827910000,22.2818100000 114.1826870000,22.2817690000 114.1823980000,22.2816580000 114.1823200000,22.2816240000 114.1822920000,22.2816120000 114.1821640000,22.2815570000 114.1820830000,22.2814670000 114.1820720000,22.2814120000 114.1820820000,22.2813460000 114.1820970000,22.2812920000 114.1821130000,22.2812310000 114.1821320000,22.2811620000 114.1822120000,22.2809710000 114.1822210000,22.2808970000 114.1823530000,22.2805950000 114.1823680000,22.2805570000 114.1824210000,22.2804490000 114.1822950000,22.2804030000 114.1822370000,22.2803800000 114.1818560000,22.2802390000 114.1818110000,22.2801920000 114.1811270000,22.2799270000 114.1810340000,22.2798910000 114.1809470000,22.2798580000 114.1803460000,22.2796320000 114.1798480000,22.2794440000 114.1797300000,22.2794000000 114.1797030000,22.2793900000 114.1796030000,22.2793520000 114.1795250000,22.2793250000 114.1794220000,22.2792880000 114.1793760000,22.2792750000 114.1780650000,22.2788910000 114.1780340000,22.2788810000 114.1778810000,22.2788380000 114.1777420000,22.2788020000 114.1769890000,22.2785760000 114.1769020000,22.2785570000 114.1767580000,22.2785370000 114.1766180000,22.2785220000 114.1753930000,22.2783930000 114.1748360000,22.2783340000 114.1747330000,22.2783180000 114.1747420000,22.2782430000 114.1747440000,22.2782270000 114.1747120000,22.2781910000 114.1747400000,22.2779910000 114.1747450000,22.2779540000 114.1747610000,22.2778310000 114.1747750000,22.2777180000 114.1745480000,22.2776960000 114.1742060000,22.2776600000 114.1738680000,22.2776250000 114.1733630000,22.2775710000 114.1732660000,22.2775590000 114.1727110000,22.2774990000 114.1726580000,22.2774930000 114.1726160000,22.2774890000 114.1721470000,22.2774340000 114.1718250000,22.2774610000 114.1717810000,22.2774650000 114.1717310000,22.2774690000 114.1716670000,22.2774760000 114.1716020000,22.2774820000 114.1714550000,22.2774930000 114.1711990000,22.2775120000 114.1708780000,22.2775360000 114.1704740000,22.2775620000 114.1704210000,22.2775660000 114.1703370000,22.2775710000 114.1700670000,22.2775950000 114.1697600000,22.2776220000 114.1694230000,22.2776510000 114.1693980000,22.2776540000 114.1693450000,22.2776590000 114.1692610000,22.2776680000 114.1685170000,22.2777300000 114.1683360000,22.2777460000 114.1679670000,22.2777780000 114.1679210000,22.2777820000 114.1675240000,22.2778170000 114.1674650000,22.2778220000 114.1673240000,22.2778430000 114.1663690000,22.2779390000 114.1661220000,22.2779690000 114.1659210000,22.2779930000 114.1657880000,22.2780080000 114.1654950000,22.2780460000 114.1654670000,22.2780500000 114.1654250000,22.2780560000 114.1651600000,22.2780920000 114.1649730000,22.2781170000 114.1648930000,22.2781330000 114.1648760000,22.2781360000 114.1646860000,22.2781740000 114.1644950000,22.2782280000 114.1643070000,22.2782990000 114.1640380000,22.2784180000 114.1638230000,22.2785170000 114.1637050000,22.2785840000 114.1636400000,22.2786240000 114.1634530000,22.2787390000 114.1633770000,22.2787880000 114.1630190000,22.2790660000 114.1628030000,22.2792020000 114.1627520000,22.2792310000 114.1622500000,22.2794900000 114.1621990000,22.2795150000 114.1620270000,22.2795890000 114.1618550000,22.2796530000 114.1615140000,22.2797670000 114.1614000000,22.2797950000 114.1612380000,22.2798160000 114.1610710000,22.2798410000 114.1608870000,22.2798740000 114.1607990000,22.2798970000 114.1607330000,22.2799190000 114.1605400000,22.2799560000 114.1604260000,22.2799690000 114.1603210000,22.2799750000 114.1602360000,22.2799700000 114.1598480000,22.2799080000 114.1598220000,22.2799030000 114.1597340000,22.2798890000 114.1596720000,22.2798800000 114.1595960000,22.2798730000 114.1595240000,22.2798700000 114.1594410000,22.2798800000 114.1593040000,22.2799080000 114.1591270000,22.2799530000 114.1587870000,22.2800460000 114.1584870000,22.2801230000 114.1580780000,22.2802080000 114.1580240000,22.2802220000 114.1579060000,22.2802550000 114.1578680000,22.2802690000 114.1578270000,22.2802870000 114.1577870000,22.2803150000 114.1577420000,22.2803570000 114.1575190000,22.2806240000 114.1573380000,22.2808460000 114.1572550000,22.2809390000 114.1572390000,22.2809570000 114.1572080000,22.2809950000 114.1571500000,22.2810650000 114.1569830000,22.2812640000 114.1569530000,22.2812990000 114.1568840000,22.2813790000 114.1568100000,22.2814600000 114.1567690000,22.2815040000 114.1567270000,22.2815500000 114.1566540000,22.2816300000 114.1565830000,22.2817090000 114.1565450000,22.2817470000 114.1565180000,22.2817800000 114.1564860000,22.2818210000 114.1564730000,22.2818380000 114.1559090000,22.2825310000 114.1558930000,22.2825510000 114.1556900000,22.2828040000 114.1555480000,22.2829700000 114.1554840000,22.2830640000 114.1553510000,22.2832530000 114.1552360000,22.2833860000 114.1552170000,22.2834090000 114.1551300000,22.2835100000 114.1550900000,22.2835460000 114.1549400000,22.2836500000 114.1548360000,22.2837280000 114.1548060000,22.2837510000 114.1547300000,22.2838090000 114.1545130000,22.2839720000 114.1541970000,22.2841820000 114.1540630000,22.2842790000 114.1540250000,22.2843050000 114.1538510000,22.2844390000 114.1536410000,22.2846170000 114.1533510000,22.2848580000 114.1531100000,22.2850720000 114.1530070000,22.2851760000 114.1529620000,22.2852000000 114.1528410000,22.2852620000 114.1527530000,22.2853130000 114.1526260000,22.2853810000 114.1523930000,22.2855070000 114.1522760000,22.2855830000 114.1521980000,22.2856260000 114.1518610000,22.2857630000 114.1518050000,22.2857790000 114.1517420000,22.2857960000 114.1511380000,22.2859560000 114.1511160000,22.2859610000 114.1510870000,22.2859690000 114.1509540000,22.2860010000 114.1507890000,22.2860410000 114.1506440000,22.2861010000 114.1506240000,22.2861120000 114.1504380000,22.2862120000 114.1503360000,22.2862700000 114.1503140000,22.2862830000 114.1502950000,22.2862940000 114.1502640000,22.2863120000 114.1502830000,22.2863430000 114.1503170000,22.2863930000 114.1504000000,22.2865200000 114.1504500000,22.2867600000 114.1504580000,22.2867990000 114.1504800000,22.2869050000 114.1504880000,22.2869520000 114.1504940000,22.2869860000 114.1504820000,22.2870600000 114.1505350000,22.2872380000 114.1505910000,22.2874270000 114.1506010000,22.2874630000 114.1506320000,22.2875640000 114.1506300000,22.2876060000 114.1506280000,22.2876460000 114.1506270000,22.2876970000 114.1496140000,22.2879640000 114.1494400000,22.2880090000 114.1482730000,22.2883090000 114.1480890000,22.2883430000 114.1481370000,22.2884650000 114.1480300000,22.2886200000 114.1479910000,22.2886570000 114.1479350000,22.2887030000 114.1473700000,22.2888540000 114.1473350000,22.2888740000 114.1473100000,22.2889100000 114.1473000000,22.2889500000 114.1473060000,22.2890010000 114.1473580000,22.2891190000 114.1475630000,22.2898100000 114.1475980000,22.2898640000 114.1476500000,22.2898900000 114.1477040000,22.2898870000 114.1481530000,22.2897760000</coordinates>
                </LineString>
                <ExtendedData>
                    <Data name="duration">
                        <value>00:44:05</value>
                    </Data>
                    <Data name="length">
                        <value>31409.540421701946</value>
                    </Data>
                </ExtendedData>
            </Placemark>
        </Document>
    </Document>
</kml>