<?xml version="1.0" encoding="UTF-8"?>
<kml xmlns="http://www.opengis.net/kml/2.2" xmlns:gx="http://www.google.com/kml/ext/2.2">
    <Document>
        <name>Route</name>
        <Folder>
            <name>Route Request</name>
            <Placemark>
                <address>Central (Macau Ferry), Connaught Road West, Tai Ping Shan, Sheung Wan, Central and Western District, Hong Kong Island, Hong Kong, China</address>
                <Point>
                    <coordinates>114.1498248282,22.2886689600</coordinates>
                </Point>
                <ExtendedData>
                    <Data name="suburb">
                        <value>Sheung Wan</value>
                    </Data>
                    <Data name="city_district">
                        <value>Central and Western District</value>
                    </Data>
                    <Data name="city">
                        <value>Hong Kong Island</value>
                    </Data>
                    <Data name="state">
                        <value>Hong Kong</value>
                    </Data>
                    <Data name="neighbourhood">
                        <value>Tai Ping Shan</value>
                    </Data>
                    <Data name="country">
                        <value>China</value>
                    </Data>
                    <Data name="road">
                        <value>Connaught Road West</value>
                    </Data>
                    <Data name="country_code">
                        <value>cn</value>
                    </Data>
                    <Data name="amenity">
                        <value>Central (Macau Ferry)</value>
                    </Data>
                    <Data name="ISO3166-2-lvl3">
                        <value>CN-HK</value>
                    </Data>
                </ExtendedData>
            </Placemark>
            <Placemark>
                <address>Harbour Building, 38, Pier Road, SoHo, Sheung Wan, Central and Western District, Hong Kong Island, Hong Kong, China</address>
                <Point>
                    <coordinates>114.1550503020,22.2867728852</coordinates>
                </Point>
                <ExtendedData>
                    <Data name="house_number">
                        <value>38</value>
                    </Data>
                    <Data name="suburb">
                        <value>Sheung Wan</value>
                    </Data>
                    <Data name="building">
                        <value>Harbour Building</value>
                    </Data>
                    <Data name="city_district">
                        <value>Central and Western District</value>
                    </Data>
                    <Data name="city">
                        <value>Hong Kong Island</value>
                    </Data>
                    <Data name="state">
                        <value>Hong Kong</value>
                    </Data>
                    <Data name="neighbourhood">
                        <value>SoHo</value>
                    </Data>
                    <Data name="country">
                        <value>China</value>
                    </Data>
                    <Data name="road">
                        <value>Pier Road</value>
                    </Data>
                    <Data name="country_code">
                        <value>cn</value>
                    </Data>
                    <Data name="ISO3166-2-lvl3">
                        <value>CN-HK</value>
                    </Data>
                </ExtendedData>
            </Placemark>
            <Placemark>
                <address>Lung Wui Road, Tamar, Admiralty, Central and Western District, Hong Kong Island, Hong Kong, 000000, China</address>
                <Point>
                    <coordinates>114.1674278995,22.2810402686</coordinates>
                </Point>
                <ExtendedData>
                    <Data name="suburb">
                        <value>Admiralty</value>
                    </Data>
                    <Data name="city_district">
                        <value>Central and Western District</value>
                    </Data>
                    <Data name="city">
                        <value>Hong Kong Island</value>
                    </Data>
                    <Data name="state">
                        <value>Hong Kong</value>
                    </Data>
                    <Data name="neighbourhood">
                        <value>Tamar</value>
                    </Data>
                    <Data name="postcode">
                        <value>000000</value>
                    </Data>
                    <Data name="country">
                        <value>China</value>
                    </Data>
                    <Data name="road">
                        <value>Lung Wui Road</value>
                    </Data>
                    <Data name="country_code">
                        <value>cn</value>
                    </Data>
                    <Data name="ISO3166-2-lvl3">
                        <value>CN-HK</value>
                    </Data>
                </ExtendedData>
            </Placemark>
            <Placemark>
                <address>Hung Hing Road, Wan Chai North, Wan Chai, Wan Chai District, Hong Kong Island, Hong Kong, 000000, China</address>
                <Point>
                    <coordinates>114.1776218841,22.2823510478</coordinates>
                </Point>
                <ExtendedData>
                    <Data name="suburb">
                        <value>Wan Chai</value>
                    </Data>
                    <Data name="city_district">
                        <value>Wan Chai District</value>
                    </Data>
                    <Data name="city">
                        <value>Hong Kong Island</value>
                    </Data>
                    <Data name="state">
                        <value>Hong Kong</value>
                    </Data>
                    <Data name="postcode">
                        <value>000000</value>
                    </Data>
                    <Data name="country">
                        <value>China</value>
                    </Data>
                    <Data name="quarter">
                        <value>Wan Chai North</value>
                    </Data>
                    <Data name="road">
                        <value>Hung Hing Road</value>
                    </Data>
                    <Data name="country_code">
                        <value>cn</value>
                    </Data>
                    <Data name="ISO3166-2-lvl3">
                        <value>CN-HK</value>
                    </Data>
                </ExtendedData>
            </Placemark>
            <Placemark>
                <address>太古城中心三座 Cityplaza 3, 14, Taikoo Wan Road, Kornhill, Quarry Bay, Eastern District, Hong Kong Island, Hong Kong, 000000, China</address>
                <Point>
                    <coordinates>114.2055835551,22.2925989670</coordinates>
                </Point>
                <ExtendedData>
                    <Data name="house_number">
                        <value>14</value>
                    </Data>
                    <Data name="suburb">
                        <value>Quarry Bay</value>
                    </Data>
                    <Data name="building">
                        <value>太古城中心三座 Cityplaza 3</value>
                    </Data>
                    <Data name="city_district">
                        <value>Eastern District</value>
                    </Data>
                    <Data name="city">
                        <value>Hong Kong Island</value>
                    </Data>
                    <Data name="state">
                        <value>Hong Kong</value>
                    </Data>
                    <Data name="postcode">
                        <value>000000</value>
                    </Data>
                    <Data name="country">
                        <value>China</value>
                    </Data>
                    <Data name="quarter">
                        <value>Kornhill</value>
                    </Data>
                    <Data name="road">
                        <value>Taikoo Wan Road</value>
                    </Data>
                    <Data name="routingVisited">
                        <value>false</value>
                    </Data>
                    <Data name="country_code">
                        <value>cn</value>
                    </Data>
                    <Data name="ISO3166-2-lvl3">
                        <value>CN-HK</value>
                    </Data>
                </ExtendedData>
            </Placemark>
            <Placemark>
                <address>King's Road, Kornhill, Sai Wan Ho, Eastern District, Hong Kong Island, Hong Kong, 000000, China</address>
                <Point>
                    <coordinates>114.2183441063,22.2850913324</coordinates>
                </Point>
                <ExtendedData>
                    <Data name="suburb">
                        <value>Sai Wan Ho</value>
                    </Data>
                    <Data name="city_district">
                        <value>Eastern District</value>
                    </Data>
                    <Data name="city">
                        <value>Hong Kong Island</value>
                    </Data>
                    <Data name="state">
                        <value>Hong Kong</value>
                    </Data>
                    <Data name="postcode">
                        <value>000000</value>
                    </Data>
                    <Data name="country">
                        <value>China</value>
                    </Data>
                    <Data name="quarter">
                        <value>Kornhill</value>
                    </Data>
                    <Data name="road">
                        <value>King's Road</value>
                    </Data>
                    <Data name="country_code">
                        <value>cn</value>
                    </Data>
                    <Data name="ISO3166-2-lvl3">
                        <value>CN-HK</value>
                    </Data>
                </ExtendedData>
            </Placemark>
            <Placemark>
                <address>Yiu Hing Road, Kornhill, Sai Wan Ho, Eastern District, Hong Kong Island, Hong Kong, 000000, China</address>
                <Point>
                    <coordinates>114.2193578729,22.2808110950</coordinates>
                </Point>
                <ExtendedData>
                    <Data name="suburb">
                        <value>Sai Wan Ho</value>
                    </Data>
                    <Data name="city_district">
                        <value>Eastern District</value>
                    </Data>
                    <Data name="city">
                        <value>Hong Kong Island</value>
                    </Data>
                    <Data name="state">
                        <value>Hong Kong</value>
                    </Data>
                    <Data name="postcode">
                        <value>000000</value>
                    </Data>
                    <Data name="country">
                        <value>China</value>
                    </Data>
                    <Data name="quarter">
                        <value>Kornhill</value>
                    </Data>
                    <Data name="road">
                        <value>Yiu Hing Road</value>
                    </Data>
                    <Data name="country_code">
                        <value>cn</value>
                    </Data>
                    <Data name="ISO3166-2-lvl3">
                        <value>CN-HK</value>
                    </Data>
                </ExtendedData>
            </Placemark>
            <Placemark>
                <address>Shaukeiwan Plaza, 17, Nam Hong Street, Aldrich Bay, Shau Kei Wan, Eastern District, Hong Kong Island, Hong Kong, China</address>
                <Point>
                    <coordinates>114.2258235346,22.2778189372</coordinates>
                </Point>
                <ExtendedData>
                    <Data name="house_number">
                        <value>17</value>
                    </Data>
                    <Data name="suburb">
                        <value>Shau Kei Wan</value>
                    </Data>
                    <Data name="building">
                        <value>Shaukeiwan Plaza</value>
                    </Data>
                    <Data name="city_district">
                        <value>Eastern District</value>
                    </Data>
                    <Data name="city">
                        <value>Hong Kong Island</value>
                    </Data>
                    <Data name="state">
                        <value>Hong Kong</value>
                    </Data>
                    <Data name="neighbourhood">
                        <value>Aldrich Bay</value>
                    </Data>
                    <Data name="country">
                        <value>China</value>
                    </Data>
                    <Data name="road">
                        <value>Nam Hong Street</value>
                    </Data>
                    <Data name="country_code">
                        <value>cn</value>
                    </Data>
                    <Data name="ISO3166-2-lvl3">
                        <value>CN-HK</value>
                    </Data>
                </ExtendedData>
            </Placemark>
            <Placemark>
                <address>東華三院方樹泉社會服務大樓, 6, Po Man Street, Aldrich Bay, Shau Kei Wan, Eastern District, Hong Kong Island, Hong Kong, China</address>
                <Point>
                    <coordinates>114.2294219943,22.2785163741</coordinates>
                </Point>
                <ExtendedData>
                    <Data name="house_number">
                        <value>6</value>
                    </Data>
                    <Data name="building">
                        <value>東華三院方樹泉社會服務大樓</value>
                    </Data>
                    <Data name="suburb">
                        <value>Shau Kei Wan</value>
                    </Data>
                    <Data name="city_district">
                        <value>Eastern District</value>
                    </Data>
                    <Data name="city">
                        <value>Hong Kong Island</value>
                    </Data>
                    <Data name="state">
                        <value>Hong Kong</value>
                    </Data>
                    <Data name="neighbourhood">
                        <value>Aldrich Bay</value>
                    </Data>
                    <Data name="country">
                        <value>China</value>
                    </Data>
                    <Data name="road">
                        <value>Po Man Street</value>
                    </Data>
                    <Data name="country_code">
                        <value>cn</value>
                    </Data>
                    <Data name="ISO3166-2-lvl3">
                        <value>CN-HK</value>
                    </Data>
                </ExtendedData>
            </Placemark>
            <Placemark>
                <address>Oi Yin Street, Oi Tung Estate, Shau Kei Wan, Eastern District, Hong Kong Island, Hong Kong, China</address>
                <Point>
                    <coordinates>114.2280827343,22.2820124261</coordinates>
                </Point>
                <ExtendedData>
                    <Data name="suburb">
                        <value>Shau Kei Wan</value>
                    </Data>
                    <Data name="city_district">
                        <value>Eastern District</value>
                    </Data>
                    <Data name="city">
                        <value>Hong Kong Island</value>
                    </Data>
                    <Data name="state">
                        <value>Hong Kong</value>
                    </Data>
                    <Data name="country">
                        <value>China</value>
                    </Data>
                    <Data name="road">
                        <value>Oi Yin Street</value>
                    </Data>
                    <Data name="country_code">
                        <value>cn</value>
                    </Data>
                    <Data name="residential">
                        <value>Oi Tung Estate</value>
                    </Data>
                    <Data name="ISO3166-2-lvl3">
                        <value>CN-HK</value>
                    </Data>
                </ExtendedData>
            </Placemark>
            <Placemark>
                <address>Aldrich Bay, Sai Wan Ho, Eastern District, Hong Kong Island, Hong Kong, 000000, China</address>
                <Point>
                    <coordinates>114.2247552433,22.2848383053</coordinates>
                </Point>
                <ExtendedData>
                    <Data name="suburb">
                        <value>Sai Wan Ho</value>
                    </Data>
                    <Data name="city_district">
                        <value>Eastern District</value>
                    </Data>
                    <Data name="city">
                        <value>Hong Kong Island</value>
                    </Data>
                    <Data name="state">
                        <value>Hong Kong</value>
                    </Data>
                    <Data name="neighbourhood">
                        <value>Aldrich Bay</value>
                    </Data>
                    <Data name="postcode">
                        <value>000000</value>
                    </Data>
                    <Data name="country">
                        <value>China</value>
                    </Data>
                    <Data name="country_code">
                        <value>cn</value>
                    </Data>
                    <Data name="ISO3166-2-lvl3">
                        <value>CN-HK</value>
                    </Data>
                </ExtendedData>
            </Placemark>
            <Placemark>
                <address>King Fai Building, 94-112, Shau Kei Wan Main Street East, Aldrich Bay, Shau Kei Wan, Eastern District, Hong Kong Island, Hong Kong, China</address>
                <Point>
                    <coordinates>114.2300273866,22.2789247007</coordinates>
                </Point>
                <ExtendedData>
                    <Data name="house_number">
                        <value>94-112</value>
                    </Data>
                    <Data name="suburb">
                        <value>Shau Kei Wan</value>
                    </Data>
                    <Data name="building">
                        <value>King Fai Building</value>
                    </Data>
                    <Data name="city_district">
                        <value>Eastern District</value>
                    </Data>
                    <Data name="city">
                        <value>Hong Kong Island</value>
                    </Data>
                    <Data name="state">
                        <value>Hong Kong</value>
                    </Data>
                    <Data name="neighbourhood">
                        <value>Aldrich Bay</value>
                    </Data>
                    <Data name="country">
                        <value>China</value>
                    </Data>
                    <Data name="road">
                        <value>Shau Kei Wan Main Street East</value>
                    </Data>
                    <Data name="country_code">
                        <value>cn</value>
                    </Data>
                    <Data name="ISO3166-2-lvl3">
                        <value>CN-HK</value>
                    </Data>
                </ExtendedData>
            </Placemark>
            <Placemark>
                <address>Shaukeiwan Plaza, 17, Nam Hong Street, Aldrich Bay, Shau Kei Wan, Eastern District, Hong Kong Island, Hong Kong, China</address>
                <Point>
                    <coordinates>114.2264092695,22.2779716204</coordinates>
                </Point>
                <ExtendedData>
                    <Data name="house_number">
                        <value>17</value>
                    </Data>
                    <Data name="suburb">
                        <value>Shau Kei Wan</value>
                    </Data>
                    <Data name="building">
                        <value>Shaukeiwan Plaza</value>
                    </Data>
                    <Data name="city_district">
                        <value>Eastern District</value>
                    </Data>
                    <Data name="city">
                        <value>Hong Kong Island</value>
                    </Data>
                    <Data name="state">
                        <value>Hong Kong</value>
                    </Data>
                    <Data name="neighbourhood">
                        <value>Aldrich Bay</value>
                    </Data>
                    <Data name="country">
                        <value>China</value>
                    </Data>
                    <Data name="road">
                        <value>Nam Hong Street</value>
                    </Data>
                    <Data name="country_code">
                        <value>cn</value>
                    </Data>
                    <Data name="ISO3166-2-lvl3">
                        <value>CN-HK</value>
                    </Data>
                </ExtendedData>
            </Placemark>
            <Placemark>
                <address>Hing Tung Shopping Centre, Yiu Hing Road, Hing Tung Estate, Sai Wan Ho, Eastern District, Hong Kong Island, Hong Kong, 000000, China</address>
                <Point>
                    <coordinates>114.2204897205,22.2806630754</coordinates>
                </Point>
                <ExtendedData>
                    <Data name="suburb">
                        <value>Sai Wan Ho</value>
                    </Data>
                    <Data name="city_district">
                        <value>Eastern District</value>
                    </Data>
                    <Data name="city">
                        <value>Hong Kong Island</value>
                    </Data>
                    <Data name="state">
                        <value>Hong Kong</value>
                    </Data>
                    <Data name="postcode">
                        <value>000000</value>
                    </Data>
                    <Data name="country">
                        <value>China</value>
                    </Data>
                    <Data name="road">
                        <value>Yiu Hing Road</value>
                    </Data>
                    <Data name="country_code">
                        <value>cn</value>
                    </Data>
                    <Data name="residential">
                        <value>Hing Tung Estate</value>
                    </Data>
                    <Data name="shop">
                        <value>Hing Tung Shopping Centre</value>
                    </Data>
                    <Data name="ISO3166-2-lvl3">
                        <value>CN-HK</value>
                    </Data>
                </ExtendedData>
            </Placemark>
            <Placemark>
                <address>Island Eastern Corridor, Kornhill, Quarry Bay, Eastern District, Hong Kong Island, Hong Kong, 000000, China</address>
                <Point>
                    <coordinates>114.2038858341,22.2938830730</coordinates>
                </Point>
                <ExtendedData>
                    <Data name="suburb">
                        <value>Quarry Bay</value>
                    </Data>
                    <Data name="city_district">
                        <value>Eastern District</value>
                    </Data>
                    <Data name="city">
                        <value>Hong Kong Island</value>
                    </Data>
                    <Data name="state">
                        <value>Hong Kong</value>
                    </Data>
                    <Data name="postcode">
                        <value>000000</value>
                    </Data>
                    <Data name="country">
                        <value>China</value>
                    </Data>
                    <Data name="quarter">
                        <value>Kornhill</value>
                    </Data>
                    <Data name="road">
                        <value>Island Eastern Corridor</value>
                    </Data>
                    <Data name="routingVisited">
                        <value>false</value>
                    </Data>
                    <Data name="country_code">
                        <value>cn</value>
                    </Data>
                    <Data name="ISO3166-2-lvl3">
                        <value>CN-HK</value>
                    </Data>
                </ExtendedData>
            </Placemark>
            <Placemark>
                <address>PLC Lighting, 210, Lockhart Road, Morrison Hill, Wan Chai, Wan Chai District, Hong Kong Island, Hong Kong, 000000, China</address>
                <Point>
                    <coordinates>114.1749864718,22.2782842179</coordinates>
                </Point>
                <ExtendedData>
                    <Data name="house_number">
                        <value>210</value>
                    </Data>
                    <Data name="suburb">
                        <value>Wan Chai</value>
                    </Data>
                    <Data name="city_district">
                        <value>Wan Chai District</value>
                    </Data>
                    <Data name="city">
                        <value>Hong Kong Island</value>
                    </Data>
                    <Data name="state">
                        <value>Hong Kong</value>
                    </Data>
                    <Data name="quarter">
                        <value>Morrison Hill</value>
                    </Data>
                    <Data name="postcode">
                        <value>000000</value>
                    </Data>
                    <Data name="country">
                        <value>China</value>
                    </Data>
                    <Data name="road">
                        <value>Lockhart Road</value>
                    </Data>
                    <Data name="country_code">
                        <value>cn</value>
                    </Data>
                    <Data name="shop">
                        <value>PLC Lighting</value>
                    </Data>
                    <Data name="ISO3166-2-lvl3">
                        <value>CN-HK</value>
                    </Data>
                </ExtendedData>
            </Placemark>
            <Placemark>
                <address>Bonham Strand, Tai Ping Shan, Sheung Wan, Central and Western District, Hong Kong Island, Hong Kong, China</address>
                <Point>
                    <coordinates>114.1506723225,22.2860486815</coordinates>
                </Point>
                <ExtendedData>
                    <Data name="suburb">
                        <value>Sheung Wan</value>
                    </Data>
                    <Data name="city_district">
                        <value>Central and Western District</value>
                    </Data>
                    <Data name="city">
                        <value>Hong Kong Island</value>
                    </Data>
                    <Data name="state">
                        <value>Hong Kong</value>
                    </Data>
                    <Data name="neighbourhood">
                        <value>Tai Ping Shan</value>
                    </Data>
                    <Data name="country">
                        <value>China</value>
                    </Data>
                    <Data name="road">
                        <value>Bonham Strand</value>
                    </Data>
                    <Data name="country_code">
                        <value>cn</value>
                    </Data>
                    <Data name="ISO3166-2-lvl3">
                        <value>CN-HK</value>
                    </Data>
                </ExtendedData>
            </Placemark>
            <Placemark>
                <address>Central (Macau Ferry), Rumsey Street Flyover, Tai Ping Shan, Sheung Wan, Central and Western District, Hong Kong Island, Hong Kong, China</address>
                <Point>
                    <coordinates>114.1498241175,22.2886543532</coordinates>
                </Point>
                <ExtendedData>
                    <Data name="suburb">
                        <value>Sheung Wan</value>
                    </Data>
                    <Data name="city_district">
                        <value>Central and Western District</value>
                    </Data>
                    <Data name="city">
                        <value>Hong Kong Island</value>
                    </Data>
                    <Data name="state">
                        <value>Hong Kong</value>
                    </Data>
                    <Data name="neighbourhood">
                        <value>Tai Ping Shan</value>
                    </Data>
                    <Data name="country">
                        <value>China</value>
                    </Data>
                    <Data name="road">
                        <value>Rumsey Street Flyover</value>
                    </Data>
                    <Data name="country_code">
                        <value>cn</value>
                    </Data>
                    <Data name="amenity">
                        <value>Central (Macau Ferry)</value>
                    </Data>
                    <Data name="ISO3166-2-lvl3">
                        <value>CN-HK</value>
                    </Data>
                </ExtendedData>
            </Placemark>
        </Folder>
        <Document>
            <name>27.8 km; 00:41 h (OSRM)</name>
            <Placemark>
                <name>Route</name>
                <LineString>
                    <coordinates>114.1498760000,22.2888450000 114.1501790000,22.2887700000 114.1502660000,22.2887210000 114.1503190000,22.2886600000 114.1503620000,22.2886000000 114.1504400000,22.2885050000 114.1505050000,22.2884310000 114.1505700000,22.2883700000 114.1506420000,22.2883280000 114.1507680000,22.2882990000 114.1510240000,22.2882370000 114.1510620000,22.2882280000 114.1521560000,22.2879600000 114.1520460000,22.2876350000 114.1520300000,22.2875900000 114.1520190000,22.2875570000 114.1520040000,22.2875130000 114.1519860000,22.2874630000 114.1522920000,22.2873700000 114.1523810000,22.2873410000 114.1525100000,22.2873010000 114.1527610000,22.2872270000 114.1532200000,22.2870900000 114.1533330000,22.2870650000 114.1535500000,22.2870330000 114.1536500000,22.2870210000 114.1536980000,22.2870310000 114.1537890000,22.2870490000 114.1538370000,22.2870560000 114.1540080000,22.2870630000 114.1542680000,22.2870890000 114.1544210000,22.2870990000 114.1546050000,22.2870410000 114.1546580000,22.2870200000 114.1547130000,22.2869990000 114.1547910000,22.2869730000 114.1549070000,22.2869150000 114.1549350000,22.2869010000 114.1550820000,22.2868270000 114.1551010000,22.2868170000 114.1554110000,22.2866480000 114.1555390000,22.2865730000 114.1557480000,22.2864890000 114.1558320000,22.2864490000 114.1559230000,22.2863520000 114.1560740000,22.2860920000 114.1561180000,22.2860070000 114.1561670000,22.2858930000 114.1562170000,22.2857520000 114.1563870000,22.2853920000 114.1564650000,22.2851570000 114.1565090000,22.2850730000 114.1565550000,22.2849860000 114.1566090000,22.2848960000 114.1566750000,22.2848040000 114.1568160000,22.2846210000 114.1568500000,22.2845860000 114.1569110000,22.2845240000 114.1571480000,22.2842210000 114.1572600000,22.2840860000 114.1573120000,22.2840240000 114.1573530000,22.2839550000 114.1574040000,22.2838730000 114.1574670000,22.2837700000 114.1576270000,22.2835750000 114.1577170000,22.2834790000 114.1578160000,22.2833810000 114.1579600000,22.2832500000 114.1582290000,22.2830280000 114.1584140000,22.2828980000 114.1585840000,22.2827980000 114.1588250000,22.2826820000 114.1590110000,22.2826020000 114.1596750000,22.2823240000 114.1598490000,22.2822560000 114.1601480000,22.2821500000 114.1603360000,22.2820890000 114.1605950000,22.2820170000 114.1606920000,22.2820150000 114.1609420000,22.2819560000 114.1610630000,22.2819270000 114.1615340000,22.2818100000 114.1616040000,22.2817940000 114.1616600000,22.2817800000 114.1617280000,22.2817610000 114.1619430000,22.2817000000 114.1620640000,22.2816680000 114.1622540000,22.2816150000 114.1624140000,22.2815990000 114.1624510000,22.2815910000 114.1624780000,22.2815840000 114.1627030000,22.2815230000 114.1629300000,22.2814400000 114.1632850000,22.2812570000 114.1634200000,22.2811750000 114.1635050000,22.2811240000 114.1635960000,22.2810680000 114.1636720000,22.2810230000 114.1637760000,22.2809620000 114.1638730000,22.2809050000 114.1639180000,22.2808790000 114.1639510000,22.2808550000 114.1640960000,22.2807640000 114.1643540000,22.2805610000 114.1645530000,22.2804160000 114.1650500000,22.2800530000 114.1652430000,22.2799050000 114.1654260000,22.2797610000 114.1655970000,22.2796790000 114.1657690000,22.2796340000 114.1659470000,22.2796080000 114.1660780000,22.2796470000 114.1661550000,22.2796730000 114.1661850000,22.2796850000 114.1662300000,22.2797120000 114.1663000000,22.2797700000 114.1663500000,22.2798290000 114.1664930000,22.2802110000 114.1665640000,22.2804680000 114.1666840000,22.2809170000 114.1667350000,22.2810600000 114.1667200000,22.2810870000 114.1667150000,22.2811160000 114.1667180000,22.2811460000 114.1667300000,22.2811740000 114.1667530000,22.2811970000 114.1667930000,22.2812200000 114.1668440000,22.2812240000 114.1668810000,22.2812130000 114.1669120000,22.2811900000 114.1669330000,22.2811590000 114.1670860000,22.2810980000 114.1674140000,22.2810010000 114.1678500000,22.2808720000 114.1679250000,22.2808750000 114.1679950000,22.2808980000 114.1680520000,22.2809420000 114.1680860000,22.2809880000 114.1681180000,22.2810420000 114.1681700000,22.2812130000 114.1682900000,22.2816700000 114.1683870000,22.2820430000 114.1683990000,22.2820830000 114.1684250000,22.2821690000 114.1684490000,22.2822920000 114.1685840000,22.2822900000 114.1687390000,22.2822890000 114.1693250000,22.2822580000 114.1698310000,22.2822300000 114.1699570000,22.2822240000 114.1703910000,22.2822060000 114.1706680000,22.2821990000 114.1709840000,22.2821950000 114.1711840000,22.2821940000 114.1716090000,22.2821990000 114.1718380000,22.2822070000 114.1720390000,22.2822170000 114.1723610000,22.2822360000 114.1732190000,22.2822860000 114.1734220000,22.2822890000 114.1735650000,22.2822900000 114.1736520000,22.2822860000 114.1736800000,22.2822850000 114.1737840000,22.2822770000 114.1738970000,22.2822690000 114.1739450000,22.2822650000 114.1739920000,22.2822600000 114.1740260000,22.2822560000 114.1741550000,22.2822360000 114.1742490000,22.2822160000 114.1743330000,22.2821950000 114.1746310000,22.2821300000 114.1749260000,22.2820730000 114.1750870000,22.2820480000 114.1752220000,22.2820350000 114.1752810000,22.2820320000 114.1754110000,22.2820230000 114.1755440000,22.2820190000 114.1756040000,22.2820190000 114.1756580000,22.2820220000 114.1758780000,22.2820310000 114.1759810000,22.2820360000 114.1760700000,22.2820400000 114.1761640000,22.2820470000 114.1764000000,22.2820690000 114.1765630000,22.2820880000 114.1766010000,22.2820930000 114.1766580000,22.2820990000 114.1767080000,22.2821070000 114.1767710000,22.2821170000 114.1768560000,22.2821350000 114.1769760000,22.2821620000 114.1771100000,22.2821930000 114.1772970000,22.2822400000 114.1773230000,22.2822480000 114.1774300000,22.2822660000 114.1775870000,22.2823060000 114.1776330000,22.2823200000 114.1777870000,22.2823660000 114.1779680000,22.2824210000 114.1780280000,22.2824390000 114.1780700000,22.2824580000 114.1781010000,22.2824700000 114.1781380000,22.2824820000 114.1781870000,22.2824970000 114.1782270000,22.2825090000 114.1782760000,22.2825250000 114.1783380000,22.2825450000 114.1783740000,22.2825570000 114.1784580000,22.2825860000 114.1785280000,22.2826040000 114.1786000000,22.2826190000 114.1788320000,22.2826520000 114.1789370000,22.2826580000 114.1790760000,22.2826810000 114.1791990000,22.2827140000 114.1794900000,22.2828140000 114.1795740000,22.2828280000 114.1796360000,22.2828200000 114.1796900000,22.2828020000 114.1797350000,22.2827750000 114.1797720000,22.2827400000 114.1797920000,22.2827090000 114.1799420000,22.2823500000 114.1799700000,22.2823080000 114.1800240000,22.2822600000 114.1800900000,22.2822250000 114.1801600000,22.2822100000 114.1802200000,22.2822100000 114.1806880000,22.2822700000 114.1808210000,22.2822810000 114.1809340000,22.2822810000 114.1810450000,22.2822710000 114.1811700000,22.2822480000 114.1813030000,22.2822130000 114.1814240000,22.2821760000 114.1815110000,22.2821470000 114.1816220000,22.2820920000 114.1817320000,22.2820360000 114.1818980000,22.2819460000 114.1820740000,22.2819080000 114.1821660000,22.2818980000 114.1822440000,22.2818990000 114.1823330000,22.2819020000 114.1824040000,22.2819130000 114.1824850000,22.2819340000 114.1826300000,22.2819870000 114.1827130000,22.2820200000 114.1827980000,22.2820550000 114.1829230000,22.2820710000 114.1830180000,22.2821070000 114.1831550000,22.2821590000 114.1833640000,22.2822340000 114.1835080000,22.2822920000 114.1835630000,22.2823140000 114.1838660000,22.2824360000 114.1840860000,22.2825590000 114.1842650000,22.2826710000 114.1844800000,22.2828210000 114.1845330000,22.2828740000 114.1846660000,22.2830090000 114.1849700000,22.2832450000 114.1852740000,22.2834880000 114.1855820000,22.2837280000 114.1856950000,22.2837910000 114.1857960000,22.2838410000 114.1859320000,22.2838970000 114.1860540000,22.2839410000 114.1861730000,22.2839750000 114.1862920000,22.2840060000 114.1864260000,22.2840350000 114.1864880000,22.2840470000 114.1866930000,22.2840500000 114.1867750000,22.2840620000 114.1869530000,22.2841100000 114.1871010000,22.2841500000 114.1876080000,22.2842870000 114.1877600000,22.2843330000 114.1878710000,22.2843690000 114.1879750000,22.2844070000 114.1880870000,22.2844520000 114.1882060000,22.2845030000 114.1883220000,22.2845600000 114.1884160000,22.2846110000 114.1885120000,22.2846740000 114.1886060000,22.2847470000 114.1886940000,22.2848230000 114.1887610000,22.2848880000 114.1888380000,22.2849770000 114.1889120000,22.2850790000 114.1889710000,22.2851710000 114.1890180000,22.2852520000 114.1890540000,22.2853340000 114.1890910000,22.2854260000 114.1891200000,22.2855190000 114.1891440000,22.2856130000 114.1891730000,22.2857430000 114.1891900000,22.2858510000 114.1892000000,22.2859350000 114.1892080000,22.2860240000 114.1892130000,22.2861140000 114.1892260000,22.2864900000 114.1892310000,22.2865770000 114.1892390000,22.2866600000 114.1892520000,22.2867540000 114.1892640000,22.2868280000 114.1892800000,22.2869010000 114.1892930000,22.2869560000 114.1893120000,22.2870220000 114.1893520000,22.2871420000 114.1893760000,22.2872080000 114.1894130000,22.2872940000 114.1894620000,22.2874010000 114.1895110000,22.2875030000 114.1896410000,22.2877610000 114.1897480000,22.2879730000 114.1897680000,22.2880120000 114.1899050000,22.2882920000 114.1900860000,22.2886490000 114.1902500000,22.2889500000 114.1903820000,22.2891680000 114.1904500000,22.2892800000 114.1905550000,22.2894300000 114.1905900000,22.2894800000 114.1907500000,22.2896800000 114.1910500000,22.2900000000 114.1913660000,22.2902870000 114.1921570000,22.2909910000 114.1923870000,22.2911680000 114.1924300000,22.2912020000 114.1925570000,22.2913050000 114.1926230000,22.2913590000 114.1926890000,22.2914090000 114.1928130000,22.2914980000 114.1930120000,22.2916410000 114.1930980000,22.2917060000 114.1931220000,22.2917220000 114.1931500000,22.2917410000 114.1931790000,22.2917610000 114.1933530000,22.2918870000 114.1934530000,22.2919710000 114.1935380000,22.2920420000 114.1935600000,22.2920570000 114.1935890000,22.2920770000 114.1936150000,22.2920950000 114.1937360000,22.2921760000 114.1938530000,22.2922540000 114.1939710000,22.2923350000 114.1942000000,22.2924760000 114.1942290000,22.2924940000 114.1943770000,22.2925660000 114.1944670000,22.2926100000 114.1946230000,22.2926870000 114.1946890000,22.2927190000 114.1947490000,22.2927490000 114.1949190000,22.2928180000 114.1950130000,22.2928550000 114.1951890000,22.2929160000 114.1952860000,22.2929460000 114.1954310000,22.2929870000 114.1955320000,22.2930090000 114.1956910000,22.2930430000 114.1958170000,22.2930670000 114.1960670000,22.2931130000 114.1961620000,22.2931270000 114.1963610000,22.2931600000 114.1964840000,22.2931820000 114.1966050000,22.2932070000 114.1967740000,22.2932440000 114.1968570000,22.2932610000 114.1971240000,22.2933140000 114.1979380000,22.2934830000 114.1980630000,22.2935070000 114.1981920000,22.2935260000 114.1984040000,22.2935500000 114.1985630000,22.2935620000 114.1987190000,22.2935680000 114.1989060000,22.2935720000 114.1992000000,22.2935690000 114.1994040000,22.2935740000 114.1995900000,22.2935850000 114.1997700000,22.2936020000 114.1999500000,22.2936270000 114.2001000000,22.2936520000 114.2004940000,22.2937360000 114.2005620000,22.2937500000 114.2013180000,22.2939100000 114.2015380000,22.2939610000 114.2018510000,22.2940330000 114.2020960000,22.2940870000 114.2021780000,22.2941230000 114.2024950000,22.2942540000 114.2025960000,22.2942830000 114.2029000000,22.2943600000 114.2031700000,22.2944100000 114.2034000000,22.2944400000 114.2035000000,22.2944470000 114.2036000000,22.2944460000 114.2036990000,22.2944350000 114.2037900000,22.2944140000 114.2038630000,22.2943910000 114.2039500000,22.2943500000 114.2040220000,22.2943000000 114.2040900000,22.2942400000 114.2041800000,22.2941400000 114.2042330000,22.2940600000 114.2042700000,22.2939710000 114.2042950000,22.2938600000 114.2043030000,22.2937500000 114.2043070000,22.2932920000 114.2043120000,22.2932290000 114.2043220000,22.2931750000 114.2043390000,22.2931220000 114.2043590000,22.2930780000 114.2043840000,22.2930390000 114.2044410000,22.2929720000 114.2044860000,22.2929380000 114.2045290000,22.2929130000 114.2045810000,22.2928880000 114.2046350000,22.2928660000 114.2047090000,22.2928460000 114.2055810000,22.2926560000 114.2055990000,22.2926520000 114.2059480000,22.2925690000 114.2060270000,22.2925540000 114.2062100000,22.2925510000 114.2063730000,22.2925070000 114.2064940000,22.2924740000 114.2072060000,22.2922730000 114.2072410000,22.2922630000 114.2073230000,22.2922390000 114.2074540000,22.2921980000 114.2077060000,22.2921200000 114.2079130000,22.2920560000 114.2082680000,22.2919460000 114.2082950000,22.2919380000 114.2083200000,22.2919300000 114.2083490000,22.2919210000 114.2083640000,22.2919160000 114.2084430000,22.2918920000 114.2084960000,22.2918750000 114.2085760000,22.2918500000 114.2086760000,22.2918180000 114.2087900000,22.2917810000 114.2089870000,22.2917170000 114.2090310000,22.2917030000 114.2091120000,22.2916770000 114.2091170000,22.2916730000 114.2092060000,22.2915960000 114.2092740000,22.2915050000 114.2093040000,22.2914440000 114.2093250000,22.2913790000 114.2093340000,22.2913080000 114.2093340000,22.2912350000 114.2093270000,22.2911650000 114.2093130000,22.2911020000 114.2092600000,22.2909060000 114.2092460000,22.2908560000 114.2092320000,22.2907690000 114.2092410000,22.2906320000 114.2092840000,22.2905340000 114.2093340000,22.2904190000 114.2093980000,22.2902350000 114.2094930000,22.2899470000 114.2095350000,22.2898200000 114.2096180000,22.2895630000 114.2096450000,22.2894760000 114.2096710000,22.2893920000 114.2096790000,22.2893630000 114.2097850000,22.2890430000 114.2098990000,22.2887200000 114.2099850000,22.2884730000 114.2100990000,22.2881000000 114.2102430000,22.2876710000 114.2102500000,22.2876500000 114.2102600000,22.2876160000 114.2102690000,22.2875870000 114.2102780000,22.2875550000 114.2103080000,22.2874660000 114.2104320000,22.2870870000 114.2105270000,22.2868150000 114.2105580000,22.2867460000 114.2105640000,22.2867340000 114.2105760000,22.2867100000 114.2106090000,22.2866570000 114.2106530000,22.2865830000 114.2107150000,22.2864800000 114.2108730000,22.2862390000 114.2110340000,22.2859930000 114.2111150000,22.2858650000 114.2111360000,22.2858320000 114.2111870000,22.2857520000 114.2113210000,22.2855440000 114.2113460000,22.2854980000 114.2114280000,22.2853540000 114.2114810000,22.2852650000 114.2115260000,22.2852060000 114.2116720000,22.2850900000 114.2117680000,22.2850370000 114.2118790000,22.2849970000 114.2119370000,22.2849770000 114.2121640000,22.2848970000 114.2122930000,22.2848570000 114.2123180000,22.2848510000 114.2123760000,22.2848320000 114.2125620000,22.2847730000 114.2125910000,22.2847660000 114.2127110000,22.2847370000 114.2128970000,22.2847300000 114.2129370000,22.2847290000 114.2130720000,22.2847280000 114.2132730000,22.2847320000 114.2135540000,22.2847330000 114.2136670000,22.2847340000 114.2142410000,22.2847510000 114.2144420000,22.2847500000 114.2146170000,22.2847530000 114.2146900000,22.2847770000 114.2147390000,22.2847980000 114.2147880000,22.2848260000 114.2148290000,22.2848540000 114.2148660000,22.2848850000 114.2148980000,22.2849160000 114.2149170000,22.2849360000 114.2149260000,22.2849460000 114.2149430000,22.2849680000 114.2149470000,22.2849720000 114.2149650000,22.2849990000 114.2149850000,22.2850360000 114.2151070000,22.2853240000 114.2151430000,22.2853960000 114.2151860000,22.2854540000 114.2152400000,22.2855170000 114.2153090000,22.2855800000 114.2154190000,22.2856630000 114.2155300000,22.2857290000 114.2156110000,22.2857640000 114.2156890000,22.2857930000 114.2157840000,22.2858190000 114.2158650000,22.2858370000 114.2159440000,22.2858500000 114.2160350000,22.2858610000 114.2161430000,22.2858660000 114.2162780000,22.2858570000 114.2163480000,22.2858430000 114.2164350000,22.2858200000 114.2165140000,22.2857920000 114.2165920000,22.2857580000 114.2167230000,22.2856900000 114.2170030000,22.2855160000 114.2171440000,22.2854440000 114.2172430000,22.2853970000 114.2173370000,22.2853570000 114.2173540000,22.2853510000 114.2175780000,22.2852570000 114.2176310000,22.2852370000 114.2176410000,22.2852330000 114.2178070000,22.2851730000 114.2179570000,22.2851330000 114.2182640000,22.2850660000 114.2183360000,22.2850530000 114.2185780000,22.2850100000 114.2187810000,22.2849790000 114.2189420000,22.2849780000 114.2190210000,22.2849720000 114.2190980000,22.2849680000 114.2192360000,22.2849470000 114.2193910000,22.2849110000 114.2195190000,22.2848720000 114.2196560000,22.2848180000 114.2198190000,22.2847380000 114.2199030000,22.2846840000 114.2199810000,22.2846250000 114.2200420000,22.2845750000 114.2201230000,22.2844980000 114.2202410000,22.2843540000 114.2206620000,22.2838130000 114.2209860000,22.2834030000 114.2212450000,22.2830700000 114.2213170000,22.2829780000 114.2213770000,22.2830200000 114.2215850000,22.2831620000 114.2216600000,22.2832130000 114.2218290000,22.2833290000 114.2218720000,22.2833580000 114.2219410000,22.2834050000 114.2219920000,22.2834400000 114.2220730000,22.2834370000 114.2221090000,22.2834310000 114.2221420000,22.2834160000 114.2221540000,22.2834040000 114.2221700000,22.2833910000 114.2221820000,22.2833740000 114.2222390000,22.2833020000 114.2223100000,22.2832170000 114.2226330000,22.2828100000 114.2226580000,22.2827760000 114.2226740000,22.2827410000 114.2226800000,22.2826990000 114.2226780000,22.2826860000 114.2226750000,22.2826710000 114.2226670000,22.2826480000 114.2226230000,22.2825280000 114.2225770000,22.2824960000 114.2224410000,22.2823990000 114.2223970000,22.2823670000 114.2222020000,22.2822340000 114.2220900000,22.2821170000 114.2220320000,22.2820670000 114.2219660000,22.2820180000 114.2219480000,22.2820030000 114.2219190000,22.2819810000 114.2218830000,22.2819540000 114.2218190000,22.2819120000 114.2215430000,22.2817240000 114.2214800000,22.2816820000 114.2212590000,22.2815320000 114.2208440000,22.2812560000 114.2207680000,22.2812020000 114.2207070000,22.2811590000 114.2206690000,22.2811300000 114.2206400000,22.2811040000 114.2206160000,22.2810750000 114.2206070000,22.2810490000 114.2206050000,22.2810190000 114.2206100000,22.2809900000 114.2206200000,22.2809640000 114.2206380000,22.2809290000 114.2206600000,22.2808940000 114.2206850000,22.2808590000 114.2207790000,22.2807370000 114.2208180000,22.2806790000 114.2208710000,22.2805850000 114.2209090000,22.2805070000 114.2209290000,22.2804550000 114.2209440000,22.2804090000 114.2209540000,22.2803530000 114.2209600000,22.2803000000 114.2209570000,22.2802290000 114.2209330000,22.2801380000 114.2209170000,22.2800980000 114.2208980000,22.2800600000 114.2208780000,22.2800280000 114.2208550000,22.2799970000 114.2208280000,22.2799670000 114.2207980000,22.2799350000 114.2207610000,22.2799030000 114.2207200000,22.2798740000 114.2206840000,22.2798540000 114.2206420000,22.2798350000 114.2206000000,22.2798190000 114.2205520000,22.2798050000 114.2205030000,22.2797940000 114.2204530000,22.2797870000 114.2204030000,22.2797840000 114.2203520000,22.2797880000 114.2203000000,22.2797980000 114.2202000000,22.2798300000 114.2201000000,22.2798820000 114.2200700000,22.2799000000 114.2199780000,22.2799980000 114.2198990000,22.2801000000 114.2198400000,22.2802000000 114.2197800000,22.2803000000 114.2197500000,22.2803760000 114.2197400000,22.2804000000 114.2196900000,22.2805000000 114.2196300000,22.2806000000 114.2195600000,22.2807000000 114.2194700000,22.2808000000 114.2193990000,22.2808560000 114.2193920000,22.2808610000 114.2193130000,22.2809060000 114.2192630000,22.2809340000 114.2192280000,22.2809880000 114.2191860000,22.2810020000 114.2191210000,22.2810220000 114.2190470000,22.2810450000 114.2189690000,22.2810600000 114.2188920000,22.2810690000 114.2188400000,22.2810700000 114.2187970000,22.2810670000 114.2187490000,22.2810610000 114.2186840000,22.2810500000 114.2185300000,22.2810020000 114.2184760000,22.2809830000 114.2184190000,22.2809590000 114.2183540000,22.2809270000 114.2182870000,22.2808860000 114.2182200000,22.2808370000 114.2181690000,22.2807920000 114.2180850000,22.2806910000 114.2180420000,22.2806250000 114.2180050000,22.2805570000 114.2179740000,22.2804870000 114.2179500000,22.2804150000 114.2179350000,22.2803440000 114.2179250000,22.2802730000 114.2179210000,22.2801940000 114.2179240000,22.2801330000 114.2179350000,22.2800510000 114.2179550000,22.2799640000 114.2179850000,22.2798820000 114.2180100000,22.2798320000 114.2180390000,22.2797840000 114.2180700000,22.2797380000 114.2183880000,22.2792620000 114.2184290000,22.2792050000 114.2184740000,22.2791510000 114.2185130000,22.2791120000 114.2185580000,22.2790720000 114.2186260000,22.2790230000 114.2187030000,22.2789800000 114.2187800000,22.2789440000 114.2188480000,22.2789220000 114.2189190000,22.2789040000 114.2190050000,22.2788900000 114.2190800000,22.2788840000 114.2191630000,22.2788820000 114.2192350000,22.2788840000 114.2193150000,22.2788900000 114.2200670000,22.2789840000 114.2201640000,22.2789990000 114.2202670000,22.2790240000 114.2203930000,22.2790630000 114.2205760000,22.2791210000 114.2207330000,22.2791700000 114.2210200000,22.2792610000 114.2211010000,22.2792810000 114.2211810000,22.2792970000 114.2212660000,22.2793050000 114.2213570000,22.2793070000 114.2214500000,22.2793030000 114.2215490000,22.2792900000 114.2216490000,22.2792680000 114.2217470000,22.2792410000 114.2218680000,22.2791960000 114.2219900000,22.2791410000 114.2221050000,22.2790740000 114.2222170000,22.2789970000 114.2223140000,22.2789120000 114.2223960000,22.2788260000 114.2224680000,22.2787440000 114.2225580000,22.2786280000 114.2225930000,22.2785830000 114.2228310000,22.2782670000 114.2229610000,22.2780950000 114.2232270000,22.2777400000 114.2234000000,22.2775100000 114.2235780000,22.2772730000 114.2237760000,22.2770100000 114.2239530000,22.2767740000 114.2240730000,22.2766150000 114.2245270000,22.2760110000 114.2245940000,22.2759270000 114.2246690000,22.2758460000 114.2247870000,22.2757420000 114.2248670000,22.2756830000 114.2249450000,22.2756330000 114.2250690000,22.2755830000 114.2251990000,22.2755470000 114.2253340000,22.2755260000 114.2254690000,22.2755210000 114.2256050000,22.2755320000 114.2257380000,22.2755580000 114.2258660000,22.2755990000 114.2259880000,22.2756550000 114.2262120000,22.2758010000 114.2262500000,22.2758360000 114.2263220000,22.2759040000 114.2264020000,22.2759880000 114.2264660000,22.2760840000 114.2265120000,22.2761880000 114.2265380000,22.2762970000 114.2265450000,22.2764090000 114.2265310000,22.2765210000 114.2264970000,22.2766290000 114.2264440000,22.2767300000 114.2261350000,22.2772840000 114.2258450000,22.2778280000 114.2258150000,22.2778840000 114.2264770000,22.2782310000 114.2265440000,22.2782660000 114.2265870000,22.2782860000 114.2266080000,22.2782970000 114.2266320000,22.2783090000 114.2268930000,22.2778750000 114.2269840000,22.2777290000 114.2270500000,22.2776460000 114.2271230000,22.2775830000 114.2271790000,22.2775490000 114.2280260000,22.2771020000 114.2282110000,22.2770180000 114.2283010000,22.2774100000 114.2283630000,22.2776890000 114.2283800000,22.2777640000 114.2284600000,22.2781250000 114.2285230000,22.2785590000 114.2285270000,22.2785860000 114.2285440000,22.2786080000 114.2285680000,22.2786210000 114.2285910000,22.2786250000 114.2286670000,22.2786110000 114.2286960000,22.2786050000 114.2293950000,22.2784670000 114.2294230000,22.2784680000 114.2294480000,22.2784680000 114.2294940000,22.2784750000 114.2295370000,22.2784940000 114.2295710000,22.2785230000 114.2295950000,22.2785610000 114.2296120000,22.2786150000 114.2295850000,22.2787370000 114.2295290000,22.2789140000 114.2295080000,22.2789760000 114.2294920000,22.2790300000 114.2294060000,22.2791840000 114.2293970000,22.2792240000 114.2293570000,22.2794130000 114.2292300000,22.2795300000 114.2291820000,22.2795590000 114.2291560000,22.2795740000 114.2291300000,22.2795900000 114.2284740000,22.2795940000 114.2284150000,22.2795950000 114.2283740000,22.2795950000 114.2282210000,22.2796040000 114.2281310000,22.2796040000 114.2281300000,22.2796800000 114.2281300000,22.2798400000 114.2281300000,22.2803200000 114.2281300000,22.2809750000 114.2281300000,22.2814700000 114.2281300000,22.2819650000 114.2281300000,22.2820120000 114.2281300000,22.2821700000 114.2281500000,22.2823000000 114.2281500000,22.2824000000 114.2281500000,22.2826000000 114.2281490000,22.2826480000 114.2281410000,22.2826810000 114.2281240000,22.2827150000 114.2280980000,22.2827470000 114.2280720000,22.2827710000 114.2280340000,22.2827940000 114.2279780000,22.2828110000 114.2279000000,22.2828140000 114.2276070000,22.2828140000 114.2271400000,22.2828140000 114.2270100000,22.2828140000 114.2269200000,22.2828140000 114.2267100000,22.2828140000 114.2265340000,22.2828140000 114.2263400000,22.2828140000 114.2262630000,22.2828200000 114.2261950000,22.2828360000 114.2261230000,22.2828650000 114.2260540000,22.2829170000 114.2259270000,22.2830390000 114.2255720000,22.2833790000 114.2253850000,22.2835570000 114.2247400000,22.2841560000 114.2246700000,22.2842220000 114.2246000000,22.2842870000 114.2245470000,22.2843370000 114.2237840000,22.2850610000 114.2240400000,22.2853030000 114.2240780000,22.2852730000 114.2241100000,22.2852460000 114.2243900000,22.2851320000 114.2247270000,22.2848120000 114.2248820000,22.2846650000 114.2248120000,22.2845980000 114.2247150000,22.2845090000 114.2246300000,22.2844180000 114.2246180000,22.2844050000 114.2245920000,22.2843800000 114.2245470000,22.2843370000 114.2246000000,22.2842870000 114.2246700000,22.2842220000 114.2247400000,22.2841560000 114.2253850000,22.2835570000 114.2255720000,22.2833790000 114.2259270000,22.2830390000 114.2260540000,22.2829170000 114.2261230000,22.2828650000 114.2261950000,22.2828360000 114.2262630000,22.2828200000 114.2263400000,22.2828140000 114.2265340000,22.2828140000 114.2267100000,22.2828140000 114.2269200000,22.2828140000 114.2270100000,22.2828140000 114.2271400000,22.2828140000 114.2276070000,22.2828140000 114.2279000000,22.2828140000 114.2279780000,22.2828110000 114.2280340000,22.2827940000 114.2280720000,22.2827710000 114.2280980000,22.2827470000 114.2281240000,22.2827150000 114.2281410000,22.2826810000 114.2281490000,22.2826480000 114.2281500000,22.2826000000 114.2281500000,22.2824000000 114.2281500000,22.2823000000 114.2281700000,22.2822500000 114.2282000000,22.2822000000 114.2282200000,22.2821700000 114.2283780000,22.2821710000 114.2288050000,22.2821700000 114.2293200000,22.2821750000 114.2295580000,22.2821770000 114.2297270000,22.2821820000 114.2298550000,22.2821850000 114.2299290000,22.2821830000 114.2299790000,22.2821750000 114.2300580000,22.2821580000 114.2301170000,22.2821350000 114.2301690000,22.2821120000 114.2303360000,22.2820300000 114.2303870000,22.2820140000 114.2304140000,22.2820100000 114.2304300000,22.2820070000 114.2305050000,22.2820000000 114.2306970000,22.2819790000 114.2305900000,22.2818500000 114.2305900000,22.2818000000 114.2305990000,22.2816610000 114.2306620000,22.2812030000 114.2306690000,22.2811510000 114.2307060000,22.2810020000 114.2307090000,22.2809760000 114.2307160000,22.2808810000 114.2307160000,22.2808510000 114.2307110000,22.2808160000 114.2306910000,22.2807700000 114.2304250000,22.2802420000 114.2303860000,22.2801660000 114.2303610000,22.2801150000 114.2303360000,22.2800580000 114.2300040000,22.2792050000 114.2299950000,22.2791760000 114.2299910000,22.2791470000 114.2299890000,22.2791220000 114.2299900000,22.2791030000 114.2299950000,22.2790800000 114.2300420000,22.2789290000 114.2302940000,22.2781290000 114.2303080000,22.2780610000 114.2303090000,22.2779920000 114.2302980000,22.2779240000 114.2302750000,22.2778590000 114.2302660000,22.2778330000 114.2302470000,22.2777770000 114.2301150000,22.2775820000 114.2299150000,22.2772160000 114.2298700000,22.2771350000 114.2298610000,22.2771190000 114.2298470000,22.2770930000 114.2298140000,22.2770340000 114.2297770000,22.2769710000 114.2296810000,22.2768130000 114.2296350000,22.2767650000 114.2295540000,22.2767220000 114.2294920000,22.2767040000 114.2294340000,22.2766990000 114.2293830000,22.2767020000 114.2292630000,22.2767190000 114.2291160000,22.2767500000 114.2290490000,22.2767110000 114.2290310000,22.2767140000 114.2288600000,22.2767470000 114.2288360000,22.2767520000 114.2288050000,22.2767580000 114.2287530000,22.2767850000 114.2286510000,22.2768050000 114.2285640000,22.2768210000 114.2284640000,22.2768420000 114.2283180000,22.2768910000 114.2282020000,22.2769410000 114.2278120000,22.2771210000 114.2272170000,22.2774260000 114.2271020000,22.2774880000 114.2270670000,22.2775080000 114.2270000000,22.2775590000 114.2269410000,22.2776260000 114.2269050000,22.2776770000 114.2265440000,22.2782660000 114.2264770000,22.2782310000 114.2263050000,22.2781410000 114.2258150000,22.2778840000 114.2261350000,22.2772840000 114.2264440000,22.2767300000 114.2264970000,22.2766290000 114.2265310000,22.2765210000 114.2265450000,22.2764090000 114.2265380000,22.2762970000 114.2265120000,22.2761880000 114.2264660000,22.2760840000 114.2264020000,22.2759880000 114.2263220000,22.2759040000 114.2262500000,22.2758360000 114.2262120000,22.2758010000 114.2259880000,22.2756550000 114.2258660000,22.2755990000 114.2257380000,22.2755580000 114.2256050000,22.2755320000 114.2254690000,22.2755210000 114.2253340000,22.2755260000 114.2251990000,22.2755470000 114.2250690000,22.2755830000 114.2249450000,22.2756330000 114.2248670000,22.2756830000 114.2247870000,22.2757420000 114.2246690000,22.2758460000 114.2245940000,22.2759270000 114.2245270000,22.2760110000 114.2240730000,22.2766150000 114.2239530000,22.2767740000 114.2237760000,22.2770100000 114.2235780000,22.2772730000 114.2234000000,22.2775100000 114.2232270000,22.2777400000 114.2229610000,22.2780950000 114.2228310000,22.2782670000 114.2225930000,22.2785830000 114.2225580000,22.2786280000 114.2224680000,22.2787440000 114.2223960000,22.2788260000 114.2223140000,22.2789120000 114.2222170000,22.2789970000 114.2221050000,22.2790740000 114.2219900000,22.2791410000 114.2218680000,22.2791960000 114.2217470000,22.2792410000 114.2216490000,22.2792680000 114.2215490000,22.2792900000 114.2214500000,22.2793030000 114.2213570000,22.2793070000 114.2212660000,22.2793050000 114.2211810000,22.2792970000 114.2211010000,22.2792810000 114.2210200000,22.2792610000 114.2207330000,22.2791700000 114.2205760000,22.2791210000 114.2203930000,22.2790630000 114.2202670000,22.2790240000 114.2201640000,22.2789990000 114.2200670000,22.2789840000 114.2193150000,22.2788900000 114.2192350000,22.2788840000 114.2191630000,22.2788820000 114.2190800000,22.2788840000 114.2190050000,22.2788900000 114.2189190000,22.2789040000 114.2188480000,22.2789220000 114.2187800000,22.2789440000 114.2187030000,22.2789800000 114.2186260000,22.2790230000 114.2185580000,22.2790720000 114.2185130000,22.2791120000 114.2184740000,22.2791510000 114.2184290000,22.2792050000 114.2183880000,22.2792620000 114.2180700000,22.2797380000 114.2180390000,22.2797840000 114.2180100000,22.2798320000 114.2179850000,22.2798820000 114.2179550000,22.2799640000 114.2179350000,22.2800510000 114.2179240000,22.2801330000 114.2179210000,22.2801940000 114.2179250000,22.2802730000 114.2179350000,22.2803440000 114.2179500000,22.2804150000 114.2179740000,22.2804870000 114.2180050000,22.2805570000 114.2180420000,22.2806250000 114.2180850000,22.2806910000 114.2181690000,22.2807920000 114.2182200000,22.2808370000 114.2182870000,22.2808860000 114.2183540000,22.2809270000 114.2184190000,22.2809590000 114.2184760000,22.2809830000 114.2185300000,22.2810020000 114.2186840000,22.2810500000 114.2187490000,22.2810610000 114.2187970000,22.2810670000 114.2188400000,22.2810700000 114.2188920000,22.2810690000 114.2189690000,22.2810600000 114.2190470000,22.2810450000 114.2191210000,22.2810220000 114.2191860000,22.2810020000 114.2192280000,22.2809880000 114.2192900000,22.2809810000 114.2193410000,22.2809560000 114.2194200000,22.2809000000 114.2195400000,22.2808000000 114.2196300000,22.2807000000 114.2196900000,22.2806100000 114.2197400000,22.2805100000 114.2198000000,22.2804000000 114.2198400000,22.2803200000 114.2199100000,22.2802000000 114.2199790000,22.2801000000 114.2200460000,22.2800140000 114.2200750000,22.2799830000 114.2201060000,22.2799570000 114.2201450000,22.2799290000 114.2201870000,22.2799050000 114.2202330000,22.2798850000 114.2202840000,22.2798680000 114.2203350000,22.2798560000 114.2203770000,22.2798520000 114.2204200000,22.2798500000 114.2204650000,22.2798510000 114.2205090000,22.2798580000 114.2205530000,22.2798680000 114.2206110000,22.2798900000 114.2206640000,22.2799170000 114.2207000000,22.2799410000 114.2207310000,22.2799660000 114.2207600000,22.2799950000 114.2207890000,22.2800290000 114.2208210000,22.2800750000 114.2208450000,22.2801180000 114.2208660000,22.2801750000 114.2208800000,22.2802320000 114.2208800000,22.2803320000 114.2208720000,22.2803840000 114.2208590000,22.2804370000 114.2208370000,22.2804940000 114.2208140000,22.2805430000 114.2207930000,22.2805820000 114.2207700000,22.2806160000 114.2206530000,22.2807690000 114.2206180000,22.2808160000 114.2205920000,22.2808530000 114.2205680000,22.2808930000 114.2205430000,22.2809400000 114.2205180000,22.2809940000 114.2204930000,22.2810660000 114.2204850000,22.2811170000 114.2204770000,22.2812540000 114.2204780000,22.2813210000 114.2204800000,22.2813480000 114.2205420000,22.2817920000 114.2205200000,22.2819500000 114.2204530000,22.2821940000 114.2203470000,22.2823170000 114.2200110000,22.2827420000 114.2196810000,22.2831480000 114.2201130000,22.2834400000 114.2204770000,22.2836880000 114.2205070000,22.2837080000 114.2205490000,22.2837380000 114.2200900000,22.2843030000 114.2200800000,22.2843170000 114.2200130000,22.2843980000 114.2199520000,22.2844710000 114.2199080000,22.2845200000 114.2198680000,22.2845620000 114.2198140000,22.2846060000 114.2197520000,22.2846470000 114.2196810000,22.2846880000 114.2196080000,22.2847260000 114.2195070000,22.2847710000 114.2193900000,22.2848080000 114.2192710000,22.2848380000 114.2191350000,22.2848640000 114.2189620000,22.2848800000 114.2188380000,22.2848850000 114.2186930000,22.2848790000 114.2185050000,22.2848580000 114.2183270000,22.2848280000 114.2180130000,22.2847520000 114.2178720000,22.2847160000 114.2174830000,22.2846240000 114.2172680000,22.2845900000 114.2170510000,22.2845630000 114.2167690000,22.2845540000 114.2157680000,22.2845600000 114.2156560000,22.2845690000 114.2155520000,22.2845760000 114.2153420000,22.2845930000 114.2149420000,22.2846250000 114.2147470000,22.2846360000 114.2144610000,22.2846360000 114.2142890000,22.2846290000 114.2136740000,22.2846060000 114.2135550000,22.2846010000 114.2130270000,22.2845940000 114.2129870000,22.2845940000 114.2129300000,22.2845990000 114.2128000000,22.2846110000 114.2126900000,22.2846260000 114.2125430000,22.2846460000 114.2124270000,22.2846740000 114.2123310000,22.2847010000 114.2122800000,22.2847170000 114.2121840000,22.2847460000 114.2120790000,22.2847770000 114.2119570000,22.2848190000 114.2118510000,22.2848580000 114.2117960000,22.2848790000 114.2117070000,22.2849210000 114.2116350000,22.2849550000 114.2115690000,22.2849970000 114.2115200000,22.2850330000 114.2114750000,22.2850740000 114.2114250000,22.2851330000 114.2113790000,22.2851950000 114.2111410000,22.2855670000 114.2110610000,22.2856900000 114.2110400000,22.2857230000 114.2110140000,22.2857620000 114.2108180000,22.2860740000 114.2107710000,22.2861480000 114.2105260000,22.2865330000 114.2104800000,22.2866050000 114.2104470000,22.2866630000 114.2104350000,22.2866890000 114.2104290000,22.2867010000 114.2104000000,22.2867620000 114.2103130000,22.2870220000 114.2102970000,22.2870710000 114.2102600000,22.2871620000 114.2102330000,22.2872410000 114.2102120000,22.2873050000 114.2101400000,22.2875460000 114.2101270000,22.2875850000 114.2101170000,22.2876140000 114.2101080000,22.2876390000 114.2100960000,22.2876750000 114.2100300000,22.2878640000 114.2099700000,22.2880490000 114.2099350000,22.2881560000 114.2098500000,22.2884060000 114.2098400000,22.2884330000 114.2097480000,22.2886950000 114.2097240000,22.2887680000 114.2095520000,22.2893280000 114.2093600000,22.2898980000 114.2092590000,22.2901990000 114.2091910000,22.2903930000 114.2091480000,22.2905020000 114.2090960000,22.2906130000 114.2090470000,22.2907030000 114.2090160000,22.2907530000 114.2089830000,22.2908030000 114.2089670000,22.2908250000 114.2089110000,22.2908950000 114.2088700000,22.2909420000 114.2088300000,22.2909850000 114.2087920000,22.2910230000 114.2087190000,22.2910920000 114.2086440000,22.2911540000 114.2085780000,22.2912030000 114.2085130000,22.2912440000 114.2084420000,22.2912850000 114.2083580000,22.2913270000 114.2082580000,22.2913750000 114.2082170000,22.2913940000 114.2081820000,22.2914090000 114.2081390000,22.2914250000 114.2080520000,22.2914560000 114.2078710000,22.2915220000 114.2073340000,22.2917160000 114.2072860000,22.2917340000 114.2071610000,22.2917780000 114.2068080000,22.2919010000 114.2067540000,22.2919160000 114.2066850000,22.2919250000 114.2065100000,22.2919400000 114.2061150000,22.2919710000 114.2059010000,22.2919760000 114.2058780000,22.2919740000 114.2058380000,22.2919730000 114.2057700000,22.2920340000 114.2055900000,22.2920410000 114.2054270000,22.2920380000 114.2047050000,22.2920230000 114.2046440000,22.2920250000 114.2045710000,22.2920350000 114.2044960000,22.2920590000 114.2044240000,22.2920920000 114.2043790000,22.2921220000 114.2043320000,22.2921610000 114.2042900000,22.2922120000 114.2042620000,22.2922600000 114.2042410000,22.2923100000 114.2042230000,22.2923700000 114.2042120000,22.2924400000 114.2042100000,22.2924900000 114.2042140000,22.2932550000 114.2042130000,22.2933530000 114.2042050000,22.2934530000 114.2041930000,22.2935290000 114.2041780000,22.2935890000 114.2041560000,22.2936470000 114.2041320000,22.2937000000 114.2041020000,22.2937500000 114.2040670000,22.2937970000 114.2040310000,22.2938370000 114.2039920000,22.2938760000 114.2039490000,22.2939110000 114.2039220000,22.2939290000 114.2039030000,22.2939420000 114.2038550000,22.2939700000 114.2038040000,22.2939940000 114.2037480000,22.2940160000 114.2036960000,22.2940330000 114.2036410000,22.2940460000 114.2035700000,22.2940560000 114.2034990000,22.2940630000 114.2034610000,22.2940670000 114.2034190000,22.2940690000 114.2031990000,22.2940730000 114.2029950000,22.2940760000 114.2029350000,22.2940800000 114.2028290000,22.2940850000 114.2026460000,22.2940560000 114.2025500000,22.2940360000 114.2022170000,22.2939690000 114.2021190000,22.2939490000 114.2018350000,22.2938920000 114.2015540000,22.2938360000 114.2013450000,22.2937940000 114.2005900000,22.2936420000 114.2005170000,22.2936260000 114.2000710000,22.2935390000 114.1999040000,22.2935110000 114.1997390000,22.2934890000 114.1995910000,22.2934740000 114.1994500000,22.2934640000 114.1992990000,22.2934600000 114.1989250000,22.2934630000 114.1987990000,22.2934610000 114.1986680000,22.2934560000 114.1984820000,22.2934470000 114.1983720000,22.2934380000 114.1982150000,22.2934210000 114.1980750000,22.2933990000 114.1971540000,22.2932100000 114.1968890000,22.2931570000 114.1966340000,22.2931040000 114.1963890000,22.2930500000 114.1963650000,22.2930450000 114.1962830000,22.2930270000 114.1961050000,22.2929900000 114.1958550000,22.2929350000 114.1956370000,22.2928790000 114.1955750000,22.2928640000 114.1955000000,22.2928430000 114.1953420000,22.2928020000 114.1950760000,22.2927130000 114.1949500000,22.2926590000 114.1948340000,22.2926050000 114.1947770000,22.2925780000 114.1947230000,22.2925510000 114.1945570000,22.2924640000 114.1944720000,22.2924140000 114.1943380000,22.2923400000 114.1943010000,22.2923180000 114.1940990000,22.2921780000 114.1939740000,22.2920840000 114.1938490000,22.2919940000 114.1937010000,22.2918840000 114.1936750000,22.2918610000 114.1936060000,22.2918030000 114.1935350000,22.2917410000 114.1934410000,22.2916610000 114.1933890000,22.2916150000 114.1933500000,22.2915810000 114.1933240000,22.2915550000 114.1933070000,22.2915380000 114.1932510000,22.2914830000 114.1931350000,22.2913490000 114.1931050000,22.2912530000 114.1930930000,22.2912180000 114.1930760000,22.2911620000 114.1930060000,22.2910820000 114.1929330000,22.2909960000 114.1928030000,22.2908470000 114.1922990000,22.2903210000 114.1915880000,22.2895560000 114.1913760000,22.2893230000 114.1912520000,22.2891910000 114.1906770000,22.2885810000 114.1903320000,22.2882150000 114.1900190000,22.2878880000 114.1899830000,22.2878420000 114.1898890000,22.2877330000 114.1898310000,22.2876540000 114.1897600000,22.2875550000 114.1896840000,22.2874280000 114.1896380000,22.2873400000 114.1895570000,22.2872390000 114.1894580000,22.2870630000 114.1894350000,22.2869950000 114.1894190000,22.2869350000 114.1894020000,22.2868650000 114.1893850000,22.2867830000 114.1893780000,22.2867270000 114.1893710000,22.2866570000 114.1893630000,22.2865650000 114.1893570000,22.2864690000 114.1893520000,22.2863510000 114.1893440000,22.2860110000 114.1893380000,22.2859370000 114.1893310000,22.2858670000 114.1893190000,22.2857830000 114.1893060000,22.2857010000 114.1892870000,22.2856040000 114.1892600000,22.2854970000 114.1892280000,22.2853930000 114.1891830000,22.2852740000 114.1891130000,22.2851340000 114.1890310000,22.2850070000 114.1889800000,22.2849320000 114.1888980000,22.2848300000 114.1888130000,22.2847440000 114.1887120000,22.2846530000 114.1885960000,22.2845670000 114.1884740000,22.2844880000 114.1883480000,22.2844200000 114.1882350000,22.2843700000 114.1880960000,22.2843140000 114.1879710000,22.2842690000 114.1877860000,22.2842120000 114.1876240000,22.2841670000 114.1871890000,22.2840570000 114.1871400000,22.2840320000 114.1870940000,22.2839960000 114.1869060000,22.2839590000 114.1866430000,22.2839070000 114.1865190000,22.2838830000 114.1864390000,22.2838650000 114.1863640000,22.2838430000 114.1862310000,22.2837970000 114.1860990000,22.2837360000 114.1859880000,22.2836800000 114.1859020000,22.2836190000 114.1857900000,22.2835350000 114.1854100000,22.2832190000 114.1853700000,22.2830900000 114.1853570000,22.2830570000 114.1853510000,22.2830110000 114.1853570000,22.2829480000 114.1853690000,22.2828840000 114.1854000000,22.2828000000 114.1854150000,22.2827580000 114.1854550000,22.2826640000 114.1851190000,22.2825450000 114.1850410000,22.2825190000 114.1849860000,22.2825020000 114.1848210000,22.2824510000 114.1844310000,22.2823490000 114.1844250000,22.2823480000 114.1840550000,22.2823030000 114.1836400000,22.2821430000 114.1835710000,22.2821150000 114.1834410000,22.2820630000 114.1832710000,22.2819960000 114.1831930000,22.2819650000 114.1831000000,22.2819290000 114.1830130000,22.2818950000 114.1828970000,22.2818500000 114.1827910000,22.2818100000 114.1826870000,22.2817690000 114.1823980000,22.2816580000 114.1823200000,22.2816240000 114.1822920000,22.2816120000 114.1821640000,22.2815570000 114.1820830000,22.2814670000 114.1820720000,22.2814120000 114.1820820000,22.2813460000 114.1820970000,22.2812920000 114.1821130000,22.2812310000 114.1821320000,22.2811620000 114.1822120000,22.2809710000 114.1822400000,22.2809040000 114.1823720000,22.2806030000 114.1823860000,22.2805720000 114.1824400000,22.2804570000 114.1822950000,22.2804030000 114.1822370000,22.2803800000 114.1818560000,22.2802390000 114.1818110000,22.2801920000 114.1811270000,22.2799270000 114.1810340000,22.2798910000 114.1809470000,22.2798580000 114.1803460000,22.2796320000 114.1797300000,22.2794000000 114.1797030000,22.2793900000 114.1796030000,22.2793520000 114.1795250000,22.2793250000 114.1794220000,22.2792880000 114.1793760000,22.2792750000 114.1780650000,22.2788910000 114.1780340000,22.2788810000 114.1778810000,22.2788380000 114.1777420000,22.2788020000 114.1769890000,22.2785760000 114.1769020000,22.2785570000 114.1767580000,22.2785370000 114.1766180000,22.2785220000 114.1753930000,22.2783930000 114.1749780000,22.2783490000 114.1748360000,22.2783340000 114.1747330000,22.2783180000 114.1747420000,22.2782430000 114.1747440000,22.2782270000 114.1747120000,22.2781910000 114.1747400000,22.2779910000 114.1747450000,22.2779540000 114.1747610000,22.2778310000 114.1747750000,22.2777180000 114.1745480000,22.2776960000 114.1742060000,22.2776600000 114.1738680000,22.2776250000 114.1733630000,22.2775710000 114.1732660000,22.2775590000 114.1727110000,22.2774990000 114.1726580000,22.2774930000 114.1726160000,22.2774890000 114.1721470000,22.2774340000 114.1718250000,22.2774610000 114.1717810000,22.2774650000 114.1717310000,22.2774690000 114.1716670000,22.2774760000 114.1716020000,22.2774820000 114.1714550000,22.2774930000 114.1711990000,22.2775120000 114.1708780000,22.2775360000 114.1704740000,22.2775620000 114.1704210000,22.2775660000 114.1703370000,22.2775710000 114.1700670000,22.2775950000 114.1697600000,22.2776220000 114.1694230000,22.2776510000 114.1693980000,22.2776540000 114.1693450000,22.2776590000 114.1692610000,22.2776680000 114.1685170000,22.2777300000 114.1683360000,22.2777460000 114.1679670000,22.2777780000 114.1679210000,22.2777820000 114.1675240000,22.2778170000 114.1674650000,22.2778220000 114.1673240000,22.2778430000 114.1663690000,22.2779390000 114.1661220000,22.2779690000 114.1659210000,22.2779930000 114.1657880000,22.2780080000 114.1654950000,22.2780460000 114.1654670000,22.2780500000 114.1654250000,22.2780560000 114.1649730000,22.2781170000 114.1648760000,22.2781360000 114.1646860000,22.2781740000 114.1644950000,22.2782280000 114.1643070000,22.2782990000 114.1640380000,22.2784180000 114.1638230000,22.2785170000 114.1637050000,22.2785840000 114.1636400000,22.2786240000 114.1634530000,22.2787390000 114.1633770000,22.2787880000 114.1630190000,22.2790660000 114.1628030000,22.2792020000 114.1627540000,22.2792320000 114.1625970000,22.2793340000 114.1625700000,22.2793420000 114.1624630000,22.2793960000 114.1624150000,22.2794190000 114.1622890000,22.2794780000 114.1620130000,22.2795920000 114.1618520000,22.2796470000 114.1615670000,22.2797490000 114.1615240000,22.2797580000 114.1613930000,22.2797870000 114.1613130000,22.2798000000 114.1610710000,22.2798410000 114.1608870000,22.2798740000 114.1607940000,22.2799100000 114.1607310000,22.2799330000 114.1606710000,22.2799490000 114.1605230000,22.2799630000 114.1604820000,22.2799670000 114.1603650000,22.2799660000 114.1602120000,22.2799520000 114.1598470000,22.2798960000 114.1598280000,22.2798930000 114.1597000000,22.2798740000 114.1596730000,22.2798700000 114.1596530000,22.2798700000 114.1595240000,22.2798700000 114.1594410000,22.2798800000 114.1593040000,22.2799080000 114.1591270000,22.2799530000 114.1587870000,22.2800460000 114.1584870000,22.2801230000 114.1580780000,22.2802080000 114.1580240000,22.2802220000 114.1579060000,22.2802550000 114.1578680000,22.2802690000 114.1578270000,22.2802870000 114.1577870000,22.2803150000 114.1577420000,22.2803570000 114.1575190000,22.2806240000 114.1573380000,22.2808460000 114.1572550000,22.2809390000 114.1572390000,22.2809570000 114.1572080000,22.2809950000 114.1571500000,22.2810650000 114.1569830000,22.2812640000 114.1569530000,22.2812990000 114.1568840000,22.2813790000 114.1568100000,22.2814600000 114.1567690000,22.2815040000 114.1567270000,22.2815500000 114.1566540000,22.2816300000 114.1565830000,22.2817090000 114.1565450000,22.2817470000 114.1565180000,22.2817800000 114.1564860000,22.2818210000 114.1564730000,22.2818380000 114.1559090000,22.2825310000 114.1558930000,22.2825510000 114.1556900000,22.2828040000 114.1555480000,22.2829700000 114.1554840000,22.2830640000 114.1553510000,22.2832530000 114.1552360000,22.2833860000 114.1552170000,22.2834090000 114.1551300000,22.2835100000 114.1550900000,22.2835460000 114.1549400000,22.2836500000 114.1548360000,22.2837280000 114.1548060000,22.2837510000 114.1547300000,22.2838090000 114.1545130000,22.2839720000 114.1541970000,22.2841820000 114.1540630000,22.2842790000 114.1540250000,22.2843050000 114.1538510000,22.2844390000 114.1536380000,22.2846230000 114.1533510000,22.2848580000 114.1531100000,22.2850720000 114.1530070000,22.2851760000 114.1529620000,22.2852000000 114.1528410000,22.2852620000 114.1527530000,22.2853130000 114.1526260000,22.2853810000 114.1523930000,22.2855070000 114.1522760000,22.2855830000 114.1521980000,22.2856260000 114.1518610000,22.2857630000 114.1518050000,22.2857790000 114.1517420000,22.2857960000 114.1511380000,22.2859560000 114.1511160000,22.2859610000 114.1510870000,22.2859690000 114.1509540000,22.2860010000 114.1507890000,22.2860410000 114.1506880000,22.2860830000 114.1506440000,22.2861010000 114.1504380000,22.2862120000 114.1503140000,22.2862830000 114.1502950000,22.2862940000 114.1502640000,22.2863120000 114.1502810000,22.2863370000 114.1503360000,22.2864200000 114.1504000000,22.2865200000 114.1504500000,22.2867600000 114.1504580000,22.2867990000 114.1504800000,22.2869050000 114.1504880000,22.2869520000 114.1504940000,22.2869860000 114.1504820000,22.2870600000 114.1505350000,22.2872380000 114.1505910000,22.2874270000 114.1506010000,22.2874630000 114.1506320000,22.2875640000 114.1506300000,22.2876060000 114.1506280000,22.2876460000 114.1506270000,22.2876970000 114.1496140000,22.2879640000 114.1495260000,22.2880190000 114.1495080000,22.2880890000 114.1495090000,22.2881700000 114.1494730000,22.2883150000 114.1495180000,22.2884660000 114.1495940000,22.2887180000 114.1496170000,22.2887880000 114.1496590000,22.2888350000 114.1497120000,22.2888680000 114.1497820000,22.2888690000 114.1498800000,22.2888450000</coordinates>
                </LineString>
                <ExtendedData>
                    <Data name="duration">
                        <value>00:41:25</value>
                    </Data>
                    <Data name="length">
                        <value>27820.84824618838</value>
                    </Data>
                </ExtendedData>
            </Placemark>
        </Document>
    </Document>
</kml>