<?xml version="1.0" encoding="UTF-8"?>
<kml xmlns="http://www.opengis.net/kml/2.2" xmlns:gx="http://www.google.com/kml/ext/2.2">
    <Document>
        <name>Route</name>
        <Folder>
            <name>Route Request</name>
            <Placemark>
                <address>Hong Kong-Macau Ferry Terminal, Chung Kong Road, Shun Tak Centre, Sheung Wan, Hong Kong, Central and Western District, Hong Kong, 1F, PRC</address>
                <Point>
                    <coordinates>114.1505354713,22.2887921114</coordinates>
                </Point>
                <ExtendedData>
                    <Data name="county">
                        <value>Central and Western District</value>
                    </Data>
                    <Data name="suburb">
                        <value>Sheung Wan</value>
                    </Data>
                    <Data name="commercial">
                        <value>Shun Tak Centre</value>
                    </Data>
                    <Data name="country">
                        <value>PRC</value>
                    </Data>
                    <Data name="postcode">
                        <value>1F</value>
                    </Data>
                    <Data name="road">
                        <value>Chung Kong Road</value>
                    </Data>
                    <Data name="ferry_terminal">
                        <value>Hong Kong-Macau Ferry Terminal</value>
                    </Data>
                    <Data name="country_code">
                        <value>cn</value>
                    </Data>
                    <Data name="city">
                        <value>Hong Kong</value>
                    </Data>
                </ExtendedData>
            </Placemark>
            <Placemark>
                <address>Starbucks Alexandra House. Clover., Des Voeux Road Central, Admiralty, Central District, Hong Kong, Central and Western District, Hong Kong, CODA PLAZA 7F, PRC</address>
                <Point>
                    <coordinates>114.1580128818,22.2818284164</coordinates>
                </Point>
                <ExtendedData>
                    <Data name="county">
                        <value>Central and Western District</value>
                    </Data>
                    <Data name="suburb">
                        <value>Central District</value>
                    </Data>
                    <Data name="neighbourhood">
                        <value>Admiralty</value>
                    </Data>
                    <Data name="cafe">
                        <value>Starbucks Alexandra House. Clover.</value>
                    </Data>
                    <Data name="country">
                        <value>PRC</value>
                    </Data>
                    <Data name="postcode">
                        <value>CODA PLAZA 7F</value>
                    </Data>
                    <Data name="road">
                        <value>Des Voeux Road Central</value>
                    </Data>
                    <Data name="country_code">
                        <value>cn</value>
                    </Data>
                    <Data name="city">
                        <value>Hong Kong</value>
                    </Data>
                </ExtendedData>
            </Placemark>
            <Placemark>
                <address>Gloucester Road, Wan Chai, Wan Chai District, Hong Kong, DAVID HOUSE, PRC</address>
                <Point>
                    <coordinates>114.1702477674,22.2794077823</coordinates>
                </Point>
                <ExtendedData>
                    <Data name="county">
                        <value>Wan Chai District</value>
                    </Data>
                    <Data name="suburb">
                        <value>Wan Chai</value>
                    </Data>
                    <Data name="country">
                        <value>PRC</value>
                    </Data>
                    <Data name="postcode">
                        <value>DAVID HOUSE</value>
                    </Data>
                    <Data name="road">
                        <value>Gloucester Road</value>
                    </Data>
                    <Data name="country_code">
                        <value>cn</value>
                    </Data>
                </ExtendedData>
            </Placemark>
            <Placemark>
                <address>Central &amp; Wan Chai Bypass Administration Building, Central–Wan Chai Bypass, Fortress Hill, North Point, Eastern District, Hong Kong, KINGSFIELD MANSION LEVEL B, PRC</address>
                <Point>
                    <coordinates>114.1910290283,22.2896270846</coordinates>
                </Point>
                <ExtendedData>
                    <Data name="county">
                        <value>Eastern District</value>
                    </Data>
                    <Data name="suburb">
                        <value>North Point</value>
                    </Data>
                    <Data name="neighbourhood">
                        <value>Fortress Hill</value>
                    </Data>
                    <Data name="country">
                        <value>PRC</value>
                    </Data>
                    <Data name="address29">
                        <value>Central &amp; Wan Chai Bypass Administration Building</value>
                    </Data>
                    <Data name="postcode">
                        <value>KINGSFIELD MANSION LEVEL B</value>
                    </Data>
                    <Data name="road">
                        <value>Central–Wan Chai Bypass</value>
                    </Data>
                    <Data name="country_code">
                        <value>cn</value>
                    </Data>
                </ExtendedData>
            </Placemark>
            <Placemark>
                <address>Hong Man Industrial Centre, Hong Man Street, Chai Wan, Eastern District, Hong Kong, SIL 850, PRC</address>
                <Point>
                    <coordinates>114.2349319849,22.2643941458</coordinates>
                </Point>
                <ExtendedData>
                    <Data name="building">
                        <value>Hong Man Industrial Centre</value>
                    </Data>
                    <Data name="county">
                        <value>Eastern District</value>
                    </Data>
                    <Data name="suburb">
                        <value>Chai Wan</value>
                    </Data>
                    <Data name="country">
                        <value>PRC</value>
                    </Data>
                    <Data name="postcode">
                        <value>SIL 850</value>
                    </Data>
                    <Data name="road">
                        <value>Hong Man Street</value>
                    </Data>
                    <Data name="country_code">
                        <value>cn</value>
                    </Data>
                </ExtendedData>
            </Placemark>
            <Placemark>
                <Point>
                    <coordinates>114.2511045770,22.2629851206</coordinates>
                </Point>
            </Placemark>
            <Placemark>
                <Point>
                    <coordinates>114.2509426233,22.2660098565</coordinates>
                </Point>
                <ExtendedData>
                    <Data name="routingVisited">
                        <value>false</value>
                    </Data>
                </ExtendedData>
            </Placemark>
            <Placemark>
                <Point>
                    <coordinates>114.2516353210,22.2628683366</coordinates>
                </Point>
            </Placemark>
            <Placemark>
                <address>Wan Tsui Market, Chai Wan Road, Chai Wan, Eastern District, Hong Kong, SIL 850, PRC</address>
                <Point>
                    <coordinates>114.2391783560,22.2630570432</coordinates>
                </Point>
                <ExtendedData>
                    <Data name="bus_stop">
                        <value>Wan Tsui Market</value>
                    </Data>
                    <Data name="county">
                        <value>Eastern District</value>
                    </Data>
                    <Data name="suburb">
                        <value>Chai Wan</value>
                    </Data>
                    <Data name="country">
                        <value>PRC</value>
                    </Data>
                    <Data name="postcode">
                        <value>SIL 850</value>
                    </Data>
                    <Data name="road">
                        <value>Chai Wan Road</value>
                    </Data>
                    <Data name="country_code">
                        <value>cn</value>
                    </Data>
                </ExtendedData>
            </Placemark>
            <Placemark>
                <address>柏架電站, Chai Wan Road, Shau Kei Wan, Eastern District, Hong Kong, SIL 850, PRC</address>
                <Point>
                    <coordinates>114.2311340795,22.2741466924</coordinates>
                </Point>
                <ExtendedData>
                    <Data name="building">
                        <value>柏架電站</value>
                    </Data>
                    <Data name="county">
                        <value>Eastern District</value>
                    </Data>
                    <Data name="suburb">
                        <value>Shau Kei Wan</value>
                    </Data>
                    <Data name="country">
                        <value>PRC</value>
                    </Data>
                    <Data name="postcode">
                        <value>SIL 850</value>
                    </Data>
                    <Data name="road">
                        <value>Chai Wan Road</value>
                    </Data>
                    <Data name="country_code">
                        <value>cn</value>
                    </Data>
                </ExtendedData>
            </Placemark>
            <Placemark>
                <address>Central–Wan Chai Bypass Tunnel, Kellett Island, Wan Chai District, Hong Kong, IL 2258, PRC</address>
                <Point>
                    <coordinates>114.1875744358,22.2860753609</coordinates>
                </Point>
                <ExtendedData>
                    <Data name="county">
                        <value>Wan Chai District</value>
                    </Data>
                    <Data name="suburb">
                        <value>Kellett Island</value>
                    </Data>
                    <Data name="country">
                        <value>PRC</value>
                    </Data>
                    <Data name="postcode">
                        <value>IL 2258</value>
                    </Data>
                    <Data name="road">
                        <value>Central–Wan Chai Bypass Tunnel</value>
                    </Data>
                    <Data name="country_code">
                        <value>cn</value>
                    </Data>
                </ExtendedData>
            </Placemark>
            <Placemark>
                <address>Wan Chai, Wan Chai District, Hong Kong, DAVID HOUSE, PRC</address>
                <Point>
                    <coordinates>114.1699756601,22.2817761976</coordinates>
                </Point>
                <ExtendedData>
                    <Data name="county">
                        <value>Wan Chai District</value>
                    </Data>
                    <Data name="suburb">
                        <value>Wan Chai</value>
                    </Data>
                    <Data name="country">
                        <value>PRC</value>
                    </Data>
                    <Data name="postcode">
                        <value>DAVID HOUSE</value>
                    </Data>
                    <Data name="country_code">
                        <value>cn</value>
                    </Data>
                </ExtendedData>
            </Placemark>
            <Placemark>
                <address>Golden Bauhinia Square, Expo Drive East, Wan Chai, Wan Chai District, Hong Kong, DAVID HOUSE, PRC</address>
                <Point>
                    <coordinates>114.1740501081,22.2844126943</coordinates>
                </Point>
                <ExtendedData>
                    <Data name="county">
                        <value>Wan Chai District</value>
                    </Data>
                    <Data name="suburb">
                        <value>Wan Chai</value>
                    </Data>
                    <Data name="country">
                        <value>PRC</value>
                    </Data>
                    <Data name="postcode">
                        <value>DAVID HOUSE</value>
                    </Data>
                    <Data name="road">
                        <value>Expo Drive East</value>
                    </Data>
                    <Data name="attraction">
                        <value>Golden Bauhinia Square</value>
                    </Data>
                    <Data name="country_code">
                        <value>cn</value>
                    </Data>
                </ExtendedData>
            </Placemark>
            <Placemark>
                <address>Pacific Place, Queensway, Wan Chai, Wan Chai District, Hong Kong, PACIFIC PLACE, PRC</address>
                <Point>
                    <coordinates>114.1658307477,22.2779195086</coordinates>
                </Point>
                <ExtendedData>
                    <Data name="bus_stop">
                        <value>Pacific Place</value>
                    </Data>
                    <Data name="county">
                        <value>Wan Chai District</value>
                    </Data>
                    <Data name="suburb">
                        <value>Wan Chai</value>
                    </Data>
                    <Data name="country">
                        <value>PRC</value>
                    </Data>
                    <Data name="postcode">
                        <value>PACIFIC PLACE</value>
                    </Data>
                    <Data name="road">
                        <value>Queensway</value>
                    </Data>
                    <Data name="country_code">
                        <value>cn</value>
                    </Data>
                </ExtendedData>
            </Placemark>
            <Placemark>
                <address>Sheung Wan Municipal Services Building, Queen's Road Central, Admiralty, Sheung Wan, Hong Kong, Central and Western District, Hong Kong, 1F, PRC</address>
                <Point>
                    <coordinates>114.1504645400,22.2861281416</coordinates>
                </Point>
                <ExtendedData>
                    <Data name="county">
                        <value>Central and Western District</value>
                    </Data>
                    <Data name="suburb">
                        <value>Sheung Wan</value>
                    </Data>
                    <Data name="neighbourhood">
                        <value>Admiralty</value>
                    </Data>
                    <Data name="country">
                        <value>PRC</value>
                    </Data>
                    <Data name="postcode">
                        <value>1F</value>
                    </Data>
                    <Data name="road">
                        <value>Queen's Road Central</value>
                    </Data>
                    <Data name="country_code">
                        <value>cn</value>
                    </Data>
                    <Data name="community_centre">
                        <value>Sheung Wan Municipal Services Building</value>
                    </Data>
                    <Data name="city">
                        <value>Hong Kong</value>
                    </Data>
                </ExtendedData>
            </Placemark>
            <Placemark>
                <address>Hong Kong-Macau Ferry Terminal, Chung Kong Road, Shun Tak Centre, Sheung Wan, Hong Kong, Central and Western District, Hong Kong, 1F, PRC</address>
                <Point>
                    <coordinates>114.1505516131,22.2887915062</coordinates>
                </Point>
                <ExtendedData>
                    <Data name="county">
                        <value>Central and Western District</value>
                    </Data>
                    <Data name="suburb">
                        <value>Sheung Wan</value>
                    </Data>
                    <Data name="commercial">
                        <value>Shun Tak Centre</value>
                    </Data>
                    <Data name="country">
                        <value>PRC</value>
                    </Data>
                    <Data name="postcode">
                        <value>1F</value>
                    </Data>
                    <Data name="road">
                        <value>Chung Kong Road</value>
                    </Data>
                    <Data name="ferry_terminal">
                        <value>Hong Kong-Macau Ferry Terminal</value>
                    </Data>
                    <Data name="country_code">
                        <value>cn</value>
                    </Data>
                    <Data name="city">
                        <value>Hong Kong</value>
                    </Data>
                </ExtendedData>
            </Placemark>
        </Folder>
        <Document>
            <name>32.2 km; 01:27 h (OSRM)</name>
            <Placemark>
                <name>Route</name>
                <LineString>
                    <coordinates>114.1503220000,22.2886400000 114.1503510000,22.2886050000 114.1504340000,22.2885060000 114.1505580000,22.2883630000 114.1506270000,22.2883200000 114.1507090000,22.2883030000 114.1508550000,22.2882720000 114.1521800000,22.2879550000 114.1520400000,22.2876300000 114.1520300000,22.2875900000 114.1519760000,22.2874370000 114.1523630000,22.2873270000 114.1532200000,22.2870900000 114.1534500000,22.2870450000 114.1534850000,22.2870040000 114.1534980000,22.2869160000 114.1534870000,22.2868010000 114.1533460000,22.2863310000 114.1533240000,22.2862600000 114.1534090000,22.2862090000 114.1534270000,22.2861980000 114.1537570000,22.2859970000 114.1540420000,22.2858310000 114.1540560000,22.2858220000 114.1542790000,22.2856890000 114.1547670000,22.2853940000 114.1547860000,22.2853820000 114.1553380000,22.2850240000 114.1553820000,22.2849920000 114.1554330000,22.2849450000 114.1554830000,22.2848920000 114.1557360000,22.2845910000 114.1557580000,22.2845660000 114.1558500000,22.2844620000 114.1559640000,22.2843230000 114.1560740000,22.2841920000 114.1560890000,22.2841750000 114.1565060000,22.2836490000 114.1565220000,22.2836290000 114.1565400000,22.2836080000 114.1568100000,22.2832750000 114.1569270000,22.2831320000 114.1570980000,22.2829220000 114.1574890000,22.2824530000 114.1578280000,22.2820330000 114.1578580000,22.2819830000 114.1579970000,22.2818170000 114.1587160000,22.2809570000 114.1587580000,22.2809250000 114.1588590000,22.2808930000 114.1594120000,22.2807570000 114.1596270000,22.2806990000 114.1597310000,22.2806690000 114.1599390000,22.2806080000 114.1600500000,22.2805770000 114.1602950000,22.2805090000 114.1603300000,22.2804940000 114.1603810000,22.2804660000 114.1604260000,22.2804280000 114.1604780000,22.2803760000 114.1605220000,22.2803210000 114.1605580000,22.2802570000 114.1606550000,22.2801100000 114.1606840000,22.2800700000 114.1607140000,22.2800370000 114.1607890000,22.2799940000 114.1608620000,22.2799790000 114.1610910000,22.2799590000 114.1612920000,22.2799320000 114.1614310000,22.2799150000 114.1616570000,22.2798680000 114.1616660000,22.2798660000 114.1618400000,22.2798280000 114.1620440000,22.2797580000 114.1624290000,22.2796070000 114.1626650000,22.2795000000 114.1627940000,22.2794240000 114.1630800000,22.2792270000 114.1632720000,22.2790910000 114.1634180000,22.2789860000 114.1637830000,22.2787610000 114.1638870000,22.2787080000 114.1641010000,22.2785860000 114.1642450000,22.2785260000 114.1642840000,22.2785100000 114.1644630000,22.2784390000 114.1645500000,22.2784100000 114.1646820000,22.2783710000 114.1648740000,22.2783200000 114.1650010000,22.2782960000 114.1650590000,22.2782850000 114.1650790000,22.2782820000 114.1654120000,22.2782340000 114.1656050000,22.2782090000 114.1659390000,22.2781650000 114.1663350000,22.2781170000 114.1669630000,22.2780500000 114.1672900000,22.2780030000 114.1677620000,22.2779520000 114.1679990000,22.2779290000 114.1684570000,22.2778850000 114.1685170000,22.2780440000 114.1686570000,22.2783620000 114.1686910000,22.2784420000 114.1687020000,22.2784640000 114.1687080000,22.2784780000 114.1687990000,22.2786690000 114.1690640000,22.2791800000 114.1691320000,22.2792790000 114.1692040000,22.2793370000 114.1692730000,22.2793910000 114.1693580000,22.2794290000 114.1694730000,22.2794400000 114.1695480000,22.2794420000 114.1696450000,22.2794450000 114.1698220000,22.2794390000 114.1702480000,22.2794060000 114.1703530000,22.2793980000 114.1707000000,22.2793700000 114.1716500000,22.2793300000 114.1718200000,22.2793200000 114.1720500000,22.2793150000 114.1722800000,22.2793200000 114.1727000000,22.2793500000 114.1728090000,22.2793610000 114.1729700000,22.2793770000 114.1730000000,22.2793800000 114.1733400000,22.2794140000 114.1737200000,22.2794400000 114.1740500000,22.2795300000 114.1741870000,22.2795800000 114.1742560000,22.2796300000 114.1743100000,22.2797000000 114.1743390000,22.2797600000 114.1743620000,22.2798500000 114.1743170000,22.2806790000 114.1742980000,22.2808020000 114.1742710000,22.2811470000 114.1742840000,22.2811870000 114.1743070000,22.2812310000 114.1743600000,22.2813140000 114.1745700000,22.2815400000 114.1746120000,22.2816200000 114.1746400000,22.2817200000 114.1746540000,22.2819380000 114.1746400000,22.2821100000 114.1746200000,22.2821800000 114.1745600000,22.2822900000 114.1744300000,22.2824100000 114.1743720000,22.2824650000 114.1743100000,22.2825400000 114.1741750000,22.2827350000 114.1741400000,22.2827880000 114.1741180000,22.2828500000 114.1741110000,22.2829880000 114.1741030000,22.2831470000 114.1740900000,22.2833480000 114.1740710000,22.2836590000 114.1740570000,22.2836640000 114.1740390000,22.2836780000 114.1740330000,22.2836870000 114.1740050000,22.2836850000 114.1739370000,22.2836800000 114.1723200000,22.2835420000 114.1722030000,22.2835160000 114.1720750000,22.2834250000 114.1720020000,22.2833440000 114.1719440000,22.2832730000 114.1718760000,22.2831320000 114.1717970000,22.2829210000 114.1717950000,22.2827890000 114.1718170000,22.2827120000 114.1718470000,22.2826640000 114.1718840000,22.2826320000 114.1719570000,22.2825910000 114.1720520000,22.2824890000 114.1721470000,22.2824370000 114.1723320000,22.2823880000 114.1724540000,22.2823910000 114.1728200000,22.2823780000 114.1730270000,22.2823740000 114.1733700000,22.2823680000 114.1740420000,22.2823610000 114.1746280000,22.2823910000 114.1749850000,22.2824210000 114.1754620000,22.2824730000 114.1809290000,22.2832320000 114.1818510000,22.2833680000 114.1822590000,22.2834450000 114.1827730000,22.2835840000 114.1832300000,22.2837190000 114.1844560000,22.2841080000 114.1848910000,22.2842950000 114.1853950000,22.2845420000 114.1858760000,22.2848500000 114.1863130000,22.2851780000 114.1866410000,22.2854140000 114.1870350000,22.2857100000 114.1874410000,22.2860740000 114.1879310000,22.2865420000 114.1885990000,22.2872120000 114.1889060000,22.2875260000 114.1907580000,22.2893580000 114.1910270000,22.2896290000 114.1915530000,22.2901590000 114.1919220000,22.2905300000 114.1924760000,22.2910880000 114.1926200000,22.2912330000 114.1934820000,22.2919690000 114.1939800000,22.2923650000 114.1943820000,22.2926650000 114.1946970000,22.2928220000 114.1950310000,22.2929330000 114.1953540000,22.2929900000 114.1955810000,22.2930280000 114.1974960000,22.2934010000 114.1979200000,22.2934800000 114.1981920000,22.2935260000 114.1983380000,22.2935420000 114.1987100000,22.2935630000 114.1992000000,22.2935690000 114.1995900000,22.2935850000 114.1997700000,22.2936020000 114.1999500000,22.2936270000 114.2001000000,22.2936520000 114.2015930000,22.2939620000 114.2024440000,22.2941380000 114.2030190000,22.2942370000 114.2035020000,22.2942680000 114.2039500000,22.2942790000 114.2043590000,22.2942530000 114.2046320000,22.2942350000 114.2056300000,22.2941000000 114.2060900000,22.2940100000 114.2063200000,22.2939500000 114.2065000000,22.2938900000 114.2069100000,22.2937200000 114.2072200000,22.2936000000 114.2075100000,22.2934900000 114.2077100000,22.2934200000 114.2084500000,22.2931800000 114.2088400000,22.2930500000 114.2090900000,22.2929400000 114.2092910000,22.2928400000 114.2094860000,22.2927210000 114.2096620000,22.2925980000 114.2110150000,22.2916200000 114.2112930000,22.2914300000 114.2115520000,22.2912760000 114.2118010000,22.2911320000 114.2126730000,22.2906220000 114.2129690000,22.2904590000 114.2131950000,22.2903500000 114.2134090000,22.2902650000 114.2137490000,22.2901430000 114.2141960000,22.2900090000 114.2148540000,22.2898400000 114.2152500000,22.2897340000 114.2155800000,22.2896460000 114.2162200000,22.2894900000 114.2167600000,22.2893500000 114.2170400000,22.2892800000 114.2176540000,22.2891050000 114.2178060000,22.2890760000 114.2183750000,22.2889240000 114.2194790000,22.2886690000 114.2198500000,22.2885910000 114.2200910000,22.2885370000 114.2204300000,22.2884520000 114.2207260000,22.2883510000 114.2209320000,22.2882420000 114.2211450000,22.2881120000 114.2213840000,22.2879030000 114.2215190000,22.2877050000 114.2216670000,22.2874450000 114.2217740000,22.2871600000 114.2218140000,22.2869840000 114.2218440000,22.2868040000 114.2218520000,22.2866160000 114.2218500000,22.2863740000 114.2217620000,22.2854180000 114.2217700000,22.2850060000 114.2217820000,22.2848680000 114.2218150000,22.2847100000 114.2218610000,22.2845360000 114.2219440000,22.2843380000 114.2220000000,22.2841940000 114.2220720000,22.2840540000 114.2233290000,22.2823980000 114.2236790000,22.2819900000 114.2238720000,22.2817700000 114.2240470000,22.2816200000 114.2243320000,22.2814590000 114.2247000000,22.2812770000 114.2254340000,22.2809570000 114.2257030000,22.2808350000 114.2258800000,22.2807090000 114.2260940000,22.2805250000 114.2262980000,22.2803310000 114.2264650000,22.2801820000 114.2267530000,22.2798990000 114.2269200000,22.2797610000 114.2271600000,22.2796100000 114.2272000000,22.2795900000 114.2276800000,22.2794020000 114.2277800000,22.2793500000 114.2278670000,22.2792900000 114.2279330000,22.2792330000 114.2279890000,22.2791780000 114.2280510000,22.2790990000 114.2280910000,22.2790320000 114.2281220000,22.2789600000 114.2281510000,22.2788700000 114.2281710000,22.2787700000 114.2282670000,22.2779750000 114.2282910000,22.2778030000 114.2282900000,22.2776680000 114.2282700000,22.2775400000 114.2282340000,22.2773990000 114.2282100000,22.2772080000 114.2282460000,22.2770240000 114.2282850000,22.2769180000 114.2283700000,22.2768050000 114.2284320000,22.2767500000 114.2285040000,22.2767020000 114.2288320000,22.2765300000 114.2292640000,22.2763140000 114.2294710000,22.2761990000 114.2295800000,22.2761160000 114.2297800000,22.2759680000 114.2299900000,22.2758800000 114.2301700000,22.2758300000 114.2303600000,22.2757880000 114.2304510000,22.2757610000 114.2305390000,22.2757280000 114.2306330000,22.2756830000 114.2307100000,22.2756380000 114.2308090000,22.2755580000 114.2308600000,22.2754880000 114.2308760000,22.2754510000 114.2308950000,22.2753940000 114.2310180000,22.2748910000 114.2310850000,22.2746350000 114.2311680000,22.2744030000 114.2312060000,22.2743250000 114.2312750000,22.2741770000 114.2313640000,22.2740490000 114.2314730000,22.2739210000 114.2315910000,22.2738040000 114.2316910000,22.2737180000 114.2320620000,22.2734430000 114.2322060000,22.2733440000 114.2324500000,22.2731390000 114.2326330000,22.2728930000 114.2327450000,22.2726680000 114.2328330000,22.2724410000 114.2328850000,22.2723020000 114.2330400000,22.2718430000 114.2332450000,22.2713120000 114.2332900000,22.2712090000 114.2333400000,22.2711180000 114.2334140000,22.2709930000 114.2335080000,22.2708500000 114.2335710000,22.2707420000 114.2336030000,22.2706530000 114.2336500000,22.2705100000 114.2337420000,22.2701190000 114.2337700000,22.2699600000 114.2337800000,22.2697200000 114.2337500000,22.2694400000 114.2336720000,22.2689980000 114.2336600000,22.2688700000 114.2335740000,22.2683000000 114.2335740000,22.2681500000 114.2335840000,22.2679500000 114.2335900000,22.2678530000 114.2336130000,22.2675010000 114.2336250000,22.2673250000 114.2337650000,22.2655900000 114.2337910000,22.2653900000 114.2338300000,22.2652500000 114.2338890000,22.2651100000 114.2339720000,22.2649900000 114.2340900000,22.2648700000 114.2343200000,22.2646800000 114.2346580000,22.2644090000 114.2347670000,22.2643220000 114.2348220000,22.2642770000 114.2349620000,22.2641650000 114.2350800000,22.2640700000 114.2350900000,22.2640630000 114.2354440000,22.2637920000 114.2355110000,22.2637400000 114.2355890000,22.2636900000 114.2356730000,22.2636420000 114.2357680000,22.2635970000 114.2358800000,22.2635540000 114.2359700000,22.2635270000 114.2360400000,22.2635080000 114.2361200000,22.2634900000 114.2362000000,22.2634750000 114.2363100000,22.2634620000 114.2365200000,22.2634500000 114.2367700000,22.2634400000 114.2368600000,22.2634380000 114.2369700000,22.2634500000 114.2370710000,22.2634810000 114.2371700000,22.2635300000 114.2373260000,22.2636430000 114.2374520000,22.2637080000 114.2375500000,22.2637220000 114.2376200000,22.2637200000 114.2377100000,22.2637000000 114.2378100000,22.2636450000 114.2378790000,22.2635620000 114.2379450000,22.2634960000 114.2380110000,22.2634450000 114.2380880000,22.2633910000 114.2381770000,22.2633440000 114.2382620000,22.2633210000 114.2383690000,22.2632960000 114.2384890000,22.2632920000 114.2387770000,22.2632930000 114.2389500000,22.2633140000 114.2390810000,22.2633400000 114.2392660000,22.2634100000 114.2394930000,22.2635230000 114.2396100000,22.2636030000 114.2397310000,22.2636870000 114.2402610000,22.2640680000 114.2407350000,22.2643970000 114.2423950000,22.2656580000 114.2430770000,22.2661400000 114.2432580000,22.2662660000 114.2433210000,22.2661860000 114.2434650000,22.2660400000 114.2435860000,22.2659580000 114.2437200000,22.2658920000 114.2439200000,22.2658210000 114.2441220000,22.2657760000 114.2443480000,22.2657740000 114.2445610000,22.2657990000 114.2447530000,22.2658340000 114.2450700000,22.2658900000 114.2452800000,22.2659200000 114.2454700000,22.2659400000 114.2457800000,22.2659400000 114.2460000000,22.2659200000 114.2461500000,22.2659000000 114.2463800000,22.2658400000 114.2465380000,22.2657990000 114.2467620000,22.2657210000 114.2468620000,22.2656740000 114.2470080000,22.2655850000 114.2471240000,22.2655150000 114.2472450000,22.2654350000 114.2473700000,22.2653500000 114.2476900000,22.2650800000 114.2478500000,22.2649400000 114.2479320000,22.2648620000 114.2480400000,22.2647600000 114.2481500000,22.2646600000 114.2482530000,22.2645530000 114.2483500000,22.2644500000 114.2484300000,22.2643700000 114.2486030000,22.2641630000 114.2486500000,22.2641000000 114.2491530000,22.2633910000 114.2494800000,22.2629300000 114.2495400000,22.2628500000 114.2496600000,22.2627300000 114.2497300000,22.2626700000 114.2498560000,22.2625810000 114.2500190000,22.2625080000 114.2500800000,22.2624880000 114.2501600000,22.2624700000 114.2502400000,22.2624600000 114.2503400000,22.2624560000 114.2505300000,22.2624800000 114.2506600000,22.2625200000 114.2509080000,22.2626240000 114.2509970000,22.2626800000 114.2511400000,22.2627700000 114.2512340000,22.2628440000 114.2514200000,22.2629900000 114.2516000000,22.2631600000 114.2517500000,22.2633350000 114.2518700000,22.2635100000 114.2519340000,22.2636440000 114.2519600000,22.2637300000 114.2519850000,22.2638900000 114.2519800000,22.2640600000 114.2519500000,22.2642000000 114.2519000000,22.2643200000 114.2517150000,22.2645870000 114.2515560000,22.2647650000 114.2514830000,22.2648440000 114.2512840000,22.2650540000 114.2511400000,22.2651840000 114.2509800000,22.2653300000 114.2506500000,22.2655700000 114.2504010000,22.2657440000 114.2503300000,22.2657950000 114.2503810000,22.2658590000 114.2504360000,22.2659340000 114.2504760000,22.2660380000 114.2505570000,22.2661250000 114.2506200000,22.2661910000 114.2506540000,22.2662280000 114.2509350000,22.2660010000 114.2511210000,22.2658510000 114.2510840000,22.2658100000 114.2510500000,22.2657730000 114.2510190000,22.2657410000 114.2509660000,22.2656830000 114.2509580000,22.2656750000 114.2509490000,22.2656700000 114.2509390000,22.2656680000 114.2509290000,22.2656670000 114.2509070000,22.2656690000 114.2508970000,22.2656710000 114.2508810000,22.2656790000 114.2508690000,22.2656860000 114.2508560000,22.2656950000 114.2508440000,22.2657050000 114.2508270000,22.2657230000 114.2508090000,22.2657420000 114.2507930000,22.2657630000 114.2507820000,22.2657850000 114.2507770000,22.2657990000 114.2507740000,22.2658140000 114.2507660000,22.2658440000 114.2507600000,22.2658590000 114.2507510000,22.2658770000 114.2507420000,22.2658910000 114.2507300000,22.2659060000 114.2507170000,22.2659170000 114.2507010000,22.2659260000 114.2506850000,22.2659340000 114.2506690000,22.2659390000 114.2506510000,22.2659430000 114.2506330000,22.2659450000 114.2506160000,22.2659450000 114.2506000000,22.2659430000 114.2505790000,22.2659320000 114.2505620000,22.2659190000 114.2505450000,22.2659040000 114.2505300000,22.2658900000 114.2504630000,22.2658080000 114.2507000000,22.2656300000 114.2510300000,22.2653900000 114.2510440000,22.2653780000 114.2513580000,22.2651160000 114.2515740000,22.2649070000 114.2516450000,22.2648310000 114.2517300000,22.2647510000 114.2518020000,22.2646640000 114.2520000000,22.2643500000 114.2520700000,22.2641700000 114.2520900000,22.2640600000 114.2520920000,22.2639300000 114.2520680000,22.2637600000 114.2520270000,22.2636050000 114.2519700000,22.2634800000 114.2518700000,22.2633400000 114.2517600000,22.2632000000 114.2516780000,22.2631020000 114.2515310000,22.2629600000 114.2514900000,22.2629200000 114.2513000000,22.2627600000 114.2511230000,22.2626400000 114.2510290000,22.2625820000 114.2509600000,22.2625400000 114.2509040000,22.2625130000 114.2507700000,22.2624500000 114.2506550000,22.2624100000 114.2505400000,22.2623800000 114.2504200000,22.2623630000 114.2503000000,22.2623600000 114.2501700000,22.2623700000 114.2500400000,22.2624000000 114.2500000000,22.2624140000 114.2499000000,22.2624500000 114.2497770000,22.2625070000 114.2496800000,22.2625700000 114.2495930000,22.2626520000 114.2495390000,22.2627160000 114.2494670000,22.2628010000 114.2494120000,22.2628820000 114.2490640000,22.2633920000 114.2488630000,22.2636760000 114.2485850000,22.2640460000 114.2485340000,22.2641040000 114.2482300000,22.2644500000 114.2481500000,22.2645390000 114.2479950000,22.2646900000 114.2478000000,22.2648700000 114.2472900000,22.2652900000 114.2471900000,22.2653600000 114.2469460000,22.2654880000 114.2468110000,22.2655690000 114.2467090000,22.2656150000 114.2465200000,22.2656900000 114.2463500000,22.2657400000 114.2462000000,22.2657810000 114.2460500000,22.2658200000 114.2457600000,22.2658400000 114.2456300000,22.2658450000 114.2453500000,22.2658300000 114.2450700000,22.2657900000 114.2449660000,22.2657710000 114.2447800000,22.2657380000 114.2445710000,22.2656960000 114.2441600000,22.2656550000 114.2441030000,22.2656560000 114.2440380000,22.2656630000 114.2432950000,22.2657930000 114.2430970000,22.2657930000 114.2428730000,22.2657670000 114.2426580000,22.2657150000 114.2417790000,22.2650770000 114.2414720000,22.2648500000 114.2407910000,22.2643320000 114.2403270000,22.2639900000 114.2399110000,22.2636740000 114.2398630000,22.2636390000 114.2396900000,22.2635130000 114.2396810000,22.2635070000 114.2395690000,22.2634320000 114.2393160000,22.2633140000 114.2391060000,22.2632370000 114.2391060000,22.2632370000 114.2389590000,22.2632160000 114.2387530000,22.2632080000 114.2384680000,22.2632120000 114.2382660000,22.2632180000 114.2381350000,22.2632220000 114.2379970000,22.2632160000 114.2378270000,22.2631850000 114.2376000000,22.2630500000 114.2375100000,22.2630400000 114.2374200000,22.2630400000 114.2373400000,22.2630500000 114.2372620000,22.2630710000 114.2372080000,22.2631000000 114.2371500000,22.2631500000 114.2371070000,22.2632200000 114.2370400000,22.2632600000 114.2369600000,22.2632900000 114.2368600000,22.2633100000 114.2362500000,22.2633490000 114.2361300000,22.2633630000 114.2360080000,22.2633880000 114.2359000000,22.2634200000 114.2357900000,22.2634600000 114.2357000000,22.2634980000 114.2356130000,22.2635390000 114.2355210000,22.2635900000 114.2354480000,22.2636370000 114.2353480000,22.2637080000 114.2350070000,22.2639710000 114.2348820000,22.2640680000 114.2346700000,22.2642320000 114.2342250000,22.2645750000 114.2340500000,22.2647300000 114.2338800000,22.2649000000 114.2337970000,22.2650270000 114.2337200000,22.2651800000 114.2336820000,22.2652800000 114.2336600000,22.2653700000 114.2336380000,22.2655800000 114.2334800000,22.2676540000 114.2334650000,22.2678440000 114.2334570000,22.2680020000 114.2334500000,22.2681500000 114.2334500000,22.2683000000 114.2335300000,22.2688900000 114.2335500000,22.2690200000 114.2336100000,22.2694600000 114.2336500000,22.2699300000 114.2336350000,22.2700560000 114.2336290000,22.2701110000 114.2335400000,22.2704700000 114.2335000000,22.2706100000 114.2334670000,22.2707050000 114.2334140000,22.2708060000 114.2333120000,22.2709560000 114.2332380000,22.2710840000 114.2332020000,22.2711530000 114.2331440000,22.2712760000 114.2329440000,22.2718200000 114.2327860000,22.2722650000 114.2327280000,22.2724120000 114.2326410000,22.2726370000 114.2325410000,22.2728520000 114.2323310000,22.2730990000 114.2322800000,22.2731420000 114.2322180000,22.2731940000 114.2321620000,22.2732320000 114.2319980000,22.2733580000 114.2316410000,22.2736120000 114.2314380000,22.2737820000 114.2313150000,22.2739040000 114.2312060000,22.2740490000 114.2311450000,22.2741530000 114.2311190000,22.2741980000 114.2310440000,22.2743600000 114.2309610000,22.2745890000 114.2309180000,22.2747290000 114.2308900000,22.2748400000 114.2308300000,22.2750840000 114.2307350000,22.2753930000 114.2307000000,22.2754540000 114.2306370000,22.2755390000 114.2305750000,22.2755930000 114.2304980000,22.2756410000 114.2304190000,22.2756700000 114.2303270000,22.2756930000 114.2301860000,22.2757220000 114.2300870000,22.2757470000 114.2299330000,22.2757980000 114.2297940000,22.2758640000 114.2296620000,22.2759370000 114.2295030000,22.2760640000 114.2294850000,22.2760770000 114.2293730000,22.2761690000 114.2292390000,22.2762560000 114.2288040000,22.2764840000 114.2284580000,22.2766580000 114.2283860000,22.2767030000 114.2283220000,22.2767500000 114.2282210000,22.2768560000 114.2281710000,22.2769360000 114.2281400000,22.2770120000 114.2281250000,22.2771000000 114.2281210000,22.2771670000 114.2281250000,22.2772290000 114.2281470000,22.2773760000 114.2281920000,22.2775960000 114.2282010000,22.2777090000 114.2281880000,22.2778090000 114.2281650000,22.2778960000 114.2281260000,22.2779970000 114.2277030000,22.2787940000 114.2275480000,22.2789710000 114.2272410000,22.2792020000 114.2269900000,22.2794380000 114.2268030000,22.2796150000 114.2265720000,22.2798450000 114.2263940000,22.2800430000 114.2261900000,22.2802580000 114.2260020000,22.2804210000 114.2257350000,22.2806190000 114.2255450000,22.2807470000 114.2251880000,22.2809320000 114.2246470000,22.2811710000 114.2242770000,22.2813510000 114.2239950000,22.2815130000 114.2237780000,22.2816570000 114.2235840000,22.2818260000 114.2233580000,22.2820850000 114.2222830000,22.2834070000 114.2218840000,22.2838670000 114.2216390000,22.2842430000 114.2215480000,22.2844190000 114.2214810000,22.2845900000 114.2214190000,22.2847590000 114.2213950000,22.2848930000 114.2213720000,22.2850060000 114.2213560000,22.2852290000 114.2213700000,22.2855360000 114.2213670000,22.2856240000 114.2213670000,22.2857330000 114.2213670000,22.2858790000 114.2213770000,22.2861640000 114.2213830000,22.2865040000 114.2213800000,22.2867150000 114.2213680000,22.2869820000 114.2213220000,22.2871970000 114.2212480000,22.2874290000 114.2211840000,22.2875360000 114.2211090000,22.2876640000 114.2210020000,22.2877990000 114.2208470000,22.2879460000 114.2206800000,22.2880740000 114.2205610000,22.2881500000 114.2201860000,22.2882970000 114.2192040000,22.2885140000 114.2183930000,22.2886590000 114.2178650000,22.2887540000 114.2175780000,22.2887990000 114.2171230000,22.2888780000 114.2163450000,22.2890210000 114.2160060000,22.2890940000 114.2157280000,22.2891530000 114.2154590000,22.2892130000 114.2149660000,22.2893430000 114.2147540000,22.2894150000 114.2142840000,22.2895810000 114.2137740000,22.2897990000 114.2132930000,22.2900340000 114.2130020000,22.2901740000 114.2112110000,22.2912520000 114.2110520000,22.2913550000 114.2102020000,22.2919430000 114.2096630000,22.2923130000 114.2094140000,22.2924730000 114.2091510000,22.2926110000 114.2088090000,22.2927710000 114.2086260000,22.2928390000 114.2066660000,22.2934180000 114.2048450000,22.2939720000 114.2044740000,22.2940720000 114.2040710000,22.2941290000 114.2036420000,22.2941610000 114.2031550000,22.2941450000 114.2025710000,22.2940510000 114.2021610000,22.2939730000 114.1999680000,22.2935100000 114.1996280000,22.2934690000 114.1992060000,22.2934470000 114.1987250000,22.2934460000 114.1983660000,22.2934260000 114.1979580000,22.2933590000 114.1975110000,22.2932730000 114.1959400000,22.2929700000 114.1956750000,22.2929240000 114.1954150000,22.2928670000 114.1952160000,22.2928310000 114.1950220000,22.2927680000 114.1948140000,22.2926860000 114.1946450000,22.2926110000 114.1944520000,22.2925320000 114.1942080000,22.2923860000 114.1937870000,22.2920820000 114.1932690000,22.2916340000 114.1925710000,22.2910210000 114.1916280000,22.2900800000 114.1908310000,22.2892850000 114.1896270000,22.2880510000 114.1890070000,22.2874240000 114.1887100000,22.2871190000 114.1880630000,22.2864400000 114.1876290000,22.2860260000 114.1875550000,22.2859550000 114.1871420000,22.2855720000 114.1866620000,22.2851510000 114.1862310000,22.2848250000 114.1857820000,22.2845010000 114.1853990000,22.2842880000 114.1849510000,22.2840740000 114.1845390000,22.2839000000 114.1831910000,22.2834360000 114.1826270000,22.2832920000 114.1823140000,22.2832240000 114.1819090000,22.2831690000 114.1810050000,22.2830450000 114.1754920000,22.2822970000 114.1750470000,22.2822520000 114.1746750000,22.2822160000 114.1739920000,22.2821710000 114.1717570000,22.2820450000 114.1714910000,22.2820020000 114.1714100000,22.2819910000 114.1702700000,22.2820430000 114.1701430000,22.2819890000 114.1700770000,22.2819410000 114.1700270000,22.2818740000 114.1699830000,22.2818090000 114.1699680000,22.2817790000 114.1699520000,22.2817460000 114.1699280000,22.2816380000 114.1699260000,22.2815370000 114.1699410000,22.2814100000 114.1699980000,22.2808680000 114.1700890000,22.2808750000 114.1701930000,22.2808700000 114.1702820000,22.2808550000 114.1703610000,22.2808270000 114.1705800000,22.2807340000 114.1709000000,22.2806100000 114.1709800000,22.2805900000 114.1711100000,22.2805500000 114.1712000000,22.2805300000 114.1713000000,22.2805180000 114.1716600000,22.2805000000 114.1717960000,22.2805030000 114.1719400000,22.2805070000 114.1720320000,22.2805100000 114.1723800000,22.2805300000 114.1726530000,22.2805520000 114.1727680000,22.2805620000 114.1733740000,22.2806080000 114.1737170000,22.2806340000 114.1739500000,22.2806520000 114.1741080000,22.2806630000 114.1741940000,22.2806700000 114.1743170000,22.2806790000 114.1742980000,22.2808020000 114.1742710000,22.2811470000 114.1742840000,22.2811870000 114.1743070000,22.2812310000 114.1743600000,22.2813140000 114.1745700000,22.2815400000 114.1746120000,22.2816200000 114.1746400000,22.2817200000 114.1746540000,22.2819380000 114.1746400000,22.2821100000 114.1746200000,22.2821800000 114.1745600000,22.2822900000 114.1744300000,22.2824100000 114.1743720000,22.2824650000 114.1743100000,22.2825400000 114.1741750000,22.2827350000 114.1741400000,22.2827880000 114.1741180000,22.2828500000 114.1741110000,22.2829880000 114.1741030000,22.2831470000 114.1740900000,22.2833480000 114.1740710000,22.2836590000 114.1740570000,22.2836640000 114.1740390000,22.2836780000 114.1740330000,22.2836870000 114.1740260000,22.2836970000 114.1740200000,22.2837190000 114.1740220000,22.2837410000 114.1740310000,22.2837620000 114.1740380000,22.2837690000 114.1740460000,22.2837790000 114.1740670000,22.2837900000 114.1740420000,22.2841380000 114.1740250000,22.2842210000 114.1740140000,22.2842630000 114.1739910000,22.2843120000 114.1739910000,22.2843510000 114.1740070000,22.2843790000 114.1740310000,22.2843930000 114.1740500000,22.2843930000 114.1740850000,22.2843930000 114.1741170000,22.2843660000 114.1741260000,22.2843220000 114.1741110000,22.2842750000 114.1740980000,22.2842210000 114.1741100000,22.2839690000 114.1741200000,22.2837920000 114.1741360000,22.2837860000 114.1741570000,22.2837700000 114.1741700000,22.2837480000 114.1741740000,22.2837240000 114.1741680000,22.2836990000 114.1741550000,22.2836780000 114.1741340000,22.2836630000 114.1742230000,22.2828600000 114.1742490000,22.2827980000 114.1743100000,22.2827400000 114.1744770000,22.2826440000 114.1746200000,22.2825600000 114.1746510000,22.2825320000 114.1746800000,22.2825000000 114.1747090000,22.2824500000 114.1747390000,22.2823700000 114.1747620000,22.2822800000 114.1747830000,22.2822050000 114.1748000000,22.2820900000 114.1748000000,22.2818640000 114.1747900000,22.2817000000 114.1747750000,22.2816330000 114.1747500000,22.2815700000 114.1746800000,22.2814700000 114.1745780000,22.2813710000 114.1745230000,22.2813140000 114.1744800000,22.2812510000 114.1744600000,22.2811800000 114.1745150000,22.2806930000 114.1745200000,22.2806500000 114.1745240000,22.2804410000 114.1745280000,22.2803620000 114.1745490000,22.2802150000 114.1746210000,22.2796920000 114.1745980000,22.2793850000 114.1746130000,22.2792710000 114.1746490000,22.2790000000 114.1746960000,22.2786220000 114.1747220000,22.2783910000 114.1747270000,22.2783580000 114.1747320000,22.2783270000 114.1747400000,22.2782750000 114.1747530000,22.2781870000 114.1747920000,22.2778850000 114.1747970000,22.2778490000 114.1748140000,22.2777220000 114.1747480000,22.2777160000 114.1742060000,22.2776600000 114.1740320000,22.2776430000 114.1738680000,22.2776250000 114.1733630000,22.2775710000 114.1731760000,22.2775500000 114.1727050000,22.2774970000 114.1726900000,22.2774960000 114.1726090000,22.2774890000 114.1721470000,22.2774340000 114.1717310000,22.2774690000 114.1716670000,22.2774760000 114.1716020000,22.2774820000 114.1711990000,22.2775120000 114.1708780000,22.2775360000 114.1703370000,22.2775770000 114.1700670000,22.2776010000 114.1697600000,22.2776230000 114.1694230000,22.2776460000 114.1692940000,22.2776560000 114.1689470000,22.2776900000 114.1685170000,22.2777230000 114.1679660000,22.2777750000 114.1678770000,22.2777850000 114.1674650000,22.2778260000 114.1673240000,22.2778430000 114.1663690000,22.2779390000 114.1659210000,22.2779930000 114.1658420000,22.2780020000 114.1657880000,22.2780080000 114.1654950000,22.2780460000 114.1654670000,22.2780500000 114.1654250000,22.2780560000 114.1649730000,22.2781170000 114.1646860000,22.2781740000 114.1644950000,22.2782280000 114.1643070000,22.2782990000 114.1640380000,22.2784180000 114.1637310000,22.2785700000 114.1635030000,22.2787030000 114.1634530000,22.2787390000 114.1629360000,22.2791040000 114.1627880000,22.2791980000 114.1627250000,22.2792410000 114.1626100000,22.2793160000 114.1625700000,22.2793420000 114.1624630000,22.2793960000 114.1624150000,22.2794190000 114.1622890000,22.2794780000 114.1620130000,22.2795920000 114.1618520000,22.2796470000 114.1615670000,22.2797490000 114.1615240000,22.2797580000 114.1613930000,22.2797870000 114.1613130000,22.2798000000 114.1610710000,22.2798410000 114.1608870000,22.2798740000 114.1607940000,22.2799100000 114.1607310000,22.2799330000 114.1606210000,22.2799560000 114.1604820000,22.2799670000 114.1603650000,22.2799660000 114.1602120000,22.2799520000 114.1598660000,22.2799050000 114.1597630000,22.2798900000 114.1596450000,22.2798730000 114.1595200000,22.2798580000 114.1594570000,22.2798600000 114.1593770000,22.2798690000 114.1592960000,22.2798860000 114.1591330000,22.2799230000 114.1582220000,22.2801520000 114.1581400000,22.2801730000 114.1580420000,22.2802080000 114.1579420000,22.2802500000 114.1578840000,22.2802860000 114.1578160000,22.2803390000 114.1577610000,22.2803840000 114.1575890000,22.2805640000 114.1572560000,22.2809390000 114.1568770000,22.2813870000 114.1567690000,22.2815040000 114.1565180000,22.2817800000 114.1564890000,22.2818170000 114.1564730000,22.2818380000 114.1561600000,22.2822320000 114.1560470000,22.2823640000 114.1559330000,22.2825010000 114.1557920000,22.2826820000 114.1554980000,22.2830780000 114.1553400000,22.2832680000 114.1551300000,22.2835100000 114.1549400000,22.2836500000 114.1548960000,22.2836820000 114.1547330000,22.2838040000 114.1546650000,22.2838550000 114.1545130000,22.2839720000 114.1541970000,22.2841820000 114.1540630000,22.2842790000 114.1540250000,22.2843050000 114.1538510000,22.2844390000 114.1536380000,22.2846230000 114.1533510000,22.2848580000 114.1530930000,22.2850640000 114.1528410000,22.2852620000 114.1528190000,22.2852710000 114.1526290000,22.2853880000 114.1523930000,22.2855070000 114.1522760000,22.2855830000 114.1521270000,22.2856720000 114.1518950000,22.2857550000 114.1518150000,22.2857760000 114.1511260000,22.2859630000 114.1508220000,22.2860520000 114.1506650000,22.2861120000 114.1505030000,22.2861930000 114.1502810000,22.2863050000 114.1504000000,22.2865200000 114.1504800000,22.2869050000 114.1504940000,22.2869860000 114.1504820000,22.2870600000 114.1506100000,22.2874900000 114.1506320000,22.2875640000 114.1506280000,22.2876460000 114.1506270000,22.2876970000 114.1496140000,22.2879640000 114.1495080000,22.2880230000 114.1494590000,22.2880700000 114.1494660000,22.2881150000 114.1495640000,22.2884650000 114.1496770000,22.2888660000 114.1501900000,22.2887350000 114.1502580000,22.2887040000 114.1503010000,22.2886650000 114.1503280000,22.2886320000</coordinates>
                </LineString>
                <ExtendedData>
                    <Data name="length">
                        <value>32220.29514655442</value>
                    </Data>
                    <Data name="duration">
                        <value>01:27:45</value>
                    </Data>
                </ExtendedData>
            </Placemark>
        </Document>
    </Document>
</kml>