<?xml version="1.0" encoding="UTF-8"?>
<kml xmlns="http://www.opengis.net/kml/2.2" xmlns:gx="http://www.google.com/kml/ext/2.2">
    <Document>
        <name>Route</name>
        <Folder>
            <name>Route Request</name>
            <Placemark>
                <Point>
                    <coordinates>114.1500734299,22.2884737370</coordinates>
                </Point>
                <ExtendedData>
                    <Data name="routingVisited">
                        <value>false</value>
                    </Data>
                </ExtendedData>
            </Placemark>
            <Placemark>
                <Point>
                    <coordinates>114.1576092968,22.2823397296</coordinates>
                </Point>
            </Placemark>
            <Placemark>
                <Point>
                    <coordinates>114.1762546559,22.2820532890</coordinates>
                </Point>
            </Placemark>
            <Placemark>
                <Point>
                    <coordinates>114.1799265355,22.2824521252</coordinates>
                </Point>
            </Placemark>
            <Placemark>
                <Point>
                    <coordinates>114.2288408964,22.2765769147</coordinates>
                </Point>
            </Placemark>
            <Placemark>
                <Point>
                    <coordinates>114.2427684835,22.2663314348</coordinates>
                </Point>
            </Placemark>
            <Placemark>
                <Point>
                    <coordinates>114.2405529729,22.2777806132</coordinates>
                </Point>
            </Placemark>
            <Placemark>
                <Point>
                    <coordinates>114.2431079718,22.2659694360</coordinates>
                </Point>
            </Placemark>
            <Placemark>
                <Point>
                    <coordinates>114.2274679103,22.2789947561</coordinates>
                </Point>
            </Placemark>
            <Placemark>
                <Point>
                    <coordinates>114.1750106395,22.2776846316</coordinates>
                </Point>
            </Placemark>
            <Placemark>
                <Point>
                    <coordinates>114.1506702544,22.2861366123</coordinates>
                </Point>
            </Placemark>
            <Placemark>
                <Point>
                    <coordinates>114.1479178090,22.2898532318</coordinates>
                </Point>
            </Placemark>
            <Placemark>
                <Point>
                    <coordinates>114.1500660186,22.2884669110</coordinates>
                </Point>
                <ExtendedData>
                    <Data name="routingVisited">
                        <value>false</value>
                    </Data>
                </ExtendedData>
            </Placemark>
        </Folder>
        <Document>
            <name>31.0 km; 00:43 h (OSRM)</name>
            <Placemark>
                <name>Route</name>
                <LineString>
                    <coordinates>114.1503420000,22.2886490000 114.1503700000,22.2886120000 114.1504490000,22.2885150000 114.1505190000,22.2884430000 114.1505750000,22.2883810000 114.1506440000,22.2883400000 114.1507680000,22.2882990000 114.1510240000,22.2882370000 114.1510620000,22.2882280000 114.1521560000,22.2879600000 114.1520460000,22.2876350000 114.1520300000,22.2875900000 114.1520190000,22.2875570000 114.1520070000,22.2875240000 114.1519760000,22.2874370000 114.1522870000,22.2873490000 114.1523630000,22.2873270000 114.1532200000,22.2870900000 114.1533330000,22.2870650000 114.1534050000,22.2870010000 114.1534330000,22.2869540000 114.1534400000,22.2868150000 114.1534140000,22.2867260000 114.1534100000,22.2867100000 114.1533970000,22.2866670000 114.1533460000,22.2864880000 114.1533370000,22.2864570000 114.1533300000,22.2864320000 114.1533190000,22.2863950000 114.1533070000,22.2863470000 114.1532920000,22.2862760000 114.1533880000,22.2862270000 114.1534120000,22.2862140000 114.1534300000,22.2862030000 114.1536040000,22.2861120000 114.1537690000,22.2860190000 114.1540720000,22.2858480000 114.1542960000,22.2857230000 114.1547170000,22.2854780000 114.1548190000,22.2854160000 114.1551070000,22.2852450000 114.1552710000,22.2851460000 114.1553440000,22.2850950000 114.1554140000,22.2850390000 114.1554490000,22.2850040000 114.1557010000,22.2846970000 114.1557210000,22.2846710000 114.1557800000,22.2846000000 114.1558320000,22.2845360000 114.1558520000,22.2845130000 114.1558890000,22.2844680000 114.1559300000,22.2844190000 114.1559920000,22.2843430000 114.1560220000,22.2843060000 114.1560450000,22.2842770000 114.1561130000,22.2841940000 114.1561510000,22.2841470000 114.1562840000,22.2839810000 114.1564810000,22.2837360000 114.1565030000,22.2837100000 114.1565300000,22.2836750000 114.1565550000,22.2836430000 114.1565820000,22.2836080000 114.1567600000,22.2833830000 114.1568590000,22.2832570000 114.1570290000,22.2830420000 114.1571430000,22.2828960000 114.1574510000,22.2825030000 114.1574890000,22.2824530000 114.1575660000,22.2823580000 114.1575910000,22.2823270000 114.1576590000,22.2822430000 114.1576780000,22.2822190000 114.1576940000,22.2822000000 114.1578280000,22.2820330000 114.1579440000,22.2819950000 114.1580810000,22.2819560000 114.1581520000,22.2819350000 114.1583830000,22.2818690000 114.1584100000,22.2818610000 114.1584940000,22.2818370000 114.1585230000,22.2818290000 114.1585450000,22.2818220000 114.1586800000,22.2817840000 114.1588020000,22.2817490000 114.1588690000,22.2817320000 114.1588900000,22.2817260000 114.1589800000,22.2817010000 114.1590740000,22.2816910000 114.1591530000,22.2816700000 114.1595070000,22.2815690000 114.1595440000,22.2815590000 114.1595940000,22.2815460000 114.1596500000,22.2815310000 114.1597490000,22.2815060000 114.1598080000,22.2815050000 114.1599740000,22.2814610000 114.1601270000,22.2814200000 114.1602600000,22.2813880000 114.1602980000,22.2813790000 114.1603590000,22.2813630000 114.1604530000,22.2813530000 114.1605890000,22.2813180000 114.1606310000,22.2813040000 114.1606770000,22.2812900000 114.1607050000,22.2812830000 114.1607420000,22.2812730000 114.1607960000,22.2812350000 114.1608520000,22.2812180000 114.1609520000,22.2811900000 114.1612150000,22.2811180000 114.1613660000,22.2810790000 114.1615750000,22.2810230000 114.1619060000,22.2809410000 114.1619460000,22.2809280000 114.1620010000,22.2808790000 114.1620420000,22.2807810000 114.1617730000,22.2800710000 114.1617540000,22.2799960000 114.1617510000,22.2799460000 114.1617670000,22.2798980000 114.1618210000,22.2798220000 114.1619180000,22.2797670000 114.1622910000,22.2796350000 114.1625660000,22.2795200000 114.1627940000,22.2794240000 114.1630800000,22.2792270000 114.1632720000,22.2790910000 114.1634860000,22.2789320000 114.1636320000,22.2788350000 114.1637480000,22.2787750000 114.1637880000,22.2787560000 114.1639140000,22.2786900000 114.1640790000,22.2786140000 114.1641980000,22.2785630000 114.1643650000,22.2784940000 114.1644550000,22.2784640000 114.1646060000,22.2784170000 114.1647480000,22.2783810000 114.1650100000,22.2783170000 114.1650660000,22.2783010000 114.1651810000,22.2782750000 114.1654120000,22.2782340000 114.1656290000,22.2782060000 114.1659150000,22.2781710000 114.1663180000,22.2781070000 114.1669630000,22.2780500000 114.1671340000,22.2780250000 114.1672900000,22.2779990000 114.1676740000,22.2779630000 114.1679990000,22.2779280000 114.1684570000,22.2778830000 114.1685490000,22.2781290000 114.1686000000,22.2782660000 114.1686130000,22.2782980000 114.1686310000,22.2783420000 114.1686660000,22.2784240000 114.1686720000,22.2784380000 114.1686840000,22.2784640000 114.1687300000,22.2785630000 114.1689260000,22.2789820000 114.1689850000,22.2791010000 114.1690780000,22.2792430000 114.1691690000,22.2793310000 114.1692590000,22.2793900000 114.1693580000,22.2794290000 114.1694220000,22.2794420000 114.1695020000,22.2794510000 114.1695860000,22.2794530000 114.1696890000,22.2794480000 114.1698770000,22.2794360000 114.1708590000,22.2793630000 114.1712560000,22.2793570000 114.1713150000,22.2793710000 114.1718200000,22.2793200000 114.1720500000,22.2793150000 114.1722800000,22.2793200000 114.1726800000,22.2793560000 114.1728720000,22.2793730000 114.1732280000,22.2794040000 114.1733400000,22.2794140000 114.1739900000,22.2794740000 114.1740500000,22.2795300000 114.1741870000,22.2795800000 114.1742450000,22.2796180000 114.1743100000,22.2797000000 114.1743390000,22.2797600000 114.1743590000,22.2798250000 114.1742850000,22.2805210000 114.1743150000,22.2805600000 114.1743030000,22.2806790000 114.1742920000,22.2808160000 114.1742850000,22.2809080000 114.1742710000,22.2811470000 114.1742680000,22.2811900000 114.1742650000,22.2812450000 114.1742640000,22.2812750000 114.1742640000,22.2812880000 114.1742630000,22.2813070000 114.1742620000,22.2813310000 114.1742620000,22.2813390000 114.1742550000,22.2814440000 114.1742640000,22.2816770000 114.1742640000,22.2817500000 114.1742740000,22.2817880000 114.1742690000,22.2818540000 114.1742990000,22.2819230000 114.1742960000,22.2819650000 114.1742940000,22.2821020000 114.1743340000,22.2822180000 114.1747630000,22.2821290000 114.1750100000,22.2820770000 114.1750950000,22.2820600000 114.1752220000,22.2820350000 114.1752810000,22.2820320000 114.1754110000,22.2820230000 114.1755440000,22.2820190000 114.1756040000,22.2820190000 114.1756580000,22.2820220000 114.1757580000,22.2820270000 114.1758800000,22.2820320000 114.1759880000,22.2820350000 114.1760730000,22.2820390000 114.1761580000,22.2820430000 114.1762550000,22.2820490000 114.1764160000,22.2820580000 114.1765840000,22.2820720000 114.1766680000,22.2820770000 114.1767780000,22.2820910000 114.1768310000,22.2820960000 114.1768880000,22.2821020000 114.1770240000,22.2821250000 114.1771900000,22.2821540000 114.1773220000,22.2821910000 114.1774560000,22.2822310000 114.1775820000,22.2822670000 114.1777960000,22.2823350000 114.1780280000,22.2824140000 114.1781040000,22.2824390000 114.1782490000,22.2824870000 114.1783790000,22.2825000000 114.1785730000,22.2825640000 114.1786680000,22.2825880000 114.1787080000,22.2826020000 114.1787610000,22.2826170000 114.1788430000,22.2826420000 114.1790770000,22.2826900000 114.1791990000,22.2827140000 114.1794900000,22.2828140000 114.1795740000,22.2828280000 114.1796360000,22.2828200000 114.1796900000,22.2828020000 114.1797350000,22.2827750000 114.1797720000,22.2827400000 114.1797920000,22.2827090000 114.1799030000,22.2824430000 114.1799420000,22.2823500000 114.1799700000,22.2823080000 114.1800240000,22.2822600000 114.1800900000,22.2822250000 114.1801600000,22.2822100000 114.1802200000,22.2822100000 114.1807340000,22.2822630000 114.1809680000,22.2822650000 114.1811850000,22.2822270000 114.1817450000,22.2819910000 114.1820100000,22.2818840000 114.1821610000,22.2818560000 114.1823250000,22.2818750000 114.1825120000,22.2819370000 114.1828270000,22.2820440000 114.1835090000,22.2822820000 114.1838660000,22.2824360000 114.1840860000,22.2825590000 114.1842650000,22.2826710000 114.1844720000,22.2828070000 114.1847290000,22.2830540000 114.1849700000,22.2832450000 114.1852740000,22.2834880000 114.1855820000,22.2837280000 114.1856950000,22.2837910000 114.1857960000,22.2838410000 114.1859320000,22.2838970000 114.1860540000,22.2839410000 114.1861730000,22.2839750000 114.1862920000,22.2840060000 114.1864260000,22.2840350000 114.1864880000,22.2840470000 114.1866930000,22.2840500000 114.1867740000,22.2840660000 114.1869520000,22.2841070000 114.1871040000,22.2841440000 114.1876100000,22.2842750000 114.1877200000,22.2843050000 114.1878380000,22.2843420000 114.1879700000,22.2843900000 114.1880900000,22.2844370000 114.1882040000,22.2844860000 114.1883100000,22.2845400000 114.1884130000,22.2845970000 114.1885300000,22.2846700000 114.1886410000,22.2847590000 114.1887500000,22.2848600000 114.1888430000,22.2849570000 114.1889280000,22.2850720000 114.1889930000,22.2851900000 114.1890600000,22.2853300000 114.1891100000,22.2854500000 114.1891430000,22.2855700000 114.1891600000,22.2856300000 114.1891820000,22.2857480000 114.1891900000,22.2857900000 114.1892030000,22.2858920000 114.1892190000,22.2860100000 114.1892210000,22.2860480000 114.1892300000,22.2862100000 114.1892330000,22.2862990000 114.1892400000,22.2864700000 114.1892570000,22.2866700000 114.1892650000,22.2867350000 114.1892680000,22.2867570000 114.1892870000,22.2869000000 114.1893020000,22.2869630000 114.1893160000,22.2870220000 114.1893380000,22.2871190000 114.1893980000,22.2872690000 114.1894660000,22.2874000000 114.1895240000,22.2875130000 114.1895620000,22.2875990000 114.1896470000,22.2877580000 114.1897630000,22.2879760000 114.1897760000,22.2880060000 114.1898520000,22.2882210000 114.1900860000,22.2886490000 114.1902500000,22.2889500000 114.1903820000,22.2891680000 114.1904500000,22.2892800000 114.1905550000,22.2894300000 114.1905900000,22.2894800000 114.1907500000,22.2896800000 114.1910500000,22.2900000000 114.1913660000,22.2902870000 114.1921570000,22.2909910000 114.1923870000,22.2911680000 114.1924300000,22.2912020000 114.1925570000,22.2913050000 114.1926230000,22.2913590000 114.1926890000,22.2914090000 114.1928130000,22.2914980000 114.1930120000,22.2916410000 114.1930980000,22.2917060000 114.1931220000,22.2917220000 114.1931500000,22.2917410000 114.1931790000,22.2917610000 114.1933530000,22.2918870000 114.1934530000,22.2919710000 114.1935380000,22.2920420000 114.1935600000,22.2920570000 114.1935890000,22.2920770000 114.1936150000,22.2920950000 114.1937360000,22.2921760000 114.1938530000,22.2922540000 114.1939710000,22.2923350000 114.1942000000,22.2924760000 114.1942280000,22.2924930000 114.1943770000,22.2925660000 114.1944880000,22.2926190000 114.1946230000,22.2926870000 114.1946890000,22.2927190000 114.1947490000,22.2927490000 114.1949190000,22.2928180000 114.1950130000,22.2928550000 114.1951890000,22.2929160000 114.1952850000,22.2929480000 114.1954480000,22.2929840000 114.1955700000,22.2930110000 114.1956800000,22.2930340000 114.1958530000,22.2930690000 114.1960960000,22.2931200000 114.1961620000,22.2931270000 114.1963630000,22.2931510000 114.1964880000,22.2931720000 114.1966070000,22.2931980000 114.1967820000,22.2932350000 114.1968600000,22.2932510000 114.1971240000,22.2933140000 114.1974960000,22.2934010000 114.1979200000,22.2934800000 114.1981920000,22.2935260000 114.1983380000,22.2935420000 114.1987100000,22.2935630000 114.1992000000,22.2935690000 114.1995900000,22.2935850000 114.1997700000,22.2936020000 114.1999500000,22.2936270000 114.2001000000,22.2936520000 114.2004940000,22.2937360000 114.2005620000,22.2937500000 114.2020820000,22.2940720000 114.2025270000,22.2941570000 114.2026050000,22.2941710000 114.2028680000,22.2942240000 114.2031620000,22.2942590000 114.2034020000,22.2942690000 114.2035000000,22.2942730000 114.2037270000,22.2942740000 114.2040490000,22.2942660000 114.2044770000,22.2942460000 114.2047360000,22.2942070000 114.2049840000,22.2941880000 114.2050580000,22.2941820000 114.2052070000,22.2941700000 114.2052860000,22.2941600000 114.2054420000,22.2941380000 114.2056340000,22.2941100000 114.2060810000,22.2940220000 114.2063200000,22.2939500000 114.2065000000,22.2938900000 114.2069100000,22.2937200000 114.2072200000,22.2936000000 114.2075100000,22.2934900000 114.2077810000,22.2933920000 114.2082330000,22.2932500000 114.2085090000,22.2931560000 114.2087820000,22.2930640000 114.2089400000,22.2930070000 114.2090780000,22.2929240000 114.2092580000,22.2928120000 114.2094910000,22.2926640000 114.2097870000,22.2924670000 114.2103300000,22.2920690000 114.2107360000,22.2917730000 114.2110800000,22.2915210000 114.2112770000,22.2913910000 114.2114890000,22.2912520000 114.2115750000,22.2911980000 114.2117400000,22.2910950000 114.2120130000,22.2909330000 114.2121350000,22.2908620000 114.2122140000,22.2908150000 114.2122920000,22.2907670000 114.2124160000,22.2906960000 114.2125630000,22.2906120000 114.2128380000,22.2904560000 114.2130110000,22.2903960000 114.2131490000,22.2903480000 114.2132210000,22.2903240000 114.2132900000,22.2903010000 114.2133910000,22.2902620000 114.2136010000,22.2901930000 114.2137590000,22.2901410000 114.2141980000,22.2900120000 114.2152010000,22.2897580000 114.2159290000,22.2895610000 114.2159970000,22.2895460000 114.2162200000,22.2894900000 114.2167600000,22.2893500000 114.2170400000,22.2892800000 114.2175060000,22.2891330000 114.2178020000,22.2890620000 114.2183750000,22.2889240000 114.2189240000,22.2887810000 114.2192930000,22.2886890000 114.2194420000,22.2886620000 114.2200670000,22.2885650000 114.2202670000,22.2885150000 114.2204040000,22.2884820000 114.2205860000,22.2884460000 114.2208830000,22.2883140000 114.2210910000,22.2881720000 114.2212230000,22.2880490000 114.2213700000,22.2878980000 114.2215140000,22.2877040000 114.2216670000,22.2874450000 114.2217740000,22.2871600000 114.2218140000,22.2869840000 114.2218440000,22.2868040000 114.2218520000,22.2866160000 114.2218500000,22.2863740000 114.2217620000,22.2854180000 114.2217660000,22.2850970000 114.2217700000,22.2850060000 114.2217870000,22.2848230000 114.2218020000,22.2847340000 114.2218180000,22.2846630000 114.2218390000,22.2845850000 114.2218660000,22.2844980000 114.2218990000,22.2844080000 114.2219460000,22.2842920000 114.2219980000,22.2841830000 114.2220520000,22.2840830000 114.2221160000,22.2839800000 114.2221810000,22.2838840000 114.2222630000,22.2837750000 114.2236130000,22.2820710000 114.2236950000,22.2819720000 114.2237730000,22.2818930000 114.2238680000,22.2817980000 114.2239940000,22.2816860000 114.2240740000,22.2816230000 114.2243320000,22.2814630000 114.2247000000,22.2812770000 114.2254220000,22.2809360000 114.2255140000,22.2808900000 114.2258440000,22.2806870000 114.2260690000,22.2805100000 114.2262700000,22.2803170000 114.2264320000,22.2801820000 114.2267530000,22.2798990000 114.2269200000,22.2797610000 114.2271600000,22.2796100000 114.2272000000,22.2795900000 114.2276820000,22.2794060000 114.2277820000,22.2793610000 114.2278770000,22.2793030000 114.2279560000,22.2792360000 114.2280170000,22.2791690000 114.2280700000,22.2790930000 114.2281070000,22.2790330000 114.2281370000,22.2789600000 114.2281650000,22.2788700000 114.2281840000,22.2787700000 114.2282510000,22.2778930000 114.2282580000,22.2777710000 114.2282570000,22.2777060000 114.2282520000,22.2776390000 114.2282440000,22.2775730000 114.2282330000,22.2775110000 114.2282050000,22.2774010000 114.2281980000,22.2773560000 114.2281880000,22.2772930000 114.2281830000,22.2772430000 114.2281810000,22.2771950000 114.2281820000,22.2771480000 114.2281860000,22.2771010000 114.2281940000,22.2770560000 114.2282070000,22.2770120000 114.2282330000,22.2769560000 114.2282670000,22.2769030000 114.2282900000,22.2768750000 114.2283150000,22.2768480000 114.2283670000,22.2768000000 114.2284320000,22.2767500000 114.2285110000,22.2767050000 114.2285990000,22.2766630000 114.2288280000,22.2765530000 114.2291290000,22.2764080000 114.2294120000,22.2762800000 114.2294590000,22.2762400000 114.2295230000,22.2761780000 114.2295560000,22.2761490000 114.2295950000,22.2761170000 114.2297530000,22.2759980000 114.2298280000,22.2759560000 114.2299010000,22.2759190000 114.2299900000,22.2758800000 114.2301700000,22.2758300000 114.2303600000,22.2757880000 114.2304510000,22.2757610000 114.2305390000,22.2757280000 114.2306330000,22.2756830000 114.2307100000,22.2756380000 114.2307410000,22.2756130000 114.2307720000,22.2755880000 114.2308090000,22.2755580000 114.2308600000,22.2754880000 114.2308760000,22.2754510000 114.2308950000,22.2753940000 114.2310180000,22.2748910000 114.2310850000,22.2746350000 114.2311680000,22.2744030000 114.2312060000,22.2743250000 114.2312750000,22.2741770000 114.2313640000,22.2740490000 114.2314730000,22.2739210000 114.2315910000,22.2738040000 114.2316910000,22.2737180000 114.2319450000,22.2735490000 114.2320690000,22.2734620000 114.2321510000,22.2734040000 114.2322780000,22.2733100000 114.2323490000,22.2732520000 114.2323990000,22.2732040000 114.2324620000,22.2731350000 114.2325200000,22.2730660000 114.2325820000,22.2729820000 114.2326380000,22.2728990000 114.2326860000,22.2728180000 114.2327310000,22.2727310000 114.2327740000,22.2726390000 114.2328030000,22.2725650000 114.2330300000,22.2719100000 114.2331900000,22.2714510000 114.2332450000,22.2713120000 114.2333040000,22.2711840000 114.2333230000,22.2711500000 114.2333400000,22.2711180000 114.2334140000,22.2709930000 114.2334860000,22.2708830000 114.2335080000,22.2708500000 114.2335710000,22.2707420000 114.2336030000,22.2706530000 114.2336500000,22.2705100000 114.2337420000,22.2701190000 114.2337700000,22.2699600000 114.2337800000,22.2697200000 114.2337490000,22.2694210000 114.2336810000,22.2690520000 114.2336750000,22.2690070000 114.2336710000,22.2689760000 114.2336600000,22.2688700000 114.2335740000,22.2683000000 114.2335740000,22.2681500000 114.2335900000,22.2678530000 114.2336130000,22.2675010000 114.2336250000,22.2673250000 114.2337650000,22.2655900000 114.2337910000,22.2653900000 114.2338300000,22.2652500000 114.2338890000,22.2651100000 114.2339720000,22.2649900000 114.2340900000,22.2648700000 114.2342170000,22.2647650000 114.2343200000,22.2646800000 114.2344270000,22.2645940000 114.2346580000,22.2644090000 114.2347670000,22.2643220000 114.2349620000,22.2641650000 114.2350800000,22.2640700000 114.2350900000,22.2640630000 114.2354440000,22.2637920000 114.2355110000,22.2637400000 114.2355890000,22.2636900000 114.2356730000,22.2636420000 114.2357680000,22.2635970000 114.2358800000,22.2635540000 114.2359700000,22.2635270000 114.2360400000,22.2635080000 114.2361200000,22.2634900000 114.2362000000,22.2634750000 114.2363100000,22.2634620000 114.2365200000,22.2634500000 114.2367700000,22.2634400000 114.2368600000,22.2634380000 114.2369700000,22.2634500000 114.2370890000,22.2634860000 114.2371700000,22.2635300000 114.2373260000,22.2636430000 114.2374520000,22.2637080000 114.2375500000,22.2637220000 114.2376200000,22.2637200000 114.2377100000,22.2637000000 114.2378250000,22.2636360000 114.2378790000,22.2635620000 114.2379430000,22.2634950000 114.2380250000,22.2634190000 114.2380720000,22.2633830000 114.2381180000,22.2633570000 114.2381660000,22.2633340000 114.2382460000,22.2633050000 114.2383220000,22.2632900000 114.2383850000,22.2632830000 114.2386550000,22.2632730000 114.2387300000,22.2632740000 114.2387960000,22.2632790000 114.2388840000,22.2632910000 114.2389810000,22.2633100000 114.2390720000,22.2633330000 114.2391440000,22.2633560000 114.2392150000,22.2633860000 114.2392780000,22.2634160000 114.2393860000,22.2634700000 114.2394760000,22.2635200000 114.2395630000,22.2635810000 114.2397530000,22.2637190000 114.2399460000,22.2638600000 114.2402520000,22.2640810000 114.2404460000,22.2642240000 114.2406180000,22.2643500000 114.2406860000,22.2643990000 114.2407800000,22.2644710000 114.2408980000,22.2645580000 114.2417990000,22.2652170000 114.2420970000,22.2654330000 114.2423950000,22.2656580000 114.2426340000,22.2658480000 114.2426890000,22.2659000000 114.2427350000,22.2659550000 114.2427910000,22.2660540000 114.2428260000,22.2661690000 114.2428420000,22.2662580000 114.2428430000,22.2663300000 114.2428450000,22.2664140000 114.2427270000,22.2667420000 114.2425220000,22.2670540000 114.2419950000,22.2676980000 114.2419220000,22.2678040000 114.2418100000,22.2679900000 114.2416930000,22.2681530000 114.2415340000,22.2682790000 114.2413910000,22.2683650000 114.2410990000,22.2685190000 114.2408070000,22.2686470000 114.2398400000,22.2690690000 114.2397860000,22.2690900000 114.2395950000,22.2690920000 114.2394650000,22.2690060000 114.2392870000,22.2686790000 114.2391310000,22.2686130000 114.2389260000,22.2685970000 114.2388460000,22.2686320000 114.2386290000,22.2687430000 114.2385300000,22.2688420000 114.2384580000,22.2689600000 114.2384250000,22.2690920000 114.2384320000,22.2692400000 114.2385490000,22.2695210000 114.2388580000,22.2701210000 114.2389780000,22.2702620000 114.2390430000,22.2703170000 114.2391310000,22.2703750000 114.2391960000,22.2704060000 114.2392490000,22.2704240000 114.2393360000,22.2704470000 114.2394060000,22.2704510000 114.2394660000,22.2704570000 114.2395360000,22.2704540000 114.2396060000,22.2704430000 114.2396630000,22.2704250000 114.2399790000,22.2702710000 114.2401390000,22.2702080000 114.2401930000,22.2701860000 114.2402910000,22.2701490000 114.2403530000,22.2702650000 114.2403790000,22.2703150000 114.2406900000,22.2709730000 114.2408000000,22.2710900000 114.2408290000,22.2711600000 114.2410890000,22.2717740000 114.2412820000,22.2722380000 114.2414130000,22.2726530000 114.2414610000,22.2729170000 114.2414890000,22.2732080000 114.2414960000,22.2736250000 114.2414900000,22.2739670000 114.2414950000,22.2744050000 114.2414970000,22.2745570000 114.2414940000,22.2746370000 114.2414890000,22.2747380000 114.2414670000,22.2749260000 114.2414430000,22.2751130000 114.2414130000,22.2752090000 114.2412590000,22.2755860000 114.2412260000,22.2756430000 114.2408690000,22.2760510000 114.2407530000,22.2761910000 114.2405850000,22.2764070000 114.2404670000,22.2765800000 114.2403450000,22.2767240000 114.2402790000,22.2768180000 114.2402360000,22.2768320000 114.2402000000,22.2768570000 114.2401740000,22.2768910000 114.2401600000,22.2769310000 114.2401620000,22.2769770000 114.2401820000,22.2770200000 114.2402160000,22.2770550000 114.2402490000,22.2770720000 114.2402860000,22.2770800000 114.2403240000,22.2770790000 114.2403600000,22.2770690000 114.2404660000,22.2771050000 114.2404740000,22.2771180000 114.2406580000,22.2773630000 114.2405750000,22.2774450000 114.2405350000,22.2776080000 114.2405030000,22.2777410000 114.2405210000,22.2777830000 114.2405490000,22.2777920000 114.2405570000,22.2777950000 114.2406080000,22.2777950000 114.2406270000,22.2777810000 114.2406550000,22.2776390000 114.2406810000,22.2775110000 114.2406580000,22.2773630000 114.2404740000,22.2771180000 114.2404660000,22.2771050000 114.2404320000,22.2770030000 114.2404430000,22.2769650000 114.2404420000,22.2769250000 114.2404280000,22.2768880000 114.2404500000,22.2767780000 114.2404670000,22.2765800000 114.2405850000,22.2764070000 114.2407530000,22.2761910000 114.2408690000,22.2760510000 114.2412260000,22.2756430000 114.2412590000,22.2755860000 114.2414130000,22.2752090000 114.2414430000,22.2751130000 114.2414670000,22.2749260000 114.2414890000,22.2747380000 114.2414940000,22.2746370000 114.2414970000,22.2745570000 114.2414950000,22.2744050000 114.2414900000,22.2739670000 114.2414960000,22.2736250000 114.2414890000,22.2732080000 114.2414610000,22.2729170000 114.2414130000,22.2726530000 114.2412820000,22.2722380000 114.2410890000,22.2717740000 114.2408290000,22.2711600000 114.2408000000,22.2710900000 114.2407810000,22.2709370000 114.2405810000,22.2704850000 114.2404840000,22.2702790000 114.2404600000,22.2702290000 114.2404020000,22.2701060000 114.2403360000,22.2699710000 114.2401390000,22.2695720000 114.2401150000,22.2694940000 114.2401070000,22.2694150000 114.2401140000,22.2693430000 114.2401280000,22.2692880000 114.2401460000,22.2692430000 114.2401680000,22.2692020000 114.2402180000,22.2691350000 114.2403010000,22.2690550000 114.2403950000,22.2689720000 114.2409050000,22.2687450000 114.2413990000,22.2685270000 114.2414770000,22.2684870000 114.2415490000,22.2684420000 114.2416210000,22.2683920000 114.2417440000,22.2682910000 114.2418170000,22.2682180000 114.2423070000,22.2676280000 114.2426820000,22.2671710000 114.2427390000,22.2671000000 114.2428080000,22.2670000000 114.2431070000,22.2665200000 114.2431860000,22.2663800000 114.2432320000,22.2663050000 114.2432580000,22.2662660000 114.2433210000,22.2661860000 114.2431400000,22.2660530000 114.2430990000,22.2660230000 114.2430770000,22.2660070000 114.2425470000,22.2656330000 114.2421620000,22.2653560000 114.2417790000,22.2650770000 114.2414720000,22.2648500000 114.2408530000,22.2643850000 114.2407250000,22.2642900000 114.2403230000,22.2639950000 114.2399550000,22.2637210000 114.2396690000,22.2635200000 114.2396370000,22.2634960000 114.2395440000,22.2634350000 114.2393700000,22.2633300000 114.2392770000,22.2632900000 114.2391920000,22.2632610000 114.2390980000,22.2632350000 114.2389870000,22.2632100000 114.2388990000,22.2631950000 114.2388450000,22.2631900000 114.2387840000,22.2631890000 114.2385890000,22.2631970000 114.2382660000,22.2632180000 114.2381350000,22.2632220000 114.2380060000,22.2632190000 114.2379430000,22.2632090000 114.2378740000,22.2631960000 114.2378270000,22.2631830000 114.2377900000,22.2631510000 114.2377380000,22.2631200000 114.2376740000,22.2630890000 114.2376130000,22.2630670000 114.2375550000,22.2630490000 114.2375030000,22.2630380000 114.2374530000,22.2630320000 114.2374110000,22.2630320000 114.2373780000,22.2630350000 114.2373380000,22.2630440000 114.2373020000,22.2630550000 114.2372610000,22.2630750000 114.2372150000,22.2631020000 114.2371500000,22.2631500000 114.2371070000,22.2632200000 114.2370400000,22.2632600000 114.2369600000,22.2632900000 114.2368600000,22.2633100000 114.2362500000,22.2633490000 114.2361300000,22.2633630000 114.2360080000,22.2633880000 114.2359000000,22.2634200000 114.2357900000,22.2634600000 114.2357000000,22.2634980000 114.2356130000,22.2635390000 114.2355210000,22.2635900000 114.2354480000,22.2636370000 114.2353480000,22.2637080000 114.2350070000,22.2639710000 114.2348820000,22.2640680000 114.2346700000,22.2642320000 114.2343610000,22.2644700000 114.2343330000,22.2644910000 114.2342250000,22.2645750000 114.2340500000,22.2647300000 114.2338800000,22.2649000000 114.2337970000,22.2650270000 114.2337200000,22.2651800000 114.2336820000,22.2652800000 114.2336600000,22.2653700000 114.2336380000,22.2655800000 114.2334800000,22.2676540000 114.2334650000,22.2678440000 114.2334570000,22.2680020000 114.2334500000,22.2681500000 114.2334500000,22.2683000000 114.2335170000,22.2687950000 114.2335300000,22.2688900000 114.2335460000,22.2689920000 114.2335500000,22.2690200000 114.2335560000,22.2690650000 114.2336090000,22.2694410000 114.2336500000,22.2699300000 114.2336350000,22.2700560000 114.2336290000,22.2701110000 114.2335400000,22.2704700000 114.2335000000,22.2706100000 114.2334670000,22.2707050000 114.2334140000,22.2708060000 114.2333960000,22.2708320000 114.2333120000,22.2709560000 114.2331750000,22.2711440000 114.2331450000,22.2712030000 114.2331250000,22.2712460000 114.2331070000,22.2712920000 114.2329430000,22.2717860000 114.2327280000,22.2724120000 114.2326340000,22.2726550000 114.2325970000,22.2727280000 114.2325560000,22.2727990000 114.2325170000,22.2728590000 114.2323880000,22.2730400000 114.2323390000,22.2731000000 114.2322880000,22.2731530000 114.2322260000,22.2732030000 114.2321720000,22.2732430000 114.2321350000,22.2732690000 114.2320020000,22.2733640000 114.2316410000,22.2736120000 114.2314380000,22.2737820000 114.2313150000,22.2739040000 114.2312060000,22.2740490000 114.2311190000,22.2741980000 114.2310440000,22.2743600000 114.2309610000,22.2745890000 114.2309180000,22.2747290000 114.2308900000,22.2748400000 114.2308100000,22.2751430000 114.2307450000,22.2753590000 114.2307350000,22.2753930000 114.2307000000,22.2754540000 114.2306650000,22.2755010000 114.2306370000,22.2755390000 114.2305750000,22.2755930000 114.2304980000,22.2756410000 114.2304190000,22.2756700000 114.2303270000,22.2756930000 114.2301860000,22.2757220000 114.2300870000,22.2757470000 114.2299330000,22.2757980000 114.2297940000,22.2758640000 114.2296620000,22.2759370000 114.2295030000,22.2760640000 114.2293760000,22.2761510000 114.2292430000,22.2762420000 114.2291000000,22.2763400000 114.2290280000,22.2763720000 114.2284580000,22.2766580000 114.2284180000,22.2766810000 114.2283810000,22.2767050000 114.2283450000,22.2767290000 114.2283150000,22.2767520000 114.2282880000,22.2767750000 114.2282640000,22.2767990000 114.2282400000,22.2768260000 114.2282170000,22.2768530000 114.2281860000,22.2768960000 114.2281700000,22.2769240000 114.2281520000,22.2769580000 114.2281410000,22.2769860000 114.2281330000,22.2770110000 114.2281220000,22.2770460000 114.2281170000,22.2770750000 114.2281110000,22.2771100000 114.2281080000,22.2771460000 114.2281070000,22.2771890000 114.2281080000,22.2772300000 114.2281110000,22.2772680000 114.2281150000,22.2773020000 114.2281280000,22.2773710000 114.2281680000,22.2775480000 114.2281750000,22.2775900000 114.2281790000,22.2776320000 114.2281800000,22.2776680000 114.2281790000,22.2777100000 114.2281750000,22.2777610000 114.2281690000,22.2778080000 114.2281610000,22.2778510000 114.2281500000,22.2778920000 114.2281320000,22.2779490000 114.2281140000,22.2779940000 114.2280760000,22.2780770000 114.2277500000,22.2786870000 114.2277150000,22.2787460000 114.2276770000,22.2788040000 114.2276520000,22.2788370000 114.2276280000,22.2788650000 114.2275990000,22.2788970000 114.2275650000,22.2789320000 114.2275260000,22.2789670000 114.2274770000,22.2790050000 114.2271390000,22.2792710000 114.2268930000,22.2794670000 114.2267710000,22.2796070000 114.2265580000,22.2798310000 114.2263740000,22.2800270000 114.2261900000,22.2802290000 114.2260020000,22.2804210000 114.2257350000,22.2806190000 114.2255450000,22.2807470000 114.2251880000,22.2809320000 114.2246470000,22.2811710000 114.2242770000,22.2813510000 114.2240040000,22.2815230000 114.2237970000,22.2816730000 114.2236060000,22.2818400000 114.2233730000,22.2820850000 114.2225600000,22.2830850000 114.2222970000,22.2834090000 114.2219170000,22.2838780000 114.2216550000,22.2842510000 114.2215660000,22.2844270000 114.2214950000,22.2845880000 114.2214380000,22.2847610000 114.2213980000,22.2849180000 114.2213560000,22.2851750000 114.2213520000,22.2852210000 114.2213500000,22.2852670000 114.2213520000,22.2852960000 114.2213590000,22.2853570000 114.2213530000,22.2855080000 114.2213570000,22.2858410000 114.2213610000,22.2860780000 114.2213760000,22.2866650000 114.2213690000,22.2867960000 114.2213550000,22.2869820000 114.2213220000,22.2871970000 114.2212320000,22.2874440000 114.2211840000,22.2875360000 114.2211090000,22.2876640000 114.2210020000,22.2877990000 114.2209110000,22.2878780000 114.2207880000,22.2879490000 114.2206690000,22.2880380000 114.2204850000,22.2881450000 114.2203750000,22.2882000000 114.2202220000,22.2882780000 114.2200180000,22.2883510000 114.2198020000,22.2884010000 114.2195550000,22.2884500000 114.2194650000,22.2884670000 114.2192360000,22.2885300000 114.2190490000,22.2885710000 114.2185110000,22.2886880000 114.2180910000,22.2887630000 114.2172060000,22.2889130000 114.2168690000,22.2889320000 114.2167970000,22.2889440000 114.2163450000,22.2890210000 114.2160060000,22.2890940000 114.2159010000,22.2891190000 114.2157740000,22.2891470000 114.2151320000,22.2893150000 114.2147580000,22.2894410000 114.2142880000,22.2896070000 114.2137820000,22.2898170000 114.2134510000,22.2899700000 114.2133040000,22.2900230000 114.2131690000,22.2900720000 114.2127380000,22.2903170000 114.2124830000,22.2904610000 114.2123200000,22.2905530000 114.2122130000,22.2906180000 114.2121310000,22.2906670000 114.2120320000,22.2907270000 114.2119230000,22.2907940000 114.2116530000,22.2909590000 114.2114960000,22.2910550000 114.2114030000,22.2911130000 114.2111810000,22.2912530000 114.2110560000,22.2913310000 114.2109730000,22.2913830000 114.2106220000,22.2916380000 114.2102020000,22.2919430000 114.2096790000,22.2923280000 114.2094250000,22.2924890000 114.2091620000,22.2926270000 114.2088160000,22.2927860000 114.2086880000,22.2928400000 114.2084250000,22.2929190000 114.2081530000,22.2930010000 114.2077170000,22.2931270000 114.2072230000,22.2932690000 114.2071640000,22.2932870000 114.2066740000,22.2934340000 114.2061700000,22.2935940000 114.2056640000,22.2937480000 114.2053700000,22.2938370000 114.2052090000,22.2938850000 114.2051510000,22.2939030000 114.2050060000,22.2939470000 114.2049120000,22.2939730000 114.2046900000,22.2940340000 114.2044740000,22.2940870000 114.2040710000,22.2941440000 114.2037310000,22.2941630000 114.2035240000,22.2941730000 114.2034060000,22.2941670000 114.2031830000,22.2941550000 114.2029010000,22.2941180000 114.2026250000,22.2940640000 114.2025480000,22.2940480000 114.2021120000,22.2939650000 114.2005900000,22.2936420000 114.2005170000,22.2936260000 114.1999680000,22.2935100000 114.1996280000,22.2934690000 114.1992060000,22.2934470000 114.1987250000,22.2934460000 114.1983660000,22.2934260000 114.1979580000,22.2933590000 114.1975110000,22.2932730000 114.1971570000,22.2931990000 114.1968930000,22.2931450000 114.1966360000,22.2930950000 114.1965160000,22.2930760000 114.1963890000,22.2930500000 114.1963670000,22.2930430000 114.1962870000,22.2930260000 114.1961330000,22.2929940000 114.1958930000,22.2929450000 114.1957170000,22.2928940000 114.1956110000,22.2928720000 114.1955000000,22.2928430000 114.1953420000,22.2928020000 114.1950760000,22.2927130000 114.1949910000,22.2926820000 114.1948300000,22.2926120000 114.1947780000,22.2925820000 114.1947230000,22.2925510000 114.1945800000,22.2924720000 114.1944720000,22.2924140000 114.1943390000,22.2923300000 114.1943080000,22.2923090000 114.1940960000,22.2921610000 114.1939940000,22.2920890000 114.1938640000,22.2919970000 114.1937830000,22.2919430000 114.1937490000,22.2919190000 114.1937160000,22.2918970000 114.1937010000,22.2918840000 114.1936750000,22.2918610000 114.1936060000,22.2918030000 114.1935350000,22.2917410000 114.1934410000,22.2916610000 114.1933890000,22.2916150000 114.1933500000,22.2915810000 114.1933240000,22.2915550000 114.1933070000,22.2915380000 114.1932510000,22.2914830000 114.1931350000,22.2913490000 114.1931050000,22.2912530000 114.1930930000,22.2912180000 114.1930760000,22.2911620000 114.1930060000,22.2910820000 114.1929330000,22.2909960000 114.1928030000,22.2908470000 114.1922990000,22.2903210000 114.1915880000,22.2895560000 114.1913760000,22.2893230000 114.1912520000,22.2891910000 114.1906770000,22.2885810000 114.1903320000,22.2882150000 114.1900190000,22.2878880000 114.1899830000,22.2878420000 114.1898890000,22.2877330000 114.1898310000,22.2876540000 114.1897600000,22.2875550000 114.1896840000,22.2874280000 114.1896380000,22.2873400000 114.1895570000,22.2872390000 114.1894580000,22.2870630000 114.1894350000,22.2869950000 114.1894190000,22.2869350000 114.1894020000,22.2868650000 114.1893850000,22.2867830000 114.1893780000,22.2867270000 114.1893710000,22.2866570000 114.1893630000,22.2865650000 114.1893570000,22.2864690000 114.1893520000,22.2863510000 114.1893440000,22.2860110000 114.1893380000,22.2859370000 114.1893310000,22.2858670000 114.1893190000,22.2857830000 114.1893060000,22.2857010000 114.1892870000,22.2856040000 114.1892600000,22.2854970000 114.1892280000,22.2853930000 114.1891830000,22.2852740000 114.1891130000,22.2851340000 114.1890310000,22.2850070000 114.1889800000,22.2849320000 114.1888980000,22.2848300000 114.1888130000,22.2847440000 114.1887120000,22.2846530000 114.1885960000,22.2845670000 114.1884740000,22.2844880000 114.1883480000,22.2844200000 114.1882350000,22.2843700000 114.1880960000,22.2843140000 114.1879710000,22.2842690000 114.1877860000,22.2842120000 114.1876240000,22.2841670000 114.1871890000,22.2840570000 114.1871400000,22.2840320000 114.1870940000,22.2839960000 114.1869060000,22.2839590000 114.1866430000,22.2839070000 114.1865190000,22.2838830000 114.1864390000,22.2838650000 114.1863640000,22.2838430000 114.1862310000,22.2837970000 114.1860990000,22.2837360000 114.1859880000,22.2836800000 114.1859020000,22.2836190000 114.1857900000,22.2835350000 114.1854100000,22.2832190000 114.1853700000,22.2830900000 114.1853570000,22.2830570000 114.1853510000,22.2830110000 114.1853570000,22.2829480000 114.1853690000,22.2828840000 114.1854000000,22.2828000000 114.1854150000,22.2827580000 114.1854550000,22.2826640000 114.1851190000,22.2825450000 114.1850990000,22.2825380000 114.1849860000,22.2825020000 114.1848210000,22.2824510000 114.1844310000,22.2823490000 114.1844250000,22.2823480000 114.1840550000,22.2823030000 114.1836400000,22.2821430000 114.1831790000,22.2819590000 114.1829490000,22.2818710000 114.1827910000,22.2818100000 114.1826870000,22.2817690000 114.1823980000,22.2816580000 114.1823200000,22.2816240000 114.1822920000,22.2816120000 114.1821640000,22.2815570000 114.1820830000,22.2814670000 114.1820720000,22.2814120000 114.1820820000,22.2813460000 114.1821430000,22.2812030000 114.1821870000,22.2810990000 114.1822660000,22.2809130000 114.1824190000,22.2805660000 114.1824690000,22.2804590000 114.1823730000,22.2804240000 114.1822700000,22.2803870000 114.1818330000,22.2802210000 114.1817600000,22.2801650000 114.1811270000,22.2799270000 114.1810340000,22.2798910000 114.1809470000,22.2798580000 114.1797050000,22.2793910000 114.1796180000,22.2793590000 114.1795050000,22.2793180000 114.1794220000,22.2792880000 114.1780340000,22.2788810000 114.1778810000,22.2788380000 114.1777420000,22.2788020000 114.1769890000,22.2785760000 114.1769030000,22.2785570000 114.1767580000,22.2785370000 114.1767640000,22.2784660000 114.1768000000,22.2781300000 114.1768130000,22.2780390000 114.1768250000,22.2779680000 114.1768240000,22.2779630000 114.1768240000,22.2779570000 114.1768220000,22.2779510000 114.1768190000,22.2779450000 114.1768150000,22.2779390000 114.1768110000,22.2779340000 114.1768080000,22.2779310000 114.1768040000,22.2779280000 114.1767940000,22.2779240000 114.1766400000,22.2779070000 114.1764980000,22.2778920000 114.1763840000,22.2778790000 114.1763600000,22.2778760000 114.1763350000,22.2778740000 114.1754740000,22.2777860000 114.1750050000,22.2777400000 114.1748870000,22.2777290000 114.1747750000,22.2777180000 114.1745480000,22.2776960000 114.1742060000,22.2776600000 114.1740320000,22.2776430000 114.1738680000,22.2776250000 114.1733630000,22.2775710000 114.1732660000,22.2775590000 114.1732060000,22.2775530000 114.1727110000,22.2774990000 114.1726580000,22.2774930000 114.1726160000,22.2774890000 114.1721470000,22.2774340000 114.1718250000,22.2774610000 114.1717810000,22.2774650000 114.1717310000,22.2774690000 114.1716670000,22.2774760000 114.1716020000,22.2774820000 114.1714550000,22.2774930000 114.1714190000,22.2774950000 114.1711990000,22.2775120000 114.1708780000,22.2775360000 114.1703370000,22.2775710000 114.1700670000,22.2775950000 114.1697600000,22.2776220000 114.1694230000,22.2776510000 114.1693980000,22.2776540000 114.1693450000,22.2776590000 114.1692610000,22.2776680000 114.1689470000,22.2776930000 114.1685170000,22.2777300000 114.1683360000,22.2777460000 114.1679670000,22.2777780000 114.1679210000,22.2777820000 114.1674650000,22.2778220000 114.1673240000,22.2778430000 114.1663690000,22.2779390000 114.1661220000,22.2779690000 114.1659210000,22.2779930000 114.1657880000,22.2780080000 114.1654950000,22.2780460000 114.1654670000,22.2780500000 114.1654250000,22.2780560000 114.1649730000,22.2781170000 114.1648760000,22.2781360000 114.1646860000,22.2781740000 114.1644950000,22.2782280000 114.1643070000,22.2782990000 114.1640380000,22.2784180000 114.1638230000,22.2785170000 114.1637050000,22.2785840000 114.1634530000,22.2787390000 114.1633770000,22.2787880000 114.1630190000,22.2790660000 114.1628030000,22.2792020000 114.1627540000,22.2792320000 114.1625970000,22.2793340000 114.1625700000,22.2793420000 114.1624630000,22.2793960000 114.1624150000,22.2794190000 114.1622890000,22.2794780000 114.1620130000,22.2795920000 114.1618520000,22.2796470000 114.1615670000,22.2797490000 114.1615240000,22.2797580000 114.1613930000,22.2797870000 114.1613130000,22.2798000000 114.1610710000,22.2798410000 114.1608870000,22.2798740000 114.1607940000,22.2799100000 114.1607310000,22.2799330000 114.1606710000,22.2799490000 114.1605230000,22.2799630000 114.1604820000,22.2799670000 114.1603650000,22.2799660000 114.1602120000,22.2799520000 114.1598660000,22.2799050000 114.1598430000,22.2799020000 114.1597630000,22.2798900000 114.1596450000,22.2798730000 114.1595200000,22.2798580000 114.1594570000,22.2798600000 114.1593770000,22.2798690000 114.1592960000,22.2798860000 114.1591330000,22.2799230000 114.1582220000,22.2801520000 114.1580910000,22.2801910000 114.1580220000,22.2802160000 114.1579420000,22.2802500000 114.1578840000,22.2802860000 114.1578160000,22.2803390000 114.1577690000,22.2803760000 114.1575890000,22.2805640000 114.1573380000,22.2808460000 114.1573040000,22.2808850000 114.1572720000,22.2809200000 114.1572560000,22.2809390000 114.1569830000,22.2812640000 114.1569530000,22.2812990000 114.1568840000,22.2813790000 114.1568100000,22.2814600000 114.1567690000,22.2815040000 114.1567270000,22.2815500000 114.1565830000,22.2817090000 114.1565660000,22.2817280000 114.1565180000,22.2817800000 114.1564860000,22.2818210000 114.1564730000,22.2818380000 114.1561480000,22.2822450000 114.1560410000,22.2823710000 114.1559330000,22.2825010000 114.1559090000,22.2825310000 114.1558930000,22.2825510000 114.1556900000,22.2828040000 114.1555480000,22.2829700000 114.1554840000,22.2830640000 114.1553510000,22.2832530000 114.1552360000,22.2833860000 114.1552170000,22.2834090000 114.1551630000,22.2834710000 114.1551300000,22.2835100000 114.1550840000,22.2835440000 114.1549400000,22.2836500000 114.1548960000,22.2836820000 114.1548360000,22.2837280000 114.1548060000,22.2837510000 114.1547300000,22.2838090000 114.1546650000,22.2838550000 114.1545130000,22.2839720000 114.1541970000,22.2841820000 114.1540630000,22.2842790000 114.1540250000,22.2843050000 114.1538510000,22.2844390000 114.1536380000,22.2846230000 114.1533510000,22.2848580000 114.1530930000,22.2850640000 114.1528410000,22.2852620000 114.1527530000,22.2853130000 114.1526290000,22.2853880000 114.1523930000,22.2855070000 114.1522760000,22.2855830000 114.1521270000,22.2856720000 114.1518740000,22.2857590000 114.1518510000,22.2857670000 114.1518050000,22.2857790000 114.1511300000,22.2859580000 114.1508220000,22.2860520000 114.1506650000,22.2861120000 114.1506580000,22.2861160000 114.1502640000,22.2863120000 114.1503360000,22.2864200000 114.1504000000,22.2865200000 114.1504800000,22.2869050000 114.1504860000,22.2869410000 114.1504870000,22.2869450000 114.1504940000,22.2869860000 114.1504820000,22.2870600000 114.1506100000,22.2874900000 114.1506320000,22.2875640000 114.1506300000,22.2876050000 114.1506280000,22.2876460000 114.1506270000,22.2876970000 114.1496140000,22.2879640000 114.1494400000,22.2880090000 114.1480920000,22.2883550000 114.1481230000,22.2884670000 114.1480300000,22.2886200000 114.1480000000,22.2886800000 114.1479400000,22.2887200000 114.1473500000,22.2888700000 114.1473100000,22.2889100000 114.1473000000,22.2889500000 114.1473100000,22.2890000000 114.1473830000,22.2890970000 114.1475630000,22.2897410000 114.1476010000,22.2898750000 114.1477030000,22.2898970000 114.1479160000,22.2898460000 114.1483560000,22.2897420000 114.1484040000,22.2897270000 114.1484530000,22.2896870000 114.1484630000,22.2896580000 114.1484620000,22.2895890000 114.1483790000,22.2892270000 114.1482090000,22.2886840000 114.1481920000,22.2886290000 114.1481230000,22.2884670000 114.1494100000,22.2881290000 114.1494660000,22.2881150000 114.1494870000,22.2883110000 114.1494910000,22.2883420000 114.1495250000,22.2884650000 114.1495620000,22.2886030000 114.1496100000,22.2887130000 114.1496640000,22.2888350000 114.1497640000,22.2888720000 114.1502010000,22.2887680000 114.1502770000,22.2887200000 114.1503260000,22.2886700000 114.1503430000,22.2886470000</coordinates>
                </LineString>
                <ExtendedData>
                    <Data name="duration">
                        <value>00:43:00</value>
                    </Data>
                    <Data name="length">
                        <value>31024.97280855108</value>
                    </Data>
                </ExtendedData>
            </Placemark>
        </Document>
    </Document>
</kml>