<?xml version="1.0" encoding="UTF-8"?>
<kml xmlns="http://www.opengis.net/kml/2.2" xmlns:gx="http://www.google.com/kml/ext/2.2">
    <Document>
        <name>Route</name>
        <Folder>
            <name>Route Request</name>
            <Placemark>
                <address>Tai Hong Street, Aldrich Bay, Sai Wan Ho, Eastern District, Hong Kong Island, Hong Kong, 000000, China</address>
                <Point>
                    <coordinates>114.2245849803,22.2850343643</coordinates>
                </Point>
                <ExtendedData>
                    <Data name="city">
                        <value>Hong Kong Island</value>
                    </Data>
                    <Data name="country_code">
                        <value>cn</value>
                    </Data>
                    <Data name="suburb">
                        <value>Sai Wan Ho</value>
                    </Data>
                    <Data name="postcode">
                        <value>000000</value>
                    </Data>
                    <Data name="country">
                        <value>China</value>
                    </Data>
                    <Data name="state">
                        <value>Hong Kong</value>
                    </Data>
                    <Data name="neighbourhood">
                        <value>Aldrich Bay</value>
                    </Data>
                    <Data name="road">
                        <value>Tai Hong Street</value>
                    </Data>
                    <Data name="city_district">
                        <value>Eastern District</value>
                    </Data>
                    <Data name="ISO3166-2-lvl3">
                        <value>CN-HK</value>
                    </Data>
                </ExtendedData>
            </Placemark>
            <Placemark>
                <address>Yiu Hing Road, Kornhill, Sai Wan Ho, Eastern District, Hong Kong Island, Hong Kong, 000000, China</address>
                <Point>
                    <coordinates>114.2188861642,22.2809940364</coordinates>
                </Point>
                <ExtendedData>
                    <Data name="city">
                        <value>Hong Kong Island</value>
                    </Data>
                    <Data name="country_code">
                        <value>cn</value>
                    </Data>
                    <Data name="suburb">
                        <value>Sai Wan Ho</value>
                    </Data>
                    <Data name="postcode">
                        <value>000000</value>
                    </Data>
                    <Data name="country">
                        <value>China</value>
                    </Data>
                    <Data name="quarter">
                        <value>Kornhill</value>
                    </Data>
                    <Data name="state">
                        <value>Hong Kong</value>
                    </Data>
                    <Data name="road">
                        <value>Yiu Hing Road</value>
                    </Data>
                    <Data name="city_district">
                        <value>Eastern District</value>
                    </Data>
                    <Data name="ISO3166-2-lvl3">
                        <value>CN-HK</value>
                    </Data>
                </ExtendedData>
            </Placemark>
            <Placemark>
                <address>Shaukiwan Tsung Tsin School, A Kung Ngam Village Road, Aldrich Bay, Shau Kei Wan, Eastern District, Hong Kong Island, Hong Kong, China</address>
                <Point>
                    <coordinates>114.2313473954,22.2814062498</coordinates>
                </Point>
                <ExtendedData>
                    <Data name="city">
                        <value>Hong Kong Island</value>
                    </Data>
                    <Data name="country_code">
                        <value>cn</value>
                    </Data>
                    <Data name="suburb">
                        <value>Shau Kei Wan</value>
                    </Data>
                    <Data name="country">
                        <value>China</value>
                    </Data>
                    <Data name="amenity">
                        <value>Shaukiwan Tsung Tsin School</value>
                    </Data>
                    <Data name="state">
                        <value>Hong Kong</value>
                    </Data>
                    <Data name="neighbourhood">
                        <value>Aldrich Bay</value>
                    </Data>
                    <Data name="road">
                        <value>A Kung Ngam Village Road</value>
                    </Data>
                    <Data name="city_district">
                        <value>Eastern District</value>
                    </Data>
                    <Data name="ISO3166-2-lvl3">
                        <value>CN-HK</value>
                    </Data>
                </ExtendedData>
            </Placemark>
            <Placemark>
                <address>Paradise Mall, 100, Shing Tai Road, Shau Kei Wan, Eastern District, Hong Kong Island, Hong Kong, China</address>
                <Point>
                    <coordinates>114.2409990651,22.2752211325</coordinates>
                </Point>
                <ExtendedData>
                    <Data name="city">
                        <value>Hong Kong Island</value>
                    </Data>
                    <Data name="country_code">
                        <value>cn</value>
                    </Data>
                    <Data name="suburb">
                        <value>Shau Kei Wan</value>
                    </Data>
                    <Data name="house_number">
                        <value>100</value>
                    </Data>
                    <Data name="country">
                        <value>China</value>
                    </Data>
                    <Data name="shop">
                        <value>Paradise Mall</value>
                    </Data>
                    <Data name="state">
                        <value>Hong Kong</value>
                    </Data>
                    <Data name="road">
                        <value>Shing Tai Road</value>
                    </Data>
                    <Data name="city_district">
                        <value>Eastern District</value>
                    </Data>
                    <Data name="ISO3166-2-lvl3">
                        <value>CN-HK</value>
                    </Data>
                </ExtendedData>
            </Placemark>
            <Placemark>
                <address>Island Resort Mall, Siu Sai Wan Road, Lok Kang Po, Siu Sai Wan, Eastern District, Hong Kong Island, Hong Kong, China</address>
                <Point>
                    <coordinates>114.2509816840,22.2663358556</coordinates>
                </Point>
                <ExtendedData>
                    <Data name="city">
                        <value>Hong Kong Island</value>
                    </Data>
                    <Data name="country_code">
                        <value>cn</value>
                    </Data>
                    <Data name="suburb">
                        <value>Siu Sai Wan</value>
                    </Data>
                    <Data name="country">
                        <value>China</value>
                    </Data>
                    <Data name="shop">
                        <value>Island Resort Mall</value>
                    </Data>
                    <Data name="state">
                        <value>Hong Kong</value>
                    </Data>
                    <Data name="neighbourhood">
                        <value>Lok Kang Po</value>
                    </Data>
                    <Data name="road">
                        <value>Siu Sai Wan Road</value>
                    </Data>
                    <Data name="city_district">
                        <value>Eastern District</value>
                    </Data>
                    <Data name="ISO3166-2-lvl3">
                        <value>CN-HK</value>
                    </Data>
                </ExtendedData>
            </Placemark>
            <Placemark>
                <address>Heng Fa Chuen, Chai Wan, Eastern District, Hong Kong Island, Hong Kong, China</address>
                <Point>
                    <coordinates>114.2407559190,22.2762214701</coordinates>
                </Point>
                <ExtendedData>
                    <Data name="city">
                        <value>Hong Kong Island</value>
                    </Data>
                    <Data name="country_code">
                        <value>cn</value>
                    </Data>
                    <Data name="suburb">
                        <value>Chai Wan</value>
                    </Data>
                    <Data name="residential">
                        <value>Heng Fa Chuen</value>
                    </Data>
                    <Data name="country">
                        <value>China</value>
                    </Data>
                    <Data name="state">
                        <value>Hong Kong</value>
                    </Data>
                    <Data name="city_district">
                        <value>Eastern District</value>
                    </Data>
                    <Data name="ISO3166-2-lvl3">
                        <value>CN-HK</value>
                    </Data>
                </ExtendedData>
            </Placemark>
            <Placemark>
                <address>Wang Wa Street, Ming Wah Dai Ha, Shau Kei Wan, Eastern District, Hong Kong Island, Hong Kong, China</address>
                <Point>
                    <coordinates>114.2314207676,22.2772532409</coordinates>
                </Point>
                <ExtendedData>
                    <Data name="city">
                        <value>Hong Kong Island</value>
                    </Data>
                    <Data name="country_code">
                        <value>cn</value>
                    </Data>
                    <Data name="suburb">
                        <value>Shau Kei Wan</value>
                    </Data>
                    <Data name="residential">
                        <value>Ming Wah Dai Ha</value>
                    </Data>
                    <Data name="country">
                        <value>China</value>
                    </Data>
                    <Data name="state">
                        <value>Hong Kong</value>
                    </Data>
                    <Data name="road">
                        <value>Wang Wa Street</value>
                    </Data>
                    <Data name="city_district">
                        <value>Eastern District</value>
                    </Data>
                    <Data name="ISO3166-2-lvl3">
                        <value>CN-HK</value>
                    </Data>
                </ExtendedData>
            </Placemark>
            <Placemark>
                <address>Holy Cross Catholic Church, 72, Yiu Hing Road, Kornhill, Sai Wan Ho, Eastern District, Hong Kong Island, Hong Kong, 000000, China</address>
                <Point>
                    <coordinates>114.2205536460,22.2807976824</coordinates>
                </Point>
                <ExtendedData>
                    <Data name="city">
                        <value>Hong Kong Island</value>
                    </Data>
                    <Data name="country_code">
                        <value>cn</value>
                    </Data>
                    <Data name="suburb">
                        <value>Sai Wan Ho</value>
                    </Data>
                    <Data name="house_number">
                        <value>72</value>
                    </Data>
                    <Data name="postcode">
                        <value>000000</value>
                    </Data>
                    <Data name="country">
                        <value>China</value>
                    </Data>
                    <Data name="amenity">
                        <value>Holy Cross Catholic Church</value>
                    </Data>
                    <Data name="quarter">
                        <value>Kornhill</value>
                    </Data>
                    <Data name="state">
                        <value>Hong Kong</value>
                    </Data>
                    <Data name="road">
                        <value>Yiu Hing Road</value>
                    </Data>
                    <Data name="city_district">
                        <value>Eastern District</value>
                    </Data>
                    <Data name="ISO3166-2-lvl3">
                        <value>CN-HK</value>
                    </Data>
                </ExtendedData>
            </Placemark>
            <Placemark>
                <address>Tai Hong Street, Aldrich Bay, Sai Wan Ho, Eastern District, Hong Kong Island, Hong Kong, 000000, China</address>
                <Point>
                    <coordinates>114.2246011699,22.2850186644</coordinates>
                </Point>
                <ExtendedData>
                    <Data name="city">
                        <value>Hong Kong Island</value>
                    </Data>
                    <Data name="country_code">
                        <value>cn</value>
                    </Data>
                    <Data name="suburb">
                        <value>Sai Wan Ho</value>
                    </Data>
                    <Data name="postcode">
                        <value>000000</value>
                    </Data>
                    <Data name="country">
                        <value>China</value>
                    </Data>
                    <Data name="state">
                        <value>Hong Kong</value>
                    </Data>
                    <Data name="neighbourhood">
                        <value>Aldrich Bay</value>
                    </Data>
                    <Data name="road">
                        <value>Tai Hong Street</value>
                    </Data>
                    <Data name="city_district">
                        <value>Eastern District</value>
                    </Data>
                    <Data name="ISO3166-2-lvl3">
                        <value>CN-HK</value>
                    </Data>
                </ExtendedData>
            </Placemark>
        </Folder>
        <Document>
            <name>17.7 km; 00:29 h (OSRM)</name>
            <Placemark>
                <name>Route</name>
                <LineString>
                    <coordinates>114.2245380000,22.2849920000 114.2248820000,22.2846650000 114.2248120000,22.2845980000 114.2247150000,22.2845090000 114.2246300000,22.2844180000 114.2246180000,22.2844050000 114.2245920000,22.2843800000 114.2245470000,22.2843370000 114.2246000000,22.2842870000 114.2242920000,22.2839960000 114.2239530000,22.2836760000 114.2235520000,22.2833100000 114.2234700000,22.2832350000 114.2234210000,22.2831890000 114.2233600000,22.2831340000 114.2232320000,22.2830210000 114.2231990000,22.2829900000 114.2230870000,22.2828800000 114.2230710000,22.2828650000 114.2230630000,22.2828560000 114.2230500000,22.2828440000 114.2229740000,22.2827720000 114.2229100000,22.2827240000 114.2227960000,22.2826470000 114.2226230000,22.2825280000 114.2225770000,22.2824960000 114.2224410000,22.2823990000 114.2223970000,22.2823670000 114.2222020000,22.2822340000 114.2220900000,22.2821170000 114.2220320000,22.2820670000 114.2219660000,22.2820180000 114.2219480000,22.2820030000 114.2219190000,22.2819810000 114.2218830000,22.2819540000 114.2218190000,22.2819120000 114.2215430000,22.2817240000 114.2214800000,22.2816820000 114.2212590000,22.2815320000 114.2208440000,22.2812560000 114.2207680000,22.2812020000 114.2207070000,22.2811590000 114.2206690000,22.2811300000 114.2206400000,22.2811040000 114.2206160000,22.2810750000 114.2206070000,22.2810490000 114.2206050000,22.2810190000 114.2206100000,22.2809900000 114.2206200000,22.2809640000 114.2206380000,22.2809290000 114.2206600000,22.2808940000 114.2206850000,22.2808590000 114.2207790000,22.2807370000 114.2208180000,22.2806790000 114.2208710000,22.2805850000 114.2209090000,22.2805070000 114.2209290000,22.2804550000 114.2209440000,22.2804090000 114.2209540000,22.2803530000 114.2209600000,22.2803000000 114.2209570000,22.2802290000 114.2209330000,22.2801380000 114.2209170000,22.2800980000 114.2208980000,22.2800600000 114.2208780000,22.2800280000 114.2208550000,22.2799970000 114.2208280000,22.2799670000 114.2207980000,22.2799350000 114.2207610000,22.2799030000 114.2207200000,22.2798740000 114.2206840000,22.2798540000 114.2206420000,22.2798350000 114.2206000000,22.2798190000 114.2205520000,22.2798050000 114.2205030000,22.2797940000 114.2204530000,22.2797870000 114.2204030000,22.2797840000 114.2203520000,22.2797880000 114.2203000000,22.2797980000 114.2202000000,22.2798300000 114.2201000000,22.2798820000 114.2200700000,22.2799000000 114.2199780000,22.2799980000 114.2198990000,22.2801000000 114.2198400000,22.2802000000 114.2197800000,22.2803000000 114.2197500000,22.2803760000 114.2197400000,22.2804000000 114.2196900000,22.2805000000 114.2196300000,22.2806000000 114.2195600000,22.2807000000 114.2194700000,22.2808000000 114.2193920000,22.2808610000 114.2192980000,22.2809120000 114.2192280000,22.2809450000 114.2191190000,22.2809880000 114.2190500000,22.2810090000 114.2189770000,22.2810250000 114.2189170000,22.2810300000 114.2188860000,22.2810300000 114.2188080000,22.2810310000 114.2185300000,22.2810020000 114.2184760000,22.2809830000 114.2184190000,22.2809590000 114.2183540000,22.2809270000 114.2182870000,22.2808860000 114.2182200000,22.2808370000 114.2181690000,22.2807920000 114.2180850000,22.2806910000 114.2180420000,22.2806250000 114.2180050000,22.2805570000 114.2179740000,22.2804870000 114.2179500000,22.2804150000 114.2179350000,22.2803440000 114.2179250000,22.2802730000 114.2179210000,22.2801940000 114.2179240000,22.2801330000 114.2179350000,22.2800510000 114.2179550000,22.2799640000 114.2179850000,22.2798820000 114.2180100000,22.2798320000 114.2180390000,22.2797840000 114.2180700000,22.2797380000 114.2183880000,22.2792620000 114.2184290000,22.2792050000 114.2184900000,22.2791310000 114.2185720000,22.2790330000 114.2186700000,22.2789420000 114.2187760000,22.2788690000 114.2188860000,22.2788200000 114.2190220000,22.2787900000 114.2191590000,22.2787800000 114.2192740000,22.2787860000 114.2194120000,22.2788070000 114.2200680000,22.2789580000 114.2203200000,22.2790400000 114.2203930000,22.2790630000 114.2205760000,22.2791210000 114.2207330000,22.2791700000 114.2210200000,22.2792610000 114.2211010000,22.2792810000 114.2211810000,22.2792970000 114.2212660000,22.2793050000 114.2213570000,22.2793070000 114.2214500000,22.2793030000 114.2215490000,22.2792900000 114.2216490000,22.2792680000 114.2217470000,22.2792410000 114.2218680000,22.2791960000 114.2219900000,22.2791410000 114.2221050000,22.2790740000 114.2222170000,22.2789970000 114.2223140000,22.2789120000 114.2223960000,22.2788260000 114.2224680000,22.2787440000 114.2225580000,22.2786280000 114.2225930000,22.2785830000 114.2228310000,22.2782670000 114.2229610000,22.2780950000 114.2232270000,22.2777400000 114.2234000000,22.2775100000 114.2235780000,22.2772730000 114.2237760000,22.2770100000 114.2239530000,22.2767740000 114.2240730000,22.2766150000 114.2245270000,22.2760110000 114.2245940000,22.2759270000 114.2246690000,22.2758460000 114.2247870000,22.2757420000 114.2248670000,22.2756830000 114.2249450000,22.2756330000 114.2250690000,22.2755830000 114.2251990000,22.2755470000 114.2253340000,22.2755260000 114.2254690000,22.2755210000 114.2256050000,22.2755320000 114.2257380000,22.2755580000 114.2258660000,22.2755990000 114.2259880000,22.2756550000 114.2262120000,22.2758010000 114.2262500000,22.2758360000 114.2263220000,22.2759040000 114.2264020000,22.2759880000 114.2264660000,22.2760840000 114.2265120000,22.2761880000 114.2265380000,22.2762970000 114.2265450000,22.2764090000 114.2265310000,22.2765210000 114.2264970000,22.2766290000 114.2264440000,22.2767300000 114.2261350000,22.2772840000 114.2258150000,22.2778840000 114.2264770000,22.2782310000 114.2265440000,22.2782660000 114.2265870000,22.2782860000 114.2266080000,22.2782970000 114.2266320000,22.2783090000 114.2268930000,22.2778750000 114.2269840000,22.2777290000 114.2270500000,22.2776460000 114.2271230000,22.2775830000 114.2271790000,22.2775490000 114.2280260000,22.2771020000 114.2282110000,22.2770180000 114.2282930000,22.2769840000 114.2282900000,22.2769530000 114.2282980000,22.2769240000 114.2283180000,22.2768910000 114.2283730000,22.2768280000 114.2284020000,22.2768040000 114.2284370000,22.2767800000 114.2284610000,22.2767660000 114.2284910000,22.2767520000 114.2285180000,22.2767430000 114.2285430000,22.2767360000 114.2285920000,22.2767280000 114.2286210000,22.2767200000 114.2286500000,22.2767100000 114.2290880000,22.2765010000 114.2291680000,22.2764590000 114.2292170000,22.2764300000 114.2292670000,22.2763950000 114.2294120000,22.2762800000 114.2294590000,22.2762400000 114.2295230000,22.2761780000 114.2295560000,22.2761490000 114.2295950000,22.2761170000 114.2297530000,22.2759980000 114.2298280000,22.2759560000 114.2299010000,22.2759190000 114.2299900000,22.2758800000 114.2301700000,22.2758300000 114.2303600000,22.2757880000 114.2304510000,22.2757610000 114.2305390000,22.2757280000 114.2306330000,22.2756830000 114.2307100000,22.2756380000 114.2307410000,22.2756130000 114.2307720000,22.2755880000 114.2308090000,22.2755580000 114.2308440000,22.2755120000 114.2309000000,22.2755490000 114.2309410000,22.2755780000 114.2309950000,22.2756400000 114.2310190000,22.2756770000 114.2310400000,22.2757150000 114.2310560000,22.2757520000 114.2310700000,22.2757890000 114.2310830000,22.2758340000 114.2310910000,22.2758800000 114.2310970000,22.2759290000 114.2310980000,22.2760090000 114.2311020000,22.2760560000 114.2311060000,22.2761010000 114.2311130000,22.2761470000 114.2311250000,22.2762280000 114.2311620000,22.2764030000 114.2312170000,22.2766670000 114.2312310000,22.2767200000 114.2312460000,22.2767640000 114.2314140000,22.2772070000 114.2314300000,22.2772530000 114.2314420000,22.2772920000 114.2314500000,22.2773370000 114.2314530000,22.2773890000 114.2314540000,22.2774430000 114.2314150000,22.2784650000 114.2314050000,22.2787400000 114.2313950000,22.2789980000 114.2313860000,22.2792430000 114.2313630000,22.2798470000 114.2313360000,22.2805590000 114.2313350000,22.2806310000 114.2313390000,22.2806940000 114.2313480000,22.2807550000 114.2313600000,22.2808120000 114.2313820000,22.2808880000 114.2314410000,22.2810690000 114.2314590000,22.2811390000 114.2314730000,22.2812050000 114.2314820000,22.2812650000 114.2314890000,22.2813420000 114.2314920000,22.2814000000 114.2314930000,22.2814190000 114.2315040000,22.2820180000 114.2322990000,22.2820090000 114.2324500000,22.2820070000 114.2324950000,22.2820120000 114.2325290000,22.2820330000 114.2325470000,22.2820590000 114.2325740000,22.2821120000 114.2326040000,22.2821550000 114.2326430000,22.2821920000 114.2326890000,22.2822220000 114.2327410000,22.2822420000 114.2329430000,22.2823080000 114.2330010000,22.2823250000 114.2330210000,22.2823490000 114.2330330000,22.2823750000 114.2330350000,22.2825910000 114.2330350000,22.2826220000 114.2330380000,22.2826830000 114.2330590000,22.2827750000 114.2330780000,22.2828400000 114.2332440000,22.2828050000 114.2334290000,22.2827570000 114.2335300000,22.2827260000 114.2336390000,22.2826870000 114.2337690000,22.2826310000 114.2339410000,22.2825410000 114.2340650000,22.2824680000 114.2342450000,22.2823430000 114.2343940000,22.2822240000 114.2344850000,22.2821390000 114.2345960000,22.2820270000 114.2347550000,22.2818300000 114.2349220000,22.2815870000 114.2349950000,22.2814670000 114.2351760000,22.2811350000 114.2352730000,22.2809770000 114.2354100000,22.2807870000 114.2355000000,22.2806650000 114.2359260000,22.2800860000 114.2360840000,22.2798690000 114.2361770000,22.2797450000 114.2363150000,22.2795400000 114.2363990000,22.2794150000 114.2364910000,22.2792560000 114.2365360000,22.2791650000 114.2365860000,22.2790520000 114.2366270000,22.2789410000 114.2366600000,22.2788280000 114.2366730000,22.2787680000 114.2367000000,22.2786580000 114.2367090000,22.2786230000 114.2367190000,22.2785830000 114.2367290000,22.2785440000 114.2368860000,22.2779410000 114.2369140000,22.2778420000 114.2369490000,22.2777280000 114.2369920000,22.2776060000 114.2370430000,22.2774730000 114.2371080000,22.2773270000 114.2371880000,22.2771640000 114.2373350000,22.2769080000 114.2375000000,22.2766770000 114.2388040000,22.2751210000 114.2390540000,22.2747850000 114.2392060000,22.2745190000 114.2393160000,22.2742690000 114.2393840000,22.2740700000 114.2394400000,22.2738550000 114.2394720000,22.2736770000 114.2394930000,22.2734740000 114.2394940000,22.2732460000 114.2394770000,22.2730170000 114.2394400000,22.2727910000 114.2393280000,22.2723540000 114.2391680000,22.2719100000 114.2387840000,22.2707470000 114.2387460000,22.2705900000 114.2387310000,22.2705030000 114.2387230000,22.2704230000 114.2387210000,22.2703330000 114.2387270000,22.2702400000 114.2387560000,22.2701000000 114.2388060000,22.2699710000 114.2388450000,22.2698950000 114.2389010000,22.2698090000 114.2389570000,22.2697420000 114.2390160000,22.2696830000 114.2390820000,22.2696250000 114.2391540000,22.2695710000 114.2393490000,22.2694660000 114.2395560000,22.2693690000 114.2396840000,22.2694030000 114.2397650000,22.2694320000 114.2398660000,22.2694910000 114.2399680000,22.2695910000 114.2400400000,22.2697050000 114.2401190000,22.2698460000 114.2402200000,22.2700220000 114.2402460000,22.2700690000 114.2402910000,22.2701490000 114.2403530000,22.2702650000 114.2403790000,22.2703150000 114.2406900000,22.2709730000 114.2408000000,22.2710900000 114.2408290000,22.2711600000 114.2410890000,22.2717740000 114.2412820000,22.2722380000 114.2414130000,22.2726530000 114.2414610000,22.2729170000 114.2414890000,22.2732080000 114.2414980000,22.2736650000 114.2414900000,22.2739670000 114.2414950000,22.2744050000 114.2414960000,22.2744460000 114.2414970000,22.2745570000 114.2413610000,22.2746660000 114.2412520000,22.2747540000 114.2411900000,22.2748880000 114.2411170000,22.2750470000 114.2410840000,22.2751420000 114.2410770000,22.2752060000 114.2410770000,22.2752060000 114.2411570000,22.2754690000 114.2411940000,22.2755570000 114.2411940000,22.2755720000 114.2411950000,22.2755820000 114.2411970000,22.2756480000 114.2413040000,22.2754630000 114.2414090000,22.2752090000 114.2414400000,22.2750960000 114.2414670000,22.2749260000 114.2414890000,22.2747380000 114.2414940000,22.2746370000 114.2414970000,22.2745570000 114.2414960000,22.2744460000 114.2414950000,22.2744050000 114.2414900000,22.2739670000 114.2414980000,22.2736650000 114.2414890000,22.2732080000 114.2414610000,22.2729170000 114.2414130000,22.2726530000 114.2412820000,22.2722380000 114.2410890000,22.2717740000 114.2408290000,22.2711600000 114.2408000000,22.2710900000 114.2407810000,22.2709370000 114.2405810000,22.2704850000 114.2404840000,22.2702790000 114.2404600000,22.2702290000 114.2404020000,22.2701060000 114.2403360000,22.2699710000 114.2401390000,22.2695720000 114.2401150000,22.2694940000 114.2401070000,22.2694150000 114.2401140000,22.2693430000 114.2401280000,22.2692880000 114.2401460000,22.2692430000 114.2401680000,22.2692020000 114.2402180000,22.2691350000 114.2403010000,22.2690550000 114.2403950000,22.2689720000 114.2409050000,22.2687450000 114.2413990000,22.2685270000 114.2414770000,22.2684870000 114.2415490000,22.2684420000 114.2416210000,22.2683920000 114.2417440000,22.2682910000 114.2418170000,22.2682180000 114.2423070000,22.2676280000 114.2426820000,22.2671710000 114.2427390000,22.2671000000 114.2428080000,22.2670000000 114.2431070000,22.2665200000 114.2431860000,22.2663800000 114.2432320000,22.2663050000 114.2432580000,22.2662660000 114.2433210000,22.2661860000 114.2434650000,22.2660400000 114.2435860000,22.2659580000 114.2437200000,22.2658920000 114.2439200000,22.2658210000 114.2441220000,22.2657760000 114.2442580000,22.2657640000 114.2443920000,22.2657650000 114.2445640000,22.2657840000 114.2446780000,22.2658060000 114.2450480000,22.2658850000 114.2451570000,22.2659060000 114.2452690000,22.2659240000 114.2453750000,22.2659370000 114.2454740000,22.2659430000 114.2456320000,22.2659460000 114.2457800000,22.2659400000 114.2460000000,22.2659200000 114.2461500000,22.2659000000 114.2462900000,22.2658700000 114.2465210000,22.2657970000 114.2465730000,22.2657960000 114.2466070000,22.2657940000 114.2466450000,22.2657990000 114.2466810000,22.2658070000 114.2467100000,22.2658190000 114.2467440000,22.2658410000 114.2467710000,22.2658670000 114.2467970000,22.2659020000 114.2468220000,22.2659450000 114.2468600000,22.2660630000 114.2468480000,22.2665550000 114.2468460000,22.2666590000 114.2468460000,22.2667430000 114.2469380000,22.2667420000 114.2470000000,22.2667410000 114.2470180000,22.2667400000 114.2470680000,22.2666990000 114.2471160000,22.2666970000 114.2474430000,22.2667080000 114.2475990000,22.2666980000 114.2477540000,22.2667160000 114.2478230000,22.2667010000 114.2480400000,22.2666500000 114.2494280000,22.2662880000 114.2495250000,22.2662610000 114.2496040000,22.2662350000 114.2496980000,22.2662030000 114.2497690000,22.2661770000 114.2498340000,22.2661510000 114.2498930000,22.2661260000 114.2499350000,22.2661210000 114.2499760000,22.2661210000 114.2500110000,22.2661260000 114.2500410000,22.2661310000 114.2500750000,22.2661420000 114.2501010000,22.2661520000 114.2501260000,22.2661670000 114.2501640000,22.2661990000 114.2506510000,22.2666490000 114.2506840000,22.2666740000 114.2507100000,22.2666850000 114.2507330000,22.2666940000 114.2507590000,22.2666990000 114.2508690000,22.2667080000 114.2508890000,22.2667070000 114.2509050000,22.2667030000 114.2509210000,22.2666970000 114.2509470000,22.2666790000 114.2511500000,22.2664930000 114.2511610000,22.2664830000 114.2514290000,22.2662390000 114.2514430000,22.2662180000 114.2514530000,22.2661990000 114.2514570000,22.2661820000 114.2514600000,22.2660920000 114.2514570000,22.2660690000 114.2514520000,22.2660490000 114.2514400000,22.2660290000 114.2511060000,22.2657150000 114.2510690000,22.2656880000 114.2510540000,22.2656810000 114.2510380000,22.2656790000 114.2510230000,22.2656800000 114.2510020000,22.2656840000 114.2509790000,22.2656920000 114.2509300000,22.2657170000 114.2509070000,22.2657280000 114.2508840000,22.2657430000 114.2508650000,22.2657640000 114.2508550000,22.2657810000 114.2508470000,22.2658020000 114.2508450000,22.2658370000 114.2508390000,22.2658630000 114.2508300000,22.2658830000 114.2508140000,22.2659040000 114.2507920000,22.2659280000 114.2507400000,22.2659740000 114.2507170000,22.2659870000 114.2506940000,22.2659900000 114.2506660000,22.2659890000 114.2506380000,22.2659780000 114.2506050000,22.2659550000 114.2505450000,22.2659040000 114.2505260000,22.2658840000 114.2505030000,22.2658570000 114.2504630000,22.2658080000 114.2504010000,22.2657440000 114.2503300000,22.2657950000 114.2502640000,22.2658370000 114.2502260000,22.2658690000 114.2500270000,22.2659740000 114.2498320000,22.2660670000 114.2496980000,22.2661200000 114.2495730000,22.2661640000 114.2494490000,22.2662020000 114.2491080000,22.2662900000 114.2484590000,22.2664580000 114.2479290000,22.2665950000 114.2478140000,22.2666250000 114.2477610000,22.2666380000 114.2475990000,22.2666980000 114.2474430000,22.2667080000 114.2471160000,22.2666970000 114.2470680000,22.2666990000 114.2470280000,22.2666640000 114.2470050000,22.2666620000 114.2469400000,22.2666600000 114.2469430000,22.2665570000 114.2469470000,22.2663990000 114.2469580000,22.2660040000 114.2469490000,22.2659010000 114.2469400000,22.2658570000 114.2469300000,22.2658210000 114.2469160000,22.2657820000 114.2468970000,22.2657430000 114.2468550000,22.2656570000 114.2468110000,22.2655690000 114.2467400000,22.2656020000 114.2465200000,22.2656900000 114.2463470000,22.2657440000 114.2462070000,22.2657810000 114.2460540000,22.2658140000 114.2459480000,22.2658310000 114.2457940000,22.2658440000 114.2457140000,22.2658470000 114.2456390000,22.2658500000 114.2455640000,22.2658500000 114.2454900000,22.2658460000 114.2453610000,22.2658340000 114.2452350000,22.2658200000 114.2450700000,22.2657900000 114.2449990000,22.2657750000 114.2447460000,22.2657200000 114.2447000000,22.2657100000 114.2445830000,22.2656860000 114.2444610000,22.2656650000 114.2443480000,22.2656500000 114.2442310000,22.2656440000 114.2441230000,22.2656460000 114.2440380000,22.2656630000 114.2438460000,22.2657250000 114.2437370000,22.2657690000 114.2436300000,22.2658190000 114.2435560000,22.2658600000 114.2434760000,22.2659120000 114.2434170000,22.2659560000 114.2433600000,22.2660040000 114.2432490000,22.2661100000 114.2431150000,22.2662910000 114.2426740000,22.2669910000 114.2420360000,22.2677890000 114.2417570000,22.2680890000 114.2416930000,22.2681530000 114.2415340000,22.2682790000 114.2413910000,22.2683650000 114.2410990000,22.2685190000 114.2408070000,22.2686470000 114.2398400000,22.2690690000 114.2397860000,22.2690900000 114.2395950000,22.2690920000 114.2394650000,22.2690060000 114.2392870000,22.2686790000 114.2391310000,22.2686130000 114.2389260000,22.2685970000 114.2388460000,22.2686320000 114.2386290000,22.2687430000 114.2385300000,22.2688420000 114.2384580000,22.2689600000 114.2384250000,22.2690920000 114.2384320000,22.2692400000 114.2385490000,22.2695210000 114.2388580000,22.2701210000 114.2389780000,22.2702620000 114.2390430000,22.2703170000 114.2391310000,22.2703750000 114.2391960000,22.2704060000 114.2392490000,22.2704240000 114.2393360000,22.2704470000 114.2394060000,22.2704510000 114.2394660000,22.2704570000 114.2395360000,22.2704540000 114.2396060000,22.2704430000 114.2396260000,22.2704370000 114.2396630000,22.2704250000 114.2400230000,22.2702520000 114.2401390000,22.2702080000 114.2401930000,22.2701860000 114.2402910000,22.2701490000 114.2403530000,22.2702650000 114.2403790000,22.2703150000 114.2406900000,22.2709730000 114.2408000000,22.2710900000 114.2408290000,22.2711600000 114.2410890000,22.2717740000 114.2412820000,22.2722380000 114.2414130000,22.2726530000 114.2414610000,22.2729170000 114.2414890000,22.2732080000 114.2414980000,22.2736650000 114.2414900000,22.2739670000 114.2414950000,22.2744050000 114.2414960000,22.2744460000 114.2414970000,22.2745570000 114.2414940000,22.2746370000 114.2414890000,22.2747380000 114.2414670000,22.2749260000 114.2414400000,22.2750960000 114.2414090000,22.2752090000 114.2413040000,22.2754630000 114.2411970000,22.2756480000 114.2411190000,22.2757630000 114.2410890000,22.2757990000 114.2410100000,22.2758940000 114.2409330000,22.2759870000 114.2408750000,22.2760570000 114.2407600000,22.2761960000 114.2407450000,22.2762140000 114.2405850000,22.2764070000 114.2404670000,22.2765800000 114.2403450000,22.2767240000 114.2402790000,22.2768180000 114.2402360000,22.2768320000 114.2402000000,22.2768570000 114.2401740000,22.2768910000 114.2401600000,22.2769310000 114.2400250000,22.2770640000 114.2398340000,22.2772340000 114.2398090000,22.2772610000 114.2397800000,22.2772930000 114.2395870000,22.2775050000 114.2395020000,22.2775980000 114.2391620000,22.2780340000 114.2390400000,22.2781900000 114.2389860000,22.2782560000 114.2387150000,22.2785930000 114.2386620000,22.2786540000 114.2386460000,22.2786730000 114.2382950000,22.2790760000 114.2382240000,22.2791270000 114.2381550000,22.2791670000 114.2381080000,22.2791910000 114.2380590000,22.2791980000 114.2380090000,22.2791990000 114.2379400000,22.2791920000 114.2378720000,22.2791810000 114.2378140000,22.2791660000 114.2377610000,22.2791480000 114.2376970000,22.2791190000 114.2375490000,22.2790350000 114.2374410000,22.2789680000 114.2373240000,22.2788850000 114.2371790000,22.2787740000 114.2370530000,22.2786650000 114.2368790000,22.2785010000 114.2367880000,22.2784010000 114.2362010000,22.2777640000 114.2361730000,22.2777300000 114.2361440000,22.2776870000 114.2361180000,22.2776370000 114.2361010000,22.2776000000 114.2360880000,22.2775640000 114.2360790000,22.2775330000 114.2360720000,22.2774980000 114.2360690000,22.2774620000 114.2360710000,22.2774310000 114.2360750000,22.2774000000 114.2360830000,22.2773710000 114.2360950000,22.2773420000 114.2361160000,22.2773050000 114.2361370000,22.2772760000 114.2361610000,22.2772500000 114.2361900000,22.2772270000 114.2362210000,22.2772070000 114.2362600000,22.2771880000 114.2363020000,22.2771710000 114.2363460000,22.2771590000 114.2363930000,22.2771520000 114.2364390000,22.2771520000 114.2364880000,22.2771590000 114.2365360000,22.2771710000 114.2365830000,22.2771900000 114.2366270000,22.2772160000 114.2366730000,22.2772550000 114.2366960000,22.2772830000 114.2367150000,22.2773120000 114.2367300000,22.2773450000 114.2367410000,22.2773800000 114.2367510000,22.2774210000 114.2367550000,22.2774570000 114.2367560000,22.2775070000 114.2367530000,22.2775470000 114.2367470000,22.2775840000 114.2365310000,22.2785040000 114.2364810000,22.2787160000 114.2363650000,22.2791430000 114.2363310000,22.2792660000 114.2358180000,22.2800200000 114.2353720000,22.2806110000 114.2352810000,22.2807320000 114.2350780000,22.2809760000 114.2349990000,22.2810520000 114.2347300000,22.2813150000 114.2346850000,22.2813650000 114.2341840000,22.2819110000 114.2340320000,22.2820830000 114.2339610000,22.2821620000 114.2338720000,22.2822490000 114.2337240000,22.2823760000 114.2336700000,22.2824180000 114.2335430000,22.2824980000 114.2334740000,22.2825340000 114.2333690000,22.2825800000 114.2332080000,22.2826370000 114.2330380000,22.2826830000 114.2330350000,22.2826220000 114.2330350000,22.2825910000 114.2330330000,22.2823750000 114.2330210000,22.2823490000 114.2330010000,22.2823250000 114.2329430000,22.2823080000 114.2327410000,22.2822420000 114.2326890000,22.2822220000 114.2326430000,22.2821920000 114.2326040000,22.2821550000 114.2325740000,22.2821120000 114.2325470000,22.2820590000 114.2325290000,22.2820330000 114.2324950000,22.2820120000 114.2324500000,22.2820070000 114.2322990000,22.2820090000 114.2315040000,22.2820180000 114.2314930000,22.2814190000 114.2314890000,22.2813420000 114.2314820000,22.2812650000 114.2314730000,22.2812050000 114.2314590000,22.2811390000 114.2314410000,22.2810690000 114.2313820000,22.2808880000 114.2313600000,22.2808120000 114.2313480000,22.2807550000 114.2313390000,22.2806940000 114.2313350000,22.2806310000 114.2313360000,22.2805590000 114.2313630000,22.2798470000 114.2313860000,22.2792430000 114.2313950000,22.2789980000 114.2314050000,22.2787400000 114.2314150000,22.2784650000 114.2314540000,22.2774430000 114.2314530000,22.2773890000 114.2314500000,22.2773370000 114.2314420000,22.2772920000 114.2314300000,22.2772530000 114.2314290000,22.2772510000 114.2314140000,22.2772070000 114.2312460000,22.2767640000 114.2312310000,22.2767200000 114.2312170000,22.2766670000 114.2311620000,22.2764030000 114.2311250000,22.2762280000 114.2311130000,22.2761470000 114.2311060000,22.2761010000 114.2311020000,22.2760560000 114.2310980000,22.2760090000 114.2310970000,22.2759290000 114.2310910000,22.2758800000 114.2310830000,22.2758340000 114.2310700000,22.2757890000 114.2310560000,22.2757520000 114.2310400000,22.2757150000 114.2310190000,22.2756770000 114.2309950000,22.2756400000 114.2309410000,22.2755780000 114.2309000000,22.2755490000 114.2308440000,22.2755120000 114.2307200000,22.2754320000 114.2306700000,22.2755010000 114.2306300000,22.2755430000 114.2305830000,22.2755860000 114.2305400000,22.2756170000 114.2304980000,22.2756410000 114.2304190000,22.2756700000 114.2303270000,22.2756930000 114.2301860000,22.2757220000 114.2300870000,22.2757470000 114.2299330000,22.2757980000 114.2297940000,22.2758640000 114.2296620000,22.2759370000 114.2295030000,22.2760640000 114.2293760000,22.2761510000 114.2293030000,22.2761800000 114.2292260000,22.2762160000 114.2290630000,22.2762980000 114.2289140000,22.2763690000 114.2284010000,22.2765950000 114.2283210000,22.2766350000 114.2282390000,22.2767080000 114.2282100000,22.2767320000 114.2280320000,22.2769380000 114.2280120000,22.2769520000 114.2278120000,22.2771210000 114.2272170000,22.2774260000 114.2271020000,22.2774880000 114.2270670000,22.2775080000 114.2270000000,22.2775590000 114.2269410000,22.2776260000 114.2269050000,22.2776770000 114.2265440000,22.2782660000 114.2264770000,22.2782310000 114.2258150000,22.2778840000 114.2261350000,22.2772840000 114.2264440000,22.2767300000 114.2264970000,22.2766290000 114.2265310000,22.2765210000 114.2265450000,22.2764090000 114.2265380000,22.2762970000 114.2265120000,22.2761880000 114.2264660000,22.2760840000 114.2264020000,22.2759880000 114.2263220000,22.2759040000 114.2262500000,22.2758360000 114.2262120000,22.2758010000 114.2259880000,22.2756550000 114.2258660000,22.2755990000 114.2257380000,22.2755580000 114.2256050000,22.2755320000 114.2254690000,22.2755210000 114.2253340000,22.2755260000 114.2251990000,22.2755470000 114.2250690000,22.2755830000 114.2249450000,22.2756330000 114.2248670000,22.2756830000 114.2247870000,22.2757420000 114.2246690000,22.2758460000 114.2245940000,22.2759270000 114.2245270000,22.2760110000 114.2240730000,22.2766150000 114.2239530000,22.2767740000 114.2237760000,22.2770100000 114.2235780000,22.2772730000 114.2234000000,22.2775100000 114.2232270000,22.2777400000 114.2229610000,22.2780950000 114.2228310000,22.2782670000 114.2225930000,22.2785830000 114.2225580000,22.2786280000 114.2224680000,22.2787440000 114.2223960000,22.2788260000 114.2223140000,22.2789120000 114.2222170000,22.2789970000 114.2221050000,22.2790740000 114.2219900000,22.2791410000 114.2218680000,22.2791960000 114.2217470000,22.2792410000 114.2216490000,22.2792680000 114.2215490000,22.2792900000 114.2214500000,22.2793030000 114.2213570000,22.2793070000 114.2212660000,22.2793050000 114.2211810000,22.2792970000 114.2211010000,22.2792810000 114.2210200000,22.2792610000 114.2207330000,22.2791700000 114.2205760000,22.2791210000 114.2203930000,22.2790630000 114.2203200000,22.2790400000 114.2200680000,22.2789580000 114.2194120000,22.2788070000 114.2192740000,22.2787860000 114.2191590000,22.2787800000 114.2190220000,22.2787900000 114.2188860000,22.2788200000 114.2187760000,22.2788690000 114.2186700000,22.2789420000 114.2185720000,22.2790330000 114.2184900000,22.2791310000 114.2184290000,22.2792050000 114.2183880000,22.2792620000 114.2180700000,22.2797380000 114.2180390000,22.2797840000 114.2180100000,22.2798320000 114.2179850000,22.2798820000 114.2179550000,22.2799640000 114.2179350000,22.2800510000 114.2179240000,22.2801330000 114.2179210000,22.2801940000 114.2179250000,22.2802730000 114.2179350000,22.2803440000 114.2179500000,22.2804150000 114.2179740000,22.2804870000 114.2180050000,22.2805570000 114.2180420000,22.2806250000 114.2180850000,22.2806910000 114.2181690000,22.2807920000 114.2182200000,22.2808370000 114.2182870000,22.2808860000 114.2183540000,22.2809270000 114.2184190000,22.2809590000 114.2184760000,22.2809830000 114.2185300000,22.2810020000 114.2186890000,22.2810590000 114.2187560000,22.2810730000 114.2188080000,22.2810860000 114.2188540000,22.2810900000 114.2189000000,22.2810900000 114.2190000000,22.2810750000 114.2191000000,22.2810450000 114.2191900000,22.2810150000 114.2193400000,22.2809500000 114.2194200000,22.2809000000 114.2195400000,22.2808000000 114.2196300000,22.2807000000 114.2196900000,22.2806100000 114.2197400000,22.2805100000 114.2198000000,22.2804000000 114.2198400000,22.2803200000 114.2199100000,22.2802000000 114.2199790000,22.2801000000 114.2200460000,22.2800140000 114.2200750000,22.2799830000 114.2201060000,22.2799570000 114.2201450000,22.2799290000 114.2201870000,22.2799050000 114.2202330000,22.2798850000 114.2202840000,22.2798680000 114.2203350000,22.2798560000 114.2203770000,22.2798520000 114.2204200000,22.2798500000 114.2204650000,22.2798510000 114.2205090000,22.2798580000 114.2205530000,22.2798680000 114.2206000000,22.2798830000 114.2206370000,22.2798990000 114.2206700000,22.2799160000 114.2207010000,22.2799360000 114.2207320000,22.2799620000 114.2207590000,22.2799890000 114.2207880000,22.2800220000 114.2208310000,22.2800830000 114.2208640000,22.2801580000 114.2208800000,22.2802320000 114.2208800000,22.2803320000 114.2208720000,22.2803840000 114.2208590000,22.2804370000 114.2208370000,22.2804940000 114.2208140000,22.2805430000 114.2207930000,22.2805820000 114.2207700000,22.2806160000 114.2206180000,22.2808160000 114.2206080000,22.2808300000 114.2205920000,22.2808530000 114.2205680000,22.2808930000 114.2205430000,22.2809400000 114.2205180000,22.2809940000 114.2204930000,22.2810660000 114.2204850000,22.2811170000 114.2204770000,22.2812540000 114.2204780000,22.2813210000 114.2204800000,22.2813480000 114.2205420000,22.2817920000 114.2205200000,22.2819500000 114.2204080000,22.2822400000 114.2203470000,22.2823170000 114.2207770000,22.2826090000 114.2209860000,22.2827500000 114.2211510000,22.2828620000 114.2212030000,22.2828980000 114.2212480000,22.2829300000 114.2212680000,22.2829440000 114.2213170000,22.2829780000 114.2213770000,22.2830200000 114.2215850000,22.2831620000 114.2216600000,22.2832130000 114.2218290000,22.2833290000 114.2218720000,22.2833580000 114.2219410000,22.2834050000 114.2219920000,22.2834400000 114.2221230000,22.2835410000 114.2221380000,22.2835530000 114.2221560000,22.2835670000 114.2221720000,22.2835790000 114.2222160000,22.2836120000 114.2222670000,22.2836510000 114.2223560000,22.2837240000 114.2223700000,22.2837360000 114.2223890000,22.2837500000 114.2224780000,22.2838170000 114.2226060000,22.2839380000 114.2231380000,22.2844430000 114.2237840000,22.2850610000 114.2240400000,22.2853030000 114.2240780000,22.2852730000 114.2241100000,22.2852460000 114.2243900000,22.2851320000 114.2245540000,22.2849760000</coordinates>
                </LineString>
                <ExtendedData>
                    <Data name="duration">
                        <value>00:29:02</value>
                    </Data>
                    <Data name="length">
                        <value>17673.933516204666</value>
                    </Data>
                </ExtendedData>
            </Placemark>
        </Document>
    </Document>
</kml>