<?xml version="1.0" encoding="UTF-8"?>
<kml xmlns="http://www.opengis.net/kml/2.2" xmlns:gx="http://www.google.com/kml/ext/2.2">
    <Document>
        <name>Route</name>
        <Folder>
            <name>Route Request</name>
            <Placemark>
                <Point>
                    <coordinates>114.1496541402,22.2429766822</coordinates>
                </Point>
                <ExtendedData>
                    <Data name="routingVisited">
                        <value>false</value>
                    </Data>
                </ExtendedData>
            </Placemark>
            <Placemark>
                <Point>
                    <coordinates>114.1565024652,22.2406726200</coordinates>
                </Point>
                <ExtendedData>
                    <Data name="routingVisited">
                        <value>false</value>
                    </Data>
                </ExtendedData>
            </Placemark>
            <Placemark>
                <Point>
                    <coordinates>114.1738986162,22.2460877934</coordinates>
                </Point>
                <ExtendedData>
                    <Data name="routingVisited">
                        <value>false</value>
                    </Data>
                    <Data name="postcode">
                        <value>CHUEN FUNG 6F</value>
                    </Data>
                    <Data name="country_code">
                        <value>cn</value>
                    </Data>
                    <Data name="county">
                        <value>Wan Chai District</value>
                    </Data>
                    <Data name="country">
                        <value>PRC</value>
                    </Data>
                    <Data name="road">
                        <value>Convention Avenue</value>
                    </Data>
                    <Data name="region">
                        <value>Hong Kong Island</value>
                    </Data>
                    <Data name="bus_stop">
                        <value>Wan Chai Ferry Pier</value>
                    </Data>
                    <Data name="suburb">
                        <value>Wan Chai</value>
                    </Data>
                </ExtendedData>
            </Placemark>
            <Placemark>
                <Point>
                    <coordinates>114.2108033629,22.2865179366</coordinates>
                </Point>
                <ExtendedData>
                    <Data name="postcode">
                        <value>KINGSFIELD MANSION LEVEL B</value>
                    </Data>
                    <Data name="country_code">
                        <value>cn</value>
                    </Data>
                    <Data name="county">
                        <value>Eastern District</value>
                    </Data>
                    <Data name="country">
                        <value>PRC</value>
                    </Data>
                    <Data name="road">
                        <value>King's Road</value>
                    </Data>
                    <Data name="bank">
                        <value>Bank of Communications</value>
                    </Data>
                    <Data name="region">
                        <value>Hong Kong Island</value>
                    </Data>
                    <Data name="neighbourhood">
                        <value>Fortress Hill</value>
                    </Data>
                    <Data name="suburb">
                        <value>Quarry Bay</value>
                    </Data>
                </ExtendedData>
            </Placemark>
            <Placemark>
                <Point>
                    <coordinates>114.2184552932,22.2851029891</coordinates>
                </Point>
            </Placemark>
            <Placemark>
                <Point>
                    <coordinates>114.2245609009,22.2762821964</coordinates>
                </Point>
                <ExtendedData>
                    <Data name="postcode">
                        <value>SIL 850</value>
                    </Data>
                    <Data name="country_code">
                        <value>cn</value>
                    </Data>
                    <Data name="county">
                        <value>Eastern District</value>
                    </Data>
                    <Data name="country">
                        <value>PRC</value>
                    </Data>
                    <Data name="road">
                        <value>Yiu Hing Road</value>
                    </Data>
                    <Data name="region">
                        <value>Hong Kong Island</value>
                    </Data>
                    <Data name="building">
                        <value>Yiu Ming House</value>
                    </Data>
                    <Data name="suburb">
                        <value>Shau Kei Wan</value>
                    </Data>
                </ExtendedData>
            </Placemark>
            <Placemark>
                <Point>
                    <coordinates>114.2280931630,22.2783407376</coordinates>
                </Point>
                <ExtendedData>
                    <Data name="postcode">
                        <value>SIL 850</value>
                    </Data>
                    <Data name="country_code">
                        <value>cn</value>
                    </Data>
                    <Data name="county">
                        <value>Eastern District</value>
                    </Data>
                    <Data name="country">
                        <value>PRC</value>
                    </Data>
                    <Data name="road">
                        <value>Aldrich Street</value>
                    </Data>
                    <Data name="region">
                        <value>Hong Kong Island</value>
                    </Data>
                    <Data name="bus_station">
                        <value>Shau Kei Wan</value>
                    </Data>
                    <Data name="suburb">
                        <value>Shau Kei Wan</value>
                    </Data>
                </ExtendedData>
            </Placemark>
            <Placemark>
                <Point>
                    <coordinates>114.2227578203,22.2781414480</coordinates>
                </Point>
                <ExtendedData>
                    <Data name="routingVisited">
                        <value>false</value>
                    </Data>
                    <Data name="postcode">
                        <value>SIL 850</value>
                    </Data>
                    <Data name="convenience">
                        <value>Circle K</value>
                    </Data>
                    <Data name="country_code">
                        <value>cn</value>
                    </Data>
                    <Data name="county">
                        <value>Eastern District</value>
                    </Data>
                    <Data name="country">
                        <value>PRC</value>
                    </Data>
                    <Data name="road">
                        <value>Shau Kei Wan Road</value>
                    </Data>
                    <Data name="region">
                        <value>Hong Kong Island</value>
                    </Data>
                    <Data name="suburb">
                        <value>Shau Kei Wan</value>
                    </Data>
                </ExtendedData>
            </Placemark>
            <Placemark>
                <Point>
                    <coordinates>114.2104490045,22.2865179280</coordinates>
                </Point>
                <ExtendedData>
                    <Data name="postcode">
                        <value>KINGSFIELD MANSION LEVEL B</value>
                    </Data>
                    <Data name="country_code">
                        <value>cn</value>
                    </Data>
                    <Data name="county">
                        <value>Eastern District</value>
                    </Data>
                    <Data name="country">
                        <value>PRC</value>
                    </Data>
                    <Data name="place_of_worship">
                        <value>Yi Pak Kung temple</value>
                    </Data>
                    <Data name="road">
                        <value>King's Road</value>
                    </Data>
                    <Data name="region">
                        <value>Hong Kong Island</value>
                    </Data>
                    <Data name="neighbourhood">
                        <value>Fortress Hill</value>
                    </Data>
                    <Data name="suburb">
                        <value>Quarry Bay</value>
                    </Data>
                </ExtendedData>
            </Placemark>
            <Placemark>
                <Point>
                    <coordinates>114.1739133725,22.2460979036</coordinates>
                </Point>
                <ExtendedData>
                    <Data name="sports_centre">
                        <value>Aberdeen Sports Centre</value>
                    </Data>
                    <Data name="routingVisited">
                        <value>false</value>
                    </Data>
                    <Data name="postcode">
                        <value>RBL 561</value>
                    </Data>
                    <Data name="country_code">
                        <value>cn</value>
                    </Data>
                    <Data name="county">
                        <value>Southern District</value>
                    </Data>
                    <Data name="country">
                        <value>PRC</value>
                    </Data>
                    <Data name="road">
                        <value>Aberdeen Main Road</value>
                    </Data>
                    <Data name="region">
                        <value>Hong Kong Island</value>
                    </Data>
                    <Data name="hamlet">
                        <value>Shui Choi Tin Village</value>
                    </Data>
                    <Data name="suburb">
                        <value>Aberdeen</value>
                    </Data>
                </ExtendedData>
            </Placemark>
            <Placemark>
                <Point>
                    <coordinates>114.1565098445,22.2406862803</coordinates>
                </Point>
                <ExtendedData>
                    <Data name="routingVisited">
                        <value>false</value>
                    </Data>
                </ExtendedData>
            </Placemark>
            <Placemark>
                <Point>
                    <coordinates>114.1496541399,22.2429903425</coordinates>
                </Point>
                <ExtendedData>
                    <Data name="postcode">
                        <value>RBL 561</value>
                    </Data>
                    <Data name="country_code">
                        <value>cn</value>
                    </Data>
                    <Data name="county">
                        <value>Southern District</value>
                    </Data>
                    <Data name="country">
                        <value>PRC</value>
                    </Data>
                    <Data name="road">
                        <value>Lee Nam Road</value>
                    </Data>
                    <Data name="region">
                        <value>Hong Kong Island</value>
                    </Data>
                    <Data name="building">
                        <value>Fenton Court</value>
                    </Data>
                    <Data name="hamlet">
                        <value>Shui Choi Tin Village</value>
                    </Data>
                    <Data name="suburb">
                        <value>Ap Lei Chau</value>
                    </Data>
                </ExtendedData>
            </Placemark>
        </Folder>
        <Document>
            <name>38.3 km; 01:58 h (OSRM)</name>
            <Placemark>
                <name>Route</name>
                <LineString>
                    <coordinates>114.1499940000,22.2425520000 114.1507230000,22.2430510000 114.1510780000,22.2432900000 114.1512700000,22.2434280000 114.1513500000,22.2434860000 114.1514280000,22.2435370000 114.1514980000,22.2434950000 114.1518810000,22.2433100000 114.1519930000,22.2432670000 114.1523490000,22.2431660000 114.1524350000,22.2431400000 114.1527110000,22.2430420000 114.1529030000,22.2429620000 114.1531740000,22.2428530000 114.1535580000,22.2427180000 114.1536900000,22.2426930000 114.1539110000,22.2426940000 114.1541050000,22.2427120000 114.1543470000,22.2427850000 114.1546830000,22.2429610000 114.1548820000,22.2430610000 114.1550680000,22.2431530000 114.1552850000,22.2432650000 114.1554900000,22.2433550000 114.1557460000,22.2434680000 114.1560800000,22.2435490000 114.1563140000,22.2435760000 114.1565280000,22.2435750000 114.1567570000,22.2435640000 114.1569560000,22.2435610000 114.1570980000,22.2435820000 114.1572650000,22.2436410000 114.1573360000,22.2436920000 114.1573970000,22.2436290000 114.1574870000,22.2435620000 114.1576150000,22.2434810000 114.1576550000,22.2434660000 114.1577120000,22.2434510000 114.1577740000,22.2434430000 114.1579010000,22.2434410000 114.1579020000,22.2433790000 114.1579000000,22.2430280000 114.1579000000,22.2429900000 114.1579070000,22.2427160000 114.1579190000,22.2423810000 114.1578980000,22.2417920000 114.1578960000,22.2416750000 114.1578900000,22.2413210000 114.1578570000,22.2411870000 114.1577860000,22.2410670000 114.1576620000,22.2409610000 114.1574950000,22.2409130000 114.1572900000,22.2409200000 114.1571480000,22.2409900000 114.1570140000,22.2411520000 114.1569720000,22.2413610000 114.1569720000,22.2416970000 114.1569350000,22.2418390000 114.1568730000,22.2419240000 114.1568030000,22.2419810000 114.1566810000,22.2420160000 114.1563570000,22.2420090000 114.1562870000,22.2419440000 114.1562190000,22.2418710000 114.1561740000,22.2417870000 114.1562110000,22.2412030000 114.1562240000,22.2411490000 114.1562430000,22.2411080000 114.1562720000,22.2410730000 114.1563660000,22.2409630000 114.1563720000,22.2407620000 114.1563720000,22.2407620000 114.1562030000,22.2406930000 114.1560940000,22.2406650000 114.1560080000,22.2406560000 114.1559120000,22.2406410000 114.1556660000,22.2406340000 114.1551370000,22.2406400000 114.1550660000,22.2406590000 114.1549800000,22.2406990000 114.1549490000,22.2407290000 114.1549250000,22.2407840000 114.1548980000,22.2410030000 114.1548960000,22.2413420000 114.1548950000,22.2414040000 114.1548810000,22.2417730000 114.1549720000,22.2418970000 114.1550850000,22.2420070000 114.1559140000,22.2420180000 114.1561410000,22.2420100000 114.1563570000,22.2420090000 114.1566810000,22.2420160000 114.1568030000,22.2419810000 114.1568730000,22.2419240000 114.1569350000,22.2418390000 114.1569720000,22.2416970000 114.1569720000,22.2413610000 114.1570140000,22.2411520000 114.1571480000,22.2409900000 114.1572900000,22.2409200000 114.1574950000,22.2409130000 114.1576620000,22.2409610000 114.1577860000,22.2410670000 114.1578570000,22.2411870000 114.1578900000,22.2413210000 114.1578960000,22.2416750000 114.1578980000,22.2417920000 114.1579190000,22.2423810000 114.1579070000,22.2427160000 114.1579000000,22.2429900000 114.1579000000,22.2430280000 114.1579020000,22.2433790000 114.1577730000,22.2433810000 114.1576890000,22.2433880000 114.1575920000,22.2434050000 114.1575250000,22.2434290000 114.1574230000,22.2434900000 114.1573220000,22.2435780000 114.1572650000,22.2436410000 114.1573360000,22.2436920000 114.1574710000,22.2438570000 114.1575520000,22.2439590000 114.1576940000,22.2441480000 114.1577800000,22.2442430000 114.1578860000,22.2443300000 114.1580560000,22.2444470000 114.1583320000,22.2445710000 114.1585940000,22.2446790000 114.1588390000,22.2448080000 114.1589010000,22.2448560000 114.1603470000,22.2462090000 114.1607350000,22.2465660000 114.1607970000,22.2466350000 114.1608470000,22.2466970000 114.1608920000,22.2467650000 114.1609300000,22.2468370000 114.1609650000,22.2469210000 114.1609910000,22.2470020000 114.1610080000,22.2470640000 114.1610170000,22.2471360000 114.1610210000,22.2472310000 114.1610210000,22.2474080000 114.1609800000,22.2475310000 114.1605540000,22.2484070000 114.1605120000,22.2484900000 114.1604620000,22.2485560000 114.1604050000,22.2485940000 114.1603330000,22.2486140000 114.1602770000,22.2486190000 114.1602360000,22.2486190000 114.1601890000,22.2486050000 114.1601380000,22.2485710000 114.1601000000,22.2485230000 114.1600810000,22.2484690000 114.1600850000,22.2484030000 114.1601050000,22.2483380000 114.1601420000,22.2483000000 114.1601770000,22.2482750000 114.1602230000,22.2482600000 114.1602730000,22.2482480000 114.1603250000,22.2482460000 114.1604140000,22.2482480000 114.1611610000,22.2485280000 114.1612110000,22.2485450000 114.1613720000,22.2485980000 114.1615660000,22.2486490000 114.1617500000,22.2486790000 114.1619530000,22.2486880000 114.1621460000,22.2486840000 114.1629390000,22.2486130000 114.1638150000,22.2484770000 114.1643440000,22.2484040000 114.1649300000,22.2483410000 114.1650680000,22.2483380000 114.1652230000,22.2483460000 114.1654800000,22.2483820000 114.1656800000,22.2484140000 114.1658270000,22.2484500000 114.1660310000,22.2485080000 114.1661880000,22.2485680000 114.1664370000,22.2486740000 114.1669820000,22.2489320000 114.1675400000,22.2492070000 114.1692040000,22.2500270000 114.1694480000,22.2501510000 114.1695660000,22.2502050000 114.1696810000,22.2502530000 114.1698520000,22.2503160000 114.1701600000,22.2505180000 114.1701910000,22.2505490000 114.1702200000,22.2505810000 114.1702600000,22.2506300000 114.1702930000,22.2506770000 114.1703180000,22.2507200000 114.1704100000,22.2509200000 114.1704300000,22.2509600000 114.1704600000,22.2510100000 114.1705000000,22.2510600000 114.1705500000,22.2511010000 114.1706000000,22.2511370000 114.1706500000,22.2511620000 114.1706900000,22.2511720000 114.1707700000,22.2511850000 114.1708200000,22.2511800000 114.1708650000,22.2511700000 114.1709300000,22.2511500000 114.1709700000,22.2511300000 114.1710300000,22.2510700000 114.1710810000,22.2510020000 114.1711120000,22.2509300000 114.1711270000,22.2508600000 114.1711360000,22.2507770000 114.1711110000,22.2495200000 114.1711100000,22.2493160000 114.1711240000,22.2492340000 114.1711110000,22.2490010000 114.1711280000,22.2488990000 114.1711490000,22.2488230000 114.1711990000,22.2487100000 114.1712360000,22.2486250000 114.1712560000,22.2485980000 114.1712670000,22.2485660000 114.1712680000,22.2485330000 114.1713680000,22.2485100000 114.1714840000,22.2484890000 114.1716470000,22.2484700000 114.1721410000,22.2484320000 114.1724980000,22.2483940000 114.1728120000,22.2483330000 114.1735320000,22.2481570000 114.1736800000,22.2481820000 114.1736970000,22.2481970000 114.1737180000,22.2482070000 114.1737410000,22.2482120000 114.1737710000,22.2482100000 114.1737990000,22.2481980000 114.1738200000,22.2481790000 114.1738340000,22.2481550000 114.1738380000,22.2481280000 114.1738320000,22.2481010000 114.1738180000,22.2480770000 114.1737950000,22.2480590000 114.1738080000,22.2480310000 114.1738210000,22.2480090000 114.1738520000,22.2479530000 114.1738920000,22.2478580000 114.1738870000,22.2477510000 114.1738800000,22.2475640000 114.1738820000,22.2474230000 114.1738850000,22.2472370000 114.1738860000,22.2471650000 114.1738870000,22.2470560000 114.1738900000,22.2468740000 114.1738930000,22.2467480000 114.1738930000,22.2467000000 114.1739030000,22.2465840000 114.1739090000,22.2465120000 114.1739130000,22.2464550000 114.1739130000,22.2464180000 114.1739400000,22.2463620000 114.1739180000,22.2463800000 114.1738910000,22.2463890000 114.1738650000,22.2463890000 114.1738380000,22.2463810000 114.1738150000,22.2463650000 114.1738020000,22.2463460000 114.1737940000,22.2463210000 114.1737970000,22.2462950000 114.1738100000,22.2462680000 114.1738310000,22.2462500000 114.1738580000,22.2462400000 114.1738810000,22.2462380000 114.1739090000,22.2462440000 114.1739330000,22.2462590000 114.1739140000,22.2462180000 114.1738770000,22.2461790000 114.1738480000,22.2461510000 114.1739160000,22.2461150000 114.1739240000,22.2461110000 114.1740040000,22.2461010000 114.1740760000,22.2461400000 114.1741010000,22.2462180000 114.1741040000,22.2467600000 114.1741160000,22.2475290000 114.1742640000,22.2477720000 114.1742970000,22.2478250000 114.1744310000,22.2480630000 114.1744370000,22.2481230000 114.1744370000,22.2481810000 114.1744170000,22.2482520000 114.1743630000,22.2483340000 114.1742870000,22.2483750000 114.1738690000,22.2481680000 114.1738380000,22.2481280000 114.1738320000,22.2481010000 114.1738180000,22.2480770000 114.1737950000,22.2480590000 114.1737690000,22.2480490000 114.1737400000,22.2480480000 114.1737130000,22.2480540000 114.1736890000,22.2480690000 114.1736710000,22.2480890000 114.1735320000,22.2481570000 114.1728120000,22.2483330000 114.1724980000,22.2483940000 114.1721410000,22.2484320000 114.1716470000,22.2484700000 114.1714840000,22.2484890000 114.1713680000,22.2485100000 114.1712680000,22.2485330000 114.1712570000,22.2484960000 114.1712330000,22.2484650000 114.1712000000,22.2484420000 114.1711600000,22.2484300000 114.1711190000,22.2484310000 114.1710840000,22.2484420000 114.1710540000,22.2484620000 114.1710320000,22.2484890000 114.1710190000,22.2485210000 114.1710160000,22.2485550000 114.1710240000,22.2485880000 114.1710430000,22.2486180000 114.1710690000,22.2486410000 114.1710660000,22.2487110000 114.1710340000,22.2488160000 114.1710150000,22.2488930000 114.1710100000,22.2489850000 114.1710200000,22.2492110000 114.1710590000,22.2493040000 114.1710690000,22.2495170000 114.1710920000,22.2507770000 114.1710750000,22.2508620000 114.1710530000,22.2509270000 114.1710290000,22.2509740000 114.1709900000,22.2510300000 114.1709500000,22.2510610000 114.1709100000,22.2510790000 114.1708500000,22.2511000000 114.1708000000,22.2511080000 114.1707500000,22.2511080000 114.1707050000,22.2511000000 114.1706600000,22.2510800000 114.1706200000,22.2510580000 114.1705800000,22.2510250000 114.1705450000,22.2509800000 114.1705200000,22.2509280000 114.1705100000,22.2508800000 114.1705100000,22.2508200000 114.1705200000,22.2507800000 114.1705400000,22.2507350000 114.1705800000,22.2506900000 114.1706220000,22.2506500000 114.1706700000,22.2506170000 114.1707230000,22.2505900000 114.1710520000,22.2505590000 114.1712070000,22.2505640000 114.1713720000,22.2505630000 114.1714860000,22.2505550000 114.1716430000,22.2505410000 114.1718350000,22.2505070000 114.1728290000,22.2502770000 114.1740970000,22.2500090000 114.1745860000,22.2499280000 114.1750090000,22.2498870000 114.1753280000,22.2498830000 114.1755490000,22.2498950000 114.1757820000,22.2499120000 114.1760340000,22.2499340000 114.1761950000,22.2499740000 114.1764750000,22.2500620000 114.1766880000,22.2501520000 114.1770180000,22.2503320000 114.1773330000,22.2505690000 114.1774910000,22.2507320000 114.1776460000,22.2509500000 114.1780060000,22.2515280000 114.1780440000,22.2515900000 114.1782310000,22.2518910000 114.1785930000,22.2524730000 114.1791240000,22.2533270000 114.1792610000,22.2535740000 114.1793690000,22.2537830000 114.1794600000,22.2539900000 114.1795500000,22.2542100000 114.1796300000,22.2544200000 114.1796800000,22.2545700000 114.1797300000,22.2547500000 114.1797660000,22.2549200000 114.1797900000,22.2551000000 114.1798100000,22.2552900000 114.1798200000,22.2554200000 114.1804190000,22.2697400000 114.1804200000,22.2700300000 114.1804100000,22.2703000000 114.1803900000,22.2705480000 114.1803500000,22.2708000000 114.1802930000,22.2711630000 114.1802610000,22.2713610000 114.1802310000,22.2714790000 114.1802010000,22.2715830000 114.1801400000,22.2717640000 114.1800710000,22.2719570000 114.1794830000,22.2735410000 114.1794490000,22.2736720000 114.1794210000,22.2738100000 114.1794140000,22.2740100000 114.1794250000,22.2741760000 114.1794370000,22.2743080000 114.1794680000,22.2744360000 114.1795100000,22.2745830000 114.1795570000,22.2746880000 114.1797060000,22.2749470000 114.1798050000,22.2750750000 114.1799140000,22.2751900000 114.1802720000,22.2755450000 114.1807610000,22.2760690000 114.1809280000,22.2762880000 114.1809700000,22.2763640000 114.1810010000,22.2764500000 114.1810240000,22.2765380000 114.1810440000,22.2766020000 114.1810900000,22.2767750000 114.1811220000,22.2769260000 114.1811460000,22.2771260000 114.1811740000,22.2773900000 114.1811790000,22.2775000000 114.1811850000,22.2776310000 114.1812330000,22.2789020000 114.1812330000,22.2790090000 114.1812330000,22.2791340000 114.1812280000,22.2792110000 114.1812200000,22.2792530000 114.1808490000,22.2801620000 114.1807360000,22.2804450000 114.1806280000,22.2806710000 114.1805790000,22.2807400000 114.1805000000,22.2808400000 114.1804200000,22.2809300000 114.1801850000,22.2811000000 114.1801520000,22.2811300000 114.1801180000,22.2811700000 114.1800880000,22.2812100000 114.1800600000,22.2812520000 114.1800340000,22.2813260000 114.1800140000,22.2814400000 114.1800150000,22.2815230000 114.1800300000,22.2815710000 114.1800420000,22.2816020000 114.1800790000,22.2816750000 114.1801270000,22.2817430000 114.1802510000,22.2818510000 114.1803510000,22.2819180000 114.1804800000,22.2819790000 114.1806300000,22.2820300000 114.1807700000,22.2820700000 114.1809190000,22.2821070000 114.1810570000,22.2821270000 114.1812740000,22.2821190000 114.1817450000,22.2819910000 114.1820100000,22.2818840000 114.1821610000,22.2818560000 114.1823250000,22.2818750000 114.1825120000,22.2819370000 114.1828270000,22.2820440000 114.1835090000,22.2822820000 114.1838660000,22.2824360000 114.1840860000,22.2825590000 114.1842650000,22.2826710000 114.1844720000,22.2828070000 114.1849760000,22.2832270000 114.1852740000,22.2834880000 114.1855510000,22.2836890000 114.1857090000,22.2837860000 114.1857710000,22.2838200000 114.1858560000,22.2838560000 114.1862660000,22.2839850000 114.1864320000,22.2840370000 114.1870730000,22.2841750000 114.1872160000,22.2842060000 114.1873970000,22.2842430000 114.1875770000,22.2842870000 114.1877780000,22.2843340000 114.1879700000,22.2843900000 114.1881000000,22.2844400000 114.1882040000,22.2844860000 114.1883100000,22.2845400000 114.1884130000,22.2845970000 114.1885300000,22.2846700000 114.1886410000,22.2847590000 114.1887500000,22.2848600000 114.1888430000,22.2849570000 114.1889280000,22.2850720000 114.1889930000,22.2851900000 114.1890600000,22.2853300000 114.1891100000,22.2854500000 114.1891600000,22.2856300000 114.1891900000,22.2857900000 114.1892190000,22.2860100000 114.1892300000,22.2862100000 114.1892400000,22.2864700000 114.1892500000,22.2866700000 114.1892800000,22.2869000000 114.1893300000,22.2871200000 114.1893900000,22.2872700000 114.1894800000,22.2874700000 114.1899600000,22.2884400000 114.1902500000,22.2889500000 114.1904500000,22.2892800000 114.1905900000,22.2894800000 114.1907500000,22.2896800000 114.1910500000,22.2900000000 114.1913500000,22.2902800000 114.1921570000,22.2909910000 114.1925530000,22.2913100000 114.1930300000,22.2917050000 114.1934560000,22.2920410000 114.1936690000,22.2922020000 114.1940930000,22.2925110000 114.1943680000,22.2926830000 114.1946640000,22.2928270000 114.1949980000,22.2929280000 114.1953540000,22.2929900000 114.1955810000,22.2930280000 114.1974960000,22.2934010000 114.1979200000,22.2934800000 114.1981920000,22.2935260000 114.1983380000,22.2935420000 114.1987100000,22.2935630000 114.1992000000,22.2935690000 114.1995900000,22.2935850000 114.1997700000,22.2936020000 114.1999500000,22.2936270000 114.2001000000,22.2936520000 114.2015930000,22.2939620000 114.2028000000,22.2943380000 114.2029000000,22.2943600000 114.2031700000,22.2944100000 114.2034000000,22.2944400000 114.2035000000,22.2944470000 114.2036000000,22.2944460000 114.2036990000,22.2944350000 114.2037900000,22.2944140000 114.2038630000,22.2943910000 114.2039500000,22.2943500000 114.2040220000,22.2943000000 114.2040900000,22.2942400000 114.2041800000,22.2941400000 114.2042330000,22.2940600000 114.2042700000,22.2939710000 114.2042950000,22.2938600000 114.2043030000,22.2937500000 114.2043230000,22.2933080000 114.2043320000,22.2932240000 114.2043600000,22.2931270000 114.2044070000,22.2930560000 114.2044710000,22.2929900000 114.2045710000,22.2929300000 114.2046880000,22.2928830000 114.2048540000,22.2928320000 114.2056090000,22.2926860000 114.2062180000,22.2925820000 114.2063890000,22.2925290000 114.2072600000,22.2922590000 114.2072780000,22.2922530000 114.2073230000,22.2922390000 114.2075360000,22.2921730000 114.2077060000,22.2921200000 114.2079130000,22.2920560000 114.2084960000,22.2918750000 114.2085760000,22.2918500000 114.2086130000,22.2918390000 114.2091270000,22.2916800000 114.2092170000,22.2916080000 114.2093170000,22.2914850000 114.2093600000,22.2913560000 114.2093860000,22.2912060000 114.2093720000,22.2910910000 114.2093320000,22.2909950000 114.2092530000,22.2908290000 114.2092380000,22.2907550000 114.2092390000,22.2906830000 114.2092720000,22.2905910000 114.2093340000,22.2904190000 114.2093980000,22.2902350000 114.2095350000,22.2898200000 114.2097160000,22.2892970000 114.2098030000,22.2890460000 114.2099140000,22.2887240000 114.2101210000,22.2881060000 114.2103350000,22.2875170000 114.2103830000,22.2873990000 114.2104870000,22.2871000000 114.2105650000,22.2868790000 114.2106280000,22.2867360000 114.2106880000,22.2866200000 114.2107610000,22.2864970000 114.2107650000,22.2864890000 114.2108810000,22.2862920000 114.2111690000,22.2858190000 114.2113300000,22.2855520000 114.2114350000,22.2853600000 114.2114810000,22.2852870000 114.2115750000,22.2851720000 114.2116720000,22.2850900000 114.2117470000,22.2850390000 114.2118780000,22.2849800000 114.2121560000,22.2848700000 114.2126120000,22.2847430000 114.2130230000,22.2847280000 114.2132780000,22.2847330000 114.2135560000,22.2847400000 114.2137760000,22.2847410000 114.2142450000,22.2847470000 114.2144400000,22.2847500000 114.2146200000,22.2847500000 114.2147870000,22.2847970000 114.2148670000,22.2848540000 114.2149120000,22.2849250000 114.2149660000,22.2850130000 114.2150160000,22.2851170000 114.2150740000,22.2852570000 114.2151130000,22.2853260000 114.2151650000,22.2853940000 114.2152720000,22.2855210000 114.2154140000,22.2856640000 114.2156810000,22.2858170000 114.2158820000,22.2858670000 114.2161090000,22.2858820000 114.2161700000,22.2858750000 114.2163900000,22.2858490000 114.2165780000,22.2857910000 114.2167490000,22.2856980000 114.2169130000,22.2855980000 114.2172210000,22.2854230000 114.2179890000,22.2851260000 114.2183060000,22.2850750000 114.2183170000,22.2850730000 114.2184470000,22.2850550000 114.2187820000,22.2850100000 114.2189620000,22.2850070000 114.2190340000,22.2850000000 114.2191050000,22.2849930000 114.2192500000,22.2849710000 114.2194080000,22.2849380000 114.2195400000,22.2848940000 114.2196700000,22.2848330000 114.2198360000,22.2847360000 114.2199440000,22.2846500000 114.2200510000,22.2845460000 114.2201160000,22.2844700000 114.2202320000,22.2843170000 114.2206400000,22.2837990000 114.2209640000,22.2833900000 114.2212360000,22.2830460000 114.2213000000,22.2829670000 114.2213770000,22.2830200000 114.2218290000,22.2833290000 114.2219410000,22.2834050000 114.2219920000,22.2834400000 114.2220640000,22.2834340000 114.2221160000,22.2834150000 114.2221560000,22.2833810000 114.2222570000,22.2832540000 114.2227120000,22.2827340000 114.2227290000,22.2826900000 114.2227380000,22.2826440000 114.2227250000,22.2825950000 114.2223970000,22.2823670000 114.2222020000,22.2822340000 114.2221500000,22.2821680000 114.2220190000,22.2820590000 114.2219720000,22.2820220000 114.2219500000,22.2820050000 114.2219190000,22.2819810000 114.2218580000,22.2819390000 114.2218190000,22.2819120000 114.2215430000,22.2817240000 114.2214800000,22.2816820000 114.2212590000,22.2815320000 114.2208440000,22.2812560000 114.2207680000,22.2812020000 114.2206360000,22.2811090000 114.2206270000,22.2810600000 114.2206380000,22.2810070000 114.2206760000,22.2809390000 114.2207540000,22.2807960000 114.2208020000,22.2807130000 114.2208710000,22.2805850000 114.2209100000,22.2805000000 114.2209410000,22.2804000000 114.2209600000,22.2803000000 114.2209600000,22.2802300000 114.2209500000,22.2802000000 114.2209200000,22.2801000000 114.2208590000,22.2800000000 114.2207590000,22.2799000000 114.2207000000,22.2798700000 114.2206000000,22.2798190000 114.2205000000,22.2797950000 114.2204000000,22.2797890000 114.2203000000,22.2797980000 114.2202000000,22.2798300000 114.2201000000,22.2798820000 114.2200700000,22.2799000000 114.2199790000,22.2800000000 114.2198990000,22.2801000000 114.2198400000,22.2802000000 114.2197800000,22.2803000000 114.2197500000,22.2803760000 114.2197400000,22.2804000000 114.2196900000,22.2805000000 114.2196300000,22.2806000000 114.2195600000,22.2807000000 114.2194700000,22.2808000000 114.2193920000,22.2808610000 114.2192980000,22.2809120000 114.2192280000,22.2809450000 114.2191190000,22.2809880000 114.2190500000,22.2810090000 114.2189770000,22.2810250000 114.2189170000,22.2810300000 114.2188080000,22.2810310000 114.2185300000,22.2810020000 114.2184800000,22.2809810000 114.2184270000,22.2809570000 114.2183340000,22.2809100000 114.2182470000,22.2808580000 114.2181690000,22.2807920000 114.2180820000,22.2806930000 114.2179860000,22.2805690000 114.2179300000,22.2804250000 114.2178960000,22.2802780000 114.2178910000,22.2801310000 114.2179140000,22.2799670000 114.2179530000,22.2798700000 114.2180520000,22.2796870000 114.2182410000,22.2793870000 114.2183390000,22.2792390000 114.2184400000,22.2791150000 114.2185270000,22.2790360000 114.2186010000,22.2789790000 114.2186560000,22.2789470000 114.2187320000,22.2789100000 114.2188150000,22.2788840000 114.2189040000,22.2788640000 114.2189940000,22.2788540000 114.2190920000,22.2788460000 114.2192120000,22.2788470000 114.2193550000,22.2788670000 114.2201590000,22.2790030000 114.2206070000,22.2791060000 114.2210490000,22.2792490000 114.2212590000,22.2793070000 114.2214520000,22.2793280000 114.2215610000,22.2793110000 114.2216550000,22.2792910000 114.2217490000,22.2792610000 114.2218380000,22.2792260000 114.2220430000,22.2791170000 114.2221770000,22.2790280000 114.2223140000,22.2789080000 114.2224160000,22.2787980000 114.2225930000,22.2785830000 114.2227510000,22.2784100000 114.2229780000,22.2781130000 114.2232820000,22.2776630000 114.2233970000,22.2775080000 114.2235830000,22.2772510000 114.2237720000,22.2770070000 114.2238200000,22.2769450000 114.2241060000,22.2765530000 114.2243930000,22.2761730000 114.2246340000,22.2758540000 114.2247830000,22.2757180000 114.2249450000,22.2756340000 114.2251800000,22.2755530000 114.2254200000,22.2755300000 114.2257360000,22.2755490000 114.2260040000,22.2756500000 114.2261890000,22.2757890000 114.2262400000,22.2758380000 114.2264320000,22.2760270000 114.2264960000,22.2761520000 114.2265160000,22.2762260000 114.2265450000,22.2763520000 114.2265430000,22.2764460000 114.2265230000,22.2765630000 114.2264790000,22.2766730000 114.2264450000,22.2767310000 114.2261720000,22.2771840000 114.2258150000,22.2778850000 114.2265360000,22.2782610000 114.2265770000,22.2782820000 114.2266030000,22.2782950000 114.2266270000,22.2783060000 114.2269200000,22.2778190000 114.2269690000,22.2777540000 114.2270630000,22.2776590000 114.2271380000,22.2776020000 114.2271930000,22.2775710000 114.2272810000,22.2775240000 114.2279020000,22.2771870000 114.2282140000,22.2770240000 114.2283000000,22.2774100000 114.2282800000,22.2774800000 114.2282300000,22.2775300000 114.2281400000,22.2775800000 114.2279400000,22.2776800000 114.2279530000,22.2777390000 114.2279710000,22.2778200000 114.2279820000,22.2778700000 114.2279970000,22.2779400000 114.2280190000,22.2780400000 114.2280290000,22.2780900000 114.2280400000,22.2781400000 114.2280550000,22.2782100000 114.2280820000,22.2783300000 114.2280850000,22.2783430000 114.2281010000,22.2784200000 114.2281180000,22.2784950000 114.2281400000,22.2785200000 114.2281600000,22.2785340000 114.2283660000,22.2785830000 114.2284380000,22.2786000000 114.2284430000,22.2786600000 114.2284390000,22.2787200000 114.2284330000,22.2787420000 114.2284210000,22.2787600000 114.2284020000,22.2787770000 114.2283800000,22.2787870000 114.2283500000,22.2787920000 114.2283200000,22.2787900000 114.2281600000,22.2787470000 114.2281240000,22.2787350000 114.2280910000,22.2787180000 114.2280590000,22.2786950000 114.2280300000,22.2786680000 114.2279900000,22.2786240000 114.2279280000,22.2785550000 114.2279180000,22.2785030000 114.2278810000,22.2784110000 114.2278470000,22.2783660000 114.2278130000,22.2783330000 114.2277180000,22.2782740000 114.2275070000,22.2781660000 114.2274680000,22.2781280000 114.2274430000,22.2780970000 114.2273700000,22.2779700000 114.2272300000,22.2777500000 114.2271660000,22.2777040000 114.2270630000,22.2776590000 114.2270220000,22.2776470000 114.2269970000,22.2776390000 114.2269490000,22.2776250000 114.2269000000,22.2776730000 114.2268340000,22.2777680000 114.2267230000,22.2779530000 114.2265360000,22.2782610000 114.2258150000,22.2778850000 114.2261720000,22.2771840000 114.2264450000,22.2767310000 114.2264790000,22.2766730000 114.2265230000,22.2765630000 114.2265430000,22.2764460000 114.2265450000,22.2763520000 114.2265160000,22.2762260000 114.2264960000,22.2761520000 114.2264320000,22.2760270000 114.2262400000,22.2758380000 114.2261890000,22.2757890000 114.2260040000,22.2756500000 114.2257360000,22.2755490000 114.2254200000,22.2755300000 114.2251800000,22.2755530000 114.2249450000,22.2756340000 114.2247830000,22.2757180000 114.2246340000,22.2758540000 114.2241060000,22.2765530000 114.2238200000,22.2769450000 114.2237720000,22.2770070000 114.2235830000,22.2772510000 114.2233970000,22.2775080000 114.2232820000,22.2776630000 114.2231160000,22.2776680000 114.2229060000,22.2779680000 114.2228340000,22.2780700000 114.2227810000,22.2781330000 114.2227660000,22.2781480000 114.2227150000,22.2781970000 114.2227510000,22.2784100000 114.2225930000,22.2785830000 114.2224160000,22.2787980000 114.2223140000,22.2789080000 114.2221770000,22.2790280000 114.2220430000,22.2791170000 114.2218380000,22.2792260000 114.2217490000,22.2792610000 114.2216550000,22.2792910000 114.2215610000,22.2793110000 114.2214520000,22.2793280000 114.2212590000,22.2793070000 114.2210490000,22.2792490000 114.2206070000,22.2791060000 114.2201590000,22.2790030000 114.2193550000,22.2788670000 114.2192120000,22.2788470000 114.2190920000,22.2788460000 114.2189940000,22.2788540000 114.2189040000,22.2788640000 114.2188150000,22.2788840000 114.2187320000,22.2789100000 114.2186560000,22.2789470000 114.2186010000,22.2789790000 114.2185270000,22.2790360000 114.2184400000,22.2791150000 114.2183390000,22.2792390000 114.2182410000,22.2793870000 114.2180520000,22.2796870000 114.2179530000,22.2798700000 114.2179140000,22.2799670000 114.2178910000,22.2801310000 114.2178960000,22.2802780000 114.2179300000,22.2804250000 114.2179860000,22.2805690000 114.2180820000,22.2806930000 114.2181690000,22.2807920000 114.2182470000,22.2808580000 114.2183340000,22.2809100000 114.2184270000,22.2809570000 114.2184800000,22.2809810000 114.2185300000,22.2810020000 114.2186890000,22.2810590000 114.2187560000,22.2810730000 114.2188080000,22.2810860000 114.2188540000,22.2810900000 114.2189000000,22.2810900000 114.2190000000,22.2810750000 114.2191000000,22.2810450000 114.2191900000,22.2810150000 114.2193400000,22.2809500000 114.2194200000,22.2809000000 114.2195400000,22.2808000000 114.2196300000,22.2807000000 114.2196900000,22.2806100000 114.2197400000,22.2805100000 114.2198000000,22.2804000000 114.2198400000,22.2803200000 114.2199100000,22.2802000000 114.2199790000,22.2801000000 114.2200550000,22.2800000000 114.2201090000,22.2799460000 114.2201900000,22.2799000000 114.2203000000,22.2798690000 114.2204000000,22.2798500000 114.2205000000,22.2798600000 114.2206000000,22.2798850000 114.2207000000,22.2799410000 114.2208000000,22.2800500000 114.2208350000,22.2801000000 114.2208700000,22.2801900000 114.2208800000,22.2802700000 114.2208650000,22.2804000000 114.2208300000,22.2805000000 114.2207830000,22.2805820000 114.2207720000,22.2806000000 114.2207120000,22.2806980000 114.2206540000,22.2807960000 114.2205930000,22.2808980000 114.2205360000,22.2810070000 114.2204980000,22.2811060000 114.2204860000,22.2812210000 114.2204860000,22.2813040000 114.2205050000,22.2815500000 114.2205420000,22.2817920000 114.2205200000,22.2819500000 114.2204080000,22.2822400000 114.2203470000,22.2823170000 114.2200110000,22.2827420000 114.2196810000,22.2831480000 114.2201130000,22.2834400000 114.2205350000,22.2837270000 114.2200820000,22.2842960000 114.2200000000,22.2843870000 114.2199390000,22.2844560000 114.2198400000,22.2845600000 114.2197420000,22.2846440000 114.2196090000,22.2847300000 114.2195000000,22.2847810000 114.2193870000,22.2848190000 114.2192780000,22.2848470000 114.2191300000,22.2848740000 114.2189670000,22.2848920000 114.2188450000,22.2848950000 114.2186990000,22.2848840000 114.2185050000,22.2848580000 114.2183310000,22.2848200000 114.2180150000,22.2847420000 114.2178790000,22.2847130000 114.2174830000,22.2846240000 114.2172680000,22.2845900000 114.2170560000,22.2845700000 114.2165880000,22.2845520000 114.2157230000,22.2845620000 114.2152740000,22.2846000000 114.2150330000,22.2846080000 114.2147480000,22.2846060000 114.2144560000,22.2846010000 114.2142930000,22.2845990000 114.2137750000,22.2845940000 114.2135580000,22.2845910000 114.2132520000,22.2845930000 114.2129220000,22.2845930000 114.2128590000,22.2845980000 114.2125760000,22.2846360000 114.2120400000,22.2847680000 114.2117240000,22.2849010000 114.2116810000,22.2849190000 114.2115970000,22.2849790000 114.2114670000,22.2851130000 114.2113360000,22.2852830000 114.2112470000,22.2854040000 114.2110380000,22.2857520000 114.2108050000,22.2861340000 114.2107650000,22.2862040000 114.2105650000,22.2865550000 114.2105600000,22.2865660000 114.2105010000,22.2866820000 114.2104410000,22.2868290000 114.2102780000,22.2872900000 114.2102580000,22.2873460000 114.2101890000,22.2875460000 114.2100790000,22.2878710000 114.2100070000,22.2880650000 114.2099770000,22.2881640000 114.2098910000,22.2884140000 114.2097940000,22.2886970000 114.2097700000,22.2887680000 114.2096010000,22.2892590000 114.2094960000,22.2895630000 114.2092730000,22.2901980000 114.2092300000,22.2903170000 114.2092050000,22.2903790000 114.2091470000,22.2905260000 114.2090610000,22.2906940000 114.2090470000,22.2907220000 114.2090250000,22.2907550000 114.2089810000,22.2908170000 114.2088940000,22.2909090000 114.2087980000,22.2910210000 114.2087350000,22.2910800000 114.2086210000,22.2911670000 114.2084750000,22.2912630000 114.2083310000,22.2913310000 114.2078660000,22.2915230000 114.2073790000,22.2917190000 114.2071690000,22.2917970000 114.2069980000,22.2918480000 114.2067820000,22.2919010000 114.2065390000,22.2919530000 114.2062540000,22.2919990000 114.2057870000,22.2920480000 114.2056140000,22.2920810000 114.2055070000,22.2920880000 114.2054010000,22.2920920000 114.2045990000,22.2920780000 114.2045140000,22.2920860000 114.2044310000,22.2921160000 114.2043840000,22.2921410000 114.2043390000,22.2921660000 114.2042900000,22.2922110000 114.2042590000,22.2922600000 114.2042390000,22.2923100000 114.2042210000,22.2923700000 114.2042100000,22.2924400000 114.2042070000,22.2924900000 114.2042070000,22.2933200000 114.2042060000,22.2933900000 114.2042020000,22.2934500000 114.2041930000,22.2935100000 114.2041790000,22.2935700000 114.2041600000,22.2936300000 114.2041400000,22.2936800000 114.2041130000,22.2937340000 114.2040780000,22.2937930000 114.2040290000,22.2938500000 114.2039720000,22.2939000000 114.2039220000,22.2939400000 114.2038690000,22.2939740000 114.2038100000,22.2940030000 114.2037400000,22.2940300000 114.2036700000,22.2940500000 114.2036100000,22.2940620000 114.2035500000,22.2940700000 114.2034900000,22.2940750000 114.2034200000,22.2940790000 114.2030330000,22.2940660000 114.2025710000,22.2940510000 114.2021610000,22.2939730000 114.1999680000,22.2935100000 114.1996280000,22.2934690000 114.1992060000,22.2934470000 114.1987250000,22.2934460000 114.1983660000,22.2934260000 114.1979580000,22.2933590000 114.1975110000,22.2932730000 114.1959400000,22.2929700000 114.1956850000,22.2928970000 114.1954100000,22.2927930000 114.1949330000,22.2926150000 114.1946350000,22.2924680000 114.1942910000,22.2922790000 114.1940140000,22.2920940000 114.1938200000,22.2919420000 114.1936310000,22.2917620000 114.1934360000,22.2915500000 114.1913760000,22.2893230000 114.1906780000,22.2885800000 114.1900380000,22.2879220000 114.1899950000,22.2878760000 114.1898840000,22.2877670000 114.1897600000,22.2876110000 114.1896910000,22.2875080000 114.1896050000,22.2873530000 114.1895310000,22.2872080000 114.1894770000,22.2870600000 114.1894470000,22.2869400000 114.1894100000,22.2867400000 114.1893900000,22.2865400000 114.1893800000,22.2863000000 114.1893700000,22.2860400000 114.1893580000,22.2858800000 114.1893400000,22.2857300000 114.1893000000,22.2855400000 114.1892600000,22.2853900000 114.1892270000,22.2852900000 114.1891600000,22.2851500000 114.1890600000,22.2849900000 114.1889570000,22.2848460000 114.1888500000,22.2847300000 114.1887280000,22.2846450000 114.1884740000,22.2844880000 114.1882450000,22.2843820000 114.1878780000,22.2842520000 114.1876760000,22.2841960000 114.1875090000,22.2841560000 114.1873110000,22.2841040000 114.1871130000,22.2840510000 114.1869670000,22.2840120000 114.1866640000,22.2839420000 114.1864250000,22.2838820000 114.1863320000,22.2838520000 114.1862090000,22.2838170000 114.1860930000,22.2837730000 114.1859810000,22.2837170000 114.1858950000,22.2836560000 114.1857830000,22.2835720000 114.1855780000,22.2834100000 114.1851240000,22.2830460000 114.1846220000,22.2826700000 114.1843820000,22.2824990000 114.1840580000,22.2822790000 114.1837600000,22.2821470000 114.1836640000,22.2821110000 114.1833700000,22.2819930000 114.1829630000,22.2818350000 114.1824120000,22.2816250000 114.1822990000,22.2815810000 114.1821720000,22.2815320000 114.1819260000,22.2814400000 114.1814850000,22.2812330000 114.1809880000,22.2810480000 114.1808600000,22.2810000000 114.1808190000,22.2809790000 114.1807830000,22.2809500000 114.1807600000,22.2809180000 114.1807500000,22.2808860000 114.1807500000,22.2808500000 114.1808760000,22.2804900000 114.1809020000,22.2803030000 114.1812740000,22.2794530000 114.1813200000,22.2793220000 114.1813320000,22.2792640000 114.1813460000,22.2791470000 114.1813540000,22.2790250000 114.1813500000,22.2789040000 114.1812980000,22.2776000000 114.1812850000,22.2774690000 114.1812760000,22.2773120000 114.1812560000,22.2771210000 114.1812270000,22.2768810000 114.1811910000,22.2767280000 114.1811320000,22.2765590000 114.1810640000,22.2763900000 114.1809810000,22.2762270000 114.1808630000,22.2760560000 114.1807340000,22.2759040000 114.1799720000,22.2751000000 114.1798330000,22.2749440000 114.1797550000,22.2748320000 114.1796680000,22.2746790000 114.1795830000,22.2744950000 114.1795420000,22.2743720000 114.1795170000,22.2742550000 114.1795090000,22.2741490000 114.1795110000,22.2739570000 114.1795180000,22.2737920000 114.1795290000,22.2737190000 114.1795710000,22.2735560000 114.1800600000,22.2722210000 114.1804550000,22.2712140000 114.1804930000,22.2710900000 114.1805370000,22.2709580000 114.1806350000,22.2706000000 114.1806900000,22.2703850000 114.1807300000,22.2702000000 114.1807580000,22.2700400000 114.1807820000,22.2698400000 114.1808020000,22.2696300000 114.1808090000,22.2694500000 114.1808070000,22.2692500000 114.1802400000,22.2556900000 114.1802180000,22.2553100000 114.1801900000,22.2550600000 114.1801600000,22.2548700000 114.1801200000,22.2546600000 114.1800880000,22.2545100000 114.1800480000,22.2543700000 114.1800200000,22.2542800000 114.1799800000,22.2541600000 114.1799400000,22.2540500000 114.1798900000,22.2539300000 114.1798420000,22.2538200000 114.1797820000,22.2536900000 114.1796790000,22.2534830000 114.1796200000,22.2533780000 114.1794750000,22.2531400000 114.1792360000,22.2528030000 114.1790090000,22.2524780000 114.1789020000,22.2523260000 114.1785050000,22.2517580000 114.1782820000,22.2514390000 114.1782400000,22.2513780000 114.1782100000,22.2513370000 114.1778290000,22.2507910000 114.1775180000,22.2504830000 114.1771150000,22.2502100000 114.1770440000,22.2501600000 114.1767120000,22.2500290000 114.1762560000,22.2498880000 114.1761060000,22.2498640000 114.1758030000,22.2498350000 114.1755620000,22.2498150000 114.1752860000,22.2498140000 114.1750010000,22.2498240000 114.1745950000,22.2498470000 114.1741340000,22.2499170000 114.1728140000,22.2501980000 114.1718820000,22.2503840000 114.1717090000,22.2504090000 114.1714180000,22.2503240000 114.1713260000,22.2502810000 114.1712240000,22.2501880000 114.1711760000,22.2500660000 114.1711800000,22.2498160000 114.1711710000,22.2497040000 114.1711720000,22.2494800000 114.1711600000,22.2492990000 114.1711240000,22.2492340000 114.1711110000,22.2490010000 114.1711280000,22.2488990000 114.1711490000,22.2488230000 114.1711990000,22.2487100000 114.1712360000,22.2486250000 114.1712560000,22.2485980000 114.1712670000,22.2485660000 114.1712680000,22.2485330000 114.1713680000,22.2485100000 114.1714840000,22.2484890000 114.1716470000,22.2484700000 114.1721410000,22.2484320000 114.1724980000,22.2483940000 114.1728120000,22.2483330000 114.1735320000,22.2481570000 114.1736800000,22.2481820000 114.1736970000,22.2481970000 114.1737180000,22.2482070000 114.1737410000,22.2482120000 114.1737710000,22.2482100000 114.1737990000,22.2481980000 114.1738200000,22.2481790000 114.1738340000,22.2481550000 114.1738380000,22.2481280000 114.1738320000,22.2481010000 114.1738180000,22.2480770000 114.1737950000,22.2480590000 114.1738080000,22.2480310000 114.1738210000,22.2480090000 114.1738520000,22.2479530000 114.1738920000,22.2478580000 114.1738870000,22.2477510000 114.1738800000,22.2475640000 114.1738820000,22.2474230000 114.1738850000,22.2472370000 114.1738860000,22.2471650000 114.1738870000,22.2470560000 114.1738900000,22.2468740000 114.1738930000,22.2467480000 114.1738930000,22.2467000000 114.1739030000,22.2465840000 114.1739090000,22.2465120000 114.1739130000,22.2464550000 114.1739130000,22.2464180000 114.1739400000,22.2463620000 114.1739180000,22.2463800000 114.1738910000,22.2463890000 114.1738650000,22.2463890000 114.1738380000,22.2463810000 114.1738150000,22.2463650000 114.1738020000,22.2463460000 114.1737940000,22.2463210000 114.1737970000,22.2462950000 114.1738100000,22.2462680000 114.1738310000,22.2462500000 114.1738580000,22.2462400000 114.1738810000,22.2462380000 114.1739090000,22.2462440000 114.1739330000,22.2462590000 114.1739140000,22.2462180000 114.1738770000,22.2461790000 114.1738480000,22.2461510000 114.1739220000,22.2461120000 114.1739240000,22.2461110000 114.1740040000,22.2461010000 114.1740760000,22.2461400000 114.1741010000,22.2462180000 114.1741040000,22.2467600000 114.1741160000,22.2475290000 114.1742640000,22.2477720000 114.1742970000,22.2478250000 114.1744310000,22.2480630000 114.1744370000,22.2481230000 114.1744370000,22.2481810000 114.1744170000,22.2482520000 114.1743630000,22.2483340000 114.1742870000,22.2483750000 114.1738690000,22.2481680000 114.1738380000,22.2481280000 114.1738320000,22.2481010000 114.1738180000,22.2480770000 114.1737950000,22.2480590000 114.1737690000,22.2480490000 114.1737400000,22.2480480000 114.1737130000,22.2480540000 114.1736890000,22.2480690000 114.1736710000,22.2480890000 114.1735320000,22.2481570000 114.1728120000,22.2483330000 114.1724980000,22.2483940000 114.1721410000,22.2484320000 114.1716470000,22.2484700000 114.1714840000,22.2484890000 114.1713680000,22.2485100000 114.1712680000,22.2485330000 114.1712570000,22.2484960000 114.1712330000,22.2484650000 114.1712000000,22.2484420000 114.1711600000,22.2484300000 114.1711190000,22.2484310000 114.1710840000,22.2484420000 114.1710540000,22.2484620000 114.1710320000,22.2484890000 114.1710190000,22.2485210000 114.1710160000,22.2485550000 114.1710240000,22.2485880000 114.1710430000,22.2486180000 114.1710690000,22.2486410000 114.1710660000,22.2487110000 114.1710340000,22.2488160000 114.1710150000,22.2488930000 114.1710100000,22.2489850000 114.1710200000,22.2492110000 114.1709770000,22.2493200000 114.1709720000,22.2494740000 114.1709910000,22.2500550000 114.1709820000,22.2501150000 114.1709610000,22.2501640000 114.1709200000,22.2502230000 114.1708650000,22.2502750000 114.1707960000,22.2503130000 114.1707230000,22.2503300000 114.1705110000,22.2503580000 114.1703590000,22.2503250000 114.1702070000,22.2502840000 114.1700690000,22.2502400000 114.1699110000,22.2501870000 114.1697010000,22.2501050000 114.1692680000,22.2499540000 114.1670340000,22.2488540000 114.1664850000,22.2485870000 114.1662300000,22.2484620000 114.1660710000,22.2484040000 114.1658990000,22.2483570000 114.1657200000,22.2483050000 114.1654920000,22.2482610000 114.1652500000,22.2482240000 114.1650780000,22.2482180000 114.1649200000,22.2482210000 114.1643730000,22.2482520000 114.1638050000,22.2483320000 114.1629250000,22.2484600000 114.1621560000,22.2485630000 114.1619990000,22.2485680000 114.1619120000,22.2485720000 114.1616860000,22.2485500000 114.1616700000,22.2485480000 114.1614880000,22.2485060000 114.1612790000,22.2484260000 114.1610590000,22.2482960000 114.1610060000,22.2482330000 114.1609650000,22.2481660000 114.1609490000,22.2480800000 114.1609610000,22.2479250000 114.1610720000,22.2474520000 114.1610950000,22.2473570000 114.1611120000,22.2472300000 114.1611110000,22.2471330000 114.1611070000,22.2470660000 114.1610900000,22.2469810000 114.1610620000,22.2468930000 114.1610230000,22.2468010000 114.1609780000,22.2467160000 114.1609320000,22.2466470000 114.1608800000,22.2465890000 114.1608070000,22.2465140000 114.1604110000,22.2461510000 114.1589530000,22.2447870000 114.1588810000,22.2447330000 114.1586370000,22.2446010000 114.1583740000,22.2444940000 114.1581010000,22.2443670000 114.1579380000,22.2442630000 114.1578490000,22.2441890000 114.1577490000,22.2440860000 114.1576190000,22.2439220000 114.1575380000,22.2438100000 114.1575460000,22.2437190000 114.1575520000,22.2436390000 114.1575750000,22.2435590000 114.1576150000,22.2434810000 114.1576550000,22.2434660000 114.1577120000,22.2434510000 114.1577740000,22.2434430000 114.1579010000,22.2434410000 114.1579020000,22.2433790000 114.1579000000,22.2430280000 114.1579000000,22.2429900000 114.1579070000,22.2427160000 114.1579190000,22.2423810000 114.1578980000,22.2417920000 114.1578960000,22.2416750000 114.1578900000,22.2413210000 114.1578570000,22.2411870000 114.1577860000,22.2410670000 114.1576620000,22.2409610000 114.1574950000,22.2409130000 114.1572900000,22.2409200000 114.1571480000,22.2409900000 114.1570140000,22.2411520000 114.1569720000,22.2413610000 114.1569720000,22.2416970000 114.1569350000,22.2418390000 114.1568730000,22.2419240000 114.1568030000,22.2419810000 114.1566810000,22.2420160000 114.1563570000,22.2420090000 114.1562870000,22.2419440000 114.1562190000,22.2418710000 114.1561740000,22.2417870000 114.1562110000,22.2412030000 114.1562240000,22.2411490000 114.1562430000,22.2411080000 114.1562720000,22.2410730000 114.1563660000,22.2409630000 114.1563720000,22.2407620000 114.1563720000,22.2407620000 114.1562030000,22.2406930000 114.1560940000,22.2406650000 114.1560080000,22.2406560000 114.1559120000,22.2406410000 114.1556660000,22.2406340000 114.1551370000,22.2406400000 114.1550660000,22.2406590000 114.1549800000,22.2406990000 114.1549490000,22.2407290000 114.1549250000,22.2407840000 114.1548980000,22.2410030000 114.1548960000,22.2413420000 114.1548950000,22.2414040000 114.1548810000,22.2417730000 114.1549720000,22.2418970000 114.1550850000,22.2420070000 114.1559140000,22.2420180000 114.1561410000,22.2420100000 114.1563570000,22.2420090000 114.1566810000,22.2420160000 114.1568030000,22.2419810000 114.1568730000,22.2419240000 114.1569350000,22.2418390000 114.1569720000,22.2416970000 114.1569720000,22.2413610000 114.1570140000,22.2411520000 114.1571480000,22.2409900000 114.1572900000,22.2409200000 114.1574950000,22.2409130000 114.1576620000,22.2409610000 114.1577860000,22.2410670000 114.1578570000,22.2411870000 114.1578900000,22.2413210000 114.1578960000,22.2416750000 114.1578980000,22.2417920000 114.1579190000,22.2423810000 114.1579070000,22.2427160000 114.1579000000,22.2429900000 114.1579000000,22.2430280000 114.1579020000,22.2433790000 114.1577730000,22.2433810000 114.1576890000,22.2433880000 114.1575920000,22.2434050000 114.1575250000,22.2434290000 114.1574230000,22.2434900000 114.1573220000,22.2435780000 114.1571210000,22.2435020000 114.1569630000,22.2434800000 114.1567660000,22.2434880000 114.1565170000,22.2434990000 114.1563160000,22.2435030000 114.1560940000,22.2434850000 114.1557940000,22.2434160000 114.1556010000,22.2433340000 114.1553110000,22.2431750000 114.1548780000,22.2429550000 114.1547750000,22.2429010000 114.1547350000,22.2428790000 114.1544320000,22.2427280000 114.1543090000,22.2426810000 114.1541260000,22.2426340000 114.1539540000,22.2426170000 114.1538230000,22.2426190000 114.1537050000,22.2426240000 114.1535440000,22.2426510000 114.1531980000,22.2427680000 114.1529110000,22.2428850000 114.1526840000,22.2429730000 114.1524080000,22.2430640000 114.1523290000,22.2430870000 114.1519750000,22.2431790000 114.1518100000,22.2432400000 114.1516260000,22.2433320000 114.1514220000,22.2434430000 114.1513500000,22.2434860000 114.1512600000,22.2435440000 114.1510190000,22.2436870000 114.1508080000,22.2438150000 114.1506130000,22.2439130000 114.1503720000,22.2440220000 114.1501470000,22.2440700000 114.1496880000,22.2441370000 114.1491840000,22.2442070000 114.1489690000,22.2432120000 114.1489250000,22.2430260000 114.1488730000,22.2428370000 114.1488770000,22.2427930000 114.1488930000,22.2427500000 114.1489300000,22.2426850000 114.1491090000,22.2424410000 114.1493560000,22.2421150000 114.1500010000,22.2425560000</coordinates>
                </LineString>
                <ExtendedData>
                    <Data name="length">
                        <value>38297.793606554194</value>
                    </Data>
                    <Data name="duration">
                        <value>01:58:21</value>
                    </Data>
                </ExtendedData>
            </Placemark>
        </Document>
    </Document>
</kml>