<?xml version="1.0" encoding="UTF-8"?>
<kml xmlns="http://www.opengis.net/kml/2.2" xmlns:gx="http://www.google.com/kml/ext/2.2">
    <Document>
        <name>Route</name>
        <Folder>
            <name>Route Request</name>
            <Placemark>
                <Point>
                    <coordinates>114.1537075265,22.2367179371</coordinates>
                </Point>
                <ExtendedData>
                    <Data name="routingVisited">
                        <value>false</value>
                    </Data>
                </ExtendedData>
            </Placemark>
            <Placemark>
                <Point>
                    <coordinates>114.1476807209,22.2444840959</coordinates>
                </Point>
            </Placemark>
            <Placemark>
                <Point>
                    <coordinates>114.1509478014,22.2444686671</coordinates>
                </Point>
                <ExtendedData>
                    <Data name="routingVisited">
                        <value>false</value>
                    </Data>
                </ExtendedData>
            </Placemark>
            <Placemark>
                <Point>
                    <coordinates>114.1531187068,22.2438686129</coordinates>
                </Point>
                <ExtendedData>
                    <Data name="routingVisited">
                        <value>false</value>
                    </Data>
                </ExtendedData>
            </Placemark>
            <Placemark>
                <Point>
                    <coordinates>114.1563902038,22.2407702783</coordinates>
                </Point>
                <ExtendedData>
                    <Data name="routingVisited">
                        <value>false</value>
                    </Data>
                </ExtendedData>
            </Placemark>
            <Placemark>
                <Point>
                    <coordinates>114.1676035547,22.2362469955</coordinates>
                </Point>
                <ExtendedData>
                    <Data name="routingVisited">
                        <value>false</value>
                    </Data>
                </ExtendedData>
            </Placemark>
            <Placemark>
                <Point>
                    <coordinates>114.1861902946,22.2832595606</coordinates>
                </Point>
                <ExtendedData>
                    <Data name="routingVisited">
                        <value>false</value>
                    </Data>
                </ExtendedData>
            </Placemark>
            <Placemark>
                <Point>
                    <coordinates>114.2183736155,22.2851432619</coordinates>
                </Point>
                <ExtendedData>
                    <Data name="routingVisited">
                        <value>false</value>
                    </Data>
                </ExtendedData>
            </Placemark>
            <Placemark>
                <Point>
                    <coordinates>114.2243969121,22.2849104391</coordinates>
                </Point>
                <ExtendedData>
                    <Data name="routingVisited">
                        <value>false</value>
                    </Data>
                </ExtendedData>
            </Placemark>
            <Placemark>
                <Point>
                    <coordinates>114.2056626424,22.2918783576</coordinates>
                </Point>
            </Placemark>
            <Placemark>
                <Point>
                    <coordinates>114.1880074015,22.2794072025</coordinates>
                </Point>
                <ExtendedData>
                    <Data name="routingVisited">
                        <value>false</value>
                    </Data>
                </ExtendedData>
            </Placemark>
            <Placemark>
                <address>Aberdeen Boat Club, Shum Wan Road, Brick Hill, Sham Wan, Southern District, Hong Kong Island, Hong Kong, China</address>
                <Point>
                    <coordinates>114.1675740380,22.2362333366</coordinates>
                </Point>
                <ExtendedData>
                    <Data name="leisure">
                        <value>Aberdeen Boat Club</value>
                    </Data>
                    <Data name="road">
                        <value>Shum Wan Road</value>
                    </Data>
                    <Data name="country">
                        <value>China</value>
                    </Data>
                    <Data name="neighbourhood">
                        <value>Brick Hill</value>
                    </Data>
                    <Data name="state">
                        <value>Hong Kong</value>
                    </Data>
                    <Data name="city">
                        <value>Hong Kong Island</value>
                    </Data>
                    <Data name="country_code">
                        <value>cn</value>
                    </Data>
                    <Data name="city_district">
                        <value>Southern District</value>
                    </Data>
                    <Data name="suburb">
                        <value>Sham Wan</value>
                    </Data>
                    <Data name="routingVisited">
                        <value>false</value>
                    </Data>
                    <Data name="ISO3166-2-lvl3">
                        <value>CN-HK</value>
                    </Data>
                </ExtendedData>
            </Placemark>
            <Placemark>
                <Point>
                    <coordinates>114.1563914082,22.2407677115</coordinates>
                </Point>
            </Placemark>
            <Placemark>
                <address>Ap Lei Chau Main Street, Lee Chi Road, Shek Pai Wan, Ap Lei Chau, Southern District, Hong Kong Island, Hong Kong, China</address>
                <Point>
                    <coordinates>114.1531187068,22.2438686129</coordinates>
                </Point>
                <ExtendedData>
                    <Data name="road">
                        <value>Lee Chi Road</value>
                    </Data>
                    <Data name="country">
                        <value>China</value>
                    </Data>
                    <Data name="highway">
                        <value>Ap Lei Chau Main Street</value>
                    </Data>
                    <Data name="state">
                        <value>Hong Kong</value>
                    </Data>
                    <Data name="city">
                        <value>Hong Kong Island</value>
                    </Data>
                    <Data name="quarter">
                        <value>Shek Pai Wan</value>
                    </Data>
                    <Data name="country_code">
                        <value>cn</value>
                    </Data>
                    <Data name="city_district">
                        <value>Southern District</value>
                    </Data>
                    <Data name="suburb">
                        <value>Ap Lei Chau</value>
                    </Data>
                    <Data name="ISO3166-2-lvl3">
                        <value>CN-HK</value>
                    </Data>
                </ExtendedData>
            </Placemark>
            <Placemark>
                <Point>
                    <coordinates>114.1536484955,22.2366632948</coordinates>
                </Point>
                <ExtendedData>
                    <Data name="routingVisited">
                        <value>false</value>
                    </Data>
                </ExtendedData>
            </Placemark>
        </Folder>
        <Document>
            <name>42.8 km; 01:11 h (OSRM)</name>
            <Placemark>
                <name>Route</name>
                <LineString>
                    <coordinates>114.1536330000,22.2368110000 114.1536170000,22.2368800000 114.1532090000,22.2374120000 114.1528570000,22.2378790000 114.1527350000,22.2380310000 114.1524180000,22.2384290000 114.1523010000,22.2385750000 114.1521090000,22.2388090000 114.1520520000,22.2388780000 114.1520020000,22.2389390000 114.1519510000,22.2389980000 114.1518920000,22.2390500000 114.1518280000,22.2390950000 114.1517570000,22.2391460000 114.1516810000,22.2391890000 114.1516000000,22.2392260000 114.1514310000,22.2392930000 114.1512590000,22.2393530000 114.1510850000,22.2394080000 114.1509090000,22.2394560000 114.1507310000,22.2394980000 114.1503890000,22.2395580000 114.1502660000,22.2395810000 114.1502170000,22.2395900000 114.1500920000,22.2396130000 114.1497790000,22.2396720000 114.1497300000,22.2396830000 114.1496910000,22.2396920000 114.1496730000,22.2396960000 114.1495190000,22.2397310000 114.1492660000,22.2398020000 114.1489530000,22.2399050000 114.1488630000,22.2399390000 114.1487400000,22.2399970000 114.1486840000,22.2400270000 114.1486070000,22.2400750000 114.1485200000,22.2401530000 114.1484730000,22.2402130000 114.1484380000,22.2402630000 114.1484000000,22.2403240000 114.1483660000,22.2403860000 114.1483380000,22.2404450000 114.1483190000,22.2405070000 114.1482910000,22.2406070000 114.1482790000,22.2406750000 114.1482700000,22.2407440000 114.1482740000,22.2408190000 114.1482800000,22.2408920000 114.1482900000,22.2409470000 114.1483020000,22.2410050000 114.1483160000,22.2410500000 114.1483510000,22.2411360000 114.1483840000,22.2412020000 114.1484210000,22.2412680000 114.1484700000,22.2413390000 114.1485830000,22.2414600000 114.1487190000,22.2415830000 114.1488880000,22.2417040000 114.1492210000,22.2419550000 114.1492650000,22.2420270000 114.1493560000,22.2421150000 114.1492790000,22.2422170000 114.1492500000,22.2422550000 114.1491090000,22.2424410000 114.1490850000,22.2424740000 114.1489300000,22.2426850000 114.1488930000,22.2427500000 114.1488770000,22.2427930000 114.1488730000,22.2428370000 114.1487420000,22.2428760000 114.1484870000,22.2429340000 114.1474450000,22.2431040000 114.1470630000,22.2431660000 114.1467840000,22.2432120000 114.1467390000,22.2432290000 114.1465030000,22.2433180000 114.1463220000,22.2434000000 114.1461850000,22.2435210000 114.1461440000,22.2435740000 114.1460800000,22.2436790000 114.1460640000,22.2437170000 114.1460380000,22.2437910000 114.1460310000,22.2439000000 114.1460450000,22.2440120000 114.1460960000,22.2441240000 114.1461690000,22.2442090000 114.1462050000,22.2442420000 114.1462600000,22.2442810000 114.1463350000,22.2443200000 114.1464290000,22.2443500000 114.1466090000,22.2443740000 114.1466370000,22.2443760000 114.1467230000,22.2443820000 114.1469010000,22.2443920000 114.1469460000,22.2443950000 114.1471500000,22.2444100000 114.1473730000,22.2444260000 114.1474960000,22.2444300000 114.1476420000,22.2444240000 114.1476780000,22.2444230000 114.1476980000,22.2444220000 114.1482310000,22.2443450000 114.1489820000,22.2442730000 114.1490800000,22.2442750000 114.1491890000,22.2442780000 114.1492600000,22.2442690000 114.1497730000,22.2442080000 114.1501130000,22.2441570000 114.1501570000,22.2441500000 114.1503720000,22.2441290000 114.1504020000,22.2442550000 114.1504240000,22.2443500000 114.1504370000,22.2443870000 114.1505310000,22.2443580000 114.1506030000,22.2443260000 114.1506680000,22.2442850000 114.1507370000,22.2442320000 114.1507730000,22.2442050000 114.1508370000,22.2441460000 114.1508980000,22.2440890000 114.1508690000,22.2440590000 114.1508580000,22.2439900000 114.1508580000,22.2439550000 114.1508620000,22.2438980000 114.1512820000,22.2436320000 114.1513160000,22.2436110000 114.1514280000,22.2435370000 114.1514980000,22.2434950000 114.1518810000,22.2433100000 114.1519930000,22.2432670000 114.1520610000,22.2432470000 114.1522640000,22.2431950000 114.1524320000,22.2431530000 114.1527090000,22.2430650000 114.1529070000,22.2429940000 114.1531790000,22.2428860000 114.1535630000,22.2427510000 114.1536940000,22.2427260000 114.1539130000,22.2427010000 114.1541050000,22.2427120000 114.1543400000,22.2427970000 114.1545170000,22.2428960000 114.1546470000,22.2429640000 114.1545930000,22.2430410000 114.1545710000,22.2430730000 114.1545630000,22.2430780000 114.1545530000,22.2430820000 114.1545400000,22.2430840000 114.1545270000,22.2430840000 114.1545130000,22.2430830000 114.1544830000,22.2430790000 114.1544470000,22.2430740000 114.1542910000,22.2430420000 114.1539860000,22.2429790000 114.1538580000,22.2429580000 114.1537760000,22.2429470000 114.1536990000,22.2429420000 114.1536200000,22.2429430000 114.1535530000,22.2429490000 114.1534950000,22.2429600000 114.1534300000,22.2429770000 114.1533660000,22.2429980000 114.1533090000,22.2430240000 114.1532600000,22.2430550000 114.1532200000,22.2430840000 114.1531760000,22.2431260000 114.1531300000,22.2431750000 114.1530840000,22.2432370000 114.1530370000,22.2433100000 114.1529160000,22.2434940000 114.1529090000,22.2435180000 114.1529080000,22.2435410000 114.1529110000,22.2435640000 114.1529180000,22.2435820000 114.1529300000,22.2436000000 114.1529470000,22.2436150000 114.1529790000,22.2436310000 114.1532720000,22.2437170000 114.1534040000,22.2437580000 114.1533950000,22.2437910000 114.1533930000,22.2437980000 114.1533860000,22.2438250000 114.1533930000,22.2437980000 114.1533950000,22.2437910000 114.1534040000,22.2437580000 114.1532720000,22.2437170000 114.1531800000,22.2436900000 114.1529790000,22.2436310000 114.1529470000,22.2436150000 114.1529300000,22.2436000000 114.1529180000,22.2435820000 114.1529110000,22.2435640000 114.1529080000,22.2435410000 114.1529090000,22.2435180000 114.1529160000,22.2434940000 114.1530370000,22.2433100000 114.1530840000,22.2432370000 114.1531300000,22.2431750000 114.1531760000,22.2431260000 114.1532200000,22.2430840000 114.1532600000,22.2430550000 114.1533090000,22.2430240000 114.1533660000,22.2429980000 114.1534300000,22.2429770000 114.1534950000,22.2429600000 114.1535530000,22.2429490000 114.1536200000,22.2429430000 114.1536990000,22.2429420000 114.1537760000,22.2429470000 114.1538580000,22.2429580000 114.1539860000,22.2429790000 114.1542910000,22.2430420000 114.1544470000,22.2430740000 114.1544830000,22.2430790000 114.1545130000,22.2430830000 114.1545270000,22.2430840000 114.1545400000,22.2430840000 114.1545530000,22.2430820000 114.1545630000,22.2430780000 114.1545710000,22.2430730000 114.1545930000,22.2430410000 114.1546470000,22.2429640000 114.1548760000,22.2430840000 114.1552760000,22.2432730000 114.1554810000,22.2433680000 114.1556580000,22.2434460000 114.1557370000,22.2434760000 114.1559530000,22.2435330000 114.1560710000,22.2435550000 114.1562070000,22.2435690000 114.1563140000,22.2435760000 114.1565280000,22.2435750000 114.1567570000,22.2435640000 114.1569160000,22.2435610000 114.1569630000,22.2435620000 114.1570170000,22.2435670000 114.1570580000,22.2435740000 114.1570970000,22.2435820000 114.1571630000,22.2436020000 114.1572140000,22.2436210000 114.1572650000,22.2436410000 114.1573040000,22.2436640000 114.1573300000,22.2436870000 114.1573970000,22.2436290000 114.1574870000,22.2435620000 114.1576150000,22.2434810000 114.1576550000,22.2434660000 114.1577090000,22.2434580000 114.1577430000,22.2434540000 114.1577690000,22.2434530000 114.1578720000,22.2434440000 114.1578740000,22.2433790000 114.1578740000,22.2433290000 114.1578740000,22.2432940000 114.1578730000,22.2432530000 114.1578730000,22.2431630000 114.1578720000,22.2430400000 114.1578740000,22.2429900000 114.1578830000,22.2428510000 114.1578850000,22.2427210000 114.1578980000,22.2423930000 114.1579060000,22.2420700000 114.1579000000,22.2418480000 114.1578980000,22.2417920000 114.1579000000,22.2415530000 114.1578900000,22.2413210000 114.1578570000,22.2411870000 114.1578460000,22.2411680000 114.1577860000,22.2410670000 114.1576620000,22.2409610000 114.1575940000,22.2409380000 114.1575060000,22.2409080000 114.1574020000,22.2409000000 114.1573450000,22.2409100000 114.1572900000,22.2409200000 114.1572140000,22.2409480000 114.1571480000,22.2409900000 114.1571020000,22.2410250000 114.1570610000,22.2410700000 114.1570390000,22.2411090000 114.1570140000,22.2411520000 114.1569890000,22.2412260000 114.1569720000,22.2413610000 114.1569720000,22.2416970000 114.1569350000,22.2418390000 114.1568730000,22.2419240000 114.1568030000,22.2419810000 114.1566810000,22.2420160000 114.1563570000,22.2420090000 114.1562870000,22.2419440000 114.1562190000,22.2418710000 114.1561740000,22.2417870000 114.1561770000,22.2414290000 114.1561770000,22.2413570000 114.1561770000,22.2413460000 114.1561790000,22.2412850000 114.1561850000,22.2412500000 114.1561930000,22.2412250000 114.1562080000,22.2412010000 114.1562270000,22.2411760000 114.1562860000,22.2411030000 114.1562850000,22.2407700000 114.1562850000,22.2407380000 114.1562530000,22.2407120000 114.1562030000,22.2406930000 114.1560940000,22.2406650000 114.1560160000,22.2406480000 114.1559430000,22.2406430000 114.1559120000,22.2406410000 114.1556660000,22.2406340000 114.1553950000,22.2406370000 114.1551370000,22.2406400000 114.1550660000,22.2406590000 114.1549800000,22.2406990000 114.1549700000,22.2407090000 114.1549490000,22.2407290000 114.1549250000,22.2407840000 114.1548980000,22.2410030000 114.1548980000,22.2410720000 114.1548970000,22.2411120000 114.1548970000,22.2412140000 114.1548960000,22.2413420000 114.1548950000,22.2414040000 114.1548810000,22.2417730000 114.1549290000,22.2418600000 114.1549720000,22.2419130000 114.1550220000,22.2419650000 114.1550850000,22.2420070000 114.1553330000,22.2420100000 114.1559100000,22.2420150000 114.1561420000,22.2420100000 114.1563570000,22.2420090000 114.1566810000,22.2420160000 114.1568030000,22.2419810000 114.1568730000,22.2419240000 114.1569350000,22.2418390000 114.1569720000,22.2416970000 114.1569720000,22.2413610000 114.1569890000,22.2412260000 114.1570140000,22.2411520000 114.1570390000,22.2411090000 114.1570610000,22.2410700000 114.1571020000,22.2410250000 114.1571480000,22.2409900000 114.1572140000,22.2409480000 114.1572900000,22.2409200000 114.1573450000,22.2409100000 114.1574020000,22.2409000000 114.1575060000,22.2409080000 114.1575940000,22.2409380000 114.1576620000,22.2409610000 114.1577860000,22.2410670000 114.1578460000,22.2411680000 114.1578570000,22.2411870000 114.1578900000,22.2413210000 114.1579000000,22.2415530000 114.1578980000,22.2417920000 114.1579000000,22.2418480000 114.1579060000,22.2420700000 114.1578980000,22.2423930000 114.1578850000,22.2427210000 114.1578830000,22.2428510000 114.1578740000,22.2429900000 114.1578720000,22.2430400000 114.1578730000,22.2431630000 114.1578730000,22.2432530000 114.1578740000,22.2432940000 114.1578740000,22.2433290000 114.1578740000,22.2433790000 114.1577730000,22.2433810000 114.1576890000,22.2433880000 114.1575920000,22.2434050000 114.1575250000,22.2434290000 114.1574230000,22.2434900000 114.1573920000,22.2435170000 114.1573220000,22.2435780000 114.1572650000,22.2436410000 114.1573040000,22.2436640000 114.1573300000,22.2436870000 114.1574710000,22.2438570000 114.1574940000,22.2438860000 114.1575520000,22.2439590000 114.1576940000,22.2441480000 114.1577430000,22.2442080000 114.1578120000,22.2442770000 114.1578820000,22.2443300000 114.1579620000,22.2443900000 114.1580560000,22.2444470000 114.1581230000,22.2444770000 114.1582130000,22.2445170000 114.1583320000,22.2445710000 114.1585230000,22.2446550000 114.1586100000,22.2446970000 114.1587100000,22.2447530000 114.1588080000,22.2448120000 114.1588820000,22.2448640000 114.1589460000,22.2449160000 114.1590300000,22.2449900000 114.1602440000,22.2461300000 114.1607260000,22.2465700000 114.1607900000,22.2466330000 114.1608470000,22.2466970000 114.1608920000,22.2467650000 114.1609300000,22.2468370000 114.1609650000,22.2469210000 114.1609910000,22.2470020000 114.1610010000,22.2470540000 114.1610050000,22.2471090000 114.1610080000,22.2471740000 114.1610070000,22.2472360000 114.1609670000,22.2474040000 114.1609390000,22.2474980000 114.1609080000,22.2475810000 114.1609310000,22.2476450000 114.1608890000,22.2477630000 114.1605990000,22.2483890000 114.1605120000,22.2484900000 114.1604890000,22.2485200000 114.1604620000,22.2485560000 114.1604360000,22.2485760000 114.1604050000,22.2485940000 114.1603840000,22.2486030000 114.1603330000,22.2486140000 114.1602770000,22.2486190000 114.1602360000,22.2486190000 114.1601890000,22.2486050000 114.1601510000,22.2485840000 114.1601340000,22.2485710000 114.1601090000,22.2485480000 114.1600760000,22.2484970000 114.1600710000,22.2484690000 114.1600730000,22.2484000000 114.1601050000,22.2483380000 114.1601420000,22.2483000000 114.1601770000,22.2482750000 114.1602230000,22.2482600000 114.1602730000,22.2482480000 114.1603250000,22.2482460000 114.1604140000,22.2482480000 114.1605270000,22.2482510000 114.1605500000,22.2482630000 114.1606150000,22.2482960000 114.1606920000,22.2483370000 114.1608540000,22.2484220000 114.1611890000,22.2485540000 114.1613640000,22.2486110000 114.1614400000,22.2486250000 114.1615350000,22.2486430000 114.1615660000,22.2486490000 114.1617330000,22.2486760000 114.1617500000,22.2486790000 114.1619530000,22.2486880000 114.1621080000,22.2486850000 114.1621460000,22.2486840000 114.1629360000,22.2485920000 114.1630580000,22.2485780000 114.1633510000,22.2485380000 114.1637150000,22.2484880000 114.1637960000,22.2484770000 114.1641180000,22.2484260000 114.1642800000,22.2484000000 114.1643530000,22.2483880000 114.1644330000,22.2483970000 114.1645000000,22.2483980000 114.1645360000,22.2483960000 114.1649270000,22.2483690000 114.1650650000,22.2483700000 114.1651690000,22.2483720000 114.1654780000,22.2484030000 114.1656620000,22.2484360000 114.1658240000,22.2484730000 114.1660280000,22.2485370000 114.1661500000,22.2485830000 114.1662050000,22.2486020000 114.1663980000,22.2486910000 114.1669170000,22.2489510000 114.1670810000,22.2490420000 114.1672600000,22.2491250000 114.1673250000,22.2491550000 114.1673840000,22.2491310000 114.1674180000,22.2491080000 114.1674300000,22.2490740000 114.1674330000,22.2490330000 114.1674250000,22.2489860000 114.1670190000,22.2487850000 114.1664760000,22.2485230000 114.1665150000,22.2484350000 114.1666660000,22.2480310000 114.1667250000,22.2479900000 114.1667680000,22.2479680000 114.1667950000,22.2479610000 114.1668330000,22.2479580000 114.1668510000,22.2479550000 114.1669520000,22.2479440000 114.1671980000,22.2479880000 114.1672330000,22.2480230000 114.1672530000,22.2480280000 114.1672880000,22.2480370000 114.1673120000,22.2480440000 114.1673320000,22.2480490000 114.1674550000,22.2480850000 114.1675550000,22.2480990000 114.1676900000,22.2481400000 114.1682370000,22.2482840000 114.1686520000,22.2483520000 114.1686890000,22.2483580000 114.1690240000,22.2483930000 114.1693850000,22.2484370000 114.1694490000,22.2484450000 114.1694580000,22.2484050000 114.1694670000,22.2483110000 114.1694680000,22.2482600000 114.1694590000,22.2481910000 114.1694400000,22.2480420000 114.1691720000,22.2476060000 114.1690620000,22.2474000000 114.1690270000,22.2472570000 114.1690180000,22.2470370000 114.1690220000,22.2468190000 114.1690260000,22.2466650000 114.1690460000,22.2464850000 114.1690890000,22.2462470000 114.1690900000,22.2461060000 114.1690870000,22.2460370000 114.1690560000,22.2459510000 114.1690140000,22.2458750000 114.1689630000,22.2458180000 114.1688730000,22.2457360000 114.1687520000,22.2456610000 114.1684940000,22.2455370000 114.1684240000,22.2455120000 114.1682460000,22.2454490000 114.1680690000,22.2454000000 114.1678540000,22.2453610000 114.1677590000,22.2453550000 114.1676510000,22.2453620000 114.1675660000,22.2453710000 114.1674730000,22.2453920000 114.1673800000,22.2454230000 114.1673470000,22.2454380000 114.1672090000,22.2455160000 114.1668520000,22.2457270000 114.1666950000,22.2458220000 114.1665370000,22.2459120000 114.1663590000,22.2458210000 114.1663240000,22.2458000000 114.1662940000,22.2457770000 114.1662680000,22.2457500000 114.1662440000,22.2457200000 114.1662200000,22.2456810000 114.1659490000,22.2451520000 114.1659180000,22.2450920000 114.1658790000,22.2450230000 114.1658450000,22.2449710000 114.1658090000,22.2449230000 114.1657680000,22.2448760000 114.1657010000,22.2448110000 114.1655860000,22.2447090000 114.1654290000,22.2445800000 114.1645320000,22.2438240000 114.1642530000,22.2435940000 114.1641690000,22.2435240000 114.1640890000,22.2434560000 114.1640310000,22.2433990000 114.1639870000,22.2433370000 114.1639590000,22.2432810000 114.1639410000,22.2432310000 114.1639310000,22.2431750000 114.1639290000,22.2431280000 114.1639340000,22.2430730000 114.1639440000,22.2430290000 114.1639620000,22.2429860000 114.1639910000,22.2429390000 114.1640310000,22.2428910000 114.1640670000,22.2428580000 114.1641100000,22.2428290000 114.1641530000,22.2428060000 114.1641950000,22.2427890000 114.1642420000,22.2427770000 114.1642810000,22.2427700000 114.1643290000,22.2427650000 114.1643820000,22.2427640000 114.1644400000,22.2427660000 114.1646300000,22.2427890000 114.1647330000,22.2428020000 114.1647870000,22.2428040000 114.1648500000,22.2428020000 114.1649050000,22.2427950000 114.1649600000,22.2427830000 114.1650270000,22.2427610000 114.1650900000,22.2427310000 114.1651510000,22.2426920000 114.1652060000,22.2426480000 114.1652510000,22.2426070000 114.1658890000,22.2419760000 114.1659610000,22.2419040000 114.1660110000,22.2418510000 114.1660600000,22.2417910000 114.1661080000,22.2417250000 114.1661470000,22.2416590000 114.1661780000,22.2415950000 114.1662070000,22.2415230000 114.1662300000,22.2414490000 114.1662460000,22.2413700000 114.1662530000,22.2413080000 114.1662570000,22.2412410000 114.1662560000,22.2411680000 114.1661970000,22.2402080000 114.1661860000,22.2400420000 114.1661730000,22.2398180000 114.1661660000,22.2397540000 114.1661560000,22.2396940000 114.1661400000,22.2396260000 114.1661130000,22.2395420000 114.1660770000,22.2394450000 114.1660400000,22.2393710000 114.1659930000,22.2392880000 114.1659370000,22.2392100000 114.1658470000,22.2391050000 114.1656640000,22.2389520000 114.1654430000,22.2388210000 114.1653860000,22.2387960000 114.1651540000,22.2387060000 114.1649830000,22.2386280000 114.1649050000,22.2385690000 114.1647780000,22.2384250000 114.1646880000,22.2382850000 114.1646680000,22.2382190000 114.1646550000,22.2381520000 114.1646520000,22.2381180000 114.1646490000,22.2380840000 114.1646520000,22.2380160000 114.1646620000,22.2379480000 114.1646790000,22.2378870000 114.1647020000,22.2378270000 114.1647310000,22.2377700000 114.1647660000,22.2377150000 114.1648070000,22.2376640000 114.1648820000,22.2375670000 114.1649500000,22.2374650000 114.1650090000,22.2373590000 114.1650420000,22.2372890000 114.1650570000,22.2372580000 114.1650970000,22.2371540000 114.1651000000,22.2371450000 114.1651290000,22.2370480000 114.1651560000,22.2369580000 114.1652200000,22.2367420000 114.1652460000,22.2366770000 114.1652800000,22.2366150000 114.1653230000,22.2365590000 114.1653730000,22.2365070000 114.1654290000,22.2364630000 114.1654910000,22.2364250000 114.1655570000,22.2363950000 114.1656270000,22.2363720000 114.1657000000,22.2363580000 114.1657730000,22.2363530000 114.1661390000,22.2363270000 114.1666610000,22.2362900000 114.1670320000,22.2362900000 114.1671450000,22.2362910000 114.1672570000,22.2363010000 114.1673500000,22.2363170000 114.1674320000,22.2363350000 114.1675170000,22.2363610000 114.1675300000,22.2363680000 114.1675570000,22.2363820000 114.1676010000,22.2363940000 114.1676470000,22.2363970000 114.1676930000,22.2363910000 114.1677350000,22.2363760000 114.1677740000,22.2363520000 114.1678060000,22.2363220000 114.1678300000,22.2362850000 114.1678450000,22.2362450000 114.1678480000,22.2362180000 114.1678500000,22.2362030000 114.1678460000,22.2361700000 114.1678450000,22.2361630000 114.1678320000,22.2361240000 114.1678100000,22.2360890000 114.1677810000,22.2360590000 114.1677460000,22.2360340000 114.1677060000,22.2360180000 114.1676630000,22.2360090000 114.1676190000,22.2360090000 114.1675760000,22.2360170000 114.1674120000,22.2360720000 114.1673440000,22.2360960000 114.1669120000,22.2362420000 114.1666610000,22.2362900000 114.1661390000,22.2363270000 114.1657730000,22.2363530000 114.1657000000,22.2363580000 114.1656270000,22.2363720000 114.1655570000,22.2363950000 114.1654910000,22.2364250000 114.1654290000,22.2364630000 114.1653730000,22.2365070000 114.1653230000,22.2365590000 114.1652800000,22.2366150000 114.1652460000,22.2366770000 114.1652200000,22.2367420000 114.1651560000,22.2369580000 114.1651290000,22.2370480000 114.1651000000,22.2371450000 114.1650970000,22.2371540000 114.1650570000,22.2372580000 114.1650420000,22.2372890000 114.1650090000,22.2373590000 114.1649500000,22.2374650000 114.1648820000,22.2375670000 114.1648070000,22.2376640000 114.1647660000,22.2377150000 114.1647310000,22.2377700000 114.1647020000,22.2378270000 114.1646790000,22.2378870000 114.1646620000,22.2379480000 114.1646520000,22.2380160000 114.1646490000,22.2380840000 114.1646520000,22.2381180000 114.1646550000,22.2381520000 114.1646680000,22.2382190000 114.1646880000,22.2382850000 114.1647780000,22.2384250000 114.1649050000,22.2385690000 114.1649830000,22.2386280000 114.1651540000,22.2387060000 114.1653860000,22.2387960000 114.1654430000,22.2388210000 114.1656640000,22.2389520000 114.1658470000,22.2391050000 114.1659370000,22.2392100000 114.1659930000,22.2392880000 114.1660400000,22.2393710000 114.1660770000,22.2394450000 114.1661130000,22.2395420000 114.1661400000,22.2396260000 114.1661560000,22.2396940000 114.1661660000,22.2397540000 114.1661730000,22.2398180000 114.1661860000,22.2400420000 114.1661970000,22.2402080000 114.1662560000,22.2411680000 114.1662570000,22.2412410000 114.1662530000,22.2413080000 114.1662460000,22.2413700000 114.1662300000,22.2414490000 114.1662070000,22.2415230000 114.1661780000,22.2415950000 114.1661470000,22.2416590000 114.1661080000,22.2417250000 114.1660600000,22.2417910000 114.1660110000,22.2418510000 114.1659610000,22.2419040000 114.1658890000,22.2419760000 114.1652510000,22.2426070000 114.1652060000,22.2426480000 114.1651510000,22.2426920000 114.1650900000,22.2427310000 114.1650270000,22.2427610000 114.1649600000,22.2427830000 114.1649050000,22.2427950000 114.1648500000,22.2428020000 114.1647870000,22.2428040000 114.1647330000,22.2428020000 114.1646300000,22.2427890000 114.1644400000,22.2427660000 114.1643820000,22.2427640000 114.1643290000,22.2427650000 114.1642810000,22.2427700000 114.1642420000,22.2427770000 114.1641950000,22.2427890000 114.1641530000,22.2428060000 114.1641100000,22.2428290000 114.1640670000,22.2428580000 114.1640310000,22.2428910000 114.1639910000,22.2429390000 114.1639620000,22.2429860000 114.1639440000,22.2430290000 114.1639340000,22.2430730000 114.1639290000,22.2431280000 114.1639310000,22.2431750000 114.1639410000,22.2432310000 114.1639590000,22.2432810000 114.1639870000,22.2433370000 114.1640310000,22.2433990000 114.1640890000,22.2434560000 114.1641690000,22.2435240000 114.1642530000,22.2435940000 114.1645320000,22.2438240000 114.1654290000,22.2445800000 114.1655860000,22.2447090000 114.1657010000,22.2448110000 114.1657680000,22.2448760000 114.1658090000,22.2449230000 114.1658450000,22.2449710000 114.1658790000,22.2450230000 114.1659180000,22.2450920000 114.1659490000,22.2451520000 114.1662200000,22.2456810000 114.1662440000,22.2457200000 114.1662680000,22.2457500000 114.1662940000,22.2457770000 114.1663240000,22.2458000000 114.1663590000,22.2458210000 114.1665370000,22.2459120000 114.1665190000,22.2459400000 114.1665020000,22.2459730000 114.1664780000,22.2461010000 114.1664000000,22.2462210000 114.1663340000,22.2463650000 114.1663060000,22.2465300000 114.1663160000,22.2466380000 114.1663470000,22.2467870000 114.1663960000,22.2469480000 114.1664550000,22.2471090000 114.1665120000,22.2472290000 114.1666420000,22.2474350000 114.1666690000,22.2474770000 114.1666970000,22.2475220000 114.1667490000,22.2475940000 114.1667540000,22.2476710000 114.1667350000,22.2477620000 114.1667120000,22.2478570000 114.1666970000,22.2479030000 114.1666830000,22.2479600000 114.1666660000,22.2480310000 114.1665150000,22.2484350000 114.1664760000,22.2485230000 114.1663980000,22.2486910000 114.1669170000,22.2489510000 114.1670810000,22.2490420000 114.1672600000,22.2491250000 114.1673250000,22.2491550000 114.1673900000,22.2491920000 114.1674290000,22.2492100000 114.1674760000,22.2492260000 114.1675310000,22.2492520000 114.1677890000,22.2493740000 114.1680260000,22.2494860000 114.1680880000,22.2495170000 114.1683750000,22.2496590000 114.1690450000,22.2499930000 114.1691970000,22.2500610000 114.1693290000,22.2501220000 114.1694100000,22.2501390000 114.1694770000,22.2501480000 114.1695740000,22.2501900000 114.1696880000,22.2502320000 114.1698570000,22.2502960000 114.1699640000,22.2503370000 114.1700420000,22.2503590000 114.1701150000,22.2503800000 114.1702680000,22.2504180000 114.1704260000,22.2504520000 114.1705900000,22.2504820000 114.1706500000,22.2504910000 114.1707510000,22.2505060000 114.1708130000,22.2505220000 114.1708640000,22.2505350000 114.1709710000,22.2505390000 114.1712300000,22.2505490000 114.1713550000,22.2505500000 114.1715300000,22.2505420000 114.1716580000,22.2505320000 114.1718190000,22.2505070000 114.1719570000,22.2504570000 114.1719960000,22.2504500000 114.1723150000,22.2503850000 114.1723780000,22.2503720000 114.1724990000,22.2503470000 114.1726150000,22.2503230000 114.1728290000,22.2502770000 114.1740470000,22.2500220000 114.1741470000,22.2500060000 114.1744890000,22.2499480000 114.1745760000,22.2499410000 114.1750070000,22.2499050000 114.1751600000,22.2498960000 114.1753250000,22.2498950000 114.1753940000,22.2498960000 114.1755570000,22.2499030000 114.1757290000,22.2499160000 114.1758800000,22.2499360000 114.1760220000,22.2499620000 114.1760840000,22.2499760000 114.1761860000,22.2500010000 114.1763430000,22.2500510000 114.1765050000,22.2501060000 114.1766710000,22.2501750000 114.1767850000,22.2502340000 114.1769080000,22.2502990000 114.1769680000,22.2503350000 114.1770160000,22.2503660000 114.1770570000,22.2503960000 114.1770950000,22.2504260000 114.1771280000,22.2505110000 114.1772830000,22.2506400000 114.1774210000,22.2507680000 114.1775460000,22.2508990000 114.1776520000,22.2510260000 114.1777490000,22.2511650000 114.1778550000,22.2513240000 114.1779680000,22.2514850000 114.1780040000,22.2515380000 114.1780390000,22.2515900000 114.1782310000,22.2518910000 114.1785930000,22.2524730000 114.1786850000,22.2526170000 114.1787110000,22.2526580000 114.1788030000,22.2528010000 114.1790350000,22.2531650000 114.1791240000,22.2533270000 114.1792610000,22.2535740000 114.1793690000,22.2537830000 114.1794600000,22.2539900000 114.1795500000,22.2542100000 114.1796300000,22.2544200000 114.1796800000,22.2545700000 114.1797300000,22.2547500000 114.1797660000,22.2549200000 114.1797900000,22.2551000000 114.1798100000,22.2552900000 114.1798200000,22.2554200000 114.1804190000,22.2697400000 114.1804200000,22.2700300000 114.1804100000,22.2703000000 114.1803900000,22.2705480000 114.1803770000,22.2706310000 114.1803610000,22.2707340000 114.1803260000,22.2709880000 114.1803110000,22.2710690000 114.1802970000,22.2711460000 114.1802440000,22.2713430000 114.1802380000,22.2713920000 114.1802320000,22.2714480000 114.1802250000,22.2715050000 114.1802010000,22.2715830000 114.1801400000,22.2717640000 114.1800710000,22.2719570000 114.1794830000,22.2735410000 114.1794490000,22.2736720000 114.1794210000,22.2738100000 114.1794140000,22.2740100000 114.1794250000,22.2741760000 114.1794370000,22.2743080000 114.1794680000,22.2744360000 114.1795100000,22.2745830000 114.1795570000,22.2746880000 114.1797060000,22.2749470000 114.1798050000,22.2750750000 114.1799140000,22.2751900000 114.1802720000,22.2755450000 114.1807610000,22.2760690000 114.1809280000,22.2763100000 114.1809390000,22.2763260000 114.1809600000,22.2763570000 114.1809790000,22.2763860000 114.1810460000,22.2765300000 114.1810460000,22.2766090000 114.1810460000,22.2766710000 114.1810590000,22.2767290000 114.1810760000,22.2768090000 114.1810840000,22.2768830000 114.1811080000,22.2771100000 114.1811200000,22.2775980000 114.1811380000,22.2777370000 114.1812100000,22.2789240000 114.1812170000,22.2790490000 114.1812190000,22.2791020000 114.1812180000,22.2791440000 114.1812080000,22.2791810000 114.1811860000,22.2792300000 114.1811830000,22.2792750000 114.1811590000,22.2794500000 114.1811140000,22.2795580000 114.1810910000,22.2796060000 114.1809900000,22.2798370000 114.1809620000,22.2799000000 114.1809190000,22.2799990000 114.1808410000,22.2801760000 114.1807490000,22.2803850000 114.1806940000,22.2805160000 114.1806350000,22.2806540000 114.1806010000,22.2807110000 114.1805830000,22.2807380000 114.1805630000,22.2807730000 114.1805510000,22.2808030000 114.1805240000,22.2808610000 114.1804410000,22.2809500000 114.1802070000,22.2811200000 114.1801760000,22.2811460000 114.1801350000,22.2811870000 114.1801030000,22.2812230000 114.1800750000,22.2812650000 114.1800440000,22.2813240000 114.1800140000,22.2814400000 114.1800220000,22.2815230000 114.1800300000,22.2815710000 114.1800420000,22.2816020000 114.1800800000,22.2816770000 114.1801350000,22.2817640000 114.1802160000,22.2818350000 114.1802810000,22.2818710000 114.1803390000,22.2818920000 114.1803780000,22.2819240000 114.1804110000,22.2819500000 114.1804800000,22.2819790000 114.1806280000,22.2820340000 114.1807760000,22.2820760000 114.1809360000,22.2821050000 114.1810680000,22.2821240000 114.1812100000,22.2821400000 114.1813560000,22.2821090000 114.1814960000,22.2820650000 114.1816110000,22.2820320000 114.1817260000,22.2819980000 114.1818980000,22.2819460000 114.1820740000,22.2819080000 114.1821660000,22.2818980000 114.1822440000,22.2818990000 114.1823330000,22.2819020000 114.1824040000,22.2819130000 114.1824850000,22.2819340000 114.1826300000,22.2819870000 114.1827130000,22.2820200000 114.1827980000,22.2820550000 114.1829230000,22.2820710000 114.1830180000,22.2821070000 114.1831550000,22.2821590000 114.1833640000,22.2822340000 114.1835080000,22.2822920000 114.1835630000,22.2823140000 114.1838660000,22.2824360000 114.1840860000,22.2825590000 114.1842650000,22.2826710000 114.1844800000,22.2828210000 114.1845510000,22.2828580000 114.1847280000,22.2829580000 114.1852190000,22.2833510000 114.1853990000,22.2834910000 114.1854520000,22.2835280000 114.1855110000,22.2835590000 114.1855760000,22.2835790000 114.1856400000,22.2835890000 114.1857000000,22.2835920000 114.1857680000,22.2835880000 114.1858430000,22.2835750000 114.1859080000,22.2835560000 114.1859600000,22.2835300000 114.1859990000,22.2835040000 114.1860300000,22.2834780000 114.1860660000,22.2834400000 114.1861200000,22.2833700000 114.1861600000,22.2832900000 114.1861690000,22.2832550000 114.1861780000,22.2832200000 114.1861830000,22.2831500000 114.1861620000,22.2830540000 114.1861670000,22.2829620000 114.1861810000,22.2828710000 114.1862000000,22.2827800000 114.1862720000,22.2825900000 114.1863400000,22.2824580000 114.1865020000,22.2820020000 114.1865510000,22.2818700000 114.1866110000,22.2817060000 114.1866860000,22.2814880000 114.1868310000,22.2811570000 114.1868860000,22.2810130000 114.1869080000,22.2809620000 114.1869380000,22.2808900000 114.1869640000,22.2808350000 114.1870150000,22.2807810000 114.1872160000,22.2802410000 114.1872730000,22.2801340000 114.1873190000,22.2800780000 114.1873750000,22.2800240000 114.1874280000,22.2799720000 114.1874460000,22.2799470000 114.1874660000,22.2798870000 114.1875110000,22.2797270000 114.1875300000,22.2796890000 114.1875620000,22.2796700000 114.1876000000,22.2796680000 114.1876480000,22.2796760000 114.1877320000,22.2797050000 114.1878220000,22.2797470000 114.1879630000,22.2798220000 114.1881040000,22.2799140000 114.1881360000,22.2799280000 114.1881710000,22.2799370000 114.1882000000,22.2799430000 114.1882610000,22.2799380000 114.1883320000,22.2799260000 114.1886080000,22.2801090000 114.1888300000,22.2802620000 114.1894050000,22.2806560000 114.1896180000,22.2808030000 114.1907300000,22.2815450000 114.1908350000,22.2816170000 114.1909610000,22.2817060000 114.1912010000,22.2818720000 114.1912280000,22.2818910000 114.1912890000,22.2819310000 114.1912600000,22.2819980000 114.1912580000,22.2820770000 114.1912390000,22.2824800000 114.1912380000,22.2825130000 114.1912340000,22.2826160000 114.1912320000,22.2826720000 114.1912310000,22.2826750000 114.1912210000,22.2829090000 114.1912180000,22.2829940000 114.1911980000,22.2833720000 114.1911740000,22.2837530000 114.1911600000,22.2839750000 114.1911480000,22.2841510000 114.1911370000,22.2843100000 114.1911270000,22.2843800000 114.1911140000,22.2844460000 114.1910980000,22.2844980000 114.1910300000,22.2846920000 114.1910010000,22.2847700000 114.1909730000,22.2848400000 114.1909220000,22.2849480000 114.1908430000,22.2850990000 114.1908210000,22.2851380000 114.1907780000,22.2852160000 114.1907860000,22.2852330000 114.1907810000,22.2852540000 114.1907650000,22.2852860000 114.1907360000,22.2853280000 114.1907190000,22.2853570000 114.1907090000,22.2853880000 114.1907070000,22.2854080000 114.1907090000,22.2854270000 114.1907230000,22.2854500000 114.1909330000,22.2855920000 114.1909780000,22.2856210000 114.1910630000,22.2856790000 114.1910790000,22.2856890000 114.1913500000,22.2858720000 114.1914040000,22.2859080000 114.1914310000,22.2859190000 114.1914760000,22.2859510000 114.1915150000,22.2859880000 114.1915440000,22.2860340000 114.1915590000,22.2860840000 114.1915600000,22.2861370000 114.1915280000,22.2866830000 114.1915220000,22.2867600000 114.1915280000,22.2868370000 114.1915470000,22.2869120000 114.1915770000,22.2869840000 114.1916140000,22.2870460000 114.1916730000,22.2871190000 114.1918540000,22.2873200000 114.1918710000,22.2873390000 114.1919360000,22.2874170000 114.1919990000,22.2874960000 114.1921490000,22.2876610000 114.1928140000,22.2883870000 114.1928470000,22.2884230000 114.1932230000,22.2888410000 114.1935690000,22.2892020000 114.1935820000,22.2892150000 114.1936850000,22.2893290000 114.1940390000,22.2897420000 114.1940690000,22.2897750000 114.1941280000,22.2898330000 114.1948160000,22.2906000000 114.1948400000,22.2906260000 114.1950170000,22.2908170000 114.1951340000,22.2909430000 114.1952500000,22.2910400000 114.1953390000,22.2910970000 114.1955040000,22.2911690000 114.1955250000,22.2911790000 114.1960580000,22.2914110000 114.1963320000,22.2915170000 114.1963580000,22.2915290000 114.1965580000,22.2915780000 114.1967070000,22.2916090000 114.1967440000,22.2916160000 114.1971080000,22.2916850000 114.1984160000,22.2919430000 114.1984600000,22.2919510000 114.1985700000,22.2919730000 114.1987650000,22.2920130000 114.1988570000,22.2920320000 114.1989210000,22.2920450000 114.1998850000,22.2922530000 114.1999400000,22.2922630000 114.2000440000,22.2922820000 114.2001400000,22.2923020000 114.2008440000,22.2924500000 114.2013000000,22.2925460000 114.2013940000,22.2925660000 114.2015150000,22.2925890000 114.2023880000,22.2927630000 114.2027040000,22.2928260000 114.2027600000,22.2928370000 114.2028370000,22.2928520000 114.2037650000,22.2930550000 114.2038670000,22.2930770000 114.2040090000,22.2931060000 114.2040940000,22.2931020000 114.2041260000,22.2930980000 114.2041660000,22.2930940000 114.2042730000,22.2930730000 114.2043390000,22.2930540000 114.2043960000,22.2930400000 114.2044240000,22.2930320000 114.2044470000,22.2930260000 114.2044750000,22.2930160000 114.2048000000,22.2929270000 114.2048470000,22.2929140000 114.2049510000,22.2928860000 114.2050520000,22.2928610000 114.2052970000,22.2928030000 114.2058490000,22.2926730000 114.2058950000,22.2926630000 114.2059610000,22.2926440000 114.2060510000,22.2926190000 114.2062100000,22.2925510000 114.2063730000,22.2925070000 114.2064940000,22.2924740000 114.2072060000,22.2922730000 114.2072410000,22.2922630000 114.2073230000,22.2922390000 114.2074540000,22.2921980000 114.2077060000,22.2921200000 114.2079130000,22.2920560000 114.2082680000,22.2919460000 114.2082950000,22.2919380000 114.2083200000,22.2919300000 114.2083490000,22.2919210000 114.2083640000,22.2919160000 114.2084430000,22.2918920000 114.2084960000,22.2918750000 114.2085760000,22.2918500000 114.2086760000,22.2918180000 114.2087900000,22.2917810000 114.2089870000,22.2917170000 114.2090310000,22.2917030000 114.2091120000,22.2916770000 114.2091170000,22.2916730000 114.2092060000,22.2915960000 114.2092740000,22.2915050000 114.2093040000,22.2914440000 114.2093250000,22.2913790000 114.2093340000,22.2913080000 114.2093340000,22.2912350000 114.2093270000,22.2911650000 114.2093130000,22.2911020000 114.2092600000,22.2909060000 114.2092460000,22.2908560000 114.2092320000,22.2907690000 114.2092410000,22.2906320000 114.2092840000,22.2905340000 114.2093340000,22.2904190000 114.2093980000,22.2902350000 114.2094930000,22.2899470000 114.2095350000,22.2898200000 114.2096180000,22.2895630000 114.2096450000,22.2894760000 114.2096710000,22.2893920000 114.2096790000,22.2893630000 114.2097850000,22.2890430000 114.2098990000,22.2887200000 114.2099850000,22.2884730000 114.2100990000,22.2881000000 114.2102430000,22.2876710000 114.2102500000,22.2876500000 114.2102600000,22.2876160000 114.2102690000,22.2875870000 114.2102780000,22.2875550000 114.2103080000,22.2874660000 114.2104320000,22.2870870000 114.2105270000,22.2868150000 114.2105580000,22.2867460000 114.2105640000,22.2867340000 114.2105760000,22.2867100000 114.2106090000,22.2866570000 114.2106530000,22.2865830000 114.2107150000,22.2864800000 114.2108730000,22.2862390000 114.2110340000,22.2859930000 114.2111150000,22.2858650000 114.2111360000,22.2858320000 114.2111870000,22.2857520000 114.2113210000,22.2855440000 114.2113460000,22.2854980000 114.2114280000,22.2853540000 114.2114810000,22.2852650000 114.2115260000,22.2852060000 114.2116720000,22.2850900000 114.2117680000,22.2850370000 114.2118790000,22.2849970000 114.2119370000,22.2849770000 114.2121640000,22.2848970000 114.2122930000,22.2848570000 114.2123180000,22.2848510000 114.2123760000,22.2848320000 114.2125620000,22.2847730000 114.2125910000,22.2847660000 114.2127110000,22.2847370000 114.2128970000,22.2847300000 114.2129370000,22.2847290000 114.2130720000,22.2847280000 114.2132730000,22.2847320000 114.2135540000,22.2847330000 114.2136670000,22.2847340000 114.2142410000,22.2847510000 114.2144420000,22.2847500000 114.2146170000,22.2847530000 114.2146900000,22.2847770000 114.2147390000,22.2847980000 114.2147880000,22.2848260000 114.2148290000,22.2848540000 114.2148660000,22.2848850000 114.2148980000,22.2849160000 114.2149170000,22.2849360000 114.2149260000,22.2849460000 114.2149430000,22.2849680000 114.2149470000,22.2849720000 114.2149650000,22.2849990000 114.2149850000,22.2850360000 114.2151070000,22.2853240000 114.2151430000,22.2853960000 114.2151860000,22.2854540000 114.2152400000,22.2855170000 114.2153090000,22.2855800000 114.2154190000,22.2856630000 114.2155300000,22.2857290000 114.2156110000,22.2857640000 114.2156890000,22.2857930000 114.2157840000,22.2858190000 114.2158650000,22.2858370000 114.2159440000,22.2858500000 114.2160350000,22.2858610000 114.2161430000,22.2858660000 114.2162780000,22.2858570000 114.2163480000,22.2858430000 114.2164350000,22.2858200000 114.2165140000,22.2857920000 114.2165920000,22.2857580000 114.2167230000,22.2856900000 114.2170030000,22.2855160000 114.2171440000,22.2854440000 114.2172430000,22.2853970000 114.2173370000,22.2853570000 114.2173540000,22.2853510000 114.2175780000,22.2852570000 114.2176310000,22.2852370000 114.2176410000,22.2852330000 114.2178070000,22.2851730000 114.2179570000,22.2851330000 114.2182640000,22.2850660000 114.2183550000,22.2850500000 114.2185780000,22.2850100000 114.2187810000,22.2849790000 114.2189420000,22.2849780000 114.2190210000,22.2849720000 114.2190980000,22.2849680000 114.2192360000,22.2849470000 114.2193910000,22.2849110000 114.2195190000,22.2848720000 114.2196560000,22.2848180000 114.2198190000,22.2847380000 114.2199030000,22.2846840000 114.2199810000,22.2846250000 114.2200420000,22.2845750000 114.2201230000,22.2844980000 114.2202410000,22.2843540000 114.2206620000,22.2838130000 114.2209860000,22.2834030000 114.2212450000,22.2830700000 114.2213170000,22.2829780000 114.2213770000,22.2830200000 114.2215850000,22.2831620000 114.2216600000,22.2832130000 114.2218290000,22.2833290000 114.2218720000,22.2833580000 114.2219410000,22.2834050000 114.2219920000,22.2834400000 114.2221230000,22.2835410000 114.2221380000,22.2835530000 114.2221560000,22.2835670000 114.2221720000,22.2835790000 114.2222160000,22.2836120000 114.2222670000,22.2836510000 114.2223560000,22.2837240000 114.2223700000,22.2837360000 114.2223890000,22.2837500000 114.2224780000,22.2838170000 114.2226060000,22.2839380000 114.2231380000,22.2844430000 114.2237840000,22.2850610000 114.2240400000,22.2853030000 114.2240780000,22.2852730000 114.2241100000,22.2852460000 114.2243600000,22.2850300000 114.2244430000,22.2849510000 114.2248120000,22.2845980000 114.2247150000,22.2845090000 114.2246300000,22.2844180000 114.2246180000,22.2844050000 114.2245920000,22.2843800000 114.2245470000,22.2843370000 114.2246000000,22.2842870000 114.2242920000,22.2839960000 114.2239530000,22.2836760000 114.2235520000,22.2833100000 114.2234700000,22.2832350000 114.2234210000,22.2831890000 114.2233600000,22.2831340000 114.2232320000,22.2830210000 114.2231990000,22.2829900000 114.2230870000,22.2828800000 114.2230710000,22.2828650000 114.2230630000,22.2828560000 114.2230500000,22.2828440000 114.2229740000,22.2827720000 114.2229100000,22.2827240000 114.2227960000,22.2826470000 114.2226230000,22.2825280000 114.2225770000,22.2824960000 114.2224410000,22.2823990000 114.2223970000,22.2823670000 114.2222020000,22.2822340000 114.2221620000,22.2822170000 114.2220490000,22.2821710000 114.2219780000,22.2821440000 114.2218900000,22.2821170000 114.2218650000,22.2821120000 114.2218180000,22.2821090000 114.2217610000,22.2821820000 114.2215420000,22.2824650000 114.2212900000,22.2827900000 114.2212030000,22.2828980000 114.2211280000,22.2829910000 114.2209590000,22.2832080000 114.2208720000,22.2833270000 114.2206720000,22.2835830000 114.2205490000,22.2837380000 114.2200900000,22.2843030000 114.2200800000,22.2843170000 114.2200130000,22.2843980000 114.2199520000,22.2844710000 114.2199080000,22.2845200000 114.2198680000,22.2845620000 114.2198140000,22.2846060000 114.2197520000,22.2846470000 114.2196810000,22.2846880000 114.2196080000,22.2847260000 114.2195070000,22.2847710000 114.2193900000,22.2848080000 114.2192710000,22.2848380000 114.2191350000,22.2848640000 114.2189620000,22.2848800000 114.2188380000,22.2848850000 114.2186930000,22.2848790000 114.2185050000,22.2848580000 114.2183270000,22.2848280000 114.2180130000,22.2847520000 114.2178720000,22.2847160000 114.2174830000,22.2846240000 114.2172680000,22.2845900000 114.2170510000,22.2845630000 114.2167690000,22.2845540000 114.2157680000,22.2845600000 114.2156560000,22.2845690000 114.2155520000,22.2845760000 114.2153420000,22.2845930000 114.2149420000,22.2846250000 114.2147470000,22.2846360000 114.2144610000,22.2846360000 114.2142890000,22.2846290000 114.2136740000,22.2846060000 114.2135550000,22.2846010000 114.2130270000,22.2845940000 114.2129870000,22.2845940000 114.2129300000,22.2845990000 114.2128000000,22.2846110000 114.2126900000,22.2846260000 114.2125430000,22.2846460000 114.2124270000,22.2846740000 114.2123310000,22.2847010000 114.2122800000,22.2847170000 114.2121840000,22.2847460000 114.2120790000,22.2847770000 114.2119570000,22.2848190000 114.2118510000,22.2848580000 114.2117960000,22.2848790000 114.2117070000,22.2849210000 114.2116350000,22.2849550000 114.2115690000,22.2849970000 114.2115200000,22.2850330000 114.2114750000,22.2850740000 114.2114250000,22.2851330000 114.2113790000,22.2851950000 114.2111410000,22.2855670000 114.2110610000,22.2856900000 114.2110400000,22.2857230000 114.2110140000,22.2857620000 114.2108180000,22.2860740000 114.2107710000,22.2861480000 114.2105260000,22.2865330000 114.2104800000,22.2866050000 114.2104470000,22.2866630000 114.2104350000,22.2866890000 114.2104290000,22.2867010000 114.2104000000,22.2867620000 114.2103130000,22.2870220000 114.2102970000,22.2870710000 114.2102600000,22.2871620000 114.2102330000,22.2872410000 114.2102120000,22.2873050000 114.2101400000,22.2875460000 114.2101270000,22.2875850000 114.2101170000,22.2876140000 114.2101080000,22.2876390000 114.2100960000,22.2876750000 114.2100300000,22.2878640000 114.2099700000,22.2880490000 114.2099350000,22.2881560000 114.2098500000,22.2884060000 114.2098400000,22.2884330000 114.2097480000,22.2886950000 114.2097240000,22.2887680000 114.2095520000,22.2893280000 114.2093600000,22.2898980000 114.2092590000,22.2901990000 114.2091910000,22.2903930000 114.2091480000,22.2905020000 114.2090960000,22.2906130000 114.2090470000,22.2907030000 114.2090160000,22.2907530000 114.2089830000,22.2908030000 114.2089670000,22.2908250000 114.2089110000,22.2908950000 114.2088700000,22.2909420000 114.2088300000,22.2909850000 114.2087920000,22.2910230000 114.2087190000,22.2910920000 114.2086440000,22.2911540000 114.2085780000,22.2912030000 114.2085130000,22.2912440000 114.2084420000,22.2912850000 114.2083580000,22.2913270000 114.2082580000,22.2913750000 114.2082170000,22.2913940000 114.2081820000,22.2914090000 114.2081390000,22.2914250000 114.2080520000,22.2914560000 114.2078710000,22.2915220000 114.2073340000,22.2917160000 114.2072860000,22.2917340000 114.2071610000,22.2917780000 114.2068080000,22.2919010000 114.2067540000,22.2919160000 114.2066850000,22.2919250000 114.2065100000,22.2919400000 114.2061150000,22.2919710000 114.2059010000,22.2919760000 114.2058780000,22.2919740000 114.2058380000,22.2919730000 114.2057680000,22.2919730000 114.2056620000,22.2919720000 114.2053830000,22.2919700000 114.2049910000,22.2919640000 114.2049430000,22.2919630000 114.2046920000,22.2919580000 114.2046400000,22.2919570000 114.2045120000,22.2919470000 114.2043640000,22.2919390000 114.2042950000,22.2919310000 114.2040150000,22.2918710000 114.2038270000,22.2918310000 114.2035030000,22.2917660000 114.2033670000,22.2917390000 114.2033410000,22.2917340000 114.2033240000,22.2917310000 114.2033040000,22.2917270000 114.2032910000,22.2917240000 114.2031770000,22.2917010000 114.2031080000,22.2916870000 114.2027420000,22.2916130000 114.2025740000,22.2915780000 114.2023540000,22.2915320000 114.2023230000,22.2915260000 114.2021560000,22.2914910000 114.2021070000,22.2914810000 114.2017780000,22.2914140000 114.2016760000,22.2913940000 114.2013020000,22.2913170000 114.2009440000,22.2912410000 114.2006030000,22.2911730000 114.2004610000,22.2911450000 114.2003230000,22.2911150000 114.1998350000,22.2910140000 114.1995200000,22.2909490000 114.1995030000,22.2909460000 114.1993870000,22.2909220000 114.1993660000,22.2909170000 114.1991330000,22.2908660000 114.1991220000,22.2908640000 114.1990180000,22.2908420000 114.1989490000,22.2908270000 114.1988950000,22.2908150000 114.1987320000,22.2907840000 114.1982720000,22.2906850000 114.1976010000,22.2905490000 114.1970670000,22.2904410000 114.1968590000,22.2904120000 114.1966180000,22.2903630000 114.1965740000,22.2903540000 114.1958210000,22.2902000000 114.1958000000,22.2901950000 114.1957510000,22.2901850000 114.1955490000,22.2901400000 114.1954640000,22.2901190000 114.1954350000,22.2901090000 114.1953600000,22.2900850000 114.1952220000,22.2900220000 114.1951230000,22.2899600000 114.1950440000,22.2899000000 114.1949620000,22.2898250000 114.1947570000,22.2895830000 114.1947000000,22.2895280000 114.1946360000,22.2894580000 114.1946050000,22.2894080000 114.1945520000,22.2893250000 114.1944580000,22.2892190000 114.1944490000,22.2892090000 114.1944390000,22.2891980000 114.1944310000,22.2891880000 114.1944220000,22.2891790000 114.1943110000,22.2890520000 114.1942340000,22.2889650000 114.1938690000,22.2885610000 114.1936620000,22.2883330000 114.1934520000,22.2880920000 114.1933680000,22.2879940000 114.1932260000,22.2878210000 114.1931440000,22.2877040000 114.1930900000,22.2875930000 114.1930560000,22.2875150000 114.1930250000,22.2874440000 114.1930080000,22.2873910000 114.1929920000,22.2873240000 114.1929780000,22.2872280000 114.1929710000,22.2871600000 114.1929670000,22.2870700000 114.1929680000,22.2870230000 114.1929650000,22.2869900000 114.1929670000,22.2869200000 114.1929810000,22.2868530000 114.1929890000,22.2866020000 114.1929910000,22.2865540000 114.1929920000,22.2864730000 114.1930010000,22.2862070000 114.1930060000,22.2859650000 114.1930080000,22.2858200000 114.1930070000,22.2855770000 114.1930010000,22.2854810000 114.1929890000,22.2853700000 114.1929770000,22.2853080000 114.1928810000,22.2847740000 114.1928040000,22.2843680000 114.1927660000,22.2841910000 114.1926440000,22.2836020000 114.1926200000,22.2835040000 114.1925970000,22.2834320000 114.1925410000,22.2832850000 114.1924650000,22.2831050000 114.1923930000,22.2829500000 114.1923570000,22.2828710000 114.1922150000,22.2825790000 114.1921440000,22.2824650000 114.1920560000,22.2823530000 114.1920140000,22.2823010000 114.1919750000,22.2822570000 114.1919140000,22.2821900000 114.1918890000,22.2821650000 114.1918560000,22.2821370000 114.1917750000,22.2820740000 114.1917060000,22.2820260000 114.1914710000,22.2818590000 114.1914570000,22.2818500000 114.1913330000,22.2817660000 114.1909050000,22.2814850000 114.1908100000,22.2814230000 114.1903820000,22.2811300000 114.1896480000,22.2806270000 114.1895030000,22.2805270000 114.1894430000,22.2804860000 114.1889260000,22.2801340000 114.1886970000,22.2799780000 114.1881330000,22.2796030000 114.1879860000,22.2795050000 114.1879500000,22.2794820000 114.1878300000,22.2794030000 114.1876680000,22.2792970000 114.1873360000,22.2791450000 114.1872690000,22.2790210000 114.1872290000,22.2789720000 114.1870950000,22.2788060000 114.1870360000,22.2787430000 114.1868840000,22.2785920000 114.1867550000,22.2784640000 114.1864490000,22.2781620000 114.1862270000,22.2779420000 114.1861410000,22.2778640000 114.1860680000,22.2777980000 114.1856940000,22.2774040000 114.1855020000,22.2772050000 114.1854710000,22.2771870000 114.1854420000,22.2771750000 114.1854170000,22.2771650000 114.1853500000,22.2771380000 114.1852850000,22.2771300000 114.1852150000,22.2771350000 114.1851850000,22.2771450000 114.1850660000,22.2771850000 114.1849380000,22.2772470000 114.1847980000,22.2773200000 114.1846050000,22.2774220000 114.1845360000,22.2774590000 114.1841430000,22.2776660000 114.1840350000,22.2777240000 114.1839010000,22.2777860000 114.1837810000,22.2778120000 114.1836580000,22.2777930000 114.1836000000,22.2777800000 114.1835170000,22.2777570000 114.1834620000,22.2777450000 114.1829150000,22.2773850000 114.1828620000,22.2773500000 114.1827770000,22.2772990000 114.1825700000,22.2771750000 114.1825260000,22.2771590000 114.1824620000,22.2771370000 114.1823440000,22.2770920000 114.1822050000,22.2770340000 114.1821890000,22.2770280000 114.1821690000,22.2769850000 114.1821280000,22.2769680000 114.1820870000,22.2769520000 114.1820400000,22.2769620000 114.1819820000,22.2769380000 114.1819350000,22.2769180000 114.1819010000,22.2768720000 114.1814400000,22.2766880000 114.1813090000,22.2766350000 114.1812440000,22.2764930000 114.1811810000,22.2763450000 114.1811070000,22.2761890000 114.1810760000,22.2761310000 114.1810520000,22.2760870000 114.1809510000,22.2759430000 114.1808860000,22.2758570000 114.1808230000,22.2757790000 114.1807550000,22.2757060000 114.1805800000,22.2755290000 114.1802440000,22.2751940000 114.1800730000,22.2750340000 114.1799480000,22.2749080000 114.1798500000,22.2747930000 114.1797740000,22.2746810000 114.1797230000,22.2746070000 114.1796080000,22.2743830000 114.1795610000,22.2742180000 114.1795460000,22.2739750000 114.1795510000,22.2738380000 114.1795640000,22.2737390000 114.1795760000,22.2736530000 114.1795990000,22.2735440000 114.1796290000,22.2735010000 114.1796670000,22.2734540000 114.1798000000,22.2731330000 114.1798810000,22.2729250000 114.1799880000,22.2726280000 114.1800730000,22.2724050000 114.1801360000,22.2722310000 114.1802190000,22.2720070000 114.1802750000,22.2718640000 114.1803180000,22.2717390000 114.1803970000,22.2714830000 114.1803850000,22.2714020000 114.1803760000,22.2713630000 114.1804400000,22.2711750000 114.1804790000,22.2710850000 114.1805070000,22.2710100000 114.1805270000,22.2709550000 114.1805880000,22.2707710000 114.1806150000,22.2706730000 114.1806350000,22.2706000000 114.1806900000,22.2703850000 114.1807300000,22.2702000000 114.1807580000,22.2700400000 114.1807820000,22.2698400000 114.1808020000,22.2696300000 114.1808090000,22.2694500000 114.1808070000,22.2692500000 114.1802400000,22.2556900000 114.1802180000,22.2553100000 114.1801900000,22.2550600000 114.1801600000,22.2548700000 114.1801200000,22.2546600000 114.1800880000,22.2545100000 114.1800480000,22.2543700000 114.1800200000,22.2542800000 114.1799800000,22.2541600000 114.1799400000,22.2540500000 114.1798900000,22.2539300000 114.1798420000,22.2538200000 114.1797820000,22.2536900000 114.1796790000,22.2534830000 114.1796200000,22.2533780000 114.1794750000,22.2531400000 114.1793910000,22.2530110000 114.1792820000,22.2528430000 114.1792340000,22.2527720000 114.1791430000,22.2526540000 114.1790090000,22.2524780000 114.1789830000,22.2524410000 114.1789020000,22.2523260000 114.1785050000,22.2517580000 114.1782830000,22.2514440000 114.1782430000,22.2513870000 114.1782100000,22.2513420000 114.1780790000,22.2511710000 114.1779300000,22.2509950000 114.1777730000,22.2508170000 114.1776520000,22.2506960000 114.1775590000,22.2506080000 114.1774340000,22.2504980000 114.1772550000,22.2503640000 114.1770660000,22.2502400000 114.1768470000,22.2501160000 114.1767140000,22.2500600000 114.1765820000,22.2500040000 114.1764220000,22.2499480000 114.1762060000,22.2499150000 114.1761160000,22.2498970000 114.1760150000,22.2498690000 114.1758030000,22.2498350000 114.1755620000,22.2498150000 114.1752860000,22.2498140000 114.1750010000,22.2498240000 114.1745950000,22.2498470000 114.1744950000,22.2498620000 114.1741340000,22.2499170000 114.1740430000,22.2499360000 114.1728140000,22.2501980000 114.1726090000,22.2502420000 114.1724650000,22.2502280000 114.1723380000,22.2502600000 114.1722840000,22.2502730000 114.1719850000,22.2503420000 114.1719410000,22.2503500000 114.1717820000,22.2503790000 114.1714570000,22.2504130000 114.1714060000,22.2503750000 114.1713670000,22.2503440000 114.1713370000,22.2503250000 114.1713010000,22.2502990000 114.1712530000,22.2502500000 114.1712150000,22.2501930000 114.1711900000,22.2501310000 114.1711770000,22.2500660000 114.1711620000,22.2497410000 114.1711500000,22.2494850000 114.1711410000,22.2493010000 114.1711350000,22.2492550000 114.1711020000,22.2492120000 114.1710550000,22.2491510000 114.1710470000,22.2490700000 114.1710440000,22.2489500000 114.1711110000,22.2488920000 114.1711410000,22.2488200000 114.1711520000,22.2487920000 114.1711700000,22.2487500000 114.1711880000,22.2487090000 114.1712070000,22.2486550000 114.1712340000,22.2486230000 114.1712430000,22.2485800000 114.1712450000,22.2485550000 114.1712450000,22.2485340000 114.1712300000,22.2485020000 114.1712100000,22.2484860000 114.1711760000,22.2484640000 114.1711370000,22.2484520000 114.1710950000,22.2484530000 114.1709500000,22.2484550000 114.1707730000,22.2484600000 114.1697700000,22.2483270000 114.1696840000,22.2482780000 114.1696070000,22.2482290000 114.1695890000,22.2482120000 114.1695410000,22.2481640000 114.1694400000,22.2480420000 114.1691720000,22.2476060000 114.1690620000,22.2474000000 114.1690270000,22.2472570000 114.1690180000,22.2470370000 114.1690220000,22.2468190000 114.1690260000,22.2466650000 114.1690460000,22.2464850000 114.1690890000,22.2462470000 114.1690900000,22.2461060000 114.1690870000,22.2460370000 114.1690560000,22.2459510000 114.1690140000,22.2458750000 114.1689630000,22.2458180000 114.1688730000,22.2457360000 114.1687520000,22.2456610000 114.1684940000,22.2455370000 114.1684240000,22.2455120000 114.1682460000,22.2454490000 114.1680690000,22.2454000000 114.1678540000,22.2453610000 114.1677590000,22.2453550000 114.1676510000,22.2453620000 114.1675660000,22.2453710000 114.1674730000,22.2453920000 114.1673800000,22.2454230000 114.1673470000,22.2454380000 114.1672090000,22.2455160000 114.1668520000,22.2457270000 114.1666950000,22.2458220000 114.1665370000,22.2459120000 114.1663590000,22.2458210000 114.1663240000,22.2458000000 114.1662940000,22.2457770000 114.1662680000,22.2457500000 114.1662440000,22.2457200000 114.1662200000,22.2456810000 114.1659490000,22.2451520000 114.1659180000,22.2450920000 114.1658790000,22.2450230000 114.1658450000,22.2449710000 114.1658090000,22.2449230000 114.1657680000,22.2448760000 114.1657010000,22.2448110000 114.1655860000,22.2447090000 114.1654290000,22.2445800000 114.1645320000,22.2438240000 114.1642530000,22.2435940000 114.1641690000,22.2435240000 114.1640890000,22.2434560000 114.1640310000,22.2433990000 114.1639870000,22.2433370000 114.1639590000,22.2432810000 114.1639410000,22.2432310000 114.1639310000,22.2431750000 114.1639290000,22.2431280000 114.1639340000,22.2430730000 114.1639440000,22.2430290000 114.1639620000,22.2429860000 114.1639910000,22.2429390000 114.1640310000,22.2428910000 114.1640670000,22.2428580000 114.1641100000,22.2428290000 114.1641530000,22.2428060000 114.1641950000,22.2427890000 114.1642420000,22.2427770000 114.1642810000,22.2427700000 114.1643290000,22.2427650000 114.1643820000,22.2427640000 114.1644400000,22.2427660000 114.1646300000,22.2427890000 114.1647330000,22.2428020000 114.1647870000,22.2428040000 114.1648500000,22.2428020000 114.1649050000,22.2427950000 114.1649600000,22.2427830000 114.1650270000,22.2427610000 114.1650900000,22.2427310000 114.1651510000,22.2426920000 114.1652060000,22.2426480000 114.1652510000,22.2426070000 114.1658890000,22.2419760000 114.1659610000,22.2419040000 114.1660110000,22.2418510000 114.1660600000,22.2417910000 114.1661080000,22.2417250000 114.1661470000,22.2416590000 114.1661780000,22.2415950000 114.1662070000,22.2415230000 114.1662300000,22.2414490000 114.1662460000,22.2413700000 114.1662530000,22.2413080000 114.1662570000,22.2412410000 114.1662560000,22.2411680000 114.1661970000,22.2402080000 114.1661860000,22.2400420000 114.1661730000,22.2398180000 114.1661660000,22.2397540000 114.1661560000,22.2396940000 114.1661400000,22.2396260000 114.1661130000,22.2395420000 114.1660770000,22.2394450000 114.1660400000,22.2393710000 114.1659930000,22.2392880000 114.1659370000,22.2392100000 114.1658470000,22.2391050000 114.1656640000,22.2389520000 114.1654430000,22.2388210000 114.1653860000,22.2387960000 114.1651540000,22.2387060000 114.1649830000,22.2386280000 114.1649050000,22.2385690000 114.1647780000,22.2384250000 114.1646880000,22.2382850000 114.1646680000,22.2382190000 114.1646550000,22.2381520000 114.1646520000,22.2381180000 114.1646490000,22.2380840000 114.1646520000,22.2380160000 114.1646620000,22.2379480000 114.1646790000,22.2378870000 114.1647020000,22.2378270000 114.1647310000,22.2377700000 114.1647660000,22.2377150000 114.1648070000,22.2376640000 114.1648820000,22.2375670000 114.1649500000,22.2374650000 114.1650090000,22.2373590000 114.1650420000,22.2372890000 114.1650570000,22.2372580000 114.1650970000,22.2371540000 114.1651000000,22.2371450000 114.1651290000,22.2370480000 114.1651560000,22.2369580000 114.1652200000,22.2367420000 114.1652460000,22.2366770000 114.1652800000,22.2366150000 114.1653230000,22.2365590000 114.1653730000,22.2365070000 114.1654290000,22.2364630000 114.1654910000,22.2364250000 114.1655570000,22.2363950000 114.1656270000,22.2363720000 114.1657000000,22.2363580000 114.1657730000,22.2363530000 114.1661390000,22.2363270000 114.1666610000,22.2362900000 114.1670320000,22.2362900000 114.1671450000,22.2362910000 114.1672570000,22.2363010000 114.1673500000,22.2363170000 114.1674320000,22.2363350000 114.1675170000,22.2363610000 114.1675170000,22.2363610000 114.1675570000,22.2363820000 114.1676010000,22.2363940000 114.1676470000,22.2363970000 114.1676930000,22.2363910000 114.1677350000,22.2363760000 114.1677740000,22.2363520000 114.1678060000,22.2363220000 114.1678300000,22.2362850000 114.1678450000,22.2362450000 114.1678480000,22.2362180000 114.1678500000,22.2362030000 114.1678460000,22.2361700000 114.1678450000,22.2361630000 114.1678320000,22.2361240000 114.1678100000,22.2360890000 114.1677810000,22.2360590000 114.1677460000,22.2360340000 114.1677060000,22.2360180000 114.1676630000,22.2360090000 114.1676190000,22.2360090000 114.1675760000,22.2360170000 114.1674120000,22.2360720000 114.1673440000,22.2360960000 114.1669120000,22.2362420000 114.1666610000,22.2362900000 114.1661390000,22.2363270000 114.1657730000,22.2363530000 114.1657000000,22.2363580000 114.1656270000,22.2363720000 114.1655570000,22.2363950000 114.1654910000,22.2364250000 114.1654290000,22.2364630000 114.1653730000,22.2365070000 114.1653230000,22.2365590000 114.1652800000,22.2366150000 114.1652460000,22.2366770000 114.1652200000,22.2367420000 114.1651560000,22.2369580000 114.1651290000,22.2370480000 114.1651000000,22.2371450000 114.1650970000,22.2371540000 114.1650570000,22.2372580000 114.1650420000,22.2372890000 114.1650090000,22.2373590000 114.1649500000,22.2374650000 114.1648820000,22.2375670000 114.1648070000,22.2376640000 114.1647660000,22.2377150000 114.1647310000,22.2377700000 114.1647020000,22.2378270000 114.1646790000,22.2378870000 114.1646620000,22.2379480000 114.1646520000,22.2380160000 114.1646490000,22.2380840000 114.1646520000,22.2381180000 114.1646550000,22.2381520000 114.1646680000,22.2382190000 114.1646880000,22.2382850000 114.1647780000,22.2384250000 114.1649050000,22.2385690000 114.1649830000,22.2386280000 114.1651540000,22.2387060000 114.1653860000,22.2387960000 114.1654430000,22.2388210000 114.1656640000,22.2389520000 114.1658470000,22.2391050000 114.1659370000,22.2392100000 114.1659930000,22.2392880000 114.1660400000,22.2393710000 114.1660770000,22.2394450000 114.1661130000,22.2395420000 114.1661400000,22.2396260000 114.1661560000,22.2396940000 114.1661660000,22.2397540000 114.1661730000,22.2398180000 114.1661860000,22.2400420000 114.1661970000,22.2402080000 114.1662560000,22.2411680000 114.1662570000,22.2412410000 114.1662530000,22.2413080000 114.1662460000,22.2413700000 114.1662300000,22.2414490000 114.1662070000,22.2415230000 114.1661780000,22.2415950000 114.1661470000,22.2416590000 114.1661080000,22.2417250000 114.1660600000,22.2417910000 114.1660110000,22.2418510000 114.1659610000,22.2419040000 114.1658890000,22.2419760000 114.1652510000,22.2426070000 114.1652060000,22.2426480000 114.1651510000,22.2426920000 114.1650900000,22.2427310000 114.1650270000,22.2427610000 114.1649600000,22.2427830000 114.1649050000,22.2427950000 114.1648500000,22.2428020000 114.1647870000,22.2428040000 114.1647330000,22.2428020000 114.1646300000,22.2427890000 114.1644400000,22.2427660000 114.1643820000,22.2427640000 114.1643290000,22.2427650000 114.1642810000,22.2427700000 114.1642420000,22.2427770000 114.1641950000,22.2427890000 114.1641530000,22.2428060000 114.1641100000,22.2428290000 114.1640670000,22.2428580000 114.1640310000,22.2428910000 114.1639910000,22.2429390000 114.1639620000,22.2429860000 114.1639440000,22.2430290000 114.1639340000,22.2430730000 114.1639290000,22.2431280000 114.1639310000,22.2431750000 114.1639410000,22.2432310000 114.1639590000,22.2432810000 114.1639870000,22.2433370000 114.1640310000,22.2433990000 114.1640890000,22.2434560000 114.1641690000,22.2435240000 114.1642530000,22.2435940000 114.1645320000,22.2438240000 114.1654290000,22.2445800000 114.1655860000,22.2447090000 114.1657010000,22.2448110000 114.1657680000,22.2448760000 114.1658090000,22.2449230000 114.1658450000,22.2449710000 114.1658790000,22.2450230000 114.1659180000,22.2450920000 114.1659490000,22.2451520000 114.1662200000,22.2456810000 114.1662440000,22.2457200000 114.1662680000,22.2457500000 114.1662940000,22.2457770000 114.1663240000,22.2458000000 114.1663590000,22.2458210000 114.1665370000,22.2459120000 114.1665190000,22.2459400000 114.1665020000,22.2459730000 114.1664780000,22.2461010000 114.1664000000,22.2462210000 114.1663340000,22.2463650000 114.1663060000,22.2465300000 114.1663160000,22.2466380000 114.1663470000,22.2467870000 114.1663960000,22.2469480000 114.1664550000,22.2471090000 114.1665120000,22.2472290000 114.1666420000,22.2474350000 114.1666690000,22.2474770000 114.1666970000,22.2475220000 114.1666860000,22.2475810000 114.1666570000,22.2476520000 114.1666350000,22.2476790000 114.1665780000,22.2477170000 114.1665010000,22.2477380000 114.1661560000,22.2476660000 114.1660780000,22.2476490000 114.1660250000,22.2476370000 114.1659630000,22.2476320000 114.1658420000,22.2476490000 114.1657540000,22.2476610000 114.1654850000,22.2477330000 114.1646700000,22.2477020000 114.1639350000,22.2478040000 114.1624720000,22.2479990000 114.1623630000,22.2480150000 114.1622410000,22.2480250000 114.1621420000,22.2480280000 114.1620850000,22.2480300000 114.1619140000,22.2480300000 114.1618080000,22.2480100000 114.1617070000,22.2483950000 114.1616870000,22.2484360000 114.1616750000,22.2484520000 114.1616560000,22.2484760000 114.1616320000,22.2485020000 114.1616000000,22.2485160000 114.1615640000,22.2485250000 114.1614880000,22.2485060000 114.1614050000,22.2484840000 114.1613020000,22.2484500000 114.1611840000,22.2484110000 114.1610660000,22.2483150000 114.1610330000,22.2482840000 114.1610110000,22.2482620000 114.1609950000,22.2482370000 114.1609770000,22.2481990000 114.1609630000,22.2481650000 114.1609540000,22.2481200000 114.1609510000,22.2480760000 114.1609590000,22.2480190000 114.1609740000,22.2479480000 114.1610390000,22.2476180000 114.1610370000,22.2475020000 114.1610630000,22.2474230000 114.1611020000,22.2472970000 114.1611090000,22.2472240000 114.1611110000,22.2471330000 114.1611070000,22.2470660000 114.1610900000,22.2469810000 114.1610620000,22.2468930000 114.1610230000,22.2468010000 114.1609900000,22.2467370000 114.1609510000,22.2466770000 114.1609070000,22.2466190000 114.1608630000,22.2465690000 114.1608070000,22.2465140000 114.1603230000,22.2460600000 114.1591080000,22.2449210000 114.1590220000,22.2448440000 114.1589530000,22.2447870000 114.1588720000,22.2447330000 114.1587850000,22.2446810000 114.1586940000,22.2446300000 114.1586240000,22.2445950000 114.1585450000,22.2445600000 114.1583540000,22.2444810000 114.1582450000,22.2444340000 114.1581670000,22.2443980000 114.1581010000,22.2443670000 114.1580100000,22.2443150000 114.1579380000,22.2442630000 114.1578670000,22.2442070000 114.1578060000,22.2441500000 114.1577490000,22.2440860000 114.1576850000,22.2440060000 114.1575690000,22.2438520000 114.1575460000,22.2437540000 114.1575430000,22.2436960000 114.1575510000,22.2436310000 114.1575680000,22.2435570000 114.1575900000,22.2435170000 114.1576150000,22.2434810000 114.1576550000,22.2434660000 114.1577090000,22.2434580000 114.1577430000,22.2434540000 114.1577690000,22.2434530000 114.1578720000,22.2434440000 114.1578740000,22.2433790000 114.1578740000,22.2433290000 114.1578740000,22.2432940000 114.1578730000,22.2432530000 114.1578730000,22.2431630000 114.1578720000,22.2430400000 114.1578740000,22.2429900000 114.1578830000,22.2428510000 114.1578850000,22.2427210000 114.1578980000,22.2423930000 114.1579060000,22.2420700000 114.1579000000,22.2418480000 114.1578980000,22.2417920000 114.1579000000,22.2415530000 114.1578900000,22.2413210000 114.1578570000,22.2411870000 114.1578460000,22.2411680000 114.1577860000,22.2410670000 114.1576620000,22.2409610000 114.1575940000,22.2409380000 114.1575060000,22.2409080000 114.1574020000,22.2409000000 114.1573450000,22.2409100000 114.1572900000,22.2409200000 114.1572140000,22.2409480000 114.1571480000,22.2409900000 114.1571020000,22.2410250000 114.1570610000,22.2410700000 114.1570390000,22.2411090000 114.1570140000,22.2411520000 114.1569890000,22.2412260000 114.1569720000,22.2413610000 114.1569720000,22.2416970000 114.1569350000,22.2418390000 114.1568730000,22.2419240000 114.1568030000,22.2419810000 114.1566810000,22.2420160000 114.1563570000,22.2420090000 114.1562870000,22.2419440000 114.1562190000,22.2418710000 114.1561740000,22.2417870000 114.1561770000,22.2414290000 114.1561770000,22.2413570000 114.1561770000,22.2413460000 114.1561790000,22.2412850000 114.1561850000,22.2412500000 114.1561930000,22.2412250000 114.1562080000,22.2412010000 114.1562270000,22.2411760000 114.1562860000,22.2411030000 114.1562850000,22.2407680000 114.1562850000,22.2407380000 114.1562530000,22.2407120000 114.1562030000,22.2406930000 114.1560940000,22.2406650000 114.1560160000,22.2406480000 114.1559430000,22.2406430000 114.1559120000,22.2406410000 114.1556660000,22.2406340000 114.1553950000,22.2406370000 114.1551370000,22.2406400000 114.1550660000,22.2406590000 114.1549800000,22.2406990000 114.1549700000,22.2407090000 114.1549490000,22.2407290000 114.1549250000,22.2407840000 114.1548980000,22.2410030000 114.1548980000,22.2410720000 114.1548970000,22.2411120000 114.1548970000,22.2412140000 114.1548960000,22.2413420000 114.1548950000,22.2414040000 114.1548810000,22.2417730000 114.1549290000,22.2418600000 114.1549720000,22.2419130000 114.1550220000,22.2419650000 114.1550850000,22.2420070000 114.1553330000,22.2420100000 114.1559100000,22.2420150000 114.1561420000,22.2420100000 114.1563570000,22.2420090000 114.1566810000,22.2420160000 114.1568030000,22.2419810000 114.1568730000,22.2419240000 114.1569350000,22.2418390000 114.1569720000,22.2416970000 114.1569720000,22.2413610000 114.1569890000,22.2412260000 114.1570140000,22.2411520000 114.1570390000,22.2411090000 114.1570610000,22.2410700000 114.1571020000,22.2410250000 114.1571480000,22.2409900000 114.1572140000,22.2409480000 114.1572900000,22.2409200000 114.1573450000,22.2409100000 114.1574020000,22.2409000000 114.1575060000,22.2409080000 114.1575940000,22.2409380000 114.1576620000,22.2409610000 114.1577860000,22.2410670000 114.1578460000,22.2411680000 114.1578570000,22.2411870000 114.1578900000,22.2413210000 114.1579000000,22.2415530000 114.1578980000,22.2417920000 114.1579000000,22.2418480000 114.1579060000,22.2420700000 114.1578980000,22.2423930000 114.1578850000,22.2427210000 114.1578830000,22.2428510000 114.1578740000,22.2429900000 114.1578720000,22.2430400000 114.1578730000,22.2431630000 114.1578730000,22.2432530000 114.1578740000,22.2432940000 114.1578740000,22.2433290000 114.1578740000,22.2433790000 114.1577730000,22.2433810000 114.1576890000,22.2433880000 114.1575920000,22.2434050000 114.1575250000,22.2434290000 114.1574230000,22.2434900000 114.1573920000,22.2435170000 114.1573220000,22.2435780000 114.1572720000,22.2435550000 114.1572230000,22.2435360000 114.1571730000,22.2435190000 114.1571230000,22.2435050000 114.1570330000,22.2434880000 114.1569630000,22.2434800000 114.1569160000,22.2434820000 114.1567660000,22.2434880000 114.1565170000,22.2434990000 114.1563160000,22.2435030000 114.1560940000,22.2434850000 114.1559320000,22.2434520000 114.1558010000,22.2434150000 114.1556980000,22.2433750000 114.1556010000,22.2433340000 114.1553030000,22.2431920000 114.1550510000,22.2430690000 114.1549070000,22.2429920000 114.1548650000,22.2429700000 114.1547670000,22.2429120000 114.1547040000,22.2428750000 114.1546470000,22.2429640000 114.1545930000,22.2430410000 114.1545710000,22.2430730000 114.1545630000,22.2430780000 114.1545530000,22.2430820000 114.1545400000,22.2430840000 114.1545270000,22.2430840000 114.1545130000,22.2430830000 114.1544830000,22.2430790000 114.1544470000,22.2430740000 114.1542910000,22.2430420000 114.1539860000,22.2429790000 114.1538580000,22.2429580000 114.1537760000,22.2429470000 114.1536990000,22.2429420000 114.1536200000,22.2429430000 114.1535530000,22.2429490000 114.1534950000,22.2429600000 114.1534300000,22.2429770000 114.1533660000,22.2429980000 114.1533090000,22.2430240000 114.1532600000,22.2430550000 114.1532200000,22.2430840000 114.1531760000,22.2431260000 114.1531300000,22.2431750000 114.1530840000,22.2432370000 114.1530370000,22.2433100000 114.1529160000,22.2434940000 114.1529090000,22.2435180000 114.1529080000,22.2435410000 114.1529110000,22.2435640000 114.1529180000,22.2435820000 114.1529300000,22.2436000000 114.1529470000,22.2436150000 114.1529790000,22.2436310000 114.1532720000,22.2437170000 114.1534040000,22.2437580000 114.1533950000,22.2437910000 114.1533930000,22.2437980000 114.1533860000,22.2438250000 114.1533930000,22.2437980000 114.1533950000,22.2437910000 114.1534040000,22.2437580000 114.1532720000,22.2437170000 114.1531800000,22.2436900000 114.1529790000,22.2436310000 114.1529470000,22.2436150000 114.1529300000,22.2436000000 114.1529180000,22.2435820000 114.1529110000,22.2435640000 114.1529080000,22.2435410000 114.1529090000,22.2435180000 114.1529160000,22.2434940000 114.1530370000,22.2433100000 114.1530840000,22.2432370000 114.1531300000,22.2431750000 114.1531760000,22.2431260000 114.1532200000,22.2430840000 114.1532600000,22.2430550000 114.1533090000,22.2430240000 114.1533660000,22.2429980000 114.1534300000,22.2429770000 114.1534950000,22.2429600000 114.1535530000,22.2429490000 114.1536200000,22.2429430000 114.1536990000,22.2429420000 114.1537760000,22.2429470000 114.1538580000,22.2429580000 114.1539860000,22.2429790000 114.1542910000,22.2430420000 114.1544470000,22.2430740000 114.1544830000,22.2430790000 114.1545130000,22.2430830000 114.1545270000,22.2430840000 114.1545400000,22.2430840000 114.1545530000,22.2430820000 114.1545630000,22.2430780000 114.1545710000,22.2430730000 114.1545930000,22.2430410000 114.1546470000,22.2429640000 114.1547040000,22.2428750000 114.1544320000,22.2427280000 114.1543090000,22.2426810000 114.1541260000,22.2426340000 114.1539540000,22.2426170000 114.1538230000,22.2426190000 114.1537050000,22.2426240000 114.1535440000,22.2426510000 114.1531980000,22.2427680000 114.1529110000,22.2428850000 114.1526840000,22.2429730000 114.1525100000,22.2430310000 114.1524080000,22.2430640000 114.1523290000,22.2430870000 114.1522440000,22.2431090000 114.1519750000,22.2431790000 114.1518100000,22.2432400000 114.1516260000,22.2433320000 114.1515040000,22.2433340000 114.1514550000,22.2433300000 114.1514120000,22.2433270000 114.1513660000,22.2433180000 114.1513230000,22.2433090000 114.1511500000,22.2432480000 114.1507670000,22.2429990000 114.1496470000,22.2422110000 114.1495420000,22.2421430000 114.1495090000,22.2421220000 114.1494620000,22.2420910000 114.1492210000,22.2419550000 114.1488880000,22.2417040000 114.1487190000,22.2415830000 114.1485830000,22.2414600000 114.1484700000,22.2413390000 114.1484210000,22.2412680000 114.1483840000,22.2412020000 114.1483510000,22.2411360000 114.1483160000,22.2410500000 114.1483020000,22.2410050000 114.1482900000,22.2409470000 114.1482800000,22.2408920000 114.1482740000,22.2408190000 114.1482700000,22.2407440000 114.1482790000,22.2406750000 114.1482910000,22.2406070000 114.1483190000,22.2405070000 114.1483380000,22.2404450000 114.1483660000,22.2403860000 114.1484000000,22.2403240000 114.1484380000,22.2402630000 114.1484730000,22.2402130000 114.1485200000,22.2401530000 114.1486070000,22.2400750000 114.1486840000,22.2400270000 114.1487400000,22.2399970000 114.1488630000,22.2399390000 114.1489530000,22.2399050000 114.1492660000,22.2398020000 114.1495190000,22.2397310000 114.1496730000,22.2396960000 114.1496910000,22.2396920000 114.1497300000,22.2396830000 114.1497790000,22.2396720000 114.1500920000,22.2396130000 114.1502170000,22.2395900000 114.1502660000,22.2395810000 114.1503890000,22.2395580000 114.1507310000,22.2394980000 114.1509090000,22.2394560000 114.1510850000,22.2394080000 114.1512590000,22.2393530000 114.1514310000,22.2392930000 114.1516000000,22.2392260000 114.1516810000,22.2391890000 114.1517570000,22.2391460000 114.1518280000,22.2390950000 114.1518920000,22.2390500000 114.1519510000,22.2389980000 114.1520020000,22.2389390000 114.1520520000,22.2388780000 114.1521090000,22.2388090000 114.1523010000,22.2385750000 114.1524180000,22.2384290000 114.1527350000,22.2380310000 114.1528570000,22.2378790000 114.1532090000,22.2374120000 114.1536170000,22.2368800000 114.1536330000,22.2368110000</coordinates>
                </LineString>
                <ExtendedData>
                    <Data name="duration">
                        <value>01:11:00</value>
                    </Data>
                    <Data name="length">
                        <value>42760.72421029408</value>
                    </Data>
                </ExtendedData>
            </Placemark>
        </Document>
    </Document>
</kml>