<?xml version="1.0" encoding="UTF-8"?>
<kml xmlns="http://www.opengis.net/kml/2.2" xmlns:gx="http://www.google.com/kml/ext/2.2">
    <Document>
        <name>Route</name>
        <Folder>
            <name>Route Request</name>
            <Placemark>
                <Point>
                    <coordinates>114.1618513255,22.5026880399</coordinates>
                </Point>
                <ExtendedData>
                    <Data name="routingVisited">
                        <value>false</value>
                    </Data>
                </ExtendedData>
            </Placemark>
            <Placemark>
                <Point>
                    <coordinates>114.1278115023,22.5019422868</coordinates>
                </Point>
                <ExtendedData>
                    <Data name="routingVisited">
                        <value>false</value>
                    </Data>
                </ExtendedData>
            </Placemark>
            <Placemark>
                <Point>
                    <coordinates>114.0552689312,22.4511739842</coordinates>
                </Point>
            </Placemark>
            <Placemark>
                <Point>
                    <coordinates>114.1025497119,22.3451699682</coordinates>
                </Point>
            </Placemark>
            <Placemark>
                <Point>
                    <coordinates>114.1560264792,22.3357705450</coordinates>
                </Point>
            </Placemark>
            <Placemark>
                <address>Sun Mong House, 50-56, Mong Kok Road, Mong Kok, Yau Tsim Mong District, Kowloon, Hong Kong, 000000, China</address>
                <Point>
                    <coordinates>114.1708246360,22.3212846007</coordinates>
                </Point>
                <ExtendedData>
                    <Data name="suburb">
                        <value>Mong Kok</value>
                    </Data>
                    <Data name="city">
                        <value>Kowloon</value>
                    </Data>
                    <Data name="house_number">
                        <value>50-56</value>
                    </Data>
                    <Data name="road">
                        <value>Mong Kok Road</value>
                    </Data>
                    <Data name="city_district">
                        <value>Yau Tsim Mong District</value>
                    </Data>
                    <Data name="postcode">
                        <value>000000</value>
                    </Data>
                    <Data name="ISO3166-2-lvl3">
                        <value>CN-HK</value>
                    </Data>
                    <Data name="state">
                        <value>Hong Kong</value>
                    </Data>
                    <Data name="country">
                        <value>China</value>
                    </Data>
                    <Data name="building">
                        <value>Sun Mong House</value>
                    </Data>
                    <Data name="country_code">
                        <value>cn</value>
                    </Data>
                </ExtendedData>
            </Placemark>
            <Placemark>
                <address>Luen Wan Street, Mong Kok, Yau Tsim Mong District, Kowloon, Hong Kong, 000000, China</address>
                <Point>
                    <coordinates>114.1722792165,22.3210994524</coordinates>
                </Point>
                <ExtendedData>
                    <Data name="suburb">
                        <value>Mong Kok</value>
                    </Data>
                    <Data name="city">
                        <value>Kowloon</value>
                    </Data>
                    <Data name="road">
                        <value>Luen Wan Street</value>
                    </Data>
                    <Data name="city_district">
                        <value>Yau Tsim Mong District</value>
                    </Data>
                    <Data name="postcode">
                        <value>000000</value>
                    </Data>
                    <Data name="ISO3166-2-lvl3">
                        <value>CN-HK</value>
                    </Data>
                    <Data name="state">
                        <value>Hong Kong</value>
                    </Data>
                    <Data name="country">
                        <value>China</value>
                    </Data>
                    <Data name="country_code">
                        <value>cn</value>
                    </Data>
                </ExtendedData>
            </Placemark>
            <Placemark>
                <address>The Hong Kong Jockey Club, Nathan Road, Mong Kok, Yau Tsim Mong District, Kowloon, Hong Kong, China</address>
                <Point>
                    <coordinates>114.1681297790,22.3249381355</coordinates>
                </Point>
                <ExtendedData>
                    <Data name="suburb">
                        <value>Mong Kok</value>
                    </Data>
                    <Data name="city">
                        <value>Kowloon</value>
                    </Data>
                    <Data name="road">
                        <value>Nathan Road</value>
                    </Data>
                    <Data name="city_district">
                        <value>Yau Tsim Mong District</value>
                    </Data>
                    <Data name="ISO3166-2-lvl3">
                        <value>CN-HK</value>
                    </Data>
                    <Data name="shop">
                        <value>The Hong Kong Jockey Club</value>
                    </Data>
                    <Data name="state">
                        <value>Hong Kong</value>
                    </Data>
                    <Data name="country">
                        <value>China</value>
                    </Data>
                    <Data name="country_code">
                        <value>cn</value>
                    </Data>
                </ExtendedData>
            </Placemark>
            <Placemark>
                <Point>
                    <coordinates>114.1539295045,22.3369455651</coordinates>
                </Point>
                <ExtendedData>
                    <Data name="routingVisited">
                        <value>false</value>
                    </Data>
                </ExtendedData>
            </Placemark>
            <Placemark>
                <Point>
                    <coordinates>114.0975282305,22.3445681456</coordinates>
                </Point>
                <ExtendedData>
                    <Data name="routingVisited">
                        <value>false</value>
                    </Data>
                </ExtendedData>
            </Placemark>
            <Placemark>
                <Point>
                    <coordinates>114.0551507089,22.4510100454</coordinates>
                </Point>
            </Placemark>
            <Placemark>
                <Point>
                    <coordinates>114.1269167817,22.5032492974</coordinates>
                </Point>
                <ExtendedData>
                    <Data name="routingVisited">
                        <value>false</value>
                    </Data>
                </ExtendedData>
            </Placemark>
            <Placemark>
                <Point>
                    <coordinates>114.1617903142,22.5027949410</coordinates>
                </Point>
                <ExtendedData>
                    <Data name="routingVisited">
                        <value>false</value>
                    </Data>
                </ExtendedData>
            </Placemark>
        </Folder>
        <Document>
            <name>91.5 km; 01:40 h (OSRM)</name>
            <Placemark>
                <name>Route</name>
                <LineString>
                    <coordinates>114.1619740000,22.5028020000 114.1619420000,22.5028310000 114.1618590000,22.5029280000 114.1618150000,22.5029970000 114.1617480000,22.5031000000 114.1616960000,22.5031810000 114.1615770000,22.5033740000 114.1615130000,22.5034500000 114.1614470000,22.5035100000 114.1613460000,22.5035790000 114.1612170000,22.5036170000 114.1610680000,22.5036250000 114.1608320000,22.5036260000 114.1608190000,22.5036260000 114.1606210000,22.5036450000 114.1605960000,22.5036470000 114.1604250000,22.5036870000 114.1604050000,22.5036920000 114.1599990000,22.5038760000 114.1599590000,22.5039010000 114.1597250000,22.5040140000 114.1592430000,22.5042570000 114.1590730000,22.5043200000 114.1588520000,22.5043630000 114.1588090000,22.5043670000 114.1586000000,22.5043850000 114.1583160000,22.5043810000 114.1581210000,22.5043640000 114.1580050000,22.5043410000 114.1579530000,22.5043240000 114.1577930000,22.5042730000 114.1574060000,22.5041370000 114.1573540000,22.5042490000 114.1570940000,22.5047760000 114.1570230000,22.5049200000 114.1569230000,22.5050480000 114.1568290000,22.5050990000 114.1567390000,22.5051250000 114.1566690000,22.5051320000 114.1565600000,22.5051170000 114.1565270000,22.5051120000 114.1557570000,22.5048260000 114.1556530000,22.5047860000 114.1555290000,22.5047140000 114.1549800000,22.5043820000 114.1549350000,22.5043560000 114.1548090000,22.5042860000 114.1546930000,22.5044660000 114.1545680000,22.5046760000 114.1545520000,22.5047090000 114.1544680000,22.5048950000 114.1544530000,22.5049370000 114.1544260000,22.5050140000 114.1543940000,22.5051330000 114.1543880000,22.5051660000 114.1543340000,22.5054710000 114.1543160000,22.5056120000 114.1543120000,22.5056930000 114.1543170000,22.5057220000 114.1543190000,22.5057340000 114.1543360000,22.5057870000 114.1543920000,22.5060110000 114.1543940000,22.5060610000 114.1543890000,22.5061050000 114.1543460000,22.5061840000 114.1543270000,22.5062150000 114.1542770000,22.5062590000 114.1541860000,22.5063180000 114.1541050000,22.5063470000 114.1540730000,22.5063550000 114.1540280000,22.5063660000 114.1540020000,22.5063690000 114.1539710000,22.5063750000 114.1538820000,22.5063920000 114.1538300000,22.5063800000 114.1537910000,22.5063830000 114.1536970000,22.5063580000 114.1536420000,22.5063330000 114.1535930000,22.5063070000 114.1534950000,22.5062600000 114.1534450000,22.5062350000 114.1533440000,22.5061850000 114.1531540000,22.5060890000 114.1529530000,22.5060040000 114.1528940000,22.5059720000 114.1526150000,22.5058190000 114.1525780000,22.5057990000 114.1525410000,22.5057770000 114.1523470000,22.5056620000 114.1521790000,22.5055610000 114.1520090000,22.5054420000 114.1517940000,22.5053020000 114.1515810000,22.5051640000 114.1508740000,22.5047030000 114.1507770000,22.5046460000 114.1507280000,22.5046120000 114.1505600000,22.5045110000 114.1503720000,22.5043880000 114.1501540000,22.5042470000 114.1499620000,22.5041260000 114.1497800000,22.5039960000 114.1495420000,22.5038060000 114.1494390000,22.5037140000 114.1493650000,22.5036500000 114.1492020000,22.5035110000 114.1489320000,22.5032610000 114.1489030000,22.5032340000 114.1488710000,22.5032040000 114.1488470000,22.5031810000 114.1487710000,22.5031060000 114.1487500000,22.5030840000 114.1487250000,22.5030590000 114.1486700000,22.5030020000 114.1484990000,22.5028270000 114.1482420000,22.5025650000 114.1481420000,22.5024610000 114.1479950000,22.5023720000 114.1477770000,22.5022660000 114.1476640000,22.5022250000 114.1474680000,22.5021190000 114.1472990000,22.5019580000 114.1471760000,22.5018470000 114.1471010000,22.5017070000 114.1470670000,22.5016270000 114.1470300000,22.5014720000 114.1470060000,22.5013770000 114.1469820000,22.5013010000 114.1469080000,22.5013600000 114.1468660000,22.5013950000 114.1467990000,22.5014510000 114.1467080000,22.5015270000 114.1465860000,22.5016270000 114.1463820000,22.5017930000 114.1463400000,22.5018250000 114.1461330000,22.5019940000 114.1460490000,22.5020570000 114.1459720000,22.5021080000 114.1458940000,22.5021530000 114.1458170000,22.5021870000 114.1457400000,22.5022140000 114.1456510000,22.5022390000 114.1455680000,22.5022530000 114.1454790000,22.5022610000 114.1453960000,22.5022630000 114.1453120000,22.5022610000 114.1452260000,22.5022550000 114.1444120000,22.5021550000 114.1443760000,22.5021510000 114.1443390000,22.5021450000 114.1442910000,22.5021380000 114.1442110000,22.5021230000 114.1441110000,22.5021100000 114.1440470000,22.5021030000 114.1440350000,22.5021020000 114.1440270000,22.5021010000 114.1421190000,22.5018800000 114.1420610000,22.5018720000 114.1420340000,22.5018700000 114.1418700000,22.5018610000 114.1417770000,22.5018560000 114.1417390000,22.5018570000 114.1417130000,22.5018570000 114.1415370000,22.5018600000 114.1413940000,22.5018690000 114.1412560000,22.5018850000 114.1411220000,22.5019070000 114.1410010000,22.5019360000 114.1408480000,22.5019800000 114.1407070000,22.5020280000 114.1405430000,22.5020940000 114.1401820000,22.5022860000 114.1401200000,22.5023200000 114.1400280000,22.5023710000 114.1399330000,22.5024180000 114.1398360000,22.5024680000 114.1392490000,22.5027710000 114.1379190000,22.5034600000 114.1378450000,22.5034850000 114.1377640000,22.5035100000 114.1377210000,22.5035190000 114.1376810000,22.5035280000 114.1376250000,22.5035350000 114.1375970000,22.5035390000 114.1375120000,22.5035420000 114.1374270000,22.5035390000 114.1373380000,22.5035280000 114.1372600000,22.5035120000 114.1371780000,22.5034880000 114.1371000000,22.5034570000 114.1370250000,22.5034210000 114.1369540000,22.5033780000 114.1368870000,22.5033290000 114.1368260000,22.5032750000 114.1364490000,22.5028970000 114.1359670000,22.5024130000 114.1359350000,22.5023820000 114.1358830000,22.5023310000 114.1358640000,22.5023100000 114.1357640000,22.5021960000 114.1356950000,22.5020950000 114.1356570000,22.5020410000 114.1351860000,22.5013370000 114.1348490000,22.5008600000 114.1344960000,22.5004230000 114.1344460000,22.5003770000 114.1344060000,22.5003400000 114.1343250000,22.5004160000 114.1342310000,22.5004810000 114.1340840000,22.5006240000 114.1335450000,22.5011630000 114.1330550000,22.5017250000 114.1328630000,22.5019560000 114.1322870000,22.5025240000 114.1319920000,22.5028230000 114.1314770000,22.5033220000 114.1314540000,22.5033450000 114.1311860000,22.5036100000 114.1306830000,22.5040770000 114.1306300000,22.5041290000 114.1305380000,22.5040430000 114.1301860000,22.5037290000 114.1298470000,22.5034400000 114.1295360000,22.5032010000 114.1293400000,22.5030500000 114.1293240000,22.5030370000 114.1290680000,22.5028240000 114.1287610000,22.5025820000 114.1287550000,22.5025740000 114.1286890000,22.5025040000 114.1286470000,22.5024430000 114.1285930000,22.5023430000 114.1285470000,22.5022490000 114.1285040000,22.5019030000 114.1285020000,22.5018860000 114.1284790000,22.5017630000 114.1284370000,22.5016850000 114.1284070000,22.5016350000 114.1283840000,22.5016080000 114.1283490000,22.5015900000 114.1282950000,22.5015740000 114.1282440000,22.5015680000 114.1281790000,22.5015670000 114.1281190000,22.5015700000 114.1280440000,22.5015830000 114.1277880000,22.5018050000 114.1277270000,22.5018590000 114.1274980000,22.5020590000 114.1274430000,22.5021070000 114.1274140000,22.5021320000 114.1274070000,22.5021380000 114.1273860000,22.5021570000 114.1273680000,22.5021720000 114.1273310000,22.5022070000 114.1273200000,22.5022180000 114.1272760000,22.5022580000 114.1272040000,22.5023220000 114.1271790000,22.5023440000 114.1271320000,22.5023860000 114.1270980000,22.5024180000 114.1270660000,22.5024480000 114.1268210000,22.5026770000 114.1267660000,22.5027640000 114.1266990000,22.5028810000 114.1266730000,22.5029410000 114.1266610000,22.5030100000 114.1266700000,22.5031270000 114.1266840000,22.5032990000 114.1267220000,22.5036510000 114.1267290000,22.5037190000 114.1267650000,22.5040570000 114.1268160000,22.5045380000 114.1268280000,22.5046450000 114.1268300000,22.5046650000 114.1268420000,22.5047600000 114.1268880000,22.5051200000 114.1268580000,22.5051820000 114.1268590000,22.5052060000 114.1268610000,22.5052300000 114.1268610000,22.5052470000 114.1268660000,22.5053210000 114.1267890000,22.5053320000 114.1267540000,22.5053360000 114.1267160000,22.5053390000 114.1266510000,22.5053770000 114.1265240000,22.5054050000 114.1263290000,22.5054550000 114.1261860000,22.5055050000 114.1260770000,22.5055530000 114.1259400000,22.5056340000 114.1257790000,22.5057510000 114.1256400000,22.5058040000 114.1256150000,22.5058230000 114.1255870000,22.5058440000 114.1255500000,22.5058700000 114.1254710000,22.5059360000 114.1254230000,22.5058880000 114.1251980000,22.5056660000 114.1248830000,22.5053550000 114.1243100000,22.5048090000 114.1240410000,22.5045300000 114.1239700000,22.5044500000 114.1237800000,22.5041990000 114.1236600000,22.5039640000 114.1236270000,22.5038520000 114.1236050000,22.5037620000 114.1235660000,22.5034980000 114.1235620000,22.5034210000 114.1235580000,22.5033660000 114.1235570000,22.5033440000 114.1235540000,22.5032010000 114.1235560000,22.5031200000 114.1235660000,22.5027270000 114.1235680000,22.5024480000 114.1235810000,22.5020810000 114.1236660000,22.5014330000 114.1236980000,22.5012350000 114.1237550000,22.5009380000 114.1237750000,22.5008520000 114.1237950000,22.5007680000 114.1238070000,22.5007320000 114.1238170000,22.5007010000 114.1238390000,22.5006330000 114.1238700000,22.5005720000 114.1239150000,22.5004830000 114.1239690000,22.5004380000 114.1240130000,22.5003930000 114.1240460000,22.5003450000 114.1240730000,22.5002680000 114.1240790000,22.5001810000 114.1240650000,22.5001270000 114.1240500000,22.5000720000 114.1240090000,22.4999950000 114.1239540000,22.4999380000 114.1239120000,22.4999060000 114.1238310000,22.4998600000 114.1237690000,22.4998420000 114.1236980000,22.4998310000 114.1236170000,22.4998430000 114.1235440000,22.4998660000 114.1234710000,22.4999070000 114.1234060000,22.4999590000 114.1233830000,22.4999920000 114.1233590000,22.5000350000 114.1233120000,22.5000610000 114.1232290000,22.5001160000 114.1229770000,22.5002410000 114.1221390000,22.5006250000 114.1215850000,22.5008910000 114.1209540000,22.5012400000 114.1208670000,22.5013060000 114.1206920000,22.5014360000 114.1205390000,22.5015570000 114.1201850000,22.5017510000 114.1197380000,22.5019720000 114.1194630000,22.5020590000 114.1192660000,22.5021210000 114.1190770000,22.5021660000 114.1186450000,22.5022230000 114.1181280000,22.5022530000 114.1177570000,22.5022530000 114.1173440000,22.5022190000 114.1164180000,22.5021120000 114.1159240000,22.5020560000 114.1155500000,22.5020130000 114.1150920000,22.5019900000 114.1147120000,22.5019950000 114.1143160000,22.5020300000 114.1134410000,22.5021520000 114.1111400000,22.5024830000 114.1101430000,22.5026110000 114.1092710000,22.5027090000 114.1073400000,22.5028560000 114.1056640000,22.5029750000 114.1049990000,22.5030240000 114.0993520000,22.5034670000 114.0974150000,22.5036190000 114.0964300000,22.5036930000 114.0951430000,22.5037780000 114.0937890000,22.5038850000 114.0934750000,22.5039100000 114.0933010000,22.5039230000 114.0928930000,22.5039530000 114.0925580000,22.5039780000 114.0920180000,22.5040170000 114.0908580000,22.5041030000 114.0907290000,22.5041120000 114.0904970000,22.5041290000 114.0901270000,22.5041470000 114.0898710000,22.5041590000 114.0894830000,22.5041700000 114.0893780000,22.5041720000 114.0891630000,22.5041590000 114.0888860000,22.5041420000 114.0882940000,22.5041050000 114.0878870000,22.5040770000 114.0877950000,22.5040680000 114.0877410000,22.5040600000 114.0872740000,22.5039770000 114.0868160000,22.5038630000 114.0863650000,22.5037540000 114.0858920000,22.5036150000 114.0857310000,22.5035640000 114.0853160000,22.5034370000 114.0852330000,22.5034060000 114.0850420000,22.5033350000 114.0847760000,22.5032370000 114.0846470000,22.5031790000 114.0841980000,22.5029660000 114.0840230000,22.5028840000 114.0837500000,22.5027420000 114.0835010000,22.5025980000 114.0832740000,22.5024670000 114.0827710000,22.5021460000 114.0824960000,22.5019550000 114.0820060000,22.5015630000 114.0815100000,22.5010970000 114.0811030000,22.5007090000 114.0807610000,22.5003390000 114.0804310000,22.4999640000 114.0795770000,22.4988690000 114.0795410000,22.4988190000 114.0792660000,22.4984400000 114.0791380000,22.4982680000 114.0790980000,22.4982150000 114.0790720000,22.4981800000 114.0790420000,22.4981400000 114.0783860000,22.4972650000 114.0781880000,22.4970000000 114.0780060000,22.4967820000 114.0778450000,22.4965940000 114.0776620000,22.4964150000 114.0775530000,22.4963250000 114.0774580000,22.4962470000 114.0773980000,22.4962060000 114.0772720000,22.4961220000 114.0772220000,22.4960880000 114.0769330000,22.4959100000 114.0766220000,22.4957610000 114.0763000000,22.4956220000 114.0758170000,22.4954740000 114.0751570000,22.4952940000 114.0734120000,22.4948180000 114.0732130000,22.4947640000 114.0719380000,22.4944170000 114.0694070000,22.4937270000 114.0690930000,22.4936390000 114.0656570000,22.4926980000 114.0642620000,22.4922920000 114.0638650000,22.4921730000 114.0635110000,22.4920240000 114.0631890000,22.4918850000 114.0628460000,22.4917270000 114.0624590000,22.4915190000 114.0621270000,22.4913100000 114.0617840000,22.4910720000 114.0614620000,22.4908150000 114.0611830000,22.4905770000 114.0608290000,22.4902500000 114.0605820000,22.4899820000 114.0602710000,22.4896150000 114.0600260000,22.4893030000 114.0597690000,22.4889060000 114.0594900000,22.4884400000 114.0592540000,22.4879640000 114.0590390000,22.4874290000 114.0588680000,22.4868540000 114.0587600000,22.4862990000 114.0586640000,22.4856750000 114.0583630000,22.4805890000 114.0583050000,22.4799730000 114.0582730000,22.4794870000 114.0582280000,22.4792060000 114.0581690000,22.4788520000 114.0581450000,22.4787240000 114.0580690000,22.4783670000 114.0579510000,22.4779800000 114.0578120000,22.4775840000 114.0576400000,22.4771280000 114.0573310000,22.4764870000 114.0571520000,22.4761590000 114.0570180000,22.4759180000 114.0567610000,22.4754420000 114.0565900000,22.4749990000 114.0565470000,22.4747710000 114.0563920000,22.4740890000 114.0560670000,22.4729080000 114.0557630000,22.4717540000 114.0557520000,22.4716550000 114.0557630000,22.4715960000 114.0557860000,22.4715130000 114.0558900000,22.4714070000 114.0559290000,22.4713510000 114.0559780000,22.4712720000 114.0560110000,22.4711700000 114.0560270000,22.4710480000 114.0560240000,22.4709580000 114.0560000000,22.4708590000 114.0559490000,22.4707520000 114.0558800000,22.4706660000 114.0558240000,22.4706080000 114.0557170000,22.4705390000 114.0556000000,22.4704930000 114.0555830000,22.4704860000 114.0554390000,22.4704610000 114.0553050000,22.4704640000 114.0551430000,22.4704950000 114.0550290000,22.4705480000 114.0549470000,22.4706030000 114.0549230000,22.4706280000 114.0548650000,22.4706890000 114.0547550000,22.4707190000 114.0545920000,22.4707050000 114.0544940000,22.4706450000 114.0544490000,22.4706110000 114.0544130000,22.4705510000 114.0543850000,22.4704730000 114.0543850000,22.4703750000 114.0544190000,22.4702270000 114.0544440000,22.4701360000 114.0544860000,22.4699240000 114.0545230000,22.4696440000 114.0545350000,22.4695250000 114.0545290000,22.4694100000 114.0545220000,22.4693470000 114.0544910000,22.4692280000 114.0544580000,22.4690970000 114.0544100000,22.4688820000 114.0543830000,22.4687340000 114.0543630000,22.4686200000 114.0543450000,22.4685220000 114.0542290000,22.4680260000 114.0541220000,22.4674630000 114.0540860000,22.4671990000 114.0540170000,22.4667060000 114.0540000000,22.4665810000 114.0538570000,22.4659410000 114.0536550000,22.4650780000 114.0534880000,22.4643930000 114.0532720000,22.4634920000 114.0531650000,22.4630450000 114.0529380000,22.4620970000 114.0528010000,22.4615310000 114.0526540000,22.4609210000 114.0525380000,22.4604480000 114.0524250000,22.4600080000 114.0522840000,22.4595410000 114.0521510000,22.4592070000 114.0520600000,22.4589630000 114.0518880000,22.4584280000 114.0517860000,22.4581020000 114.0516750000,22.4577650000 114.0516070000,22.4575120000 114.0515720000,22.4573700000 114.0514860000,22.4570350000 114.0514570000,22.4569170000 114.0513060000,22.4565500000 114.0511450000,22.4562430000 114.0511100000,22.4561800000 114.0508860000,22.4558290000 114.0506460000,22.4555420000 114.0503900000,22.4552640000 114.0501230000,22.4550160000 114.0498190000,22.4547780000 114.0495130000,22.4545550000 114.0493980000,22.4544590000 114.0493230000,22.4543700000 114.0492260000,22.4542240000 114.0491700000,22.4541040000 114.0491420000,22.4540020000 114.0491350000,22.4538790000 114.0491420000,22.4537770000 114.0493880000,22.4526600000 114.0495910000,22.4519810000 114.0496720000,22.4518120000 114.0497310000,22.4517200000 114.0498340000,22.4515910000 114.0499950000,22.4514360000 114.0501280000,22.4513870000 114.0502680000,22.4513600000 114.0504140000,22.4513340000 114.0504840000,22.4513200000 114.0505740000,22.4512610000 114.0506370000,22.4512070000 114.0507070000,22.4511790000 114.0508190000,22.4511360000 114.0510400000,22.4510820000 114.0511170000,22.4510570000 114.0511720000,22.4510220000 114.0512150000,22.4509750000 114.0512450000,22.4509200000 114.0512770000,22.4508560000 114.0512830000,22.4507170000 114.0512710000,22.4504590000 114.0512890000,22.4503910000 114.0513240000,22.4503280000 114.0513740000,22.4502750000 114.0514370000,22.4502350000 114.0515080000,22.4502100000 114.0515840000,22.4502020000 114.0516600000,22.4502100000 114.0520980000,22.4502500000 114.0521960000,22.4502660000 114.0522910000,22.4502920000 114.0523830000,22.4503280000 114.0524710000,22.4503720000 114.0525530000,22.4504250000 114.0526280000,22.4504850000 114.0528240000,22.4506220000 114.0529110000,22.4506710000 114.0530070000,22.4507060000 114.0531070000,22.4507230000 114.0532100000,22.4507240000 114.0533110000,22.4507080000 114.0535630000,22.4506770000 114.0536110000,22.4507670000 114.0536200000,22.4507960000 114.0536220000,22.4508260000 114.0536170000,22.4508570000 114.0535960000,22.4510320000 114.0535860000,22.4511600000 114.0535840000,22.4512900000 114.0535910000,22.4514190000 114.0536060000,22.4515460000 114.0536240000,22.4516760000 114.0536240000,22.4518170000 114.0539800000,22.4518180000 114.0552580000,22.4518370000 114.0561630000,22.4518500000 114.0561690000,22.4506270000 114.0561310000,22.4504950000 114.0559060000,22.4504730000 114.0542760000,22.4504740000 114.0539740000,22.4505750000 114.0537900000,22.4506260000 114.0535630000,22.4506770000 114.0533110000,22.4507080000 114.0532100000,22.4507240000 114.0531070000,22.4507230000 114.0530070000,22.4507060000 114.0529110000,22.4506710000 114.0528240000,22.4506220000 114.0526280000,22.4504850000 114.0525530000,22.4504250000 114.0524710000,22.4503720000 114.0523830000,22.4503280000 114.0522910000,22.4502920000 114.0521960000,22.4502660000 114.0520980000,22.4502500000 114.0516600000,22.4502100000 114.0515840000,22.4502020000 114.0515080000,22.4502100000 114.0514370000,22.4502350000 114.0513740000,22.4502750000 114.0513240000,22.4503280000 114.0512890000,22.4503910000 114.0512710000,22.4504590000 114.0512830000,22.4507170000 114.0512770000,22.4508560000 114.0512450000,22.4509200000 114.0512150000,22.4509750000 114.0511720000,22.4510220000 114.0511170000,22.4510570000 114.0510400000,22.4510820000 114.0508190000,22.4511360000 114.0506880000,22.4511100000 114.0506680000,22.4511020000 114.0506170000,22.4510790000 114.0505520000,22.4510300000 114.0505010000,22.4509700000 114.0503760000,22.4505170000 114.0502790000,22.4501650000 114.0502330000,22.4499850000 114.0502010000,22.4498620000 114.0500080000,22.4491630000 114.0497970000,22.4483120000 114.0497050000,22.4479430000 114.0496580000,22.4477740000 114.0496270000,22.4476580000 114.0495320000,22.4473190000 114.0494030000,22.4468340000 114.0493860000,22.4467830000 114.0492850000,22.4465270000 114.0492570000,22.4464560000 114.0492020000,22.4463480000 114.0491500000,22.4462480000 114.0490310000,22.4460620000 114.0489670000,22.4459640000 114.0489090000,22.4458740000 114.0488560000,22.4457820000 114.0487820000,22.4456650000 114.0485380000,22.4453750000 114.0482920000,22.4450580000 114.0481550000,22.4448660000 114.0481090000,22.4447700000 114.0480780000,22.4446700000 114.0480560000,22.4445900000 114.0480930000,22.4445220000 114.0481190000,22.4444470000 114.0481960000,22.4443760000 114.0483470000,22.4442400000 114.0486420000,22.4440700000 114.0487030000,22.4440400000 114.0488010000,22.4439900000 114.0489470000,22.4439170000 114.0494320000,22.4436530000 114.0495100000,22.4436130000 114.0498430000,22.4434430000 114.0498730000,22.4434290000 114.0500620000,22.4433330000 114.0516370000,22.4425450000 114.0520990000,22.4422970000 114.0521440000,22.4422730000 114.0522050000,22.4422400000 114.0522490000,22.4422190000 114.0530150000,22.4418460000 114.0533130000,22.4417000000 114.0538070000,22.4414600000 114.0542350000,22.4412510000 114.0544260000,22.4411630000 114.0553540000,22.4406930000 114.0556890000,22.4405260000 114.0557320000,22.4405050000 114.0558450000,22.4404520000 114.0560120000,22.4403750000 114.0562830000,22.4402660000 114.0565280000,22.4401870000 114.0566310000,22.4401610000 114.0567600000,22.4401300000 114.0569300000,22.4400970000 114.0570830000,22.4400690000 114.0571300000,22.4400620000 114.0572820000,22.4400430000 114.0574140000,22.4400330000 114.0577500000,22.4400230000 114.0578100000,22.4400230000 114.0582750000,22.4400210000 114.0583130000,22.4400220000 114.0586820000,22.4400270000 114.0589880000,22.4400920000 114.0591560000,22.4402030000 114.0592650000,22.4403210000 114.0593460000,22.4403770000 114.0593910000,22.4404360000 114.0594610000,22.4405010000 114.0595460000,22.4405480000 114.0596200000,22.4405640000 114.0596790000,22.4405730000 114.0597080000,22.4405780000 114.0597920000,22.4405720000 114.0598350000,22.4405660000 114.0599240000,22.4405290000 114.0600020000,22.4404740000 114.0600640000,22.4404040000 114.0601120000,22.4403040000 114.0601270000,22.4402070000 114.0601140000,22.4401100000 114.0600760000,22.4400180000 114.0600460000,22.4399750000 114.0600100000,22.4399390000 114.0599540000,22.4398890000 114.0598810000,22.4398450000 114.0598020000,22.4398200000 114.0597190000,22.4398120000 114.0596370000,22.4398220000 114.0595500000,22.4398530000 114.0595080000,22.4398730000 114.0594680000,22.4398970000 114.0594320000,22.4399260000 114.0593440000,22.4399350000 114.0583830000,22.4399370000 114.0582570000,22.4399380000 114.0579430000,22.4399380000 114.0577240000,22.4399410000 114.0576710000,22.4399410000 114.0575310000,22.4399110000 114.0574100000,22.4398760000 114.0573590000,22.4398560000 114.0573230000,22.4398360000 114.0572650000,22.4397990000 114.0572220000,22.4397570000 114.0571870000,22.4397100000 114.0571560000,22.4396530000 114.0571350000,22.4395850000 114.0571240000,22.4395080000 114.0571030000,22.4391610000 114.0571060000,22.4390580000 114.0571220000,22.4389490000 114.0571490000,22.4388440000 114.0571850000,22.4387400000 114.0572320000,22.4386410000 114.0572890000,22.4385480000 114.0573530000,22.4384620000 114.0574280000,22.4383770000 114.0575100000,22.4382990000 114.0576000000,22.4382200000 114.0576850000,22.4381540000 114.0581490000,22.4378090000 114.0586130000,22.4374550000 114.0588640000,22.4372540000 114.0589560000,22.4371750000 114.0590320000,22.4371040000 114.0593420000,22.4367950000 114.0599690000,22.4361350000 114.0604950000,22.4355600000 114.0607800000,22.4351250000 114.0611520000,22.4346860000 114.0614490000,22.4343100000 114.0617700000,22.4338730000 114.0619730000,22.4335750000 114.0622480000,22.4331430000 114.0624570000,22.4327850000 114.0626480000,22.4324290000 114.0628140000,22.4321030000 114.0630310000,22.4316290000 114.0631480000,22.4313530000 114.0633360000,22.4308500000 114.0634380000,22.4305540000 114.0635560000,22.4301880000 114.0637050000,22.4296700000 114.0638390000,22.4291530000 114.0639560000,22.4286250000 114.0640530000,22.4281040000 114.0641170000,22.4277120000 114.0641550000,22.4274190000 114.0642180000,22.4268400000 114.0642520000,22.4264070000 114.0642720000,22.4259930000 114.0642990000,22.4243590000 114.0643130000,22.4232740000 114.0643110000,22.4225020000 114.0642930000,22.4220220000 114.0642670000,22.4215770000 114.0642570000,22.4213660000 114.0641580000,22.4204600000 114.0640030000,22.4189740000 114.0639950000,22.4189290000 114.0638760000,22.4183200000 114.0635200000,22.4166570000 114.0634500000,22.4161790000 114.0633480000,22.4155790000 114.0632220000,22.4150740000 114.0630650000,22.4145840000 114.0628950000,22.4141420000 114.0626700000,22.4136450000 114.0623420000,22.4130480000 114.0610830000,22.4109250000 114.0609240000,22.4106470000 114.0608340000,22.4104820000 114.0607460000,22.4103130000 114.0606660000,22.4101470000 114.0605870000,22.4099760000 114.0605150000,22.4098100000 114.0604420000,22.4096400000 114.0603740000,22.4094700000 114.0603150000,22.4093000000 114.0602180000,22.4090130000 114.0601610000,22.4088270000 114.0601160000,22.4086640000 114.0600790000,22.4085170000 114.0600430000,22.4083840000 114.0600290000,22.4083290000 114.0599900000,22.4081590000 114.0599610000,22.4080280000 114.0599410000,22.4079220000 114.0599230000,22.4078170000 114.0599050000,22.4076820000 114.0598850000,22.4075290000 114.0598610000,22.4073170000 114.0598450000,22.4071630000 114.0598350000,22.4070400000 114.0598260000,22.4068800000 114.0598220000,22.4067200000 114.0598200000,22.4065600000 114.0598200000,22.4064000000 114.0598220000,22.4062400000 114.0598260000,22.4060800000 114.0598320000,22.4059200000 114.0598410000,22.4057600000 114.0598540000,22.4056000000 114.0598690000,22.4054400000 114.0598910000,22.4052500000 114.0623570000,22.3893650000 114.0626980000,22.3871780000 114.0637180000,22.3811750000 114.0637550000,22.3810000000 114.0637950000,22.3808300000 114.0638400000,22.3806600000 114.0638870000,22.3804900000 114.0639380000,22.3803100000 114.0639920000,22.3801310000 114.0640500000,22.3799600000 114.0641120000,22.3797900000 114.0641800000,22.3796200000 114.0642480000,22.3794600000 114.0643150000,22.3793030000 114.0643830000,22.3791500000 114.0644610000,22.3789900000 114.0645400000,22.3788400000 114.0646200000,22.3786900000 114.0647230000,22.3785000000 114.0648310000,22.3783200000 114.0649400000,22.3781500000 114.0650520000,22.3779800000 114.0651700000,22.3778100000 114.0652900000,22.3776450000 114.0654130000,22.3774800000 114.0655400000,22.3773200000 114.0656660000,22.3771710000 114.0658010000,22.3770150000 114.0659500000,22.3768540000 114.0661020000,22.3766950000 114.0662500000,22.3765450000 114.0664000000,22.3764000000 114.0665500000,22.3762610000 114.0667140000,22.3761200000 114.0668830000,22.3759780000 114.0670380000,22.3758630000 114.0672200000,22.3757280000 114.0673400000,22.3756430000 114.0673840000,22.3756120000 114.0674310000,22.3755850000 114.0676090000,22.3754820000 114.0682370000,22.3750400000 114.0688590000,22.3745820000 114.0690860000,22.3744300000 114.0692620000,22.3743040000 114.0701770000,22.3737060000 114.0713690000,22.3729280000 114.0732230000,22.3717740000 114.0734910000,22.3716070000 114.0739570000,22.3713190000 114.0753200000,22.3704760000 114.0755740000,22.3703150000 114.0757640000,22.3701890000 114.0759600000,22.3700600000 114.0760750000,22.3699840000 114.0762980000,22.3698280000 114.0765050000,22.3696610000 114.0765950000,22.3695800000 114.0766770000,22.3695060000 114.0768280000,22.3693520000 114.0769840000,22.3691700000 114.0771000000,22.3690320000 114.0771560000,22.3689570000 114.0772120000,22.3688760000 114.0772980000,22.3687530000 114.0773250000,22.3687170000 114.0773570000,22.3686640000 114.0777440000,22.3681000000 114.0779760000,22.3676890000 114.0785560000,22.3666650000 114.0786410000,22.3665060000 114.0786820000,22.3664280000 114.0789710000,22.3658810000 114.0795610000,22.3647620000 114.0819460000,22.3602400000 114.0820270000,22.3600740000 114.0821430000,22.3598350000 114.0822250000,22.3596680000 114.0824180000,22.3592640000 114.0824780000,22.3591470000 114.0826310000,22.3588550000 114.0828450000,22.3584440000 114.0829940000,22.3581230000 114.0832370000,22.3576620000 114.0832720000,22.3575970000 114.0833190000,22.3575060000 114.0833470000,22.3574550000 114.0834000000,22.3573590000 114.0838930000,22.3564690000 114.0842340000,22.3558540000 114.0845770000,22.3553400000 114.0847250000,22.3551320000 114.0849950000,22.3547760000 114.0850380000,22.3547210000 114.0852940000,22.3543780000 114.0853390000,22.3543180000 114.0853880000,22.3542500000 114.0856200000,22.3538980000 114.0859400000,22.3533550000 114.0860880000,22.3530600000 114.0861420000,22.3529420000 114.0861880000,22.3528400000 114.0863450000,22.3524750000 114.0864690000,22.3521870000 114.0865310000,22.3520200000 114.0865960000,22.3518460000 114.0868600000,22.3510520000 114.0869210000,22.3508770000 114.0869360000,22.3508280000 114.0869950000,22.3506510000 114.0870280000,22.3505540000 114.0871700000,22.3501460000 114.0871840000,22.3501050000 114.0873720000,22.3493900000 114.0873850000,22.3493210000 114.0874730000,22.3488690000 114.0874870000,22.3487930000 114.0875280000,22.3486700000 114.0876060000,22.3484580000 114.0876470000,22.3483500000 114.0877000000,22.3482120000 114.0878300000,22.3479380000 114.0879940000,22.3476390000 114.0881250000,22.3474620000 114.0882400000,22.3473590000 114.0883470000,22.3472640000 114.0885020000,22.3471250000 114.0885890000,22.3470470000 114.0891520000,22.3465960000 114.0892520000,22.3465380000 114.0893170000,22.3465010000 114.0894580000,22.3464220000 114.0895440000,22.3463710000 114.0896600000,22.3463030000 114.0898570000,22.3462060000 114.0904080000,22.3459230000 114.0909510000,22.3456540000 114.0913290000,22.3454850000 114.0917140000,22.3453370000 114.0921490000,22.3451970000 114.0926200000,22.3450830000 114.0931040000,22.3449910000 114.0933720000,22.3449670000 114.0939110000,22.3449370000 114.0941740000,22.3449370000 114.0952440000,22.3449500000 114.0957200000,22.3449460000 114.1004000000,22.3449930000 114.1010700000,22.3450180000 114.1014000000,22.3450400000 114.1017300000,22.3450680000 114.1020600000,22.3451030000 114.1023900000,22.3451480000 114.1025490000,22.3451730000 114.1030400000,22.3452500000 114.1033000000,22.3453000000 114.1035300000,22.3453500000 114.1037300000,22.3453950000 114.1038810000,22.3454310000 114.1040300000,22.3454700000 114.1042020000,22.3455180000 114.1043800000,22.3455700000 114.1046900000,22.3456680000 114.1049680000,22.3457620000 114.1051600000,22.3458300000 114.1053500000,22.3459000000 114.1056800000,22.3460270000 114.1060000000,22.3461600000 114.1066070000,22.3464420000 114.1092280000,22.3478020000 114.1094000000,22.3478900000 114.1094990000,22.3479370000 114.1095990000,22.3479820000 114.1098100000,22.3480700000 114.1100000000,22.3481490000 114.1103700000,22.3483000000 114.1107080000,22.3484390000 114.1112560000,22.3486440000 114.1114010000,22.3486980000 114.1121940000,22.3489990000 114.1150360000,22.3500680000 114.1152660000,22.3501660000 114.1155460000,22.3503070000 114.1158280000,22.3504570000 114.1160890000,22.3506120000 114.1163380000,22.3507780000 114.1166890000,22.3510310000 114.1170420000,22.3512980000 114.1174180000,22.3515670000 114.1177500000,22.3517760000 114.1179500000,22.3518880000 114.1181630000,22.3519900000 114.1185390000,22.3521520000 114.1187440000,22.3522270000 114.1189890000,22.3523010000 114.1192310000,22.3523660000 114.1195060000,22.3524250000 114.1197310000,22.3524620000 114.1199660000,22.3524930000 114.1203430000,22.3525160000 114.1207100000,22.3525140000 114.1211680000,22.3524720000 114.1214580000,22.3524280000 114.1216780000,22.3523900000 114.1217840000,22.3523650000 114.1219810000,22.3522960000 114.1220880000,22.3522570000 114.1221670000,22.3522230000 114.1226290000,22.3520200000 114.1228980000,22.3518990000 114.1232400000,22.3516400000 114.1234320000,22.3514950000 114.1237280000,22.3512190000 114.1239480000,22.3509410000 114.1241480000,22.3506360000 114.1243000000,22.3503120000 114.1244440000,22.3499020000 114.1244990000,22.3496360000 114.1245500000,22.3491470000 114.1245370000,22.3484120000 114.1245330000,22.3480180000 114.1245490000,22.3476170000 114.1246060000,22.3472410000 114.1246110000,22.3472070000 114.1246230000,22.3471590000 114.1246360000,22.3471070000 114.1246480000,22.3470550000 114.1246730000,22.3469520000 114.1247110000,22.3468180000 114.1247390000,22.3467160000 114.1247610000,22.3466370000 114.1247850000,22.3465690000 114.1248130000,22.3464960000 114.1248340000,22.3464420000 114.1249030000,22.3462770000 114.1250230000,22.3459890000 114.1251600000,22.3457430000 114.1252280000,22.3456200000 114.1254330000,22.3453410000 114.1256160000,22.3450810000 114.1258790000,22.3448160000 114.1260740000,22.3446340000 114.1262650000,22.3444920000 114.1264800000,22.3443300000 114.1269240000,22.3440300000 114.1270200000,22.3439790000 114.1271090000,22.3439320000 114.1271840000,22.3438920000 114.1272820000,22.3438400000 114.1276470000,22.3436840000 114.1278970000,22.3435720000 114.1281270000,22.3434690000 114.1283770000,22.3433460000 114.1286560000,22.3432050000 114.1289710000,22.3430190000 114.1291870000,22.3428750000 114.1294020000,22.3427320000 114.1295670000,22.3426040000 114.1297310000,22.3424680000 114.1298900000,22.3423150000 114.1301370000,22.3420730000 114.1303630000,22.3417950000 114.1304050000,22.3417270000 114.1304940000,22.3415860000 114.1306050000,22.3414080000 114.1306680000,22.3413080000 114.1307450000,22.3411650000 114.1307910000,22.3410810000 114.1308490000,22.3409740000 114.1310190000,22.3406270000 114.1311190000,22.3404140000 114.1311910000,22.3402610000 114.1314770000,22.3396800000 114.1315870000,22.3394560000 114.1316710000,22.3392680000 114.1316840000,22.3392360000 114.1318380000,22.3388760000 114.1319550000,22.3386180000 114.1320070000,22.3385160000 114.1320500000,22.3384340000 114.1322000000,22.3381400000 114.1324040000,22.3378060000 114.1326480000,22.3374240000 114.1328610000,22.3371230000 114.1331790000,22.3367280000 114.1333570000,22.3365230000 114.1336230000,22.3362450000 114.1337460000,22.3361190000 114.1343320000,22.3356020000 114.1345140000,22.3354620000 114.1346460000,22.3353620000 114.1349080000,22.3351570000 114.1351140000,22.3350120000 114.1353150000,22.3348710000 114.1354560000,22.3347710000 114.1355370000,22.3347190000 114.1357120000,22.3346060000 114.1360310000,22.3344250000 114.1363260000,22.3342690000 114.1366140000,22.3341310000 114.1369430000,22.3339880000 114.1373830000,22.3338160000 114.1378110000,22.3336600000 114.1395900000,22.3330030000 114.1398300000,22.3329510000 114.1403410000,22.3328320000 114.1404170000,22.3328110000 114.1407680000,22.3327140000 114.1409930000,22.3326420000 114.1411400000,22.3325900000 114.1413060000,22.3325270000 114.1415830000,22.3324020000 114.1418830000,22.3322730000 114.1420750000,22.3322320000 114.1421380000,22.3322180000 114.1421860000,22.3322100000 114.1422330000,22.3322010000 114.1423370000,22.3321900000 114.1424530000,22.3321850000 114.1425990000,22.3321900000 114.1426410000,22.3321930000 114.1427320000,22.3322040000 114.1428060000,22.3322160000 114.1429040000,22.3322400000 114.1430560000,22.3322860000 114.1431060000,22.3323040000 114.1431930000,22.3323400000 114.1432510000,22.3323670000 114.1433030000,22.3323940000 114.1433750000,22.3324360000 114.1434340000,22.3324720000 114.1434870000,22.3325070000 114.1435450000,22.3325510000 114.1436150000,22.3326120000 114.1437050000,22.3326950000 114.1437860000,22.3327830000 114.1438640000,22.3328800000 114.1439140000,22.3329560000 114.1439630000,22.3330380000 114.1439910000,22.3330920000 114.1440180000,22.3331500000 114.1440440000,22.3332140000 114.1440820000,22.3333210000 114.1441540000,22.3335670000 114.1441960000,22.3336920000 114.1442220000,22.3337580000 114.1443930000,22.3341280000 114.1445810000,22.3347860000 114.1446050000,22.3349870000 114.1446110000,22.3350350000 114.1446220000,22.3351220000 114.1446280000,22.3352080000 114.1449170000,22.3352050000 114.1449620000,22.3352010000 114.1450660000,22.3351780000 114.1451550000,22.3351410000 114.1452580000,22.3350790000 114.1453370000,22.3350240000 114.1454080000,22.3349590000 114.1454810000,22.3348830000 114.1455420000,22.3347980000 114.1456020000,22.3346870000 114.1456570000,22.3345710000 114.1458220000,22.3342410000 114.1459790000,22.3339290000 114.1460550000,22.3338310000 114.1461030000,22.3337680000 114.1461350000,22.3337260000 114.1462960000,22.3335700000 114.1464380000,22.3334530000 114.1465740000,22.3333320000 114.1466840000,22.3332530000 114.1470990000,22.3329550000 114.1474150000,22.3327140000 114.1475740000,22.3325920000 114.1476740000,22.3325120000 114.1476990000,22.3324920000 114.1480190000,22.3322390000 114.1480630000,22.3322040000 114.1481440000,22.3321400000 114.1484870000,22.3318780000 114.1485200000,22.3318540000 114.1487080000,22.3317170000 114.1487750000,22.3318410000 114.1490650000,22.3322920000 114.1491970000,22.3324960000 114.1495270000,22.3329250000 114.1496600000,22.3330930000 114.1498610000,22.3333490000 114.1499210000,22.3334230000 114.1500090000,22.3335310000 114.1500930000,22.3336210000 114.1501190000,22.3336490000 114.1501350000,22.3336660000 114.1501580000,22.3336910000 114.1503820000,22.3339310000 114.1504050000,22.3339560000 114.1504190000,22.3339770000 114.1505350000,22.3341480000 114.1506810000,22.3342710000 114.1507430000,22.3343240000 114.1507740000,22.3343490000 114.1508230000,22.3343580000 114.1508700000,22.3344190000 114.1509400000,22.3345090000 114.1513970000,22.3350540000 114.1515600000,22.3352220000 114.1515980000,22.3352590000 114.1516460000,22.3352990000 114.1517110000,22.3353580000 114.1518130000,22.3354580000 114.1518680000,22.3355200000 114.1518990000,22.3355480000 114.1521710000,22.3358650000 114.1523340000,22.3360600000 114.1530630000,22.3368570000 114.1531820000,22.3370270000 114.1533990000,22.3372420000 114.1534300000,22.3372800000 114.1535550000,22.3374290000 114.1536440000,22.3375310000 114.1537460000,22.3374520000 114.1539090000,22.3373250000 114.1544210000,22.3369270000 114.1549550000,22.3365120000 114.1552880000,22.3362530000 114.1553260000,22.3362240000 114.1556940000,22.3359400000 114.1557410000,22.3359040000 114.1558470000,22.3358220000 114.1559330000,22.3357560000 114.1559800000,22.3357200000 114.1562810000,22.3354860000 114.1563140000,22.3354610000 114.1564090000,22.3353880000 114.1566870000,22.3351740000 114.1568080000,22.3350800000 114.1571400000,22.3348230000 114.1572250000,22.3347580000 114.1572980000,22.3347010000 114.1574030000,22.3346150000 114.1575920000,22.3344660000 114.1582930000,22.3339220000 114.1586360000,22.3336510000 114.1591120000,22.3332800000 114.1591530000,22.3332470000 114.1592260000,22.3331900000 114.1595490000,22.3329390000 114.1595930000,22.3329040000 114.1596560000,22.3328550000 114.1598020000,22.3327430000 114.1600840000,22.3325260000 114.1603360000,22.3323300000 114.1603510000,22.3323180000 114.1603690000,22.3323040000 114.1605440000,22.3321660000 114.1606160000,22.3321110000 114.1608450000,22.3319370000 114.1608810000,22.3319110000 114.1609770000,22.3318360000 114.1610660000,22.3317690000 114.1611900000,22.3316720000 114.1612160000,22.3316520000 114.1617520000,22.3312370000 114.1617890000,22.3312080000 114.1618810000,22.3311370000 114.1621840000,22.3308960000 114.1622060000,22.3308790000 114.1622910000,22.3308110000 114.1623940000,22.3307290000 114.1625100000,22.3306380000 114.1625910000,22.3305750000 114.1626820000,22.3305050000 114.1627100000,22.3304840000 114.1627630000,22.3304440000 114.1631440000,22.3301520000 114.1632110000,22.3301010000 114.1634510000,22.3299220000 114.1635040000,22.3298820000 114.1636520000,22.3297700000 114.1638180000,22.3296400000 114.1638950000,22.3295810000 114.1645560000,22.3290730000 114.1648340000,22.3288610000 114.1648790000,22.3288240000 114.1652130000,22.3285560000 114.1652350000,22.3285390000 114.1653000000,22.3284880000 114.1653860000,22.3284180000 114.1656100000,22.3282370000 114.1657080000,22.3281580000 114.1657970000,22.3280850000 114.1658310000,22.3280580000 114.1658990000,22.3280350000 114.1660510000,22.3279160000 114.1662660000,22.3277480000 114.1669240000,22.3272440000 114.1669840000,22.3272070000 114.1670160000,22.3271940000 114.1670600000,22.3271750000 114.1671390000,22.3271420000 114.1672000000,22.3271150000 114.1673030000,22.3270630000 114.1674430000,22.3269670000 114.1675730000,22.3268670000 114.1676800000,22.3267770000 114.1676970000,22.3267300000 114.1677070000,22.3267080000 114.1677240000,22.3266890000 114.1677370000,22.3266760000 114.1677710000,22.3266480000 114.1678200000,22.3266240000 114.1678910000,22.3265240000 114.1679130000,22.3264820000 114.1679560000,22.3263890000 114.1679690000,22.3263510000 114.1679810000,22.3263140000 114.1680030000,22.3262340000 114.1680940000,22.3258220000 114.1681120000,22.3257430000 114.1681640000,22.3255030000 114.1681880000,22.3253890000 114.1682160000,22.3252530000 114.1682260000,22.3252060000 114.1682340000,22.3251710000 114.1682380000,22.3251420000 114.1682620000,22.3249920000 114.1683000000,22.3248060000 114.1683140000,22.3247360000 114.1683310000,22.3246630000 114.1683480000,22.3245810000 114.1683660000,22.3245000000 114.1683740000,22.3244550000 114.1684010000,22.3243960000 114.1684140000,22.3243440000 114.1684430000,22.3242190000 114.1684490000,22.3241900000 114.1684600000,22.3241330000 114.1684750000,22.3240600000 114.1684970000,22.3239670000 114.1684910000,22.3239090000 114.1684970000,22.3238880000 114.1685080000,22.3238270000 114.1685680000,22.3235450000 114.1685800000,22.3234860000 114.1686040000,22.3233720000 114.1686350000,22.3232270000 114.1686590000,22.3231130000 114.1687020000,22.3229210000 114.1687200000,22.3228230000 114.1687320000,22.3227660000 114.1687860000,22.3224820000 114.1688690000,22.3220630000 114.1689430000,22.3216740000 114.1689770000,22.3214710000 114.1689940000,22.3213860000 114.1690500000,22.3210910000 114.1690590000,22.3210510000 114.1690710000,22.3209960000 114.1690790000,22.3209570000 114.1690900000,22.3209050000 114.1691070000,22.3208330000 114.1691930000,22.3208490000 114.1692930000,22.3208660000 114.1695650000,22.3209200000 114.1696490000,22.3209710000 114.1697810000,22.3210000000 114.1699670000,22.3210330000 114.1701880000,22.3210730000 114.1702910000,22.3210910000 114.1703360000,22.3210990000 114.1705710000,22.3211410000 114.1706130000,22.3211490000 114.1707940000,22.3211810000 114.1709450000,22.3212080000 114.1710640000,22.3212300000 114.1711620000,22.3212480000 114.1712000000,22.3212540000 114.1712840000,22.3212700000 114.1713820000,22.3212870000 114.1714010000,22.3211890000 114.1714190000,22.3211040000 114.1715850000,22.3203030000 114.1716130000,22.3201580000 114.1716500000,22.3199830000 114.1716590000,22.3199440000 114.1716780000,22.3198540000 114.1716880000,22.3198050000 114.1723150000,22.3199280000 114.1724730000,22.3199590000 114.1725920000,22.3199820000 114.1726100000,22.3201910000 114.1725960000,22.3203310000 114.1725950000,22.3203400000 114.1725720000,22.3204570000 114.1723950000,22.3209710000 114.1723360000,22.3211190000 114.1723060000,22.3211950000 114.1722710000,22.3212860000 114.1719810000,22.3220280000 114.1719570000,22.3221000000 114.1719470000,22.3221440000 114.1719120000,22.3224080000 114.1718960000,22.3224780000 114.1718520000,22.3225120000 114.1718390000,22.3225210000 114.1717890000,22.3225310000 114.1717770000,22.3225340000 114.1717190000,22.3225240000 114.1714550000,22.3224780000 114.1712260000,22.3224390000 114.1711460000,22.3224250000 114.1712190000,22.3220720000 114.1713350000,22.3215120000 114.1713690000,22.3213450000 114.1713820000,22.3212870000 114.1714010000,22.3211890000 114.1714190000,22.3211040000 114.1715850000,22.3203030000 114.1716130000,22.3201580000 114.1716500000,22.3199830000 114.1716590000,22.3199440000 114.1716780000,22.3198540000 114.1716880000,22.3198050000 114.1717120000,22.3197000000 114.1716360000,22.3196880000 114.1715140000,22.3196660000 114.1710860000,22.3195900000 114.1709030000,22.3195590000 114.1708930000,22.3195570000 114.1708050000,22.3195410000 114.1707540000,22.3195320000 114.1706820000,22.3195190000 114.1706690000,22.3195160000 114.1705260000,22.3194920000 114.1703930000,22.3194670000 114.1702460000,22.3194430000 114.1702260000,22.3194390000 114.1701140000,22.3194200000 114.1699770000,22.3193950000 114.1699280000,22.3193930000 114.1698850000,22.3193890000 114.1696920000,22.3193570000 114.1695810000,22.3193390000 114.1695360000,22.3193310000 114.1694290000,22.3193120000 114.1693200000,22.3192930000 114.1693020000,22.3193700000 114.1692890000,22.3194330000 114.1692790000,22.3194820000 114.1692420000,22.3196620000 114.1692390000,22.3196750000 114.1692070000,22.3198340000 114.1691870000,22.3199350000 114.1691800000,22.3199710000 114.1691580000,22.3200810000 114.1691290000,22.3202290000 114.1690920000,22.3203780000 114.1690610000,22.3205360000 114.1690530000,22.3205760000 114.1690440000,22.3206130000 114.1690380000,22.3206440000 114.1690220000,22.3207200000 114.1690010000,22.3208190000 114.1689870000,22.3208860000 114.1689750000,22.3209440000 114.1689680000,22.3209790000 114.1689040000,22.3212910000 114.1688670000,22.3214650000 114.1688500000,22.3215570000 114.1688360000,22.3216670000 114.1688220000,22.3217400000 114.1688180000,22.3217570000 114.1688000000,22.3218500000 114.1687620000,22.3220450000 114.1687450000,22.3221210000 114.1687000000,22.3223350000 114.1686570000,22.3225350000 114.1686130000,22.3227430000 114.1685560000,22.3230110000 114.1684610000,22.3234510000 114.1683840000,22.3238070000 114.1683710000,22.3238680000 114.1683670000,22.3238880000 114.1683550000,22.3239430000 114.1683360000,22.3240360000 114.1683220000,22.3241080000 114.1683100000,22.3241680000 114.1682050000,22.3246610000 114.1681570000,22.3249420000 114.1681250000,22.3251250000 114.1681210000,22.3251580000 114.1681170000,22.3251830000 114.1681040000,22.3252400000 114.1680500000,22.3254910000 114.1680200000,22.3256280000 114.1680020000,22.3257120000 114.1679910000,22.3257640000 114.1679720000,22.3258500000 114.1679500000,22.3259520000 114.1679450000,22.3259740000 114.1678810000,22.3262720000 114.1678700000,22.3262930000 114.1678600000,22.3263190000 114.1678310000,22.3263800000 114.1677910000,22.3264340000 114.1677440000,22.3264890000 114.1676510000,22.3265740000 114.1676010000,22.3265960000 114.1675660000,22.3266180000 114.1675290000,22.3266450000 114.1675080000,22.3266590000 114.1674070000,22.3267300000 114.1670260000,22.3270030000 114.1669830000,22.3270340000 114.1669290000,22.3270740000 114.1662280000,22.3276050000 114.1661300000,22.3276790000 114.1659480000,22.3278180000 114.1657080000,22.3280060000 114.1656290000,22.3280670000 114.1656070000,22.3280840000 114.1653940000,22.3282510000 114.1653360000,22.3282960000 114.1652950000,22.3283280000 114.1652170000,22.3283940000 114.1648780000,22.3286680000 114.1648190000,22.3287160000 114.1648060000,22.3287260000 114.1644780000,22.3289900000 114.1639060000,22.3294180000 114.1638840000,22.3294340000 114.1637310000,22.3295540000 114.1635750000,22.3296810000 114.1635020000,22.3297380000 114.1631550000,22.3300000000 114.1630810000,22.3300580000 114.1630050000,22.3301180000 114.1629490000,22.3301610000 114.1626790000,22.3303700000 114.1623970000,22.3305890000 114.1623600000,22.3306180000 114.1621770000,22.3307600000 114.1621400000,22.3307880000 114.1618040000,22.3310490000 114.1617140000,22.3311190000 114.1616030000,22.3312060000 114.1615370000,22.3312570000 114.1614790000,22.3313010000 114.1613580000,22.3313950000 114.1611430000,22.3315550000 114.1611080000,22.3315800000 114.1609830000,22.3316740000 114.1608900000,22.3317470000 114.1607990000,22.3318150000 114.1607810000,22.3318300000 114.1604790000,22.3320650000 114.1602090000,22.3322800000 114.1600360000,22.3324040000 114.1598990000,22.3325110000 114.1598130000,22.3325770000 114.1596280000,22.3327220000 114.1594010000,22.3328990000 114.1591190000,22.3331180000 114.1591050000,22.3331290000 114.1590660000,22.3331600000 114.1588810000,22.3333040000 114.1588370000,22.3333380000 114.1585540000,22.3335580000 114.1584870000,22.3336100000 114.1583050000,22.3337520000 114.1580690000,22.3339340000 114.1576580000,22.3342510000 114.1574770000,22.3343960000 114.1574310000,22.3344320000 114.1573110000,22.3345220000 114.1572090000,22.3346010000 114.1570950000,22.3346930000 114.1566940000,22.3350050000 114.1565560000,22.3351120000 114.1563140000,22.3353000000 114.1562730000,22.3353310000 114.1559420000,22.3355880000 114.1558360000,22.3356710000 114.1557120000,22.3357670000 114.1555890000,22.3358630000 114.1554290000,22.3359870000 114.1552420000,22.3361320000 114.1551940000,22.3361690000 114.1551030000,22.3362410000 114.1543540000,22.3368140000 114.1543130000,22.3368460000 114.1540330000,22.3370610000 114.1538210000,22.3372230000 114.1537860000,22.3372510000 114.1536520000,22.3373560000 114.1535670000,22.3372660000 114.1533580000,22.3370430000 114.1532560000,22.3369820000 114.1531510000,22.3369150000 114.1530630000,22.3368570000 114.1523340000,22.3360600000 114.1521710000,22.3358650000 114.1518990000,22.3355480000 114.1518680000,22.3355200000 114.1518130000,22.3354580000 114.1517110000,22.3353580000 114.1516460000,22.3352990000 114.1515980000,22.3352590000 114.1515600000,22.3352220000 114.1513970000,22.3350540000 114.1509400000,22.3345090000 114.1508700000,22.3344190000 114.1508230000,22.3343580000 114.1508220000,22.3343110000 114.1507950000,22.3342870000 114.1507040000,22.3341960000 114.1506090000,22.3339690000 114.1505350000,22.3338840000 114.1504980000,22.3338410000 114.1503340000,22.3336540000 114.1502760000,22.3335930000 114.1502620000,22.3335780000 114.1502480000,22.3335640000 114.1502180000,22.3335330000 114.1501340000,22.3334450000 114.1500390000,22.3333370000 114.1499790000,22.3332720000 114.1498720000,22.3331530000 114.1498160000,22.3330910000 114.1497520000,22.3330190000 114.1496220000,22.3328600000 114.1493050000,22.3324440000 114.1490240000,22.3319790000 114.1489470000,22.3318590000 114.1489230000,22.3318210000 114.1488350000,22.3316290000 114.1487910000,22.3315260000 114.1486470000,22.3316010000 114.1484740000,22.3317260000 114.1481510000,22.3319750000 114.1479770000,22.3321140000 114.1476590000,22.3323760000 114.1476230000,22.3324050000 114.1475990000,22.3324260000 114.1475000000,22.3325080000 114.1471880000,22.3327510000 114.1470390000,22.3328660000 114.1466180000,22.3331790000 114.1465070000,22.3332610000 114.1463760000,22.3333590000 114.1462120000,22.3334830000 114.1460390000,22.3336410000 114.1459570000,22.3337560000 114.1459040000,22.3338430000 114.1458160000,22.3340190000 114.1457630000,22.3341290000 114.1457230000,22.3342110000 114.1456460000,22.3343680000 114.1455590000,22.3345480000 114.1454750000,22.3346610000 114.1454290000,22.3347400000 114.1453740000,22.3348220000 114.1453020000,22.3348950000 114.1452190000,22.3349660000 114.1451390000,22.3349860000 114.1450610000,22.3349980000 114.1450040000,22.3349950000 114.1449630000,22.3349830000 114.1449280000,22.3349680000 114.1448990000,22.3349470000 114.1448660000,22.3349170000 114.1448360000,22.3348790000 114.1448140000,22.3348400000 114.1447990000,22.3347920000 114.1447910000,22.3347410000 114.1447810000,22.3343800000 114.1447730000,22.3341950000 114.1447610000,22.3340150000 114.1446870000,22.3332730000 114.1446770000,22.3331360000 114.1446730000,22.3330050000 114.1446820000,22.3328400000 114.1446900000,22.3327600000 114.1447870000,22.3321680000 114.1448340000,22.3317610000 114.1448440000,22.3316660000 114.1448300000,22.3314700000 114.1447910000,22.3312660000 114.1447360000,22.3310880000 114.1446590000,22.3309180000 114.1445690000,22.3307660000 114.1444760000,22.3306320000 114.1444200000,22.3305770000 114.1442970000,22.3304740000 114.1441560000,22.3303830000 114.1439620000,22.3303490000 114.1439030000,22.3303420000 114.1438220000,22.3303390000 114.1437290000,22.3303430000 114.1435570000,22.3303870000 114.1434620000,22.3304270000 114.1433290000,22.3305200000 114.1432240000,22.3306090000 114.1430330000,22.3307920000 114.1428590000,22.3309590000 114.1426810000,22.3311130000 114.1425350000,22.3312390000 114.1423740000,22.3314190000 114.1423210000,22.3314690000 114.1422550000,22.3315260000 114.1421820000,22.3315830000 114.1418620000,22.3317710000 114.1416420000,22.3318950000 114.1412300000,22.3320430000 114.1409980000,22.3321260000 114.1407930000,22.3322060000 114.1406230000,22.3322820000 114.1403190000,22.3324240000 114.1401900000,22.3324920000 114.1395720000,22.3328080000 114.1394970000,22.3328500000 114.1385640000,22.3332330000 114.1378030000,22.3335180000 114.1373210000,22.3337010000 114.1368860000,22.3338730000 114.1365640000,22.3340150000 114.1362710000,22.3341510000 114.1359690000,22.3343040000 114.1356310000,22.3344910000 114.1354440000,22.3346060000 114.1353440000,22.3346670000 114.1352220000,22.3347460000 114.1350140000,22.3348820000 114.1348000000,22.3350240000 114.1344480000,22.3352610000 114.1342910000,22.3353690000 114.1341900000,22.3354590000 114.1338720000,22.3357390000 114.1334860000,22.3361210000 114.1332200000,22.3364150000 114.1330340000,22.3366250000 114.1327260000,22.3370270000 114.1325120000,22.3373330000 114.1322740000,22.3377130000 114.1321960000,22.3378480000 114.1320510000,22.3380930000 114.1318960000,22.3383900000 114.1318580000,22.3384640000 114.1316890000,22.3387910000 114.1313190000,22.3395860000 114.1310380000,22.3402110000 114.1309620000,22.3403700000 114.1308660000,22.3405680000 114.1307020000,22.3409030000 114.1306300000,22.3410380000 114.1305920000,22.3411100000 114.1305250000,22.3412340000 114.1304660000,22.3413420000 114.1303470000,22.3415350000 114.1302580000,22.3416670000 114.1301950000,22.3417640000 114.1300900000,22.3418930000 114.1300170000,22.3419770000 114.1299130000,22.3420940000 114.1297960000,22.3422120000 114.1296700000,22.3423320000 114.1295520000,22.3424400000 114.1294840000,22.3425000000 114.1293200000,22.3426370000 114.1291160000,22.3427790000 114.1289430000,22.3428890000 114.1287970000,22.3429780000 114.1286030000,22.3430850000 114.1283130000,22.3432270000 114.1281970000,22.3432800000 114.1280870000,22.3433250000 114.1278230000,22.3434330000 114.1275370000,22.3435510000 114.1272190000,22.3436900000 114.1270920000,22.3437490000 114.1269950000,22.3437970000 114.1269170000,22.3438390000 114.1268020000,22.3439050000 114.1265700000,22.3440470000 114.1263600000,22.3441870000 114.1261980000,22.3443040000 114.1260630000,22.3444120000 114.1259430000,22.3445150000 114.1257850000,22.3446620000 114.1256620000,22.3447850000 114.1254920000,22.3449680000 114.1252790000,22.3452360000 114.1251700000,22.3453840000 114.1250580000,22.3455550000 114.1249770000,22.3456920000 114.1248460000,22.3459330000 114.1246780000,22.3462410000 114.1246340000,22.3464060000 114.1246200000,22.3464560000 114.1246030000,22.3465190000 114.1245820000,22.3465970000 114.1245630000,22.3466700000 114.1245300000,22.3467900000 114.1244960000,22.3469180000 114.1244670000,22.3470260000 114.1244530000,22.3470760000 114.1244430000,22.3471290000 114.1244350000,22.3471890000 114.1244300000,22.3472230000 114.1243930000,22.3475460000 114.1243650000,22.3479040000 114.1243660000,22.3480910000 114.1243750000,22.3483980000 114.1243700000,22.3487140000 114.1243510000,22.3491910000 114.1242990000,22.3496090000 114.1241960000,22.3499950000 114.1240680000,22.3503030000 114.1239290000,22.3506140000 114.1237360000,22.3509000000 114.1236170000,22.3510480000 114.1233060000,22.3513820000 114.1231200000,22.3515280000 114.1228140000,22.3517660000 114.1226590000,22.3518510000 114.1221170000,22.3521330000 114.1220390000,22.3521610000 114.1219330000,22.3521910000 114.1217460000,22.3522390000 114.1216430000,22.3522680000 114.1214310000,22.3523020000 114.1211410000,22.3523410000 114.1207110000,22.3523730000 114.1203330000,22.3523730000 114.1199880000,22.3523650000 114.1194960000,22.3522790000 114.1191870000,22.3522180000 114.1188760000,22.3521210000 114.1185250000,22.3519850000 114.1181990000,22.3518490000 114.1179480000,22.3517290000 114.1175950000,22.3515240000 114.1171200000,22.3512030000 114.1167670000,22.3509350000 114.1163940000,22.3506770000 114.1161560000,22.3505160000 114.1158850000,22.3503530000 114.1156120000,22.3502090000 114.1153200000,22.3500660000 114.1151020000,22.3499700000 114.1122350000,22.3488850000 114.1118310000,22.3487140000 114.1114850000,22.3485670000 114.1110020000,22.3483410000 114.1108420000,22.3482640000 114.1067700000,22.3461380000 114.1065040000,22.3460130000 114.1062830000,22.3459150000 114.1060100000,22.3457980000 114.1057500000,22.3456900000 114.1055200000,22.3456000000 114.1053160000,22.3455250000 114.1050600000,22.3454400000 114.1048010000,22.3453580000 114.1045000000,22.3452660000 114.1042000000,22.3451750000 114.1039000000,22.3450920000 114.1036000000,22.3450220000 114.1033000000,22.3449580000 114.1030000000,22.3449000000 114.1026000000,22.3448350000 114.1020600000,22.3447660000 114.1017660000,22.3447330000 114.1014700000,22.3447070000 114.1011840000,22.3446860000 114.1009000000,22.3446750000 114.1003400000,22.3446570000 114.0975270000,22.3446290000 114.0957200000,22.3446110000 114.0956240000,22.3446120000 114.0943500000,22.3446090000 114.0939100000,22.3446010000 114.0937600000,22.3445980000 114.0932450000,22.3446000000 114.0929810000,22.3446070000 114.0927640000,22.3446250000 114.0924930000,22.3446550000 114.0921460000,22.3447160000 114.0920330000,22.3447350000 114.0918930000,22.3447670000 114.0917140000,22.3448180000 114.0915110000,22.3448750000 114.0912240000,22.3449820000 114.0909570000,22.3450960000 114.0906820000,22.3452200000 114.0903900000,22.3453580000 114.0901100000,22.3454820000 114.0897870000,22.3456310000 114.0895330000,22.3457580000 114.0892480000,22.3459070000 114.0889450000,22.3460940000 114.0886130000,22.3463450000 114.0883940000,22.3465310000 114.0882570000,22.3466630000 114.0880450000,22.3468980000 114.0879860000,22.3469680000 114.0878280000,22.3471710000 114.0875680000,22.3475740000 114.0873750000,22.3479670000 114.0872760000,22.3482430000 114.0872380000,22.3483480000 114.0871240000,22.3487340000 114.0871080000,22.3487870000 114.0868960000,22.3496110000 114.0868320000,22.3498440000 114.0866600000,22.3504700000 114.0866270000,22.3505780000 114.0865800000,22.3507360000 114.0865590000,22.3508010000 114.0865030000,22.3509750000 114.0863930000,22.3512790000 114.0863000000,22.3514870000 114.0861080000,22.3518650000 114.0858040000,22.3524010000 114.0854560000,22.3530980000 114.0852300000,22.3536390000 114.0850680000,22.3539900000 114.0847650000,22.3545370000 114.0846630000,22.3547200000 114.0846330000,22.3547730000 114.0843870000,22.3552250000 114.0842560000,22.3554610000 114.0840650000,22.3558200000 114.0836150000,22.3566400000 114.0832550000,22.3573150000 114.0832000000,22.3574180000 114.0831760000,22.3574620000 114.0831280000,22.3575540000 114.0825590000,22.3586130000 114.0823180000,22.3590690000 114.0822550000,22.3591920000 114.0820450000,22.3596010000 114.0819540000,22.3597770000 114.0818340000,22.3600100000 114.0817620000,22.3601520000 114.0784610000,22.3663210000 114.0784070000,22.3664220000 114.0783190000,22.3665850000 114.0778380000,22.3674460000 114.0777330000,22.3676290000 114.0774930000,22.3680440000 114.0772010000,22.3685740000 114.0770670000,22.3687970000 114.0770200000,22.3688770000 114.0769890000,22.3689200000 114.0769470000,22.3689820000 114.0768730000,22.3690820000 114.0767460000,22.3692410000 114.0765650000,22.3694190000 114.0764950000,22.3694810000 114.0763740000,22.3695900000 114.0761860000,22.3697380000 114.0760190000,22.3698570000 114.0758750000,22.3699550000 114.0756900000,22.3700820000 114.0755110000,22.3702040000 114.0752390000,22.3703750000 114.0743130000,22.3709420000 114.0738940000,22.3712060000 114.0734160000,22.3715060000 114.0731480000,22.3716760000 114.0714360000,22.3727580000 114.0700810000,22.3735450000 114.0691450000,22.3740380000 114.0686290000,22.3743360000 114.0680660000,22.3746380000 114.0674240000,22.3750220000 114.0671140000,22.3752200000 114.0670650000,22.3752560000 114.0670390000,22.3752760000 114.0669000000,22.3753850000 114.0667150000,22.3755200000 114.0665630000,22.3756400000 114.0664200000,22.3757600000 114.0662790000,22.3758800000 114.0661410000,22.3760010000 114.0660170000,22.3761210000 114.0658870000,22.3762500000 114.0657670000,22.3763700000 114.0656400000,22.3765000000 114.0655140000,22.3766300000 114.0653940000,22.3767600000 114.0652830000,22.3768900000 114.0651700000,22.3770250000 114.0650620000,22.3771600000 114.0649600000,22.3772950000 114.0648600000,22.3774300000 114.0647660000,22.3775610000 114.0646670000,22.3777000000 114.0645780000,22.3778300000 114.0644870000,22.3779700000 114.0643920000,22.3781210000 114.0643070000,22.3782700000 114.0642190000,22.3784300000 114.0641320000,22.3785900000 114.0640530000,22.3787400000 114.0639750000,22.3789000000 114.0639000000,22.3790600000 114.0638300000,22.3792200000 114.0637600000,22.3793850000 114.0636900000,22.3795600000 114.0636290000,22.3797200000 114.0635680000,22.3799000000 114.0635100000,22.3800800000 114.0634500000,22.3802800000 114.0633950000,22.3804800000 114.0633400000,22.3807000000 114.0632940000,22.3809100000 114.0632710000,22.3810420000 114.0593990000,22.4053980000 114.0593770000,22.4055790000 114.0593560000,22.4058000000 114.0593450000,22.4060000000 114.0593400000,22.4062000000 114.0593380000,22.4063500000 114.0593370000,22.4065000000 114.0593370000,22.4066500000 114.0593410000,22.4068000000 114.0593500000,22.4069800000 114.0593600000,22.4071500000 114.0593800000,22.4073700000 114.0594020000,22.4075490000 114.0594280000,22.4077230000 114.0594530000,22.4078830000 114.0594740000,22.4080010000 114.0594860000,22.4080650000 114.0595200000,22.4082420000 114.0595660000,22.4084530000 114.0596020000,22.4086000000 114.0596570000,22.4087970000 114.0597120000,22.4089790000 114.0597530000,22.4091000000 114.0598070000,22.4092470000 114.0598670000,22.4093960000 114.0599300000,22.4095450000 114.0600150000,22.4097290000 114.0600810000,22.4098610000 114.0601500000,22.4099950000 114.0602360000,22.4101490000 114.0603220000,22.4102920000 114.0604160000,22.4104460000 114.0607530000,22.4109680000 114.0620380000,22.4129560000 114.0621710000,22.4131700000 114.0623380000,22.4134550000 114.0624760000,22.4137160000 114.0626170000,22.4140090000 114.0626930000,22.4141800000 114.0627610000,22.4143470000 114.0629210000,22.4147810000 114.0630140000,22.4150830000 114.0630920000,22.4153790000 114.0631570000,22.4156740000 114.0631990000,22.4159040000 114.0632390000,22.4161610000 114.0632940000,22.4166630000 114.0633480000,22.4172350000 114.0633840000,22.4182370000 114.0634030000,22.4184270000 114.0634250000,22.4186380000 114.0634610000,22.4189950000 114.0634650000,22.4190400000 114.0636610000,22.4200300000 114.0638150000,22.4206580000 114.0639010000,22.4209710000 114.0639970000,22.4213920000 114.0640380000,22.4215880000 114.0640540000,22.4216990000 114.0640860000,22.4220490000 114.0641000000,22.4223850000 114.0641040000,22.4232760000 114.0640900000,22.4243760000 114.0640650000,22.4259440000 114.0640490000,22.4262990000 114.0640100000,22.4268180000 114.0639460000,22.4274170000 114.0639040000,22.4277240000 114.0638490000,22.4280760000 114.0637520000,22.4285890000 114.0636170000,22.4291910000 114.0635110000,22.4296030000 114.0633510000,22.4301510000 114.0632340000,22.4305050000 114.0631410000,22.4307830000 114.0629330000,22.4313270000 114.0628380000,22.4315540000 114.0626210000,22.4320250000 114.0624500000,22.4323680000 114.0622730000,22.4326920000 114.0620860000,22.4330150000 114.0617990000,22.4334680000 114.0616030000,22.4337560000 114.0612690000,22.4342100000 114.0609900000,22.4345610000 114.0606940000,22.4349150000 114.0605570000,22.4350760000 114.0599760000,22.4357090000 114.0596510000,22.4360360000 114.0594850000,22.4362000000 114.0590450000,22.4366100000 114.0588800000,22.4367570000 114.0586020000,22.4369440000 114.0582160000,22.4371770000 114.0580610000,22.4372670000 114.0576040000,22.4375270000 114.0575030000,22.4375900000 114.0574060000,22.4376560000 114.0573160000,22.4377260000 114.0572400000,22.4377950000 114.0571660000,22.4378770000 114.0571050000,22.4379580000 114.0570490000,22.4380440000 114.0569990000,22.4381420000 114.0569560000,22.4382480000 114.0569240000,22.4383590000 114.0569030000,22.4384710000 114.0568920000,22.4386240000 114.0568920000,22.4388550000 114.0569070000,22.4390020000 114.0569320000,22.4391670000 114.0569700000,22.4393650000 114.0570430000,22.4396560000 114.0570660000,22.4398380000 114.0570600000,22.4398680000 114.0570570000,22.4398870000 114.0569990000,22.4399940000 114.0567970000,22.4400340000 114.0566180000,22.4400730000 114.0564410000,22.4401200000 114.0563020000,22.4401680000 114.0561120000,22.4402460000 114.0559340000,22.4403280000 114.0558350000,22.4403740000 114.0557910000,22.4403940000 114.0557890000,22.4403950000 114.0554330000,22.4405600000 114.0551100000,22.4407100000 114.0548770000,22.4408180000 114.0544080000,22.4410420000 114.0538200000,22.4413110000 114.0536660000,22.4413810000 114.0532900000,22.4415600000 114.0527970000,22.4417830000 114.0521620000,22.4420950000 114.0521250000,22.4421130000 114.0520730000,22.4421390000 114.0513190000,22.4425340000 114.0508790000,22.4427600000 114.0503840000,22.4430340000 114.0501820000,22.4431370000 114.0499910000,22.4432410000 114.0499540000,22.4432610000 114.0496610000,22.4434260000 114.0488770000,22.4438550000 114.0487700000,22.4439140000 114.0486620000,22.4439720000 114.0486060000,22.4440020000 114.0484060000,22.4441080000 114.0483170000,22.4441450000 114.0480760000,22.4441590000 114.0479530000,22.4441650000 114.0479140000,22.4441650000 114.0478380000,22.4441660000 114.0477600000,22.4441660000 114.0476910000,22.4442240000 114.0476450000,22.4442680000 114.0475980000,22.4443430000 114.0475950000,22.4444450000 114.0476170000,22.4445720000 114.0476400000,22.4445910000 114.0476980000,22.4446450000 114.0477400000,22.4446860000 114.0478060000,22.4447510000 114.0479210000,22.4448710000 114.0481500000,22.4451030000 114.0483090000,22.4453030000 114.0484700000,22.4454870000 114.0486670000,22.4457310000 114.0487470000,22.4458410000 114.0487970000,22.4459100000 114.0488640000,22.4460010000 114.0489570000,22.4461290000 114.0490690000,22.4463130000 114.0491070000,22.4463770000 114.0491610000,22.4464960000 114.0491930000,22.4465650000 114.0493000000,22.4468430000 114.0493690000,22.4470430000 114.0493860000,22.4470910000 114.0494720000,22.4473680000 114.0495680000,22.4477940000 114.0496030000,22.4479500000 114.0497170000,22.4484270000 114.0501080000,22.4499840000 114.0502800000,22.4506190000 114.0503200000,22.4507650000 114.0503820000,22.4509870000 114.0504210000,22.4511130000 114.0504280000,22.4511340000 114.0504300000,22.4511420000 114.0504560000,22.4512250000 114.0504840000,22.4513200000 114.0505740000,22.4512610000 114.0506370000,22.4512070000 114.0507070000,22.4511790000 114.0508190000,22.4511360000 114.0510400000,22.4510820000 114.0511170000,22.4510570000 114.0511720000,22.4510220000 114.0512150000,22.4509750000 114.0512450000,22.4509200000 114.0512770000,22.4508560000 114.0512830000,22.4507170000 114.0512710000,22.4504590000 114.0512890000,22.4503910000 114.0513240000,22.4503280000 114.0513740000,22.4502750000 114.0514370000,22.4502350000 114.0515080000,22.4502100000 114.0515840000,22.4502020000 114.0516600000,22.4502100000 114.0520980000,22.4502500000 114.0521960000,22.4502660000 114.0522910000,22.4502920000 114.0523830000,22.4503280000 114.0524710000,22.4503720000 114.0525530000,22.4504250000 114.0526280000,22.4504850000 114.0528240000,22.4506220000 114.0529110000,22.4506710000 114.0530070000,22.4507060000 114.0531070000,22.4507230000 114.0532100000,22.4507240000 114.0533110000,22.4507080000 114.0535630000,22.4506770000 114.0536110000,22.4507670000 114.0536200000,22.4507960000 114.0536220000,22.4508260000 114.0536170000,22.4508570000 114.0535960000,22.4510320000 114.0535860000,22.4511600000 114.0535840000,22.4512900000 114.0535910000,22.4514190000 114.0536060000,22.4515460000 114.0536240000,22.4516760000 114.0536240000,22.4518170000 114.0539800000,22.4518180000 114.0561630000,22.4518500000 114.0561690000,22.4506270000 114.0561310000,22.4504950000 114.0559060000,22.4504730000 114.0551510000,22.4504730000 114.0542760000,22.4504740000 114.0539740000,22.4505750000 114.0537900000,22.4506260000 114.0535630000,22.4506770000 114.0533110000,22.4507080000 114.0532100000,22.4507240000 114.0531070000,22.4507230000 114.0530070000,22.4507060000 114.0529110000,22.4506710000 114.0528240000,22.4506220000 114.0526280000,22.4504850000 114.0525530000,22.4504250000 114.0524710000,22.4503720000 114.0523830000,22.4503280000 114.0522910000,22.4502920000 114.0521960000,22.4502660000 114.0520980000,22.4502500000 114.0516600000,22.4502100000 114.0515840000,22.4502020000 114.0515080000,22.4502100000 114.0514370000,22.4502350000 114.0513740000,22.4502750000 114.0513240000,22.4503280000 114.0512890000,22.4503910000 114.0512710000,22.4504590000 114.0512830000,22.4507170000 114.0512770000,22.4508560000 114.0512450000,22.4509200000 114.0512150000,22.4509750000 114.0511720000,22.4510220000 114.0511170000,22.4510570000 114.0511940000,22.4511920000 114.0513040000,22.4513850000 114.0513520000,22.4514490000 114.0514160000,22.4515000000 114.0514920000,22.4515350000 114.0515740000,22.4515510000 114.0516510000,22.4515530000 114.0519640000,22.4515790000 114.0520220000,22.4515880000 114.0520750000,22.4516140000 114.0521140000,22.4516540000 114.0521370000,22.4517050000 114.0521370000,22.4517250000 114.0521380000,22.4517460000 114.0521410000,22.4518280000 114.0520720000,22.4518220000 114.0515390000,22.4517770000 114.0513350000,22.4517470000 114.0510940000,22.4517590000 114.0508220000,22.4518360000 114.0507480000,22.4518510000 114.0506470000,22.4515120000 114.0506040000,22.4513620000 114.0505740000,22.4512610000 114.0505580000,22.4511990000 114.0504560000,22.4512250000 114.0502210000,22.4513010000 114.0501130000,22.4513470000 114.0501050000,22.4513530000 114.0499950000,22.4514360000 114.0498340000,22.4515910000 114.0497310000,22.4517200000 114.0496720000,22.4518120000 114.0495910000,22.4519810000 114.0493880000,22.4526600000 114.0491420000,22.4537770000 114.0491350000,22.4538790000 114.0491420000,22.4540020000 114.0491700000,22.4541040000 114.0492260000,22.4542240000 114.0493230000,22.4543700000 114.0493980000,22.4544590000 114.0495130000,22.4545550000 114.0498190000,22.4547780000 114.0501230000,22.4550160000 114.0503900000,22.4552640000 114.0506460000,22.4555420000 114.0508860000,22.4558290000 114.0511100000,22.4561800000 114.0511450000,22.4562430000 114.0513060000,22.4565500000 114.0514570000,22.4569170000 114.0514860000,22.4570350000 114.0515720000,22.4573700000 114.0516070000,22.4575120000 114.0516750000,22.4577650000 114.0517860000,22.4581020000 114.0518880000,22.4584280000 114.0520600000,22.4589630000 114.0521510000,22.4592070000 114.0522840000,22.4595410000 114.0524250000,22.4600080000 114.0525380000,22.4604480000 114.0526540000,22.4609210000 114.0528010000,22.4615310000 114.0529380000,22.4620970000 114.0531650000,22.4630450000 114.0532720000,22.4634920000 114.0534880000,22.4643930000 114.0536550000,22.4650780000 114.0538570000,22.4659410000 114.0540000000,22.4665810000 114.0540170000,22.4667060000 114.0540860000,22.4671990000 114.0541220000,22.4674630000 114.0542290000,22.4680260000 114.0543450000,22.4685220000 114.0543630000,22.4686200000 114.0543830000,22.4687340000 114.0544100000,22.4688820000 114.0544580000,22.4690970000 114.0544910000,22.4692280000 114.0545220000,22.4693470000 114.0545290000,22.4694100000 114.0545350000,22.4695250000 114.0545230000,22.4696440000 114.0544860000,22.4699240000 114.0544440000,22.4701360000 114.0544190000,22.4702270000 114.0543850000,22.4703750000 114.0543850000,22.4704730000 114.0544130000,22.4705510000 114.0544490000,22.4706110000 114.0544940000,22.4706450000 114.0545920000,22.4707050000 114.0547030000,22.4707920000 114.0547710000,22.4708930000 114.0547560000,22.4709630000 114.0547460000,22.4710620000 114.0547680000,22.4712120000 114.0548030000,22.4713140000 114.0548570000,22.4713940000 114.0549760000,22.4715200000 114.0550750000,22.4715780000 114.0552450000,22.4716400000 114.0553120000,22.4717240000 114.0553550000,22.4718240000 114.0556270000,22.4728290000 114.0557990000,22.4734870000 114.0559530000,22.4739950000 114.0561340000,22.4745180000 114.0562750000,22.4748780000 114.0564150000,22.4752050000 114.0566980000,22.4757340000 114.0568440000,22.4759980000 114.0569620000,22.4762130000 114.0572410000,22.4766070000 114.0573980000,22.4769340000 114.0575460000,22.4772740000 114.0576900000,22.4776720000 114.0578390000,22.4781490000 114.0579340000,22.4785090000 114.0580100000,22.4788510000 114.0580450000,22.4790280000 114.0580740000,22.4792040000 114.0581220000,22.4795880000 114.0581570000,22.4799740000 114.0582650000,22.4817230000 114.0585010000,22.4855540000 114.0585230000,22.4858180000 114.0585630000,22.4861250000 114.0586670000,22.4866860000 114.0587930000,22.4871610000 114.0588720000,22.4874090000 114.0589880000,22.4877310000 114.0591250000,22.4880600000 114.0592510000,22.4883220000 114.0594050000,22.4886150000 114.0596040000,22.4889570000 114.0598390000,22.4893120000 114.0600890000,22.4896490000 114.0603500000,22.4899650000 114.0606350000,22.4902740000 114.0608820000,22.4905070000 114.0611880000,22.4907850000 114.0613960000,22.4909620000 114.0616960000,22.4911900000 114.0619520000,22.4913690000 114.0622390000,22.4915520000 114.0625200000,22.4917170000 114.0628410000,22.4918870000 114.0632900000,22.4920970000 114.0636910000,22.4922600000 114.0641830000,22.4924280000 114.0647400000,22.4925880000 114.0660700000,22.4929530000 114.0690560000,22.4937500000 114.0693710000,22.4938350000 114.0705350000,22.4941520000 114.0710050000,22.4942800000 114.0718960000,22.4945230000 114.0731790000,22.4948720000 114.0733800000,22.4949280000 114.0757530000,22.4955730000 114.0762030000,22.4957310000 114.0766000000,22.4958900000 114.0769110000,22.4960390000 114.0771440000,22.4961900000 114.0772010000,22.4962270000 114.0772970000,22.4963040000 114.0773520000,22.4963480000 114.0774370000,22.4964150000 114.0776840000,22.4966240000 114.0778880000,22.4968420000 114.0780560000,22.4970830000 114.0782420000,22.4973500000 114.0788810000,22.4982020000 114.0789500000,22.4982740000 114.0789710000,22.4982980000 114.0790030000,22.4983310000 114.0791720000,22.4985300000 114.0793570000,22.4987970000 114.0794260000,22.4988930000 114.0798150000,22.4994310000 114.0800560000,22.4997660000 114.0804650000,22.5002620000 114.0808340000,22.5006320000 114.0811900000,22.5009950000 114.0815470000,22.5013700000 114.0819000000,22.5016580000 114.0824480000,22.5020930000 114.0829700000,22.5024270000 114.0834490000,22.5027120000 114.0836800000,22.5028340000 114.0839730000,22.5029890000 114.0841340000,22.5030650000 114.0845960000,22.5032710000 114.0847140000,22.5033180000 114.0851920000,22.5035060000 114.0852760000,22.5035350000 114.0858260000,22.5037280000 114.0863240000,22.5038690000 114.0867970000,22.5039910000 114.0872670000,22.5040890000 114.0877260000,22.5041790000 114.0877730000,22.5041860000 114.0878790000,22.5041950000 114.0882670000,22.5042310000 114.0888750000,22.5042850000 114.0891540000,22.5042900000 114.0893760000,22.5042950000 114.0894880000,22.5042970000 114.0898810000,22.5042910000 114.0901250000,22.5042870000 114.0905050000,22.5042690000 114.0907370000,22.5042580000 114.0908670000,22.5042520000 114.0913330000,22.5042150000 114.0920270000,22.5041610000 114.0925750000,22.5041170000 114.0929120000,22.5040910000 114.0933120000,22.5040590000 114.0934850000,22.5040460000 114.0937920000,22.5040210000 114.0949490000,22.5039300000 114.0951520000,22.5039140000 114.0964290000,22.5038170000 114.0973530000,22.5037470000 114.0991260000,22.5036140000 114.1050390000,22.5031710000 114.1056990000,22.5031210000 114.1073460000,22.5030040000 114.1094780000,22.5028270000 114.1097350000,22.5028040000 114.1100750000,22.5027650000 114.1141360000,22.5022060000 114.1143290000,22.5021820000 114.1146300000,22.5021540000 114.1148470000,22.5021450000 114.1151990000,22.5021420000 114.1155260000,22.5021570000 114.1158320000,22.5021800000 114.1162810000,22.5022310000 114.1174610000,22.5023660000 114.1177700000,22.5023900000 114.1180310000,22.5023990000 114.1182580000,22.5023970000 114.1184570000,22.5023870000 114.1186510000,22.5023690000 114.1188550000,22.5023400000 114.1190880000,22.5022970000 114.1192930000,22.5022500000 114.1195190000,22.5021870000 114.1198040000,22.5020860000 114.1200540000,22.5019820000 114.1202690000,22.5018810000 114.1206270000,22.5016960000 114.1207870000,22.5016160000 114.1210090000,22.5015040000 114.1210920000,22.5014620000 114.1214490000,22.5012800000 114.1215280000,22.5012640000 114.1217090000,22.5012220000 114.1217820000,22.5011900000 114.1220790000,22.5010440000 114.1223250000,22.5009310000 114.1225330000,22.5008290000 114.1229130000,22.5006440000 114.1230370000,22.5005940000 114.1231870000,22.5005340000 114.1232740000,22.5005130000 114.1233570000,22.5005030000 114.1234430000,22.5004980000 114.1235330000,22.5004960000 114.1236060000,22.5005230000 114.1236490000,22.5005900000 114.1236660000,22.5006280000 114.1236810000,22.5006890000 114.1236830000,22.5007160000 114.1236830000,22.5007510000 114.1236750000,22.5008340000 114.1236660000,22.5009270000 114.1236330000,22.5010770000 114.1235830000,22.5013770000 114.1235750000,22.5014250000 114.1235680000,22.5014610000 114.1235220000,22.5018210000 114.1234690000,22.5023870000 114.1234470000,22.5027160000 114.1234380000,22.5028070000 114.1234390000,22.5028920000 114.1234360000,22.5029460000 114.1234320000,22.5030420000 114.1234310000,22.5031180000 114.1234300000,22.5032060000 114.1234140000,22.5033590000 114.1234370000,22.5036000000 114.1234680000,22.5037390000 114.1234870000,22.5038040000 114.1235270000,22.5039220000 114.1235620000,22.5040060000 114.1236090000,22.5040950000 114.1236750000,22.5042040000 114.1237440000,22.5043090000 114.1238270000,22.5044110000 114.1239050000,22.5044960000 114.1242500000,22.5048550000 114.1246940000,22.5053140000 114.1247940000,22.5054210000 114.1249900000,22.5056440000 114.1250910000,22.5057450000 114.1253130000,22.5059700000 114.1253680000,22.5060260000 114.1254370000,22.5060890000 114.1255420000,22.5060100000 114.1255970000,22.5059550000 114.1256360000,22.5059190000 114.1256700000,22.5058900000 114.1257110000,22.5058510000 114.1257790000,22.5057510000 114.1259400000,22.5056340000 114.1260770000,22.5055530000 114.1261860000,22.5055050000 114.1263290000,22.5054550000 114.1265240000,22.5054050000 114.1266510000,22.5053770000 114.1267260000,22.5054020000 114.1267600000,22.5053980000 114.1267900000,22.5053950000 114.1268700000,22.5053890000 114.1269030000,22.5053860000 114.1269410000,22.5053830000 114.1269330000,22.5053130000 114.1269270000,22.5052470000 114.1269250000,22.5052250000 114.1269230000,22.5052040000 114.1269190000,22.5051800000 114.1268880000,22.5051200000 114.1268420000,22.5047600000 114.1268300000,22.5046650000 114.1268280000,22.5046450000 114.1268160000,22.5045380000 114.1267650000,22.5040570000 114.1267290000,22.5037190000 114.1267220000,22.5036510000 114.1266840000,22.5032990000 114.1266700000,22.5031270000 114.1268890000,22.5030930000 114.1269530000,22.5030830000 114.1270370000,22.5030630000 114.1271590000,22.5030390000 114.1272050000,22.5030330000 114.1272520000,22.5030270000 114.1272920000,22.5030230000 114.1273580000,22.5030200000 114.1275080000,22.5030210000 114.1276100000,22.5030190000 114.1282880000,22.5029610000 114.1283160000,22.5029580000 114.1285040000,22.5029430000 114.1285590000,22.5029390000 114.1287080000,22.5029270000 114.1289070000,22.5029320000 114.1289660000,22.5029370000 114.1290140000,22.5029460000 114.1290620000,22.5029610000 114.1291070000,22.5029800000 114.1291550000,22.5030060000 114.1292060000,22.5030400000 114.1292660000,22.5030860000 114.1294810000,22.5032590000 114.1295800000,22.5033420000 114.1297790000,22.5035120000 114.1299440000,22.5036470000 114.1300100000,22.5036990000 114.1301740000,22.5038380000 114.1304690000,22.5041070000 114.1305560000,22.5042010000 114.1306240000,22.5042730000 114.1306990000,22.5042030000 114.1307690000,22.5041380000 114.1308060000,22.5041020000 114.1322340000,22.5026920000 114.1323460000,22.5025800000 114.1329010000,22.5020310000 114.1329390000,22.5019940000 114.1336190000,22.5012090000 114.1343190000,22.5005660000 114.1344070000,22.5005050000 114.1345360000,22.5006400000 114.1347750000,22.5009310000 114.1350960000,22.5013900000 114.1355710000,22.5020520000 114.1355880000,22.5020760000 114.1356220000,22.5021290000 114.1357010000,22.5022390000 114.1357950000,22.5023540000 114.1358150000,22.5023770000 114.1362620000,22.5028470000 114.1363440000,22.5029330000 114.1364170000,22.5030100000 114.1367410000,22.5033500000 114.1368100000,22.5034110000 114.1368850000,22.5034650000 114.1369660000,22.5035140000 114.1370500000,22.5035550000 114.1371380000,22.5035890000 114.1372290000,22.5036160000 114.1373180000,22.5036350000 114.1374170000,22.5036470000 114.1375130000,22.5036500000 114.1376080000,22.5036460000 114.1376580000,22.5036400000 114.1377030000,22.5036340000 114.1377540000,22.5036230000 114.1377960000,22.5036140000 114.1378860000,22.5035860000 114.1379760000,22.5035540000 114.1386550000,22.5032020000 114.1398800000,22.5025680000 114.1398950000,22.5025610000 114.1399900000,22.5025120000 114.1400390000,22.5024840000 114.1400820000,22.5024590000 114.1401770000,22.5024090000 114.1406040000,22.5021920000 114.1407680000,22.5021250000 114.1408970000,22.5020790000 114.1410120000,22.5020420000 114.1411300000,22.5020140000 114.1412570000,22.5019890000 114.1413860000,22.5019720000 114.1415330000,22.5019600000 114.1417080000,22.5019570000 114.1417340000,22.5019570000 114.1417820000,22.5019590000 114.1418660000,22.5019640000 114.1420240000,22.5019760000 114.1420480000,22.5019790000 114.1421050000,22.5019860000 114.1439600000,22.5022030000 114.1440110000,22.5022090000 114.1440190000,22.5022100000 114.1440330000,22.5022120000 114.1441920000,22.5022290000 114.1444120000,22.5022530000 114.1449820000,22.5023210000 114.1451910000,22.5023460000 114.1452620000,22.5023520000 114.1453450000,22.5023560000 114.1454180000,22.5023560000 114.1454910000,22.5023540000 114.1455730000,22.5023470000 114.1456460000,22.5023360000 114.1457250000,22.5023160000 114.1457990000,22.5022920000 114.1458760000,22.5022600000 114.1459470000,22.5022240000 114.1460200000,22.5021800000 114.1460950000,22.5021290000 114.1461600000,22.5020800000 114.1467420000,22.5016120000 114.1468010000,22.5015900000 114.1468400000,22.5015660000 114.1468700000,22.5015450000 114.1469040000,22.5015240000 114.1469240000,22.5015890000 114.1469470000,22.5016700000 114.1469740000,22.5017570000 114.1470570000,22.5018990000 114.1472480000,22.5020970000 114.1473050000,22.5021490000 114.1474890000,22.5022880000 114.1476050000,22.5023300000 114.1477120000,22.5023700000 114.1480170000,22.5024890000 114.1481060000,22.5025680000 114.1481800000,22.5026420000 114.1484130000,22.5028840000 114.1485820000,22.5030480000 114.1486520000,22.5031160000 114.1486810000,22.5031430000 114.1487000000,22.5031630000 114.1487760000,22.5032370000 114.1488030000,22.5032620000 114.1488380000,22.5032940000 114.1488690000,22.5033240000 114.1491650000,22.5035990000 114.1491870000,22.5036180000 114.1492890000,22.5037040000 114.1494350000,22.5038290000 114.1497010000,22.5040480000 114.1498320000,22.5041370000 114.1499170000,22.5041990000 114.1500770000,22.5042990000 114.1503450000,22.5044790000 114.1506240000,22.5046530000 114.1506670000,22.5046820000 114.1517350000,22.5053770000 114.1519740000,22.5055300000 114.1521240000,22.5056250000 114.1524910000,22.5058490000 114.1525300000,22.5058730000 114.1525670000,22.5058930000 114.1528100000,22.5060260000 114.1529170000,22.5060830000 114.1530950000,22.5061750000 114.1532730000,22.5062630000 114.1533810000,22.5063290000 114.1534300000,22.5063680000 114.1534850000,22.5064140000 114.1535050000,22.5064370000 114.1535370000,22.5064750000 114.1535960000,22.5065760000 114.1535990000,22.5066060000 114.1536080000,22.5066490000 114.1536350000,22.5066910000 114.1536750000,22.5067340000 114.1537270000,22.5067640000 114.1537860000,22.5067790000 114.1538870000,22.5067670000 114.1539280000,22.5067490000 114.1539680000,22.5067150000 114.1539880000,22.5066840000 114.1540120000,22.5066280000 114.1540120000,22.5065810000 114.1540050000,22.5065260000 114.1540440000,22.5064550000 114.1540560000,22.5064380000 114.1540680000,22.5064170000 114.1540900000,22.5063780000 114.1541050000,22.5063470000 114.1541860000,22.5063180000 114.1542770000,22.5062590000 114.1543270000,22.5062150000 114.1543460000,22.5061840000 114.1543890000,22.5061050000 114.1543940000,22.5060610000 114.1543920000,22.5060110000 114.1543360000,22.5057870000 114.1543190000,22.5057340000 114.1543170000,22.5057220000 114.1543120000,22.5056930000 114.1543160000,22.5056120000 114.1543340000,22.5054710000 114.1543880000,22.5051660000 114.1543940000,22.5051330000 114.1544260000,22.5050140000 114.1544530000,22.5049370000 114.1544680000,22.5048950000 114.1545520000,22.5047090000 114.1545680000,22.5046760000 114.1546930000,22.5044660000 114.1548090000,22.5042860000 114.1548300000,22.5042560000 114.1549700000,22.5040400000 114.1550760000,22.5038430000 114.1551630000,22.5036820000 114.1552210000,22.5035730000 114.1552630000,22.5034460000 114.1552910000,22.5034500000 114.1553180000,22.5034460000 114.1553430000,22.5034350000 114.1553620000,22.5034170000 114.1553750000,22.5033940000 114.1555630000,22.5034290000 114.1562580000,22.5036960000 114.1562950000,22.5037110000 114.1563180000,22.5037200000 114.1564220000,22.5037590000 114.1565340000,22.5038030000 114.1566280000,22.5038390000 114.1567570000,22.5038900000 114.1572950000,22.5040950000 114.1574060000,22.5041370000 114.1577930000,22.5042730000 114.1579530000,22.5043240000 114.1580050000,22.5043410000 114.1581210000,22.5043640000 114.1583160000,22.5043810000 114.1586000000,22.5043850000 114.1588090000,22.5043670000 114.1588520000,22.5043630000 114.1590730000,22.5043200000 114.1592430000,22.5042570000 114.1597250000,22.5040140000 114.1599590000,22.5039010000 114.1599990000,22.5038760000 114.1604050000,22.5036920000 114.1604250000,22.5036870000 114.1605960000,22.5036470000 114.1606210000,22.5036450000 114.1608190000,22.5036260000 114.1608320000,22.5036260000 114.1610680000,22.5036250000 114.1612170000,22.5036170000 114.1613460000,22.5035790000 114.1614470000,22.5035100000 114.1615130000,22.5034500000 114.1615770000,22.5033740000 114.1616960000,22.5031810000 114.1617480000,22.5031000000 114.1618150000,22.5029970000 114.1618590000,22.5029280000 114.1619030000,22.5028770000</coordinates>
                </LineString>
                <ExtendedData>
                    <Data name="duration">
                        <value>01:40:41</value>
                    </Data>
                    <Data name="length">
                        <value>91548.97266847668</value>
                    </Data>
                </ExtendedData>
            </Placemark>
        </Document>
    </Document>
</kml>