<?xml version="1.0" encoding="UTF-8"?>
<kml xmlns="http://www.opengis.net/kml/2.2" xmlns:gx="http://www.google.com/kml/ext/2.2">
    <Document>
        <name>Route</name>
        <Folder>
            <name>Route Request</name>
            <Placemark>
                <address>和喜樓, Hing Kwai Street, Leung Tin, Po Tong Ha, Kei Lun Wai, Tuen Mun District, New Territories, Hong Kong, China</address>
                <Point>
                    <coordinates>114.0018841174,22.4581182402</coordinates>
                </Point>
                <ExtendedData>
                    <Data name="village">
                        <value>Kei Lun Wai</value>
                    </Data>
                    <Data name="state">
                        <value>Hong Kong</value>
                    </Data>
                    <Data name="routingVisited">
                        <value>false</value>
                    </Data>
                    <Data name="country_code">
                        <value>cn</value>
                    </Data>
                    <Data name="building">
                        <value>和喜樓</value>
                    </Data>
                    <Data name="region">
                        <value>New Territories</value>
                    </Data>
                    <Data name="hamlet">
                        <value>Po Tong Ha</value>
                    </Data>
                    <Data name="country">
                        <value>China</value>
                    </Data>
                    <Data name="road">
                        <value>Hing Kwai Street</value>
                    </Data>
                    <Data name="county">
                        <value>Tuen Mun District</value>
                    </Data>
                    <Data name="quarter">
                        <value>Leung Tin</value>
                    </Data>
                    <Data name="ISO3166-2-lvl3">
                        <value>CN-HK</value>
                    </Data>
                </ExtendedData>
            </Placemark>
            <Placemark>
                <Point>
                    <coordinates>114.0019140719,22.4705218632</coordinates>
                </Point>
            </Placemark>
            <Placemark>
                <address>Hung Hei House, Hung Shui Kiu Tin Sam Road, Tin Sum, Hung Shui Kiu, Shek Po Village, Yuen Long District, New Territories, Hong Kong, China</address>
                <Point>
                    <coordinates>113.9984061629,22.4367419813</coordinates>
                </Point>
                <ExtendedData>
                    <Data name="village">
                        <value>Shek Po Village</value>
                    </Data>
                    <Data name="state">
                        <value>Hong Kong</value>
                    </Data>
                    <Data name="suburb">
                        <value>Hung Shui Kiu</value>
                    </Data>
                    <Data name="country_code">
                        <value>cn</value>
                    </Data>
                    <Data name="building">
                        <value>Hung Hei House</value>
                    </Data>
                    <Data name="region">
                        <value>New Territories</value>
                    </Data>
                    <Data name="country">
                        <value>China</value>
                    </Data>
                    <Data name="road">
                        <value>Hung Shui Kiu Tin Sam Road</value>
                    </Data>
                    <Data name="county">
                        <value>Yuen Long District</value>
                    </Data>
                    <Data name="quarter">
                        <value>Tin Sum</value>
                    </Data>
                    <Data name="ISO3166-2-lvl3">
                        <value>CN-HK</value>
                    </Data>
                </ExtendedData>
            </Placemark>
            <Placemark>
                <address>Tin Shui Wai West Interchange, Hung Shui Kiu, Shek Po Village, Yuen Long District, New Territories, Hong Kong, China</address>
                <Point>
                    <coordinates>114.0032389998,22.4343925719</coordinates>
                </Point>
                <ExtendedData>
                    <Data name="village">
                        <value>Shek Po Village</value>
                    </Data>
                    <Data name="state">
                        <value>Hong Kong</value>
                    </Data>
                    <Data name="suburb">
                        <value>Hung Shui Kiu</value>
                    </Data>
                    <Data name="country_code">
                        <value>cn</value>
                    </Data>
                    <Data name="region">
                        <value>New Territories</value>
                    </Data>
                    <Data name="country">
                        <value>China</value>
                    </Data>
                    <Data name="road">
                        <value>Tin Shui Wai West Interchange</value>
                    </Data>
                    <Data name="county">
                        <value>Yuen Long District</value>
                    </Data>
                    <Data name="ISO3166-2-lvl3">
                        <value>CN-HK</value>
                    </Data>
                </ExtendedData>
            </Placemark>
            <Placemark>
                <address>Tsing Kwai Highway, Tsing Yi Industrial Area, Ha Kwai Chung, Kwai Chung, Kwai Tsing District, New Territories, Hong Kong, China</address>
                <Point>
                    <coordinates>114.1183828810,22.3520572676</coordinates>
                </Point>
                <ExtendedData>
                    <Data name="state">
                        <value>Hong Kong</value>
                    </Data>
                    <Data name="suburb">
                        <value>Ha Kwai Chung</value>
                    </Data>
                    <Data name="country_code">
                        <value>cn</value>
                    </Data>
                    <Data name="region">
                        <value>New Territories</value>
                    </Data>
                    <Data name="neighbourhood">
                        <value>Tsing Yi Industrial Area</value>
                    </Data>
                    <Data name="country">
                        <value>China</value>
                    </Data>
                    <Data name="road">
                        <value>Tsing Kwai Highway</value>
                    </Data>
                    <Data name="county">
                        <value>Kwai Tsing District</value>
                    </Data>
                    <Data name="town">
                        <value>Kwai Chung</value>
                    </Data>
                    <Data name="ISO3166-2-lvl3">
                        <value>CN-HK</value>
                    </Data>
                </ExtendedData>
            </Placemark>
            <Placemark>
                <Point>
                    <coordinates>114.1569212124,22.3350991025</coordinates>
                </Point>
            </Placemark>
            <Placemark>
                <Point>
                    <coordinates>114.1625191132,22.3193684080</coordinates>
                </Point>
                <ExtendedData>
                    <Data name="routingVisited">
                        <value>false</value>
                    </Data>
                </ExtendedData>
            </Placemark>
            <Placemark>
                <Point>
                    <coordinates>114.1640234448,22.3157990685</coordinates>
                </Point>
                <ExtendedData>
                    <Data name="routingVisited">
                        <value>false</value>
                    </Data>
                </ExtendedData>
            </Placemark>
            <Placemark>
                <address>Armani Exchange, Nathan Road, Kwun Chung, Tsim Sha Tsui, Yau Tsim Mong District, Kowloon, Hong Kong, China</address>
                <Point>
                    <coordinates>114.1625001499,22.3049941576</coordinates>
                </Point>
                <ExtendedData>
                    <Data name="city">
                        <value>Kowloon</value>
                    </Data>
                    <Data name="state">
                        <value>Hong Kong</value>
                    </Data>
                    <Data name="routingVisited">
                        <value>false</value>
                    </Data>
                    <Data name="suburb">
                        <value>Tsim Sha Tsui</value>
                    </Data>
                    <Data name="country_code">
                        <value>cn</value>
                    </Data>
                    <Data name="neighbourhood">
                        <value>Kwun Chung</value>
                    </Data>
                    <Data name="shop">
                        <value>Armani Exchange</value>
                    </Data>
                    <Data name="city_district">
                        <value>Yau Tsim Mong District</value>
                    </Data>
                    <Data name="country">
                        <value>China</value>
                    </Data>
                    <Data name="road">
                        <value>Nathan Road</value>
                    </Data>
                    <Data name="ISO3166-2-lvl3">
                        <value>CN-HK</value>
                    </Data>
                </ExtendedData>
            </Placemark>
            <Placemark>
                <Point>
                    <coordinates>114.1619283975,22.3186171210</coordinates>
                </Point>
            </Placemark>
            <Placemark>
                <Point>
                    <coordinates>114.1613233656,22.3252151162</coordinates>
                </Point>
            </Placemark>
            <Placemark>
                <Point>
                    <coordinates>114.1540028858,22.3369741257</coordinates>
                </Point>
            </Placemark>
            <Placemark>
                <address>Cheung Tsing Highway, Sai Tso Wan, Tsing Yi West, Tsing Yi, Kwai Tsing District, New Territories, Hong Kong, China</address>
                <Point>
                    <coordinates>114.0945729509,22.3446373737</coordinates>
                </Point>
                <ExtendedData>
                    <Data name="state">
                        <value>Hong Kong</value>
                    </Data>
                    <Data name="suburb">
                        <value>Tsing Yi West</value>
                    </Data>
                    <Data name="country_code">
                        <value>cn</value>
                    </Data>
                    <Data name="region">
                        <value>New Territories</value>
                    </Data>
                    <Data name="neighbourhood">
                        <value>Sai Tso Wan</value>
                    </Data>
                    <Data name="country">
                        <value>China</value>
                    </Data>
                    <Data name="road">
                        <value>Cheung Tsing Highway</value>
                    </Data>
                    <Data name="county">
                        <value>Kwai Tsing District</value>
                    </Data>
                    <Data name="town">
                        <value>Tsing Yi</value>
                    </Data>
                    <Data name="ISO3166-2-lvl3">
                        <value>CN-HK</value>
                    </Data>
                </ExtendedData>
            </Placemark>
            <Placemark>
                <address>Tin Shui Wai West Interchange, Hung Uk Tsuen, Tong Yan San Tsuen, Yuen Long District, New Territories, Hong Kong, China</address>
                <Point>
                    <coordinates>114.0029286503,22.4341330178</coordinates>
                </Point>
                <ExtendedData>
                    <Data name="village">
                        <value>Tong Yan San Tsuen</value>
                    </Data>
                    <Data name="state">
                        <value>Hong Kong</value>
                    </Data>
                    <Data name="country_code">
                        <value>cn</value>
                    </Data>
                    <Data name="region">
                        <value>New Territories</value>
                    </Data>
                    <Data name="hamlet">
                        <value>Hung Uk Tsuen</value>
                    </Data>
                    <Data name="country">
                        <value>China</value>
                    </Data>
                    <Data name="road">
                        <value>Tin Shui Wai West Interchange</value>
                    </Data>
                    <Data name="county">
                        <value>Yuen Long District</value>
                    </Data>
                    <Data name="ISO3166-2-lvl3">
                        <value>CN-HK</value>
                    </Data>
                </ExtendedData>
            </Placemark>
            <Placemark>
                <address>Hung Hei House, Hung Shui Kiu Tin Sam Road, Tin Sum, Hung Shui Kiu, Shek Po Village, Yuen Long District, New Territories, Hong Kong, China</address>
                <Point>
                    <coordinates>113.9984357228,22.4367146621</coordinates>
                </Point>
                <ExtendedData>
                    <Data name="village">
                        <value>Shek Po Village</value>
                    </Data>
                    <Data name="state">
                        <value>Hong Kong</value>
                    </Data>
                    <Data name="suburb">
                        <value>Hung Shui Kiu</value>
                    </Data>
                    <Data name="country_code">
                        <value>cn</value>
                    </Data>
                    <Data name="building">
                        <value>Hung Hei House</value>
                    </Data>
                    <Data name="region">
                        <value>New Territories</value>
                    </Data>
                    <Data name="country">
                        <value>China</value>
                    </Data>
                    <Data name="road">
                        <value>Hung Shui Kiu Tin Sam Road</value>
                    </Data>
                    <Data name="county">
                        <value>Yuen Long District</value>
                    </Data>
                    <Data name="quarter">
                        <value>Tin Sum</value>
                    </Data>
                    <Data name="ISO3166-2-lvl3">
                        <value>CN-HK</value>
                    </Data>
                </ExtendedData>
            </Placemark>
            <Placemark>
                <Point>
                    <coordinates>114.0017366914,22.4709316793</coordinates>
                </Point>
            </Placemark>
            <Placemark>
                <Point>
                    <coordinates>114.0019136785,22.4580635979</coordinates>
                </Point>
                <ExtendedData>
                    <Data name="routingVisited">
                        <value>false</value>
                    </Data>
                </ExtendedData>
            </Placemark>
        </Folder>
        <Document>
            <name>82.8 km; 01:32 h (OSRM)</name>
            <Placemark>
                <name>Route</name>
                <LineString>
                    <coordinates>114.0018170000,22.4580510000 114.0017380000,22.4581120000 114.0014850000,22.4583040000 114.0014420000,22.4583920000 114.0014390000,22.4584590000 114.0014560000,22.4585070000 114.0014870000,22.4585660000 114.0015670000,22.4586630000 114.0016950000,22.4588160000 114.0019760000,22.4591520000 114.0020040000,22.4592270000 114.0020130000,22.4593510000 114.0017980000,22.4597240000 114.0017570000,22.4597960000 114.0015010000,22.4602360000 114.0014320000,22.4603560000 114.0013770000,22.4604600000 114.0015460000,22.4605330000 114.0019920000,22.4607310000 114.0020110000,22.4607510000 114.0020310000,22.4607700000 114.0020580000,22.4608050000 114.0020660000,22.4608250000 114.0020880000,22.4608750000 114.0020970000,22.4609130000 114.0021020000,22.4609570000 114.0020990000,22.4610000000 114.0020900000,22.4610430000 114.0020500000,22.4611180000 114.0018670000,22.4614490000 114.0018340000,22.4615100000 114.0018070000,22.4615750000 114.0017860000,22.4616410000 114.0017710000,22.4617080000 114.0017620000,22.4617760000 114.0017590000,22.4618450000 114.0017470000,22.4620070000 114.0017410000,22.4620970000 114.0017410000,22.4620970000 114.0018430000,22.4621140000 114.0020270000,22.4621400000 114.0021720000,22.4621540000 114.0023030000,22.4621610000 114.0024330000,22.4621630000 114.0029370000,22.4621720000 114.0037660000,22.4621880000 114.0039390000,22.4621910000 114.0039330000,22.4623020000 114.0039300000,22.4626170000 114.0039340000,22.4628330000 114.0039380000,22.4628860000 114.0039490000,22.4630610000 114.0039560000,22.4631280000 114.0039670000,22.4632290000 114.0039730000,22.4632820000 114.0039900000,22.4633890000 114.0040070000,22.4635030000 114.0040250000,22.4635900000 114.0040810000,22.4638490000 114.0041060000,22.4639690000 114.0041230000,22.4640490000 114.0041450000,22.4641550000 114.0041610000,22.4642270000 114.0041830000,22.4642960000 114.0042420000,22.4644740000 114.0043210000,22.4646820000 114.0043890000,22.4648390000 114.0044090000,22.4648860000 114.0044850000,22.4650430000 114.0045670000,22.4651970000 114.0046540000,22.4653480000 114.0047460000,22.4654960000 114.0047830000,22.4655540000 114.0048620000,22.4656810000 114.0051370000,22.4661210000 114.0052310000,22.4662710000 114.0048370000,22.4664810000 114.0046630000,22.4665790000 114.0044920000,22.4666860000 114.0043270000,22.4668000000 114.0041680000,22.4669230000 114.0040160000,22.4670530000 114.0038720000,22.4671890000 114.0037540000,22.4673130000 114.0036410000,22.4674410000 114.0035350000,22.4675730000 114.0034350000,22.4677100000 114.0033420000,22.4678500000 114.0032540000,22.4679960000 114.0031720000,22.4681450000 114.0030970000,22.4682970000 114.0030300000,22.4684520000 114.0029690000,22.4686100000 114.0029260000,22.4687350000 114.0029150000,22.4687690000 114.0027830000,22.4691980000 114.0025080000,22.4700910000 114.0024440000,22.4702930000 114.0022700000,22.4704450000 114.0022080000,22.4704880000 114.0021410000,22.4705250000 114.0020700000,22.4705540000 114.0019960000,22.4705760000 114.0019190000,22.4705900000 114.0019190000,22.4705900000 114.0018410000,22.4705960000 114.0017630000,22.4705940000 114.0015000000,22.4705590000 114.0012940000,22.4704140000 114.0009720000,22.4701380000 114.0008350000,22.4700190000 114.0007150000,22.4698990000 114.0004670000,22.4696220000 114.0002110000,22.4693300000 113.9999280000,22.4689560000 113.9998960000,22.4689090000 113.9998480000,22.4688350000 113.9994720000,22.4682570000 113.9994070000,22.4681590000 113.9985050000,22.4667690000 113.9983030000,22.4664250000 113.9981910000,22.4662350000 113.9981610000,22.4661840000 113.9981490000,22.4661540000 113.9981420000,22.4661270000 113.9981370000,22.4661000000 113.9981350000,22.4660730000 113.9981310000,22.4660390000 113.9981240000,22.4660070000 113.9981120000,22.4659750000 113.9980560000,22.4658470000 113.9978630000,22.4654910000 113.9977050000,22.4651470000 113.9975850000,22.4648150000 113.9975410000,22.4646720000 113.9974840000,22.4644890000 113.9974700000,22.4644440000 113.9974450000,22.4643610000 113.9973430000,22.4639960000 113.9972330000,22.4634910000 113.9971840000,22.4632170000 113.9971650000,22.4631100000 113.9970420000,22.4624200000 113.9970390000,22.4623660000 113.9970410000,22.4623120000 113.9970480000,22.4622590000 113.9970590000,22.4622060000 113.9970760000,22.4621550000 113.9971290000,22.4621240000 113.9971720000,22.4620830000 113.9972060000,22.4620230000 113.9972180000,22.4619560000 113.9972090000,22.4618890000 113.9971790000,22.4618280000 113.9971510000,22.4617960000 113.9971180000,22.4617690000 113.9970670000,22.4617430000 113.9970110000,22.4617290000 113.9969530000,22.4617280000 113.9968960000,22.4617390000 113.9968530000,22.4617580000 113.9968150000,22.4617830000 113.9967460000,22.4618110000 113.9966750000,22.4618330000 113.9966020000,22.4618480000 113.9965140000,22.4618580000 113.9964240000,22.4618580000 113.9959370000,22.4618410000 113.9947710000,22.4617990000 113.9944410000,22.4617940000 113.9939240000,22.4617850000 113.9937640000,22.4617980000 113.9936540000,22.4617770000 113.9935570000,22.4617500000 113.9934920000,22.4617040000 113.9934480000,22.4616730000 113.9933970000,22.4616210000 113.9933720000,22.4615480000 113.9932940000,22.4613980000 113.9932690000,22.4611860000 113.9932490000,22.4607300000 113.9932920000,22.4599550000 113.9933440000,22.4595060000 113.9934250000,22.4590260000 113.9935330000,22.4585440000 113.9936990000,22.4580230000 113.9938800000,22.4575830000 113.9941900000,22.4569800000 113.9945770000,22.4563490000 113.9964090000,22.4535170000 113.9966260000,22.4531730000 113.9973570000,22.4520170000 113.9977030000,22.4514500000 113.9985330000,22.4500210000 113.9988220000,22.4495180000 113.9989020000,22.4493820000 113.9990940000,22.4490640000 113.9993960000,22.4484700000 113.9995260000,22.4481320000 113.9995880000,22.4478450000 113.9996210000,22.4476640000 113.9996500000,22.4472630000 113.9996680000,22.4468270000 113.9996430000,22.4466360000 113.9995530000,22.4457590000 113.9994280000,22.4445160000 113.9993000000,22.4434120000 113.9989330000,22.4418410000 113.9989380000,22.4413490000 113.9989170000,22.4407930000 113.9989100000,22.4405140000 113.9989280000,22.4402880000 113.9989310000,22.4402530000 113.9989670000,22.4399820000 113.9990280000,22.4396710000 113.9990510000,22.4395360000 113.9990630000,22.4394620000 113.9990770000,22.4393680000 113.9989110000,22.4393480000 113.9985670000,22.4393050000 113.9983700000,22.4392830000 113.9981560000,22.4392680000 113.9980700000,22.4392590000 113.9979940000,22.4392490000 113.9979270000,22.4392680000 113.9977800000,22.4392400000 113.9976030000,22.4392130000 113.9970330000,22.4391070000 113.9964210000,22.4390080000 113.9962760000,22.4390000000 113.9962760000,22.4389380000 113.9962770000,22.4388330000 113.9962800000,22.4386060000 113.9962910000,22.4384270000 113.9963110000,22.4382490000 113.9963340000,22.4380960000 113.9963380000,22.4380710000 113.9963730000,22.4378950000 113.9964100000,22.4377400000 113.9964540000,22.4375980000 113.9964740000,22.4375360000 113.9965190000,22.4374120000 113.9965750000,22.4372640000 113.9966370000,22.4371150000 113.9967040000,22.4369670000 113.9967760000,22.4368210000 113.9968530000,22.4366770000 113.9969340000,22.4365350000 113.9970200000,22.4363960000 113.9970520000,22.4363480000 113.9971100000,22.4362590000 113.9972050000,22.4361250000 113.9973040000,22.4359930000 113.9973770000,22.4359050000 113.9973920000,22.4358870000 113.9974070000,22.4358690000 113.9975070000,22.4357480000 113.9977090000,22.4358810000 113.9977260000,22.4358920000 113.9982570000,22.4362260000 113.9983360000,22.4362770000 113.9983740000,22.4363010000 113.9986190000,22.4364590000 113.9986460000,22.4364760000 113.9988330000,22.4365970000 113.9989500000,22.4366720000 113.9989730000,22.4366860000 113.9992160000,22.4368400000 113.9993240000,22.4369080000 113.9993440000,22.4369250000 113.9991080000,22.4373400000 113.9990440000,22.4374840000 113.9990160000,22.4375460000 113.9988170000,22.4379860000 113.9986030000,22.4384590000 113.9985220000,22.4387100000 113.9984420000,22.4389980000 113.9983940000,22.4391700000 113.9983860000,22.4392080000 113.9983700000,22.4392830000 113.9983510000,22.4393740000 113.9985720000,22.4394040000 113.9989170000,22.4394450000 113.9990630000,22.4394620000 113.9990770000,22.4393680000 113.9990890000,22.4392860000 113.9991230000,22.4389360000 113.9991070000,22.4386110000 113.9991360000,22.4384560000 113.9992170000,22.4380320000 113.9993710000,22.4375440000 113.9994210000,22.4373660000 113.9994470000,22.4371950000 113.9997030000,22.4368030000 113.9998970000,22.4365120000 114.0001360000,22.4362010000 114.0003600000,22.4359290000 114.0004500000,22.4358330000 114.0009420000,22.4353370000 114.0012670000,22.4350820000 114.0014780000,22.4349390000 114.0016560000,22.4348220000 114.0018530000,22.4347060000 114.0020680000,22.4346110000 114.0022200000,22.4345490000 114.0023170000,22.4345130000 114.0025030000,22.4344470000 114.0026010000,22.4344160000 114.0026940000,22.4343940000 114.0027850000,22.4343790000 114.0028610000,22.4343710000 114.0029400000,22.4343670000 114.0030300000,22.4343690000 114.0031440000,22.4343820000 114.0032370000,22.4344010000 114.0033000000,22.4344140000 114.0033680000,22.4344390000 114.0034440000,22.4344710000 114.0035290000,22.4345140000 114.0036100000,22.4345680000 114.0037210000,22.4346540000 114.0038090000,22.4347310000 114.0039460000,22.4348690000 114.0040290000,22.4349530000 114.0041350000,22.4350540000 114.0042890000,22.4351940000 114.0046090000,22.4354510000 114.0047130000,22.4355240000 114.0048170000,22.4355860000 114.0049020000,22.4356310000 114.0053800000,22.4358650000 114.0056540000,22.4359990000 114.0059080000,22.4361210000 114.0061480000,22.4362270000 114.0065100000,22.4363710000 114.0068130000,22.4364940000 114.0072180000,22.4366470000 114.0074660000,22.4367340000 114.0077950000,22.4368540000 114.0081200000,22.4369610000 114.0085380000,22.4370830000 114.0088760000,22.4371860000 114.0092970000,22.4373030000 114.0100560000,22.4374960000 114.0111950000,22.4377320000 114.0116250000,22.4378110000 114.0121570000,22.4379040000 114.0124040000,22.4379410000 114.0125340000,22.4379570000 114.0126570000,22.4379680000 114.0128380000,22.4379820000 114.0131330000,22.4380000000 114.0132580000,22.4380050000 114.0136380000,22.4379980000 114.0138930000,22.4379850000 114.0140050000,22.4379790000 114.0141920000,22.4379630000 114.0144960000,22.4379240000 114.0147590000,22.4378800000 114.0149400000,22.4378440000 114.0151910000,22.4377850000 114.0153620000,22.4377390000 114.0155670000,22.4376820000 114.0157370000,22.4376280000 114.0158770000,22.4375790000 114.0160750000,22.4375070000 114.0162810000,22.4374220000 114.0164930000,22.4373330000 114.0166630000,22.4372550000 114.0172760000,22.4369520000 114.0178780000,22.4366500000 114.0181980000,22.4364950000 114.0185110000,22.4363550000 114.0188240000,22.4362200000 114.0190380000,22.4361410000 114.0193620000,22.4360330000 114.0197360000,22.4359250000 114.0200340000,22.4358610000 114.0208130000,22.4356920000 114.0211510000,22.4356160000 114.0216320000,22.4355150000 114.0222080000,22.4354000000 114.0229570000,22.4352660000 114.0239130000,22.4351010000 114.0246560000,22.4349680000 114.0250720000,22.4348960000 114.0259200000,22.4347440000 114.0264410000,22.4346530000 114.0283270000,22.4343380000 114.0293680000,22.4341510000 114.0297040000,22.4341020000 114.0299430000,22.4340770000 114.0301360000,22.4340600000 114.0303070000,22.4340490000 114.0305310000,22.4340420000 114.0307070000,22.4340430000 114.0308390000,22.4340460000 114.0310150000,22.4340570000 114.0311970000,22.4340680000 114.0313580000,22.4340840000 114.0315300000,22.4341080000 114.0317040000,22.4341360000 114.0318700000,22.4341660000 114.0320440000,22.4342020000 114.0322150000,22.4342420000 114.0323840000,22.4342840000 114.0325490000,22.4343330000 114.0328150000,22.4344240000 114.0329950000,22.4344910000 114.0331500000,22.4345530000 114.0332960000,22.4346190000 114.0334990000,22.4347170000 114.0336480000,22.4347910000 114.0338110000,22.4348770000 114.0339600000,22.4349620000 114.0340970000,22.4350490000 114.0342480000,22.4351470000 114.0343800000,22.4352370000 114.0345200000,22.4353410000 114.0346460000,22.4354360000 114.0348200000,22.4355760000 114.0350030000,22.4357270000 114.0377890000,22.4381000000 114.0379620000,22.4382610000 114.0381740000,22.4384820000 114.0383500000,22.4386890000 114.0384850000,22.4388620000 114.0386480000,22.4391120000 114.0388620000,22.4394730000 114.0389480000,22.4396500000 114.0390870000,22.4399930000 114.0391520000,22.4401880000 114.0391790000,22.4402710000 114.0392510000,22.4405540000 114.0393000000,22.4408410000 114.0393040000,22.4408630000 114.0393110000,22.4409030000 114.0393360000,22.4411430000 114.0393470000,22.4413790000 114.0393540000,22.4418680000 114.0393670000,22.4428090000 114.0393750000,22.4433690000 114.0393760000,22.4438150000 114.0393780000,22.4439700000 114.0393820000,22.4445210000 114.0394090000,22.4448890000 114.0394250000,22.4450290000 114.0394420000,22.4451390000 114.0394600000,22.4452230000 114.0394920000,22.4453460000 114.0395540000,22.4455640000 114.0396350000,22.4458420000 114.0396880000,22.4459760000 114.0397190000,22.4460440000 114.0397580000,22.4461260000 114.0398620000,22.4463640000 114.0399390000,22.4465430000 114.0399770000,22.4466300000 114.0400020000,22.4467050000 114.0400440000,22.4468160000 114.0401560000,22.4469770000 114.0402260000,22.4470630000 114.0404570000,22.4473430000 114.0406150000,22.4475120000 114.0407840000,22.4476730000 114.0409370000,22.4478070000 114.0410890000,22.4479410000 114.0412040000,22.4480380000 114.0415040000,22.4482430000 114.0418360000,22.4484470000 114.0421390000,22.4486100000 114.0423790000,22.4487250000 114.0426660000,22.4488300000 114.0429540000,22.4489250000 114.0431430000,22.4489790000 114.0433990000,22.4490400000 114.0435580000,22.4490840000 114.0438340000,22.4491570000 114.0439220000,22.4491750000 114.0445260000,22.4492920000 114.0446930000,22.4493210000 114.0448720000,22.4493500000 114.0450400000,22.4493710000 114.0452260000,22.4493890000 114.0454290000,22.4494010000 114.0456530000,22.4494020000 114.0457970000,22.4493930000 114.0459610000,22.4493780000 114.0461200000,22.4493550000 114.0462540000,22.4493310000 114.0464080000,22.4492990000 114.0465630000,22.4492570000 114.0467160000,22.4492110000 114.0468650000,22.4491590000 114.0470410000,22.4490920000 114.0472760000,22.4489930000 114.0474960000,22.4488960000 114.0477610000,22.4487680000 114.0479670000,22.4486630000 114.0481820000,22.4485440000 114.0483610000,22.4484370000 114.0485370000,22.4483270000 114.0487380000,22.4481910000 114.0489770000,22.4480110000 114.0492460000,22.4477790000 114.0495220000,22.4475150000 114.0497300000,22.4472910000 114.0498060000,22.4472000000 114.0499180000,22.4470490000 114.0500100000,22.4469070000 114.0501100000,22.4467360000 114.0501830000,22.4466010000 114.0502760000,22.4463770000 114.0503430000,22.4461870000 114.0503940000,22.4460100000 114.0504620000,22.4457210000 114.0506000000,22.4449900000 114.0506640000,22.4446850000 114.0507310000,22.4444470000 114.0507810000,22.4442940000 114.0508480000,22.4441090000 114.0509310000,22.4439180000 114.0510550000,22.4436670000 114.0511570000,22.4434860000 114.0513140000,22.4432450000 114.0514890000,22.4430120000 114.0516560000,22.4427950000 114.0519930000,22.4424060000 114.0523540000,22.4420140000 114.0524670000,22.4418910000 114.0528330000,22.4415880000 114.0537250000,22.4408880000 114.0539140000,22.4407410000 114.0539990000,22.4406740000 114.0543270000,22.4404180000 114.0544410000,22.4403300000 114.0552510000,22.4397070000 114.0557360000,22.4393400000 114.0562240000,22.4389830000 114.0566030000,22.4387200000 114.0574240000,22.4381650000 114.0580710000,22.4376870000 114.0583250000,22.4374860000 114.0586730000,22.4372000000 114.0591960000,22.4367440000 114.0596240000,22.4363440000 114.0597870000,22.4361860000 114.0601090000,22.4358600000 114.0604530000,22.4354950000 114.0607800000,22.4351250000 114.0611520000,22.4346860000 114.0614490000,22.4343100000 114.0617700000,22.4338730000 114.0619730000,22.4335750000 114.0622480000,22.4331430000 114.0624570000,22.4327850000 114.0626480000,22.4324290000 114.0628140000,22.4321030000 114.0630310000,22.4316290000 114.0631480000,22.4313530000 114.0633360000,22.4308500000 114.0634380000,22.4305540000 114.0635560000,22.4301880000 114.0637050000,22.4296700000 114.0638390000,22.4291530000 114.0639560000,22.4286250000 114.0640530000,22.4281040000 114.0641170000,22.4277120000 114.0641550000,22.4274190000 114.0642180000,22.4268400000 114.0642520000,22.4264070000 114.0642720000,22.4259930000 114.0642990000,22.4243590000 114.0643130000,22.4232740000 114.0643110000,22.4225020000 114.0642930000,22.4220220000 114.0642670000,22.4215770000 114.0642570000,22.4213660000 114.0641580000,22.4204600000 114.0640030000,22.4189740000 114.0639950000,22.4189290000 114.0638760000,22.4183200000 114.0635200000,22.4166570000 114.0634500000,22.4161790000 114.0633480000,22.4155790000 114.0632220000,22.4150740000 114.0630650000,22.4145840000 114.0628950000,22.4141420000 114.0626700000,22.4136450000 114.0623420000,22.4130480000 114.0610830000,22.4109250000 114.0609240000,22.4106470000 114.0608340000,22.4104820000 114.0607460000,22.4103130000 114.0606660000,22.4101470000 114.0605870000,22.4099760000 114.0605150000,22.4098100000 114.0604420000,22.4096400000 114.0603740000,22.4094700000 114.0603150000,22.4093000000 114.0602180000,22.4090130000 114.0601610000,22.4088270000 114.0601160000,22.4086640000 114.0600790000,22.4085170000 114.0600430000,22.4083840000 114.0600290000,22.4083290000 114.0599900000,22.4081590000 114.0599610000,22.4080280000 114.0599410000,22.4079220000 114.0599230000,22.4078170000 114.0599050000,22.4076820000 114.0598850000,22.4075290000 114.0598610000,22.4073170000 114.0598450000,22.4071630000 114.0598350000,22.4070400000 114.0598260000,22.4068800000 114.0598220000,22.4067200000 114.0598200000,22.4065600000 114.0598200000,22.4064000000 114.0598220000,22.4062400000 114.0598260000,22.4060800000 114.0598320000,22.4059200000 114.0598410000,22.4057600000 114.0598540000,22.4056000000 114.0598690000,22.4054400000 114.0598910000,22.4052500000 114.0623570000,22.3893650000 114.0626980000,22.3871780000 114.0637180000,22.3811750000 114.0637550000,22.3810000000 114.0637950000,22.3808300000 114.0638400000,22.3806600000 114.0638870000,22.3804900000 114.0639380000,22.3803100000 114.0639920000,22.3801310000 114.0640500000,22.3799600000 114.0641120000,22.3797900000 114.0641800000,22.3796200000 114.0642480000,22.3794600000 114.0643150000,22.3793030000 114.0643830000,22.3791500000 114.0644610000,22.3789900000 114.0645400000,22.3788400000 114.0646200000,22.3786900000 114.0647230000,22.3785000000 114.0648310000,22.3783200000 114.0649400000,22.3781500000 114.0650520000,22.3779800000 114.0651700000,22.3778100000 114.0652900000,22.3776450000 114.0654130000,22.3774800000 114.0655400000,22.3773200000 114.0656660000,22.3771710000 114.0658010000,22.3770150000 114.0659500000,22.3768540000 114.0661020000,22.3766950000 114.0662500000,22.3765450000 114.0664000000,22.3764000000 114.0665500000,22.3762610000 114.0667140000,22.3761200000 114.0668830000,22.3759780000 114.0670380000,22.3758630000 114.0672200000,22.3757280000 114.0673400000,22.3756430000 114.0673840000,22.3756120000 114.0674310000,22.3755850000 114.0676090000,22.3754820000 114.0682370000,22.3750400000 114.0688590000,22.3745820000 114.0690860000,22.3744300000 114.0692620000,22.3743040000 114.0701770000,22.3737060000 114.0713690000,22.3729280000 114.0732230000,22.3717740000 114.0734910000,22.3716070000 114.0739570000,22.3713190000 114.0753200000,22.3704760000 114.0755740000,22.3703150000 114.0757640000,22.3701890000 114.0759600000,22.3700600000 114.0760750000,22.3699840000 114.0762980000,22.3698280000 114.0765050000,22.3696610000 114.0765950000,22.3695800000 114.0766770000,22.3695060000 114.0768280000,22.3693520000 114.0769840000,22.3691700000 114.0771000000,22.3690320000 114.0771560000,22.3689570000 114.0772120000,22.3688760000 114.0772980000,22.3687530000 114.0773250000,22.3687170000 114.0773570000,22.3686640000 114.0777440000,22.3681000000 114.0779760000,22.3676890000 114.0785560000,22.3666650000 114.0786410000,22.3665060000 114.0786820000,22.3664280000 114.0789710000,22.3658810000 114.0795610000,22.3647620000 114.0819460000,22.3602400000 114.0820270000,22.3600740000 114.0821430000,22.3598350000 114.0822250000,22.3596680000 114.0824180000,22.3592640000 114.0824780000,22.3591470000 114.0826310000,22.3588550000 114.0828450000,22.3584440000 114.0829940000,22.3581230000 114.0832370000,22.3576620000 114.0832720000,22.3575970000 114.0833190000,22.3575060000 114.0833470000,22.3574550000 114.0834000000,22.3573590000 114.0838930000,22.3564690000 114.0842340000,22.3558540000 114.0845770000,22.3553400000 114.0847250000,22.3551320000 114.0849950000,22.3547760000 114.0850380000,22.3547210000 114.0852940000,22.3543780000 114.0853390000,22.3543180000 114.0853880000,22.3542500000 114.0856200000,22.3538980000 114.0859400000,22.3533550000 114.0860880000,22.3530600000 114.0861420000,22.3529420000 114.0861880000,22.3528400000 114.0863450000,22.3524750000 114.0864690000,22.3521870000 114.0865310000,22.3520200000 114.0865960000,22.3518460000 114.0868600000,22.3510520000 114.0869210000,22.3508770000 114.0869360000,22.3508280000 114.0869950000,22.3506510000 114.0870280000,22.3505540000 114.0871700000,22.3501460000 114.0871840000,22.3501050000 114.0873720000,22.3493900000 114.0873850000,22.3493210000 114.0874730000,22.3488690000 114.0874870000,22.3487930000 114.0875280000,22.3486700000 114.0876060000,22.3484580000 114.0876470000,22.3483500000 114.0877000000,22.3482120000 114.0878300000,22.3479380000 114.0879940000,22.3476390000 114.0881250000,22.3474620000 114.0882400000,22.3473590000 114.0883470000,22.3472640000 114.0885020000,22.3471250000 114.0885890000,22.3470470000 114.0891520000,22.3465960000 114.0892520000,22.3465380000 114.0893170000,22.3465010000 114.0894580000,22.3464220000 114.0895440000,22.3463710000 114.0896600000,22.3463030000 114.0898570000,22.3462060000 114.0904080000,22.3459230000 114.0909510000,22.3456540000 114.0913290000,22.3454850000 114.0917140000,22.3453370000 114.0921490000,22.3451970000 114.0926200000,22.3450830000 114.0931040000,22.3449910000 114.0933720000,22.3449670000 114.0939110000,22.3449370000 114.0941740000,22.3449370000 114.0952440000,22.3449500000 114.0957200000,22.3449460000 114.1004000000,22.3449930000 114.1010700000,22.3450180000 114.1014000000,22.3450400000 114.1017300000,22.3450680000 114.1020600000,22.3451030000 114.1023900000,22.3451480000 114.1030400000,22.3452500000 114.1033000000,22.3453000000 114.1035300000,22.3453500000 114.1037300000,22.3453950000 114.1038810000,22.3454310000 114.1040300000,22.3454700000 114.1042020000,22.3455180000 114.1043800000,22.3455700000 114.1046900000,22.3456680000 114.1049680000,22.3457620000 114.1051600000,22.3458300000 114.1053500000,22.3459000000 114.1056800000,22.3460270000 114.1060000000,22.3461600000 114.1066070000,22.3464420000 114.1092280000,22.3478020000 114.1094000000,22.3478900000 114.1094990000,22.3479370000 114.1095990000,22.3479820000 114.1098100000,22.3480700000 114.1100000000,22.3481490000 114.1103700000,22.3483000000 114.1107080000,22.3484390000 114.1112560000,22.3486440000 114.1114010000,22.3486980000 114.1121940000,22.3489990000 114.1150360000,22.3500680000 114.1152660000,22.3501660000 114.1155460000,22.3503070000 114.1158280000,22.3504570000 114.1160890000,22.3506120000 114.1163380000,22.3507780000 114.1166890000,22.3510310000 114.1170420000,22.3512980000 114.1174180000,22.3515670000 114.1177500000,22.3517760000 114.1179500000,22.3518880000 114.1181630000,22.3519900000 114.1183710000,22.3520800000 114.1185390000,22.3521520000 114.1187440000,22.3522270000 114.1189890000,22.3523010000 114.1192310000,22.3523660000 114.1195060000,22.3524250000 114.1197310000,22.3524620000 114.1199660000,22.3524930000 114.1203430000,22.3525160000 114.1207100000,22.3525140000 114.1211680000,22.3524720000 114.1214580000,22.3524280000 114.1216780000,22.3523900000 114.1217840000,22.3523650000 114.1219810000,22.3522960000 114.1220880000,22.3522570000 114.1221670000,22.3522230000 114.1226290000,22.3520200000 114.1228980000,22.3518990000 114.1232400000,22.3516400000 114.1234320000,22.3514950000 114.1237280000,22.3512190000 114.1239480000,22.3509410000 114.1241480000,22.3506360000 114.1243000000,22.3503120000 114.1244440000,22.3499020000 114.1244990000,22.3496360000 114.1245500000,22.3491470000 114.1245370000,22.3484120000 114.1245330000,22.3480180000 114.1245490000,22.3476170000 114.1246060000,22.3472410000 114.1246110000,22.3472070000 114.1246230000,22.3471590000 114.1246360000,22.3471070000 114.1246480000,22.3470550000 114.1246730000,22.3469520000 114.1247110000,22.3468180000 114.1247390000,22.3467160000 114.1247610000,22.3466370000 114.1247850000,22.3465690000 114.1248130000,22.3464960000 114.1248340000,22.3464420000 114.1249030000,22.3462770000 114.1250230000,22.3459890000 114.1251600000,22.3457430000 114.1252280000,22.3456200000 114.1254330000,22.3453410000 114.1256160000,22.3450810000 114.1258790000,22.3448160000 114.1260740000,22.3446340000 114.1262650000,22.3444920000 114.1264800000,22.3443300000 114.1269240000,22.3440300000 114.1270200000,22.3439790000 114.1271090000,22.3439320000 114.1271840000,22.3438920000 114.1272820000,22.3438400000 114.1276470000,22.3436840000 114.1278970000,22.3435720000 114.1281270000,22.3434690000 114.1283770000,22.3433460000 114.1286560000,22.3432050000 114.1289710000,22.3430190000 114.1291870000,22.3428750000 114.1294020000,22.3427320000 114.1295670000,22.3426040000 114.1297310000,22.3424680000 114.1298900000,22.3423150000 114.1301370000,22.3420730000 114.1303630000,22.3417950000 114.1304050000,22.3417270000 114.1304940000,22.3415860000 114.1306050000,22.3414080000 114.1306680000,22.3413080000 114.1307450000,22.3411650000 114.1307910000,22.3410810000 114.1308490000,22.3409740000 114.1310190000,22.3406270000 114.1311190000,22.3404140000 114.1311910000,22.3402610000 114.1314770000,22.3396800000 114.1315870000,22.3394560000 114.1316710000,22.3392680000 114.1316840000,22.3392360000 114.1318380000,22.3388760000 114.1319550000,22.3386180000 114.1320070000,22.3385160000 114.1320500000,22.3384340000 114.1322000000,22.3381400000 114.1324040000,22.3378060000 114.1326480000,22.3374240000 114.1328610000,22.3371230000 114.1331790000,22.3367280000 114.1333570000,22.3365230000 114.1336230000,22.3362450000 114.1337460000,22.3361190000 114.1343320000,22.3356020000 114.1345140000,22.3354620000 114.1346460000,22.3353620000 114.1349080000,22.3351570000 114.1351140000,22.3350120000 114.1353150000,22.3348710000 114.1354560000,22.3347710000 114.1355370000,22.3347190000 114.1357120000,22.3346060000 114.1360310000,22.3344250000 114.1363260000,22.3342690000 114.1366140000,22.3341310000 114.1369430000,22.3339880000 114.1373830000,22.3338160000 114.1378110000,22.3336600000 114.1395900000,22.3330030000 114.1398300000,22.3329510000 114.1403410000,22.3328320000 114.1404170000,22.3328110000 114.1407680000,22.3327140000 114.1409930000,22.3326420000 114.1411400000,22.3325900000 114.1413060000,22.3325270000 114.1415830000,22.3324020000 114.1418830000,22.3322730000 114.1420750000,22.3322320000 114.1421380000,22.3322180000 114.1421860000,22.3322100000 114.1422330000,22.3322010000 114.1423370000,22.3321900000 114.1424530000,22.3321850000 114.1425990000,22.3321900000 114.1426410000,22.3321930000 114.1427320000,22.3322040000 114.1428060000,22.3322160000 114.1429040000,22.3322400000 114.1430560000,22.3322860000 114.1431060000,22.3323040000 114.1431930000,22.3323400000 114.1432510000,22.3323670000 114.1433030000,22.3323940000 114.1433750000,22.3324360000 114.1434340000,22.3324720000 114.1434870000,22.3325070000 114.1435450000,22.3325510000 114.1436150000,22.3326120000 114.1437050000,22.3326950000 114.1437860000,22.3327830000 114.1438640000,22.3328800000 114.1439140000,22.3329560000 114.1439630000,22.3330380000 114.1439910000,22.3330920000 114.1440180000,22.3331500000 114.1440440000,22.3332140000 114.1440820000,22.3333210000 114.1441540000,22.3335670000 114.1441960000,22.3336920000 114.1442220000,22.3337580000 114.1443930000,22.3341280000 114.1445810000,22.3347860000 114.1446050000,22.3349870000 114.1446110000,22.3350350000 114.1446220000,22.3351220000 114.1446280000,22.3352080000 114.1449170000,22.3352050000 114.1449620000,22.3352010000 114.1450660000,22.3351780000 114.1451550000,22.3351410000 114.1452580000,22.3350790000 114.1453370000,22.3350240000 114.1454080000,22.3349590000 114.1454810000,22.3348830000 114.1455420000,22.3347980000 114.1456020000,22.3346870000 114.1456570000,22.3345710000 114.1458220000,22.3342410000 114.1459790000,22.3339290000 114.1460550000,22.3338310000 114.1461030000,22.3337680000 114.1461350000,22.3337260000 114.1462960000,22.3335700000 114.1464380000,22.3334530000 114.1465740000,22.3333320000 114.1466840000,22.3332530000 114.1470990000,22.3329550000 114.1474150000,22.3327140000 114.1475740000,22.3325920000 114.1476740000,22.3325120000 114.1476990000,22.3324920000 114.1480190000,22.3322390000 114.1480630000,22.3322040000 114.1481440000,22.3321400000 114.1484870000,22.3318780000 114.1485200000,22.3318540000 114.1487080000,22.3317170000 114.1487750000,22.3318410000 114.1490650000,22.3322920000 114.1491970000,22.3324960000 114.1495270000,22.3329250000 114.1496600000,22.3330930000 114.1498610000,22.3333490000 114.1499210000,22.3334230000 114.1500090000,22.3335310000 114.1500930000,22.3336210000 114.1501190000,22.3336490000 114.1501350000,22.3336660000 114.1501580000,22.3336910000 114.1503820000,22.3339310000 114.1504050000,22.3339560000 114.1504190000,22.3339770000 114.1505350000,22.3341480000 114.1506810000,22.3342710000 114.1507430000,22.3343240000 114.1507740000,22.3343490000 114.1508230000,22.3343580000 114.1508700000,22.3344190000 114.1509400000,22.3345090000 114.1513970000,22.3350540000 114.1515600000,22.3352220000 114.1515980000,22.3352590000 114.1516460000,22.3352990000 114.1517110000,22.3353580000 114.1518130000,22.3354580000 114.1518680000,22.3355200000 114.1518990000,22.3355480000 114.1521710000,22.3358650000 114.1523340000,22.3360600000 114.1530630000,22.3368570000 114.1531820000,22.3370270000 114.1533990000,22.3372420000 114.1534300000,22.3372800000 114.1535550000,22.3374290000 114.1536440000,22.3375310000 114.1537460000,22.3374520000 114.1539090000,22.3373250000 114.1544210000,22.3369270000 114.1549550000,22.3365120000 114.1552880000,22.3362530000 114.1553260000,22.3362240000 114.1556940000,22.3359400000 114.1557410000,22.3359040000 114.1558470000,22.3358220000 114.1559330000,22.3357560000 114.1562810000,22.3354860000 114.1563140000,22.3354610000 114.1564090000,22.3353880000 114.1566870000,22.3351740000 114.1568080000,22.3350800000 114.1568640000,22.3350360000 114.1571400000,22.3348230000 114.1572250000,22.3347580000 114.1572980000,22.3347010000 114.1574030000,22.3346150000 114.1575920000,22.3344660000 114.1582930000,22.3339220000 114.1586360000,22.3336510000 114.1591120000,22.3332800000 114.1591530000,22.3332470000 114.1592260000,22.3331900000 114.1595490000,22.3329390000 114.1595930000,22.3329040000 114.1596560000,22.3328550000 114.1598020000,22.3327430000 114.1600840000,22.3325260000 114.1603360000,22.3323300000 114.1603510000,22.3323180000 114.1603690000,22.3323040000 114.1605440000,22.3321660000 114.1606160000,22.3321110000 114.1608450000,22.3319370000 114.1608740000,22.3319160000 114.1609770000,22.3318360000 114.1610660000,22.3317690000 114.1611900000,22.3316720000 114.1612160000,22.3316520000 114.1617520000,22.3312370000 114.1617890000,22.3312080000 114.1618810000,22.3311370000 114.1621840000,22.3308960000 114.1622060000,22.3308790000 114.1622910000,22.3308110000 114.1623940000,22.3307290000 114.1625100000,22.3306380000 114.1625910000,22.3305750000 114.1626820000,22.3305050000 114.1627100000,22.3304840000 114.1627630000,22.3304440000 114.1631440000,22.3301520000 114.1632110000,22.3301010000 114.1634510000,22.3299220000 114.1635040000,22.3298820000 114.1636520000,22.3297700000 114.1638180000,22.3296400000 114.1637310000,22.3295540000 114.1636700000,22.3294900000 114.1633540000,22.3291380000 114.1632980000,22.3290760000 114.1630930000,22.3288480000 114.1630680000,22.3288200000 114.1629910000,22.3287330000 114.1629300000,22.3286640000 114.1627870000,22.3285060000 114.1626280000,22.3283290000 114.1625820000,22.3282770000 114.1623430000,22.3280110000 114.1622750000,22.3279350000 114.1620170000,22.3276430000 114.1619920000,22.3276150000 114.1619280000,22.3275450000 114.1618480000,22.3274540000 114.1618000000,22.3274000000 114.1615150000,22.3270830000 114.1614520000,22.3270120000 114.1613980000,22.3269510000 114.1612680000,22.3268030000 114.1611640000,22.3266860000 114.1611350000,22.3266530000 114.1610550000,22.3265740000 114.1609830000,22.3264940000 114.1608730000,22.3263730000 114.1608550000,22.3263510000 114.1608330000,22.3263140000 114.1608160000,22.3262560000 114.1608110000,22.3262230000 114.1608060000,22.3261440000 114.1608070000,22.3260420000 114.1615950000,22.3254400000 114.1616480000,22.3254000000 114.1616980000,22.3253610000 114.1617650000,22.3253100000 114.1619340000,22.3251810000 114.1619450000,22.3249980000 114.1619500000,22.3249270000 114.1619550000,22.3248370000 114.1619620000,22.3244830000 114.1619690000,22.3242450000 114.1619700000,22.3241870000 114.1619810000,22.3241150000 114.1619830000,22.3240520000 114.1619840000,22.3240250000 114.1619900000,22.3237450000 114.1619830000,22.3236030000 114.1619820000,22.3233400000 114.1619810000,22.3232840000 114.1619810000,22.3232170000 114.1619850000,22.3229350000 114.1619860000,22.3229040000 114.1619860000,22.3228760000 114.1619870000,22.3228260000 114.1619890000,22.3227000000 114.1619930000,22.3224150000 114.1620070000,22.3214770000 114.1620070000,22.3214400000 114.1620340000,22.3208200000 114.1620460000,22.3204720000 114.1620580000,22.3203150000 114.1620720000,22.3202110000 114.1620820000,22.3201610000 114.1621460000,22.3198740000 114.1621630000,22.3198150000 114.1621850000,22.3197590000 114.1622410000,22.3196140000 114.1622470000,22.3195980000 114.1622750000,22.3195510000 114.1623250000,22.3194930000 114.1624830000,22.3193370000 114.1626280000,22.3191940000 114.1627130000,22.3191090000 114.1627460000,22.3190770000 114.1628380000,22.3189680000 114.1629430000,22.3189030000 114.1630570000,22.3188130000 114.1631020000,22.3187690000 114.1631430000,22.3187220000 114.1631790000,22.3186710000 114.1632060000,22.3186270000 114.1632830000,22.3184890000 114.1633210000,22.3184080000 114.1633530000,22.3183070000 114.1634230000,22.3180820000 114.1634800000,22.3178100000 114.1635370000,22.3175620000 114.1636220000,22.3173200000 114.1636340000,22.3172860000 114.1636650000,22.3171770000 114.1636810000,22.3171120000 114.1637090000,22.3169660000 114.1638280000,22.3164700000 114.1638610000,22.3163330000 114.1638730000,22.3162850000 114.1638940000,22.3161950000 114.1639370000,22.3158520000 114.1639700000,22.3157790000 114.1640170000,22.3156760000 114.1641180000,22.3152310000 114.1641850000,22.3149330000 114.1642360000,22.3147240000 114.1643640000,22.3141970000 114.1643750000,22.3141510000 114.1644610000,22.3138130000 114.1645180000,22.3135680000 114.1646170000,22.3131250000 114.1646240000,22.3130930000 114.1646540000,22.3129650000 114.1646870000,22.3128080000 114.1646930000,22.3127780000 114.1647350000,22.3126680000 114.1647650000,22.3125260000 114.1648000000,22.3123640000 114.1647950000,22.3123090000 114.1648220000,22.3121710000 114.1648370000,22.3121050000 114.1648560000,22.3119900000 114.1648640000,22.3119490000 114.1648820000,22.3118570000 114.1649170000,22.3117280000 114.1650210000,22.3115730000 114.1651340000,22.3114000000 114.1651900000,22.3112710000 114.1652160000,22.3111500000 114.1652440000,22.3110220000 114.1652620000,22.3109200000 114.1652310000,22.3103820000 114.1652260000,22.3101020000 114.1652130000,22.3098660000 114.1652110000,22.3098230000 114.1652100000,22.3098000000 114.1652070000,22.3097700000 114.1652040000,22.3097350000 114.1651940000,22.3096270000 114.1651990000,22.3095350000 114.1652200000,22.3094400000 114.1652260000,22.3093800000 114.1652460000,22.3093340000 114.1652420000,22.3093060000 114.1652310000,22.3092220000 114.1652170000,22.3091560000 114.1651950000,22.3090360000 114.1651760000,22.3089480000 114.1651690000,22.3089170000 114.1651420000,22.3087820000 114.1651200000,22.3087100000 114.1650980000,22.3086380000 114.1650700000,22.3084500000 114.1650330000,22.3081900000 114.1650310000,22.3081650000 114.1650230000,22.3078750000 114.1650170000,22.3077450000 114.1650210000,22.3074230000 114.1650540000,22.3071000000 114.1650740000,22.3069190000 114.1651000000,22.3068240000 114.1651450000,22.3067130000 114.1652270000,22.3064880000 114.1652860000,22.3063690000 114.1653710000,22.3061990000 114.1651490000,22.3062310000 114.1650480000,22.3062540000 114.1645660000,22.3063540000 114.1645520000,22.3063570000 114.1645380000,22.3063600000 114.1643660000,22.3063970000 114.1641690000,22.3064440000 114.1640500000,22.3064760000 114.1637620000,22.3065550000 114.1636830000,22.3065750000 114.1635710000,22.3066020000 114.1632740000,22.3066760000 114.1629170000,22.3068300000 114.1621800000,22.3070700000 114.1620770000,22.3071030000 114.1617720000,22.3071930000 114.1616620000,22.3071810000 114.1615760000,22.3071710000 114.1614770000,22.3071430000 114.1614000000,22.3071080000 114.1613640000,22.3070680000 114.1612830000,22.3069750000 114.1611730000,22.3068000000 114.1611080000,22.3066640000 114.1610980000,22.3066410000 114.1612230000,22.3065970000 114.1617980000,22.3063750000 114.1619340000,22.3063230000 114.1626540000,22.3060410000 114.1629080000,22.3059410000 114.1629270000,22.3059300000 114.1629430000,22.3059150000 114.1629550000,22.3058970000 114.1629630000,22.3058750000 114.1629650000,22.3058530000 114.1629610000,22.3058300000 114.1629520000,22.3058090000 114.1629010000,22.3056950000 114.1625780000,22.3049650000 114.1624160000,22.3045990000 114.1622440000,22.3042100000 114.1622190000,22.3041540000 114.1622090000,22.3041310000 114.1620100000,22.3036800000 114.1620310000,22.3036680000 114.1620470000,22.3036510000 114.1620580000,22.3036310000 114.1620610000,22.3036080000 114.1620570000,22.3035860000 114.1620470000,22.3035650000 114.1620300000,22.3035480000 114.1620100000,22.3035370000 114.1619870000,22.3035320000 114.1619640000,22.3035320000 114.1619380000,22.3035340000 114.1619270000,22.3035020000 114.1619150000,22.3034810000 114.1618880000,22.3034800000 114.1618090000,22.3035060000 114.1612580000,22.3037090000 114.1605270000,22.3039940000 114.1605000000,22.3039330000 114.1604760000,22.3039200000 114.1603010000,22.3039830000 114.1602860000,22.3039950000 114.1602400000,22.3040730000 114.1602220000,22.3040850000 114.1601150000,22.3041260000 114.1600050000,22.3041700000 114.1599730000,22.3041830000 114.1599860000,22.3042120000 114.1602840000,22.3050680000 114.1603250000,22.3052300000 114.1603550000,22.3053490000 114.1603770000,22.3054540000 114.1604020000,22.3055750000 114.1604290000,22.3056850000 114.1604640000,22.3058140000 114.1604920000,22.3059040000 114.1605220000,22.3059940000 114.1605550000,22.3060830000 114.1605960000,22.3061820000 114.1606480000,22.3063030000 114.1611100000,22.3072920000 114.1611550000,22.3073960000 114.1612040000,22.3075080000 114.1612510000,22.3074920000 114.1622100000,22.3071700000 114.1627530000,22.3069810000 114.1629910000,22.3069510000 114.1631700000,22.3068850000 114.1634500000,22.3067800000 114.1636270000,22.3067330000 114.1637800000,22.3066980000 114.1640550000,22.3066380000 114.1641620000,22.3066140000 114.1649440000,22.3064370000 114.1650850000,22.3064080000 114.1649880000,22.3066540000 114.1649390000,22.3068200000 114.1649220000,22.3069260000 114.1648950000,22.3071020000 114.1648710000,22.3073840000 114.1648670000,22.3077490000 114.1648700000,22.3079300000 114.1648940000,22.3081670000 114.1648980000,22.3082020000 114.1649330000,22.3084670000 114.1649710000,22.3086640000 114.1649840000,22.3087300000 114.1649980000,22.3088050000 114.1650240000,22.3089460000 114.1650300000,22.3089790000 114.1650480000,22.3090640000 114.1650670000,22.3091810000 114.1650760000,22.3092540000 114.1651700000,22.3094450000 114.1651990000,22.3095350000 114.1651940000,22.3096270000 114.1652040000,22.3097350000 114.1652070000,22.3097700000 114.1652100000,22.3098000000 114.1652110000,22.3098230000 114.1652130000,22.3098660000 114.1652260000,22.3101020000 114.1652310000,22.3103820000 114.1652620000,22.3109200000 114.1652440000,22.3110220000 114.1652160000,22.3111500000 114.1651900000,22.3112710000 114.1651340000,22.3114000000 114.1650210000,22.3115730000 114.1648630000,22.3116920000 114.1647850000,22.3118020000 114.1647790000,22.3118450000 114.1647620000,22.3119280000 114.1647380000,22.3120490000 114.1647310000,22.3120880000 114.1647060000,22.3122170000 114.1646600000,22.3124290000 114.1646470000,22.3125080000 114.1646220000,22.3126440000 114.1645990000,22.3127560000 114.1645910000,22.3127930000 114.1645610000,22.3129470000 114.1645320000,22.3130760000 114.1643040000,22.3140480000 114.1642900000,22.3141060000 114.1641830000,22.3145530000 114.1641460000,22.3147050000 114.1641010000,22.3148920000 114.1640260000,22.3152100000 114.1639220000,22.3156500000 114.1638770000,22.3158400000 114.1638020000,22.3161490000 114.1637860000,22.3162170000 114.1635980000,22.3169090000 114.1635910000,22.3169400000 114.1635570000,22.3170870000 114.1635250000,22.3172160000 114.1634920000,22.3173500000 114.1634380000,22.3175180000 114.1633560000,22.3176870000 114.1632550000,22.3178150000 114.1631180000,22.3179370000 114.1629850000,22.3180190000 114.1629530000,22.3180380000 114.1627870000,22.3181390000 114.1623560000,22.3180450000 114.1620650000,22.3179530000 114.1620150000,22.3179260000 114.1619120000,22.3178690000 114.1617770000,22.3178200000 114.1611740000,22.3176000000 114.1609760000,22.3175350000 114.1609090000,22.3175250000 114.1608490000,22.3175310000 114.1607920000,22.3175640000 114.1607800000,22.3176520000 114.1607860000,22.3177060000 114.1608100000,22.3177500000 114.1608470000,22.3177820000 114.1610060000,22.3178500000 114.1610770000,22.3179390000 114.1614870000,22.3180790000 114.1616590000,22.3181390000 114.1618720000,22.3182250000 114.1619260000,22.3182520000 114.1619580000,22.3182730000 114.1619890000,22.3183140000 114.1619960000,22.3183660000 114.1619960000,22.3184900000 114.1619960000,22.3185560000 114.1619960000,22.3186170000 114.1619960000,22.3186210000 114.1619960000,22.3186440000 114.1619960000,22.3186770000 114.1619960000,22.3187780000 114.1619960000,22.3187910000 114.1619960000,22.3188720000 114.1619910000,22.3189620000 114.1619890000,22.3190590000 114.1619880000,22.3190890000 114.1619880000,22.3191100000 114.1619880000,22.3191430000 114.1619790000,22.3192870000 114.1619780000,22.3193690000 114.1619620000,22.3194680000 114.1619610000,22.3195450000 114.1619540000,22.3200040000 114.1619480000,22.3203110000 114.1619490000,22.3203360000 114.1619460000,22.3204720000 114.1619400000,22.3209250000 114.1619330000,22.3214140000 114.1619330000,22.3214390000 114.1619270000,22.3217900000 114.1619250000,22.3219670000 114.1619180000,22.3224140000 114.1619170000,22.3225300000 114.1619020000,22.3228720000 114.1618890000,22.3231520000 114.1618860000,22.3232160000 114.1618830000,22.3233390000 114.1618780000,22.3235860000 114.1618680000,22.3239680000 114.1618680000,22.3239980000 114.1618650000,22.3241180000 114.1618640000,22.3241670000 114.1618550000,22.3244830000 114.1618340000,22.3246030000 114.1617830000,22.3247540000 114.1617590000,22.3248190000 114.1617410000,22.3248540000 114.1616890000,22.3249290000 114.1616420000,22.3249850000 114.1614420000,22.3251540000 114.1613630000,22.3252120000 114.1613350000,22.3252310000 114.1611190000,22.3253780000 114.1604660000,22.3259030000 114.1603750000,22.3259730000 114.1603640000,22.3260400000 114.1603690000,22.3260840000 114.1603710000,22.3260980000 114.1604070000,22.3261400000 114.1604910000,22.3262410000 114.1605110000,22.3262640000 114.1606140000,22.3263840000 114.1607840000,22.3265820000 114.1608180000,22.3266200000 114.1608950000,22.3267030000 114.1609700000,22.3267810000 114.1611180000,22.3269420000 114.1612380000,22.3270730000 114.1612940000,22.3271340000 114.1613570000,22.3272030000 114.1616260000,22.3274990000 114.1616440000,22.3275200000 114.1617100000,22.3275930000 114.1617750000,22.3276790000 114.1618290000,22.3277400000 114.1620620000,22.3279920000 114.1621340000,22.3280700000 114.1621880000,22.3281290000 114.1624300000,22.3283940000 114.1624850000,22.3284550000 114.1626940000,22.3286830000 114.1627570000,22.3287520000 114.1627790000,22.3287780000 114.1627870000,22.3287880000 114.1628410000,22.3288540000 114.1629030000,22.3289240000 114.1630930000,22.3291340000 114.1631380000,22.3291860000 114.1632230000,22.3292960000 114.1632840000,22.3293610000 114.1635000000,22.3295940000 114.1635140000,22.3296110000 114.1635750000,22.3296810000 114.1635020000,22.3297380000 114.1631550000,22.3300000000 114.1630810000,22.3300580000 114.1630050000,22.3301180000 114.1629490000,22.3301610000 114.1626790000,22.3303700000 114.1623970000,22.3305890000 114.1623600000,22.3306180000 114.1621770000,22.3307600000 114.1621400000,22.3307880000 114.1618040000,22.3310490000 114.1617140000,22.3311190000 114.1616030000,22.3312060000 114.1615370000,22.3312570000 114.1614790000,22.3313010000 114.1613580000,22.3313950000 114.1611430000,22.3315550000 114.1611080000,22.3315800000 114.1609830000,22.3316740000 114.1608900000,22.3317470000 114.1608040000,22.3318130000 114.1607810000,22.3318300000 114.1604790000,22.3320650000 114.1602090000,22.3322800000 114.1600360000,22.3324040000 114.1598990000,22.3325110000 114.1598130000,22.3325770000 114.1596280000,22.3327220000 114.1594010000,22.3328990000 114.1591190000,22.3331180000 114.1591050000,22.3331290000 114.1590660000,22.3331600000 114.1588810000,22.3333040000 114.1588370000,22.3333380000 114.1585540000,22.3335580000 114.1584870000,22.3336100000 114.1583050000,22.3337520000 114.1580690000,22.3339340000 114.1576580000,22.3342510000 114.1574770000,22.3343960000 114.1574310000,22.3344320000 114.1573110000,22.3345220000 114.1572090000,22.3346010000 114.1570950000,22.3346930000 114.1566940000,22.3350050000 114.1565560000,22.3351120000 114.1563140000,22.3353000000 114.1562730000,22.3353310000 114.1559420000,22.3355880000 114.1558360000,22.3356710000 114.1557120000,22.3357670000 114.1555890000,22.3358630000 114.1554290000,22.3359870000 114.1552420000,22.3361320000 114.1551940000,22.3361690000 114.1551030000,22.3362410000 114.1543540000,22.3368140000 114.1543130000,22.3368460000 114.1540610000,22.3370390000 114.1538210000,22.3372230000 114.1537860000,22.3372510000 114.1536520000,22.3373560000 114.1535670000,22.3372660000 114.1533580000,22.3370430000 114.1532560000,22.3369820000 114.1531510000,22.3369150000 114.1530630000,22.3368570000 114.1523340000,22.3360600000 114.1521710000,22.3358650000 114.1518990000,22.3355480000 114.1518680000,22.3355200000 114.1518130000,22.3354580000 114.1517110000,22.3353580000 114.1516460000,22.3352990000 114.1515980000,22.3352590000 114.1515600000,22.3352220000 114.1513970000,22.3350540000 114.1509400000,22.3345090000 114.1508700000,22.3344190000 114.1508230000,22.3343580000 114.1508220000,22.3343110000 114.1507950000,22.3342870000 114.1507040000,22.3341960000 114.1506090000,22.3339690000 114.1505350000,22.3338840000 114.1504980000,22.3338410000 114.1503340000,22.3336540000 114.1502760000,22.3335930000 114.1502620000,22.3335780000 114.1502480000,22.3335640000 114.1502180000,22.3335330000 114.1501340000,22.3334450000 114.1500390000,22.3333370000 114.1499790000,22.3332720000 114.1498720000,22.3331530000 114.1498160000,22.3330910000 114.1497520000,22.3330190000 114.1496220000,22.3328600000 114.1493050000,22.3324440000 114.1490240000,22.3319790000 114.1489470000,22.3318590000 114.1489230000,22.3318210000 114.1488350000,22.3316290000 114.1487910000,22.3315260000 114.1486470000,22.3316010000 114.1484740000,22.3317260000 114.1481510000,22.3319750000 114.1479770000,22.3321140000 114.1476590000,22.3323760000 114.1476230000,22.3324050000 114.1475990000,22.3324260000 114.1475000000,22.3325080000 114.1471880000,22.3327510000 114.1470390000,22.3328660000 114.1466180000,22.3331790000 114.1465070000,22.3332610000 114.1463760000,22.3333590000 114.1462120000,22.3334830000 114.1460390000,22.3336410000 114.1459570000,22.3337560000 114.1459040000,22.3338430000 114.1458160000,22.3340190000 114.1457630000,22.3341290000 114.1457230000,22.3342110000 114.1456460000,22.3343680000 114.1455590000,22.3345480000 114.1454750000,22.3346610000 114.1454290000,22.3347400000 114.1453740000,22.3348220000 114.1453020000,22.3348950000 114.1452190000,22.3349660000 114.1451390000,22.3349860000 114.1450610000,22.3349980000 114.1450040000,22.3349950000 114.1449630000,22.3349830000 114.1449280000,22.3349680000 114.1448990000,22.3349470000 114.1448660000,22.3349170000 114.1448360000,22.3348790000 114.1448140000,22.3348400000 114.1447990000,22.3347920000 114.1447910000,22.3347410000 114.1447810000,22.3343800000 114.1447730000,22.3341950000 114.1447610000,22.3340150000 114.1446870000,22.3332730000 114.1446770000,22.3331360000 114.1446730000,22.3330050000 114.1446820000,22.3328400000 114.1446900000,22.3327600000 114.1447870000,22.3321680000 114.1448340000,22.3317610000 114.1448440000,22.3316660000 114.1448300000,22.3314700000 114.1447910000,22.3312660000 114.1447360000,22.3310880000 114.1446590000,22.3309180000 114.1445690000,22.3307660000 114.1444760000,22.3306320000 114.1444200000,22.3305770000 114.1442970000,22.3304740000 114.1441560000,22.3303830000 114.1439620000,22.3303490000 114.1439030000,22.3303420000 114.1438220000,22.3303390000 114.1437290000,22.3303430000 114.1435570000,22.3303870000 114.1434620000,22.3304270000 114.1433290000,22.3305200000 114.1432240000,22.3306090000 114.1430330000,22.3307920000 114.1428590000,22.3309590000 114.1426810000,22.3311130000 114.1425350000,22.3312390000 114.1423740000,22.3314190000 114.1423210000,22.3314690000 114.1422550000,22.3315260000 114.1421820000,22.3315830000 114.1418620000,22.3317710000 114.1416420000,22.3318950000 114.1412300000,22.3320430000 114.1409980000,22.3321260000 114.1407930000,22.3322060000 114.1406230000,22.3322820000 114.1403190000,22.3324240000 114.1401900000,22.3324920000 114.1395720000,22.3328080000 114.1394970000,22.3328500000 114.1385640000,22.3332330000 114.1378030000,22.3335180000 114.1373210000,22.3337010000 114.1368860000,22.3338730000 114.1365640000,22.3340150000 114.1362710000,22.3341510000 114.1359690000,22.3343040000 114.1356310000,22.3344910000 114.1354440000,22.3346060000 114.1353440000,22.3346670000 114.1352220000,22.3347460000 114.1350140000,22.3348820000 114.1348000000,22.3350240000 114.1344480000,22.3352610000 114.1342910000,22.3353690000 114.1341900000,22.3354590000 114.1338720000,22.3357390000 114.1334860000,22.3361210000 114.1332200000,22.3364150000 114.1330340000,22.3366250000 114.1327260000,22.3370270000 114.1325120000,22.3373330000 114.1322740000,22.3377130000 114.1321960000,22.3378480000 114.1320510000,22.3380930000 114.1318960000,22.3383900000 114.1318580000,22.3384640000 114.1316890000,22.3387910000 114.1313190000,22.3395860000 114.1310380000,22.3402110000 114.1309620000,22.3403700000 114.1308660000,22.3405680000 114.1307020000,22.3409030000 114.1306300000,22.3410380000 114.1305920000,22.3411100000 114.1305250000,22.3412340000 114.1304660000,22.3413420000 114.1303470000,22.3415350000 114.1302580000,22.3416670000 114.1301950000,22.3417640000 114.1300900000,22.3418930000 114.1300170000,22.3419770000 114.1299130000,22.3420940000 114.1297960000,22.3422120000 114.1296700000,22.3423320000 114.1295520000,22.3424400000 114.1294840000,22.3425000000 114.1293200000,22.3426370000 114.1291160000,22.3427790000 114.1289430000,22.3428890000 114.1287970000,22.3429780000 114.1286030000,22.3430850000 114.1283130000,22.3432270000 114.1281970000,22.3432800000 114.1280870000,22.3433250000 114.1278230000,22.3434330000 114.1275370000,22.3435510000 114.1272190000,22.3436900000 114.1270920000,22.3437490000 114.1269950000,22.3437970000 114.1269170000,22.3438390000 114.1268020000,22.3439050000 114.1265700000,22.3440470000 114.1263600000,22.3441870000 114.1261980000,22.3443040000 114.1260630000,22.3444120000 114.1259430000,22.3445150000 114.1257850000,22.3446620000 114.1256620000,22.3447850000 114.1254920000,22.3449680000 114.1252790000,22.3452360000 114.1251700000,22.3453840000 114.1250580000,22.3455550000 114.1249770000,22.3456920000 114.1248460000,22.3459330000 114.1246780000,22.3462410000 114.1246340000,22.3464060000 114.1246200000,22.3464560000 114.1246030000,22.3465190000 114.1245820000,22.3465970000 114.1245630000,22.3466700000 114.1245300000,22.3467900000 114.1244960000,22.3469180000 114.1244670000,22.3470260000 114.1244530000,22.3470760000 114.1244430000,22.3471290000 114.1244350000,22.3471890000 114.1244300000,22.3472230000 114.1243930000,22.3475460000 114.1243650000,22.3479040000 114.1243660000,22.3480910000 114.1243750000,22.3483980000 114.1243700000,22.3487140000 114.1243510000,22.3491910000 114.1242990000,22.3496090000 114.1241960000,22.3499950000 114.1240680000,22.3503030000 114.1239290000,22.3506140000 114.1237360000,22.3509000000 114.1236170000,22.3510480000 114.1233060000,22.3513820000 114.1231200000,22.3515280000 114.1228140000,22.3517660000 114.1226590000,22.3518510000 114.1221170000,22.3521330000 114.1220390000,22.3521610000 114.1219330000,22.3521910000 114.1217460000,22.3522390000 114.1216430000,22.3522680000 114.1214310000,22.3523020000 114.1211410000,22.3523410000 114.1207110000,22.3523730000 114.1203330000,22.3523730000 114.1199880000,22.3523650000 114.1194960000,22.3522790000 114.1191870000,22.3522180000 114.1188760000,22.3521210000 114.1185250000,22.3519850000 114.1181990000,22.3518490000 114.1179480000,22.3517290000 114.1175950000,22.3515240000 114.1171200000,22.3512030000 114.1167670000,22.3509350000 114.1163940000,22.3506770000 114.1161560000,22.3505160000 114.1158850000,22.3503530000 114.1156120000,22.3502090000 114.1153200000,22.3500660000 114.1151020000,22.3499700000 114.1122350000,22.3488850000 114.1118310000,22.3487140000 114.1114850000,22.3485670000 114.1110020000,22.3483410000 114.1108420000,22.3482640000 114.1067700000,22.3461380000 114.1065040000,22.3460130000 114.1062830000,22.3459150000 114.1060100000,22.3457980000 114.1057500000,22.3456900000 114.1055200000,22.3456000000 114.1053160000,22.3455250000 114.1050600000,22.3454400000 114.1048010000,22.3453580000 114.1045000000,22.3452660000 114.1042000000,22.3451750000 114.1039000000,22.3450920000 114.1036000000,22.3450220000 114.1033000000,22.3449580000 114.1030000000,22.3449000000 114.1026000000,22.3448350000 114.1020600000,22.3447660000 114.1017660000,22.3447330000 114.1014700000,22.3447070000 114.1011840000,22.3446860000 114.1009000000,22.3446750000 114.1003400000,22.3446570000 114.0957200000,22.3446110000 114.0956240000,22.3446120000 114.0945730000,22.3446100000 114.0943500000,22.3446090000 114.0939100000,22.3446010000 114.0937600000,22.3445980000 114.0932450000,22.3446000000 114.0929810000,22.3446070000 114.0927640000,22.3446250000 114.0924930000,22.3446550000 114.0921460000,22.3447160000 114.0920330000,22.3447350000 114.0918930000,22.3447670000 114.0917140000,22.3448180000 114.0915110000,22.3448750000 114.0912240000,22.3449820000 114.0909570000,22.3450960000 114.0906820000,22.3452200000 114.0903900000,22.3453580000 114.0901100000,22.3454820000 114.0897870000,22.3456310000 114.0895330000,22.3457580000 114.0892480000,22.3459070000 114.0889450000,22.3460940000 114.0886130000,22.3463450000 114.0883940000,22.3465310000 114.0882570000,22.3466630000 114.0880450000,22.3468980000 114.0879860000,22.3469680000 114.0878280000,22.3471710000 114.0875680000,22.3475740000 114.0873750000,22.3479670000 114.0872760000,22.3482430000 114.0872380000,22.3483480000 114.0871240000,22.3487340000 114.0871080000,22.3487870000 114.0868960000,22.3496110000 114.0868320000,22.3498440000 114.0866600000,22.3504700000 114.0866270000,22.3505780000 114.0865800000,22.3507360000 114.0865590000,22.3508010000 114.0865030000,22.3509750000 114.0863930000,22.3512790000 114.0863000000,22.3514870000 114.0861080000,22.3518650000 114.0858040000,22.3524010000 114.0854560000,22.3530980000 114.0852300000,22.3536390000 114.0850680000,22.3539900000 114.0847650000,22.3545370000 114.0846630000,22.3547200000 114.0846330000,22.3547730000 114.0843870000,22.3552250000 114.0842560000,22.3554610000 114.0840650000,22.3558200000 114.0836150000,22.3566400000 114.0832550000,22.3573150000 114.0832000000,22.3574180000 114.0831760000,22.3574620000 114.0831280000,22.3575540000 114.0825590000,22.3586130000 114.0823180000,22.3590690000 114.0822550000,22.3591920000 114.0820450000,22.3596010000 114.0819540000,22.3597770000 114.0818340000,22.3600100000 114.0817620000,22.3601520000 114.0784610000,22.3663210000 114.0784070000,22.3664220000 114.0783190000,22.3665850000 114.0778380000,22.3674460000 114.0777330000,22.3676290000 114.0774930000,22.3680440000 114.0772010000,22.3685740000 114.0770670000,22.3687970000 114.0770200000,22.3688770000 114.0769890000,22.3689200000 114.0769470000,22.3689820000 114.0768730000,22.3690820000 114.0767460000,22.3692410000 114.0765650000,22.3694190000 114.0764950000,22.3694810000 114.0763740000,22.3695900000 114.0761860000,22.3697380000 114.0760190000,22.3698570000 114.0758750000,22.3699550000 114.0756900000,22.3700820000 114.0755110000,22.3702040000 114.0752390000,22.3703750000 114.0743130000,22.3709420000 114.0738940000,22.3712060000 114.0734160000,22.3715060000 114.0731480000,22.3716760000 114.0714360000,22.3727580000 114.0700810000,22.3735450000 114.0691450000,22.3740380000 114.0686290000,22.3743360000 114.0680660000,22.3746380000 114.0674240000,22.3750220000 114.0671140000,22.3752200000 114.0670650000,22.3752560000 114.0670390000,22.3752760000 114.0669000000,22.3753850000 114.0667150000,22.3755200000 114.0665630000,22.3756400000 114.0664200000,22.3757600000 114.0662790000,22.3758800000 114.0661410000,22.3760010000 114.0660170000,22.3761210000 114.0658870000,22.3762500000 114.0657670000,22.3763700000 114.0656400000,22.3765000000 114.0655140000,22.3766300000 114.0653940000,22.3767600000 114.0652830000,22.3768900000 114.0651700000,22.3770250000 114.0650620000,22.3771600000 114.0649600000,22.3772950000 114.0648600000,22.3774300000 114.0647660000,22.3775610000 114.0646670000,22.3777000000 114.0645780000,22.3778300000 114.0644870000,22.3779700000 114.0643920000,22.3781210000 114.0643070000,22.3782700000 114.0642190000,22.3784300000 114.0641320000,22.3785900000 114.0640530000,22.3787400000 114.0639750000,22.3789000000 114.0639000000,22.3790600000 114.0638300000,22.3792200000 114.0637600000,22.3793850000 114.0636900000,22.3795600000 114.0636290000,22.3797200000 114.0635680000,22.3799000000 114.0635100000,22.3800800000 114.0634500000,22.3802800000 114.0633950000,22.3804800000 114.0633400000,22.3807000000 114.0632940000,22.3809100000 114.0632710000,22.3810420000 114.0593990000,22.4053980000 114.0593770000,22.4055790000 114.0593560000,22.4058000000 114.0593450000,22.4060000000 114.0593400000,22.4062000000 114.0593380000,22.4063500000 114.0593370000,22.4065000000 114.0593370000,22.4066500000 114.0593410000,22.4068000000 114.0593500000,22.4069800000 114.0593600000,22.4071500000 114.0593800000,22.4073700000 114.0594020000,22.4075490000 114.0594280000,22.4077230000 114.0594530000,22.4078830000 114.0594740000,22.4080010000 114.0594860000,22.4080650000 114.0595200000,22.4082420000 114.0595660000,22.4084530000 114.0596020000,22.4086000000 114.0596570000,22.4087970000 114.0597120000,22.4089790000 114.0597530000,22.4091000000 114.0598070000,22.4092470000 114.0598670000,22.4093960000 114.0599300000,22.4095450000 114.0600150000,22.4097290000 114.0600810000,22.4098610000 114.0601500000,22.4099950000 114.0602360000,22.4101490000 114.0603220000,22.4102920000 114.0604160000,22.4104460000 114.0607530000,22.4109680000 114.0620380000,22.4129560000 114.0621710000,22.4131700000 114.0623380000,22.4134550000 114.0624760000,22.4137160000 114.0626170000,22.4140090000 114.0626930000,22.4141800000 114.0627610000,22.4143470000 114.0629210000,22.4147810000 114.0630140000,22.4150830000 114.0630920000,22.4153790000 114.0631570000,22.4156740000 114.0631990000,22.4159040000 114.0632390000,22.4161610000 114.0632940000,22.4166630000 114.0633480000,22.4172350000 114.0633840000,22.4182370000 114.0634030000,22.4184270000 114.0634250000,22.4186380000 114.0634610000,22.4189950000 114.0634650000,22.4190400000 114.0636610000,22.4200300000 114.0638150000,22.4206580000 114.0639010000,22.4209710000 114.0639970000,22.4213920000 114.0640380000,22.4215880000 114.0640540000,22.4216990000 114.0640860000,22.4220490000 114.0641000000,22.4223850000 114.0641040000,22.4232760000 114.0640900000,22.4243760000 114.0640650000,22.4259440000 114.0640490000,22.4262990000 114.0640100000,22.4268180000 114.0639460000,22.4274170000 114.0639040000,22.4277240000 114.0638490000,22.4280760000 114.0637520000,22.4285890000 114.0636170000,22.4291910000 114.0635110000,22.4296030000 114.0633510000,22.4301510000 114.0632340000,22.4305050000 114.0631410000,22.4307830000 114.0629330000,22.4313270000 114.0628380000,22.4315540000 114.0626210000,22.4320250000 114.0624500000,22.4323680000 114.0622730000,22.4326920000 114.0620860000,22.4330150000 114.0617990000,22.4334680000 114.0616030000,22.4337560000 114.0612690000,22.4342100000 114.0609900000,22.4345610000 114.0606940000,22.4349150000 114.0605570000,22.4350760000 114.0599760000,22.4357090000 114.0596510000,22.4360360000 114.0594850000,22.4362000000 114.0590450000,22.4366100000 114.0588800000,22.4367570000 114.0582100000,22.4373210000 114.0581420000,22.4373770000 114.0573420000,22.4379790000 114.0565280000,22.4385340000 114.0560270000,22.4388750000 114.0557520000,22.4390750000 114.0551310000,22.4395470000 114.0543340000,22.4401750000 114.0542340000,22.4402510000 114.0539030000,22.4405030000 114.0538070000,22.4405760000 114.0535920000,22.4407400000 114.0526830000,22.4414320000 114.0523280000,22.4417320000 114.0522060000,22.4418380000 114.0521860000,22.4418550000 114.0517480000,22.4422600000 114.0514320000,22.4426060000 114.0511850000,22.4428770000 114.0510370000,22.4430560000 114.0506700000,22.4435560000 114.0503530000,22.4440540000 114.0500970000,22.4444800000 114.0499460000,22.4447510000 114.0499150000,22.4448110000 114.0497400000,22.4449990000 114.0496490000,22.4451450000 114.0495420000,22.4453240000 114.0494060000,22.4455620000 114.0492730000,22.4458040000 114.0492250000,22.4458920000 114.0491950000,22.4459490000 114.0491220000,22.4460920000 114.0488260000,22.4467050000 114.0487220000,22.4469030000 114.0486530000,22.4470230000 114.0485660000,22.4471570000 114.0484680000,22.4472820000 114.0483550000,22.4474100000 114.0482400000,22.4475190000 114.0481130000,22.4476270000 114.0479960000,22.4477160000 114.0478580000,22.4478130000 114.0477180000,22.4479030000 114.0472410000,22.4481890000 114.0470240000,22.4483100000 114.0468410000,22.4484030000 114.0466370000,22.4484940000 114.0464580000,22.4485670000 114.0460590000,22.4487010000 114.0458760000,22.4487470000 114.0452900000,22.4489210000 114.0449110000,22.4489510000 114.0446200000,22.4489700000 114.0443780000,22.4489780000 114.0440370000,22.4489690000 114.0439780000,22.4489650000 114.0438700000,22.4489560000 114.0435940000,22.4489210000 114.0434410000,22.4488880000 114.0431640000,22.4488250000 114.0429890000,22.4487850000 114.0427130000,22.4486970000 114.0424630000,22.4486000000 114.0422390000,22.4484970000 114.0419140000,22.4483230000 114.0415970000,22.4481400000 114.0413090000,22.4479250000 114.0412110000,22.4478540000 114.0409350000,22.4476020000 114.0407350000,22.4474060000 114.0405670000,22.4472060000 114.0403820000,22.4469720000 114.0402220000,22.4467310000 114.0401590000,22.4466170000 114.0401230000,22.4465550000 114.0400820000,22.4464840000 114.0399910000,22.4463370000 114.0398460000,22.4460860000 114.0398070000,22.4460130000 114.0397820000,22.4459590000 114.0397260000,22.4458060000 114.0396530000,22.4455410000 114.0396020000,22.4453330000 114.0395760000,22.4452030000 114.0395610000,22.4451190000 114.0395430000,22.4450210000 114.0395310000,22.4448850000 114.0395020000,22.4445300000 114.0394950000,22.4439630000 114.0394930000,22.4438140000 114.0394910000,22.4433620000 114.0394890000,22.4427990000 114.0394840000,22.4424070000 114.0394910000,22.4416630000 114.0394890000,22.4414610000 114.0394730000,22.4413070000 114.0394320000,22.4408950000 114.0394260000,22.4408590000 114.0394220000,22.4408270000 114.0393740000,22.4405640000 114.0392870000,22.4402410000 114.0392650000,22.4401670000 114.0391990000,22.4399460000 114.0390600000,22.4396120000 114.0389740000,22.4394210000 114.0387510000,22.4390540000 114.0385940000,22.4388200000 114.0384640000,22.4386480000 114.0382690000,22.4384160000 114.0378910000,22.4380200000 114.0348760000,22.4354580000 114.0346760000,22.4353000000 114.0342940000,22.4350340000 114.0341400000,22.4349370000 114.0340060000,22.4348550000 114.0338560000,22.4347670000 114.0337340000,22.4347010000 114.0335840000,22.4346200000 114.0334210000,22.4345380000 114.0332700000,22.4344660000 114.0331010000,22.4343920000 114.0328840000,22.4343090000 114.0327080000,22.4342450000 114.0325390000,22.4341930000 114.0322720000,22.4341230000 114.0320530000,22.4340720000 114.0318280000,22.4340240000 114.0316460000,22.4339960000 114.0314640000,22.4339710000 114.0312930000,22.4339480000 114.0311220000,22.4339350000 114.0309250000,22.4339210000 114.0308320000,22.4339170000 114.0306000000,22.4339160000 114.0303970000,22.4339210000 114.0301940000,22.4339280000 114.0299510000,22.4339430000 114.0296770000,22.4339780000 114.0294210000,22.4340150000 114.0290780000,22.4340720000 114.0280730000,22.4342590000 114.0262680000,22.4345510000 114.0257210000,22.4346490000 114.0253750000,22.4347070000 114.0250460000,22.4347710000 114.0246280000,22.4348450000 114.0240040000,22.4349520000 114.0229390000,22.4351390000 114.0224110000,22.4352280000 114.0215820000,22.4354010000 114.0201070000,22.4357090000 114.0199360000,22.4357490000 114.0196810000,22.4358100000 114.0194490000,22.4358730000 114.0192630000,22.4359310000 114.0189400000,22.4360410000 114.0186990000,22.4361380000 114.0184560000,22.4362410000 114.0179270000,22.4364820000 114.0176730000,22.4366040000 114.0175020000,22.4366940000 114.0173470000,22.4367760000 114.0169250000,22.4369860000 114.0165600000,22.4371580000 114.0162780000,22.4372850000 114.0161110000,22.4373560000 114.0158410000,22.4374550000 114.0157000000,22.4375040000 114.0155230000,22.4375580000 114.0153260000,22.4376140000 114.0152660000,22.4376300000 114.0150050000,22.4376970000 114.0147500000,22.4377490000 114.0145790000,22.4377780000 114.0143180000,22.4378180000 114.0141250000,22.4378390000 114.0139310000,22.4378550000 114.0137990000,22.4378640000 114.0136260000,22.4378730000 114.0134380000,22.4378760000 114.0131820000,22.4378730000 114.0129320000,22.4378590000 114.0126620000,22.4378380000 114.0124080000,22.4378110000 114.0120650000,22.4377610000 114.0116560000,22.4376840000 114.0112260000,22.4376050000 114.0107100000,22.4375030000 114.0103410000,22.4374240000 114.0098750000,22.4373160000 114.0090270000,22.4371010000 114.0081280000,22.4368270000 114.0073600000,22.4365630000 114.0065620000,22.4361810000 114.0063620000,22.4360950000 114.0062650000,22.4360510000 114.0061690000,22.4360040000 114.0060680000,22.4359450000 114.0059450000,22.4358640000 114.0058910000,22.4358230000 114.0058440000,22.4357750000 114.0058020000,22.4357240000 114.0057620000,22.4356640000 114.0057320000,22.4356050000 114.0056940000,22.4355190000 114.0056690000,22.4354530000 114.0056500000,22.4353720000 114.0056350000,22.4352330000 114.0056310000,22.4351210000 114.0056350000,22.4349530000 114.0056460000,22.4347140000 114.0056480000,22.4344530000 114.0056390000,22.4343550000 114.0056210000,22.4342530000 114.0055790000,22.4341310000 114.0055340000,22.4340460000 114.0054800000,22.4339510000 114.0054180000,22.4338590000 114.0053620000,22.4337970000 114.0052890000,22.4337350000 114.0051980000,22.4336770000 114.0051110000,22.4336300000 114.0050220000,22.4336000000 114.0049030000,22.4335800000 114.0047570000,22.4335700000 114.0045950000,22.4335780000 114.0044530000,22.4335990000 114.0043200000,22.4336320000 114.0040780000,22.4337110000 114.0037610000,22.4338170000 114.0029890000,22.4340860000 114.0029200000,22.4341130000 114.0026760000,22.4342070000 114.0024610000,22.4343020000 114.0022430000,22.4344110000 114.0020190000,22.4345280000 114.0017120000,22.4347000000 114.0014320000,22.4348640000 114.0013790000,22.4349000000 114.0013150000,22.4349430000 114.0012300000,22.4350040000 114.0011320000,22.4350770000 114.0008480000,22.4352920000 114.0005800000,22.4355630000 114.0003680000,22.4357760000 114.0002830000,22.4358760000 114.0001740000,22.4360040000 114.0000640000,22.4361480000 113.9998150000,22.4364520000 113.9995920000,22.4367510000 113.9993510000,22.4371560000 113.9991280000,22.4375380000 113.9987110000,22.4383710000 113.9985220000,22.4387100000 113.9984420000,22.4389980000 113.9983940000,22.4391700000 113.9983860000,22.4392080000 113.9983700000,22.4392830000 113.9981560000,22.4392680000 113.9980700000,22.4392590000 113.9979940000,22.4392490000 113.9979270000,22.4392680000 113.9977800000,22.4392400000 113.9976030000,22.4392130000 113.9970330000,22.4391070000 113.9964210000,22.4390080000 113.9962760000,22.4390000000 113.9962760000,22.4389380000 113.9962770000,22.4388330000 113.9962800000,22.4386060000 113.9962910000,22.4384270000 113.9963110000,22.4382490000 113.9963340000,22.4380960000 113.9963380000,22.4380710000 113.9963730000,22.4378950000 113.9964100000,22.4377400000 113.9964540000,22.4375980000 113.9964740000,22.4375360000 113.9965190000,22.4374120000 113.9965750000,22.4372640000 113.9966370000,22.4371150000 113.9967040000,22.4369670000 113.9967760000,22.4368210000 113.9968530000,22.4366770000 113.9969340000,22.4365350000 113.9970200000,22.4363960000 113.9970520000,22.4363480000 113.9971100000,22.4362590000 113.9972050000,22.4361250000 113.9973040000,22.4359930000 113.9973770000,22.4359050000 113.9973920000,22.4358870000 113.9974070000,22.4358690000 113.9975070000,22.4357480000 113.9977090000,22.4358810000 113.9977260000,22.4358920000 113.9982570000,22.4362260000 113.9983360000,22.4362770000 113.9983740000,22.4363010000 113.9986260000,22.4364630000 113.9986460000,22.4364760000 113.9988330000,22.4365970000 113.9989500000,22.4366720000 113.9989730000,22.4366860000 113.9992160000,22.4368400000 113.9993240000,22.4369080000 113.9993440000,22.4369250000 113.9991080000,22.4373400000 113.9990440000,22.4374840000 113.9990160000,22.4375460000 113.9988170000,22.4379860000 113.9986030000,22.4384590000 113.9985220000,22.4387100000 113.9984420000,22.4389980000 113.9983940000,22.4391700000 113.9983860000,22.4392080000 113.9983700000,22.4392830000 113.9983510000,22.4393740000 113.9983240000,22.4395210000 113.9983450000,22.4396100000 113.9983480000,22.4396670000 113.9983790000,22.4398790000 113.9984050000,22.4400900000 113.9984270000,22.4403060000 113.9984420000,22.4403980000 113.9984700000,22.4405350000 113.9985840000,22.4411750000 113.9987080000,22.4416570000 113.9987890000,22.4418760000 113.9990670000,22.4430000000 113.9992300000,22.4438020000 113.9993110000,22.4444760000 113.9994420000,22.4457730000 113.9995290000,22.4466330000 113.9995470000,22.4468800000 113.9995510000,22.4470700000 113.9995400000,22.4473300000 113.9995280000,22.4474430000 113.9995090000,22.4475750000 113.9994860000,22.4477060000 113.9994590000,22.4478330000 113.9994190000,22.4479870000 113.9993680000,22.4481450000 113.9993110000,22.4483000000 113.9992120000,22.4485200000 113.9991260000,22.4486910000 113.9990460000,22.4488370000 113.9989150000,22.4490560000 113.9987660000,22.4493030000 113.9984100000,22.4499110000 113.9975830000,22.4513450000 113.9972600000,22.4518810000 113.9965420000,22.4530000000 113.9963070000,22.4533730000 113.9942930000,22.4565360000 113.9940490000,22.4569380000 113.9938860000,22.4572320000 113.9937870000,22.4574310000 113.9937070000,22.4576040000 113.9936270000,22.4577920000 113.9935540000,22.4579860000 113.9934840000,22.4581910000 113.9933800000,22.4585360000 113.9933090000,22.4588290000 113.9932580000,22.4590910000 113.9931870000,22.4595560000 113.9931500000,22.4598750000 113.9931290000,22.4600880000 113.9931190000,22.4602600000 113.9931100000,22.4605600000 113.9931050000,22.4608780000 113.9931210000,22.4611440000 113.9931410000,22.4613430000 113.9931880000,22.4616910000 113.9932060000,22.4617850000 113.9932290000,22.4618940000 113.9933740000,22.4619250000 113.9934870000,22.4619420000 113.9936040000,22.4619610000 113.9938310000,22.4619640000 113.9939580000,22.4619960000 113.9948050000,22.4620110000 113.9955990000,22.4620240000 113.9957660000,22.4620250000 113.9959320000,22.4620220000 113.9960990000,22.4620140000 113.9962650000,22.4620030000 113.9965060000,22.4619880000 113.9965650000,22.4619910000 113.9966230000,22.4620010000 113.9966800000,22.4620160000 113.9967650000,22.4620600000 113.9967930000,22.4620970000 113.9968280000,22.4621280000 113.9968720000,22.4622280000 113.9969050000,22.4623310000 113.9969260000,22.4624370000 113.9970640000,22.4630710000 113.9970930000,22.4632310000 113.9971420000,22.4635060000 113.9972530000,22.4640140000 113.9973320000,22.4643060000 113.9973950000,22.4645130000 113.9974520000,22.4646950000 113.9974960000,22.4648400000 113.9976270000,22.4652000000 113.9976980000,22.4653950000 113.9977990000,22.4656380000 113.9980200000,22.4661130000 113.9980420000,22.4661570000 113.9980570000,22.4661860000 113.9981350000,22.4663450000 113.9983910000,22.4667920000 113.9984820000,22.4669500000 113.9984850000,22.4669550000 113.9992730000,22.4681630000 113.9993240000,22.4682390000 113.9997160000,22.4688590000 113.9997900000,22.4689700000 113.9998250000,22.4690170000 114.0001160000,22.4693920000 114.0006440000,22.4699580000 114.0007670000,22.4700780000 114.0009060000,22.4702020000 114.0009270000,22.4702210000 114.0009950000,22.4702770000 114.0011030000,22.4703670000 114.0011170000,22.4703770000 114.0012360000,22.4704710000 114.0016390000,22.4707550000 114.0017940000,22.4708600000 114.0020400000,22.4710270000 114.0021230000,22.4710830000 114.0022210000,22.4711440000 114.0022560000,22.4710830000 114.0023110000,22.4709630000 114.0023620000,22.4708430000 114.0024120000,22.4707220000 114.0024590000,22.4706000000 114.0025030000,22.4704770000 114.0025450000,22.4703530000 114.0026200000,22.4701210000 114.0027230000,22.4697860000 114.0030270000,22.4687990000 114.0030790000,22.4686440000 114.0031390000,22.4684910000 114.0032050000,22.4683400000 114.0032900000,22.4681700000 114.0033570000,22.4680470000 114.0034260000,22.4679270000 114.0034300000,22.4679220000 114.0035330000,22.4677680000 114.0036300000,22.4676350000 114.0037330000,22.4675070000 114.0038430000,22.4673820000 114.0039580000,22.4672630000 114.0040980000,22.4671300000 114.0042450000,22.4670040000 114.0043990000,22.4668850000 114.0045600000,22.4667730000 114.0047260000,22.4666700000 114.0049750000,22.4665310000 114.0050510000,22.4664910000 114.0051880000,22.4664190000 114.0052900000,22.4663640000 114.0053680000,22.4663220000 114.0053130000,22.4662270000 114.0052220000,22.4660760000 114.0049830000,22.4656960000 114.0049400000,22.4656260000 114.0048310000,22.4654510000 114.0047390000,22.4653050000 114.0046530000,22.4651560000 114.0045730000,22.4650050000 114.0044990000,22.4648510000 114.0044120000,22.4646500000 114.0043340000,22.4644460000 114.0042540000,22.4642010000 114.0042500000,22.4641860000 114.0042150000,22.4640180000 114.0041980000,22.4639370000 114.0041870000,22.4638830000 114.0041400000,22.4636620000 114.0041030000,22.4634880000 114.0040800000,22.4633390000 114.0040700000,22.4632710000 114.0040600000,22.4631820000 114.0040460000,22.4630540000 114.0040320000,22.4628350000 114.0040310000,22.4628090000 114.0040270000,22.4626160000 114.0040290000,22.4623460000 114.0040440000,22.4621930000 114.0040520000,22.4621030000 114.0039450000,22.4621010000 114.0038240000,22.4620990000 114.0024350000,22.4620730000 114.0023040000,22.4620710000 114.0021820000,22.4620650000 114.0020360000,22.4620510000 114.0018470000,22.4620230000 114.0018570000,22.4618510000 114.0018610000,22.4617760000 114.0018740000,22.4617030000 114.0018960000,22.4616310000 114.0019260000,22.4615620000 114.0019650000,22.4614960000 114.0021680000,22.4611370000 114.0022740000,22.4609260000 114.0023510000,22.4607670000 114.0023690000,22.4607330000 114.0023910000,22.4606610000 114.0024020000,22.4606310000 114.0025130000,22.4604160000 114.0028380000,22.4597850000 114.0029490000,22.4596110000 114.0030670000,22.4594580000 114.0030850000,22.4594240000 114.0030900000,22.4593110000 114.0030930000,22.4592860000 114.0030970000,22.4592520000 114.0030970000,22.4592350000 114.0030910000,22.4591670000 114.0030740000,22.4591090000 114.0030640000,22.4590830000 114.0030510000,22.4590580000 114.0030310000,22.4590180000 114.0030020000,22.4589720000 114.0029400000,22.4588740000 114.0028610000,22.4588210000 114.0027310000,22.4586260000 114.0026110000,22.4584900000 114.0022140000,22.4580450000 114.0021430000,22.4579760000 114.0020510000,22.4579400000 114.0020460000,22.4579400000 114.0020080000,22.4579430000 114.0019580000,22.4579570000 114.0019050000,22.4579840000 114.0018680000,22.4580120000</coordinates>
                </LineString>
                <ExtendedData>
                    <Data name="length">
                        <value>82820.36648495916</value>
                    </Data>
                    <Data name="duration">
                        <value>01:32:22</value>
                    </Data>
                </ExtendedData>
            </Placemark>
        </Document>
    </Document>
</kml>