<?xml version="1.0" encoding="UTF-8"?>
<kml xmlns="http://www.opengis.net/kml/2.2" xmlns:gx="http://www.google.com/kml/ext/2.2">
    <Document>
        <name>Route</name>
        <Folder>
            <name>Route Request</name>
            <Placemark>
                <address>Intercity Through Train Concourse / Exit C Concourse of MTR Hung Hom Station, 8, Cheong Wan Road, The Metropolis, Yau Tsim Mong District, Kowloon, Hong Kong, KIL 3348, PRC</address>
                <Point>
                    <coordinates>114.1822256191,22.3028636703</coordinates>
                </Point>
                <ExtendedData>
                    <Data name="house_number">
                        <value>8</value>
                    </Data>
                    <Data name="building">
                        <value>Intercity Through Train Concourse / Exit C Concourse of MTR Hung Hom Station</value>
                    </Data>
                    <Data name="commercial">
                        <value>The Metropolis</value>
                    </Data>
                    <Data name="postcode">
                        <value>KIL 3348</value>
                    </Data>
                    <Data name="country_code">
                        <value>cn</value>
                    </Data>
                    <Data name="county">
                        <value>Yau Tsim Mong District</value>
                    </Data>
                    <Data name="region">
                        <value>Kowloon</value>
                    </Data>
                    <Data name="state">
                        <value>Hong Kong</value>
                    </Data>
                    <Data name="country">
                        <value>PRC</value>
                    </Data>
                    <Data name="road">
                        <value>Cheong Wan Road</value>
                    </Data>
                </ExtendedData>
            </Placemark>
            <Placemark>
                <address>Mody Road Tsim Sha Tsui, Chatham Road South, Kwun Chung, Tsim Sha Tsui, Yau Tsim Mong District, Kowloon, Hong Kong, KIL 3348, PRC</address>
                <Point>
                    <coordinates>114.1758514477,22.2986105728</coordinates>
                </Point>
                <ExtendedData>
                    <Data name="neighbourhood">
                        <value>Kwun Chung</value>
                    </Data>
                    <Data name="suburb">
                        <value>Tsim Sha Tsui</value>
                    </Data>
                    <Data name="postcode">
                        <value>KIL 3348</value>
                    </Data>
                    <Data name="country_code">
                        <value>cn</value>
                    </Data>
                    <Data name="county">
                        <value>Yau Tsim Mong District</value>
                    </Data>
                    <Data name="region">
                        <value>Kowloon</value>
                    </Data>
                    <Data name="bus_stop">
                        <value>Mody Road Tsim Sha Tsui</value>
                    </Data>
                    <Data name="state">
                        <value>Hong Kong</value>
                    </Data>
                    <Data name="country">
                        <value>PRC</value>
                    </Data>
                    <Data name="road">
                        <value>Chatham Road South</value>
                    </Data>
                </ExtendedData>
            </Placemark>
            <Placemark>
                <address>Pacific Coffee, Observatory Road, Kwun Chung, Tsim Sha Tsui, Yau Tsim Mong District, Kowloon, Hong Kong, KIL 3348, PRC</address>
                <Point>
                    <coordinates>114.1715994065,22.3012336009</coordinates>
                </Point>
                <ExtendedData>
                    <Data name="neighbourhood">
                        <value>Kwun Chung</value>
                    </Data>
                    <Data name="suburb">
                        <value>Tsim Sha Tsui</value>
                    </Data>
                    <Data name="postcode">
                        <value>KIL 3348</value>
                    </Data>
                    <Data name="country_code">
                        <value>cn</value>
                    </Data>
                    <Data name="county">
                        <value>Yau Tsim Mong District</value>
                    </Data>
                    <Data name="region">
                        <value>Kowloon</value>
                    </Data>
                    <Data name="state">
                        <value>Hong Kong</value>
                    </Data>
                    <Data name="country">
                        <value>PRC</value>
                    </Data>
                    <Data name="cafe">
                        <value>Pacific Coffee</value>
                    </Data>
                    <Data name="road">
                        <value>Observatory Road</value>
                    </Data>
                </ExtendedData>
            </Placemark>
            <Placemark>
                <address>Mongkok Market Complex, Argyle Street, Kwun Chung, Mong Kok, Yau Tsim Mong District, Kowloon, Hong Kong, KIL 3348, PRC</address>
                <Point>
                    <coordinates>114.1670883792,22.3188304287</coordinates>
                </Point>
                <ExtendedData>
                    <Data name="neighbourhood">
                        <value>Kwun Chung</value>
                    </Data>
                    <Data name="suburb">
                        <value>Mong Kok</value>
                    </Data>
                    <Data name="postcode">
                        <value>KIL 3348</value>
                    </Data>
                    <Data name="country_code">
                        <value>cn</value>
                    </Data>
                    <Data name="county">
                        <value>Yau Tsim Mong District</value>
                    </Data>
                    <Data name="region">
                        <value>Kowloon</value>
                    </Data>
                    <Data name="bus_stop">
                        <value>Mongkok Market Complex</value>
                    </Data>
                    <Data name="state">
                        <value>Hong Kong</value>
                    </Data>
                    <Data name="country">
                        <value>PRC</value>
                    </Data>
                    <Data name="road">
                        <value>Argyle Street</value>
                    </Data>
                </ExtendedData>
            </Placemark>
            <Placemark>
                <address>The Long Beach, Hoi Fai Road, Kwun Chung, Tai Kok Tsui, Yau Tsim Mong District, Kowloon, Hong Kong, KIL 3348, PRC</address>
                <Point>
                    <coordinates>114.1563687942,22.3191044970</coordinates>
                </Point>
                <ExtendedData>
                    <Data name="neighbourhood">
                        <value>Kwun Chung</value>
                    </Data>
                    <Data name="suburb">
                        <value>Tai Kok Tsui</value>
                    </Data>
                    <Data name="postcode">
                        <value>KIL 3348</value>
                    </Data>
                    <Data name="country_code">
                        <value>cn</value>
                    </Data>
                    <Data name="county">
                        <value>Yau Tsim Mong District</value>
                    </Data>
                    <Data name="region">
                        <value>Kowloon</value>
                    </Data>
                    <Data name="bus_stop">
                        <value>The Long Beach</value>
                    </Data>
                    <Data name="state">
                        <value>Hong Kong</value>
                    </Data>
                    <Data name="country">
                        <value>PRC</value>
                    </Data>
                    <Data name="road">
                        <value>Hoi Fai Road</value>
                    </Data>
                </ExtendedData>
            </Placemark>
            <Placemark>
                <Point>
                    <coordinates>113.9532865623,22.2969130702</coordinates>
                </Point>
            </Placemark>
            <Placemark>
                <Point>
                    <coordinates>113.9448279870,22.2865670736</coordinates>
                </Point>
            </Placemark>
            <Placemark>
                <address>Expo Road West, Pillar Point, Tung Chung, New Territories, Hong Kong, PRC</address>
                <Point>
                    <coordinates>113.9403396528,22.2895455861</coordinates>
                </Point>
                <ExtendedData>
                    <Data name="suburb">
                        <value>Pillar Point</value>
                    </Data>
                    <Data name="country_code">
                        <value>cn</value>
                    </Data>
                    <Data name="routingVisited">
                        <value>false</value>
                    </Data>
                    <Data name="region">
                        <value>New Territories</value>
                    </Data>
                    <Data name="state">
                        <value>Hong Kong</value>
                    </Data>
                    <Data name="town">
                        <value>Tung Chung</value>
                    </Data>
                    <Data name="country">
                        <value>PRC</value>
                    </Data>
                    <Data name="road">
                        <value>Expo Road West</value>
                    </Data>
                </ExtendedData>
            </Placemark>
            <Placemark>
                <Point>
                    <coordinates>113.9322219694,22.2761302472</coordinates>
                </Point>
                <ExtendedData>
                    <Data name="routingVisited">
                        <value>false</value>
                    </Data>
                </ExtendedData>
            </Placemark>
            <Placemark>
                <Point>
                    <coordinates>113.9403399128,22.2895996654</coordinates>
                </Point>
                <ExtendedData>
                    <Data name="routingVisited">
                        <value>false</value>
                    </Data>
                </ExtendedData>
            </Placemark>
            <Placemark>
                <Point>
                    <coordinates>113.9532227474,22.2970124399</coordinates>
                </Point>
            </Placemark>
            <Placemark>
                <address>Tower 5, Hoi Fai Road, Kwun Chung, Tai Kok Tsui, Yau Tsim Mong District, Kowloon, Hong Kong, KIL 3348, PRC</address>
                <Point>
                    <coordinates>114.1569000900,22.3188310610</coordinates>
                </Point>
                <ExtendedData>
                    <Data name="neighbourhood">
                        <value>Kwun Chung</value>
                    </Data>
                    <Data name="building">
                        <value>Tower 5</value>
                    </Data>
                    <Data name="suburb">
                        <value>Tai Kok Tsui</value>
                    </Data>
                    <Data name="postcode">
                        <value>KIL 3348</value>
                    </Data>
                    <Data name="country_code">
                        <value>cn</value>
                    </Data>
                    <Data name="county">
                        <value>Yau Tsim Mong District</value>
                    </Data>
                    <Data name="region">
                        <value>Kowloon</value>
                    </Data>
                    <Data name="state">
                        <value>Hong Kong</value>
                    </Data>
                    <Data name="country">
                        <value>PRC</value>
                    </Data>
                    <Data name="road">
                        <value>Hoi Fai Road</value>
                    </Data>
                </ExtendedData>
            </Placemark>
            <Placemark>
                <address>Anchor Street Playground Public Toilet, Anchor Street, Kwun Chung, Mong Kok, Yau Tsim Mong District, Kowloon, Hong Kong, KIL 3348, PRC</address>
                <Point>
                    <coordinates>114.1652724343,22.3195547487</coordinates>
                </Point>
                <ExtendedData>
                    <Data name="neighbourhood">
                        <value>Kwun Chung</value>
                    </Data>
                    <Data name="suburb">
                        <value>Mong Kok</value>
                    </Data>
                    <Data name="postcode">
                        <value>KIL 3348</value>
                    </Data>
                    <Data name="country_code">
                        <value>cn</value>
                    </Data>
                    <Data name="county">
                        <value>Yau Tsim Mong District</value>
                    </Data>
                    <Data name="region">
                        <value>Kowloon</value>
                    </Data>
                    <Data name="state">
                        <value>Hong Kong</value>
                    </Data>
                    <Data name="toilets">
                        <value>Anchor Street Playground Public Toilet</value>
                    </Data>
                    <Data name="country">
                        <value>PRC</value>
                    </Data>
                    <Data name="road">
                        <value>Anchor Street</value>
                    </Data>
                </ExtendedData>
            </Placemark>
            <Placemark>
                <address>Mannings, Nathan Road, Kwun Chung, King's Park, Yau Tsim Mong District, Kowloon, Hong Kong, KIL 3348, PRC</address>
                <Point>
                    <coordinates>114.1713045010,22.3115607627</coordinates>
                </Point>
                <ExtendedData>
                    <Data name="neighbourhood">
                        <value>Kwun Chung</value>
                    </Data>
                    <Data name="suburb">
                        <value>King's Park</value>
                    </Data>
                    <Data name="postcode">
                        <value>KIL 3348</value>
                    </Data>
                    <Data name="country_code">
                        <value>cn</value>
                    </Data>
                    <Data name="pharmacy">
                        <value>Mannings</value>
                    </Data>
                    <Data name="county">
                        <value>Yau Tsim Mong District</value>
                    </Data>
                    <Data name="region">
                        <value>Kowloon</value>
                    </Data>
                    <Data name="state">
                        <value>Hong Kong</value>
                    </Data>
                    <Data name="country">
                        <value>PRC</value>
                    </Data>
                    <Data name="road">
                        <value>Nathan Road</value>
                    </Data>
                </ExtendedData>
            </Placemark>
            <Placemark>
                <address>Miramar Shopping Centre, Kimberley Road, Kwun Chung, Tsim Sha Tsui, Yau Tsim Mong District, Kowloon, Hong Kong, KIL 3348, PRC</address>
                <Point>
                    <coordinates>114.1722489792,22.3000313685</coordinates>
                </Point>
                <ExtendedData>
                    <Data name="neighbourhood">
                        <value>Kwun Chung</value>
                    </Data>
                    <Data name="suburb">
                        <value>Tsim Sha Tsui</value>
                    </Data>
                    <Data name="postcode">
                        <value>KIL 3348</value>
                    </Data>
                    <Data name="country_code">
                        <value>cn</value>
                    </Data>
                    <Data name="county">
                        <value>Yau Tsim Mong District</value>
                    </Data>
                    <Data name="region">
                        <value>Kowloon</value>
                    </Data>
                    <Data name="mall">
                        <value>Miramar Shopping Centre</value>
                    </Data>
                    <Data name="state">
                        <value>Hong Kong</value>
                    </Data>
                    <Data name="country">
                        <value>PRC</value>
                    </Data>
                    <Data name="road">
                        <value>Kimberley Road</value>
                    </Data>
                </ExtendedData>
            </Placemark>
            <Placemark>
                <address>61-65, Chatham Road South, Kwun Chung, Tsim Sha Tsui, Yau Tsim Mong District, Kowloon, Hong Kong, KIL 3348, PRC</address>
                <Point>
                    <coordinates>114.1758219374,22.2996213748</coordinates>
                </Point>
                <ExtendedData>
                    <Data name="house_number">
                        <value>61-65</value>
                    </Data>
                    <Data name="neighbourhood">
                        <value>Kwun Chung</value>
                    </Data>
                    <Data name="suburb">
                        <value>Tsim Sha Tsui</value>
                    </Data>
                    <Data name="postcode">
                        <value>KIL 3348</value>
                    </Data>
                    <Data name="country_code">
                        <value>cn</value>
                    </Data>
                    <Data name="county">
                        <value>Yau Tsim Mong District</value>
                    </Data>
                    <Data name="region">
                        <value>Kowloon</value>
                    </Data>
                    <Data name="state">
                        <value>Hong Kong</value>
                    </Data>
                    <Data name="country">
                        <value>PRC</value>
                    </Data>
                    <Data name="road">
                        <value>Chatham Road South</value>
                    </Data>
                </ExtendedData>
            </Placemark>
            <Placemark>
                <address>Intercity Through Train Concourse / Exit C Concourse of MTR Hung Hom Station, 8, Cheong Wan Road, The Metropolis, Yau Tsim Mong District, Kowloon, Hong Kong, KIL 3348, PRC</address>
                <Point>
                    <coordinates>114.1821075395,22.3026450858</coordinates>
                </Point>
                <ExtendedData>
                    <Data name="house_number">
                        <value>8</value>
                    </Data>
                    <Data name="building">
                        <value>Intercity Through Train Concourse / Exit C Concourse of MTR Hung Hom Station</value>
                    </Data>
                    <Data name="commercial">
                        <value>The Metropolis</value>
                    </Data>
                    <Data name="postcode">
                        <value>KIL 3348</value>
                    </Data>
                    <Data name="country_code">
                        <value>cn</value>
                    </Data>
                    <Data name="county">
                        <value>Yau Tsim Mong District</value>
                    </Data>
                    <Data name="region">
                        <value>Kowloon</value>
                    </Data>
                    <Data name="state">
                        <value>Hong Kong</value>
                    </Data>
                    <Data name="country">
                        <value>PRC</value>
                    </Data>
                    <Data name="road">
                        <value>Cheong Wan Road</value>
                    </Data>
                </ExtendedData>
            </Placemark>
        </Folder>
        <Document>
            <name>81.6 km; 02:27 h (OSRM)</name>
            <Placemark>
                <name>Route</name>
                <LineString>
                    <coordinates>114.1826990000,22.3028210000 114.1826430000,22.3022980000 114.1826280000,22.3021750000 114.1825070000,22.3021010000 114.1823010000,22.3020270000 114.1815420000,22.3020510000 114.1811750000,22.3020550000 114.1811070000,22.3020540000 114.1809980000,22.3020540000 114.1808440000,22.3020570000 114.1792990000,22.3021850000 114.1790920000,22.3022140000 114.1788450000,22.3022660000 114.1786020000,22.3023340000 114.1784390000,22.3023860000 114.1781840000,22.3024580000 114.1776360000,22.3026960000 114.1775250000,22.3027470000 114.1773340000,22.3027550000 114.1773010000,22.3027430000 114.1772480000,22.3027230000 114.1770240000,22.3026010000 114.1769630000,22.3024940000 114.1767330000,22.3019130000 114.1765970000,22.3015200000 114.1764460000,22.3010740000 114.1763410000,22.3007860000 114.1762520000,22.3005230000 114.1759960000,22.2996640000 114.1759630000,22.2995540000 114.1759280000,22.2993850000 114.1758680000,22.2989950000 114.1758190000,22.2986710000 114.1758110000,22.2986160000 114.1757330000,22.2981050000 114.1755820000,22.2972560000 114.1755250000,22.2970180000 114.1753120000,22.2957560000 114.1752980000,22.2954300000 114.1753220000,22.2951710000 114.1752130000,22.2951200000 114.1751020000,22.2950780000 114.1747670000,22.2949600000 114.1746590000,22.2949150000 114.1742890000,22.2948160000 114.1739770000,22.2947460000 114.1736740000,22.2946890000 114.1735480000,22.2946750000 114.1733350000,22.2946720000 114.1732200000,22.2946690000 114.1730150000,22.2946670000 114.1725320000,22.2946820000 114.1724890000,22.2946800000 114.1724500000,22.2946810000 114.1724240000,22.2946860000 114.1723990000,22.2946980000 114.1723690000,22.2947120000 114.1723390000,22.2947420000 114.1723210000,22.2947800000 114.1722640000,22.2956150000 114.1722390000,22.2959540000 114.1722000000,22.2964850000 114.1721280000,22.2975570000 114.1720930000,22.2981590000 114.1720810000,22.2983370000 114.1720360000,22.2989300000 114.1720070000,22.2995080000 114.1719480000,22.3003360000 114.1718790000,22.3012520000 114.1718720000,22.3013390000 114.1718390000,22.3016970000 114.1717980000,22.3022690000 114.1717450000,22.3031930000 114.1717400000,22.3032700000 114.1717190000,22.3039150000 114.1716840000,22.3043850000 114.1716090000,22.3052720000 114.1716010000,22.3053650000 114.1715100000,22.3059380000 114.1714700000,22.3065360000 114.1714610000,22.3066150000 114.1714140000,22.3070950000 114.1713450000,22.3077040000 114.1712780000,22.3084120000 114.1712710000,22.3084970000 114.1711910000,22.3092030000 114.1711830000,22.3092980000 114.1711430000,22.3096650000 114.1711010000,22.3102040000 114.1710930000,22.3102910000 114.1710200000,22.3109160000 114.1708380000,22.3119030000 114.1706170000,22.3129600000 114.1705980000,22.3130570000 114.1704300000,22.3138660000 114.1704060000,22.3139780000 114.1703870000,22.3140810000 114.1702980000,22.3145550000 114.1702850000,22.3146150000 114.1702220000,22.3149060000 114.1701980000,22.3150140000 114.1701270000,22.3153490000 114.1701180000,22.3153940000 114.1699740000,22.3160650000 114.1699470000,22.3162200000 114.1698800000,22.3165370000 114.1698450000,22.3167110000 114.1697770000,22.3170440000 114.1696740000,22.3175180000 114.1696010000,22.3179070000 114.1695180000,22.3183090000 114.1694820000,22.3184960000 114.1693710000,22.3190360000 114.1693570000,22.3191060000 114.1693200000,22.3192930000 114.1692430000,22.3192790000 114.1688070000,22.3192060000 114.1687900000,22.3192030000 114.1687160000,22.3191900000 114.1685700000,22.3191660000 114.1683980000,22.3191380000 114.1681920000,22.3191040000 114.1681320000,22.3190940000 114.1680470000,22.3190780000 114.1678150000,22.3190330000 114.1677620000,22.3190220000 114.1676800000,22.3190060000 114.1675610000,22.3189840000 114.1671990000,22.3189160000 114.1670740000,22.3188930000 114.1669890000,22.3188770000 114.1667760000,22.3188370000 114.1665450000,22.3187940000 114.1662740000,22.3187430000 114.1662220000,22.3187350000 114.1660490000,22.3187110000 114.1654280000,22.3186910000 114.1649530000,22.3186700000 114.1646960000,22.3186640000 114.1644420000,22.3186520000 114.1642870000,22.3186450000 114.1641230000,22.3186310000 114.1639600000,22.3186090000 114.1637720000,22.3185630000 114.1636480000,22.3185360000 114.1635180000,22.3184940000 114.1634290000,22.3184570000 114.1633210000,22.3184080000 114.1631370000,22.3183250000 114.1630390000,22.3182800000 114.1629510000,22.3182060000 114.1627870000,22.3181390000 114.1624900000,22.3180800000 114.1622920000,22.3180820000 114.1621530000,22.3180450000 114.1609450000,22.3176380000 114.1606000000,22.3175150000 114.1603830000,22.3174330000 114.1598760000,22.3173460000 114.1594480000,22.3173210000 114.1581900000,22.3173120000 114.1571410000,22.3173320000 114.1570750000,22.3173130000 114.1569920000,22.3172830000 114.1569780000,22.3172490000 114.1569570000,22.3172180000 114.1569100000,22.3171760000 114.1568510000,22.3171490000 114.1567850000,22.3171400000 114.1567210000,22.3171500000 114.1566540000,22.3171840000 114.1566040000,22.3172370000 114.1565780000,22.3173040000 114.1565790000,22.3173740000 114.1566060000,22.3174400000 114.1566570000,22.3174920000 114.1566890000,22.3175850000 114.1567020000,22.3176500000 114.1567060000,22.3177460000 114.1567260000,22.3181890000 114.1567260000,22.3185230000 114.1567110000,22.3187810000 114.1566780000,22.3189670000 114.1566330000,22.3191450000 114.1566260000,22.3191690000 114.1565680000,22.3193640000 114.1565240000,22.3195560000 114.1565050000,22.3197080000 114.1565050000,22.3198570000 114.1565090000,22.3199400000 114.1565180000,22.3200140000 114.1565550000,22.3201970000 114.1565780000,22.3202850000 114.1566100000,22.3203630000 114.1566570000,22.3204570000 114.1567900000,22.3206860000 114.1568780000,22.3208170000 114.1569980000,22.3209680000 114.1571230000,22.3210860000 114.1572140000,22.3211860000 114.1572770000,22.3212460000 114.1573510000,22.3213450000 114.1574530000,22.3214810000 114.1573690000,22.3216580000 114.1570450000,22.3221300000 114.1563390000,22.3231640000 114.1560050000,22.3236420000 114.1555090000,22.3242060000 114.1551290000,22.3246030000 114.1547720000,22.3249070000 114.1545800000,22.3250590000 114.1543480000,22.3252160000 114.1534280000,22.3259320000 114.1530330000,22.3262600000 114.1527240000,22.3265660000 114.1522310000,22.3270260000 114.1519620000,22.3272490000 114.1514500000,22.3276420000 114.1499690000,22.3284660000 114.1495610000,22.3286740000 114.1493470000,22.3287790000 114.1489480000,22.3289760000 114.1486200000,22.3291300000 114.1483290000,22.3292640000 114.1476850000,22.3295300000 114.1471200000,22.3297390000 114.1466370000,22.3299120000 114.1463240000,22.3300390000 114.1453670000,22.3304340000 114.1449050000,22.3306190000 114.1440650000,22.3309030000 114.1422410000,22.3316350000 114.1419400000,22.3317580000 114.1416450000,22.3318640000 114.1415840000,22.3318910000 114.1409270000,22.3321250000 114.1406060000,22.3322590000 114.1401940000,22.3324580000 114.1396920000,22.3327020000 114.1394230000,22.3328760000 114.1377460000,22.3335210000 114.1373110000,22.3336840000 114.1368720000,22.3338520000 114.1365480000,22.3339950000 114.1362520000,22.3341350000 114.1359540000,22.3342920000 114.1356170000,22.3344760000 114.1353230000,22.3346500000 114.1350280000,22.3348370000 114.1347180000,22.3350490000 114.1345310000,22.3351930000 114.1342810000,22.3353920000 114.1340320000,22.3356040000 114.1337680000,22.3358450000 114.1334860000,22.3361240000 114.1332150000,22.3364170000 114.1329590000,22.3367180000 114.1327150000,22.3370340000 114.1325000000,22.3373380000 114.1322550000,22.3377220000 114.1320490000,22.3380880000 114.1318960000,22.3384030000 114.1317130000,22.3388030000 114.1313580000,22.3395440000 114.1310790000,22.3401370000 114.1310470000,22.3402070000 114.1308880000,22.3405740000 114.1307190000,22.3409130000 114.1305230000,22.3412450000 114.1302290000,22.3416960000 114.1300150000,22.3419730000 114.1297900000,22.3422150000 114.1296350000,22.3423570000 114.1294840000,22.3425000000 114.1293200000,22.3426370000 114.1291160000,22.3427790000 114.1288740000,22.3429000000 114.1285800000,22.3430670000 114.1282990000,22.3432080000 114.1280790000,22.3433120000 114.1275730000,22.3435180000 114.1272420000,22.3436620000 114.1269010000,22.3438300000 114.1265480000,22.3440350000 114.1261970000,22.3442850000 114.1259420000,22.3444920000 114.1256990000,22.3447270000 114.1254680000,22.3449730000 114.1252700000,22.3452380000 114.1250080000,22.3455860000 114.1248240000,22.3458870000 114.1246430000,22.3463590000 114.1244800000,22.3469000000 114.1244150000,22.3472210000 114.1243800000,22.3475480000 114.1243660000,22.3478910000 114.1243750000,22.3483980000 114.1243460000,22.3492150000 114.1242840000,22.3496110000 114.1241960000,22.3499950000 114.1240920000,22.3503190000 114.1239530000,22.3506300000 114.1237610000,22.3509160000 114.1234880000,22.3512340000 114.1230260000,22.3516520000 114.1228280000,22.3518040000 114.1226080000,22.3519350000 114.1221550000,22.3521050000 114.1217180000,22.3522390000 114.1214310000,22.3523020000 114.1211440000,22.3523490000 114.1207110000,22.3523730000 114.1203330000,22.3523730000 114.1199880000,22.3523650000 114.1194960000,22.3522790000 114.1191870000,22.3522180000 114.1188760000,22.3521210000 114.1185250000,22.3519850000 114.1181990000,22.3518490000 114.1179480000,22.3517290000 114.1175950000,22.3515240000 114.1172010000,22.3512330000 114.1166410000,22.3508060000 114.1162170000,22.3505070000 114.1159110000,22.3503370000 114.1156210000,22.3501800000 114.1153280000,22.3500460000 114.1150960000,22.3499490000 114.1143120000,22.3496360000 114.1132010000,22.3492230000 114.1124200000,22.3489270000 114.1118410000,22.3487000000 114.1115030000,22.3485560000 114.1108790000,22.3482700000 114.1067700000,22.3461380000 114.1065040000,22.3460130000 114.1062830000,22.3459150000 114.1060100000,22.3457980000 114.1057500000,22.3456900000 114.1055200000,22.3456000000 114.1053160000,22.3455250000 114.1050600000,22.3454400000 114.1048010000,22.3453580000 114.1045000000,22.3452660000 114.1042000000,22.3451750000 114.1039000000,22.3450920000 114.1036000000,22.3450220000 114.1033000000,22.3449580000 114.1030000000,22.3449000000 114.1026000000,22.3448350000 114.1020600000,22.3447660000 114.1017660000,22.3447330000 114.1014700000,22.3447070000 114.1011840000,22.3446860000 114.1009000000,22.3446750000 114.1003400000,22.3446570000 114.0957200000,22.3446110000 114.0956240000,22.3446120000 114.0943500000,22.3446090000 114.0937600000,22.3445980000 114.0932450000,22.3446000000 114.0929810000,22.3446070000 114.0927640000,22.3446250000 114.0924930000,22.3446550000 114.0921460000,22.3447160000 114.0920330000,22.3447350000 114.0918930000,22.3447670000 114.0917140000,22.3448180000 114.0915160000,22.3448850000 114.0912310000,22.3449890000 114.0909600000,22.3451060000 114.0906860000,22.3452240000 114.0903900000,22.3453580000 114.0901860000,22.3454620000 114.0897600000,22.3456670000 114.0895210000,22.3457890000 114.0893050000,22.3459100000 114.0889220000,22.3461740000 114.0885700000,22.3464410000 114.0882590000,22.3467350000 114.0881270000,22.3468140000 114.0880130000,22.3469050000 114.0878070000,22.3471650000 114.0875500000,22.3475690000 114.0873430000,22.3479580000 114.0871970000,22.3483340000 114.0870280000,22.3489680000 114.0868450000,22.3496650000 114.0866810000,22.3502570000 114.0865870000,22.3504190000 114.0865390000,22.3505820000 114.0864710000,22.3507950000 114.0864130000,22.3509630000 114.0863090000,22.3511870000 114.0860160000,22.3517900000 114.0857050000,22.3523210000 114.0855330000,22.3525550000 114.0852520000,22.3528710000 114.0849440000,22.3532050000 114.0847070000,22.3533890000 114.0845530000,22.3534650000 114.0844510000,22.3535070000 114.0842000000,22.3535790000 114.0840790000,22.3535920000 114.0838860000,22.3536220000 114.0835600000,22.3536180000 114.0833460000,22.3536100000 114.0829750000,22.3535430000 114.0824940000,22.3534300000 114.0822590000,22.3533520000 114.0818410000,22.3532280000 114.0807790000,22.3528880000 114.0627170000,22.3478750000 114.0617850000,22.3476010000 114.0607760000,22.3472610000 114.0604130000,22.3470910000 114.0600470000,22.3469060000 114.0595450000,22.3466410000 114.0589420000,22.3462970000 114.0582690000,22.3458670000 114.0522890000,22.3419600000 114.0520140000,22.3417810000 114.0516860000,22.3415850000 114.0511960000,22.3413570000 114.0507800000,22.3412120000 114.0505060000,22.3411390000 114.0500910000,22.3410340000 114.0495850000,22.3409630000 114.0489070000,22.3408940000 114.0486340000,22.3408710000 114.0480380000,22.3408200000 114.0472620000,22.3407500000 114.0466410000,22.3406480000 114.0460530000,22.3405040000 114.0458190000,22.3404340000 114.0456190000,22.3403700000 114.0453110000,22.3402400000 114.0449720000,22.3400670000 114.0440850000,22.3395510000 114.0432940000,22.3391030000 114.0404020000,22.3378420000 114.0397780000,22.3375450000 114.0393360000,22.3373640000 114.0390890000,22.3372750000 114.0387840000,22.3371820000 114.0384720000,22.3371100000 114.0380410000,22.3370070000 114.0375410000,22.3369040000 114.0371380000,22.3368240000 114.0367080000,22.3367090000 114.0364270000,22.3366290000 114.0362160000,22.3365560000 114.0357730000,22.3363950000 114.0352720000,22.3361990000 114.0347250000,22.3359550000 114.0342730000,22.3357320000 114.0338990000,22.3355020000 114.0333890000,22.3351500000 114.0328770000,22.3347490000 114.0324430000,22.3343380000 114.0299060000,22.3319080000 114.0272230000,22.3293370000 114.0265270000,22.3286850000 114.0251240000,22.3273490000 114.0247260000,22.3270220000 114.0244480000,22.3267970000 114.0243000000,22.3266910000 114.0239930000,22.3264980000 114.0235970000,22.3262700000 114.0230920000,22.3260010000 114.0226320000,22.3257790000 114.0218850000,22.3254810000 114.0213490000,22.3253080000 114.0208380000,22.3251670000 114.0203120000,22.3250680000 114.0198860000,22.3249950000 114.0194280000,22.3249350000 114.0189490000,22.3248840000 114.0184730000,22.3248690000 114.0179280000,22.3248690000 114.0157280000,22.3250250000 114.0151360000,22.3250500000 114.0146250000,22.3250580000 114.0140290000,22.3250370000 114.0134250000,22.3249950000 114.0129230000,22.3249450000 114.0124980000,22.3248840000 114.0120280000,22.3247880000 114.0109800000,22.3245210000 114.0104470000,22.3243410000 114.0099940000,22.3241710000 114.0092210000,22.3238440000 114.0073390000,22.3230500000 114.0030460000,22.3210970000 114.0022110000,22.3207110000 114.0018700000,22.3205380000 114.0015450000,22.3203740000 114.0012450000,22.3202230000 114.0009200000,22.3200340000 114.0006410000,22.3198590000 114.0004230000,22.3197030000 114.0001470000,22.3195040000 113.9998380000,22.3192620000 113.9994860000,22.3189590000 113.9992090000,22.3186870000 113.9989500000,22.3184190000 113.9985960000,22.3180270000 113.9983040000,22.3176570000 113.9980000000,22.3172060000 113.9977570000,22.3168210000 113.9974960000,22.3163870000 113.9973020000,22.3160790000 113.9971020000,22.3157770000 113.9968930000,22.3154780000 113.9966240000,22.3151180000 113.9964650000,22.3149000000 113.9961560000,22.3145280000 113.9959240000,22.3142630000 113.9957120000,22.3140280000 113.9954890000,22.3137910000 113.9951210000,22.3134260000 113.9948160000,22.3131480000 113.9944550000,22.3128470000 113.9940660000,22.3125250000 113.9937300000,22.3122730000 113.9933570000,22.3120010000 113.9929640000,22.3117410000 113.9926010000,22.3115140000 113.9877960000,22.3087560000 113.9856810000,22.3074790000 113.9851170000,22.3071400000 113.9844290000,22.3067090000 113.9829960000,22.3058040000 113.9815660000,22.3049010000 113.9804280000,22.3042120000 113.9795070000,22.3036070000 113.9785100000,22.3030050000 113.9778550000,22.3026450000 113.9769330000,22.3021450000 113.9757440000,22.3015630000 113.9752270000,22.3013050000 113.9747370000,22.3010570000 113.9737440000,22.3005560000 113.9731390000,22.3002800000 113.9722740000,22.2999010000 113.9715800000,22.2996450000 113.9710390000,22.2994730000 113.9705160000,22.2993110000 113.9698770000,22.2991360000 113.9689750000,22.2989320000 113.9680470000,22.2986900000 113.9677470000,22.2986190000 113.9635320000,22.2977010000 113.9609300000,22.2971350000 113.9603210000,22.2969830000 113.9595720000,22.2967670000 113.9587890000,22.2964930000 113.9582960000,22.2962940000 113.9578120000,22.2960870000 113.9572830000,22.2958390000 113.9567450000,22.2955430000 113.9560790000,22.2951570000 113.9558210000,22.2949960000 113.9555750000,22.2948250000 113.9552750000,22.2946020000 113.9549650000,22.2943560000 113.9546260000,22.2940770000 113.9542590000,22.2937580000 113.9538700000,22.2934090000 113.9535270000,22.2930740000 113.9532730000,22.2927990000 113.9528750000,22.2923800000 113.9523830000,22.2918530000 113.9521350000,22.2916130000 113.9518830000,22.2913840000 113.9515220000,22.2910870000 113.9512400000,22.2908870000 113.9510840000,22.2907630000 113.9506740000,22.2904380000 113.9503960000,22.2902370000 113.9500330000,22.2900150000 113.9497110000,22.2898550000 113.9489580000,22.2895210000 113.9481360000,22.2892220000 113.9479960000,22.2891650000 113.9479700000,22.2891000000 113.9478580000,22.2889750000 113.9477730000,22.2889250000 113.9476440000,22.2888850000 113.9474730000,22.2888850000 113.9473100000,22.2889410000 113.9471990000,22.2890440000 113.9471400000,22.2891420000 113.9471220000,22.2891810000 113.9471020000,22.2892670000 113.9470430000,22.2896870000 113.9470710000,22.2898320000 113.9471280000,22.2899450000 113.9471840000,22.2900340000 113.9472640000,22.2901770000 113.9473170000,22.2904010000 113.9473150000,22.2905370000 113.9473000000,22.2906860000 113.9471510000,22.2918230000 113.9468660000,22.2937990000 113.9468630000,22.2938380000 113.9468490000,22.2939890000 113.9468380000,22.2941020000 113.9469580000,22.2941170000 113.9483760000,22.2942930000 113.9488000000,22.2943500000 113.9498880000,22.2944760000 113.9506040000,22.2945650000 113.9520500000,22.2947280000 113.9521390000,22.2947420000 113.9521330000,22.2948270000 113.9519170000,22.2961650000 113.9518580000,22.2965370000 113.9518480000,22.2966050000 113.9518480000,22.2966860000 113.9518600000,22.2967650000 113.9518760000,22.2968090000 113.9519000000,22.2968560000 113.9519360000,22.2969130000 113.9519910000,22.2969690000 113.9520530000,22.2970110000 113.9521240000,22.2970480000 113.9521940000,22.2970680000 113.9522860000,22.2970840000 113.9526390000,22.2971140000 113.9526600000,22.2971160000 113.9530430000,22.2971490000 113.9531230000,22.2971570000 113.9532640000,22.2971680000 113.9537470000,22.2972050000 113.9538020000,22.2971990000 113.9538580000,22.2971790000 113.9539380000,22.2971260000 113.9539610000,22.2971470000 113.9539900000,22.2971600000 113.9540210000,22.2971640000 113.9540530000,22.2971590000 113.9540810000,22.2971450000 113.9541020000,22.2971230000 113.9541160000,22.2970970000 113.9541200000,22.2970670000 113.9541130000,22.2970380000 113.9540960000,22.2970110000 113.9540700000,22.2969910000 113.9540380000,22.2969800000 113.9540030000,22.2969790000 113.9539710000,22.2969890000 113.9539440000,22.2970090000 113.9539260000,22.2970360000 113.9539190000,22.2970670000 113.9539230000,22.2970980000 113.9539380000,22.2971260000 113.9538580000,22.2971790000 113.9538020000,22.2971990000 113.9537470000,22.2972050000 113.9531230000,22.2971570000 113.9530430000,22.2971490000 113.9526600000,22.2971160000 113.9526390000,22.2971140000 113.9522860000,22.2970840000 113.9521940000,22.2970680000 113.9521240000,22.2970480000 113.9520530000,22.2970110000 113.9519910000,22.2969690000 113.9519360000,22.2969130000 113.9519000000,22.2968560000 113.9518760000,22.2968090000 113.9518600000,22.2967650000 113.9518480000,22.2966860000 113.9518480000,22.2966050000 113.9518580000,22.2965370000 113.9519170000,22.2961650000 113.9521330000,22.2948270000 113.9521390000,22.2947420000 113.9521440000,22.2947040000 113.9521510000,22.2946510000 113.9521760000,22.2945310000 113.9521940000,22.2944170000 113.9522210000,22.2942630000 113.9522210000,22.2940280000 113.9523570000,22.2940240000 113.9526170000,22.2940450000 113.9527150000,22.2940580000 113.9529000000,22.2941360000 113.9531040000,22.2942210000 113.9532080000,22.2942840000 113.9532330000,22.2943490000 113.9532500000,22.2944410000 113.9532790000,22.2944730000 113.9533270000,22.2944790000 113.9533560000,22.2944690000 113.9533720000,22.2944330000 113.9533540000,22.2943710000 113.9533520000,22.2943560000 113.9532080000,22.2942840000 113.9531040000,22.2942210000 113.9529000000,22.2941360000 113.9527150000,22.2940580000 113.9526170000,22.2940450000 113.9523570000,22.2940240000 113.9522210000,22.2940280000 113.9522210000,22.2942630000 113.9521940000,22.2944170000 113.9521760000,22.2945310000 113.9521510000,22.2946510000 113.9520070000,22.2946300000 113.9471130000,22.2940180000 113.9469740000,22.2940040000 113.9469870000,22.2939070000 113.9471800000,22.2924460000 113.9472190000,22.2921650000 113.9472680000,22.2918230000 113.9474220000,22.2907060000 113.9474540000,22.2905410000 113.9475130000,22.2903620000 113.9475960000,22.2902260000 113.9476930000,22.2901170000 113.9477390000,22.2900770000 113.9477890000,22.2900480000 113.9478420000,22.2900160000 113.9478750000,22.2899800000 113.9479390000,22.2898370000 113.9479690000,22.2897430000 113.9480140000,22.2893540000 113.9480130000,22.2892710000 113.9479960000,22.2891650000 113.9479700000,22.2891000000 113.9478580000,22.2889750000 113.9477730000,22.2889250000 113.9476440000,22.2888850000 113.9474730000,22.2888850000 113.9473000000,22.2888610000 113.9471210000,22.2888010000 113.9468060000,22.2886520000 113.9464960000,22.2884660000 113.9460260000,22.2880830000 113.9455270000,22.2875680000 113.9447110000,22.2866570000 113.9446370000,22.2865750000 113.9442630000,22.2861290000 113.9435180000,22.2851630000 113.9431670000,22.2847070000 113.9430920000,22.2846190000 113.9430110000,22.2845200000 113.9427960000,22.2846950000 113.9425890000,22.2848520000 113.9421240000,22.2852550000 113.9419330000,22.2854300000 113.9413100000,22.2859820000 113.9412640000,22.2860230000 113.9409660000,22.2862820000 113.9406670000,22.2864940000 113.9405970000,22.2865450000 113.9404880000,22.2866190000 113.9400340000,22.2868760000 113.9394270000,22.2872610000 113.9392710000,22.2873540000 113.9391400000,22.2874320000 113.9388980000,22.2875590000 113.9384660000,22.2877970000 113.9383310000,22.2878860000 113.9382960000,22.2879100000 113.9381180000,22.2880340000 113.9381940000,22.2881350000 113.9382820000,22.2882580000 113.9383150000,22.2883110000 113.9389300000,22.2892920000 113.9390440000,22.2895050000 113.9390640000,22.2895420000 113.9391210000,22.2896450000 113.9392460000,22.2895750000 113.9392740000,22.2895580000 113.9394760000,22.2894390000 113.9396020000,22.2893640000 113.9396920000,22.2893050000 113.9397930000,22.2892380000 113.9399270000,22.2893080000 113.9400690000,22.2893890000 113.9400230000,22.2894090000 113.9399970000,22.2894480000 113.9399810000,22.2895030000 113.9399970000,22.2895580000 113.9400570000,22.2896040000 113.9403790000,22.2898450000 113.9405430000,22.2897440000 113.9403160000,22.2895740000 113.9400690000,22.2893890000 113.9399270000,22.2893080000 113.9397930000,22.2892380000 113.9396920000,22.2893050000 113.9396020000,22.2893640000 113.9394760000,22.2894390000 113.9392740000,22.2895580000 113.9392460000,22.2895750000 113.9391210000,22.2896450000 113.9390640000,22.2895420000 113.9390440000,22.2895050000 113.9389300000,22.2892920000 113.9383150000,22.2883110000 113.9382820000,22.2882580000 113.9381940000,22.2881350000 113.9383420000,22.2880350000 113.9385340000,22.2879030000 113.9391590000,22.2875740000 113.9396760000,22.2872740000 113.9405270000,22.2868080000 113.9405890000,22.2867660000 113.9408330000,22.2865820000 113.9410430000,22.2864130000 113.9410920000,22.2863700000 113.9413960000,22.2860970000 113.9414890000,22.2860130000 113.9422270000,22.2853510000 113.9424560000,22.2851500000 113.9426310000,22.2849950000 113.9427530000,22.2848880000 113.9428730000,22.2847920000 113.9430920000,22.2846190000 113.9430110000,22.2845200000 113.9428900000,22.2843640000 113.9421870000,22.2834260000 113.9411130000,22.2820340000 113.9407820000,22.2816540000 113.9402830000,22.2811410000 113.9399930000,22.2808960000 113.9399130000,22.2808280000 113.9397840000,22.2807300000 113.9396500000,22.2806380000 113.9395600000,22.2805760000 113.9388650000,22.2801320000 113.9384710000,22.2799150000 113.9380080000,22.2796840000 113.9373900000,22.2794360000 113.9368610000,22.2792770000 113.9362670000,22.2791450000 113.9354410000,22.2789960000 113.9345700000,22.2788790000 113.9319310000,22.2784270000 113.9318830000,22.2784120000 113.9318410000,22.2783590000 113.9317910000,22.2782410000 113.9318150000,22.2779220000 113.9318190000,22.2778390000 113.9318270000,22.2774810000 113.9318250000,22.2771980000 113.9317450000,22.2769140000 113.9316230000,22.2766580000 113.9315230000,22.2765010000 113.9315230000,22.2764820000 113.9315240000,22.2764520000 113.9315500000,22.2763950000 113.9315890000,22.2763560000 113.9317500000,22.2762730000 113.9322620000,22.2760480000 113.9321950000,22.2760770000 113.9317500000,22.2762730000 113.9315890000,22.2763560000 113.9315500000,22.2763950000 113.9315240000,22.2764520000 113.9315230000,22.2764820000 113.9315230000,22.2765010000 113.9316230000,22.2766580000 113.9317450000,22.2769140000 113.9318250000,22.2771980000 113.9318270000,22.2774810000 113.9318190000,22.2778390000 113.9318150000,22.2779220000 113.9317910000,22.2782410000 113.9317770000,22.2783920000 113.9317890000,22.2784680000 113.9318220000,22.2785320000 113.9318890000,22.2785620000 113.9345390000,22.2790670000 113.9361810000,22.2794380000 113.9361990000,22.2794420000 113.9367400000,22.2795710000 113.9372790000,22.2797390000 113.9378990000,22.2799680000 113.9383300000,22.2801730000 113.9387790000,22.2804130000 113.9392870000,22.2807360000 113.9393080000,22.2807500000 113.9394530000,22.2808480000 113.9395980000,22.2809470000 113.9397410000,22.2810670000 113.9401560000,22.2814150000 113.9405520000,22.2818280000 113.9413830000,22.2828880000 113.9422960000,22.2840520000 113.9426160000,22.2844860000 113.9426270000,22.2845950000 113.9426310000,22.2846740000 113.9426190000,22.2847490000 113.9425890000,22.2848520000 113.9421240000,22.2852550000 113.9419330000,22.2854300000 113.9413100000,22.2859820000 113.9412640000,22.2860230000 113.9409660000,22.2862820000 113.9406670000,22.2864940000 113.9405970000,22.2865450000 113.9404880000,22.2866190000 113.9400340000,22.2868760000 113.9394270000,22.2872610000 113.9392710000,22.2873540000 113.9391400000,22.2874320000 113.9388980000,22.2875590000 113.9384660000,22.2877970000 113.9383310000,22.2878860000 113.9382960000,22.2879100000 113.9381180000,22.2880340000 113.9381940000,22.2881350000 113.9382820000,22.2882580000 113.9383150000,22.2883110000 113.9389300000,22.2892920000 113.9390440000,22.2895050000 113.9390640000,22.2895420000 113.9391210000,22.2896450000 113.9392460000,22.2895750000 113.9392740000,22.2895580000 113.9394760000,22.2894390000 113.9396020000,22.2893640000 113.9396920000,22.2893050000 113.9397930000,22.2892380000 113.9399270000,22.2893080000 113.9400690000,22.2893890000 113.9400230000,22.2894090000 113.9399970000,22.2894480000 113.9399810000,22.2895030000 113.9399970000,22.2895580000 113.9400570000,22.2896040000 113.9403790000,22.2898450000 113.9405430000,22.2897440000 113.9403440000,22.2895950000 113.9400690000,22.2893890000 113.9399270000,22.2893080000 113.9397930000,22.2892380000 113.9396920000,22.2893050000 113.9396020000,22.2893640000 113.9394760000,22.2894390000 113.9392740000,22.2895580000 113.9392460000,22.2895750000 113.9391210000,22.2896450000 113.9390640000,22.2895420000 113.9390440000,22.2895050000 113.9389300000,22.2892920000 113.9383150000,22.2883110000 113.9382820000,22.2882580000 113.9381940000,22.2881350000 113.9383420000,22.2880350000 113.9385340000,22.2879030000 113.9391590000,22.2875740000 113.9396760000,22.2872740000 113.9405270000,22.2868080000 113.9405890000,22.2867660000 113.9408330000,22.2865820000 113.9410430000,22.2864130000 113.9410920000,22.2863700000 113.9413960000,22.2860970000 113.9414890000,22.2860130000 113.9422270000,22.2853510000 113.9424560000,22.2851500000 113.9426310000,22.2849950000 113.9427590000,22.2849830000 113.9428610000,22.2849860000 113.9429550000,22.2849990000 113.9430850000,22.2850430000 113.9443340000,22.2866850000 113.9448980000,22.2873290000 113.9454390000,22.2878560000 113.9457130000,22.2880990000 113.9459710000,22.2882970000 113.9462280000,22.2884880000 113.9465110000,22.2886470000 113.9468550000,22.2888030000 113.9469890000,22.2889120000 113.9470880000,22.2890240000 113.9471400000,22.2891420000 113.9471220000,22.2891810000 113.9471020000,22.2892670000 113.9470430000,22.2896870000 113.9470710000,22.2898320000 113.9471280000,22.2899450000 113.9471840000,22.2900340000 113.9472640000,22.2901770000 113.9473170000,22.2904010000 113.9473150000,22.2905370000 113.9473000000,22.2906860000 113.9471510000,22.2918230000 113.9468660000,22.2937990000 113.9468630000,22.2938380000 113.9468490000,22.2939890000 113.9468380000,22.2941020000 113.9469580000,22.2941170000 113.9483760000,22.2942930000 113.9488000000,22.2943500000 113.9498880000,22.2944760000 113.9506040000,22.2945650000 113.9520500000,22.2947280000 113.9521390000,22.2947420000 113.9521330000,22.2948270000 113.9519170000,22.2961650000 113.9518580000,22.2965370000 113.9518480000,22.2966050000 113.9518480000,22.2966860000 113.9518600000,22.2967650000 113.9518760000,22.2968090000 113.9519000000,22.2968560000 113.9519360000,22.2969130000 113.9519910000,22.2969690000 113.9520530000,22.2970110000 113.9521240000,22.2970480000 113.9521940000,22.2970680000 113.9522860000,22.2970840000 113.9526390000,22.2971140000 113.9526600000,22.2971160000 113.9530430000,22.2971490000 113.9531230000,22.2971570000 113.9532090000,22.2971640000 113.9537470000,22.2972050000 113.9538020000,22.2971990000 113.9538580000,22.2971790000 113.9539380000,22.2971260000 113.9539610000,22.2971470000 113.9539900000,22.2971600000 113.9540210000,22.2971640000 113.9540530000,22.2971590000 113.9540810000,22.2971450000 113.9541020000,22.2971230000 113.9541160000,22.2970970000 113.9541200000,22.2970670000 113.9541130000,22.2970380000 113.9540960000,22.2970110000 113.9540700000,22.2969910000 113.9540380000,22.2969800000 113.9540030000,22.2969790000 113.9539710000,22.2969890000 113.9539440000,22.2970090000 113.9539260000,22.2970360000 113.9539190000,22.2970670000 113.9539230000,22.2970980000 113.9539380000,22.2971260000 113.9538580000,22.2971790000 113.9538020000,22.2971990000 113.9537470000,22.2972050000 113.9531230000,22.2971570000 113.9530430000,22.2971490000 113.9526600000,22.2971160000 113.9526390000,22.2971140000 113.9522860000,22.2970840000 113.9521940000,22.2970680000 113.9521240000,22.2970480000 113.9520530000,22.2970110000 113.9519910000,22.2969690000 113.9519360000,22.2969130000 113.9519000000,22.2968560000 113.9518760000,22.2968090000 113.9518600000,22.2967650000 113.9518480000,22.2966860000 113.9518480000,22.2966050000 113.9518580000,22.2965370000 113.9519170000,22.2961650000 113.9521330000,22.2948270000 113.9521390000,22.2947420000 113.9521440000,22.2947040000 113.9521510000,22.2946510000 113.9521760000,22.2945310000 113.9521940000,22.2944170000 113.9522210000,22.2942630000 113.9522210000,22.2940280000 113.9523570000,22.2940240000 113.9526170000,22.2940450000 113.9527150000,22.2940580000 113.9529000000,22.2941360000 113.9531040000,22.2942210000 113.9532080000,22.2942840000 113.9532330000,22.2943490000 113.9532500000,22.2944410000 113.9532790000,22.2944730000 113.9533270000,22.2944790000 113.9533560000,22.2944690000 113.9533720000,22.2944330000 113.9533540000,22.2943710000 113.9533520000,22.2943560000 113.9532080000,22.2942840000 113.9531040000,22.2942210000 113.9529000000,22.2941360000 113.9527150000,22.2940580000 113.9526170000,22.2940450000 113.9523570000,22.2940240000 113.9522210000,22.2940280000 113.9522210000,22.2942630000 113.9521940000,22.2944170000 113.9521760000,22.2945310000 113.9521510000,22.2946510000 113.9520070000,22.2946300000 113.9471130000,22.2940180000 113.9469740000,22.2940040000 113.9469870000,22.2939070000 113.9471800000,22.2924460000 113.9472190000,22.2921650000 113.9472680000,22.2918230000 113.9474220000,22.2907060000 113.9474540000,22.2905410000 113.9475130000,22.2903620000 113.9475960000,22.2902260000 113.9476930000,22.2901170000 113.9477390000,22.2900770000 113.9477890000,22.2900480000 113.9478420000,22.2900160000 113.9478750000,22.2899800000 113.9480910000,22.2899550000 113.9483020000,22.2899590000 113.9485380000,22.2900030000 113.9494240000,22.2902740000 113.9498800000,22.2904060000 113.9501860000,22.2905410000 113.9504590000,22.2906700000 113.9507710000,22.2908380000 113.9510170000,22.2909890000 113.9517590000,22.2914840000 113.9520180000,22.2917120000 113.9522680000,22.2919420000 113.9527780000,22.2924680000 113.9531720000,22.2928820000 113.9534390000,22.2931600000 113.9537750000,22.2935030000 113.9541670000,22.2938580000 113.9545370000,22.2941730000 113.9548740000,22.2944520000 113.9552060000,22.2947120000 113.9554890000,22.2949220000 113.9557400000,22.2950960000 113.9560230000,22.2952790000 113.9566790000,22.2956560000 113.9572090000,22.2959450000 113.9577490000,22.2961950000 113.9582250000,22.2964030000 113.9587420000,22.2966140000 113.9595180000,22.2968860000 113.9602780000,22.2971090000 113.9608980000,22.2972520000 113.9649850000,22.2981570000 113.9677100000,22.2987600000 113.9680060000,22.2988330000 113.9689400000,22.2990560000 113.9698420000,22.2992600000 113.9704600000,22.2994310000 113.9709990000,22.2995910000 113.9715350000,22.2997640000 113.9722070000,22.3000200000 113.9730740000,22.3003880000 113.9736760000,22.3006700000 113.9746770000,22.3011640000 113.9751620000,22.3014060000 113.9756620000,22.3016650000 113.9768670000,22.3022560000 113.9777980000,22.3027520000 113.9784390000,22.3031040000 113.9794340000,22.3037060000 113.9811390000,22.3047780000 113.9837140000,22.3064070000 113.9843200000,22.3067900000 113.9850400000,22.3072450000 113.9856060000,22.3075890000 113.9877310000,22.3088640000 113.9925320000,22.3116130000 113.9928940000,22.3118400000 113.9932800000,22.3121080000 113.9936540000,22.3123690000 113.9939850000,22.3126240000 113.9943640000,22.3129400000 113.9947170000,22.3132380000 113.9950160000,22.3135030000 113.9953880000,22.3138680000 113.9956090000,22.3141060000 113.9958140000,22.3143200000 113.9960710000,22.3146170000 113.9963520000,22.3149690000 113.9965180000,22.3151920000 113.9967760000,22.3155490000 113.9969850000,22.3158460000 113.9971800000,22.3161470000 113.9973750000,22.3164580000 113.9976390000,22.3168830000 113.9978800000,22.3172650000 113.9981960000,22.3177340000 113.9984880000,22.3181120000 113.9988430000,22.3185050000 113.9990980000,22.3187760000 113.9994070000,22.3190820000 114.0000590000,22.3196040000 114.0003390000,22.3198090000 114.0005530000,22.3199570000 114.0008490000,22.3201550000 114.0011770000,22.3203390000 114.0014940000,22.3205080000 114.0018710000,22.3206920000 114.0022100000,22.3208580000 114.0029710000,22.3212190000 114.0091410000,22.3239620000 114.0099340000,22.3243030000 114.0104060000,22.3244710000 114.0109360000,22.3246490000 114.0119840000,22.3249220000 114.0124700000,22.3250190000 114.0129110000,22.3250790000 114.0134120000,22.3251210000 114.0140080000,22.3251570000 114.0146170000,22.3251700000 114.0151360000,22.3251530000 114.0157200000,22.3251290000 114.0179230000,22.3249950000 114.0184700000,22.3249970000 114.0189250000,22.3250100000 114.0194170000,22.3250510000 114.0198690000,22.3251110000 114.0202650000,22.3251710000 114.0207940000,22.3252890000 114.0213080000,22.3254290000 114.0218170000,22.3256010000 114.0225660000,22.3258960000 114.0230280000,22.3261070000 114.0235650000,22.3263960000 114.0239050000,22.3266040000 114.0242100000,22.3268090000 114.0243490000,22.3269190000 114.0246080000,22.3271220000 114.0247390000,22.3272290000 114.0253400000,22.3277860000 114.0260460000,22.3284120000 114.0264620000,22.3287970000 114.0297800000,22.3320070000 114.0323360000,22.3344360000 114.0327820000,22.3348390000 114.0333080000,22.3352490000 114.0338240000,22.3356090000 114.0341940000,22.3358400000 114.0344370000,22.3359930000 114.0347430000,22.3361510000 114.0350240000,22.3362900000 114.0355250000,22.3365430000 114.0360790000,22.3367460000 114.0366460000,22.3369090000 114.0370510000,22.3370060000 114.0374980000,22.3370760000 114.0380100000,22.3371620000 114.0384370000,22.3372490000 114.0388250000,22.3373460000 114.0392640000,22.3374860000 114.0397170000,22.3376620000 114.0403300000,22.3379590000 114.0409450000,22.3382610000 114.0430490000,22.3395020000 114.0438450000,22.3398740000 114.0444670000,22.3401500000 114.0450310000,22.3403730000 114.0457530000,22.3405940000 114.0460570000,22.3406770000 114.0466800000,22.3408170000 114.0473730000,22.3409100000 114.0482450000,22.3409950000 114.0487620000,22.3410460000 114.0496170000,22.3411450000 114.0500720000,22.3412260000 114.0506000000,22.3413620000 114.0509290000,22.3414650000 114.0511760000,22.3415570000 114.0514140000,22.3416380000 114.0516150000,22.3417310000 114.0519160000,22.3419150000 114.0542060000,22.3433820000 114.0581790000,22.3459890000 114.0588390000,22.3464040000 114.0594060000,22.3467440000 114.0598370000,22.3469800000 114.0603340000,22.3472280000 114.0607170000,22.3474210000 114.0612680000,22.3476290000 114.0615080000,22.3477030000 114.0626570000,22.3480480000 114.0807060000,22.3530890000 114.0815120000,22.3533530000 114.0817750000,22.3534230000 114.0825280000,22.3535830000 114.0833800000,22.3537460000 114.0837340000,22.3537800000 114.0840280000,22.3538140000 114.0841640000,22.3538110000 114.0844120000,22.3537950000 114.0845750000,22.3537690000 114.0847600000,22.3537280000 114.0850840000,22.3536160000 114.0853340000,22.3534990000 114.0855760000,22.3533940000 114.0857780000,22.3532990000 114.0860090000,22.3531720000 114.0862760000,22.3529890000 114.0864600000,22.3528230000 114.0865510000,22.3527150000 114.0866880000,22.3524630000 114.0867870000,22.3522310000 114.0868490000,22.3520120000 114.0869280000,22.3516520000 114.0870480000,22.3510910000 114.0872340000,22.3503380000 114.0873310000,22.3499450000 114.0874450000,22.3495580000 114.0875270000,22.3492110000 114.0876060000,22.3488610000 114.0876940000,22.3485230000 114.0877910000,22.3482780000 114.0879050000,22.3480430000 114.0880460000,22.3478070000 114.0881770000,22.3476000000 114.0883540000,22.3473750000 114.0884380000,22.3472640000 114.0887110000,22.3469720000 114.0887280000,22.3469380000 114.0889780000,22.3467510000 114.0892720000,22.3465590000 114.0898710000,22.3462360000 114.0904280000,22.3459560000 114.0909630000,22.3456820000 114.0913410000,22.3455040000 114.0917190000,22.3453490000 114.0921550000,22.3452070000 114.0926230000,22.3450940000 114.0931090000,22.3450000000 114.0933720000,22.3449740000 114.0939120000,22.3449600000 114.0947650000,22.3449530000 114.0952440000,22.3449500000 114.0957200000,22.3449460000 114.1004000000,22.3449930000 114.1010700000,22.3450180000 114.1014000000,22.3450400000 114.1017300000,22.3450680000 114.1020600000,22.3451030000 114.1023900000,22.3451480000 114.1030400000,22.3452500000 114.1033000000,22.3453000000 114.1035300000,22.3453500000 114.1037300000,22.3453950000 114.1038810000,22.3454310000 114.1040300000,22.3454700000 114.1042020000,22.3455180000 114.1043800000,22.3455700000 114.1046900000,22.3456680000 114.1049680000,22.3457620000 114.1051600000,22.3458300000 114.1053500000,22.3459000000 114.1056800000,22.3460270000 114.1060000000,22.3461600000 114.1066070000,22.3464420000 114.1092280000,22.3478020000 114.1094000000,22.3478900000 114.1094990000,22.3479370000 114.1095990000,22.3479820000 114.1098100000,22.3480700000 114.1100000000,22.3481490000 114.1103700000,22.3483000000 114.1107400000,22.3484400000 114.1117850000,22.3488280000 114.1122940000,22.3490260000 114.1139190000,22.3496290000 114.1142620000,22.3497560000 114.1150360000,22.3500590000 114.1152760000,22.3501570000 114.1155700000,22.3502930000 114.1159460000,22.3504950000 114.1163210000,22.3507340000 114.1167000000,22.3510040000 114.1170480000,22.3512810000 114.1174180000,22.3515670000 114.1177500000,22.3517760000 114.1179500000,22.3518880000 114.1181630000,22.3519900000 114.1185390000,22.3521520000 114.1187440000,22.3522270000 114.1189890000,22.3523010000 114.1192310000,22.3523660000 114.1195060000,22.3524250000 114.1197310000,22.3524620000 114.1199660000,22.3524930000 114.1204150000,22.3525210000 114.1208080000,22.3525130000 114.1212930000,22.3524700000 114.1214870000,22.3524420000 114.1216850000,22.3524020000 114.1220080000,22.3523000000 114.1223600000,22.3521610000 114.1225800000,22.3520590000 114.1227700000,22.3519640000 114.1230910000,22.3517690000 114.1234160000,22.3515320000 114.1237280000,22.3512190000 114.1239480000,22.3509410000 114.1241480000,22.3506360000 114.1243000000,22.3503120000 114.1244440000,22.3499020000 114.1244990000,22.3496360000 114.1245460000,22.3490950000 114.1245370000,22.3484120000 114.1245330000,22.3480180000 114.1245490000,22.3476170000 114.1246110000,22.3472070000 114.1247310000,22.3467150000 114.1248690000,22.3463550000 114.1250230000,22.3459890000 114.1252280000,22.3456200000 114.1254330000,22.3453410000 114.1256160000,22.3450810000 114.1258580000,22.3448130000 114.1260660000,22.3446100000 114.1265330000,22.3442760000 114.1273480000,22.3438330000 114.1276470000,22.3436840000 114.1281330000,22.3434510000 114.1283770000,22.3433460000 114.1286560000,22.3432050000 114.1289710000,22.3430190000 114.1291870000,22.3428750000 114.1294020000,22.3427320000 114.1295670000,22.3426040000 114.1297310000,22.3424680000 114.1298900000,22.3423150000 114.1301370000,22.3420730000 114.1303630000,22.3417950000 114.1306770000,22.3413100000 114.1308700000,22.3409770000 114.1310190000,22.3406270000 114.1311910000,22.3402610000 114.1313730000,22.3398820000 114.1316710000,22.3392680000 114.1318380000,22.3388800000 114.1320290000,22.3384520000 114.1321900000,22.3381270000 114.1323810000,22.3378010000 114.1326340000,22.3374160000 114.1328490000,22.3371110000 114.1330810000,22.3368060000 114.1333360000,22.3365110000 114.1336020000,22.3362270000 114.1338900000,22.3359480000 114.1339530000,22.3358950000 114.1348240000,22.3351680000 114.1351300000,22.3349590000 114.1354160000,22.3347750000 114.1357060000,22.3346060000 114.1360310000,22.3344250000 114.1363260000,22.3342690000 114.1366140000,22.3341310000 114.1369430000,22.3339880000 114.1373830000,22.3338160000 114.1378110000,22.3336600000 114.1386610000,22.3333430000 114.1391380000,22.3332380000 114.1395480000,22.3331000000 114.1399080000,22.3329850000 114.1403610000,22.3328440000 114.1407700000,22.3327200000 114.1410000000,22.3326530000 114.1415590000,22.3324200000 114.1418070000,22.3322940000 114.1421160000,22.3321670000 114.1424750000,22.3320140000 114.1441310000,22.3314010000 114.1444610000,22.3312770000 114.1445550000,22.3312370000 114.1452410000,22.3309720000 114.1463780000,22.3305080000 114.1469190000,22.3303140000 114.1473950000,22.3301400000 114.1478570000,22.3299480000 114.1485500000,22.3297040000 114.1490120000,22.3295020000 114.1497570000,22.3291370000 114.1501000000,22.3289550000 114.1503960000,22.3287860000 114.1507410000,22.3285760000 114.1520550000,22.3277150000 114.1526590000,22.3272860000 114.1531820000,22.3269000000 114.1537150000,22.3264900000 114.1539540000,22.3262910000 114.1542690000,22.3260350000 114.1546560000,22.3256860000 114.1549900000,22.3253550000 114.1552240000,22.3251220000 114.1557270000,22.3246280000 114.1560650000,22.3242700000 114.1564410000,22.3238480000 114.1567550000,22.3235280000 114.1572650000,22.3229790000 114.1574240000,22.3228010000 114.1580160000,22.3220670000 114.1581700000,22.3219480000 114.1582400000,22.3219440000 114.1583060000,22.3219270000 114.1583690000,22.3218940000 114.1584140000,22.3218570000 114.1584550000,22.3217980000 114.1584850000,22.3217300000 114.1584900000,22.3216640000 114.1584870000,22.3215990000 114.1584730000,22.3215400000 114.1584450000,22.3214840000 114.1583710000,22.3213830000 114.1582890000,22.3213040000 114.1581330000,22.3212140000 114.1579870000,22.3211600000 114.1578660000,22.3211430000 114.1577810000,22.3211420000 114.1576940000,22.3211500000 114.1575210000,22.3211460000 114.1574230000,22.3211420000 114.1573210000,22.3211060000 114.1572090000,22.3210340000 114.1570940000,22.3209220000 114.1569690000,22.3207790000 114.1568580000,22.3206500000 114.1567450000,22.3204290000 114.1566950000,22.3203330000 114.1566500000,22.3201960000 114.1566010000,22.3200100000 114.1565880000,22.3199060000 114.1565880000,22.3198580000 114.1565930000,22.3197090000 114.1566130000,22.3195830000 114.1566440000,22.3194280000 114.1567160000,22.3191610000 114.1567510000,22.3190020000 114.1567810000,22.3188150000 114.1567850000,22.3187920000 114.1568000000,22.3185440000 114.1568060000,22.3183010000 114.1568030000,22.3181780000 114.1567980000,22.3177600000 114.1567990000,22.3177020000 114.1568050000,22.3176480000 114.1568180000,22.3175930000 114.1568430000,22.3175270000 114.1568900000,22.3175100000 114.1569300000,22.3174830000 114.1570690000,22.3174430000 114.1571390000,22.3174440000 114.1579100000,22.3174380000 114.1594300000,22.3174310000 114.1598620000,22.3174440000 114.1602980000,22.3175160000 114.1605780000,22.3176170000 114.1609100000,22.3177170000 114.1615040000,22.3179400000 114.1618970000,22.3180710000 114.1619910000,22.3181070000 114.1620790000,22.3181630000 114.1621420000,22.3182510000 114.1621900000,22.3183440000 114.1622510000,22.3184690000 114.1622960000,22.3186650000 114.1623810000,22.3187950000 114.1624430000,22.3188640000 114.1625380000,22.3189260000 114.1626200000,22.3189640000 114.1627080000,22.3189850000 114.1628060000,22.3189820000 114.1629290000,22.3188950000 114.1630570000,22.3188130000 114.1632460000,22.3187440000 114.1633650000,22.3187070000 114.1634970000,22.3186990000 114.1638430000,22.3187120000 114.1644770000,22.3187360000 114.1655110000,22.3187710000 114.1654890000,22.3188810000 114.1653400000,22.3195680000 114.1652760000,22.3198650000 114.1652330000,22.3200960000 114.1656100000,22.3201580000 114.1656670000,22.3201650000 114.1657600000,22.3201830000 114.1659130000,22.3202250000 114.1659830000,22.3202630000 114.1660560000,22.3202780000 114.1662850000,22.3203430000 114.1664830000,22.3203410000 114.1665510000,22.3203540000 114.1667040000,22.3203830000 114.1669000000,22.3204200000 114.1672280000,22.3204820000 114.1672690000,22.3204890000 114.1673590000,22.3205500000 114.1676930000,22.3206100000 114.1677170000,22.3206140000 114.1677990000,22.3206270000 114.1679060000,22.3206450000 114.1680890000,22.3206760000 114.1683060000,22.3207120000 114.1683450000,22.3207180000 114.1684170000,22.3207310000 114.1687180000,22.3207760000 114.1688560000,22.3207970000 114.1688960000,22.3208030000 114.1690010000,22.3208190000 114.1691120000,22.3208340000 114.1691710000,22.3205520000 114.1692280000,22.3202610000 114.1693170000,22.3198470000 114.1693890000,22.3194980000 114.1694180000,22.3193590000 114.1694290000,22.3193120000 114.1694680000,22.3191260000 114.1694830000,22.3190570000 114.1695380000,22.3187820000 114.1696280000,22.3183450000 114.1696600000,22.3181870000 114.1697870000,22.3175640000 114.1697990000,22.3175010000 114.1699580000,22.3167360000 114.1699920000,22.3165510000 114.1702310000,22.3154080000 114.1702360000,22.3153740000 114.1703270000,22.3149370000 114.1703380000,22.3148880000 114.1703990000,22.3145700000 114.1704180000,22.3144740000 114.1704350000,22.3143890000 114.1704660000,22.3142320000 114.1705300000,22.3139010000 114.1706980000,22.3130740000 114.1707170000,22.3129770000 114.1708160000,22.3125020000 114.1708200000,22.3124780000 114.1709270000,22.3119420000 114.1710070000,22.3115140000 114.1711040000,22.3109890000 114.1711200000,22.3109100000 114.1712230000,22.3103170000 114.1712290000,22.3102590000 114.1712300000,22.3101390000 114.1712520000,22.3096750000 114.1713030000,22.3091940000 114.1713190000,22.3090320000 114.1713840000,22.3084990000 114.1713890000,22.3084130000 114.1714240000,22.3078700000 114.1714890000,22.3070430000 114.1715310000,22.3065590000 114.1715670000,22.3061210000 114.1715830000,22.3059440000 114.1716850000,22.3053910000 114.1717000000,22.3052850000 114.1717760000,22.3044440000 114.1718060000,22.3039660000 114.1718370000,22.3032770000 114.1718410000,22.3032030000 114.1718860000,22.3026370000 114.1719080000,22.3023190000 114.1719430000,22.3017180000 114.1719850000,22.3012240000 114.1720470000,22.3004490000 114.1720530000,22.3003670000 114.1720570000,22.3003170000 114.1720580000,22.3002990000 114.1720830000,22.3000180000 114.1721260000,22.2995330000 114.1721640000,22.2987190000 114.1721880000,22.2981630000 114.1722150000,22.2976370000 114.1722680000,22.2969500000 114.1730230000,22.2970530000 114.1735670000,22.2971150000 114.1736840000,22.2971260000 114.1746080000,22.2972290000 114.1754110000,22.2973090000 114.1754600000,22.2973040000 114.1755700000,22.2978340000 114.1756140000,22.2981310000 114.1757140000,22.2987740000 114.1758250000,22.2994040000 114.1758570000,22.2995700000 114.1758690000,22.2996090000 114.1759340000,22.2998330000 114.1761220000,22.3005240000 114.1762230000,22.3008190000 114.1762780000,22.3009730000 114.1763470000,22.3011610000 114.1764810000,22.3015570000 114.1766200000,22.3019540000 114.1768430000,22.3025400000 114.1770660000,22.3027870000 114.1771560000,22.3029200000 114.1771740000,22.3029460000 114.1771940000,22.3029630000 114.1772150000,22.3029750000 114.1772340000,22.3029800000 114.1772520000,22.3029840000 114.1772570000,22.3029820000 114.1774100000,22.3029110000 114.1775410000,22.3028530000 114.1780480000,22.3026310000 114.1782860000,22.3025270000 114.1783480000,22.3024990000 114.1785130000,22.3024200000 114.1788520000,22.3023220000 114.1790790000,22.3022700000 114.1792950000,22.3022400000 114.1806720000,22.3021370000 114.1808000000,22.3021230000 114.1810060000,22.3021200000 114.1810580000,22.3021790000 114.1810990000,22.3023780000 114.1811270000,22.3027000000 114.1811770000,22.3031460000 114.1812620000,22.3036870000 114.1813040000,22.3037670000 114.1813890000,22.3039060000 114.1814520000,22.3039870000 114.1815220000,22.3040680000 114.1815780000,22.3041080000 114.1816430000,22.3041310000 114.1819190000,22.3041090000 114.1821700000,22.3040900000 114.1824890000,22.3040680000 114.1826190000,22.3040590000 114.1827420000,22.3040650000 114.1828430000,22.3040190000 114.1828960000,22.3038980000 114.1829030000,22.3037300000 114.1829270000,22.3035180000 114.1828220000,22.3034130000 114.1827510000,22.3033060000 114.1826750000,22.3025930000</coordinates>
                </LineString>
                <ExtendedData>
                    <Data name="duration">
                        <value>02:27:50</value>
                    </Data>
                    <Data name="length">
                        <value>81638.64177512535</value>
                    </Data>
                </ExtendedData>
            </Placemark>
        </Document>
    </Document>
</kml>