<?xml version="1.0" encoding="UTF-8"?>
<kml xmlns="http://www.opengis.net/kml/2.2" xmlns:gx="http://www.google.com/kml/ext/2.2">
    <Document>
        <name>Route</name>
        <Folder>
            <name>Route Request</name>
            <Placemark>
                <address>Block 13, Shung King Street, Whampoa Garden Bauhinia Mansions, Hung Hom, Kowloon City District, Kowloon, Hong Kong, KINGSFIELD MANSION LEVEL B, PRC</address>
                <Point>
                    <coordinates>114.1979188592,22.3511728286</coordinates>
                </Point>
                <ExtendedData>
                    <Data name="country">
                        <value>PRC</value>
                    </Data>
                    <Data name="country_code">
                        <value>cn</value>
                    </Data>
                    <Data name="residential">
                        <value>Whampoa Garden Bauhinia Mansions</value>
                    </Data>
                    <Data name="routingVisited">
                        <value>false</value>
                    </Data>
                    <Data name="road">
                        <value>Shung King Street</value>
                    </Data>
                    <Data name="state">
                        <value>Hong Kong</value>
                    </Data>
                    <Data name="building">
                        <value>Block 13</value>
                    </Data>
                    <Data name="region">
                        <value>Kowloon</value>
                    </Data>
                    <Data name="county">
                        <value>Kowloon City District</value>
                    </Data>
                    <Data name="postcode">
                        <value>KINGSFIELD MANSION LEVEL B</value>
                    </Data>
                    <Data name="suburb">
                        <value>Hung Hom</value>
                    </Data>
                </ExtendedData>
            </Placemark>
            <Placemark>
                <address>Little Sheep, Argyle Street, Kwun Chung, Mong Kok, Yau Tsim Mong District, Kowloon, Hong Kong, KIL 3348, PRC</address>
                <Point>
                    <coordinates>114.1666000896,22.3187707641</coordinates>
                </Point>
                <ExtendedData>
                    <Data name="country">
                        <value>PRC</value>
                    </Data>
                    <Data name="country_code">
                        <value>cn</value>
                    </Data>
                    <Data name="neighbourhood">
                        <value>Kwun Chung</value>
                    </Data>
                    <Data name="routingVisited">
                        <value>false</value>
                    </Data>
                    <Data name="road">
                        <value>Argyle Street</value>
                    </Data>
                    <Data name="state">
                        <value>Hong Kong</value>
                    </Data>
                    <Data name="region">
                        <value>Kowloon</value>
                    </Data>
                    <Data name="restaurant">
                        <value>Little Sheep</value>
                    </Data>
                    <Data name="county">
                        <value>Yau Tsim Mong District</value>
                    </Data>
                    <Data name="postcode">
                        <value>KIL 3348</value>
                    </Data>
                    <Data name="suburb">
                        <value>Mong Kok</value>
                    </Data>
                </ExtendedData>
            </Placemark>
            <Placemark>
                <address>Tai Lee Building, 31-41, Kok Cheung Street, Kwun Chung, Tai Kok Tsui, Yau Tsim Mong District, Kowloon, Hong Kong, KIL 3348, PRC</address>
                <Point>
                    <coordinates>114.1564421685,22.3190675040</coordinates>
                </Point>
                <ExtendedData>
                    <Data name="country">
                        <value>PRC</value>
                    </Data>
                    <Data name="country_code">
                        <value>cn</value>
                    </Data>
                    <Data name="neighbourhood">
                        <value>Kwun Chung</value>
                    </Data>
                    <Data name="routingVisited">
                        <value>false</value>
                    </Data>
                    <Data name="road">
                        <value>Kok Cheung Street</value>
                    </Data>
                    <Data name="state">
                        <value>Hong Kong</value>
                    </Data>
                    <Data name="building">
                        <value>Tai Lee Building</value>
                    </Data>
                    <Data name="region">
                        <value>Kowloon</value>
                    </Data>
                    <Data name="county">
                        <value>Yau Tsim Mong District</value>
                    </Data>
                    <Data name="postcode">
                        <value>KIL 3348</value>
                    </Data>
                    <Data name="house_number">
                        <value>31-41</value>
                    </Data>
                    <Data name="suburb">
                        <value>Tai Kok Tsui</value>
                    </Data>
                </ExtendedData>
            </Placemark>
            <Placemark>
                <Point>
                    <coordinates>113.9242650521,22.2949037883</coordinates>
                </Point>
                <ExtendedData>
                    <Data name="routingVisited">
                        <value>false</value>
                    </Data>
                </ExtendedData>
            </Placemark>
            <Placemark>
                <Point>
                    <coordinates>113.9363536496,22.3132087104</coordinates>
                </Point>
                <ExtendedData>
                    <Data name="routingVisited">
                        <value>false</value>
                    </Data>
                </ExtendedData>
            </Placemark>
            <Placemark>
                <address>Hong Kong Christian College, Chung Yat Street, Lung Tseng Tau, Islands District, New Territories, Hong Kong, PRC</address>
                <Point>
                    <coordinates>113.9445000030,22.3205156958</coordinates>
                </Point>
                <ExtendedData>
                    <Data name="country">
                        <value>PRC</value>
                    </Data>
                    <Data name="country_code">
                        <value>cn</value>
                    </Data>
                    <Data name="routingVisited">
                        <value>false</value>
                    </Data>
                    <Data name="hamlet">
                        <value>Lung Tseng Tau</value>
                    </Data>
                    <Data name="road">
                        <value>Chung Yat Street</value>
                    </Data>
                    <Data name="state">
                        <value>Hong Kong</value>
                    </Data>
                    <Data name="region">
                        <value>New Territories</value>
                    </Data>
                    <Data name="county">
                        <value>Islands District</value>
                    </Data>
                    <Data name="bus_stop">
                        <value>Hong Kong Christian College</value>
                    </Data>
                </ExtendedData>
            </Placemark>
            <Placemark>
                <Point>
                    <coordinates>113.9363587150,22.3132013112</coordinates>
                </Point>
                <ExtendedData>
                    <Data name="routingVisited">
                        <value>false</value>
                    </Data>
                </ExtendedData>
            </Placemark>
            <Placemark>
                <Point>
                    <coordinates>113.9258357322,22.2957427510</coordinates>
                </Point>
                <ExtendedData>
                    <Data name="routingVisited">
                        <value>false</value>
                    </Data>
                </ExtendedData>
            </Placemark>
            <Placemark>
                <address>Tai Lee Building, 31-41, Kok Cheung Street, Kwun Chung, Tai Kok Tsui, Yau Tsim Mong District, Kowloon, Hong Kong, KIL 3348, PRC</address>
                <Point>
                    <coordinates>114.1566784651,22.3196685506</coordinates>
                </Point>
                <ExtendedData>
                    <Data name="country">
                        <value>PRC</value>
                    </Data>
                    <Data name="country_code">
                        <value>cn</value>
                    </Data>
                    <Data name="neighbourhood">
                        <value>Kwun Chung</value>
                    </Data>
                    <Data name="routingVisited">
                        <value>false</value>
                    </Data>
                    <Data name="road">
                        <value>Kok Cheung Street</value>
                    </Data>
                    <Data name="state">
                        <value>Hong Kong</value>
                    </Data>
                    <Data name="building">
                        <value>Tai Lee Building</value>
                    </Data>
                    <Data name="region">
                        <value>Kowloon</value>
                    </Data>
                    <Data name="county">
                        <value>Yau Tsim Mong District</value>
                    </Data>
                    <Data name="postcode">
                        <value>KIL 3348</value>
                    </Data>
                    <Data name="house_number">
                        <value>31-41</value>
                    </Data>
                    <Data name="suburb">
                        <value>Tai Kok Tsui</value>
                    </Data>
                </ExtendedData>
            </Placemark>
            <Placemark>
                <address>Bridal Tea House Hotel, 8, Anchor Street, Kwun Chung, Tai Kok Tsui, Yau Tsim Mong District, Kowloon, Hong Kong, KIL 3348, PRC</address>
                <Point>
                    <coordinates>114.1665949367,22.3204335450</coordinates>
                </Point>
                <ExtendedData>
                    <Data name="country">
                        <value>PRC</value>
                    </Data>
                    <Data name="country_code">
                        <value>cn</value>
                    </Data>
                    <Data name="neighbourhood">
                        <value>Kwun Chung</value>
                    </Data>
                    <Data name="routingVisited">
                        <value>false</value>
                    </Data>
                    <Data name="road">
                        <value>Anchor Street</value>
                    </Data>
                    <Data name="state">
                        <value>Hong Kong</value>
                    </Data>
                    <Data name="building">
                        <value>Bridal Tea House Hotel</value>
                    </Data>
                    <Data name="region">
                        <value>Kowloon</value>
                    </Data>
                    <Data name="county">
                        <value>Yau Tsim Mong District</value>
                    </Data>
                    <Data name="postcode">
                        <value>KIL 3348</value>
                    </Data>
                    <Data name="house_number">
                        <value>8</value>
                    </Data>
                    <Data name="suburb">
                        <value>Tai Kok Tsui</value>
                    </Data>
                </ExtendedData>
            </Placemark>
            <Placemark>
                <Point>
                    <coordinates>114.1744209169,22.3203097026</coordinates>
                </Point>
                <ExtendedData>
                    <Data name="routingVisited">
                        <value>false</value>
                    </Data>
                </ExtendedData>
            </Placemark>
            <Placemark>
                <address>Block 13, Shung King Street, Whampoa Garden Bauhinia Mansions, Hung Hom, Kowloon City District, Kowloon, Hong Kong, KINGSFIELD MANSION LEVEL B, PRC</address>
                <Point>
                    <coordinates>114.1978908534,22.3511298527</coordinates>
                </Point>
                <ExtendedData>
                    <Data name="country">
                        <value>PRC</value>
                    </Data>
                    <Data name="country_code">
                        <value>cn</value>
                    </Data>
                    <Data name="residential">
                        <value>Whampoa Garden Bauhinia Mansions</value>
                    </Data>
                    <Data name="routingVisited">
                        <value>false</value>
                    </Data>
                    <Data name="road">
                        <value>Shung King Street</value>
                    </Data>
                    <Data name="state">
                        <value>Hong Kong</value>
                    </Data>
                    <Data name="building">
                        <value>Block 13</value>
                    </Data>
                    <Data name="region">
                        <value>Kowloon</value>
                    </Data>
                    <Data name="county">
                        <value>Kowloon City District</value>
                    </Data>
                    <Data name="postcode">
                        <value>KINGSFIELD MANSION LEVEL B</value>
                    </Data>
                    <Data name="suburb">
                        <value>Hung Hom</value>
                    </Data>
                </ExtendedData>
            </Placemark>
        </Folder>
        <Document>
            <name>87.1 km; 02:12 h (OSRM)</name>
            <Placemark>
                <name>Route</name>
                <LineString>
                    <coordinates>114.1982600000,22.3511920000 114.1983270000,22.3512510000 114.1983950000,22.3512010000 114.1985800000,22.3509450000 114.1986040000,22.3508540000 114.1987230000,22.3508600000 114.1988380000,22.3508580000 114.1989970000,22.3508410000 114.1991120000,22.3508190000 114.1992340000,22.3507830000 114.1997020000,22.3506260000 114.2001540000,22.3504590000 114.2002350000,22.3504260000 114.2000070000,22.3498760000 114.1999450000,22.3496990000 114.1998730000,22.3494670000 114.1997880000,22.3491850000 114.1997770000,22.3491420000 114.1996980000,22.3487480000 114.1997090000,22.3482850000 114.1996430000,22.3473690000 114.1996020000,22.3468680000 114.1995640000,22.3465770000 114.1995140000,22.3465260000 114.1994440000,22.3464580000 114.1993120000,22.3464170000 114.1991650000,22.3464160000 114.1990960000,22.3464080000 114.1990150000,22.3463600000 114.1989900000,22.3463070000 114.1989770000,22.3462480000 114.1995040000,22.3457480000 114.1995600000,22.3456860000 114.1996200000,22.3456200000 114.1994910000,22.3455000000 114.1992790000,22.3452820000 114.1991810000,22.3451300000 114.1991170000,22.3449730000 114.1990680000,22.3447720000 114.1989810000,22.3443040000 114.1988450000,22.3436110000 114.1988050000,22.3433690000 114.1987770000,22.3432330000 114.1987620000,22.3431470000 114.1987270000,22.3429030000 114.1987010000,22.3427100000 114.1986590000,22.3423670000 114.1986030000,22.3419990000 114.1985840000,22.3418900000 114.1984570000,22.3412790000 114.1984490000,22.3412310000 114.1983660000,22.3406690000 114.1983140000,22.3403130000 114.1982510000,22.3399810000 114.1982290000,22.3399050000 114.1981920000,22.3398030000 114.1981410000,22.3396760000 114.1980870000,22.3395880000 114.1980150000,22.3394960000 114.1979220000,22.3393900000 114.1978450000,22.3393250000 114.1977750000,22.3392790000 114.1976990000,22.3392400000 114.1975850000,22.3391860000 114.1975540000,22.3391760000 114.1974720000,22.3391480000 114.1973890000,22.3391190000 114.1972680000,22.3390730000 114.1971200000,22.3390080000 114.1969800000,22.3389460000 114.1967950000,22.3388550000 114.1966320000,22.3387500000 114.1964070000,22.3385520000 114.1963030000,22.3384470000 114.1961620000,22.3382840000 114.1960600000,22.3381330000 114.1959220000,22.3379310000 114.1956350000,22.3375440000 114.1954280000,22.3372700000 114.1951100000,22.3368070000 114.1945680000,22.3360810000 114.1944680000,22.3359390000 114.1943580000,22.3356990000 114.1942710000,22.3354080000 114.1942490000,22.3352550000 114.1942230000,22.3349580000 114.1942400000,22.3348190000 114.1942750000,22.3347110000 114.1942990000,22.3346490000 114.1943540000,22.3345570000 114.1943910000,22.3345020000 114.1945290000,22.3343370000 114.1945660000,22.3342920000 114.1948730000,22.3339880000 114.1951560000,22.3337200000 114.1952040000,22.3336790000 114.1953680000,22.3335240000 114.1957310000,22.3332100000 114.1959370000,22.3330510000 114.1961070000,22.3329720000 114.1963160000,22.3329130000 114.1965310000,22.3328570000 114.1967100000,22.3327780000 114.1968310000,22.3326680000 114.1968530000,22.3326080000 114.1968710000,22.3325480000 114.1968690000,22.3324660000 114.1968400000,22.3323670000 114.1968120000,22.3323130000 114.1967540000,22.3322370000 114.1966820000,22.3321850000 114.1965980000,22.3321440000 114.1964480000,22.3320910000 114.1961870000,22.3320180000 114.1961340000,22.3320070000 114.1960020000,22.3319440000 114.1959150000,22.3318900000 114.1957720000,22.3317670000 114.1956350000,22.3316390000 114.1948560000,22.3308760000 114.1947900000,22.3308060000 114.1944840000,22.3303150000 114.1939700000,22.3297920000 114.1935610000,22.3296050000 114.1925230000,22.3285870000 114.1920260000,22.3281690000 114.1918290000,22.3281020000 114.1916780000,22.3280460000 114.1914620000,22.3279620000 114.1912730000,22.3278860000 114.1909600000,22.3277570000 114.1901640000,22.3274580000 114.1898560000,22.3273410000 114.1896410000,22.3272440000 114.1894740000,22.3271670000 114.1892550000,22.3270540000 114.1889360000,22.3268790000 114.1883780000,22.3265610000 114.1882680000,22.3264990000 114.1878620000,22.3261910000 114.1869740000,22.3256620000 114.1868760000,22.3256130000 114.1858250000,22.3249790000 114.1856710000,22.3248940000 114.1855990000,22.3248580000 114.1855060000,22.3248120000 114.1838340000,22.3240350000 114.1837600000,22.3240020000 114.1823360000,22.3233350000 114.1820900000,22.3232210000 114.1815330000,22.3229680000 114.1814260000,22.3229160000 114.1806330000,22.3225870000 114.1802530000,22.3224760000 114.1793020000,22.3220480000 114.1783940000,22.3216360000 114.1781460000,22.3215170000 114.1775490000,22.3212230000 114.1773340000,22.3211060000 114.1770470000,22.3209760000 114.1767540000,22.3208570000 114.1758630000,22.3205070000 114.1755530000,22.3204260000 114.1752580000,22.3203700000 114.1746990000,22.3202530000 114.1742320000,22.3201570000 114.1740730000,22.3201280000 114.1736170000,22.3200400000 114.1732070000,22.3199770000 114.1728400000,22.3199240000 114.1726650000,22.3198990000 114.1722060000,22.3198160000 114.1718370000,22.3197540000 114.1717060000,22.3197310000 114.1716370000,22.3197180000 114.1715080000,22.3196940000 114.1710810000,22.3196140000 114.1708980000,22.3195790000 114.1706690000,22.3195360000 114.1705230000,22.3195090000 114.1703470000,22.3194760000 114.1702230000,22.3194520000 114.1701930000,22.3194470000 114.1699760000,22.3194060000 114.1698790000,22.3193870000 114.1695810000,22.3193390000 114.1695360000,22.3193310000 114.1694290000,22.3193120000 114.1693200000,22.3192930000 114.1692430000,22.3192790000 114.1688070000,22.3192060000 114.1687900000,22.3192030000 114.1687160000,22.3191900000 114.1685700000,22.3191660000 114.1683980000,22.3191380000 114.1681920000,22.3191040000 114.1681320000,22.3190940000 114.1680470000,22.3190780000 114.1678150000,22.3190330000 114.1677620000,22.3190220000 114.1676800000,22.3190060000 114.1675610000,22.3189840000 114.1671990000,22.3189160000 114.1669890000,22.3188770000 114.1667760000,22.3188370000 114.1665930000,22.3188030000 114.1665450000,22.3187940000 114.1662740000,22.3187430000 114.1662220000,22.3187350000 114.1660490000,22.3187110000 114.1654280000,22.3186910000 114.1649530000,22.3186700000 114.1646960000,22.3186640000 114.1644420000,22.3186520000 114.1642870000,22.3186450000 114.1641230000,22.3186310000 114.1639600000,22.3186090000 114.1637720000,22.3185630000 114.1636480000,22.3185360000 114.1635180000,22.3184940000 114.1634290000,22.3184570000 114.1633210000,22.3184080000 114.1631370000,22.3183250000 114.1630390000,22.3182800000 114.1629510000,22.3182060000 114.1627870000,22.3181390000 114.1624900000,22.3180800000 114.1622920000,22.3180820000 114.1621530000,22.3180450000 114.1609450000,22.3176380000 114.1606000000,22.3175150000 114.1603830000,22.3174330000 114.1598760000,22.3173460000 114.1594480000,22.3173210000 114.1581900000,22.3173120000 114.1571410000,22.3173320000 114.1570750000,22.3173130000 114.1569920000,22.3172830000 114.1569780000,22.3172490000 114.1569570000,22.3172180000 114.1569100000,22.3171760000 114.1568510000,22.3171490000 114.1567850000,22.3171400000 114.1567210000,22.3171500000 114.1566540000,22.3171840000 114.1566040000,22.3172370000 114.1565780000,22.3173040000 114.1565790000,22.3173740000 114.1566060000,22.3174400000 114.1566570000,22.3174920000 114.1566890000,22.3175850000 114.1567020000,22.3176500000 114.1567060000,22.3177460000 114.1567260000,22.3181890000 114.1567260000,22.3185230000 114.1567110000,22.3187810000 114.1566780000,22.3189670000 114.1566420000,22.3191110000 114.1566330000,22.3191450000 114.1565680000,22.3193640000 114.1565240000,22.3195560000 114.1565050000,22.3197080000 114.1565050000,22.3198570000 114.1565090000,22.3199400000 114.1565180000,22.3200140000 114.1565550000,22.3201970000 114.1565780000,22.3202850000 114.1566100000,22.3203630000 114.1566570000,22.3204570000 114.1567900000,22.3206860000 114.1568780000,22.3208170000 114.1569980000,22.3209680000 114.1571230000,22.3210860000 114.1572140000,22.3211860000 114.1572770000,22.3212460000 114.1573510000,22.3213450000 114.1574530000,22.3214810000 114.1573690000,22.3216580000 114.1570450000,22.3221300000 114.1563390000,22.3231640000 114.1560050000,22.3236420000 114.1555090000,22.3242060000 114.1551290000,22.3246030000 114.1547720000,22.3249070000 114.1545800000,22.3250590000 114.1543480000,22.3252160000 114.1534280000,22.3259320000 114.1530330000,22.3262600000 114.1527240000,22.3265660000 114.1522310000,22.3270260000 114.1519620000,22.3272490000 114.1514500000,22.3276420000 114.1499690000,22.3284660000 114.1495610000,22.3286740000 114.1493470000,22.3287790000 114.1489480000,22.3289760000 114.1486200000,22.3291300000 114.1483290000,22.3292640000 114.1476850000,22.3295300000 114.1471200000,22.3297390000 114.1466370000,22.3299120000 114.1463240000,22.3300390000 114.1453670000,22.3304340000 114.1449050000,22.3306190000 114.1440650000,22.3309030000 114.1422410000,22.3316350000 114.1419400000,22.3317580000 114.1416450000,22.3318640000 114.1415840000,22.3318910000 114.1409270000,22.3321250000 114.1406060000,22.3322590000 114.1401940000,22.3324580000 114.1396920000,22.3327020000 114.1394230000,22.3328760000 114.1377460000,22.3335210000 114.1373110000,22.3336840000 114.1368720000,22.3338520000 114.1365480000,22.3339950000 114.1362520000,22.3341350000 114.1359540000,22.3342920000 114.1356170000,22.3344760000 114.1353230000,22.3346500000 114.1350280000,22.3348370000 114.1347180000,22.3350490000 114.1345310000,22.3351930000 114.1342810000,22.3353920000 114.1340320000,22.3356040000 114.1337680000,22.3358450000 114.1334860000,22.3361240000 114.1332150000,22.3364170000 114.1329590000,22.3367180000 114.1327150000,22.3370340000 114.1325000000,22.3373380000 114.1322550000,22.3377220000 114.1320490000,22.3380880000 114.1318960000,22.3384030000 114.1317130000,22.3388030000 114.1313580000,22.3395440000 114.1310790000,22.3401370000 114.1310470000,22.3402070000 114.1308880000,22.3405740000 114.1307190000,22.3409130000 114.1305230000,22.3412450000 114.1302290000,22.3416960000 114.1300150000,22.3419730000 114.1297900000,22.3422150000 114.1296350000,22.3423570000 114.1294840000,22.3425000000 114.1293200000,22.3426370000 114.1291160000,22.3427790000 114.1288740000,22.3429000000 114.1285800000,22.3430670000 114.1282990000,22.3432080000 114.1280790000,22.3433120000 114.1275730000,22.3435180000 114.1272420000,22.3436620000 114.1269010000,22.3438300000 114.1265480000,22.3440350000 114.1261970000,22.3442850000 114.1259420000,22.3444920000 114.1256990000,22.3447270000 114.1254680000,22.3449730000 114.1252700000,22.3452380000 114.1250080000,22.3455860000 114.1248240000,22.3458870000 114.1246430000,22.3463590000 114.1244800000,22.3469000000 114.1244150000,22.3472210000 114.1243800000,22.3475480000 114.1243660000,22.3478910000 114.1243750000,22.3483980000 114.1243460000,22.3492150000 114.1242840000,22.3496110000 114.1241960000,22.3499950000 114.1240920000,22.3503190000 114.1239530000,22.3506300000 114.1237610000,22.3509160000 114.1234880000,22.3512340000 114.1230260000,22.3516520000 114.1228280000,22.3518040000 114.1226080000,22.3519350000 114.1221550000,22.3521050000 114.1217180000,22.3522390000 114.1214310000,22.3523020000 114.1211440000,22.3523490000 114.1207110000,22.3523730000 114.1203330000,22.3523730000 114.1199880000,22.3523650000 114.1194960000,22.3522790000 114.1191870000,22.3522180000 114.1188760000,22.3521210000 114.1185250000,22.3519850000 114.1181990000,22.3518490000 114.1179480000,22.3517290000 114.1175950000,22.3515240000 114.1172010000,22.3512330000 114.1166410000,22.3508060000 114.1162170000,22.3505070000 114.1159110000,22.3503370000 114.1156210000,22.3501800000 114.1153280000,22.3500460000 114.1150960000,22.3499490000 114.1143120000,22.3496360000 114.1132010000,22.3492230000 114.1124200000,22.3489270000 114.1118410000,22.3487000000 114.1115030000,22.3485560000 114.1108790000,22.3482700000 114.1067700000,22.3461380000 114.1065040000,22.3460130000 114.1062830000,22.3459150000 114.1060100000,22.3457980000 114.1057500000,22.3456900000 114.1055200000,22.3456000000 114.1053160000,22.3455250000 114.1050600000,22.3454400000 114.1048010000,22.3453580000 114.1045000000,22.3452660000 114.1042000000,22.3451750000 114.1039000000,22.3450920000 114.1036000000,22.3450220000 114.1033000000,22.3449580000 114.1030000000,22.3449000000 114.1026000000,22.3448350000 114.1020600000,22.3447660000 114.1017660000,22.3447330000 114.1014700000,22.3447070000 114.1011840000,22.3446860000 114.1009000000,22.3446750000 114.1003400000,22.3446570000 114.0957200000,22.3446110000 114.0956240000,22.3446120000 114.0943500000,22.3446090000 114.0937600000,22.3445980000 114.0932450000,22.3446000000 114.0929810000,22.3446070000 114.0927640000,22.3446250000 114.0924930000,22.3446550000 114.0921460000,22.3447160000 114.0920330000,22.3447350000 114.0918930000,22.3447670000 114.0917140000,22.3448180000 114.0915160000,22.3448850000 114.0912310000,22.3449890000 114.0909600000,22.3451060000 114.0906860000,22.3452240000 114.0903900000,22.3453580000 114.0901860000,22.3454620000 114.0897600000,22.3456670000 114.0895210000,22.3457890000 114.0893050000,22.3459100000 114.0889220000,22.3461740000 114.0885700000,22.3464410000 114.0882590000,22.3467350000 114.0881270000,22.3468140000 114.0880130000,22.3469050000 114.0878070000,22.3471650000 114.0875500000,22.3475690000 114.0873430000,22.3479580000 114.0871970000,22.3483340000 114.0870280000,22.3489680000 114.0868450000,22.3496650000 114.0866810000,22.3502570000 114.0865870000,22.3504190000 114.0865390000,22.3505820000 114.0864710000,22.3507950000 114.0864130000,22.3509630000 114.0863090000,22.3511870000 114.0860160000,22.3517900000 114.0857050000,22.3523210000 114.0855330000,22.3525550000 114.0852520000,22.3528710000 114.0849440000,22.3532050000 114.0847070000,22.3533890000 114.0845530000,22.3534650000 114.0844510000,22.3535070000 114.0842000000,22.3535790000 114.0840790000,22.3535920000 114.0838860000,22.3536220000 114.0835600000,22.3536180000 114.0833460000,22.3536100000 114.0829750000,22.3535430000 114.0824940000,22.3534300000 114.0822590000,22.3533520000 114.0818410000,22.3532280000 114.0807790000,22.3528880000 114.0627170000,22.3478750000 114.0617850000,22.3476010000 114.0607760000,22.3472610000 114.0604130000,22.3470910000 114.0600470000,22.3469060000 114.0595450000,22.3466410000 114.0589420000,22.3462970000 114.0582690000,22.3458670000 114.0522890000,22.3419600000 114.0520140000,22.3417810000 114.0516860000,22.3415850000 114.0511960000,22.3413570000 114.0507800000,22.3412120000 114.0505060000,22.3411390000 114.0500910000,22.3410340000 114.0495850000,22.3409630000 114.0489070000,22.3408940000 114.0486340000,22.3408710000 114.0480380000,22.3408200000 114.0472620000,22.3407500000 114.0466410000,22.3406480000 114.0460530000,22.3405040000 114.0458190000,22.3404340000 114.0456190000,22.3403700000 114.0453110000,22.3402400000 114.0449720000,22.3400670000 114.0440850000,22.3395510000 114.0432940000,22.3391030000 114.0404020000,22.3378420000 114.0397780000,22.3375450000 114.0393360000,22.3373640000 114.0390890000,22.3372750000 114.0387840000,22.3371820000 114.0384720000,22.3371100000 114.0380410000,22.3370070000 114.0375410000,22.3369040000 114.0371380000,22.3368240000 114.0367080000,22.3367090000 114.0364270000,22.3366290000 114.0362160000,22.3365560000 114.0357730000,22.3363950000 114.0352720000,22.3361990000 114.0347250000,22.3359550000 114.0342730000,22.3357320000 114.0338990000,22.3355020000 114.0333890000,22.3351500000 114.0328770000,22.3347490000 114.0324430000,22.3343380000 114.0299060000,22.3319080000 114.0272230000,22.3293370000 114.0265270000,22.3286850000 114.0251240000,22.3273490000 114.0247260000,22.3270220000 114.0244480000,22.3267970000 114.0243000000,22.3266910000 114.0239930000,22.3264980000 114.0235970000,22.3262700000 114.0230920000,22.3260010000 114.0226320000,22.3257790000 114.0218850000,22.3254810000 114.0213490000,22.3253080000 114.0208380000,22.3251670000 114.0203120000,22.3250680000 114.0198860000,22.3249950000 114.0194280000,22.3249350000 114.0189490000,22.3248840000 114.0184730000,22.3248690000 114.0179280000,22.3248690000 114.0157280000,22.3250250000 114.0151360000,22.3250500000 114.0146250000,22.3250580000 114.0140290000,22.3250370000 114.0134250000,22.3249950000 114.0129230000,22.3249450000 114.0124980000,22.3248840000 114.0120280000,22.3247880000 114.0109800000,22.3245210000 114.0104470000,22.3243410000 114.0099940000,22.3241710000 114.0092210000,22.3238440000 114.0073390000,22.3230500000 114.0030460000,22.3210970000 114.0022110000,22.3207110000 114.0018700000,22.3205380000 114.0015450000,22.3203740000 114.0012450000,22.3202230000 114.0009200000,22.3200340000 114.0006410000,22.3198590000 114.0004230000,22.3197030000 114.0001470000,22.3195040000 113.9998380000,22.3192620000 113.9994860000,22.3189590000 113.9992090000,22.3186870000 113.9989500000,22.3184190000 113.9985960000,22.3180270000 113.9983040000,22.3176570000 113.9980000000,22.3172060000 113.9977570000,22.3168210000 113.9974960000,22.3163870000 113.9973020000,22.3160790000 113.9971020000,22.3157770000 113.9968930000,22.3154780000 113.9966240000,22.3151180000 113.9964650000,22.3149000000 113.9961560000,22.3145280000 113.9959240000,22.3142630000 113.9957120000,22.3140280000 113.9954890000,22.3137910000 113.9951210000,22.3134260000 113.9948160000,22.3131480000 113.9944550000,22.3128470000 113.9940660000,22.3125250000 113.9937300000,22.3122730000 113.9933570000,22.3120010000 113.9929640000,22.3117410000 113.9926010000,22.3115140000 113.9877960000,22.3087560000 113.9856810000,22.3074790000 113.9851170000,22.3071400000 113.9844290000,22.3067090000 113.9829960000,22.3058040000 113.9815660000,22.3049010000 113.9804280000,22.3042120000 113.9795070000,22.3036070000 113.9785100000,22.3030050000 113.9778550000,22.3026450000 113.9769330000,22.3021450000 113.9757440000,22.3015630000 113.9752270000,22.3013050000 113.9747370000,22.3010570000 113.9737440000,22.3005560000 113.9731390000,22.3002800000 113.9722740000,22.2999010000 113.9715800000,22.2996450000 113.9710390000,22.2994730000 113.9705160000,22.2993110000 113.9698770000,22.2991360000 113.9689750000,22.2989320000 113.9680470000,22.2986900000 113.9677470000,22.2986190000 113.9635320000,22.2977010000 113.9609300000,22.2971350000 113.9603210000,22.2969830000 113.9595720000,22.2967670000 113.9587890000,22.2964930000 113.9582960000,22.2962940000 113.9578120000,22.2960870000 113.9572830000,22.2958390000 113.9567450000,22.2955430000 113.9560790000,22.2951570000 113.9558210000,22.2949960000 113.9555750000,22.2948250000 113.9552750000,22.2946020000 113.9549650000,22.2943560000 113.9546260000,22.2940770000 113.9542590000,22.2937580000 113.9538700000,22.2934090000 113.9535270000,22.2930740000 113.9532730000,22.2927990000 113.9528750000,22.2923800000 113.9523830000,22.2918530000 113.9521350000,22.2916130000 113.9518830000,22.2913840000 113.9515220000,22.2910870000 113.9512400000,22.2908870000 113.9510840000,22.2907630000 113.9504990000,22.2904060000 113.9500840000,22.2901790000 113.9496380000,22.2899900000 113.9491880000,22.2898330000 113.9487170000,22.2896800000 113.9483130000,22.2895790000 113.9478750000,22.2894950000 113.9474000000,22.2894160000 113.9468720000,22.2893630000 113.9463440000,22.2893450000 113.9459210000,22.2893440000 113.9454980000,22.2893540000 113.9448930000,22.2894100000 113.9445070000,22.2894660000 113.9439680000,22.2895710000 113.9434870000,22.2896900000 113.9431440000,22.2897990000 113.9427810000,22.2899170000 113.9422260000,22.2901410000 113.9417000000,22.2903820000 113.9413010000,22.2906010000 113.9409940000,22.2907830000 113.9406600000,22.2910100000 113.9403680000,22.2912140000 113.9400220000,22.2914810000 113.9396530000,22.2918110000 113.9394110000,22.2920570000 113.9387640000,22.2926780000 113.9384570000,22.2930260000 113.9381460000,22.2933970000 113.9378070000,22.2938530000 113.9374580000,22.2943700000 113.9370460000,22.2950450000 113.9369080000,22.2952260000 113.9365200000,22.2956560000 113.9363690000,22.2959010000 113.9361840000,22.2963620000 113.9360670000,22.2966820000 113.9358920000,22.2969650000 113.9356150000,22.2974640000 113.9354890000,22.2976900000 113.9353200000,22.2981160000 113.9352260000,22.2984440000 113.9351640000,22.2987180000 113.9350440000,22.2989940000 113.9349360000,22.2991320000 113.9348370000,22.2992260000 113.9347150000,22.2993100000 113.9346140000,22.2993630000 113.9344570000,22.2994100000 113.9342440000,22.2994350000 113.9340730000,22.2994330000 113.9339720000,22.2994100000 113.9338530000,22.2993660000 113.9337490000,22.2993140000 113.9336330000,22.2992540000 113.9334800000,22.2991600000 113.9332910000,22.2990010000 113.9331740000,22.2988710000 113.9331510000,22.2986820000 113.9330790000,22.2985740000 113.9330020000,22.2984710000 113.9328900000,22.2984070000 113.9327530000,22.2983830000 113.9325810000,22.2983510000 113.9324610000,22.2982880000 113.9323240000,22.2981450000 113.9323150000,22.2981350000 113.9322590000,22.2980660000 113.9321950000,22.2979860000 113.9321410000,22.2979380000 113.9319540000,22.2977720000 113.9317230000,22.2975570000 113.9314740000,22.2973830000 113.9312540000,22.2972740000 113.9312160000,22.2972560000 113.9309590000,22.2971360000 113.9306500000,22.2970330000 113.9300960000,22.2968760000 113.9287700000,22.2964990000 113.9280560000,22.2962960000 113.9278260000,22.2962310000 113.9275690000,22.2961520000 113.9274870000,22.2961040000 113.9274320000,22.2960620000 113.9273730000,22.2960070000 113.9273560000,22.2959260000 113.9273180000,22.2958510000 113.9272520000,22.2957800000 113.9271670000,22.2957300000 113.9270700000,22.2957030000 113.9269690000,22.2957030000 113.9268490000,22.2957400000 113.9266840000,22.2957630000 113.9265390000,22.2957550000 113.9263500000,22.2957070000 113.9247180000,22.2951860000 113.9242190000,22.2950270000 113.9233630000,22.2947540000 113.9226100000,22.2945420000 113.9222840000,22.2944830000 113.9221610000,22.2944600000 113.9220590000,22.2944290000 113.9219930000,22.2943860000 113.9219210000,22.2943400000 113.9219290000,22.2942620000 113.9219630000,22.2941580000 113.9220090000,22.2940580000 113.9221340000,22.2939260000 113.9222460000,22.2938380000 113.9224130000,22.2937720000 113.9226780000,22.2936690000 113.9232180000,22.2934910000 113.9240510000,22.2932410000 113.9243220000,22.2931660000 113.9246990000,22.2931400000 113.9248830000,22.2931690000 113.9249620000,22.2931870000 113.9250240000,22.2932090000 113.9250550000,22.2932390000 113.9251190000,22.2933160000 113.9251560000,22.2933750000 113.9252110000,22.2934250000 113.9252750000,22.2934570000 113.9253470000,22.2934730000 113.9254170000,22.2934710000 113.9258610000,22.2935300000 113.9260070000,22.2935690000 113.9262770000,22.2936410000 113.9266920000,22.2937820000 113.9269090000,22.2938490000 113.9272930000,22.2939670000 113.9273620000,22.2940110000 113.9274140000,22.2940530000 113.9274600000,22.2940990000 113.9274960000,22.2941510000 113.9275260000,22.2942200000 113.9275490000,22.2942740000 113.9275820000,22.2943130000 113.9276240000,22.2943430000 113.9276730000,22.2943620000 113.9277260000,22.2943690000 113.9277790000,22.2943630000 113.9278410000,22.2943380000 113.9279290000,22.2943260000 113.9280540000,22.2943070000 113.9281930000,22.2943020000 113.9283650000,22.2943060000 113.9289790000,22.2945080000 113.9295430000,22.2946750000 113.9316450000,22.2953420000 113.9322890000,22.2955480000 113.9325710000,22.2956880000 113.9327680000,22.2957960000 113.9329390000,22.2959260000 113.9329770000,22.2959960000 113.9330000000,22.2960800000 113.9330090000,22.2962330000 113.9329890000,22.2963220000 113.9329970000,22.2964120000 113.9330370000,22.2965020000 113.9331060000,22.2965770000 113.9331960000,22.2966280000 113.9333000000,22.2966500000 113.9334050000,22.2966410000 113.9335020000,22.2966020000 113.9336040000,22.2965870000 113.9337480000,22.2965970000 113.9339080000,22.2966370000 113.9341050000,22.2966900000 113.9343810000,22.2967890000 113.9345770000,22.2968980000 113.9347230000,22.2970120000 113.9348270000,22.2971260000 113.9349170000,22.2972940000 113.9349720000,22.2974370000 113.9349960000,22.2976060000 113.9349860000,22.2978080000 113.9349390000,22.2980020000 113.9348760000,22.2982430000 113.9347870000,22.2985580000 113.9347350000,22.2987830000 113.9347010000,22.2989680000 113.9346670000,22.2992420000 113.9346570000,22.2994040000 113.9346550000,22.2996860000 113.9346620000,22.2999700000 113.9346940000,22.3002850000 113.9347530000,22.3005990000 113.9348260000,22.3009320000 113.9349430000,22.3015040000 113.9350530000,22.3018520000 113.9352030000,22.3023310000 113.9355150000,22.3031420000 113.9361240000,22.3044080000 113.9364770000,22.3053440000 113.9368540000,22.3063950000 113.9369210000,22.3066690000 113.9370640000,22.3072900000 113.9371570000,22.3076380000 113.9374760000,22.3095760000 113.9375670000,22.3100200000 113.9375560000,22.3102950000 113.9374720000,22.3104310000 113.9374100000,22.3105030000 113.9373320000,22.3105770000 113.9372160000,22.3106320000 113.9371290000,22.3106660000 113.9370690000,22.3106930000 113.9368970000,22.3108030000 113.9367750000,22.3108840000 113.9366750000,22.3110070000 113.9364980000,22.3112900000 113.9364350000,22.3113070000 113.9363990000,22.3113290000 113.9363580000,22.3113730000 113.9363380000,22.3114100000 113.9363300000,22.3114490000 113.9363360000,22.3114880000 113.9363410000,22.3115220000 113.9363660000,22.3115670000 113.9364000000,22.3116000000 113.9364490000,22.3116270000 113.9363030000,22.3119480000 113.9362500000,22.3121490000 113.9362010000,22.3123370000 113.9361850000,22.3123980000 113.9363920000,22.3124610000 113.9364990000,22.3124890000 113.9364530000,22.3126110000 113.9362690000,22.3131070000 113.9363570000,22.3131550000 113.9363710000,22.3131590000 113.9364480000,22.3131820000 113.9366890000,22.3125190000 113.9365780000,22.3124890000 113.9365250000,22.3124550000 113.9362010000,22.3123370000 113.9362500000,22.3121490000 113.9363030000,22.3119480000 113.9364490000,22.3116270000 113.9365220000,22.3116400000 113.9366140000,22.3116170000 113.9366680000,22.3115750000 113.9368160000,22.3115850000 113.9370600000,22.3115940000 113.9372450000,22.3116310000 113.9376770000,22.3116870000 113.9377750000,22.3117810000 113.9377860000,22.3118560000 113.9378270000,22.3119230000 113.9379000000,22.3119780000 113.9379580000,22.3119960000 113.9380590000,22.3119930000 113.9383180000,22.3121820000 113.9384480000,22.3122870000 113.9385990000,22.3124500000 113.9386690000,22.3125480000 113.9387360000,22.3127060000 113.9387670000,22.3128350000 113.9387900000,22.3131540000 113.9388010000,22.3133620000 113.9388290000,22.3135270000 113.9388680000,22.3136340000 113.9389140000,22.3137210000 113.9390220000,22.3138320000 113.9391520000,22.3139250000 113.9393710000,22.3139870000 113.9395690000,22.3140200000 113.9396250000,22.3141310000 113.9397150000,22.3142210000 113.9398370000,22.3142820000 113.9399740000,22.3143040000 113.9401110000,22.3142820000 113.9402330000,22.3142210000 113.9402570000,22.3142020000 113.9402790000,22.3141820000 113.9403250000,22.3141290000 113.9404960000,22.3141490000 113.9406920000,22.3141750000 113.9408580000,22.3142240000 113.9409930000,22.3142660000 113.9411380000,22.3142820000 113.9413530000,22.3142760000 113.9415040000,22.3142990000 113.9415570000,22.3143790000 113.9416050000,22.3144180000 113.9417450000,22.3144740000 113.9418120000,22.3144620000 113.9419580000,22.3144930000 113.9420670000,22.3145240000 113.9421450000,22.3145480000 113.9423070000,22.3147800000 113.9424340000,22.3149630000 113.9428780000,22.3156000000 113.9429630000,22.3157130000 113.9431190000,22.3159850000 113.9432310000,22.3163180000 113.9433310000,22.3169400000 113.9433470000,22.3171870000 113.9433510000,22.3174290000 113.9433040000,22.3176740000 113.9432170000,22.3179310000 113.9430940000,22.3182750000 113.9430470000,22.3184060000 113.9429480000,22.3186600000 113.9427830000,22.3191470000 113.9427640000,22.3191950000 113.9426990000,22.3193040000 113.9426320000,22.3193680000 113.9425380000,22.3194380000 113.9424800000,22.3194930000 113.9424520000,22.3195500000 113.9424480000,22.3195690000 113.9424470000,22.3196280000 113.9424690000,22.3196900000 113.9425070000,22.3197390000 113.9425550000,22.3197720000 113.9426210000,22.3197940000 113.9426960000,22.3197930000 113.9427280000,22.3197850000 113.9439310000,22.3200830000 113.9441270000,22.3201520000 113.9442410000,22.3202220000 113.9442680000,22.3202910000 113.9442680000,22.3203160000 113.9442590000,22.3204210000 113.9442300000,22.3204700000 113.9442010000,22.3205570000 113.9442010000,22.3206340000 113.9442410000,22.3207230000 113.9442860000,22.3207750000 113.9443620000,22.3208100000 113.9444500000,22.3208370000 113.9444720000,22.3208400000 113.9445490000,22.3208490000 113.9446270000,22.3208320000 113.9446620000,22.3208150000 113.9445490000,22.3205810000 113.9445090000,22.3205110000 113.9444910000,22.3204790000 113.9444690000,22.3203780000 113.9444720000,22.3203060000 113.9444930000,22.3202220000 113.9445150000,22.3201410000 113.9445150000,22.3200660000 113.9444920000,22.3200070000 113.9444390000,22.3199690000 113.9443340000,22.3199430000 113.9442430000,22.3199520000 113.9441190000,22.3199610000 113.9440480000,22.3199580000 113.9439370000,22.3199520000 113.9438490000,22.3199270000 113.9436620000,22.3198790000 113.9436970000,22.3197830000 113.9437110000,22.3196560000 113.9435730000,22.3192790000 113.9434580000,22.3190950000 113.9432060000,22.3188170000 113.9429480000,22.3186600000 113.9430470000,22.3184060000 113.9430940000,22.3182750000 113.9432170000,22.3179310000 113.9433040000,22.3176740000 113.9433510000,22.3174290000 113.9433470000,22.3171870000 113.9433310000,22.3169400000 113.9432310000,22.3163180000 113.9431190000,22.3159850000 113.9429630000,22.3157130000 113.9428780000,22.3156000000 113.9424340000,22.3149630000 113.9423070000,22.3147800000 113.9421450000,22.3145480000 113.9421250000,22.3144920000 113.9421070000,22.3144290000 113.9421000000,22.3144040000 113.9420740000,22.3142820000 113.9420800000,22.3141950000 113.9420510000,22.3140900000 113.9419960000,22.3140200000 113.9418860000,22.3139590000 113.9417920000,22.3139270000 113.9417250000,22.3139310000 113.9416290000,22.3139630000 113.9415830000,22.3139920000 113.9415200000,22.3140660000 113.9414930000,22.3141270000 113.9413610000,22.3141630000 113.9412260000,22.3141900000 113.9411870000,22.3141890000 113.9410560000,22.3141830000 113.9408580000,22.3141370000 113.9406720000,22.3140610000 113.9405110000,22.3139630000 113.9403940000,22.3138900000 113.9403640000,22.3137660000 113.9402910000,22.3136580000 113.9401860000,22.3135770000 113.9400570000,22.3135320000 113.9399430000,22.3135260000 113.9398310000,22.3135480000 113.9397300000,22.3135970000 113.9396470000,22.3136690000 113.9396090000,22.3137210000 113.9395800000,22.3137770000 113.9394120000,22.3138510000 113.9392800000,22.3138260000 113.9391540000,22.3137650000 113.9390390000,22.3136550000 113.9389740000,22.3135000000 113.9389340000,22.3133410000 113.9389260000,22.3131790000 113.9389190000,22.3130590000 113.9389010000,22.3127850000 113.9387950000,22.3125100000 113.9386380000,22.3123020000 113.9384010000,22.3121080000 113.9382960000,22.3120120000 113.9382170000,22.3118560000 113.9382280000,22.3117940000 113.9382190000,22.3117300000 113.9381720000,22.3116520000 113.9380760000,22.3115930000 113.9379550000,22.3115860000 113.9378740000,22.3116150000 113.9377300000,22.3116240000 113.9374380000,22.3115950000 113.9369670000,22.3115350000 113.9368300000,22.3115100000 113.9367070000,22.3114320000 113.9366660000,22.3113510000 113.9366180000,22.3113140000 113.9365860000,22.3112990000 113.9365530000,22.3112910000 113.9364980000,22.3112900000 113.9364350000,22.3113070000 113.9363990000,22.3113290000 113.9363580000,22.3113730000 113.9363380000,22.3114100000 113.9363300000,22.3114490000 113.9363360000,22.3114880000 113.9363410000,22.3115220000 113.9363660000,22.3115670000 113.9364000000,22.3116000000 113.9364490000,22.3116270000 113.9363030000,22.3119480000 113.9362500000,22.3121490000 113.9362010000,22.3123370000 113.9361850000,22.3123980000 113.9363920000,22.3124610000 113.9364990000,22.3124890000 113.9364530000,22.3126110000 113.9362690000,22.3131070000 113.9363570000,22.3131550000 113.9363730000,22.3131600000 113.9364480000,22.3131820000 113.9366890000,22.3125190000 113.9365780000,22.3124890000 113.9365250000,22.3124550000 113.9362010000,22.3123370000 113.9362500000,22.3121490000 113.9363030000,22.3119480000 113.9364490000,22.3116270000 113.9365220000,22.3116400000 113.9366140000,22.3116170000 113.9366680000,22.3115750000 113.9368160000,22.3115850000 113.9370600000,22.3115940000 113.9372450000,22.3116310000 113.9376770000,22.3116870000 113.9377750000,22.3117810000 113.9377860000,22.3118560000 113.9378270000,22.3119230000 113.9379000000,22.3119780000 113.9379580000,22.3119960000 113.9380590000,22.3119930000 113.9383180000,22.3121820000 113.9384480000,22.3122870000 113.9385990000,22.3124500000 113.9386690000,22.3125480000 113.9387360000,22.3127060000 113.9387670000,22.3128350000 113.9387900000,22.3131540000 113.9388010000,22.3133620000 113.9388290000,22.3135270000 113.9388680000,22.3136340000 113.9389140000,22.3137210000 113.9390220000,22.3138320000 113.9391520000,22.3139250000 113.9393710000,22.3139870000 113.9395690000,22.3140200000 113.9396250000,22.3141310000 113.9397150000,22.3142210000 113.9398370000,22.3142820000 113.9399740000,22.3143040000 113.9401110000,22.3142820000 113.9402330000,22.3142210000 113.9402570000,22.3142020000 113.9402790000,22.3141820000 113.9403250000,22.3141290000 113.9403760000,22.3140300000 113.9403950000,22.3139230000 113.9403940000,22.3138900000 113.9403640000,22.3137660000 113.9402910000,22.3136580000 113.9401860000,22.3135770000 113.9400570000,22.3135320000 113.9397800000,22.3130790000 113.9393960000,22.3125150000 113.9383830000,22.3110300000 113.9381680000,22.3105530000 113.9380930000,22.3103350000 113.9380330000,22.3100700000 113.9379300000,22.3095310000 113.9378470000,22.3089340000 113.9377790000,22.3083420000 113.9377200000,22.3077910000 113.9375840000,22.3071560000 113.9374240000,22.3065380000 113.9370440000,22.3054300000 113.9368240000,22.3048480000 113.9364570000,22.3038410000 113.9361740000,22.3029020000 113.9361030000,22.3024780000 113.9360510000,22.3020720000 113.9360020000,22.3014920000 113.9359600000,22.3010020000 113.9358750000,22.3005900000 113.9358530000,22.3002150000 113.9358790000,22.2996680000 113.9358940000,22.2993200000 113.9361000000,22.2985340000 113.9361520000,22.2983040000 113.9361690000,22.2980660000 113.9361520000,22.2978990000 113.9361000000,22.2977160000 113.9360140000,22.2975570000 113.9358940000,22.2973980000 113.9357650000,22.2972630000 113.9356370000,22.2971600000 113.9354740000,22.2970490000 113.9353100000,22.2969620000 113.9348820000,22.2968260000 113.9345760000,22.2967160000 113.9341540000,22.2965890000 113.9339400000,22.2965190000 113.9338060000,22.2964480000 113.9337240000,22.2963800000 113.9336500000,22.2962800000 113.9336050000,22.2961750000 113.9335210000,22.2960920000 113.9334110000,22.2960430000 113.9332740000,22.2960350000 113.9331720000,22.2960070000 113.9330720000,22.2959670000 113.9329780000,22.2959070000 113.9327680000,22.2957960000 113.9325710000,22.2956880000 113.9322890000,22.2955480000 113.9316450000,22.2953420000 113.9295430000,22.2946750000 113.9289790000,22.2945080000 113.9283650000,22.2943060000 113.9281070000,22.2942230000 113.9280500000,22.2941980000 113.9279770000,22.2941540000 113.9279210000,22.2941180000 113.9279160000,22.2940970000 113.9278690000,22.2940370000 113.9278020000,22.2939980000 113.9277230000,22.2939860000 113.9276680000,22.2939970000 113.9275320000,22.2939830000 113.9274440000,22.2939700000 113.9273540000,22.2939630000 113.9272930000,22.2939670000 113.9269090000,22.2938490000 113.9266920000,22.2937820000 113.9262770000,22.2936410000 113.9260070000,22.2935690000 113.9258610000,22.2935300000 113.9257030000,22.2933870000 113.9256700000,22.2933290000 113.9256480000,22.2932370000 113.9256440000,22.2931730000 113.9256240000,22.2931140000 113.9255960000,22.2930690000 113.9255530000,22.2930270000 113.9254830000,22.2929870000 113.9254540000,22.2929760000 113.9253830000,22.2929650000 113.9253080000,22.2929720000 113.9252240000,22.2930060000 113.9250960000,22.2930700000 113.9250150000,22.2930820000 113.9248980000,22.2931030000 113.9246990000,22.2931400000 113.9243220000,22.2931660000 113.9240510000,22.2932410000 113.9232180000,22.2934910000 113.9226780000,22.2936690000 113.9224130000,22.2937720000 113.9222460000,22.2938380000 113.9220570000,22.2939240000 113.9219910000,22.2939530000 113.9219110000,22.2939820000 113.9218390000,22.2939900000 113.9217120000,22.2940100000 113.9216460000,22.2939980000 113.9215780000,22.2939990000 113.9215130000,22.2940140000 113.9214530000,22.2940420000 113.9214170000,22.2940660000 113.9213860000,22.2940950000 113.9213600000,22.2941280000 113.9213380000,22.2941640000 113.9213230000,22.2942020000 113.9213120000,22.2942510000 113.9213100000,22.2942800000 113.9213130000,22.2943190000 113.9213320000,22.2943880000 113.9213700000,22.2944510000 113.9214220000,22.2945030000 113.9214880000,22.2945410000 113.9215610000,22.2945630000 113.9216180000,22.2945680000 113.9216750000,22.2945630000 113.9218860000,22.2945870000 113.9220710000,22.2946000000 113.9223160000,22.2946270000 113.9226160000,22.2946900000 113.9231140000,22.2948250000 113.9234090000,22.2949130000 113.9247280000,22.2953020000 113.9258540000,22.2956990000 113.9262810000,22.2958500000 113.9264960000,22.2959290000 113.9266070000,22.2960010000 113.9266860000,22.2961350000 113.9267430000,22.2962320000 113.9268180000,22.2962960000 113.9269090000,22.2963380000 113.9270100000,22.2963550000 113.9271220000,22.2963410000 113.9272300000,22.2963360000 113.9273270000,22.2963320000 113.9275690000,22.2963340000 113.9278860000,22.2963900000 113.9280920000,22.2964380000 113.9286480000,22.2966220000 113.9287130000,22.2966440000 113.9295510000,22.2969220000 113.9303020000,22.2971780000 113.9305300000,22.2972560000 113.9308820000,22.2974140000 113.9309930000,22.2974980000 113.9311050000,22.2975810000 113.9313110000,22.2977400000 113.9315000000,22.2979150000 113.9315400000,22.2979540000 113.9316630000,22.2980730000 113.9318090000,22.2982400000 113.9319050000,22.2983700000 113.9320430000,22.2985540000 113.9320760000,22.2986130000 113.9321110000,22.2986730000 113.9321370000,22.2987600000 113.9321500000,22.2988520000 113.9320900000,22.2990120000 113.9320540000,22.2991280000 113.9320490000,22.2992810000 113.9320750000,22.2993680000 113.9321350000,22.2994630000 113.9322380000,22.2995350000 113.9323350000,22.2995700000 113.9325500000,22.2995930000 113.9326700000,22.2995580000 113.9327560000,22.2994980000 113.9328590000,22.2994590000 113.9329710000,22.2994430000 113.9330890000,22.2994540000 113.9332200000,22.2994950000 113.9334780000,22.2995640000 113.9337510000,22.2996450000 113.9339990000,22.2996860000 113.9342460000,22.2996860000 113.9344950000,22.2996700000 113.9347270000,22.2996300000 113.9349820000,22.2995480000 113.9351990000,22.2994350000 113.9353910000,22.2992910000 113.9355670000,22.2990910000 113.9356710000,22.2988960000 113.9357300000,22.2986880000 113.9357610000,22.2985320000 113.9357880000,22.2982950000 113.9358440000,22.2979960000 113.9360400000,22.2974240000 113.9361990000,22.2969270000 113.9362830000,22.2967440000 113.9363900000,22.2964070000 113.9365430000,22.2960090000 113.9367110000,22.2957420000 113.9370540000,22.2953400000 113.9371990000,22.2951090000 113.9375900000,22.2944560000 113.9379380000,22.2939420000 113.9382870000,22.2934870000 113.9385880000,22.2931240000 113.9388880000,22.2927930000 113.9395100000,22.2921520000 113.9397590000,22.2919250000 113.9401570000,22.2915970000 113.9404820000,22.2913300000 113.9407840000,22.2911200000 113.9410860000,22.2909230000 113.9413870000,22.2907440000 113.9417410000,22.2905350000 113.9420750000,22.2903750000 113.9424260000,22.2902200000 113.9428170000,22.2900750000 113.9431970000,22.2899480000 113.9435260000,22.2898470000 113.9440050000,22.2897220000 113.9445240000,22.2896210000 113.9449220000,22.2895610000 113.9455030000,22.2895030000 113.9459200000,22.2894860000 113.9463230000,22.2894810000 113.9468520000,22.2894990000 113.9473740000,22.2895500000 113.9478450000,22.2896190000 113.9482740000,22.2897030000 113.9486710000,22.2898030000 113.9491390000,22.2899470000 113.9495790000,22.2901040000 113.9500170000,22.2902940000 113.9504160000,22.2905100000 113.9508250000,22.2907660000 113.9511440000,22.2909890000 113.9514100000,22.2911870000 113.9517590000,22.2914840000 113.9520180000,22.2917120000 113.9522680000,22.2919420000 113.9527780000,22.2924680000 113.9531720000,22.2928820000 113.9534390000,22.2931600000 113.9537750000,22.2935030000 113.9541670000,22.2938580000 113.9545370000,22.2941730000 113.9548740000,22.2944520000 113.9552060000,22.2947120000 113.9554890000,22.2949220000 113.9557400000,22.2950960000 113.9560230000,22.2952790000 113.9566790000,22.2956560000 113.9572090000,22.2959450000 113.9577490000,22.2961950000 113.9582250000,22.2964030000 113.9587420000,22.2966140000 113.9595180000,22.2968860000 113.9602780000,22.2971090000 113.9608980000,22.2972520000 113.9649850000,22.2981570000 113.9677100000,22.2987600000 113.9680060000,22.2988330000 113.9689400000,22.2990560000 113.9698420000,22.2992600000 113.9704600000,22.2994310000 113.9709990000,22.2995910000 113.9715350000,22.2997640000 113.9722070000,22.3000200000 113.9730740000,22.3003880000 113.9736760000,22.3006700000 113.9746770000,22.3011640000 113.9751620000,22.3014060000 113.9756620000,22.3016650000 113.9768670000,22.3022560000 113.9777980000,22.3027520000 113.9784390000,22.3031040000 113.9794340000,22.3037060000 113.9811390000,22.3047780000 113.9837140000,22.3064070000 113.9843200000,22.3067900000 113.9850400000,22.3072450000 113.9856060000,22.3075890000 113.9877310000,22.3088640000 113.9925320000,22.3116130000 113.9928940000,22.3118400000 113.9932800000,22.3121080000 113.9936540000,22.3123690000 113.9939850000,22.3126240000 113.9943640000,22.3129400000 113.9947170000,22.3132380000 113.9950160000,22.3135030000 113.9953880000,22.3138680000 113.9956090000,22.3141060000 113.9958140000,22.3143200000 113.9960710000,22.3146170000 113.9963520000,22.3149690000 113.9965180000,22.3151920000 113.9967760000,22.3155490000 113.9969850000,22.3158460000 113.9971800000,22.3161470000 113.9973750000,22.3164580000 113.9976390000,22.3168830000 113.9978800000,22.3172650000 113.9981960000,22.3177340000 113.9984880000,22.3181120000 113.9988430000,22.3185050000 113.9990980000,22.3187760000 113.9994070000,22.3190820000 114.0000590000,22.3196040000 114.0003390000,22.3198090000 114.0005530000,22.3199570000 114.0008490000,22.3201550000 114.0011770000,22.3203390000 114.0014940000,22.3205080000 114.0018710000,22.3206920000 114.0022100000,22.3208580000 114.0029710000,22.3212190000 114.0091410000,22.3239620000 114.0099340000,22.3243030000 114.0104060000,22.3244710000 114.0109360000,22.3246490000 114.0119840000,22.3249220000 114.0124700000,22.3250190000 114.0129110000,22.3250790000 114.0134120000,22.3251210000 114.0140080000,22.3251570000 114.0146170000,22.3251700000 114.0151360000,22.3251530000 114.0157200000,22.3251290000 114.0179230000,22.3249950000 114.0184700000,22.3249970000 114.0189250000,22.3250100000 114.0194170000,22.3250510000 114.0198690000,22.3251110000 114.0202650000,22.3251710000 114.0207940000,22.3252890000 114.0213080000,22.3254290000 114.0218170000,22.3256010000 114.0225660000,22.3258960000 114.0230280000,22.3261070000 114.0235650000,22.3263960000 114.0239050000,22.3266040000 114.0242100000,22.3268090000 114.0243490000,22.3269190000 114.0246080000,22.3271220000 114.0247390000,22.3272290000 114.0253400000,22.3277860000 114.0260460000,22.3284120000 114.0264620000,22.3287970000 114.0297800000,22.3320070000 114.0323360000,22.3344360000 114.0327820000,22.3348390000 114.0333080000,22.3352490000 114.0338240000,22.3356090000 114.0341940000,22.3358400000 114.0344370000,22.3359930000 114.0347430000,22.3361510000 114.0350240000,22.3362900000 114.0355250000,22.3365430000 114.0360790000,22.3367460000 114.0366460000,22.3369090000 114.0370510000,22.3370060000 114.0374980000,22.3370760000 114.0380100000,22.3371620000 114.0384370000,22.3372490000 114.0388250000,22.3373460000 114.0392640000,22.3374860000 114.0397170000,22.3376620000 114.0403300000,22.3379590000 114.0409450000,22.3382610000 114.0430490000,22.3395020000 114.0438450000,22.3398740000 114.0444670000,22.3401500000 114.0450310000,22.3403730000 114.0457530000,22.3405940000 114.0460570000,22.3406770000 114.0466800000,22.3408170000 114.0473730000,22.3409100000 114.0482450000,22.3409950000 114.0487620000,22.3410460000 114.0496170000,22.3411450000 114.0500720000,22.3412260000 114.0506000000,22.3413620000 114.0509290000,22.3414650000 114.0511760000,22.3415570000 114.0514140000,22.3416380000 114.0516150000,22.3417310000 114.0519160000,22.3419150000 114.0542060000,22.3433820000 114.0581790000,22.3459890000 114.0588390000,22.3464040000 114.0594060000,22.3467440000 114.0598370000,22.3469800000 114.0603340000,22.3472280000 114.0607170000,22.3474210000 114.0612680000,22.3476290000 114.0615080000,22.3477030000 114.0626570000,22.3480480000 114.0807060000,22.3530890000 114.0815120000,22.3533530000 114.0817750000,22.3534230000 114.0825280000,22.3535830000 114.0833800000,22.3537460000 114.0837340000,22.3537800000 114.0840280000,22.3538140000 114.0841640000,22.3538110000 114.0844120000,22.3537950000 114.0845750000,22.3537690000 114.0847600000,22.3537280000 114.0850840000,22.3536160000 114.0853340000,22.3534990000 114.0855760000,22.3533940000 114.0857780000,22.3532990000 114.0860090000,22.3531720000 114.0862760000,22.3529890000 114.0864600000,22.3528230000 114.0865510000,22.3527150000 114.0866880000,22.3524630000 114.0867870000,22.3522310000 114.0868490000,22.3520120000 114.0869280000,22.3516520000 114.0870480000,22.3510910000 114.0872340000,22.3503380000 114.0873310000,22.3499450000 114.0874450000,22.3495580000 114.0875270000,22.3492110000 114.0876060000,22.3488610000 114.0876940000,22.3485230000 114.0877910000,22.3482780000 114.0879050000,22.3480430000 114.0880460000,22.3478070000 114.0881770000,22.3476000000 114.0883540000,22.3473750000 114.0884380000,22.3472640000 114.0887110000,22.3469720000 114.0887280000,22.3469380000 114.0889780000,22.3467510000 114.0892720000,22.3465590000 114.0898710000,22.3462360000 114.0904280000,22.3459560000 114.0909630000,22.3456820000 114.0913410000,22.3455040000 114.0917190000,22.3453490000 114.0921550000,22.3452070000 114.0926230000,22.3450940000 114.0931090000,22.3450000000 114.0933720000,22.3449740000 114.0939120000,22.3449600000 114.0947650000,22.3449530000 114.0952440000,22.3449500000 114.0957200000,22.3449460000 114.1004000000,22.3449930000 114.1010700000,22.3450180000 114.1014000000,22.3450400000 114.1017300000,22.3450680000 114.1020600000,22.3451030000 114.1023900000,22.3451480000 114.1030400000,22.3452500000 114.1033000000,22.3453000000 114.1035300000,22.3453500000 114.1037300000,22.3453950000 114.1038810000,22.3454310000 114.1040300000,22.3454700000 114.1042020000,22.3455180000 114.1043800000,22.3455700000 114.1046900000,22.3456680000 114.1049680000,22.3457620000 114.1051600000,22.3458300000 114.1053500000,22.3459000000 114.1056800000,22.3460270000 114.1060000000,22.3461600000 114.1066070000,22.3464420000 114.1092280000,22.3478020000 114.1094000000,22.3478900000 114.1094990000,22.3479370000 114.1095990000,22.3479820000 114.1098100000,22.3480700000 114.1100000000,22.3481490000 114.1103700000,22.3483000000 114.1107400000,22.3484400000 114.1117850000,22.3488280000 114.1122940000,22.3490260000 114.1139190000,22.3496290000 114.1142620000,22.3497560000 114.1150360000,22.3500590000 114.1152760000,22.3501570000 114.1155700000,22.3502930000 114.1159460000,22.3504950000 114.1163210000,22.3507340000 114.1167000000,22.3510040000 114.1170480000,22.3512810000 114.1174180000,22.3515670000 114.1177500000,22.3517760000 114.1179500000,22.3518880000 114.1181630000,22.3519900000 114.1185390000,22.3521520000 114.1187440000,22.3522270000 114.1189890000,22.3523010000 114.1192310000,22.3523660000 114.1195060000,22.3524250000 114.1197310000,22.3524620000 114.1199660000,22.3524930000 114.1204150000,22.3525210000 114.1208080000,22.3525130000 114.1212930000,22.3524700000 114.1214870000,22.3524420000 114.1216850000,22.3524020000 114.1220080000,22.3523000000 114.1223600000,22.3521610000 114.1225800000,22.3520590000 114.1227700000,22.3519640000 114.1230910000,22.3517690000 114.1234160000,22.3515320000 114.1237280000,22.3512190000 114.1239480000,22.3509410000 114.1241480000,22.3506360000 114.1243000000,22.3503120000 114.1244440000,22.3499020000 114.1244990000,22.3496360000 114.1245460000,22.3490950000 114.1245370000,22.3484120000 114.1245330000,22.3480180000 114.1245490000,22.3476170000 114.1246110000,22.3472070000 114.1247310000,22.3467150000 114.1248690000,22.3463550000 114.1250230000,22.3459890000 114.1252280000,22.3456200000 114.1254330000,22.3453410000 114.1256160000,22.3450810000 114.1258580000,22.3448130000 114.1260660000,22.3446100000 114.1265330000,22.3442760000 114.1273480000,22.3438330000 114.1276470000,22.3436840000 114.1281330000,22.3434510000 114.1283770000,22.3433460000 114.1286560000,22.3432050000 114.1289710000,22.3430190000 114.1291870000,22.3428750000 114.1294020000,22.3427320000 114.1295670000,22.3426040000 114.1297310000,22.3424680000 114.1298900000,22.3423150000 114.1301370000,22.3420730000 114.1303630000,22.3417950000 114.1306770000,22.3413100000 114.1308700000,22.3409770000 114.1310190000,22.3406270000 114.1311910000,22.3402610000 114.1313730000,22.3398820000 114.1316710000,22.3392680000 114.1318380000,22.3388800000 114.1320290000,22.3384520000 114.1321900000,22.3381270000 114.1323810000,22.3378010000 114.1326340000,22.3374160000 114.1328490000,22.3371110000 114.1330810000,22.3368060000 114.1333360000,22.3365110000 114.1336020000,22.3362270000 114.1338900000,22.3359480000 114.1339530000,22.3358950000 114.1348240000,22.3351680000 114.1351300000,22.3349590000 114.1354160000,22.3347750000 114.1357060000,22.3346060000 114.1360310000,22.3344250000 114.1363260000,22.3342690000 114.1366140000,22.3341310000 114.1369430000,22.3339880000 114.1373830000,22.3338160000 114.1378110000,22.3336600000 114.1386610000,22.3333430000 114.1391380000,22.3332380000 114.1395480000,22.3331000000 114.1399080000,22.3329850000 114.1403610000,22.3328440000 114.1407700000,22.3327200000 114.1410000000,22.3326530000 114.1415590000,22.3324200000 114.1418070000,22.3322940000 114.1421160000,22.3321670000 114.1424750000,22.3320140000 114.1441310000,22.3314010000 114.1444610000,22.3312770000 114.1445550000,22.3312370000 114.1452410000,22.3309720000 114.1463780000,22.3305080000 114.1469190000,22.3303140000 114.1473950000,22.3301400000 114.1478570000,22.3299480000 114.1485500000,22.3297040000 114.1490120000,22.3295020000 114.1497570000,22.3291370000 114.1501000000,22.3289550000 114.1503960000,22.3287860000 114.1507410000,22.3285760000 114.1520550000,22.3277150000 114.1526590000,22.3272860000 114.1531820000,22.3269000000 114.1537150000,22.3264900000 114.1539540000,22.3262910000 114.1542690000,22.3260350000 114.1546560000,22.3256860000 114.1549900000,22.3253550000 114.1552240000,22.3251220000 114.1557270000,22.3246280000 114.1560650000,22.3242700000 114.1564410000,22.3238480000 114.1567550000,22.3235280000 114.1572650000,22.3229790000 114.1574240000,22.3228010000 114.1580160000,22.3220670000 114.1581700000,22.3219480000 114.1582400000,22.3219440000 114.1583060000,22.3219270000 114.1583690000,22.3218940000 114.1584140000,22.3218570000 114.1584550000,22.3217980000 114.1584850000,22.3217300000 114.1584900000,22.3216640000 114.1584870000,22.3215990000 114.1584730000,22.3215400000 114.1584450000,22.3214840000 114.1583710000,22.3213830000 114.1582890000,22.3213040000 114.1581330000,22.3212140000 114.1579870000,22.3211600000 114.1578660000,22.3211430000 114.1577810000,22.3211420000 114.1576940000,22.3211500000 114.1575210000,22.3211460000 114.1574230000,22.3211420000 114.1573210000,22.3211060000 114.1572090000,22.3210340000 114.1570940000,22.3209220000 114.1569690000,22.3207790000 114.1568580000,22.3206500000 114.1567450000,22.3204290000 114.1566950000,22.3203330000 114.1566500000,22.3201960000 114.1566010000,22.3200100000 114.1565880000,22.3199060000 114.1565880000,22.3198580000 114.1565930000,22.3197090000 114.1566010000,22.3196590000 114.1566130000,22.3195830000 114.1566440000,22.3194280000 114.1567160000,22.3191610000 114.1567510000,22.3190020000 114.1567850000,22.3187920000 114.1568000000,22.3185440000 114.1568060000,22.3183010000 114.1568030000,22.3181780000 114.1567980000,22.3177600000 114.1567990000,22.3177020000 114.1568050000,22.3176480000 114.1568180000,22.3175930000 114.1568430000,22.3175270000 114.1568900000,22.3175100000 114.1569300000,22.3174830000 114.1570690000,22.3174430000 114.1571390000,22.3174440000 114.1579100000,22.3174380000 114.1594300000,22.3174310000 114.1598620000,22.3174440000 114.1602980000,22.3175160000 114.1605780000,22.3176170000 114.1609100000,22.3177170000 114.1615040000,22.3179400000 114.1618970000,22.3180710000 114.1619910000,22.3181070000 114.1620790000,22.3181630000 114.1621420000,22.3182510000 114.1621900000,22.3183440000 114.1622510000,22.3184690000 114.1622960000,22.3186650000 114.1623810000,22.3187950000 114.1624430000,22.3188640000 114.1625380000,22.3189260000 114.1626200000,22.3189640000 114.1627080000,22.3189850000 114.1628060000,22.3189820000 114.1629290000,22.3188950000 114.1630570000,22.3188130000 114.1632460000,22.3187440000 114.1633650000,22.3187070000 114.1634970000,22.3186990000 114.1638430000,22.3187120000 114.1644770000,22.3187360000 114.1655110000,22.3187710000 114.1654890000,22.3188810000 114.1652760000,22.3198650000 114.1652330000,22.3200960000 114.1656100000,22.3201580000 114.1656670000,22.3201650000 114.1657600000,22.3201830000 114.1659130000,22.3202250000 114.1659830000,22.3202630000 114.1660560000,22.3202780000 114.1662850000,22.3203430000 114.1664630000,22.3204340000 114.1665900000,22.3204570000 114.1668600000,22.3205050000 114.1672110000,22.3205680000 114.1672540000,22.3205760000 114.1673590000,22.3205500000 114.1676930000,22.3206100000 114.1677170000,22.3206140000 114.1677990000,22.3206270000 114.1679060000,22.3206450000 114.1680890000,22.3206760000 114.1683060000,22.3207120000 114.1683450000,22.3207180000 114.1684170000,22.3207310000 114.1687180000,22.3207760000 114.1688560000,22.3207970000 114.1688960000,22.3208030000 114.1690010000,22.3208190000 114.1691120000,22.3208340000 114.1692930000,22.3208660000 114.1695650000,22.3209200000 114.1696560000,22.3209790000 114.1701240000,22.3210630000 114.1702080000,22.3210780000 114.1702900000,22.3210920000 114.1703360000,22.3211010000 114.1706830000,22.3211630000 114.1707760000,22.3211790000 114.1708600000,22.3211940000 114.1711620000,22.3212480000 114.1712000000,22.3212540000 114.1712910000,22.3212710000 114.1713800000,22.3212870000 114.1714010000,22.3211890000 114.1714470000,22.3209630000 114.1715850000,22.3203030000 114.1716130000,22.3201580000 114.1716500000,22.3199830000 114.1716590000,22.3199440000 114.1716780000,22.3198540000 114.1716880000,22.3198050000 114.1724730000,22.3199590000 114.1726420000,22.3199930000 114.1732990000,22.3200840000 114.1736340000,22.3201460000 114.1738780000,22.3201890000 114.1743330000,22.3202760000 114.1744250000,22.3202930000 114.1746660000,22.3203390000 114.1746920000,22.3203440000 114.1752490000,22.3204490000 114.1755350000,22.3204690000 114.1758450000,22.3205500000 114.1767440000,22.3208990000 114.1770230000,22.3210170000 114.1773110000,22.3211530000 114.1775310000,22.3212680000 114.1781180000,22.3215580000 114.1783690000,22.3216800000 114.1792790000,22.3220890000 114.1802220000,22.3225230000 114.1805320000,22.3227030000 114.1814490000,22.3231200000 114.1831930000,22.3239240000 114.1834000000,22.3240170000 114.1835870000,22.3241020000 114.1836860000,22.3241480000 114.1837600000,22.3241790000 114.1843190000,22.3244430000 114.1849890000,22.3247390000 114.1854590000,22.3249530000 114.1856420000,22.3250400000 114.1857620000,22.3251100000 114.1859170000,22.3252030000 114.1861270000,22.3253300000 114.1868100000,22.3257400000 114.1868930000,22.3257860000 114.1874550000,22.3261160000 114.1876590000,22.3262350000 114.1877700000,22.3263000000 114.1882680000,22.3264990000 114.1883780000,22.3265610000 114.1889360000,22.3268790000 114.1892550000,22.3270540000 114.1894740000,22.3271670000 114.1896410000,22.3272440000 114.1898560000,22.3273410000 114.1901640000,22.3274580000 114.1909600000,22.3277570000 114.1911940000,22.3278860000 114.1913320000,22.3279760000 114.1914350000,22.3280580000 114.1915160000,22.3281370000 114.1915940000,22.3282140000 114.1916820000,22.3283070000 114.1917770000,22.3283810000 114.1924420000,22.3289760000 114.1927210000,22.3292170000 114.1942640000,22.3306620000 114.1943650000,22.3307640000 114.1953040000,22.3317040000 114.1954070000,22.3318070000 114.1955660000,22.3319550000 114.1957650000,22.3321480000 114.1959030000,22.3323640000 114.1959590000,22.3324650000 114.1959700000,22.3325930000 114.1959280000,22.3327350000 114.1958420000,22.3328520000 114.1957670000,22.3329290000 114.1957610000,22.3329340000 114.1956620000,22.3330350000 114.1954750000,22.3332880000 114.1952930000,22.3334800000 114.1951930000,22.3335700000 114.1949480000,22.3338030000 114.1945280000,22.3342050000 114.1943770000,22.3343610000 114.1942740000,22.3344870000 114.1941950000,22.3346080000 114.1941370000,22.3347970000 114.1941160000,22.3349350000 114.1941360000,22.3352300000 114.1941680000,22.3354240000 114.1942660000,22.3357100000 114.1943850000,22.3359610000 114.1944910000,22.3361330000 114.1950150000,22.3368680000 114.1950630000,22.3369330000 114.1952420000,22.3371760000 114.1959800000,22.3381780000 114.1961240000,22.3383740000 114.1962400000,22.3385220000 114.1963330000,22.3386300000 114.1964400000,22.3387220000 114.1965520000,22.3388160000 114.1968120000,22.3389870000 114.1969970000,22.3390780000 114.1971700000,22.3391460000 114.1973870000,22.3392250000 114.1974900000,22.3392610000 114.1975960000,22.3393060000 114.1977100000,22.3393840000 114.1977880000,22.3394510000 114.1978280000,22.3394930000 114.1978950000,22.3395660000 114.1979550000,22.3396510000 114.1979800000,22.3396890000 114.1980190000,22.3397650000 114.1980430000,22.3398230000 114.1980930000,22.3399760000 114.1981320000,22.3401020000 114.1981560000,22.3402770000 114.1982160000,22.3406760000 114.1982630000,22.3409350000 114.1983050000,22.3411690000 114.1983260000,22.3412900000 114.1984650000,22.3418950000 114.1985280000,22.3422600000 114.1985420000,22.3424050000 114.1986180000,22.3429130000 114.1986630000,22.3431660000 114.1986780000,22.3432480000 114.1987380000,22.3435590000 114.1987570000,22.3436440000 114.1988880000,22.3443120000 114.1989920000,22.3447760000 114.1990360000,22.3449740000 114.1990990000,22.3451600000 114.1991730000,22.3452970000 114.1992400000,22.3453820000 114.1993180000,22.3454630000 114.1994150000,22.3455660000 114.1995600000,22.3456860000 114.1995040000,22.3457480000 114.1989770000,22.3462480000 114.1989140000,22.3462990000 114.1988720000,22.3463320000 114.1987730000,22.3463990000 114.1986700000,22.3464580000 114.1985670000,22.3464790000 114.1984640000,22.3464820000 114.1983180000,22.3464550000 114.1981810000,22.3464360000 114.1980410000,22.3464330000 114.1978860000,22.3464400000 114.1977990000,22.3464700000 114.1977450000,22.3465030000 114.1977100000,22.3465430000 114.1977230000,22.3467260000 114.1977990000,22.3473610000 114.1978380000,22.3479140000 114.1978720000,22.3481920000 114.1979220000,22.3483420000 114.1980150000,22.3484940000 114.1982700000,22.3485890000 114.1984950000,22.3486000000 114.1988480000,22.3485820000 114.1990560000,22.3485740000 114.1994640000,22.3485730000 114.1995830000,22.3486360000 114.1996980000,22.3487480000 114.1997770000,22.3491420000 114.1997880000,22.3491850000 114.1998730000,22.3494670000 114.1999450000,22.3496990000 114.2000070000,22.3498760000 114.2002350000,22.3504260000 114.2001540000,22.3504590000 114.1997020000,22.3506260000 114.1992340000,22.3507830000 114.1991120000,22.3508190000 114.1989970000,22.3508410000 114.1988380000,22.3508580000 114.1987230000,22.3508600000 114.1986040000,22.3508540000 114.1985800000,22.3509450000 114.1983950000,22.3512010000 114.1983270000,22.3512510000 114.1982600000,22.3511920000</coordinates>
                </LineString>
                <ExtendedData>
                    <Data name="length">
                        <value>87126.99723227136</value>
                    </Data>
                    <Data name="duration">
                        <value>02:12:34</value>
                    </Data>
                </ExtendedData>
            </Placemark>
        </Document>
    </Document>
</kml>