<?xml version="1.0" encoding="UTF-8"?>
<kml xmlns="http://www.opengis.net/kml/2.2" xmlns:gx="http://www.google.com/kml/ext/2.2">
    <Document>
        <name>Route</name>
        <Folder>
            <name>Route Request</name>
            <Placemark>
                <address>Chun Tin Street, To Kwa Wan, Kowloon, Kowloon City District, Hong Kong, KIL 3348, PRC</address>
                <Point>
                    <coordinates>114.1884899393,22.3005904572</coordinates>
                </Point>
                <ExtendedData>
                    <Data name="postcode">
                        <value>KIL 3348</value>
                    </Data>
                    <Data name="county">
                        <value>Kowloon City District</value>
                    </Data>
                    <Data name="suburb">
                        <value>To Kwa Wan</value>
                    </Data>
                    <Data name="road">
                        <value>Chun Tin Street</value>
                    </Data>
                    <Data name="routingVisited">
                        <value>false</value>
                    </Data>
                    <Data name="country">
                        <value>PRC</value>
                    </Data>
                    <Data name="city">
                        <value>Kowloon</value>
                    </Data>
                    <Data name="country_code">
                        <value>cn</value>
                    </Data>
                </ExtendedData>
            </Placemark>
            <Placemark>
                <address>Ka Bong Lau, 1A, Fat Kwong Street, Hok Yuen, Hung Hom, Kowloon City District, Kowloon, Hong Kong, China</address>
                <Point>
                    <coordinates>114.1875163024,22.3121745210</coordinates>
                </Point>
                <ExtendedData>
                    <Data name="building">
                        <value>Ka Bong Lau</value>
                    </Data>
                    <Data name="city_district">
                        <value>Kowloon City District</value>
                    </Data>
                    <Data name="suburb">
                        <value>Hung Hom</value>
                    </Data>
                    <Data name="road">
                        <value>Fat Kwong Street</value>
                    </Data>
                    <Data name="routingVisited">
                        <value>false</value>
                    </Data>
                    <Data name="ISO3166-2-lvl3">
                        <value>CN-HK</value>
                    </Data>
                    <Data name="state">
                        <value>Hong Kong</value>
                    </Data>
                    <Data name="country">
                        <value>China</value>
                    </Data>
                    <Data name="city">
                        <value>Kowloon</value>
                    </Data>
                    <Data name="quarter">
                        <value>Hok Yuen</value>
                    </Data>
                    <Data name="house_number">
                        <value>1A</value>
                    </Data>
                    <Data name="country_code">
                        <value>cn</value>
                    </Data>
                </ExtendedData>
            </Placemark>
            <Placemark>
                <Point>
                    <coordinates>114.1835593738,22.3199064908</coordinates>
                </Point>
            </Placemark>
            <Placemark>
                <Point>
                    <coordinates>114.1842088386,22.3142783894</coordinates>
                </Point>
                <ExtendedData>
                    <Data name="routingVisited">
                        <value>false</value>
                    </Data>
                </ExtendedData>
            </Placemark>
            <Placemark>
                <Point>
                    <coordinates>114.1799267015,22.3167373780</coordinates>
                </Point>
            </Placemark>
            <Placemark>
                <address>Auxiliary Medical Service Headquarters, Good Shepherd Street, Ho Man Tin Hill, Ho Man Tin, Kowloon City District, Kowloon, Hong Kong, China</address>
                <Point>
                    <coordinates>114.1794667010,22.3169250383</coordinates>
                </Point>
                <ExtendedData>
                    <Data name="city_district">
                        <value>Kowloon City District</value>
                    </Data>
                    <Data name="suburb">
                        <value>Ho Man Tin</value>
                    </Data>
                    <Data name="neighbourhood">
                        <value>Ho Man Tin Hill</value>
                    </Data>
                    <Data name="road">
                        <value>Good Shepherd Street</value>
                    </Data>
                    <Data name="office">
                        <value>Auxiliary Medical Service Headquarters</value>
                    </Data>
                    <Data name="ISO3166-2-lvl3">
                        <value>CN-HK</value>
                    </Data>
                    <Data name="state">
                        <value>Hong Kong</value>
                    </Data>
                    <Data name="country">
                        <value>China</value>
                    </Data>
                    <Data name="city">
                        <value>Kowloon</value>
                    </Data>
                    <Data name="country_code">
                        <value>cn</value>
                    </Data>
                </ExtendedData>
            </Placemark>
            <Placemark>
                <address>Hoi Fu Court, Hoi Wang Road, Ferry Point, Tai Kok Tsui, Yau Tsim Mong District, Kowloon, Hong Kong, China</address>
                <Point>
                    <coordinates>114.1637711185,22.3158604225</coordinates>
                </Point>
                <ExtendedData>
                    <Data name="county">
                        <value>Yau Tsim Mong District</value>
                    </Data>
                    <Data name="suburb">
                        <value>Tai Kok Tsui</value>
                    </Data>
                    <Data name="neighbourhood">
                        <value>Ferry Point</value>
                    </Data>
                    <Data name="road">
                        <value>Hoi Wang Road</value>
                    </Data>
                    <Data name="bus_stop">
                        <value>Hoi Fu Court</value>
                    </Data>
                    <Data name="state">
                        <value>Hong Kong</value>
                    </Data>
                    <Data name="country">
                        <value>China</value>
                    </Data>
                    <Data name="region">
                        <value>Kowloon</value>
                    </Data>
                    <Data name="country_code">
                        <value>cn</value>
                    </Data>
                </ExtendedData>
            </Placemark>
            <Placemark>
                <address>HSBC Centre, Lin Cheung Road, Ferry Point, Tai Kok Tsui, Yau Tsim Mong District, Kowloon, Hong Kong, China</address>
                <Point>
                    <coordinates>114.1610128085,22.3185895901</coordinates>
                </Point>
                <ExtendedData>
                    <Data name="county">
                        <value>Yau Tsim Mong District</value>
                    </Data>
                    <Data name="suburb">
                        <value>Tai Kok Tsui</value>
                    </Data>
                    <Data name="neighbourhood">
                        <value>Ferry Point</value>
                    </Data>
                    <Data name="road">
                        <value>Lin Cheung Road</value>
                    </Data>
                    <Data name="address29">
                        <value>HSBC Centre</value>
                    </Data>
                    <Data name="state">
                        <value>Hong Kong</value>
                    </Data>
                    <Data name="country">
                        <value>China</value>
                    </Data>
                    <Data name="region">
                        <value>Kowloon</value>
                    </Data>
                    <Data name="country_code">
                        <value>cn</value>
                    </Data>
                </ExtendedData>
            </Placemark>
            <Placemark>
                <address>Cheung Tsing Highway, Ha Kwai Chung, Liu To, Kwai Tsing District, New Territories, Hong Kong, China</address>
                <Point>
                    <coordinates>114.0943829919,22.3446585786</coordinates>
                </Point>
                <ExtendedData>
                    <Data name="county">
                        <value>Kwai Tsing District</value>
                    </Data>
                    <Data name="suburb">
                        <value>Ha Kwai Chung</value>
                    </Data>
                    <Data name="road">
                        <value>Cheung Tsing Highway</value>
                    </Data>
                    <Data name="hamlet">
                        <value>Liu To</value>
                    </Data>
                    <Data name="state">
                        <value>Hong Kong</value>
                    </Data>
                    <Data name="country">
                        <value>China</value>
                    </Data>
                    <Data name="region">
                        <value>New Territories</value>
                    </Data>
                    <Data name="country_code">
                        <value>cn</value>
                    </Data>
                </ExtendedData>
            </Placemark>
            <Placemark>
                <Point>
                    <coordinates>113.9391350392,22.2916307300</coordinates>
                </Point>
            </Placemark>
            <Placemark>
                <Point>
                    <coordinates>113.9411434143,22.2874235525</coordinates>
                </Point>
            </Placemark>
            <Placemark>
                <address>Airport Freight Forwarding Centre, Chun Yue Road, Sha Lo Wan, Tin Sam, Islands District, New Territories, Hong Kong, China</address>
                <Point>
                    <coordinates>113.9541925495,22.2973154426</coordinates>
                </Point>
                <ExtendedData>
                    <Data name="county">
                        <value>Islands District</value>
                    </Data>
                    <Data name="suburb">
                        <value>Sha Lo Wan</value>
                    </Data>
                    <Data name="road">
                        <value>Chun Yue Road</value>
                    </Data>
                    <Data name="routingVisited">
                        <value>false</value>
                    </Data>
                    <Data name="hamlet">
                        <value>Tin Sam</value>
                    </Data>
                    <Data name="address29">
                        <value>Airport Freight Forwarding Centre</value>
                    </Data>
                    <Data name="state">
                        <value>Hong Kong</value>
                    </Data>
                    <Data name="country">
                        <value>China</value>
                    </Data>
                    <Data name="region">
                        <value>New Territories</value>
                    </Data>
                    <Data name="country_code">
                        <value>cn</value>
                    </Data>
                </ExtendedData>
            </Placemark>
            <Placemark>
                <Point>
                    <coordinates>113.9386631760,22.2874505991</coordinates>
                </Point>
            </Placemark>
            <Placemark>
                <Point>
                    <coordinates>113.9397254822,22.2924504197</coordinates>
                </Point>
            </Placemark>
            <Placemark>
                <Point>
                    <coordinates>114.1198418519,22.3524755066</coordinates>
                </Point>
            </Placemark>
            <Placemark>
                <address>HSBC Centre, Lin Cheung Road, Ferry Point, Tai Kok Tsui, Yau Tsim Mong District, Kowloon, Hong Kong, China</address>
                <Point>
                    <coordinates>114.1610173032,22.3186033296</coordinates>
                </Point>
                <ExtendedData>
                    <Data name="county">
                        <value>Yau Tsim Mong District</value>
                    </Data>
                    <Data name="suburb">
                        <value>Tai Kok Tsui</value>
                    </Data>
                    <Data name="neighbourhood">
                        <value>Ferry Point</value>
                    </Data>
                    <Data name="road">
                        <value>Lin Cheung Road</value>
                    </Data>
                    <Data name="address29">
                        <value>HSBC Centre</value>
                    </Data>
                    <Data name="state">
                        <value>Hong Kong</value>
                    </Data>
                    <Data name="country">
                        <value>China</value>
                    </Data>
                    <Data name="region">
                        <value>Kowloon</value>
                    </Data>
                    <Data name="country_code">
                        <value>cn</value>
                    </Data>
                </ExtendedData>
            </Placemark>
            <Placemark>
                <address>Pretty House, Hoi Wang Road, Ferry Point, Yau Ma Tei, Yau Tsim Mong District, Kowloon, Hong Kong, China</address>
                <Point>
                    <coordinates>114.1643132166,22.3148786259</coordinates>
                </Point>
                <ExtendedData>
                    <Data name="county">
                        <value>Yau Tsim Mong District</value>
                    </Data>
                    <Data name="suburb">
                        <value>Yau Ma Tei</value>
                    </Data>
                    <Data name="neighbourhood">
                        <value>Ferry Point</value>
                    </Data>
                    <Data name="road">
                        <value>Hoi Wang Road</value>
                    </Data>
                    <Data name="state">
                        <value>Hong Kong</value>
                    </Data>
                    <Data name="country">
                        <value>China</value>
                    </Data>
                    <Data name="region">
                        <value>Kowloon</value>
                    </Data>
                    <Data name="shop">
                        <value>Pretty House</value>
                    </Data>
                    <Data name="country_code">
                        <value>cn</value>
                    </Data>
                </ExtendedData>
            </Placemark>
            <Placemark>
                <address>Ho Man Tin East Service Reservoir Playground, Sheung Lok Street, Ho Man Tin, Kowloon City District, Kowloon, Hong Kong, China</address>
                <Point>
                    <coordinates>114.1818167148,22.3139779423</coordinates>
                </Point>
                <ExtendedData>
                    <Data name="county">
                        <value>Kowloon City District</value>
                    </Data>
                    <Data name="playground">
                        <value>Ho Man Tin East Service Reservoir Playground</value>
                    </Data>
                    <Data name="suburb">
                        <value>Ho Man Tin</value>
                    </Data>
                    <Data name="road">
                        <value>Sheung Lok Street</value>
                    </Data>
                    <Data name="routingVisited">
                        <value>false</value>
                    </Data>
                    <Data name="state">
                        <value>Hong Kong</value>
                    </Data>
                    <Data name="country">
                        <value>China</value>
                    </Data>
                    <Data name="region">
                        <value>Kowloon</value>
                    </Data>
                    <Data name="country_code">
                        <value>cn</value>
                    </Data>
                </ExtendedData>
            </Placemark>
            <Placemark>
                <Point>
                    <coordinates>114.1822598759,22.3191688736</coordinates>
                </Point>
            </Placemark>
            <Placemark>
                <address>Whampoa Plaza, Tak Ting Street, Hung Hom, Kowloon City District, Kowloon, Hong Kong, China</address>
                <Point>
                    <coordinates>114.1877234665,22.3181850746</coordinates>
                </Point>
                <ExtendedData>
                    <Data name="county">
                        <value>Kowloon City District</value>
                    </Data>
                    <Data name="suburb">
                        <value>Hung Hom</value>
                    </Data>
                    <Data name="road">
                        <value>Tak Ting Street</value>
                    </Data>
                    <Data name="routingVisited">
                        <value>false</value>
                    </Data>
                    <Data name="mall">
                        <value>Whampoa Plaza</value>
                    </Data>
                    <Data name="state">
                        <value>Hong Kong</value>
                    </Data>
                    <Data name="country">
                        <value>China</value>
                    </Data>
                    <Data name="region">
                        <value>Kowloon</value>
                    </Data>
                    <Data name="country_code">
                        <value>cn</value>
                    </Data>
                </ExtendedData>
            </Placemark>
            <Placemark>
                <address>Cheong Shing Court, 5-7, San Lau Street, Ma Tau Kok, To Kwa Wan, Kowloon City District, Kowloon, Hong Kong, China</address>
                <Point>
                    <coordinates>114.1884308805,22.3005904612</coordinates>
                </Point>
                <ExtendedData>
                    <Data name="building">
                        <value>Cheong Shing Court</value>
                    </Data>
                    <Data name="county">
                        <value>Kowloon City District</value>
                    </Data>
                    <Data name="suburb">
                        <value>To Kwa Wan</value>
                    </Data>
                    <Data name="neighbourhood">
                        <value>Ma Tau Kok</value>
                    </Data>
                    <Data name="road">
                        <value>San Lau Street</value>
                    </Data>
                    <Data name="routingVisited">
                        <value>false</value>
                    </Data>
                    <Data name="state">
                        <value>Hong Kong</value>
                    </Data>
                    <Data name="country">
                        <value>China</value>
                    </Data>
                    <Data name="region">
                        <value>Kowloon</value>
                    </Data>
                    <Data name="house_number">
                        <value>5-7</value>
                    </Data>
                    <Data name="country_code">
                        <value>cn</value>
                    </Data>
                </ExtendedData>
            </Placemark>
        </Folder>
        <Document>
            <name>80.9 km; 01:31 h (OSRM)</name>
            <Placemark>
                <name>Route</name>
                <LineString>
                    <coordinates>114.1884790000,22.3012560000 114.1884790000,22.3012560000 114.1884550000,22.3012600000 114.1884330000,22.3012710000 114.1884160000,22.3012870000 114.1884050000,22.3013080000 114.1884020000,22.3013310000 114.1884070000,22.3013530000 114.1884480000,22.3014150000 114.1884670000,22.3014320000 114.1884900000,22.3014430000 114.1886640000,22.3015110000 114.1886970000,22.3015270000 114.1887250000,22.3015490000 114.1887420000,22.3015700000 114.1887540000,22.3015920000 114.1887620000,22.3016170000 114.1888240000,22.3018110000 114.1887920000,22.3018200000 114.1886750000,22.3018980000 114.1886550000,22.3019110000 114.1886290000,22.3019290000 114.1885700000,22.3019680000 114.1884700000,22.3020250000 114.1885020000,22.3020840000 114.1885350000,22.3021530000 114.1885860000,22.3022690000 114.1885910000,22.3024000000 114.1886320000,22.3024470000 114.1886320000,22.3024870000 114.1886200000,22.3025620000 114.1886000000,22.3026380000 114.1885740000,22.3027110000 114.1885560000,22.3027490000 114.1885370000,22.3027880000 114.1884810000,22.3028630000 114.1884360000,22.3029280000 114.1882800000,22.3031180000 114.1882330000,22.3031480000 114.1875230000,22.3036070000 114.1873030000,22.3037450000 114.1868610000,22.3040450000 114.1864780000,22.3043420000 114.1864440000,22.3043680000 114.1862700000,22.3045270000 114.1860450000,22.3046590000 114.1860290000,22.3046700000 114.1859910000,22.3046980000 114.1859220000,22.3047490000 114.1858370000,22.3048100000 114.1859470000,22.3048910000 114.1859840000,22.3049390000 114.1864050000,22.3055030000 114.1860020000,22.3057580000 114.1858420000,22.3058590000 114.1854800000,22.3060880000 114.1852110000,22.3062580000 114.1848740000,22.3064710000 114.1846350000,22.3066220000 114.1843500000,22.3068020000 114.1842590000,22.3069000000 114.1843660000,22.3070370000 114.1844290000,22.3071240000 114.1845630000,22.3073060000 114.1846990000,22.3074920000 114.1849860000,22.3078950000 114.1850320000,22.3078660000 114.1850610000,22.3078500000 114.1854610000,22.3075960000 114.1855980000,22.3075100000 114.1859000000,22.3073220000 114.1861110000,22.3071890000 114.1864450000,22.3069800000 114.1864640000,22.3069680000 114.1865830000,22.3069410000 114.1866170000,22.3069410000 114.1866520000,22.3069470000 114.1866760000,22.3069610000 114.1867020000,22.3069850000 114.1868760000,22.3072000000 114.1871830000,22.3076420000 114.1872030000,22.3076700000 114.1872720000,22.3077830000 114.1874110000,22.3079920000 114.1874440000,22.3080410000 114.1874610000,22.3080680000 114.1875050000,22.3081370000 114.1875330000,22.3083070000 114.1875510000,22.3085740000 114.1875550000,22.3086590000 114.1875630000,22.3088220000 114.1875580000,22.3089320000 114.1875580000,22.3089570000 114.1875560000,22.3091450000 114.1876040000,22.3093000000 114.1876070000,22.3095870000 114.1876080000,22.3096410000 114.1876100000,22.3098070000 114.1876100000,22.3098180000 114.1876130000,22.3099770000 114.1876140000,22.3100890000 114.1876190000,22.3104280000 114.1876200000,22.3104880000 114.1876220000,22.3106010000 114.1876240000,22.3107360000 114.1876250000,22.3107730000 114.1876250000,22.3111510000 114.1876280000,22.3112870000 114.1876310000,22.3114220000 114.1876320000,22.3114360000 114.1876320000,22.3114490000 114.1876340000,22.3115160000 114.1876340000,22.3115360000 114.1876360000,22.3116100000 114.1876380000,22.3116840000 114.1876390000,22.3117290000 114.1876410000,22.3118300000 114.1876050000,22.3120200000 114.1876070000,22.3120700000 114.1876060000,22.3120920000 114.1875930000,22.3122490000 114.1875270000,22.3122520000 114.1875000000,22.3122470000 114.1873560000,22.3122200000 114.1872700000,22.3121950000 114.1872120000,22.3122220000 114.1870500000,22.3122970000 114.1866570000,22.3124740000 114.1866210000,22.3124920000 114.1865650000,22.3125200000 114.1864030000,22.3125980000 114.1868790000,22.3133080000 114.1870720000,22.3136520000 114.1872500000,22.3139890000 114.1872930000,22.3140980000 114.1873070000,22.3141330000 114.1873530000,22.3142530000 114.1873740000,22.3143560000 114.1874510000,22.3146830000 114.1874650000,22.3147430000 114.1874690000,22.3147750000 114.1874940000,22.3149550000 114.1875020000,22.3150290000 114.1875160000,22.3154540000 114.1874980000,22.3154720000 114.1874820000,22.3154770000 114.1874570000,22.3154800000 114.1869800000,22.3154850000 114.1864220000,22.3154890000 114.1864240000,22.3157520000 114.1864210000,22.3163030000 114.1864230000,22.3174540000 114.1864230000,22.3179590000 114.1864210000,22.3183240000 114.1864130000,22.3195180000 114.1864100000,22.3200190000 114.1858720000,22.3200190000 114.1857690000,22.3200260000 114.1856430000,22.3200800000 114.1855550000,22.3199190000 114.1853930000,22.3197310000 114.1851570000,22.3195100000 114.1850090000,22.3194180000 114.1849110000,22.3193570000 114.1848200000,22.3193280000 114.1847310000,22.3193270000 114.1845990000,22.3193380000 114.1845030000,22.3193620000 114.1843620000,22.3194360000 114.1837710000,22.3198300000 114.1836560000,22.3199080000 114.1835860000,22.3199470000 114.1834680000,22.3200130000 114.1832250000,22.3200590000 114.1832110000,22.3200590000 114.1831020000,22.3200560000 114.1830720000,22.3200550000 114.1824870000,22.3199440000 114.1821520000,22.3198810000 114.1823340000,22.3192310000 114.1824150000,22.3189800000 114.1825390000,22.3185630000 114.1826820000,22.3181960000 114.1828570000,22.3177460000 114.1829030000,22.3176290000 114.1829370000,22.3174910000 114.1830080000,22.3172050000 114.1832110000,22.3164240000 114.1833660000,22.3158270000 114.1834290000,22.3156010000 114.1835110000,22.3153910000 114.1836140000,22.3152740000 114.1836660000,22.3152140000 114.1840120000,22.3149500000 114.1841850000,22.3148070000 114.1842580000,22.3147050000 114.1842770000,22.3146690000 114.1842920000,22.3146210000 114.1843040000,22.3145660000 114.1843090000,22.3145190000 114.1843070000,22.3144570000 114.1842930000,22.3143750000 114.1842580000,22.3142890000 114.1842370000,22.3142600000 114.1842060000,22.3142170000 114.1841490000,22.3141410000 114.1840770000,22.3140920000 114.1839220000,22.3140180000 114.1834460000,22.3139420000 114.1833780000,22.3139310000 114.1832730000,22.3139110000 114.1826330000,22.3137690000 114.1820480000,22.3136560000 114.1819170000,22.3136320000 114.1817950000,22.3136030000 114.1817870000,22.3136400000 114.1817540000,22.3138030000 114.1816140000,22.3143040000 114.1815620000,22.3145250000 114.1815500000,22.3145800000 114.1814630000,22.3148950000 114.1814310000,22.3150660000 114.1813980000,22.3152380000 114.1813770000,22.3154020000 114.1813410000,22.3155290000 114.1812930000,22.3156940000 114.1811880000,22.3159540000 114.1811710000,22.3159950000 114.1811240000,22.3160610000 114.1811050000,22.3160830000 114.1810920000,22.3161010000 114.1810750000,22.3161200000 114.1810590000,22.3161400000 114.1809950000,22.3162060000 114.1809740000,22.3162270000 114.1809490000,22.3163250000 114.1808330000,22.3164270000 114.1807270000,22.3165030000 114.1805770000,22.3166030000 114.1804360000,22.3166800000 114.1803010000,22.3167270000 114.1800960000,22.3168210000 114.1800370000,22.3168460000 114.1799600000,22.3168480000 114.1799600000,22.3168480000 114.1799150000,22.3168660000 114.1797760000,22.3169240000 114.1795120000,22.3170250000 114.1791650000,22.3171590000 114.1790630000,22.3172020000 114.1787980000,22.3173030000 114.1782010000,22.3175460000 114.1780650000,22.3176000000 114.1779740000,22.3176340000 114.1778920000,22.3176700000 114.1777960000,22.3177110000 114.1777230000,22.3177410000 114.1777050000,22.3177480000 114.1776850000,22.3177560000 114.1776630000,22.3177660000 114.1776460000,22.3177730000 114.1776300000,22.3177790000 114.1776200000,22.3177840000 114.1775680000,22.3178050000 114.1774640000,22.3178480000 114.1772040000,22.3179080000 114.1769940000,22.3179170000 114.1767660000,22.3179270000 114.1765890000,22.3179540000 114.1764790000,22.3179840000 114.1762560000,22.3180940000 114.1759820000,22.3182300000 114.1756570000,22.3183900000 114.1756110000,22.3184130000 114.1754950000,22.3184700000 114.1754700000,22.3184360000 114.1754360000,22.3183910000 114.1754200000,22.3183690000 114.1753600000,22.3182900000 114.1751780000,22.3180470000 114.1750800000,22.3179160000 114.1750390000,22.3178610000 114.1749760000,22.3177770000 114.1749140000,22.3176940000 114.1746720000,22.3173700000 114.1745370000,22.3171880000 114.1743570000,22.3169460000 114.1741420000,22.3166570000 114.1740030000,22.3164610000 114.1739350000,22.3163770000 114.1739070000,22.3163430000 114.1738890000,22.3163200000 114.1734980000,22.3157740000 114.1729420000,22.3150080000 114.1728930000,22.3149490000 114.1728690000,22.3149150000 114.1728060000,22.3148440000 114.1725490000,22.3145170000 114.1724670000,22.3144080000 114.1723760000,22.3142870000 114.1722080000,22.3140620000 114.1721410000,22.3139740000 114.1720920000,22.3139120000 114.1720620000,22.3138710000 114.1718370000,22.3135680000 114.1717150000,22.3134000000 114.1716700000,22.3133370000 114.1715950000,22.3132320000 114.1715440000,22.3131770000 114.1715000000,22.3131430000 114.1714640000,22.3131190000 114.1714120000,22.3131010000 114.1713660000,22.3130870000 114.1712910000,22.3130740000 114.1711440000,22.3130490000 114.1709000000,22.3130080000 114.1708740000,22.3130030000 114.1708510000,22.3129990000 114.1708190000,22.3129940000 114.1707990000,22.3129900000 114.1707170000,22.3129770000 114.1706210000,22.3129420000 114.1705130000,22.3129230000 114.1704790000,22.3129160000 114.1701060000,22.3128470000 114.1696270000,22.3127650000 114.1695580000,22.3127510000 114.1694500000,22.3127360000 114.1692200000,22.3126980000 114.1691160000,22.3126810000 114.1690840000,22.3126760000 114.1689850000,22.3126580000 114.1684840000,22.3125700000 114.1684440000,22.3125630000 114.1682460000,22.3125300000 114.1682360000,22.3125280000 114.1680710000,22.3124740000 114.1678840000,22.3124450000 114.1676270000,22.3124060000 114.1675480000,22.3123950000 114.1673900000,22.3123210000 114.1672790000,22.3122930000 114.1672370000,22.3122870000 114.1670340000,22.3122560000 114.1668410000,22.3122250000 114.1664750000,22.3121650000 114.1663310000,22.3121360000 114.1662560000,22.3121200000 114.1659530000,22.3120490000 114.1655550000,22.3119760000 114.1654610000,22.3119540000 114.1652650000,22.3119170000 114.1650920000,22.3118840000 114.1650640000,22.3118750000 114.1650290000,22.3118710000 114.1650100000,22.3118700000 114.1648820000,22.3118570000 114.1647790000,22.3118450000 114.1647620000,22.3119280000 114.1647380000,22.3120490000 114.1647310000,22.3120880000 114.1647060000,22.3122170000 114.1646600000,22.3124290000 114.1646470000,22.3125080000 114.1646220000,22.3126440000 114.1645990000,22.3127560000 114.1645910000,22.3127930000 114.1645610000,22.3129470000 114.1645320000,22.3130760000 114.1643040000,22.3140480000 114.1642900000,22.3141060000 114.1641810000,22.3145610000 114.1641460000,22.3147050000 114.1641010000,22.3148920000 114.1640260000,22.3152100000 114.1639220000,22.3156500000 114.1638770000,22.3158400000 114.1638670000,22.3158800000 114.1638020000,22.3161490000 114.1637860000,22.3162170000 114.1635980000,22.3169090000 114.1635910000,22.3169400000 114.1635570000,22.3170870000 114.1635250000,22.3172160000 114.1634920000,22.3173500000 114.1634380000,22.3175180000 114.1633560000,22.3176870000 114.1632550000,22.3178150000 114.1631180000,22.3179370000 114.1629850000,22.3180190000 114.1629530000,22.3180380000 114.1627870000,22.3181390000 114.1623560000,22.3180450000 114.1620650000,22.3179530000 114.1619120000,22.3178690000 114.1617770000,22.3178200000 114.1611740000,22.3176000000 114.1609760000,22.3175350000 114.1609090000,22.3175250000 114.1608490000,22.3175310000 114.1607920000,22.3175640000 114.1607800000,22.3176520000 114.1607860000,22.3177060000 114.1608100000,22.3177500000 114.1608470000,22.3177820000 114.1610060000,22.3178500000 114.1610770000,22.3179390000 114.1611320000,22.3180310000 114.1611880000,22.3181460000 114.1612160000,22.3182470000 114.1612310000,22.3183320000 114.1612310000,22.3185900000 114.1612310000,22.3187440000 114.1612310000,22.3190360000 114.1612310000,22.3190650000 114.1612290000,22.3191450000 114.1612080000,22.3192070000 114.1611740000,22.3192650000 114.1611300000,22.3193160000 114.1610780000,22.3193590000 114.1610170000,22.3193930000 114.1609820000,22.3194060000 114.1609510000,22.3194170000 114.1608820000,22.3194300000 114.1606880000,22.3194330000 114.1605810000,22.3194340000 114.1604920000,22.3194340000 114.1601570000,22.3194350000 114.1601290000,22.3194350000 114.1600010000,22.3194220000 114.1599060000,22.3194210000 114.1598680000,22.3194870000 114.1598470000,22.3195250000 114.1598380000,22.3195400000 114.1598060000,22.3196010000 114.1597890000,22.3196610000 114.1597620000,22.3197870000 114.1597490000,22.3198590000 114.1597420000,22.3199210000 114.1597340000,22.3200350000 114.1597220000,22.3202000000 114.1597280000,22.3205400000 114.1597460000,22.3209930000 114.1597510000,22.3211140000 114.1597910000,22.3215460000 114.1597930000,22.3220190000 114.1597750000,22.3222580000 114.1597160000,22.3225660000 114.1595900000,22.3228500000 114.1595470000,22.3228930000 114.1594590000,22.3229780000 114.1594310000,22.3229990000 114.1594000000,22.3230150000 114.1593660000,22.3230270000 114.1592990000,22.3230360000 114.1592320000,22.3230270000 114.1591710000,22.3230010000 114.1591210000,22.3229600000 114.1590560000,22.3228000000 114.1590000000,22.3226600000 114.1589300000,22.3224900000 114.1588600000,22.3223500000 114.1587710000,22.3222000000 114.1586750000,22.3220330000 114.1586130000,22.3219520000 114.1585890000,22.3219150000 114.1585690000,22.3218720000 114.1585540000,22.3218270000 114.1585230000,22.3217620000 114.1584940000,22.3216870000 114.1584960000,22.3216570000 114.1584930000,22.3216280000 114.1584500000,22.3215380000 114.1584210000,22.3214930000 114.1583760000,22.3214320000 114.1583260000,22.3213770000 114.1582680000,22.3213240000 114.1582230000,22.3212850000 114.1581720000,22.3212500000 114.1581150000,22.3212190000 114.1580530000,22.3211960000 114.1579720000,22.3211750000 114.1578790000,22.3211570000 114.1578560000,22.3211540000 114.1578100000,22.3211500000 114.1577590000,22.3211490000 114.1576940000,22.3211590000 114.1576770000,22.3211640000 114.1576610000,22.3211710000 114.1575960000,22.3212120000 114.1575540000,22.3212460000 114.1575240000,22.3212800000 114.1574970000,22.3213170000 114.1574770000,22.3213540000 114.1574660000,22.3213930000 114.1574600000,22.3214440000 114.1574580000,22.3214780000 114.1574570000,22.3214980000 114.1574590000,22.3215110000 114.1574620000,22.3215230000 114.1574050000,22.3216360000 114.1573690000,22.3217040000 114.1573350000,22.3217600000 114.1570710000,22.3221380000 114.1568260000,22.3224820000 114.1565620000,22.3228450000 114.1564340000,22.3230640000 114.1563350000,22.3232210000 114.1560320000,22.3235840000 114.1557220000,22.3239550000 114.1555090000,22.3242060000 114.1550130000,22.3246980000 114.1549550000,22.3247560000 114.1548720000,22.3248380000 114.1548330000,22.3248770000 114.1547880000,22.3249220000 114.1546490000,22.3250360000 114.1545260000,22.3251040000 114.1544890000,22.3251250000 114.1534280000,22.3259320000 114.1530330000,22.3262600000 114.1527240000,22.3265660000 114.1522310000,22.3270260000 114.1519620000,22.3272490000 114.1514500000,22.3276420000 114.1502230000,22.3283500000 114.1500160000,22.3284690000 114.1494760000,22.3287240000 114.1489530000,22.3289840000 114.1484040000,22.3292370000 114.1483030000,22.3292830000 114.1481830000,22.3293360000 114.1480360000,22.3294020000 114.1476850000,22.3295300000 114.1474490000,22.3296140000 114.1469750000,22.3297740000 114.1465430000,22.3299330000 114.1462970000,22.3300340000 114.1460480000,22.3301530000 114.1450650000,22.3305600000 114.1450030000,22.3305820000 114.1446570000,22.3307020000 114.1440650000,22.3309030000 114.1429760000,22.3313260000 114.1422520000,22.3316700000 114.1418780000,22.3318140000 114.1416420000,22.3318950000 114.1412300000,22.3320430000 114.1409980000,22.3321260000 114.1407930000,22.3322060000 114.1406230000,22.3322820000 114.1403190000,22.3324240000 114.1401900000,22.3324920000 114.1395720000,22.3328080000 114.1394970000,22.3328500000 114.1385640000,22.3332330000 114.1378030000,22.3335180000 114.1373210000,22.3337010000 114.1368860000,22.3338730000 114.1365640000,22.3340150000 114.1362710000,22.3341510000 114.1359690000,22.3343040000 114.1356310000,22.3344910000 114.1354440000,22.3346060000 114.1353440000,22.3346670000 114.1352220000,22.3347460000 114.1350140000,22.3348820000 114.1348000000,22.3350240000 114.1344480000,22.3352610000 114.1342910000,22.3353690000 114.1341900000,22.3354590000 114.1338720000,22.3357390000 114.1334860000,22.3361210000 114.1332200000,22.3364150000 114.1330340000,22.3366250000 114.1327260000,22.3370270000 114.1325120000,22.3373330000 114.1322740000,22.3377130000 114.1321960000,22.3378480000 114.1320510000,22.3380930000 114.1318960000,22.3383900000 114.1318580000,22.3384640000 114.1316890000,22.3387910000 114.1313190000,22.3395860000 114.1310380000,22.3402110000 114.1309620000,22.3403700000 114.1308660000,22.3405680000 114.1307020000,22.3409030000 114.1306300000,22.3410380000 114.1305920000,22.3411100000 114.1305250000,22.3412340000 114.1304660000,22.3413420000 114.1303470000,22.3415350000 114.1302580000,22.3416670000 114.1301950000,22.3417640000 114.1300900000,22.3418930000 114.1300170000,22.3419770000 114.1299130000,22.3420940000 114.1297960000,22.3422120000 114.1296700000,22.3423320000 114.1295520000,22.3424400000 114.1294840000,22.3425000000 114.1293200000,22.3426370000 114.1291160000,22.3427790000 114.1289430000,22.3428890000 114.1287970000,22.3429780000 114.1286030000,22.3430850000 114.1283130000,22.3432270000 114.1281970000,22.3432800000 114.1280870000,22.3433250000 114.1278230000,22.3434330000 114.1275370000,22.3435510000 114.1272190000,22.3436900000 114.1270920000,22.3437490000 114.1269950000,22.3437970000 114.1269170000,22.3438390000 114.1268020000,22.3439050000 114.1265700000,22.3440470000 114.1263600000,22.3441870000 114.1261980000,22.3443040000 114.1260630000,22.3444120000 114.1259430000,22.3445150000 114.1257850000,22.3446620000 114.1256620000,22.3447850000 114.1254920000,22.3449680000 114.1252790000,22.3452360000 114.1251700000,22.3453840000 114.1250580000,22.3455550000 114.1249770000,22.3456920000 114.1248460000,22.3459330000 114.1246780000,22.3462410000 114.1246340000,22.3464060000 114.1246200000,22.3464560000 114.1246030000,22.3465190000 114.1245820000,22.3465970000 114.1245630000,22.3466700000 114.1245300000,22.3467900000 114.1244960000,22.3469180000 114.1244670000,22.3470260000 114.1244530000,22.3470760000 114.1244430000,22.3471290000 114.1244350000,22.3471890000 114.1244300000,22.3472230000 114.1243930000,22.3475460000 114.1243650000,22.3479040000 114.1243660000,22.3480910000 114.1243750000,22.3483980000 114.1243700000,22.3487140000 114.1243510000,22.3491910000 114.1242990000,22.3496090000 114.1241960000,22.3499950000 114.1240680000,22.3503030000 114.1239290000,22.3506140000 114.1237360000,22.3509000000 114.1236170000,22.3510480000 114.1233060000,22.3513820000 114.1231200000,22.3515280000 114.1228140000,22.3517660000 114.1226590000,22.3518510000 114.1221170000,22.3521330000 114.1220390000,22.3521610000 114.1219330000,22.3521910000 114.1217460000,22.3522390000 114.1216430000,22.3522680000 114.1214310000,22.3523020000 114.1211410000,22.3523410000 114.1207110000,22.3523730000 114.1203330000,22.3523730000 114.1199880000,22.3523650000 114.1194960000,22.3522790000 114.1191870000,22.3522180000 114.1188760000,22.3521210000 114.1185250000,22.3519850000 114.1181990000,22.3518490000 114.1179480000,22.3517290000 114.1175950000,22.3515240000 114.1171200000,22.3512030000 114.1167670000,22.3509350000 114.1163940000,22.3506770000 114.1161560000,22.3505160000 114.1158850000,22.3503530000 114.1156120000,22.3502090000 114.1153200000,22.3500660000 114.1151020000,22.3499700000 114.1122350000,22.3488850000 114.1118310000,22.3487140000 114.1114850000,22.3485670000 114.1110020000,22.3483410000 114.1108420000,22.3482640000 114.1067700000,22.3461380000 114.1065040000,22.3460130000 114.1062830000,22.3459150000 114.1060100000,22.3457980000 114.1057500000,22.3456900000 114.1055200000,22.3456000000 114.1053160000,22.3455250000 114.1050600000,22.3454400000 114.1048010000,22.3453580000 114.1045000000,22.3452660000 114.1042000000,22.3451750000 114.1039000000,22.3450920000 114.1036000000,22.3450220000 114.1033000000,22.3449580000 114.1030000000,22.3449000000 114.1026000000,22.3448350000 114.1020600000,22.3447660000 114.1017660000,22.3447330000 114.1014700000,22.3447070000 114.1011840000,22.3446860000 114.1009000000,22.3446750000 114.1003400000,22.3446570000 114.0957200000,22.3446110000 114.0956240000,22.3446120000 114.0943830000,22.3446090000 114.0943500000,22.3446090000 114.0939100000,22.3446010000 114.0937600000,22.3445980000 114.0932450000,22.3446000000 114.0929810000,22.3446070000 114.0927640000,22.3446250000 114.0924930000,22.3446550000 114.0921460000,22.3447160000 114.0920330000,22.3447350000 114.0918930000,22.3447670000 114.0917140000,22.3448180000 114.0915110000,22.3448750000 114.0912240000,22.3449820000 114.0909570000,22.3450960000 114.0906820000,22.3452200000 114.0903900000,22.3453580000 114.0901100000,22.3454820000 114.0897870000,22.3456310000 114.0895330000,22.3457580000 114.0892480000,22.3459070000 114.0889450000,22.3460940000 114.0886130000,22.3463450000 114.0883940000,22.3465310000 114.0882570000,22.3466630000 114.0880450000,22.3468980000 114.0879860000,22.3469680000 114.0878280000,22.3471710000 114.0875680000,22.3475740000 114.0873750000,22.3479670000 114.0872760000,22.3482430000 114.0872380000,22.3483480000 114.0871240000,22.3487340000 114.0871080000,22.3487870000 114.0868960000,22.3496110000 114.0868320000,22.3498440000 114.0866190000,22.3502770000 114.0865140000,22.3505780000 114.0864640000,22.3507710000 114.0863940000,22.3509560000 114.0862570000,22.3512780000 114.0861410000,22.3515520000 114.0860220000,22.3517890000 114.0857070000,22.3523180000 114.0855970000,22.3524720000 114.0855230000,22.3525730000 114.0852780000,22.3528730000 114.0851340000,22.3530300000 114.0849600000,22.3531950000 114.0848770000,22.3532660000 114.0847880000,22.3533230000 114.0846600000,22.3534170000 114.0844490000,22.3535240000 114.0843040000,22.3535790000 114.0841700000,22.3536220000 114.0840860000,22.3536490000 114.0839790000,22.3536510000 114.0838550000,22.3536480000 114.0837140000,22.3536450000 114.0835060000,22.3536230000 114.0834460000,22.3536160000 114.0831830000,22.3535730000 114.0828470000,22.3534940000 114.0825320000,22.3534100000 114.0824270000,22.3533780000 114.0823180000,22.3533460000 114.0822340000,22.3533150000 114.0820610000,22.3532540000 114.0818980000,22.3532060000 114.0817580000,22.3531650000 114.0816090000,22.3531210000 114.0805210000,22.3528160000 114.0797960000,22.3526170000 114.0797070000,22.3525930000 114.0726090000,22.3506460000 114.0675450000,22.3492370000 114.0659400000,22.3487900000 114.0628910000,22.3479420000 114.0621920000,22.3477430000 114.0617970000,22.3476210000 114.0613990000,22.3474890000 114.0610110000,22.3473460000 114.0606270000,22.3471880000 114.0602360000,22.3470150000 114.0598750000,22.3468400000 114.0595140000,22.3466480000 114.0591600000,22.3464470000 114.0588470000,22.3462540000 114.0585430000,22.3460600000 114.0525500000,22.3421550000 114.0519850000,22.3418020000 114.0517420000,22.3416520000 114.0514980000,22.3415220000 114.0511970000,22.3413840000 114.0509050000,22.3412690000 114.0504640000,22.3411370000 114.0501150000,22.3410650000 114.0496320000,22.3409870000 114.0488040000,22.3409060000 114.0482030000,22.3408520000 114.0472620000,22.3407500000 114.0466410000,22.3406480000 114.0460530000,22.3405040000 114.0457980000,22.3404300000 114.0455720000,22.3403470000 114.0453930000,22.3402800000 114.0452960000,22.3402370000 114.0452310000,22.3402090000 114.0451410000,22.3401610000 114.0450850000,22.3401310000 114.0449720000,22.3400670000 114.0446520000,22.3398810000 114.0440850000,22.3395510000 114.0433240000,22.3391420000 114.0432120000,22.3390820000 114.0404540000,22.3378310000 114.0398910000,22.3375530000 114.0396970000,22.3374650000 114.0396100000,22.3374260000 114.0393150000,22.3373090000 114.0392240000,22.3372790000 114.0389280000,22.3371800000 114.0384940000,22.3370620000 114.0380500000,22.3369760000 114.0375410000,22.3368690000 114.0371470000,22.3367950000 114.0367080000,22.3366840000 114.0364270000,22.3366160000 114.0362160000,22.3365560000 114.0357730000,22.3363950000 114.0352720000,22.3361990000 114.0347280000,22.3359460000 114.0342840000,22.3357050000 114.0339040000,22.3354760000 114.0333950000,22.3351300000 114.0328830000,22.3347400000 114.0324360000,22.3343470000 114.0313330000,22.3332900000 114.0310680000,22.3330150000 114.0309200000,22.3328440000 114.0307240000,22.3326390000 114.0301970000,22.3321170000 114.0299260000,22.3318720000 114.0292680000,22.3312440000 114.0272370000,22.3293250000 114.0265500000,22.3286660000 114.0257940000,22.3279360000 114.0255110000,22.3276600000 114.0251350000,22.3273220000 114.0247420000,22.3270050000 114.0243000000,22.3266910000 114.0239930000,22.3264980000 114.0238300000,22.3264040000 114.0237490000,22.3263580000 114.0235970000,22.3262700000 114.0230920000,22.3260010000 114.0226320000,22.3257790000 114.0218850000,22.3254810000 114.0213490000,22.3253080000 114.0208470000,22.3251460000 114.0203250000,22.3250340000 114.0198930000,22.3249550000 114.0194430000,22.3248980000 114.0189510000,22.3248540000 114.0184850000,22.3248340000 114.0179330000,22.3248360000 114.0157300000,22.3249950000 114.0151520000,22.3250270000 114.0146290000,22.3250370000 114.0140400000,22.3250260000 114.0134390000,22.3249840000 114.0129530000,22.3249290000 114.0125170000,22.3248670000 114.0120450000,22.3247740000 114.0110200000,22.3245160000 114.0104500000,22.3243350000 114.0099940000,22.3241710000 114.0092210000,22.3238440000 114.0030460000,22.3210970000 114.0022110000,22.3207110000 114.0018700000,22.3205380000 114.0015450000,22.3203740000 114.0012450000,22.3202230000 114.0009200000,22.3200340000 114.0006410000,22.3198590000 114.0004230000,22.3197030000 114.0001470000,22.3195040000 113.9998380000,22.3192620000 113.9994860000,22.3189590000 113.9992090000,22.3186870000 113.9989500000,22.3184190000 113.9985960000,22.3180270000 113.9983040000,22.3176570000 113.9980380000,22.3172630000 113.9980000000,22.3172060000 113.9977570000,22.3168210000 113.9977160000,22.3167520000 113.9974960000,22.3163870000 113.9973020000,22.3160790000 113.9971020000,22.3157770000 113.9968930000,22.3154780000 113.9966240000,22.3151180000 113.9964650000,22.3149000000 113.9961560000,22.3145280000 113.9959240000,22.3142630000 113.9957120000,22.3140280000 113.9954890000,22.3137910000 113.9951690000,22.3134730000 113.9951210000,22.3134260000 113.9949860000,22.3133030000 113.9948160000,22.3131480000 113.9945760000,22.3129470000 113.9944550000,22.3128470000 113.9940660000,22.3125250000 113.9937300000,22.3122730000 113.9936770000,22.3122350000 113.9933570000,22.3120010000 113.9929640000,22.3117410000 113.9926010000,22.3115140000 113.9889850000,22.3094370000 113.9877960000,22.3087560000 113.9860440000,22.3076980000 113.9856810000,22.3074790000 113.9851170000,22.3071400000 113.9850420000,22.3070920000 113.9840910000,22.3064780000 113.9818600000,22.3050900000 113.9804410000,22.3041820000 113.9802420000,22.3040600000 113.9802060000,22.3040380000 113.9795070000,22.3036070000 113.9786170000,22.3030810000 113.9785000000,22.3030110000 113.9778760000,22.3026570000 113.9777710000,22.3025970000 113.9769330000,22.3021450000 113.9766060000,22.3019810000 113.9757470000,22.3015510000 113.9746960000,22.3010220000 113.9737440000,22.3005560000 113.9731390000,22.3002800000 113.9722740000,22.2999010000 113.9715800000,22.2996450000 113.9710390000,22.2994730000 113.9705160000,22.2993110000 113.9698770000,22.2991360000 113.9689750000,22.2989320000 113.9680470000,22.2986900000 113.9677470000,22.2986190000 113.9621910000,22.2973990000 113.9609300000,22.2971350000 113.9603210000,22.2969830000 113.9595720000,22.2967670000 113.9587890000,22.2964930000 113.9582960000,22.2962940000 113.9578120000,22.2960870000 113.9572830000,22.2958390000 113.9567450000,22.2955430000 113.9560790000,22.2951570000 113.9558210000,22.2949960000 113.9555750000,22.2948250000 113.9552750000,22.2946020000 113.9549650000,22.2943560000 113.9546260000,22.2940770000 113.9542590000,22.2937580000 113.9538700000,22.2934090000 113.9535270000,22.2930740000 113.9532730000,22.2927990000 113.9528750000,22.2923800000 113.9523830000,22.2918530000 113.9521350000,22.2916130000 113.9518830000,22.2913840000 113.9515220000,22.2910870000 113.9512400000,22.2908870000 113.9510840000,22.2907630000 113.9504990000,22.2904060000 113.9500840000,22.2901790000 113.9496380000,22.2899900000 113.9491880000,22.2898330000 113.9487170000,22.2896800000 113.9483130000,22.2895790000 113.9478750000,22.2894950000 113.9474000000,22.2894160000 113.9468720000,22.2893630000 113.9463440000,22.2893450000 113.9459210000,22.2893440000 113.9454980000,22.2893540000 113.9448930000,22.2894100000 113.9445070000,22.2894660000 113.9439680000,22.2895710000 113.9434870000,22.2896900000 113.9431440000,22.2897990000 113.9427810000,22.2899170000 113.9424830000,22.2899690000 113.9422260000,22.2900560000 113.9418050000,22.2902430000 113.9415320000,22.2903660000 113.9413420000,22.2904550000 113.9409860000,22.2906380000 113.9406290000,22.2908420000 113.9399640000,22.2912490000 113.9396760000,22.2914320000 113.9394140000,22.2916240000 113.9393070000,22.2917030000 113.9391910000,22.2917470000 113.9391580000,22.2917520000 113.9391110000,22.2917600000 113.9390210000,22.2917530000 113.9389450000,22.2917340000 113.9388590000,22.2916980000 113.9387790000,22.2916500000 113.9374960000,22.2905190000 113.9373860000,22.2903880000 113.9374080000,22.2903140000 113.9373990000,22.2902370000 113.9373620000,22.2901680000 113.9373010000,22.2901160000 113.9372640000,22.2900050000 113.9372550000,22.2899000000 113.9372670000,22.2896300000 113.9372890000,22.2894130000 113.9373230000,22.2891550000 113.9374170000,22.2888560000 113.9375010000,22.2887010000 113.9376430000,22.2885260000 113.9377600000,22.2884110000 113.9378810000,22.2883220000 113.9379820000,22.2882650000 113.9380630000,22.2882210000 113.9381260000,22.2882950000 113.9383680000,22.2885550000 113.9387100000,22.2890850000 113.9388680000,22.2893200000 113.9389850000,22.2894960000 113.9390110000,22.2895360000 113.9390790000,22.2896370000 113.9391960000,22.2898230000 113.9392910000,22.2899620000 113.9393240000,22.2900150000 113.9394650000,22.2902320000 113.9395090000,22.2902940000 113.9395340000,22.2903310000 113.9395700000,22.2903710000 113.9395930000,22.2903960000 113.9396720000,22.2904650000 113.9397700000,22.2905160000 113.9398080000,22.2905290000 113.9399300000,22.2905690000 113.9401140000,22.2905760000 113.9402670000,22.2905720000 113.9404650000,22.2905420000 113.9405920000,22.2904960000 113.9406830000,22.2904550000 113.9407460000,22.2904270000 113.9408850000,22.2903640000 113.9409490000,22.2903350000 113.9412780000,22.2901550000 113.9414300000,22.2900740000 113.9415340000,22.2900070000 113.9417370000,22.2898780000 113.9418400000,22.2897480000 113.9419690000,22.2895410000 113.9419950000,22.2894660000 113.9420130000,22.2893830000 113.9420210000,22.2892620000 113.9420280000,22.2891510000 113.9420100000,22.2890430000 113.9419870000,22.2889860000 113.9418970000,22.2888050000 113.9417840000,22.2886370000 113.9416580000,22.2884390000 113.9416520000,22.2883400000 113.9416280000,22.2883060000 113.9415920000,22.2882550000 113.9415230000,22.2881520000 113.9414730000,22.2881240000 113.9414280000,22.2880950000 113.9413870000,22.2880620000 113.9413560000,22.2880290000 113.9412970000,22.2879360000 113.9412690000,22.2878870000 113.9410260000,22.2874850000 113.9408400000,22.2871780000 113.9406700000,22.2869000000 113.9406670000,22.2868940000 113.9406630000,22.2868880000 113.9406380000,22.2868470000 113.9405790000,22.2867540000 113.9406780000,22.2866830000 113.9407990000,22.2865950000 113.9410460000,22.2863750000 113.9411890000,22.2862470000 113.9413470000,22.2861070000 113.9422270000,22.2853510000 113.9424560000,22.2851500000 113.9426310000,22.2849950000 113.9427590000,22.2849830000 113.9428930000,22.2849880000 113.9429550000,22.2849990000 113.9430670000,22.2850520000 113.9443340000,22.2866850000 113.9448980000,22.2873290000 113.9454390000,22.2878560000 113.9457130000,22.2880990000 113.9459710000,22.2882970000 113.9462280000,22.2884880000 113.9465110000,22.2886470000 113.9468550000,22.2888030000 113.9469890000,22.2889120000 113.9470800000,22.2890400000 113.9470980000,22.2890800000 113.9471330000,22.2891580000 113.9471220000,22.2891810000 113.9471020000,22.2892670000 113.9470430000,22.2896870000 113.9470710000,22.2898320000 113.9471280000,22.2899450000 113.9471740000,22.2900180000 113.9471840000,22.2900340000 113.9472090000,22.2900790000 113.9472640000,22.2901770000 113.9473170000,22.2904010000 113.9473150000,22.2905370000 113.9473000000,22.2906860000 113.9471510000,22.2918230000 113.9468380000,22.2937930000 113.9468290000,22.2938610000 113.9468100000,22.2939970000 113.9468000000,22.2941000000 113.9469180000,22.2941110000 113.9470790000,22.2941320000 113.9483760000,22.2942930000 113.9488000000,22.2943500000 113.9494260000,22.2944220000 113.9494600000,22.2944260000 113.9495120000,22.2944320000 113.9498880000,22.2944760000 113.9504960000,22.2945520000 113.9506040000,22.2945650000 113.9507180000,22.2945780000 113.9508570000,22.2945960000 113.9508850000,22.2945990000 113.9509490000,22.2946060000 113.9510320000,22.2946160000 113.9519480000,22.2947260000 113.9519900000,22.2947310000 113.9520020000,22.2947320000 113.9520470000,22.2947370000 113.9521530000,22.2947600000 113.9521420000,22.2948370000 113.9521360000,22.2948830000 113.9521210000,22.2949950000 113.9520940000,22.2952250000 113.9520640000,22.2953740000 113.9518650000,22.2965100000 113.9518500000,22.2966010000 113.9518480000,22.2966860000 113.9518600000,22.2967650000 113.9518760000,22.2968090000 113.9519000000,22.2968560000 113.9519360000,22.2969130000 113.9519910000,22.2969690000 113.9520150000,22.2969850000 113.9520530000,22.2970110000 113.9521240000,22.2970480000 113.9521940000,22.2970680000 113.9522860000,22.2970840000 113.9523390000,22.2970890000 113.9526390000,22.2971140000 113.9526600000,22.2971160000 113.9527940000,22.2971270000 113.9533750000,22.2971670000 113.9535550000,22.2971740000 113.9536590000,22.2971830000 113.9537630000,22.2971790000 113.9538660000,22.2971620000 113.9539330000,22.2971470000 113.9539950000,22.2971180000 113.9540480000,22.2970770000 113.9540070000,22.2971090000 113.9539950000,22.2971180000 113.9539330000,22.2971470000 113.9538660000,22.2971620000 113.9537630000,22.2971790000 113.9536590000,22.2971830000 113.9535550000,22.2971740000 113.9533750000,22.2971670000 113.9527940000,22.2971270000 113.9526600000,22.2971160000 113.9526390000,22.2971140000 113.9523390000,22.2970890000 113.9522860000,22.2970840000 113.9521940000,22.2970680000 113.9521240000,22.2970480000 113.9520530000,22.2970110000 113.9520150000,22.2969850000 113.9519910000,22.2969690000 113.9519360000,22.2969130000 113.9519000000,22.2968560000 113.9518760000,22.2968090000 113.9518600000,22.2967650000 113.9518480000,22.2966860000 113.9518500000,22.2966010000 113.9518650000,22.2965100000 113.9520640000,22.2953740000 113.9520940000,22.2952250000 113.9521210000,22.2949950000 113.9521360000,22.2948830000 113.9521420000,22.2948370000 113.9521530000,22.2947600000 113.9521670000,22.2946440000 113.9520210000,22.2946320000 113.9520070000,22.2946300000 113.9508960000,22.2944910000 113.9506130000,22.2944560000 113.9505100000,22.2944450000 113.9495320000,22.2943060000 113.9494770000,22.2942980000 113.9494390000,22.2942930000 113.9471400000,22.2939970000 113.9470950000,22.2939890000 113.9469330000,22.2939670000 113.9469430000,22.2939320000 113.9471800000,22.2924460000 113.9472190000,22.2921650000 113.9472680000,22.2918230000 113.9474220000,22.2907060000 113.9474540000,22.2905410000 113.9475130000,22.2903620000 113.9475700000,22.2902410000 113.9476140000,22.2901730000 113.9476530000,22.2901300000 113.9476650000,22.2901190000 113.9476980000,22.2900900000 113.9477890000,22.2900480000 113.9478420000,22.2900160000 113.9478750000,22.2899800000 113.9479390000,22.2898370000 113.9479690000,22.2897430000 113.9480140000,22.2893540000 113.9480130000,22.2892710000 113.9479930000,22.2891350000 113.9479700000,22.2891000000 113.9479060000,22.2890280000 113.9478580000,22.2889750000 113.9477730000,22.2889250000 113.9476440000,22.2888850000 113.9474730000,22.2888850000 113.9473000000,22.2888610000 113.9471210000,22.2888010000 113.9468060000,22.2886520000 113.9464960000,22.2884660000 113.9460400000,22.2880690000 113.9455270000,22.2875680000 113.9446370000,22.2865750000 113.9442630000,22.2861290000 113.9435060000,22.2851730000 113.9431480000,22.2847190000 113.9430750000,22.2846220000 113.9430010000,22.2845210000 113.9427820000,22.2846930000 113.9425890000,22.2848520000 113.9421240000,22.2852550000 113.9419330000,22.2854300000 113.9413330000,22.2859620000 113.9413100000,22.2859820000 113.9412550000,22.2860270000 113.9412170000,22.2860560000 113.9409510000,22.2862620000 113.9406670000,22.2864940000 113.9405970000,22.2865450000 113.9405760000,22.2865600000 113.9405400000,22.2865840000 113.9404880000,22.2866190000 113.9396930000,22.2871010000 113.9392550000,22.2873310000 113.9387710000,22.2876110000 113.9387340000,22.2876320000 113.9383310000,22.2878860000 113.9382980000,22.2879080000 113.9382960000,22.2879100000 113.9381970000,22.2879670000 113.9380800000,22.2880430000 113.9379720000,22.2881060000 113.9377330000,22.2882640000 113.9375620000,22.2884380000 113.9374300000,22.2886140000 113.9373740000,22.2887190000 113.9372930000,22.2888810000 113.9372440000,22.2890120000 113.9372080000,22.2891280000 113.9371890000,22.2893020000 113.9371720000,22.2895390000 113.9370960000,22.2900050000 113.9370440000,22.2901210000 113.9369990000,22.2901590000 113.9369670000,22.2902070000 113.9369460000,22.2902780000 113.9369530000,22.2903510000 113.9369860000,22.2904170000 113.9370410000,22.2904700000 113.9371370000,22.2905080000 113.9372410000,22.2905030000 113.9372790000,22.2905270000 113.9373390000,22.2905510000 113.9374250000,22.2906060000 113.9375620000,22.2907170000 113.9380770000,22.2912020000 113.9389420000,22.2920320000 113.9390490000,22.2921390000 113.9391020000,22.2921890000 113.9393510000,22.2924250000 113.9394380000,22.2925070000 113.9394550000,22.2925230000 113.9395050000,22.2925700000 113.9397700000,22.2928220000 113.9400860000,22.2931200000 113.9401320000,22.2931940000 113.9401490000,22.2935220000 113.9402140000,22.2935670000 113.9407720000,22.2936330000 113.9408070000,22.2936170000 113.9408480000,22.2935890000 113.9408720000,22.2935420000 113.9408820000,22.2934770000 113.9408990000,22.2933280000 113.9409060000,22.2932680000 113.9403510000,22.2930320000 113.9402020000,22.2929380000 113.9397800000,22.2926070000 113.9397570000,22.2925880000 113.9396650000,22.2925090000 113.9396160000,22.2924670000 113.9395500000,22.2924050000 113.9394640000,22.2923220000 113.9392050000,22.2920760000 113.9390380000,22.2919170000 113.9387790000,22.2916500000 113.9374960000,22.2905190000 113.9373860000,22.2903880000 113.9374080000,22.2903140000 113.9373990000,22.2902370000 113.9373620000,22.2901680000 113.9373010000,22.2901160000 113.9372170000,22.2900860000 113.9371270000,22.2900870000 113.9370440000,22.2901210000 113.9369990000,22.2901590000 113.9369670000,22.2902070000 113.9369460000,22.2902780000 113.9369530000,22.2903510000 113.9369860000,22.2904170000 113.9370410000,22.2904700000 113.9371370000,22.2905080000 113.9372410000,22.2905030000 113.9372790000,22.2905270000 113.9373390000,22.2905510000 113.9374250000,22.2906060000 113.9375620000,22.2907170000 113.9380770000,22.2912020000 113.9389420000,22.2920320000 113.9390490000,22.2921390000 113.9391020000,22.2921890000 113.9393510000,22.2924250000 113.9394380000,22.2925070000 113.9394550000,22.2925230000 113.9395200000,22.2925540000 113.9395750000,22.2925820000 113.9396760000,22.2925990000 113.9397570000,22.2925880000 113.9398050000,22.2925570000 113.9398450000,22.2924920000 113.9398730000,22.2923980000 113.9398970000,22.2922900000 113.9399700000,22.2921040000 113.9400020000,22.2920170000 113.9400780000,22.2918790000 113.9401750000,22.2917680000 113.9402830000,22.2916700000 113.9403450000,22.2916180000 113.9405030000,22.2914960000 113.9408170000,22.2912790000 113.9412480000,22.2909950000 113.9414840000,22.2908480000 113.9417500000,22.2906860000 113.9421160000,22.2904900000 113.9424990000,22.2902950000 113.9427230000,22.2901940000 113.9432890000,22.2899710000 113.9440050000,22.2897220000 113.9445240000,22.2896210000 113.9449220000,22.2895610000 113.9455030000,22.2895030000 113.9459200000,22.2894860000 113.9463230000,22.2894810000 113.9468520000,22.2894990000 113.9473740000,22.2895500000 113.9478450000,22.2896190000 113.9482740000,22.2897030000 113.9486710000,22.2898030000 113.9491390000,22.2899470000 113.9495790000,22.2901040000 113.9500170000,22.2902940000 113.9504160000,22.2905100000 113.9508250000,22.2907660000 113.9511440000,22.2909890000 113.9514100000,22.2911870000 113.9517590000,22.2914840000 113.9520180000,22.2917120000 113.9522680000,22.2919420000 113.9527780000,22.2924680000 113.9531720000,22.2928820000 113.9534390000,22.2931600000 113.9537750000,22.2935030000 113.9541670000,22.2938580000 113.9545370000,22.2941730000 113.9548740000,22.2944520000 113.9552060000,22.2947120000 113.9554890000,22.2949220000 113.9557400000,22.2950960000 113.9560230000,22.2952790000 113.9566790000,22.2956560000 113.9572090000,22.2959450000 113.9577490000,22.2961950000 113.9582250000,22.2964030000 113.9587420000,22.2966140000 113.9595180000,22.2968860000 113.9602780000,22.2971090000 113.9608980000,22.2972520000 113.9649120000,22.2981400000 113.9677100000,22.2987600000 113.9680060000,22.2988330000 113.9689400000,22.2990560000 113.9698420000,22.2992600000 113.9704600000,22.2994310000 113.9709990000,22.2995910000 113.9715350000,22.2997640000 113.9722070000,22.3000200000 113.9730740000,22.3003880000 113.9743050000,22.3009830000 113.9751620000,22.3014060000 113.9756680000,22.3016600000 113.9765470000,22.3020970000 113.9768670000,22.3022560000 113.9777920000,22.3027660000 113.9778330000,22.3027900000 113.9781750000,22.3029810000 113.9784290000,22.3031240000 113.9785320000,22.3031850000 113.9794260000,22.3037130000 113.9799170000,22.3040230000 113.9800750000,22.3041220000 113.9816160000,22.3050930000 113.9843200000,22.3067900000 113.9849640000,22.3071960000 113.9850400000,22.3072450000 113.9856060000,22.3075890000 113.9877310000,22.3088640000 113.9889150000,22.3095420000 113.9925320000,22.3116130000 113.9928940000,22.3118400000 113.9932800000,22.3121080000 113.9935900000,22.3123250000 113.9936540000,22.3123690000 113.9939850000,22.3126240000 113.9943640000,22.3129400000 113.9944820000,22.3130400000 113.9947170000,22.3132380000 113.9948820000,22.3133840000 113.9950160000,22.3135030000 113.9950710000,22.3135560000 113.9953880000,22.3138680000 113.9956090000,22.3141060000 113.9958140000,22.3143200000 113.9960710000,22.3146170000 113.9963520000,22.3149690000 113.9965180000,22.3151920000 113.9967760000,22.3155490000 113.9969850000,22.3158460000 113.9971800000,22.3161470000 113.9973750000,22.3164580000 113.9975970000,22.3168140000 113.9976390000,22.3168830000 113.9978800000,22.3172650000 113.9979170000,22.3173200000 113.9981960000,22.3177340000 113.9984880000,22.3181120000 113.9988430000,22.3185050000 113.9990980000,22.3187760000 113.9994070000,22.3190820000 114.0000590000,22.3196040000 114.0003390000,22.3198090000 114.0005530000,22.3199570000 114.0008490000,22.3201550000 114.0011770000,22.3203390000 114.0014940000,22.3205080000 114.0018710000,22.3206920000 114.0022100000,22.3208580000 114.0029710000,22.3212190000 114.0094760000,22.3241070000 114.0099360000,22.3243000000 114.0104040000,22.3244760000 114.0109520000,22.3246520000 114.0120140000,22.3249200000 114.0125020000,22.3250130000 114.0129320000,22.3250750000 114.0134220000,22.3251330000 114.0140090000,22.3251710000 114.0146250000,22.3251850000 114.0151410000,22.3251750000 114.0157440000,22.3251400000 114.0179320000,22.3249830000 114.0184860000,22.3249840000 114.0189250000,22.3250100000 114.0194170000,22.3250510000 114.0198900000,22.3251030000 114.0202650000,22.3251710000 114.0207940000,22.3252890000 114.0213080000,22.3254290000 114.0218170000,22.3256010000 114.0225660000,22.3258960000 114.0230280000,22.3261070000 114.0235650000,22.3263960000 114.0237450000,22.3265060000 114.0238250000,22.3265550000 114.0239050000,22.3266040000 114.0242030000,22.3267940000 114.0243490000,22.3268920000 114.0246170000,22.3270780000 114.0247720000,22.3271940000 114.0254040000,22.3277460000 114.0260390000,22.3283460000 114.0264750000,22.3287670000 114.0282150000,22.3304640000 114.0298050000,22.3319760000 114.0304390000,22.3325750000 114.0308620000,22.3329980000 114.0312130000,22.3333890000 114.0317050000,22.3338540000 114.0323360000,22.3344360000 114.0327820000,22.3348390000 114.0333080000,22.3352490000 114.0338440000,22.3355960000 114.0342190000,22.3358170000 114.0344620000,22.3359510000 114.0347660000,22.3361070000 114.0350550000,22.3362460000 114.0353690000,22.3363980000 114.0363300000,22.3367570000 114.0366680000,22.3368420000 114.0370670000,22.3369350000 114.0375160000,22.3370150000 114.0380120000,22.3371160000 114.0384510000,22.3372100000 114.0388380000,22.3373170000 114.0392890000,22.3374640000 114.0397330000,22.3376370000 114.0403480000,22.3379370000 114.0409590000,22.3382530000 114.0429330000,22.3394340000 114.0430990000,22.3395140000 114.0438770000,22.3398890000 114.0444670000,22.3401500000 114.0448700000,22.3403100000 114.0450310000,22.3403730000 114.0451330000,22.3404040000 114.0452000000,22.3404250000 114.0452020000,22.3404260000 114.0457530000,22.3405940000 114.0460570000,22.3406770000 114.0466800000,22.3408170000 114.0473730000,22.3409100000 114.0482450000,22.3409950000 114.0487620000,22.3410670000 114.0496140000,22.3411750000 114.0500720000,22.3412490000 114.0504120000,22.3413120000 114.0508330000,22.3414360000 114.0511730000,22.3415610000 114.0514230000,22.3416710000 114.0516610000,22.3417990000 114.0518850000,22.3419290000 114.0520460000,22.3420240000 114.0524520000,22.3422840000 114.0584460000,22.3461890000 114.0587520000,22.3463840000 114.0590690000,22.3465800000 114.0594270000,22.3467830000 114.0597930000,22.3469780000 114.0601590000,22.3471560000 114.0605560000,22.3473310000 114.0609450000,22.3474910000 114.0613390000,22.3476360000 114.0617410000,22.3477700000 114.0621400000,22.3478920000 114.0628380000,22.3480920000 114.0785450000,22.3524280000 114.0797670000,22.3527760000 114.0800560000,22.3528590000 114.0804770000,22.3529760000 114.0806780000,22.3530320000 114.0815490000,22.3533040000 114.0817060000,22.3533540000 114.0818690000,22.3533820000 114.0820570000,22.3534100000 114.0821810000,22.3534370000 114.0822720000,22.3534630000 114.0823750000,22.3534920000 114.0825170000,22.3535330000 114.0828120000,22.3536060000 114.0831490000,22.3536800000 114.0834320000,22.3537280000 114.0834970000,22.3537370000 114.0836950000,22.3537650000 114.0838530000,22.3537790000 114.0839740000,22.3537800000 114.0840840000,22.3537810000 114.0841770000,22.3537800000 114.0843150000,22.3537780000 114.0845040000,22.3537540000 114.0847550000,22.3536920000 114.0849010000,22.3536440000 114.0850820000,22.3535590000 114.0852110000,22.3535140000 114.0854020000,22.3534360000 114.0854700000,22.3534080000 114.0855160000,22.3533890000 114.0856200000,22.3533410000 114.0857660000,22.3532790000 114.0858660000,22.3532260000 114.0859760000,22.3531680000 114.0860670000,22.3531210000 114.0861450000,22.3530700000 114.0862540000,22.3529910000 114.0863520000,22.3529080000 114.0864480000,22.3528090000 114.0865400000,22.3526940000 114.0866790000,22.3524530000 114.0867420000,22.3522850000 114.0868130000,22.3520210000 114.0869000000,22.3515320000 114.0869390000,22.3512990000 114.0869880000,22.3510740000 114.0870970000,22.3506830000 114.0871110000,22.3505910000 114.0871300000,22.3504650000 114.0871770000,22.3501490000 114.0871840000,22.3501050000 114.0873720000,22.3493900000 114.0873850000,22.3493210000 114.0874730000,22.3488690000 114.0874870000,22.3487930000 114.0875280000,22.3486700000 114.0876060000,22.3484580000 114.0876470000,22.3483500000 114.0877000000,22.3482120000 114.0878300000,22.3479380000 114.0879940000,22.3476390000 114.0881250000,22.3474620000 114.0882400000,22.3473590000 114.0883470000,22.3472640000 114.0885020000,22.3471250000 114.0885890000,22.3470470000 114.0891520000,22.3465960000 114.0892520000,22.3465380000 114.0893170000,22.3465010000 114.0894580000,22.3464220000 114.0895440000,22.3463710000 114.0896600000,22.3463030000 114.0898570000,22.3462060000 114.0904080000,22.3459230000 114.0909510000,22.3456540000 114.0913290000,22.3454850000 114.0917140000,22.3453370000 114.0921490000,22.3451970000 114.0926200000,22.3450830000 114.0931040000,22.3449910000 114.0933720000,22.3449670000 114.0939110000,22.3449370000 114.0941740000,22.3449370000 114.0952440000,22.3449500000 114.0957200000,22.3449460000 114.1004000000,22.3449930000 114.1010700000,22.3450180000 114.1014000000,22.3450400000 114.1017300000,22.3450680000 114.1020600000,22.3451030000 114.1023900000,22.3451480000 114.1030400000,22.3452500000 114.1033000000,22.3453000000 114.1035300000,22.3453500000 114.1037300000,22.3453950000 114.1038810000,22.3454310000 114.1040300000,22.3454700000 114.1042020000,22.3455180000 114.1043800000,22.3455700000 114.1046900000,22.3456680000 114.1049680000,22.3457620000 114.1051600000,22.3458300000 114.1053500000,22.3459000000 114.1056800000,22.3460270000 114.1060000000,22.3461600000 114.1066070000,22.3464420000 114.1092280000,22.3478020000 114.1094000000,22.3478900000 114.1094990000,22.3479370000 114.1095990000,22.3479820000 114.1098100000,22.3480700000 114.1100000000,22.3481490000 114.1103700000,22.3483000000 114.1107080000,22.3484390000 114.1112560000,22.3486440000 114.1114010000,22.3486980000 114.1121940000,22.3489990000 114.1150360000,22.3500680000 114.1152660000,22.3501660000 114.1155460000,22.3503070000 114.1158280000,22.3504570000 114.1160890000,22.3506120000 114.1163380000,22.3507780000 114.1166890000,22.3510310000 114.1170420000,22.3512980000 114.1174180000,22.3515670000 114.1177500000,22.3517760000 114.1179500000,22.3518880000 114.1181630000,22.3519900000 114.1185390000,22.3521520000 114.1187440000,22.3522270000 114.1189890000,22.3523010000 114.1192310000,22.3523660000 114.1195060000,22.3524250000 114.1197310000,22.3524620000 114.1198420000,22.3524770000 114.1199660000,22.3524930000 114.1203430000,22.3525160000 114.1207100000,22.3525140000 114.1211680000,22.3524720000 114.1214580000,22.3524280000 114.1216780000,22.3523900000 114.1217840000,22.3523650000 114.1219810000,22.3522960000 114.1220880000,22.3522570000 114.1221670000,22.3522230000 114.1226290000,22.3520200000 114.1228980000,22.3518990000 114.1232400000,22.3516400000 114.1234320000,22.3514950000 114.1237280000,22.3512190000 114.1239480000,22.3509410000 114.1241480000,22.3506360000 114.1243000000,22.3503120000 114.1244440000,22.3499020000 114.1244990000,22.3496360000 114.1245500000,22.3491470000 114.1245370000,22.3484120000 114.1245330000,22.3480180000 114.1245490000,22.3476170000 114.1246060000,22.3472410000 114.1246110000,22.3472070000 114.1246230000,22.3471590000 114.1246360000,22.3471070000 114.1246480000,22.3470550000 114.1246730000,22.3469520000 114.1247110000,22.3468180000 114.1247390000,22.3467160000 114.1247610000,22.3466370000 114.1247850000,22.3465690000 114.1248130000,22.3464960000 114.1248340000,22.3464420000 114.1249030000,22.3462770000 114.1250230000,22.3459890000 114.1251600000,22.3457430000 114.1252280000,22.3456200000 114.1254330000,22.3453410000 114.1256160000,22.3450810000 114.1258790000,22.3448160000 114.1260740000,22.3446340000 114.1262650000,22.3444920000 114.1264800000,22.3443300000 114.1269240000,22.3440300000 114.1270200000,22.3439790000 114.1271090000,22.3439320000 114.1271840000,22.3438920000 114.1272820000,22.3438400000 114.1276470000,22.3436840000 114.1278970000,22.3435720000 114.1281270000,22.3434690000 114.1283770000,22.3433460000 114.1286560000,22.3432050000 114.1289710000,22.3430190000 114.1291870000,22.3428750000 114.1294020000,22.3427320000 114.1295670000,22.3426040000 114.1297310000,22.3424680000 114.1298900000,22.3423150000 114.1301370000,22.3420730000 114.1303630000,22.3417950000 114.1304050000,22.3417270000 114.1304940000,22.3415860000 114.1306050000,22.3414080000 114.1306680000,22.3413080000 114.1307450000,22.3411650000 114.1307910000,22.3410810000 114.1308490000,22.3409740000 114.1310190000,22.3406270000 114.1311190000,22.3404140000 114.1311910000,22.3402610000 114.1314770000,22.3396800000 114.1315870000,22.3394560000 114.1316710000,22.3392680000 114.1316840000,22.3392360000 114.1318380000,22.3388760000 114.1319550000,22.3386180000 114.1320070000,22.3385160000 114.1320500000,22.3384340000 114.1322000000,22.3381400000 114.1324040000,22.3378060000 114.1326480000,22.3374240000 114.1328610000,22.3371230000 114.1331790000,22.3367280000 114.1333570000,22.3365230000 114.1336230000,22.3362450000 114.1337460000,22.3361190000 114.1343320000,22.3356020000 114.1345140000,22.3354620000 114.1346460000,22.3353620000 114.1349080000,22.3351570000 114.1351140000,22.3350120000 114.1353150000,22.3348710000 114.1354560000,22.3347710000 114.1355370000,22.3347190000 114.1357120000,22.3346060000 114.1360310000,22.3344250000 114.1363260000,22.3342690000 114.1366140000,22.3341310000 114.1369430000,22.3339880000 114.1373830000,22.3338160000 114.1378110000,22.3336600000 114.1395900000,22.3330030000 114.1398300000,22.3329510000 114.1403410000,22.3328320000 114.1404170000,22.3328110000 114.1407680000,22.3327140000 114.1409930000,22.3326420000 114.1411400000,22.3325900000 114.1413060000,22.3325270000 114.1415830000,22.3324020000 114.1418830000,22.3322730000 114.1420570000,22.3321830000 114.1421190000,22.3321560000 114.1422260000,22.3321120000 114.1424750000,22.3320140000 114.1436440000,22.3315570000 114.1442060000,22.3313700000 114.1445550000,22.3312370000 114.1452370000,22.3309630000 114.1459070000,22.3306780000 114.1460890000,22.3306160000 114.1464490000,22.3304940000 114.1470250000,22.3302710000 114.1475800000,22.3300560000 114.1478570000,22.3299480000 114.1485500000,22.3297040000 114.1492380000,22.3293870000 114.1492850000,22.3293640000 114.1497570000,22.3291370000 114.1501000000,22.3289550000 114.1503960000,22.3287860000 114.1507410000,22.3285760000 114.1520550000,22.3277150000 114.1526590000,22.3272860000 114.1531820000,22.3269000000 114.1537150000,22.3264900000 114.1539540000,22.3262910000 114.1542690000,22.3260350000 114.1546560000,22.3256860000 114.1550120000,22.3253750000 114.1552850000,22.3251110000 114.1556570000,22.3247580000 114.1560600000,22.3243000000 114.1567060000,22.3235550000 114.1567520000,22.3235150000 114.1569030000,22.3233830000 114.1569720000,22.3233230000 114.1572730000,22.3230010000 114.1574360000,22.3228130000 114.1576530000,22.3225520000 114.1580220000,22.3221070000 114.1580680000,22.3220630000 114.1581700000,22.3219870000 114.1582200000,22.3219810000 114.1582590000,22.3219700000 114.1583060000,22.3219810000 114.1583530000,22.3219910000 114.1584180000,22.3220050000 114.1584530000,22.3220160000 114.1584860000,22.3220320000 114.1585100000,22.3220470000 114.1585270000,22.3220610000 114.1585750000,22.3221100000 114.1586260000,22.3221690000 114.1586900000,22.3222600000 114.1587800000,22.3224100000 114.1588700000,22.3225800000 114.1589400000,22.3227300000 114.1590660000,22.3230900000 114.1590860000,22.3231210000 114.1591090000,22.3231670000 114.1591380000,22.3232070000 114.1591800000,22.3232500000 114.1592120000,22.3232760000 114.1592480000,22.3233030000 114.1593020000,22.3233400000 114.1593940000,22.3234050000 114.1594540000,22.3233320000 114.1595340000,22.3232070000 114.1595960000,22.3231060000 114.1596640000,22.3229850000 114.1598070000,22.3226080000 114.1598300000,22.3225130000 114.1598530000,22.3224190000 114.1598830000,22.3221970000 114.1598850000,22.3219530000 114.1598720000,22.3216760000 114.1598750000,22.3213900000 114.1598750000,22.3211090000 114.1598560000,22.3209880000 114.1598500000,22.3206810000 114.1598540000,22.3205620000 114.1598410000,22.3202010000 114.1598340000,22.3200370000 114.1598290000,22.3199340000 114.1598340000,22.3198690000 114.1598460000,22.3198000000 114.1598730000,22.3196840000 114.1598890000,22.3196270000 114.1599150000,22.3195670000 114.1599270000,22.3195450000 114.1599610000,22.3194890000 114.1600010000,22.3194220000 114.1600440000,22.3193500000 114.1601080000,22.3192340000 114.1601310000,22.3191910000 114.1602580000,22.3189940000 114.1603260000,22.3188800000 114.1603810000,22.3187710000 114.1604450000,22.3186440000 114.1604710000,22.3185890000 114.1604920000,22.3185450000 114.1605610000,22.3184080000 114.1606670000,22.3181410000 114.1607210000,22.3180280000 114.1607900000,22.3179520000 114.1608130000,22.3179360000 114.1608420000,22.3179160000 114.1608940000,22.3178850000 114.1610060000,22.3178500000 114.1610770000,22.3179390000 114.1611320000,22.3180310000 114.1611880000,22.3181460000 114.1612160000,22.3182470000 114.1612310000,22.3183320000 114.1612310000,22.3186030000 114.1612310000,22.3187440000 114.1612310000,22.3190360000 114.1612310000,22.3190650000 114.1612290000,22.3191450000 114.1612080000,22.3192070000 114.1611740000,22.3192650000 114.1611300000,22.3193160000 114.1610780000,22.3193590000 114.1610170000,22.3193930000 114.1609820000,22.3194060000 114.1609510000,22.3194170000 114.1608820000,22.3194300000 114.1606880000,22.3194330000 114.1605810000,22.3194340000 114.1604920000,22.3194340000 114.1601570000,22.3194350000 114.1601290000,22.3194350000 114.1600010000,22.3194220000 114.1600440000,22.3193500000 114.1601080000,22.3192340000 114.1601310000,22.3191910000 114.1602580000,22.3189940000 114.1603260000,22.3188800000 114.1603810000,22.3187710000 114.1604450000,22.3186440000 114.1604710000,22.3185890000 114.1604920000,22.3185450000 114.1605610000,22.3184080000 114.1606670000,22.3181410000 114.1607210000,22.3180280000 114.1607900000,22.3179520000 114.1608130000,22.3179360000 114.1608420000,22.3179160000 114.1608940000,22.3178850000 114.1610060000,22.3178500000 114.1610770000,22.3179390000 114.1614870000,22.3180790000 114.1616590000,22.3181390000 114.1618720000,22.3182250000 114.1619260000,22.3182520000 114.1619580000,22.3182730000 114.1619890000,22.3183140000 114.1619960000,22.3183660000 114.1619960000,22.3184900000 114.1619960000,22.3185560000 114.1619960000,22.3186210000 114.1619960000,22.3186440000 114.1619960000,22.3186770000 114.1619960000,22.3187780000 114.1619960000,22.3187910000 114.1619960000,22.3188720000 114.1619910000,22.3189620000 114.1619890000,22.3190590000 114.1619880000,22.3190890000 114.1619880000,22.3191100000 114.1619880000,22.3191430000 114.1620800000,22.3194700000 114.1622580000,22.3194710000 114.1623250000,22.3194930000 114.1626280000,22.3191940000 114.1627130000,22.3191090000 114.1627460000,22.3190770000 114.1628380000,22.3189680000 114.1629430000,22.3189030000 114.1630570000,22.3188130000 114.1631020000,22.3187690000 114.1631430000,22.3187220000 114.1631790000,22.3186710000 114.1632060000,22.3186270000 114.1632830000,22.3184890000 114.1633210000,22.3184080000 114.1633530000,22.3183070000 114.1634230000,22.3180820000 114.1634800000,22.3178100000 114.1635370000,22.3175620000 114.1636220000,22.3173200000 114.1636340000,22.3172860000 114.1636650000,22.3171770000 114.1636810000,22.3171120000 114.1637090000,22.3169660000 114.1638790000,22.3162590000 114.1638940000,22.3161950000 114.1639370000,22.3158520000 114.1640170000,22.3156760000 114.1641180000,22.3152310000 114.1641850000,22.3149330000 114.1642040000,22.3148560000 114.1642360000,22.3147240000 114.1643640000,22.3141970000 114.1643750000,22.3141510000 114.1644610000,22.3138130000 114.1644820000,22.3137270000 114.1646170000,22.3131250000 114.1646240000,22.3130930000 114.1646540000,22.3129650000 114.1646870000,22.3128080000 114.1646930000,22.3127780000 114.1647350000,22.3126680000 114.1647650000,22.3125260000 114.1648000000,22.3123640000 114.1648760000,22.3123300000 114.1648820000,22.3123230000 114.1648890000,22.3123150000 114.1648970000,22.3123050000 114.1649060000,22.3122940000 114.1649140000,22.3122840000 114.1649300000,22.3122680000 114.1649440000,22.3122530000 114.1650100000,22.3122160000 114.1651180000,22.3121980000 114.1654340000,22.3122020000 114.1658900000,22.3122760000 114.1663740000,22.3123400000 114.1665110000,22.3123850000 114.1665770000,22.3123910000 114.1666710000,22.3123870000 114.1669120000,22.3124360000 114.1669460000,22.3124410000 114.1670050000,22.3124500000 114.1670860000,22.3124530000 114.1672900000,22.3124690000 114.1674890000,22.3125030000 114.1675710000,22.3125150000 114.1681430000,22.3126050000 114.1683840000,22.3126430000 114.1684270000,22.3126500000 114.1684970000,22.3126660000 114.1688960000,22.3127400000 114.1689660000,22.3127530000 114.1690650000,22.3127700000 114.1693530000,22.3128190000 114.1694300000,22.3128330000 114.1695380000,22.3128510000 114.1697440000,22.3128850000 114.1699910000,22.3129250000 114.1700160000,22.3129290000 114.1704670000,22.3130110000 114.1704970000,22.3130160000 114.1706020000,22.3130350000 114.1707010000,22.3130540000 114.1708350000,22.3130790000 114.1708830000,22.3130880000 114.1712530000,22.3131580000 114.1712760000,22.3131620000 114.1713300000,22.3131710000 114.1713600000,22.3131800000 114.1713980000,22.3131920000 114.1714430000,22.3132110000 114.1714750000,22.3132350000 114.1715020000,22.3132660000 114.1715750000,22.3133720000 114.1717420000,22.3136150000 114.1718090000,22.3137090000 114.1719840000,22.3139520000 114.1720050000,22.3139780000 114.1721650000,22.3141910000 114.1722340000,22.3142810000 114.1726180000,22.3147770000 114.1727020000,22.3148820000 114.1727390000,22.3149340000 114.1728350000,22.3150780000 114.1730510000,22.3153650000 114.1734080000,22.3158380000 114.1737940000,22.3163730000 114.1738080000,22.3163920000 114.1738360000,22.3164300000 114.1740080000,22.3166910000 114.1742530000,22.3170290000 114.1743230000,22.3171080000 114.1743700000,22.3171700000 114.1748230000,22.3177870000 114.1748670000,22.3178450000 114.1748890000,22.3178750000 114.1749460000,22.3179530000 114.1751200000,22.3181900000 114.1752450000,22.3183570000 114.1753000000,22.3184310000 114.1753210000,22.3184600000 114.1754010000,22.3185600000 114.1754380000,22.3186090000 114.1755480000,22.3185400000 114.1756550000,22.3184850000 114.1757000000,22.3184620000 114.1758510000,22.3183850000 114.1762830000,22.3181630000 114.1764140000,22.3181040000 114.1765010000,22.3180660000 114.1766130000,22.3180370000 114.1767720000,22.3180160000 114.1769930000,22.3180040000 114.1770820000,22.3180020000 114.1772270000,22.3179980000 114.1774210000,22.3179460000 114.1775060000,22.3179230000 114.1776540000,22.3178640000 114.1776620000,22.3178610000 114.1776830000,22.3178530000 114.1776990000,22.3178460000 114.1777250000,22.3178360000 114.1777470000,22.3178270000 114.1777620000,22.3178210000 114.1778320000,22.3177930000 114.1779300000,22.3177520000 114.1780020000,22.3177230000 114.1780950000,22.3176850000 114.1782430000,22.3176240000 114.1788350000,22.3173910000 114.1789540000,22.3173400000 114.1790380000,22.3173100000 114.1791140000,22.3172840000 114.1793810000,22.3171840000 114.1798070000,22.3170080000 114.1799560000,22.3169370000 114.1799950000,22.3169220000 114.1800370000,22.3168460000 114.1800960000,22.3168210000 114.1803010000,22.3167270000 114.1804360000,22.3166800000 114.1805770000,22.3166030000 114.1807270000,22.3165030000 114.1808330000,22.3164270000 114.1809490000,22.3163250000 114.1810260000,22.3162970000 114.1810570000,22.3162710000 114.1811340000,22.3162100000 114.1811740000,22.3161740000 114.1812210000,22.3161400000 114.1813050000,22.3160380000 114.1813210000,22.3160070000 114.1814180000,22.3157250000 114.1814820000,22.3154930000 114.1814990000,22.3154310000 114.1815420000,22.3152660000 114.1815610000,22.3150650000 114.1815820000,22.3149390000 114.1816700000,22.3146000000 114.1816840000,22.3145400000 114.1817220000,22.3143370000 114.1817540000,22.3142230000 114.1818210000,22.3139790000 114.1819170000,22.3136320000 114.1820480000,22.3136560000 114.1826330000,22.3137690000 114.1832730000,22.3139110000 114.1833780000,22.3139310000 114.1834460000,22.3139420000 114.1839220000,22.3140180000 114.1840770000,22.3140920000 114.1841490000,22.3141410000 114.1842060000,22.3142170000 114.1842580000,22.3142890000 114.1842930000,22.3143750000 114.1843070000,22.3144570000 114.1843090000,22.3145190000 114.1843040000,22.3145660000 114.1842920000,22.3146210000 114.1842770000,22.3146690000 114.1842580000,22.3147050000 114.1841850000,22.3148070000 114.1840120000,22.3149500000 114.1836660000,22.3152140000 114.1836140000,22.3152740000 114.1835110000,22.3153910000 114.1834290000,22.3156010000 114.1833660000,22.3158270000 114.1832110000,22.3164240000 114.1830080000,22.3172050000 114.1829370000,22.3174910000 114.1829030000,22.3176290000 114.1828570000,22.3177460000 114.1826820000,22.3181960000 114.1825390000,22.3185630000 114.1824150000,22.3189800000 114.1823460000,22.3191930000 114.1823340000,22.3192310000 114.1821520000,22.3198810000 114.1824870000,22.3199440000 114.1830720000,22.3200550000 114.1831020000,22.3200560000 114.1832110000,22.3200590000 114.1832250000,22.3200590000 114.1834680000,22.3200130000 114.1836560000,22.3199080000 114.1837710000,22.3198300000 114.1843620000,22.3194360000 114.1845030000,22.3193620000 114.1845990000,22.3193380000 114.1847310000,22.3193270000 114.1848200000,22.3193280000 114.1849110000,22.3193570000 114.1850090000,22.3194180000 114.1851570000,22.3195100000 114.1853930000,22.3197310000 114.1855550000,22.3199190000 114.1856430000,22.3200800000 114.1857690000,22.3200260000 114.1858720000,22.3200190000 114.1864100000,22.3200190000 114.1868750000,22.3200160000 114.1872040000,22.3200230000 114.1872300000,22.3200230000 114.1873420000,22.3200250000 114.1874000000,22.3200270000 114.1874390000,22.3200320000 114.1875120000,22.3200670000 114.1876410000,22.3201220000 114.1876410000,22.3200500000 114.1876450000,22.3199600000 114.1876310000,22.3195830000 114.1876250000,22.3193790000 114.1876240000,22.3193500000 114.1876240000,22.3192890000 114.1876220000,22.3190940000 114.1876180000,22.3184290000 114.1876170000,22.3181860000 114.1876160000,22.3180890000 114.1876240000,22.3180350000 114.1876430000,22.3179870000 114.1876460000,22.3177550000 114.1876480000,22.3176210000 114.1876490000,22.3174990000 114.1876500000,22.3174280000 114.1876410000,22.3164010000 114.1876430000,22.3163450000 114.1876690000,22.3161280000 114.1877020000,22.3159630000 114.1877410000,22.3158020000 114.1877540000,22.3157370000 114.1877990000,22.3157340000 114.1878430000,22.3157190000 114.1882640000,22.3155280000 114.1885760000,22.3153830000 114.1886580000,22.3153440000 114.1887510000,22.3152970000 114.1885610000,22.3150990000 114.1883320000,22.3148610000 114.1881760000,22.3146940000 114.1881070000,22.3146210000 114.1879850000,22.3144900000 114.1879130000,22.3144210000 114.1878130000,22.3143250000 114.1877820000,22.3142950000 114.1877600000,22.3142740000 114.1877180000,22.3142110000 114.1876980000,22.3141600000 114.1876790000,22.3140970000 114.1876700000,22.3140260000 114.1876700000,22.3135440000 114.1876680000,22.3134370000 114.1876830000,22.3126660000 114.1876910000,22.3124930000 114.1876920000,22.3124660000 114.1876970000,22.3123470000 114.1877000000,22.3122510000 114.1877040000,22.3121380000 114.1877050000,22.3120990000 114.1876990000,22.3120200000 114.1876410000,22.3118300000 114.1876390000,22.3117290000 114.1876380000,22.3116840000 114.1876360000,22.3116100000 114.1876340000,22.3115360000 114.1876340000,22.3115160000 114.1876320000,22.3114490000 114.1876320000,22.3114360000 114.1876310000,22.3114220000 114.1876280000,22.3112870000 114.1876250000,22.3111510000 114.1876250000,22.3107730000 114.1876240000,22.3107360000 114.1876220000,22.3106010000 114.1876200000,22.3104880000 114.1876190000,22.3104280000 114.1876140000,22.3100890000 114.1876130000,22.3099770000 114.1876100000,22.3098180000 114.1876100000,22.3098070000 114.1876080000,22.3096410000 114.1876070000,22.3095870000 114.1876040000,22.3093000000 114.1876440000,22.3091480000 114.1876490000,22.3089780000 114.1876490000,22.3089570000 114.1876490000,22.3089360000 114.1876440000,22.3088220000 114.1876360000,22.3086570000 114.1876310000,22.3085540000 114.1876220000,22.3083890000 114.1876190000,22.3083330000 114.1876180000,22.3083170000 114.1875900000,22.3081240000 114.1875510000,22.3080570000 114.1875380000,22.3080350000 114.1875150000,22.3079920000 114.1873490000,22.3077570000 114.1872710000,22.3076460000 114.1871120000,22.3074190000 114.1870620000,22.3073480000 114.1869400000,22.3071740000 114.1867870000,22.3069580000 114.1867800000,22.3069470000 114.1867010000,22.3068200000 114.1871610000,22.3065230000 114.1874730000,22.3063240000 114.1875610000,22.3062680000 114.1876850000,22.3061880000 114.1879860000,22.3060000000 114.1880000000,22.3059910000 114.1880420000,22.3059650000 114.1881140000,22.3059200000 114.1881870000,22.3058740000 114.1882340000,22.3058450000 114.1885100000,22.3056720000 114.1885690000,22.3056350000 114.1886140000,22.3056070000 114.1887180000,22.3055420000 114.1888160000,22.3054800000 114.1889290000,22.3054100000 114.1890120000,22.3053570000 114.1899420000,22.3047760000 114.1899700000,22.3047590000 114.1900650000,22.3046990000 114.1899730000,22.3045730000 114.1895890000,22.3040490000 114.1893920000,22.3037790000 114.1893660000,22.3037440000 114.1892980000,22.3036520000 114.1892420000,22.3035730000 114.1892140000,22.3035330000 114.1890560000,22.3033170000 114.1888990000,22.3031090000 114.1888190000,22.3029090000 114.1888030000,22.3028830000 114.1887830000,22.3027760000 114.1887690000,22.3026870000 114.1887590000,22.3026310000 114.1887510000,22.3025850000 114.1887380000,22.3025380000 114.1887280000,22.3023660000 114.1887070000,22.3022820000 114.1886780000,22.3021940000 114.1886520000,22.3021280000 114.1886240000,22.3020630000 114.1886570000,22.3020520000 114.1887240000,22.3020090000 114.1887500000,22.3019930000 114.1889180000,22.3018810000 114.1891460000,22.3017280000 114.1891570000,22.3017170000 114.1891610000,22.3017020000 114.1891590000,22.3016860000 114.1891490000,22.3016740000 114.1891340000,22.3016660000 114.1891170000,22.3016660000 114.1891020000,22.3016720000 114.1889430000,22.3017780000 114.1888890000,22.3017930000 114.1887650000,22.3014100000 114.1887570000,22.3013870000 114.1887430000,22.3013670000 114.1887240000,22.3013500000 114.1887010000,22.3013370000 114.1885030000,22.3012600000 114.1884790000,22.3012560000</coordinates>
                </LineString>
                <ExtendedData>
                    <Data name="length">
                        <value>80915.75730210978</value>
                    </Data>
                    <Data name="duration">
                        <value>01:31:40</value>
                    </Data>
                </ExtendedData>
            </Placemark>
        </Document>
    </Document>
</kml>