<?xml version="1.0" encoding="UTF-8"?>
<kml xmlns="http://www.opengis.net/kml/2.2" xmlns:gx="http://www.google.com/kml/ext/2.2">
    <Document>
        <name>Route</name>
        <Folder>
            <name>Route Request</name>
            <Placemark>
                <Point>
                    <coordinates>114.1717367714,22.4580422736</coordinates>
                </Point>
                <ExtendedData>
                    <Data name="routingVisited">
                        <value>false</value>
                    </Data>
                </ExtendedData>
            </Placemark>
            <Placemark>
                <Point>
                    <coordinates>114.1691226632,22.4517565323</coordinates>
                </Point>
                <ExtendedData>
                    <Data name="routingVisited">
                        <value>false</value>
                    </Data>
                </ExtendedData>
            </Placemark>
            <Placemark>
                <address>Norwegian International School, Kwong Fuk Road, Hilltop Garden, Pan Chung, Tai Po, Tai Po District, New Territories, Hong Kong, China</address>
                <Point>
                    <coordinates>114.1709741434,22.4469624232</coordinates>
                </Point>
                <ExtendedData>
                    <Data name="county">
                        <value>Tai Po District</value>
                    </Data>
                    <Data name="city">
                        <value>Hong Kong</value>
                    </Data>
                    <Data name="region">
                        <value>New Territories</value>
                    </Data>
                    <Data name="town">
                        <value>Tai Po</value>
                    </Data>
                    <Data name="hamlet">
                        <value>Pan Chung</value>
                    </Data>
                    <Data name="school">
                        <value>Norwegian International School</value>
                    </Data>
                    <Data name="neighbourhood">
                        <value>Hilltop Garden</value>
                    </Data>
                    <Data name="road">
                        <value>Kwong Fuk Road</value>
                    </Data>
                    <Data name="country_code">
                        <value>cn</value>
                    </Data>
                    <Data name="country">
                        <value>China</value>
                    </Data>
                </ExtendedData>
            </Placemark>
            <Placemark>
                <address>Prospect Mansion, 66-72, Paterson Street, Caroline Hill, Causeway Bay, Wan Chai District, Hong Kong Island, Hong Kong, 999077, China</address>
                <Point>
                    <coordinates>114.1846077516,22.2823956005</coordinates>
                </Point>
                <ExtendedData>
                    <Data name="county">
                        <value>Wan Chai District</value>
                    </Data>
                    <Data name="city">
                        <value>Hong Kong</value>
                    </Data>
                    <Data name="region">
                        <value>Hong Kong Island</value>
                    </Data>
                    <Data name="neighbourhood">
                        <value>Caroline Hill</value>
                    </Data>
                    <Data name="house_number">
                        <value>66-72</value>
                    </Data>
                    <Data name="postcode">
                        <value>999077</value>
                    </Data>
                    <Data name="address29">
                        <value>Prospect Mansion</value>
                    </Data>
                    <Data name="road">
                        <value>Paterson Street</value>
                    </Data>
                    <Data name="country_code">
                        <value>cn</value>
                    </Data>
                    <Data name="suburb">
                        <value>Causeway Bay</value>
                    </Data>
                    <Data name="country">
                        <value>China</value>
                    </Data>
                </ExtendedData>
            </Placemark>
            <Placemark>
                <address>大中國蔴雀娛樂, 390, Lockhart Road, Morrison Hill, Causeway Bay, Wan Chai District, Hong Kong Island, Hong Kong, 999077, China</address>
                <Point>
                    <coordinates>114.1798346918,22.2794532214</coordinates>
                </Point>
                <ExtendedData>
                    <Data name="county">
                        <value>Wan Chai District</value>
                    </Data>
                    <Data name="city">
                        <value>Hong Kong</value>
                    </Data>
                    <Data name="region">
                        <value>Hong Kong Island</value>
                    </Data>
                    <Data name="neighbourhood">
                        <value>Morrison Hill</value>
                    </Data>
                    <Data name="house_number">
                        <value>390</value>
                    </Data>
                    <Data name="postcode">
                        <value>999077</value>
                    </Data>
                    <Data name="address29">
                        <value>大中國蔴雀娛樂</value>
                    </Data>
                    <Data name="road">
                        <value>Lockhart Road</value>
                    </Data>
                    <Data name="country_code">
                        <value>cn</value>
                    </Data>
                    <Data name="suburb">
                        <value>Causeway Bay</value>
                    </Data>
                    <Data name="country">
                        <value>China</value>
                    </Data>
                </ExtendedData>
            </Placemark>
            <Placemark>
                <address>Zetland Street, Admiralty, Central District, Hong Kong, Central and Western District, Hong Kong Island, Hong Kong, 999077, China</address>
                <Point>
                    <coordinates>114.1572438392,22.2806593627</coordinates>
                </Point>
                <ExtendedData>
                    <Data name="city">
                        <value>Hong Kong</value>
                    </Data>
                    <Data name="county">
                        <value>Central and Western District</value>
                    </Data>
                    <Data name="region">
                        <value>Hong Kong Island</value>
                    </Data>
                    <Data name="neighbourhood">
                        <value>Admiralty</value>
                    </Data>
                    <Data name="footway">
                        <value>Zetland Street</value>
                    </Data>
                    <Data name="postcode">
                        <value>999077</value>
                    </Data>
                    <Data name="country_code">
                        <value>cn</value>
                    </Data>
                    <Data name="suburb">
                        <value>Central District</value>
                    </Data>
                    <Data name="country">
                        <value>China</value>
                    </Data>
                </ExtendedData>
            </Placemark>
            <Placemark>
                <address>Lam Kie Yuen Tea Shop, Bonham Strand, Admiralty, Sheung Wan, Hong Kong, Central and Western District, Hong Kong Island, Hong Kong, 999077, China</address>
                <Point>
                    <coordinates>114.1506701214,22.2861219841</coordinates>
                </Point>
                <ExtendedData>
                    <Data name="city">
                        <value>Hong Kong</value>
                    </Data>
                    <Data name="county">
                        <value>Central and Western District</value>
                    </Data>
                    <Data name="region">
                        <value>Hong Kong Island</value>
                    </Data>
                    <Data name="neighbourhood">
                        <value>Admiralty</value>
                    </Data>
                    <Data name="postcode">
                        <value>999077</value>
                    </Data>
                    <Data name="address29">
                        <value>Lam Kie Yuen Tea Shop</value>
                    </Data>
                    <Data name="road">
                        <value>Bonham Strand</value>
                    </Data>
                    <Data name="country_code">
                        <value>cn</value>
                    </Data>
                    <Data name="suburb">
                        <value>Sheung Wan</value>
                    </Data>
                    <Data name="country">
                        <value>China</value>
                    </Data>
                </ExtendedData>
            </Placemark>
            <Placemark>
                <address>Central (Macau Ferry), Chung Kong Road, Admiralty, Sheung Wan, Hong Kong, Central and Western District, Hong Kong Island, Hong Kong, 999077, China</address>
                <Point>
                    <coordinates>114.1499908934,22.2884988614</coordinates>
                </Point>
                <ExtendedData>
                    <Data name="city">
                        <value>Hong Kong</value>
                    </Data>
                    <Data name="county">
                        <value>Central and Western District</value>
                    </Data>
                    <Data name="region">
                        <value>Hong Kong Island</value>
                    </Data>
                    <Data name="bus_station">
                        <value>Central (Macau Ferry)</value>
                    </Data>
                    <Data name="neighbourhood">
                        <value>Admiralty</value>
                    </Data>
                    <Data name="postcode">
                        <value>999077</value>
                    </Data>
                    <Data name="road">
                        <value>Chung Kong Road</value>
                    </Data>
                    <Data name="country_code">
                        <value>cn</value>
                    </Data>
                    <Data name="suburb">
                        <value>Sheung Wan</value>
                    </Data>
                    <Data name="country">
                        <value>China</value>
                    </Data>
                </ExtendedData>
            </Placemark>
            <Placemark>
                <address>Standard Chartered Bank, Chiu Lung Street, Admiralty, Central District, Hong Kong, Central and Western District, Hong Kong Island, Hong Kong, 999077, China</address>
                <Point>
                    <coordinates>114.1572249650,22.2826796992</coordinates>
                </Point>
                <ExtendedData>
                    <Data name="pedestrian">
                        <value>Chiu Lung Street</value>
                    </Data>
                    <Data name="city">
                        <value>Hong Kong</value>
                    </Data>
                    <Data name="county">
                        <value>Central and Western District</value>
                    </Data>
                    <Data name="bank">
                        <value>Standard Chartered Bank</value>
                    </Data>
                    <Data name="region">
                        <value>Hong Kong Island</value>
                    </Data>
                    <Data name="neighbourhood">
                        <value>Admiralty</value>
                    </Data>
                    <Data name="postcode">
                        <value>999077</value>
                    </Data>
                    <Data name="country_code">
                        <value>cn</value>
                    </Data>
                    <Data name="suburb">
                        <value>Central District</value>
                    </Data>
                    <Data name="country">
                        <value>China</value>
                    </Data>
                </ExtendedData>
            </Placemark>
            <Placemark>
                <address>Wan Chai, 130-150, Hennessy Road, Morrison Hill, Wan Chai, Wan Chai District, Hong Kong Island, Hong Kong, 999077, China</address>
                <Point>
                    <coordinates>114.1739846625,22.2777887211</coordinates>
                </Point>
                <ExtendedData>
                    <Data name="county">
                        <value>Wan Chai District</value>
                    </Data>
                    <Data name="city">
                        <value>Hong Kong</value>
                    </Data>
                    <Data name="region">
                        <value>Hong Kong Island</value>
                    </Data>
                    <Data name="neighbourhood">
                        <value>Morrison Hill</value>
                    </Data>
                    <Data name="house_number">
                        <value>130-150</value>
                    </Data>
                    <Data name="postcode">
                        <value>999077</value>
                    </Data>
                    <Data name="road">
                        <value>Hennessy Road</value>
                    </Data>
                    <Data name="station">
                        <value>Wan Chai</value>
                    </Data>
                    <Data name="country_code">
                        <value>cn</value>
                    </Data>
                    <Data name="suburb">
                        <value>Wan Chai</value>
                    </Data>
                    <Data name="country">
                        <value>China</value>
                    </Data>
                </ExtendedData>
            </Placemark>
            <Placemark>
                <address>Hung Hing Road, Morrison Hill, Wan Chai, Wan Chai District, Hong Kong Island, Hong Kong, 999077, China</address>
                <Point>
                    <coordinates>114.1779702711,22.2824334512</coordinates>
                </Point>
                <ExtendedData>
                    <Data name="county">
                        <value>Wan Chai District</value>
                    </Data>
                    <Data name="city">
                        <value>Hong Kong</value>
                    </Data>
                    <Data name="region">
                        <value>Hong Kong Island</value>
                    </Data>
                    <Data name="neighbourhood">
                        <value>Morrison Hill</value>
                    </Data>
                    <Data name="postcode">
                        <value>999077</value>
                    </Data>
                    <Data name="road">
                        <value>Hung Hing Road</value>
                    </Data>
                    <Data name="country_code">
                        <value>cn</value>
                    </Data>
                    <Data name="suburb">
                        <value>Wan Chai</value>
                    </Data>
                    <Data name="country">
                        <value>China</value>
                    </Data>
                </ExtendedData>
            </Placemark>
            <Placemark>
                <address>Po Heung Bridge, Po Heung Street, Hilltop Garden, Tai Po Market, Tai Po, Tai Po District, New Territories, Hong Kong, China</address>
                <Point>
                    <coordinates>114.1670511156,22.4501537066</coordinates>
                </Point>
                <ExtendedData>
                    <Data name="county">
                        <value>Tai Po District</value>
                    </Data>
                    <Data name="city">
                        <value>Hong Kong</value>
                    </Data>
                    <Data name="region">
                        <value>New Territories</value>
                    </Data>
                    <Data name="town">
                        <value>Tai Po</value>
                    </Data>
                    <Data name="neighbourhood">
                        <value>Hilltop Garden</value>
                    </Data>
                    <Data name="address29">
                        <value>Po Heung Bridge</value>
                    </Data>
                    <Data name="road">
                        <value>Po Heung Street</value>
                    </Data>
                    <Data name="country_code">
                        <value>cn</value>
                    </Data>
                    <Data name="suburb">
                        <value>Tai Po Market</value>
                    </Data>
                    <Data name="country">
                        <value>China</value>
                    </Data>
                </ExtendedData>
            </Placemark>
            <Placemark>
                <address>Yee Hing Court, On Po Road, Tai Po Old Market, Tai Po, Tai Po District, New Territories, Hong Kong, China</address>
                <Point>
                    <coordinates>114.1704824656,22.4530952771</coordinates>
                </Point>
                <ExtendedData>
                    <Data name="county">
                        <value>Tai Po District</value>
                    </Data>
                    <Data name="city">
                        <value>Hong Kong</value>
                    </Data>
                    <Data name="region">
                        <value>New Territories</value>
                    </Data>
                    <Data name="town">
                        <value>Tai Po</value>
                    </Data>
                    <Data name="building">
                        <value>Yee Hing Court</value>
                    </Data>
                    <Data name="road">
                        <value>On Po Road</value>
                    </Data>
                    <Data name="country_code">
                        <value>cn</value>
                    </Data>
                    <Data name="suburb">
                        <value>Tai Po Old Market</value>
                    </Data>
                    <Data name="country">
                        <value>China</value>
                    </Data>
                </ExtendedData>
            </Placemark>
            <Placemark>
                <address>Fu Heng, Chung Nga Road, Nam Hang, Tai Po, Tai Po District, New Territories, Hong Kong, DD29 375, China</address>
                <Point>
                    <coordinates>114.1717367714,22.4580422736</coordinates>
                </Point>
                <ExtendedData>
                    <Data name="county">
                        <value>Tai Po District</value>
                    </Data>
                    <Data name="city">
                        <value>Hong Kong</value>
                    </Data>
                    <Data name="region">
                        <value>New Territories</value>
                    </Data>
                    <Data name="town">
                        <value>Tai Po</value>
                    </Data>
                    <Data name="bus_station">
                        <value>Fu Heng</value>
                    </Data>
                    <Data name="hamlet">
                        <value>Nam Hang</value>
                    </Data>
                    <Data name="postcode">
                        <value>DD29 375</value>
                    </Data>
                    <Data name="road">
                        <value>Chung Nga Road</value>
                    </Data>
                    <Data name="country_code">
                        <value>cn</value>
                    </Data>
                    <Data name="country">
                        <value>China</value>
                    </Data>
                </ExtendedData>
            </Placemark>
        </Folder>
        <Document>
            <name>72.5 km; 02:00 h (OSRM)</name>
            <Placemark>
                <name>Route</name>
                <LineString>
                    <coordinates>114.1719400000,22.4579380000 114.1719630000,22.4579730000 114.1719980000,22.4579950000 114.1720110000,22.4580130000 114.1720270000,22.4580450000 114.1720290000,22.4584050000 114.1720070000,22.4584510000 114.1719590000,22.4585070000 114.1719090000,22.4585750000 114.1719100000,22.4586740000 114.1719040000,22.4588130000 114.1719750000,22.4588120000 114.1722160000,22.4588140000 114.1722680000,22.4588090000 114.1722970000,22.4587970000 114.1723730000,22.4587660000 114.1724420000,22.4587410000 114.1723830000,22.4585770000 114.1723420000,22.4583480000 114.1722880000,22.4580380000 114.1722520000,22.4577390000 114.1722460000,22.4576010000 114.1722440000,22.4575440000 114.1722810000,22.4574270000 114.1722750000,22.4572780000 114.1722600000,22.4569300000 114.1721800000,22.4559980000 114.1721570000,22.4558730000 114.1721430000,22.4557650000 114.1721400000,22.4557400000 114.1721340000,22.4555800000 114.1721200000,22.4552830000 114.1721250000,22.4549620000 114.1721740000,22.4545350000 114.1722130000,22.4543610000 114.1722400000,22.4542400000 114.1721340000,22.4542050000 114.1716850000,22.4541250000 114.1715980000,22.4541140000 114.1714570000,22.4541030000 114.1713520000,22.4541080000 114.1706920000,22.4541040000 114.1706940000,22.4539880000 114.1706960000,22.4534550000 114.1706910000,22.4521240000 114.1706860000,22.4519950000 114.1700590000,22.4519950000 114.1699290000,22.4519950000 114.1698260000,22.4519950000 114.1691240000,22.4519970000 114.1688290000,22.4519980000 114.1687580000,22.4520000000 114.1687310000,22.4520020000 114.1687110000,22.4520060000 114.1686970000,22.4520120000 114.1686860000,22.4520380000 114.1686780000,22.4520660000 114.1686730000,22.4521260000 114.1686750000,22.4527210000 114.1686740000,22.4528760000 114.1685320000,22.4528740000 114.1675460000,22.4528610000 114.1673850000,22.4528660000 114.1673900000,22.4527160000 114.1673870000,22.4522600000 114.1673860000,22.4520720000 114.1673830000,22.4519320000 114.1673800000,22.4518150000 114.1673780000,22.4517570000 114.1673620000,22.4513100000 114.1673950000,22.4512360000 114.1674250000,22.4511440000 114.1674060000,22.4510310000 114.1673630000,22.4508670000 114.1672820000,22.4503560000 114.1672320000,22.4500770000 114.1671640000,22.4497990000 114.1671380000,22.4497070000 114.1671250000,22.4496700000 114.1670690000,22.4495160000 114.1670420000,22.4494570000 114.1669840000,22.4493160000 114.1669370000,22.4492160000 114.1667720000,22.4489130000 114.1667310000,22.4488020000 114.1669800000,22.4486970000 114.1670080000,22.4486860000 114.1678020000,22.4483180000 114.1682540000,22.4481130000 114.1685620000,22.4479680000 114.1686690000,22.4479170000 114.1688220000,22.4478450000 114.1691650000,22.4476640000 114.1695950000,22.4474650000 114.1696340000,22.4474480000 114.1696650000,22.4474330000 114.1697530000,22.4473900000 114.1698630000,22.4473360000 114.1699070000,22.4473160000 114.1700680000,22.4472450000 114.1703370000,22.4471390000 114.1705910000,22.4470450000 114.1707130000,22.4470000000 114.1709690000,22.4469440000 114.1712020000,22.4468930000 114.1716450000,22.4468040000 114.1718730000,22.4467770000 114.1720530000,22.4467520000 114.1721460000,22.4467360000 114.1722710000,22.4467200000 114.1726760000,22.4466330000 114.1735680000,22.4464790000 114.1736330000,22.4464720000 114.1737360000,22.4464510000 114.1738760000,22.4464300000 114.1739840000,22.4464110000 114.1741190000,22.4464010000 114.1741510000,22.4464060000 114.1741840000,22.4464060000 114.1742430000,22.4463900000 114.1742920000,22.4463570000 114.1743260000,22.4463090000 114.1744430000,22.4462990000 114.1748040000,22.4462370000 114.1749000000,22.4462480000 114.1754550000,22.4461710000 114.1756040000,22.4461600000 114.1761220000,22.4461230000 114.1763420000,22.4461100000 114.1765220000,22.4460860000 114.1766310000,22.4460700000 114.1767360000,22.4460510000 114.1768380000,22.4460300000 114.1769470000,22.4459930000 114.1770210000,22.4459610000 114.1771120000,22.4459080000 114.1771930000,22.4458450000 114.1772790000,22.4457640000 114.1773690000,22.4456630000 114.1775270000,22.4454620000 114.1777060000,22.4452250000 114.1778320000,22.4450770000 114.1779430000,22.4449560000 114.1780760000,22.4448300000 114.1782390000,22.4446970000 114.1784390000,22.4445460000 114.1786430000,22.4443940000 114.1788020000,22.4442730000 114.1788520000,22.4441910000 114.1801770000,22.4432990000 114.1811020000,22.4426480000 114.1821620000,22.4420570000 114.1824040000,22.4419240000 114.1826560000,22.4417820000 114.1851950000,22.4403700000 114.1859930000,22.4399230000 114.1865110000,22.4396640000 114.1870100000,22.4394620000 114.1875050000,22.4393070000 114.1880500000,22.4392030000 114.1883810000,22.4391700000 114.1887120000,22.4391530000 114.1890950000,22.4391490000 114.1894390000,22.4391670000 114.1897750000,22.4392070000 114.1900750000,22.4392610000 114.1903540000,22.4393220000 114.1912930000,22.4395350000 114.1916580000,22.4395990000 114.1920800000,22.4396530000 114.1924660000,22.4396720000 114.1925880000,22.4396740000 114.1928060000,22.4396700000 114.1929880000,22.4396620000 114.1932400000,22.4396470000 114.1935820000,22.4395880000 114.1939410000,22.4395040000 114.1942000000,22.4394390000 114.1944230000,22.4393580000 114.1946260000,22.4392760000 114.1949000000,22.4391480000 114.1953780000,22.4389170000 114.1957400000,22.4387320000 114.1961480000,22.4384990000 114.1964600000,22.4383090000 114.1967590000,22.4381110000 114.1969590000,22.4379740000 114.1978520000,22.4372830000 114.1981080000,22.4370630000 114.1983880000,22.4368030000 114.1986490000,22.4365400000 114.1990380000,22.4361320000 114.1993710000,22.4357680000 114.1996240000,22.4354670000 114.1998640000,22.4351680000 114.2000750000,22.4348740000 114.2002750000,22.4345280000 114.2004280000,22.4341910000 114.2005620000,22.4337990000 114.2006680000,22.4334130000 114.2008260000,22.4327200000 114.2009020000,22.4323990000 114.2009890000,22.4321330000 114.2011090000,22.4318280000 114.2012040000,22.4316120000 114.2013570000,22.4313130000 114.2015100000,22.4310640000 114.2017170000,22.4307650000 114.2018730000,22.4305680000 114.2020220000,22.4303890000 114.2021710000,22.4302320000 114.2022700000,22.4301370000 114.2024330000,22.4299870000 114.2025720000,22.4298650000 114.2027200000,22.4297420000 114.2030040000,22.4295360000 114.2032860000,22.4293450000 114.2040680000,22.4288230000 114.2056530000,22.4277880000 114.2061580000,22.4274700000 114.2070110000,22.4269340000 114.2079110000,22.4263700000 114.2084050000,22.4260570000 114.2094650000,22.4253630000 114.2102390000,22.4248550000 114.2107840000,22.4244810000 114.2109390000,22.4243730000 114.2110950000,22.4242640000 114.2113790000,22.4240480000 114.2116710000,22.4237890000 114.2119490000,22.4235280000 114.2122230000,22.4232410000 114.2124650000,22.4229660000 114.2126550000,22.4227000000 114.2128240000,22.4224430000 114.2130090000,22.4221490000 114.2131220000,22.4219260000 114.2132490000,22.4216450000 114.2134190000,22.4211850000 114.2135150000,22.4208870000 114.2135870000,22.4205720000 114.2136550000,22.4202400000 114.2137050000,22.4199430000 114.2137570000,22.4194380000 114.2137810000,22.4192400000 114.2137510000,22.4184440000 114.2137120000,22.4180770000 114.2136750000,22.4177050000 114.2135360000,22.4170080000 114.2129990000,22.4143340000 114.2130090000,22.4140680000 114.2128130000,22.4130730000 114.2127660000,22.4127720000 114.2127270000,22.4124880000 114.2127030000,22.4121580000 114.2126960000,22.4117710000 114.2127060000,22.4115550000 114.2127390000,22.4112260000 114.2127940000,22.4109760000 114.2128450000,22.4107800000 114.2129380000,22.4105460000 114.2130330000,22.4103490000 114.2131310000,22.4101990000 114.2132710000,22.4100350000 114.2134350000,22.4098600000 114.2136830000,22.4096080000 114.2146610000,22.4087850000 114.2152450000,22.4082940000 114.2164290000,22.4073370000 114.2174520000,22.4065060000 114.2177470000,22.4062450000 114.2178470000,22.4061490000 114.2179560000,22.4060390000 114.2180450000,22.4059320000 114.2181190000,22.4058230000 114.2181940000,22.4056910000 114.2182610000,22.4055560000 114.2183250000,22.4053890000 114.2183470000,22.4052970000 114.2183650000,22.4051910000 114.2183780000,22.4050400000 114.2183810000,22.4048970000 114.2183740000,22.4047280000 114.2183440000,22.4045640000 114.2183150000,22.4044720000 114.2182560000,22.4043210000 114.2181840000,22.4041870000 114.2181130000,22.4040840000 114.2180360000,22.4039710000 114.2179200000,22.4038390000 114.2177430000,22.4036930000 114.2175430000,22.4035400000 114.2172920000,22.4033920000 114.2169440000,22.4032080000 114.2166570000,22.4030600000 114.2164310000,22.4029320000 114.2161650000,22.4027740000 114.2156890000,22.4024820000 114.2155150000,22.4023630000 114.2151960000,22.4021380000 114.2149990000,22.4019880000 114.2148570000,22.4018710000 114.2146710000,22.4017240000 114.2145020000,22.4015780000 114.2143300000,22.4014230000 114.2142090000,22.4013060000 114.2140240000,22.4011200000 114.2137620000,22.4008400000 114.2127810000,22.3998020000 114.2126010000,22.3995960000 114.2124720000,22.3994680000 114.2118760000,22.3987410000 114.2117210000,22.3985150000 114.2115700000,22.3982940000 114.2114550000,22.3981230000 114.2113420000,22.3979240000 114.2111970000,22.3976840000 114.2110310000,22.3973870000 114.2108630000,22.3971000000 114.2107240000,22.3968120000 114.2105710000,22.3965130000 114.2104070000,22.3961210000 114.2102840000,22.3958400000 114.2101620000,22.3955270000 114.2099900000,22.3950030000 114.2098520000,22.3945370000 114.2097560000,22.3942140000 114.2096620000,22.3938580000 114.2096370000,22.3937240000 114.2096120000,22.3935550000 114.2096000000,22.3933870000 114.2095850000,22.3932130000 114.2095880000,22.3930360000 114.2095880000,22.3928670000 114.2095980000,22.3927040000 114.2096240000,22.3923990000 114.2096510000,22.3921930000 114.2096980000,22.3919600000 114.2097410000,22.3917710000 114.2098020000,22.3915470000 114.2098620000,22.3913500000 114.2099230000,22.3911930000 114.2100140000,22.3910570000 114.2101090000,22.3908380000 114.2101520000,22.3907440000 114.2102500000,22.3904980000 114.2103460000,22.3902950000 114.2104670000,22.3900610000 114.2105410000,22.3899170000 114.2106590000,22.3896820000 114.2107740000,22.3894480000 114.2108710000,22.3892420000 114.2109560000,22.3890440000 114.2110500000,22.3888090000 114.2110910000,22.3886810000 114.2111360000,22.3885280000 114.2111860000,22.3882950000 114.2112210000,22.3881030000 114.2112520000,22.3878200000 114.2112710000,22.3875370000 114.2112520000,22.3871560000 114.2112240000,22.3869360000 114.2112090000,22.3868170000 114.2111870000,22.3866890000 114.2111770000,22.3866290000 114.2110960000,22.3863820000 114.2110590000,22.3861670000 114.2109930000,22.3857930000 114.2109250000,22.3854150000 114.2109190000,22.3853740000 114.2108890000,22.3851770000 114.2107060000,22.3840750000 114.2105730000,22.3833100000 114.2105160000,22.3829540000 114.2104720000,22.3827360000 114.2103990000,22.3823050000 114.2103390000,22.3818960000 114.2103030000,22.3814940000 114.2102810000,22.3811290000 114.2102770000,22.3809800000 114.2102710000,22.3807720000 114.2102790000,22.3805200000 114.2102940000,22.3803270000 114.2103100000,22.3801090000 114.2103180000,22.3800040000 114.2103350000,22.3798900000 114.2104190000,22.3796810000 114.2104510000,22.3795070000 114.2104840000,22.3793480000 114.2105290000,22.3791780000 114.2105780000,22.3790510000 114.2106670000,22.3788400000 114.2108220000,22.3785570000 114.2109620000,22.3783840000 114.2110450000,22.3782860000 114.2110860000,22.3782430000 114.2112720000,22.3780530000 114.2117400000,22.3776370000 114.2117800000,22.3776010000 114.2118630000,22.3775380000 114.2123110000,22.3771630000 114.2125220000,22.3769600000 114.2128340000,22.3766900000 114.2130050000,22.3764410000 114.2132730000,22.3760500000 114.2133850000,22.3758450000 114.2134900000,22.3756340000 114.2135830000,22.3754400000 114.2136620000,22.3752500000 114.2137340000,22.3750400000 114.2138090000,22.3748200000 114.2138700000,22.3746200000 114.2139200000,22.3744100000 114.2139600000,22.3742100000 114.2139900000,22.3739900000 114.2140100000,22.3738200000 114.2140300000,22.3736200000 114.2140430000,22.3734200000 114.2140470000,22.3732200000 114.2140470000,22.3730200000 114.2140390000,22.3728200000 114.2140200000,22.3725900000 114.2139900000,22.3723500000 114.2139580000,22.3721200000 114.2139100000,22.3718900000 114.2138830000,22.3717800000 114.2083200000,22.3495900000 114.2082620000,22.3493800000 114.2081850000,22.3491100000 114.2081120000,22.3488600000 114.2080360000,22.3486000000 114.2079650000,22.3483650000 114.2078860000,22.3481300000 114.2077980000,22.3478750000 114.2077160000,22.3476550000 114.2076370000,22.3474500000 114.2075600000,22.3472510000 114.2074820000,22.3470500000 114.2074320000,22.3469220000 114.2073200000,22.3466400000 114.2072320000,22.3464380000 114.2071500000,22.3462500000 114.2070620000,22.3460490000 114.2069700000,22.3458400000 114.2068550000,22.3455880000 114.2067400000,22.3453400000 114.2066200000,22.3451000000 114.2064930000,22.3448500000 114.2063600000,22.3445900000 114.2062700000,22.3444200000 114.2061700000,22.3442500000 114.2060250000,22.3439910000 114.2058840000,22.3437400000 114.2047240000,22.3418420000 114.2044970000,22.3414770000 114.2044510000,22.3414030000 114.2043560000,22.3412500000 114.2042370000,22.3410570000 114.2041840000,22.3409730000 114.2041020000,22.3408260000 114.2040200000,22.3406790000 114.2037860000,22.3402750000 114.2036370000,22.3399110000 114.2035650000,22.3396780000 114.2035070000,22.3394060000 114.2034670000,22.3390760000 114.2034620000,22.3386790000 114.2035020000,22.3383580000 114.2035650000,22.3380700000 114.2036490000,22.3377920000 114.2037200000,22.3375820000 114.2038410000,22.3372750000 114.2039750000,22.3369650000 114.2041430000,22.3365950000 114.2042040000,22.3364470000 114.2043440000,22.3361790000 114.2046930000,22.3353780000 114.2050590000,22.3345000000 114.2051940000,22.3339950000 114.2052160000,22.3338580000 114.2052260000,22.3335740000 114.2051690000,22.3325050000 114.2051430000,22.3318860000 114.2051260000,22.3313350000 114.2051220000,22.3312480000 114.2051220000,22.3311800000 114.2051190000,22.3308610000 114.2050880000,22.3298020000 114.2051000000,22.3295330000 114.2051350000,22.3293270000 114.2052090000,22.3289700000 114.2052630000,22.3287390000 114.2053080000,22.3284440000 114.2053110000,22.3282570000 114.2052980000,22.3280500000 114.2052590000,22.3278390000 114.2051810000,22.3276170000 114.2050770000,22.3273830000 114.2047580000,22.3268260000 114.2046890000,22.3267030000 114.2046160000,22.3265220000 114.2045670000,22.3263810000 114.2045440000,22.3262680000 114.2043350000,22.3252700000 114.2043050000,22.3250260000 114.2042960000,22.3248660000 114.2043020000,22.3247010000 114.2043210000,22.3244120000 114.2044120000,22.3237360000 114.2044900000,22.3231760000 114.2045590000,22.3225480000 114.2046040000,22.3223500000 114.2046700000,22.3221590000 114.2047860000,22.3219400000 114.2049050000,22.3217510000 114.2050760000,22.3215480000 114.2052900000,22.3213410000 114.2061850000,22.3205420000 114.2063390000,22.3203870000 114.2065000000,22.3202200000 114.2067740000,22.3198670000 114.2081000000,22.3183510000 114.2082600000,22.3181770000 114.2084360000,22.3180280000 114.2086810000,22.3178020000 114.2089020000,22.3176460000 114.2091070000,22.3175270000 114.2093220000,22.3174180000 114.2095400000,22.3173270000 114.2097620000,22.3172540000 114.2100330000,22.3171920000 114.2102760000,22.3171420000 114.2105500000,22.3171210000 114.2114570000,22.3170970000 114.2117560000,22.3170730000 114.2119880000,22.3170340000 114.2122850000,22.3169500000 114.2124730000,22.3168770000 114.2127070000,22.3167740000 114.2129200000,22.3166520000 114.2131030000,22.3165470000 114.2132790000,22.3163970000 114.2134740000,22.3162110000 114.2138690000,22.3158060000 114.2142290000,22.3154490000 114.2145580000,22.3151140000 114.2148470000,22.3148200000 114.2163560000,22.3132420000 114.2173930000,22.3121960000 114.2177430000,22.3118360000 114.2181890000,22.3113600000 114.2187700000,22.3106940000 114.2194920000,22.3097790000 114.2202700000,22.3087720000 114.2210710000,22.3077190000 114.2215620000,22.3070150000 114.2216430000,22.3069010000 114.2218020000,22.3066840000 114.2219420000,22.3065490000 114.2221130000,22.3064120000 114.2222910000,22.3063130000 114.2224020000,22.3062630000 114.2225810000,22.3061920000 114.2227370000,22.3061450000 114.2228630000,22.3061150000 114.2230330000,22.3060980000 114.2231470000,22.3060950000 114.2233980000,22.3061030000 114.2234760000,22.3061140000 114.2237290000,22.3061530000 114.2239750000,22.3062510000 114.2242370000,22.3063660000 114.2246560000,22.3066730000 114.2261910000,22.3078620000 114.2264960000,22.3080600000 114.2267550000,22.3082010000 114.2271910000,22.3083820000 114.2277470000,22.3085360000 114.2285990000,22.3087580000 114.2288100000,22.3088060000 114.2290690000,22.3088570000 114.2292690000,22.3088900000 114.2294630000,22.3089170000 114.2299850000,22.3089940000 114.2303890000,22.3090710000 114.2306390000,22.3090860000 114.2308490000,22.3090790000 114.2310250000,22.3090470000 114.2312210000,22.3089870000 114.2314130000,22.3089110000 114.2315560000,22.3088290000 114.2316460000,22.3087570000 114.2318300000,22.3086130000 114.2320640000,22.3083670000 114.2325680000,22.3077880000 114.2330760000,22.3071800000 114.2333060000,22.3069050000 114.2334430000,22.3067490000 114.2337480000,22.3063870000 114.2340100000,22.3060080000 114.2342190000,22.3057620000 114.2342890000,22.3056790000 114.2346060000,22.3053460000 114.2347410000,22.3052050000 114.2348130000,22.3051160000 114.2349460000,22.3049530000 114.2350110000,22.3048740000 114.2351820000,22.3046280000 114.2352960000,22.3044050000 114.2353850000,22.3041950000 114.2354160000,22.3041010000 114.2354830000,22.3038640000 114.2355170000,22.3036710000 114.2355290000,22.3035190000 114.2355210000,22.3032590000 114.2354980000,22.3031120000 114.2354750000,22.3029590000 114.2353920000,22.3026740000 114.2353630000,22.3026020000 114.2352930000,22.3024550000 114.2352150000,22.3023030000 114.2351490000,22.3021690000 114.2349990000,22.3019600000 114.2348450000,22.3017840000 114.2343870000,22.3013330000 114.2342050000,22.3012230000 114.2339520000,22.3010590000 114.2339070000,22.3010320000 114.2328620000,22.3004000000 114.2320970000,22.2999830000 114.2314960000,22.2996710000 114.2314790000,22.2996620000 114.2313780000,22.2996060000 114.2312930000,22.2995590000 114.2310720000,22.2994350000 114.2306190000,22.2991810000 114.2130560000,22.2900030000 114.2128440000,22.2899070000 114.2127060000,22.2898440000 114.2125860000,22.2897730000 114.2124740000,22.2897070000 114.2123600000,22.2896000000 114.2122670000,22.2894860000 114.2122090000,22.2893950000 114.2121680000,22.2892920000 114.2121400000,22.2891850000 114.2121200000,22.2890270000 114.2121470000,22.2888410000 114.2122100000,22.2886710000 114.2122970000,22.2885530000 114.2123720000,22.2884540000 114.2125920000,22.2883350000 114.2127050000,22.2882850000 114.2128370000,22.2882520000 114.2129310000,22.2882380000 114.2130360000,22.2882330000 114.2131290000,22.2882440000 114.2132290000,22.2882680000 114.2133810000,22.2883260000 114.2135580000,22.2884230000 114.2137140000,22.2885590000 114.2137880000,22.2886670000 114.2138470000,22.2887930000 114.2138980000,22.2889250000 114.2139040000,22.2889730000 114.2139110000,22.2890290000 114.2139090000,22.2891500000 114.2138910000,22.2892930000 114.2138620000,22.2894010000 114.2138170000,22.2894870000 114.2137510000,22.2895840000 114.2136610000,22.2896970000 114.2135260000,22.2898360000 114.2134440000,22.2899090000 114.2132930000,22.2900340000 114.2130020000,22.2901740000 114.2112110000,22.2912520000 114.2110520000,22.2913550000 114.2102020000,22.2919430000 114.2096630000,22.2923130000 114.2094140000,22.2924730000 114.2091510000,22.2926110000 114.2088090000,22.2927710000 114.2086260000,22.2928390000 114.2066660000,22.2934180000 114.2048450000,22.2939720000 114.2044740000,22.2940720000 114.2040710000,22.2941290000 114.2036420000,22.2941610000 114.2031550000,22.2941450000 114.2025710000,22.2940510000 114.2021610000,22.2939730000 114.1999680000,22.2935100000 114.1996280000,22.2934690000 114.1992060000,22.2934470000 114.1987250000,22.2934460000 114.1983660000,22.2934260000 114.1979580000,22.2933590000 114.1975110000,22.2932730000 114.1959400000,22.2929700000 114.1958270000,22.2929420000 114.1954170000,22.2928260000 114.1952010000,22.2927610000 114.1949910000,22.2926820000 114.1948430000,22.2926160000 114.1945340000,22.2924340000 114.1942910000,22.2922790000 114.1940140000,22.2920940000 114.1938200000,22.2919420000 114.1936310000,22.2917620000 114.1934360000,22.2915500000 114.1913760000,22.2893230000 114.1906780000,22.2885800000 114.1900380000,22.2879220000 114.1899950000,22.2878760000 114.1898840000,22.2877670000 114.1897600000,22.2876110000 114.1896910000,22.2875080000 114.1896050000,22.2873530000 114.1895310000,22.2872080000 114.1894770000,22.2870600000 114.1894470000,22.2869400000 114.1894100000,22.2867400000 114.1893900000,22.2865400000 114.1893800000,22.2863000000 114.1893700000,22.2860400000 114.1893580000,22.2858800000 114.1893400000,22.2857300000 114.1893000000,22.2855400000 114.1892600000,22.2853900000 114.1892270000,22.2852900000 114.1891600000,22.2851500000 114.1890600000,22.2849900000 114.1889570000,22.2848460000 114.1888500000,22.2847300000 114.1887280000,22.2846450000 114.1884740000,22.2844880000 114.1882450000,22.2843820000 114.1878780000,22.2842520000 114.1876760000,22.2841960000 114.1875090000,22.2841560000 114.1873110000,22.2841040000 114.1871130000,22.2840510000 114.1869670000,22.2840120000 114.1866640000,22.2839420000 114.1864250000,22.2838820000 114.1863320000,22.2838520000 114.1862090000,22.2838170000 114.1860930000,22.2837730000 114.1859810000,22.2837170000 114.1858950000,22.2836560000 114.1857830000,22.2835720000 114.1855780000,22.2834100000 114.1854720000,22.2832280000 114.1853650000,22.2830750000 114.1853510000,22.2830110000 114.1853570000,22.2829480000 114.1853690000,22.2828840000 114.1854000000,22.2828000000 114.1854150000,22.2827580000 114.1854550000,22.2826640000 114.1851190000,22.2825450000 114.1850990000,22.2825380000 114.1849860000,22.2825020000 114.1848210000,22.2824510000 114.1846080000,22.2823960000 114.1844660000,22.2823590000 114.1844250000,22.2823480000 114.1842650000,22.2823130000 114.1840580000,22.2822790000 114.1837120000,22.2821290000 114.1836640000,22.2821110000 114.1833700000,22.2819930000 114.1829630000,22.2818350000 114.1824120000,22.2816250000 114.1822990000,22.2815810000 114.1821720000,22.2815320000 114.1820800000,22.2814700000 114.1821250000,22.2813500000 114.1822980000,22.2809250000 114.1824500000,22.2805040000 114.1824690000,22.2804590000 114.1823730000,22.2804240000 114.1822700000,22.2803870000 114.1818330000,22.2802210000 114.1817600000,22.2801650000 114.1811270000,22.2799270000 114.1810340000,22.2798910000 114.1809470000,22.2798580000 114.1798400000,22.2794420000 114.1797050000,22.2793910000 114.1796180000,22.2793590000 114.1795050000,22.2793180000 114.1794220000,22.2792880000 114.1780340000,22.2788810000 114.1778810000,22.2788380000 114.1777420000,22.2788020000 114.1769890000,22.2785760000 114.1769030000,22.2785570000 114.1767580000,22.2785370000 114.1767640000,22.2784660000 114.1768000000,22.2781300000 114.1768130000,22.2780390000 114.1767940000,22.2779240000 114.1766400000,22.2779070000 114.1764980000,22.2778920000 114.1754740000,22.2777860000 114.1748870000,22.2777290000 114.1747750000,22.2777180000 114.1745480000,22.2776960000 114.1742060000,22.2776600000 114.1740320000,22.2776430000 114.1738680000,22.2776250000 114.1733630000,22.2775710000 114.1732660000,22.2775590000 114.1726580000,22.2774930000 114.1726160000,22.2774890000 114.1721470000,22.2774340000 114.1717310000,22.2774690000 114.1716670000,22.2774760000 114.1716020000,22.2774820000 114.1714550000,22.2774930000 114.1711990000,22.2775120000 114.1708780000,22.2775360000 114.1703370000,22.2775710000 114.1700670000,22.2775950000 114.1697600000,22.2776220000 114.1694230000,22.2776510000 114.1693980000,22.2776540000 114.1693450000,22.2776590000 114.1692610000,22.2776680000 114.1689470000,22.2776930000 114.1685170000,22.2777300000 114.1679670000,22.2777780000 114.1679210000,22.2777820000 114.1674650000,22.2778220000 114.1673240000,22.2778430000 114.1663690000,22.2779390000 114.1661220000,22.2779690000 114.1659210000,22.2779930000 114.1657880000,22.2780080000 114.1654950000,22.2780460000 114.1654670000,22.2780500000 114.1654250000,22.2780560000 114.1649730000,22.2781170000 114.1648760000,22.2781360000 114.1646860000,22.2781740000 114.1644950000,22.2782280000 114.1643070000,22.2782990000 114.1640380000,22.2784180000 114.1638230000,22.2785170000 114.1637050000,22.2785840000 114.1634530000,22.2787390000 114.1633770000,22.2787880000 114.1630190000,22.2790660000 114.1628030000,22.2792020000 114.1627540000,22.2792320000 114.1625970000,22.2793340000 114.1625700000,22.2793420000 114.1624630000,22.2793960000 114.1624150000,22.2794190000 114.1622890000,22.2794780000 114.1620130000,22.2795920000 114.1618520000,22.2796470000 114.1615670000,22.2797490000 114.1615240000,22.2797580000 114.1613930000,22.2797870000 114.1613130000,22.2798000000 114.1610710000,22.2798410000 114.1608870000,22.2798740000 114.1607940000,22.2799100000 114.1607310000,22.2799330000 114.1606710000,22.2799490000 114.1604820000,22.2799670000 114.1603650000,22.2799660000 114.1602120000,22.2799520000 114.1598660000,22.2799050000 114.1597630000,22.2798900000 114.1596450000,22.2798730000 114.1595200000,22.2798580000 114.1594570000,22.2798600000 114.1593770000,22.2798690000 114.1592960000,22.2798860000 114.1591330000,22.2799230000 114.1582220000,22.2801520000 114.1581400000,22.2801730000 114.1580420000,22.2802080000 114.1579420000,22.2802500000 114.1578840000,22.2802860000 114.1578160000,22.2803390000 114.1577610000,22.2803840000 114.1575890000,22.2805640000 114.1574000000,22.2807770000 114.1572560000,22.2809390000 114.1569470000,22.2813040000 114.1568840000,22.2813790000 114.1567690000,22.2815040000 114.1565830000,22.2817090000 114.1565180000,22.2817800000 114.1564730000,22.2818380000 114.1561480000,22.2822450000 114.1560410000,22.2823710000 114.1559330000,22.2825010000 114.1556900000,22.2828040000 114.1555480000,22.2829700000 114.1554840000,22.2830640000 114.1553510000,22.2832530000 114.1552360000,22.2833860000 114.1552170000,22.2834090000 114.1551630000,22.2834710000 114.1551300000,22.2835100000 114.1550840000,22.2835440000 114.1549400000,22.2836500000 114.1548960000,22.2836820000 114.1548360000,22.2837280000 114.1548060000,22.2837510000 114.1547300000,22.2838090000 114.1546650000,22.2838550000 114.1545130000,22.2839720000 114.1541970000,22.2841820000 114.1540630000,22.2842790000 114.1540250000,22.2843050000 114.1538510000,22.2844390000 114.1536380000,22.2846230000 114.1533510000,22.2848580000 114.1530930000,22.2850640000 114.1528410000,22.2852620000 114.1528190000,22.2852710000 114.1526290000,22.2853880000 114.1523930000,22.2855070000 114.1522760000,22.2855830000 114.1521270000,22.2856720000 114.1518740000,22.2857590000 114.1518510000,22.2857670000 114.1518050000,22.2857790000 114.1511300000,22.2859580000 114.1508220000,22.2860520000 114.1506650000,22.2861120000 114.1506650000,22.2861120000 114.1502810000,22.2863050000 114.1504000000,22.2865200000 114.1504800000,22.2869050000 114.1504860000,22.2869410000 114.1504870000,22.2869450000 114.1504940000,22.2869860000 114.1504820000,22.2870600000 114.1506100000,22.2874900000 114.1506320000,22.2875640000 114.1506300000,22.2876050000 114.1506280000,22.2876460000 114.1506270000,22.2876970000 114.1496140000,22.2879640000 114.1495080000,22.2880230000 114.1494590000,22.2880700000 114.1494660000,22.2881150000 114.1494870000,22.2883110000 114.1494910000,22.2883420000 114.1495250000,22.2884650000 114.1495620000,22.2886030000 114.1496100000,22.2887130000 114.1496640000,22.2888350000 114.1497640000,22.2888720000 114.1500740000,22.2887980000 114.1502010000,22.2887680000 114.1502770000,22.2887200000 114.1503260000,22.2886700000 114.1503700000,22.2886120000 114.1504490000,22.2885150000 114.1505190000,22.2884430000 114.1505750000,22.2883810000 114.1506440000,22.2883400000 114.1507650000,22.2883000000 114.1521800000,22.2879550000 114.1520400000,22.2876300000 114.1520300000,22.2875900000 114.1520190000,22.2875570000 114.1520070000,22.2875240000 114.1519760000,22.2874370000 114.1522870000,22.2873490000 114.1523630000,22.2873270000 114.1532200000,22.2870900000 114.1533330000,22.2870650000 114.1534050000,22.2870010000 114.1534330000,22.2869540000 114.1534400000,22.2868150000 114.1533190000,22.2863950000 114.1533070000,22.2863470000 114.1532920000,22.2862760000 114.1533880000,22.2862270000 114.1534120000,22.2862140000 114.1534300000,22.2862030000 114.1536040000,22.2861120000 114.1537690000,22.2860190000 114.1540540000,22.2858580000 114.1540720000,22.2858480000 114.1542960000,22.2857230000 114.1547410000,22.2854620000 114.1548190000,22.2854160000 114.1551070000,22.2852450000 114.1552710000,22.2851460000 114.1553440000,22.2850950000 114.1554140000,22.2850390000 114.1554490000,22.2850040000 114.1557210000,22.2846710000 114.1557800000,22.2846000000 114.1558770000,22.2844830000 114.1558890000,22.2844680000 114.1559300000,22.2844190000 114.1559920000,22.2843430000 114.1560960000,22.2842140000 114.1561130000,22.2841940000 114.1562840000,22.2839810000 114.1565030000,22.2837100000 114.1565300000,22.2836750000 114.1565540000,22.2836440000 114.1568590000,22.2832570000 114.1570290000,22.2830420000 114.1572820000,22.2827180000 114.1574890000,22.2824530000 114.1576590000,22.2822430000 114.1578280000,22.2820330000 114.1578690000,22.2819790000 114.1579320000,22.2819650000 114.1587590000,22.2817440000 114.1589750000,22.2816880000 114.1590730000,22.2816860000 114.1595440000,22.2815590000 114.1596500000,22.2815310000 114.1597490000,22.2815060000 114.1598080000,22.2815050000 114.1599740000,22.2814610000 114.1601270000,22.2814200000 114.1602600000,22.2813880000 114.1602980000,22.2813790000 114.1603590000,22.2813630000 114.1604530000,22.2813530000 114.1605890000,22.2813180000 114.1606850000,22.2812890000 114.1607320000,22.2812510000 114.1608520000,22.2812180000 114.1609520000,22.2811900000 114.1612150000,22.2811180000 114.1613660000,22.2810790000 114.1615750000,22.2810230000 114.1619060000,22.2809410000 114.1619460000,22.2809280000 114.1620010000,22.2808790000 114.1620420000,22.2807810000 114.1617730000,22.2800710000 114.1617540000,22.2799960000 114.1617510000,22.2799460000 114.1617670000,22.2798980000 114.1618210000,22.2798220000 114.1619180000,22.2797670000 114.1622910000,22.2796350000 114.1625660000,22.2795200000 114.1627940000,22.2794240000 114.1630800000,22.2792270000 114.1632720000,22.2790910000 114.1634180000,22.2789860000 114.1637830000,22.2787610000 114.1638870000,22.2787080000 114.1641010000,22.2785860000 114.1642450000,22.2785260000 114.1642840000,22.2785100000 114.1644630000,22.2784390000 114.1645500000,22.2784100000 114.1646820000,22.2783710000 114.1648080000,22.2783380000 114.1648740000,22.2783200000 114.1650010000,22.2782960000 114.1650590000,22.2782850000 114.1650790000,22.2782820000 114.1654120000,22.2782340000 114.1656050000,22.2782090000 114.1659390000,22.2781650000 114.1663180000,22.2781070000 114.1669630000,22.2780500000 114.1671340000,22.2780250000 114.1672900000,22.2779990000 114.1676920000,22.2779590000 114.1679990000,22.2779280000 114.1684570000,22.2778830000 114.1685890000,22.2778690000 114.1687860000,22.2778500000 114.1689320000,22.2778360000 114.1691810000,22.2778110000 114.1693720000,22.2777930000 114.1701790000,22.2777130000 114.1702710000,22.2777040000 114.1703510000,22.2777000000 114.1714640000,22.2776030000 114.1716220000,22.2775890000 114.1718330000,22.2775710000 114.1721200000,22.2775530000 114.1721550000,22.2775530000 114.1729740000,22.2776400000 114.1733680000,22.2776830000 114.1737500000,22.2777240000 114.1739900000,22.2777500000 114.1741630000,22.2777680000 114.1746240000,22.2778180000 114.1747140000,22.2778260000 114.1747610000,22.2778310000 114.1747450000,22.2779530000 114.1747050000,22.2782380000 114.1746950000,22.2783150000 114.1746860000,22.2783890000 114.1746760000,22.2784850000 114.1746700000,22.2785260000 114.1746560000,22.2786230000 114.1745930000,22.2790840000 114.1745270000,22.2793930000 114.1744630000,22.2796840000 114.1744520000,22.2797590000 114.1744000000,22.2801880000 114.1743580000,22.2805250000 114.1743030000,22.2806790000 114.1742850000,22.2809080000 114.1742710000,22.2811470000 114.1742680000,22.2811900000 114.1742690000,22.2812580000 114.1742840000,22.2815340000 114.1742830000,22.2816120000 114.1742850000,22.2817270000 114.1742830000,22.2817920000 114.1742740000,22.2819060000 114.1742680000,22.2820810000 114.1742620000,22.2821690000 114.1742590000,22.2822560000 114.1743730000,22.2822240000 114.1744970000,22.2821890000 114.1750100000,22.2820770000 114.1755400000,22.2820580000 114.1756000000,22.2820590000 114.1756500000,22.2820630000 114.1761530000,22.2821070000 114.1767820000,22.2821550000 114.1769400000,22.2821730000 114.1773990000,22.2822220000 114.1775500000,22.2822550000 114.1777960000,22.2823350000 114.1779840000,22.2823990000 114.1780280000,22.2824140000 114.1781040000,22.2824390000 114.1782490000,22.2824870000 114.1783790000,22.2825000000 114.1785730000,22.2825640000 114.1787640000,22.2826250000 114.1791280000,22.2827390000 114.1794900000,22.2828140000 114.1795740000,22.2828280000 114.1796360000,22.2828200000 114.1796900000,22.2828020000 114.1797350000,22.2827750000 114.1797720000,22.2827400000 114.1797920000,22.2827090000 114.1799420000,22.2823500000 114.1799700000,22.2823080000 114.1800240000,22.2822600000 114.1800900000,22.2822250000 114.1801600000,22.2822100000 114.1802200000,22.2822100000 114.1807340000,22.2822630000 114.1809680000,22.2822650000 114.1811850000,22.2822270000 114.1817450000,22.2819910000 114.1820100000,22.2818840000 114.1821610000,22.2818560000 114.1823250000,22.2818750000 114.1825120000,22.2819370000 114.1828270000,22.2820440000 114.1835090000,22.2822820000 114.1838660000,22.2824360000 114.1840860000,22.2825590000 114.1842650000,22.2826710000 114.1844720000,22.2828070000 114.1849760000,22.2832270000 114.1852740000,22.2834880000 114.1855510000,22.2836890000 114.1857090000,22.2837860000 114.1857710000,22.2838200000 114.1858560000,22.2838560000 114.1862660000,22.2839850000 114.1864320000,22.2840370000 114.1870730000,22.2841750000 114.1872160000,22.2842060000 114.1873970000,22.2842430000 114.1875770000,22.2842870000 114.1877780000,22.2843340000 114.1879700000,22.2843900000 114.1881000000,22.2844400000 114.1882040000,22.2844860000 114.1883100000,22.2845400000 114.1884130000,22.2845970000 114.1885300000,22.2846700000 114.1886410000,22.2847590000 114.1887500000,22.2848600000 114.1888430000,22.2849570000 114.1889280000,22.2850720000 114.1889930000,22.2851900000 114.1890600000,22.2853300000 114.1891100000,22.2854500000 114.1891600000,22.2856300000 114.1891900000,22.2857900000 114.1892190000,22.2860100000 114.1892300000,22.2862100000 114.1892400000,22.2864700000 114.1892500000,22.2866700000 114.1892800000,22.2869000000 114.1893300000,22.2871200000 114.1893900000,22.2872700000 114.1894800000,22.2874700000 114.1899600000,22.2884400000 114.1902500000,22.2889500000 114.1904500000,22.2892800000 114.1905900000,22.2894800000 114.1907500000,22.2896800000 114.1910500000,22.2900000000 114.1913500000,22.2902800000 114.1921570000,22.2909910000 114.1925530000,22.2913100000 114.1930300000,22.2917050000 114.1934810000,22.2920410000 114.1939680000,22.2923540000 114.1942060000,22.2924870000 114.1945320000,22.2926440000 114.1947500000,22.2927460000 114.1950570000,22.2928690000 114.1953540000,22.2929670000 114.1955810000,22.2930280000 114.1974960000,22.2934010000 114.1979200000,22.2934800000 114.1981920000,22.2935260000 114.1983380000,22.2935420000 114.1987100000,22.2935630000 114.1992000000,22.2935690000 114.1995900000,22.2935850000 114.1997700000,22.2936020000 114.1999500000,22.2936270000 114.2001000000,22.2936520000 114.2015930000,22.2939620000 114.2024440000,22.2941380000 114.2030190000,22.2942370000 114.2035020000,22.2942680000 114.2039630000,22.2942450000 114.2043950000,22.2941960000 114.2046420000,22.2941520000 114.2049520000,22.2940830000 114.2062020000,22.2936700000 114.2087800000,22.2929170000 114.2089200000,22.2928580000 114.2091980000,22.2927280000 114.2095760000,22.2925290000 114.2109640000,22.2915430000 114.2110940000,22.2914520000 114.2113260000,22.2912910000 114.2117220000,22.2910340000 114.2127980000,22.2904230000 114.2131270000,22.2902740000 114.2133740000,22.2901710000 114.2137460000,22.2900270000 114.2138760000,22.2899270000 114.2139100000,22.2899030000 114.2140390000,22.2898090000 114.2141610000,22.2896960000 114.2142270000,22.2895560000 114.2142640000,22.2894590000 114.2143080000,22.2893090000 114.2143250000,22.2891400000 114.2143050000,22.2889980000 114.2142910000,22.2889580000 114.2142440000,22.2888240000 114.2141930000,22.2887170000 114.2140410000,22.2885210000 114.2138940000,22.2883660000 114.2137190000,22.2882520000 114.2134430000,22.2881320000 114.2132170000,22.2880760000 114.2130260000,22.2880630000 114.2128020000,22.2880860000 114.2125800000,22.2881630000 114.2123010000,22.2883200000 114.2122220000,22.2883870000 114.2121390000,22.2884860000 114.2120780000,22.2885770000 114.2120140000,22.2887040000 114.2119800000,22.2888350000 114.2119630000,22.2890450000 114.2119940000,22.2892140000 114.2120370000,22.2893590000 114.2121060000,22.2895190000 114.2122160000,22.2896630000 114.2123560000,22.2897930000 114.2124630000,22.2898660000 114.2126220000,22.2899550000 114.2127730000,22.2900300000 114.2129420000,22.2901140000 114.2305570000,22.2992700000 114.2310350000,22.2995250000 114.2312230000,22.2996440000 114.2313170000,22.2997030000 114.2314120000,22.2997630000 114.2318030000,22.3000300000 114.2327330000,22.3005560000 114.2335540000,22.3010200000 114.2335880000,22.3010390000 114.2339000000,22.3012080000 114.2343000000,22.3014850000 114.2345970000,22.3016810000 114.2346690000,22.3017470000 114.2347790000,22.3018510000 114.2349190000,22.3020060000 114.2349990000,22.3021140000 114.2350630000,22.3022130000 114.2351340000,22.3023350000 114.2352060000,22.3024830000 114.2352660000,22.3026150000 114.2352990000,22.3027010000 114.2353830000,22.3029780000 114.2354000000,22.3031230000 114.2354190000,22.3032740000 114.2354250000,22.3035080000 114.2354130000,22.3036500000 114.2353850000,22.3038350000 114.2353220000,22.3040810000 114.2352910000,22.3041700000 114.2352070000,22.3043540000 114.2350940000,22.3045860000 114.2349470000,22.3048070000 114.2348410000,22.3049440000 114.2346900000,22.3051210000 114.2346510000,22.3051670000 114.2345360000,22.3053020000 114.2341540000,22.3057150000 114.2339520000,22.3059500000 114.2332040000,22.3068180000 114.2326090000,22.3075390000 114.2324720000,22.3077040000 114.2321620000,22.3080620000 114.2318870000,22.3082780000 114.2316730000,22.3084890000 114.2314730000,22.3086430000 114.2313100000,22.3087470000 114.2311220000,22.3088280000 114.2309240000,22.3088910000 114.2307740000,22.3089320000 114.2305620000,22.3089510000 114.2303080000,22.3089480000 114.2300710000,22.3089090000 114.2297350000,22.3088530000 114.2293730000,22.3087850000 114.2285520000,22.3086130000 114.2282220000,22.3085500000 114.2277330000,22.3084240000 114.2274790000,22.3083580000 114.2273210000,22.3083020000 114.2270840000,22.3082100000 114.2267940000,22.3080810000 114.2265630000,22.3079480000 114.2265020000,22.3079100000 114.2264230000,22.3078580000 114.2253870000,22.3070680000 114.2245180000,22.3064530000 114.2242970000,22.3062910000 114.2241950000,22.3062300000 114.2240210000,22.3061420000 114.2237420000,22.3060320000 114.2233830000,22.3059810000 114.2232760000,22.3059700000 114.2231710000,22.3059710000 114.2230800000,22.3059760000 114.2227950000,22.3060030000 114.2225050000,22.3060720000 114.2223270000,22.3061530000 114.2221850000,22.3062350000 114.2220480000,22.3063180000 114.2218690000,22.3064560000 114.2216350000,22.3066930000 114.2214520000,22.3069370000 114.2209550000,22.3076590000 114.2201670000,22.3087190000 114.2192820000,22.3098570000 114.2189020000,22.3103410000 114.2185710000,22.3107330000 114.2181640000,22.3111990000 114.2179470000,22.3114370000 114.2176990000,22.3117080000 114.2174100000,22.3119890000 114.2172860000,22.3121100000 114.2163760000,22.3130530000 114.2137790000,22.3157210000 114.2133820000,22.3161450000 114.2131930000,22.3163010000 114.2130460000,22.3164050000 114.2128790000,22.3165200000 114.2126690000,22.3166710000 114.2123770000,22.3168160000 114.2122190000,22.3168740000 114.2119860000,22.3169380000 114.2117240000,22.3169860000 114.2114660000,22.3170140000 114.2105620000,22.3170430000 114.2102690000,22.3170690000 114.2100120000,22.3171130000 114.2097500000,22.3171800000 114.2095300000,22.3172550000 114.2092780000,22.3173540000 114.2090540000,22.3174680000 114.2088220000,22.3175940000 114.2086310000,22.3177450000 114.2083900000,22.3179430000 114.2081970000,22.3181360000 114.2080400000,22.3183040000 114.2066910000,22.3198560000 114.2061010000,22.3205150000 114.2052320000,22.3213090000 114.2050130000,22.3215190000 114.2048290000,22.3217380000 114.2046960000,22.3219410000 114.2045880000,22.3221620000 114.2045210000,22.3223460000 114.2044690000,22.3225610000 114.2043790000,22.3231960000 114.2043130000,22.3237630000 114.2042210000,22.3244010000 114.2042010000,22.3246760000 114.2042030000,22.3248580000 114.2042110000,22.3250080000 114.2042410000,22.3252630000 114.2044370000,22.3262760000 114.2044630000,22.3263880000 114.2045180000,22.3265500000 114.2045830000,22.3267130000 114.2046420000,22.3268410000 114.2049840000,22.3274340000 114.2050800000,22.3276420000 114.2051680000,22.3278610000 114.2051980000,22.3280440000 114.2052140000,22.3282530000 114.2052140000,22.3284240000 114.2051800000,22.3287150000 114.2051220000,22.3289480000 114.2050330000,22.3293050000 114.2049920000,22.3295240000 114.2049650000,22.3297930000 114.2050030000,22.3313350000 114.2050200000,22.3320150000 114.2050480000,22.3322640000 114.2050630000,22.3324570000 114.2050910000,22.3327410000 114.2050960000,22.3335240000 114.2050940000,22.3338400000 114.2050750000,22.3339740000 114.2049210000,22.3345550000 114.2045840000,22.3353330000 114.2043520000,22.3358800000 114.2040440000,22.3365710000 114.2038910000,22.3369040000 114.2037360000,22.3372380000 114.2036040000,22.3375490000 114.2035310000,22.3377850000 114.2034560000,22.3380510000 114.2034050000,22.3383380000 114.2033770000,22.3386900000 114.2033740000,22.3391220000 114.2033830000,22.3394730000 114.2034430000,22.3397730000 114.2035260000,22.3401130000 114.2038120000,22.3408620000 114.2038340000,22.3409070000 114.2038860000,22.3409910000 114.2042960000,22.3416610000 114.2043110000,22.3416850000 114.2043790000,22.3417970000 114.2044810000,22.3419620000 114.2053200000,22.3433150000 114.2054350000,22.3435200000 114.2055500000,22.3437290000 114.2056630000,22.3439250000 114.2057790000,22.3441400000 114.2058890000,22.3443450000 114.2060000000,22.3445600000 114.2061000000,22.3447600000 114.2062070000,22.3449750000 114.2063090000,22.3451800000 114.2064100000,22.3453900000 114.2065010000,22.3455900000 114.2065900000,22.3457900000 114.2066830000,22.3460000000 114.2067680000,22.3462000000 114.2068510000,22.3464000000 114.2069320000,22.3465990000 114.2070130000,22.3468000000 114.2071030000,22.3470300000 114.2072050000,22.3473000000 114.2073180000,22.3476000000 114.2074280000,22.3479000000 114.2075260000,22.3482000000 114.2076200000,22.3484900000 114.2076880000,22.3487000000 114.2077600000,22.3489400000 114.2078440000,22.3492500000 114.2079100000,22.3495000000 114.2135960000,22.3721800000 114.2136400000,22.3723800000 114.2136800000,22.3726000000 114.2137070000,22.3728000000 114.2137270000,22.3730000000 114.2137370000,22.3732000000 114.2137370000,22.3734000000 114.2137320000,22.3736000000 114.2137200000,22.3738000000 114.2136930000,22.3740200000 114.2136600000,22.3742200000 114.2136180000,22.3744700000 114.2135700000,22.3746800000 114.2135000000,22.3749100000 114.2134300000,22.3751100000 114.2133500000,22.3753100000 114.2132580000,22.3755300000 114.2131500000,22.3757400000 114.2130380000,22.3759400000 114.2128100000,22.3762900000 114.2127220000,22.3764120000 114.2124270000,22.3767490000 114.2121920000,22.3769590000 114.2119220000,22.3771500000 114.2115880000,22.3774160000 114.2112650000,22.3777380000 114.2108910000,22.3781260000 114.2108470000,22.3781910000 114.2107910000,22.3782770000 114.2106500000,22.3784910000 114.2104700000,22.3788120000 114.2104220000,22.3790130000 114.2103760000,22.3791560000 114.2103320000,22.3793190000 114.2102880000,22.3794810000 114.2102630000,22.3796670000 114.2102490000,22.3798460000 114.2102440000,22.3798860000 114.2102310000,22.3799920000 114.2102180000,22.3801010000 114.2102020000,22.3803110000 114.2101890000,22.3805130000 114.2101840000,22.3807660000 114.2101820000,22.3809730000 114.2101880000,22.3811300000 114.2102010000,22.3814940000 114.2102490000,22.3818990000 114.2103110000,22.3823110000 114.2103790000,22.3827470000 114.2104190000,22.3829740000 114.2104530000,22.3831630000 114.2104740000,22.3833540000 114.2104930000,22.3834850000 114.2105910000,22.3840860000 114.2107820000,22.3851940000 114.2108140000,22.3853870000 114.2108210000,22.3854350000 114.2108820000,22.3858070000 114.2109490000,22.3861770000 114.2109880000,22.3863940000 114.2110320000,22.3866450000 114.2110420000,22.3867030000 114.2110620000,22.3868150000 114.2110550000,22.3869440000 114.2110860000,22.3871760000 114.2111060000,22.3875340000 114.2110970000,22.3878100000 114.2110640000,22.3880820000 114.2110260000,22.3882700000 114.2109820000,22.3884920000 114.2109370000,22.3886410000 114.2108920000,22.3887720000 114.2108120000,22.3889930000 114.2107240000,22.3891860000 114.2106150000,22.3894010000 114.2104830000,22.3896160000 114.2103410000,22.3898410000 114.2102460000,22.3899960000 114.2101100000,22.3902160000 114.2099990000,22.3903980000 114.2099300000,22.3905360000 114.2098650000,22.3906540000 114.2098150000,22.3907490000 114.2097210000,22.3909740000 114.2096750000,22.3911400000 114.2096310000,22.3912610000 114.2095650000,22.3914620000 114.2095030000,22.3916800000 114.2094540000,22.3919080000 114.2094030000,22.3921420000 114.2093790000,22.3923090000 114.2093650000,22.3925010000 114.2093420000,22.3926810000 114.2093330000,22.3928410000 114.2093380000,22.3930220000 114.2093380000,22.3932050000 114.2093450000,22.3933860000 114.2093690000,22.3935770000 114.2093890000,22.3937210000 114.2094190000,22.3938870000 114.2094580000,22.3940560000 114.2095090000,22.3942450000 114.2095850000,22.3945390000 114.2097380000,22.3950350000 114.2099260000,22.3956020000 114.2100380000,22.3959000000 114.2101640000,22.3962190000 114.2103200000,22.3965720000 114.2104900000,22.3969110000 114.2106350000,22.3971770000 114.2107910000,22.3974660000 114.2109610000,22.3977650000 114.2110390000,22.3979000000 114.2111200000,22.3980430000 114.2112350000,22.3982320000 114.2113330000,22.3983770000 114.2114900000,22.3986080000 114.2116440000,22.3988240000 114.2118450000,22.3990970000 114.2120290000,22.3993280000 114.2122000000,22.3995360000 114.2124120000,22.3997700000 114.2126170000,22.3999970000 114.2132020000,22.4006480000 114.2135430000,22.4010000000 114.2138280000,22.4012920000 114.2141330000,22.4015620000 114.2143300000,22.4017400000 114.2144840000,22.4018760000 114.2146780000,22.4020320000 114.2148270000,22.4021430000 114.2150380000,22.4023140000 114.2152530000,22.4024750000 114.2154810000,22.4026310000 114.2157580000,22.4028240000 114.2160060000,22.4029810000 114.2162580000,22.4031370000 114.2164660000,22.4032530000 114.2167280000,22.4033960000 114.2169780000,22.4035290000 114.2172280000,22.4036840000 114.2174460000,22.4038400000 114.2175900000,22.4039680000 114.2177130000,22.4041050000 114.2178240000,22.4042840000 114.2179190000,22.4044460000 114.2179950000,22.4046380000 114.2180270000,22.4048080000 114.2180460000,22.4049210000 114.2180490000,22.4050350000 114.2180480000,22.4051550000 114.2180320000,22.4053320000 114.2179830000,22.4055290000 114.2179410000,22.4056710000 114.2178800000,22.4057880000 114.2178300000,22.4058770000 114.2177640000,22.4059710000 114.2177060000,22.4060530000 114.2176400000,22.4061360000 114.2175420000,22.4062470000 114.2173770000,22.4064150000 114.2171260000,22.4066240000 114.2163640000,22.4072380000 114.2134530000,22.4096180000 114.2130510000,22.4099340000 114.2126640000,22.4102900000 114.2125340000,22.4104350000 114.2124060000,22.4106090000 114.2122380000,22.4110620000 114.2121910000,22.4112630000 114.2121560000,22.4114270000 114.2121450000,22.4116080000 114.2121650000,22.4118530000 114.2122120000,22.4121490000 114.2122740000,22.4124680000 114.2123890000,22.4130300000 114.2125130000,22.4135700000 114.2125910000,22.4139010000 114.2126300000,22.4140760000 114.2127270000,22.4145110000 114.2128010000,22.4148450000 114.2128920000,22.4151860000 114.2129780000,22.4155150000 114.2130320000,22.4157110000 114.2131750000,22.4160660000 114.2134430000,22.4173780000 114.2135310000,22.4178000000 114.2135780000,22.4181540000 114.2136020000,22.4184860000 114.2136070000,22.4186930000 114.2135840000,22.4193440000 114.2135830000,22.4194480000 114.2135530000,22.4197530000 114.2134810000,22.4202190000 114.2134060000,22.4206010000 114.2132620000,22.4211350000 114.2130910000,22.4215890000 114.2129690000,22.4218630000 114.2127860000,22.4221940000 114.2126640000,22.4223770000 114.2125190000,22.4225910000 114.2123260000,22.4228480000 114.2120810000,22.4231320000 114.2118210000,22.4234110000 114.2115330000,22.4236860000 114.2111640000,22.4239810000 114.2107250000,22.4242980000 114.2101270000,22.4247050000 114.2093830000,22.4251890000 114.2082980000,22.4259060000 114.2078030000,22.4262290000 114.2060680000,22.4273100000 114.2055580000,22.4276280000 114.2039620000,22.4286650000 114.2031650000,22.4291710000 114.2028840000,22.4293580000 114.2025970000,22.4295700000 114.2024340000,22.4297010000 114.2023220000,22.4298020000 114.2021140000,22.4299940000 114.2020160000,22.4300910000 114.2018550000,22.4302670000 114.2017340000,22.4304050000 114.2015370000,22.4306540000 114.2013390000,22.4309430000 114.2011730000,22.4312160000 114.2010190000,22.4315220000 114.2009040000,22.4317780000 114.2007920000,22.4320780000 114.2007010000,22.4323740000 114.2006250000,22.4326870000 114.2004720000,22.4333790000 114.2003670000,22.4337690000 114.2002370000,22.4341340000 114.2000930000,22.4344550000 114.1999040000,22.4347880000 114.1997020000,22.4350710000 114.1994690000,22.4353580000 114.1992040000,22.4356650000 114.1989010000,22.4360060000 114.1985080000,22.4364240000 114.1982510000,22.4366840000 114.1979580000,22.4369430000 114.1977180000,22.4371500000 114.1974850000,22.4373440000 114.1972060000,22.4375700000 114.1968960000,22.4377920000 114.1966400000,22.4379740000 114.1963540000,22.4381700000 114.1960330000,22.4383750000 114.1957730000,22.4385240000 114.1955140000,22.4386320000 114.1949060000,22.4389490000 114.1945640000,22.4390990000 114.1943640000,22.4391830000 114.1941380000,22.4392600000 114.1938890000,22.4393270000 114.1936610000,22.4393790000 114.1934510000,22.4394140000 114.1932250000,22.4394490000 114.1929770000,22.4394740000 114.1928070000,22.4394760000 114.1925890000,22.4394800000 114.1924060000,22.4394850000 114.1921560000,22.4394730000 114.1919090000,22.4394490000 114.1915630000,22.4393950000 114.1904170000,22.4391290000 114.1901480000,22.4390710000 114.1898150000,22.4390160000 114.1895410000,22.4389850000 114.1892900000,22.4389650000 114.1890110000,22.4389570000 114.1886980000,22.4389650000 114.1883660000,22.4389790000 114.1880390000,22.4390290000 114.1877120000,22.4391000000 114.1874480000,22.4391270000 114.1873300000,22.4391570000 114.1871920000,22.4391930000 114.1869450000,22.4392900000 114.1868440000,22.4393360000 114.1864500000,22.4395150000 114.1858960000,22.4397590000 114.1851010000,22.4402260000 114.1825760000,22.4416340000 114.1823280000,22.4417760000 114.1820700000,22.4419170000 114.1813220000,22.4423210000 114.1812160000,22.4422970000 114.1810460000,22.4423900000 114.1802280000,22.4428650000 114.1798890000,22.4430500000 114.1796810000,22.4431650000 114.1794590000,22.4432770000 114.1791290000,22.4434410000 114.1790040000,22.4434570000 114.1788620000,22.4435130000 114.1787200000,22.4435670000 114.1785720000,22.4436210000 114.1784050000,22.4436740000 114.1781370000,22.4437570000 114.1779480000,22.4438100000 114.1777850000,22.4438560000 114.1776820000,22.4438870000 114.1775870000,22.4439250000 114.1774900000,22.4439710000 114.1774230000,22.4440080000 114.1773590000,22.4440510000 114.1773010000,22.4441020000 114.1772600000,22.4441430000 114.1772180000,22.4441920000 114.1771850000,22.4442400000 114.1771570000,22.4442870000 114.1771300000,22.4443400000 114.1770890000,22.4444540000 114.1770410000,22.4445960000 114.1770070000,22.4447020000 114.1769620000,22.4448500000 114.1769390000,22.4449220000 114.1769070000,22.4450050000 114.1768730000,22.4450710000 114.1768170000,22.4451540000 114.1767390000,22.4452430000 114.1766490000,22.4453180000 114.1765610000,22.4453760000 114.1764720000,22.4454250000 114.1763320000,22.4454880000 114.1755360000,22.4458220000 114.1753540000,22.4458960000 114.1750780000,22.4460180000 114.1749780000,22.4460230000 114.1747930000,22.4460750000 114.1747060000,22.4460950000 114.1746010000,22.4461030000 114.1744670000,22.4461030000 114.1743190000,22.4460910000 114.1742260000,22.4460980000 114.1741860000,22.4460890000 114.1741440000,22.4460900000 114.1741030000,22.4460990000 114.1740650000,22.4461200000 114.1740350000,22.4461450000 114.1739510000,22.4461710000 114.1738420000,22.4462260000 114.1736640000,22.4463170000 114.1734610000,22.4464000000 114.1731290000,22.4464520000 114.1730770000,22.4464620000 114.1726760000,22.4465320000 114.1722710000,22.4466130000 114.1722460000,22.4466190000 114.1721390000,22.4466410000 114.1720460000,22.4466570000 114.1716320000,22.4467100000 114.1712500000,22.4467820000 114.1711780000,22.4468030000 114.1710080000,22.4468290000 114.1705880000,22.4469650000 114.1705130000,22.4470070000 114.1702830000,22.4471020000 114.1697150000,22.4473420000 114.1696080000,22.4473860000 114.1694810000,22.4474470000 114.1691350000,22.4476120000 114.1689420000,22.4477170000 114.1687350000,22.4477910000 114.1686130000,22.4478480000 114.1682220000,22.4480470000 114.1680900000,22.4481090000 114.1677650000,22.4482530000 114.1674690000,22.4483890000 114.1668260000,22.4486730000 114.1667010000,22.4487270000 114.1666180000,22.4487570000 114.1666470000,22.4488430000 114.1666900000,22.4489450000 114.1668170000,22.4491760000 114.1668730000,22.4492860000 114.1668970000,22.4493350000 114.1669600000,22.4494750000 114.1669830000,22.4495440000 114.1670170000,22.4496350000 114.1670420000,22.4496960000 114.1670750000,22.4498360000 114.1671030000,22.4499690000 114.1671080000,22.4499970000 114.1671280000,22.4500890000 114.1671380000,22.4501400000 114.1671800000,22.4503580000 114.1672600000,22.4508680000 114.1672680000,22.4509290000 114.1672790000,22.4510180000 114.1672840000,22.4511450000 114.1673620000,22.4513100000 114.1673780000,22.4517570000 114.1673800000,22.4518150000 114.1673830000,22.4519320000 114.1673860000,22.4520720000 114.1673870000,22.4522600000 114.1673900000,22.4527160000 114.1673850000,22.4528660000 114.1675460000,22.4528610000 114.1685320000,22.4528740000 114.1686740000,22.4528760000 114.1686750000,22.4527210000 114.1686730000,22.4521260000 114.1686780000,22.4520660000 114.1686860000,22.4520380000 114.1686970000,22.4520120000 114.1687110000,22.4520060000 114.1687310000,22.4520020000 114.1687580000,22.4520000000 114.1688290000,22.4519980000 114.1698260000,22.4519950000 114.1699290000,22.4519950000 114.1700590000,22.4519950000 114.1706860000,22.4519950000 114.1706910000,22.4521240000 114.1706950000,22.4530940000 114.1706960000,22.4534550000 114.1706940000,22.4539880000 114.1706920000,22.4541040000 114.1706940000,22.4542010000 114.1713590000,22.4541880000 114.1714400000,22.4541950000 114.1715160000,22.4542030000 114.1716490000,22.4542240000 114.1719200000,22.4542650000 114.1720970000,22.4543160000 114.1720570000,22.4545550000 114.1720230000,22.4548220000 114.1720090000,22.4549980000 114.1720160000,22.4551040000 114.1720110000,22.4554290000 114.1720400000,22.4557400000 114.1720400000,22.4557630000 114.1720550000,22.4558850000 114.1720600000,22.4559960000 114.1721290000,22.4568300000 114.1721800000,22.4572870000 114.1721920000,22.4574310000 114.1722440000,22.4575440000 114.1722460000,22.4576010000 114.1722520000,22.4577390000 114.1722880000,22.4580380000 114.1723420000,22.4583480000 114.1723830000,22.4585770000 114.1724420000,22.4587410000 114.1723730000,22.4587660000 114.1722970000,22.4587970000 114.1722680000,22.4588090000 114.1722160000,22.4588140000 114.1719750000,22.4588120000 114.1719760000,22.4587430000 114.1719720000,22.4586750000 114.1719810000,22.4586060000 114.1720910000,22.4584630000 114.1720950000,22.4579200000 114.1720620000,22.4578720000 114.1720210000,22.4578430000 114.1719600000,22.4578490000 114.1719340000,22.4578900000 114.1719400000,22.4579380000 114.1719400000,22.4579380000</coordinates>
                </LineString>
                <ExtendedData>
                    <Data name="duration">
                        <value>02:00:40</value>
                    </Data>
                    <Data name="length">
                        <value>72535.10182546663</value>
                    </Data>
                </ExtendedData>
            </Placemark>
        </Document>
    </Document>
</kml>