<?xml version="1.0" encoding="UTF-8"?>
<kml xmlns="http://www.opengis.net/kml/2.2" xmlns:gx="http://www.google.com/kml/ext/2.2">
    <Document>
        <name>Route</name>
        <Folder>
            <name>Route Request</name>
            <Placemark>
                <address>Ng Chow South Road, Ta Kwu Ling, Ping Che, North District, Hong Kong, DD76 2581, PRC</address>
                <Point>
                    <coordinates>114.1665231641,22.5247826520</coordinates>
                </Point>
                <ExtendedData>
                    <Data name="village">
                        <value>Ping Che</value>
                    </Data>
                    <Data name="county">
                        <value>North District</value>
                    </Data>
                    <Data name="postcode">
                        <value>DD76 2581</value>
                    </Data>
                    <Data name="country_code">
                        <value>cn</value>
                    </Data>
                    <Data name="road">
                        <value>Ng Chow South Road</value>
                    </Data>
                    <Data name="country">
                        <value>PRC</value>
                    </Data>
                    <Data name="suburb">
                        <value>Ta Kwu Ling</value>
                    </Data>
                </ExtendedData>
            </Placemark>
            <Placemark>
                <address>九龍坑隧道通風樓 Kau Lung Hang Ventilation Building, Lung Shan Tunnel, Tin Sam, Kwan Tei, San Uk Tsai, North District, Hong Kong, DD76 2589, PRC</address>
                <Point>
                    <coordinates>114.1559917001,22.4853322816</coordinates>
                </Point>
                <ExtendedData>
                    <Data name="county">
                        <value>North District</value>
                    </Data>
                    <Data name="hamlet">
                        <value>San Uk Tsai</value>
                    </Data>
                    <Data name="neighbourhood">
                        <value>Tin Sam</value>
                    </Data>
                    <Data name="postcode">
                        <value>DD76 2589</value>
                    </Data>
                    <Data name="country_code">
                        <value>cn</value>
                    </Data>
                    <Data name="building">
                        <value>九龍坑隧道通風樓 Kau Lung Hang Ventilation Building</value>
                    </Data>
                    <Data name="road">
                        <value>Lung Shan Tunnel</value>
                    </Data>
                    <Data name="country">
                        <value>PRC</value>
                    </Data>
                    <Data name="suburb">
                        <value>Kwan Tei</value>
                    </Data>
                </ExtendedData>
            </Placemark>
            <Placemark>
                <address>Cross Boundary Shuttle Bus San Tin Terminus, Castle Peak Road – Chau Tau, Lok Ma Chau, Chau Tau Tsuen, Yuen Long District, Hong Kong, DD105 1275, PRC</address>
                <Point>
                    <coordinates>114.0822118604,22.5029383566</coordinates>
                </Point>
                <ExtendedData>
                    <Data name="county">
                        <value>Yuen Long District</value>
                    </Data>
                    <Data name="hamlet">
                        <value>Chau Tau Tsuen</value>
                    </Data>
                    <Data name="postcode">
                        <value>DD105 1275</value>
                    </Data>
                    <Data name="country_code">
                        <value>cn</value>
                    </Data>
                    <Data name="building">
                        <value>Cross Boundary Shuttle Bus San Tin Terminus</value>
                    </Data>
                    <Data name="road">
                        <value>Castle Peak Road – Chau Tau</value>
                    </Data>
                    <Data name="suburb">
                        <value>Lok Ma Chau</value>
                    </Data>
                    <Data name="country">
                        <value>PRC</value>
                    </Data>
                </ExtendedData>
            </Placemark>
            <Placemark>
                <address>Passenger Clearance Building, 33, Shun Fai Road, Pak Mong, Islands District, Hong Kong, 000000, PRC</address>
                <Point>
                    <coordinates>113.9509425145,22.3171215084</coordinates>
                </Point>
                <ExtendedData>
                    <Data name="county">
                        <value>Islands District</value>
                    </Data>
                    <Data name="hamlet">
                        <value>Pak Mong</value>
                    </Data>
                    <Data name="postcode">
                        <value>000000</value>
                    </Data>
                    <Data name="address29">
                        <value>Passenger Clearance Building</value>
                    </Data>
                    <Data name="country_code">
                        <value>cn</value>
                    </Data>
                    <Data name="road">
                        <value>Shun Fai Road</value>
                    </Data>
                    <Data name="house_number">
                        <value>33</value>
                    </Data>
                    <Data name="country">
                        <value>PRC</value>
                    </Data>
                </ExtendedData>
            </Placemark>
            <Placemark>
                <address>Cross Boundary Shuttle Bus San Tin Terminus, Castle Peak Road – Chau Tau, Lok Ma Chau, Chau Tau Tsuen, Yuen Long District, Hong Kong, DD105 1275, PRC</address>
                <Point>
                    <coordinates>114.0821970870,22.5029383559</coordinates>
                </Point>
                <ExtendedData>
                    <Data name="county">
                        <value>Yuen Long District</value>
                    </Data>
                    <Data name="hamlet">
                        <value>Chau Tau Tsuen</value>
                    </Data>
                    <Data name="postcode">
                        <value>DD105 1275</value>
                    </Data>
                    <Data name="country_code">
                        <value>cn</value>
                    </Data>
                    <Data name="building">
                        <value>Cross Boundary Shuttle Bus San Tin Terminus</value>
                    </Data>
                    <Data name="road">
                        <value>Castle Peak Road – Chau Tau</value>
                    </Data>
                    <Data name="suburb">
                        <value>Lok Ma Chau</value>
                    </Data>
                    <Data name="country">
                        <value>PRC</value>
                    </Data>
                </ExtendedData>
            </Placemark>
            <Placemark>
                <address>Heung Yuen Wai Highway, Kwan Tei, Loi Tung, North District, Hong Kong, DD76 2589, PRC</address>
                <Point>
                    <coordinates>114.1816652283,22.5188790138</coordinates>
                </Point>
                <ExtendedData>
                    <Data name="county">
                        <value>North District</value>
                    </Data>
                    <Data name="hamlet">
                        <value>Loi Tung</value>
                    </Data>
                    <Data name="postcode">
                        <value>DD76 2589</value>
                    </Data>
                    <Data name="country_code">
                        <value>cn</value>
                    </Data>
                    <Data name="road">
                        <value>Heung Yuen Wai Highway</value>
                    </Data>
                    <Data name="suburb">
                        <value>Kwan Tei</value>
                    </Data>
                    <Data name="country">
                        <value>PRC</value>
                    </Data>
                </ExtendedData>
            </Placemark>
            <Placemark>
                <address>Ng Chow South Road, Ta Kwu Ling, Ping Che, North District, Hong Kong, DD76 2581, PRC</address>
                <Point>
                    <coordinates>114.1665231641,22.5247826520</coordinates>
                </Point>
                <ExtendedData>
                    <Data name="village">
                        <value>Ping Che</value>
                    </Data>
                    <Data name="county">
                        <value>North District</value>
                    </Data>
                    <Data name="postcode">
                        <value>DD76 2581</value>
                    </Data>
                    <Data name="country_code">
                        <value>cn</value>
                    </Data>
                    <Data name="road">
                        <value>Ng Chow South Road</value>
                    </Data>
                    <Data name="suburb">
                        <value>Ta Kwu Ling</value>
                    </Data>
                    <Data name="country">
                        <value>PRC</value>
                    </Data>
                </ExtendedData>
            </Placemark>
        </Folder>
        <Document>
            <name>112.4 km; 02:15 h (OSRM)</name>
            <Placemark>
                <name>Route</name>
                <LineString>
                    <coordinates>114.1664060000,22.5246930000 114.1663290000,22.5247790000 114.1662690000,22.5248410000 114.1661820000,22.5248020000 114.1660590000,22.5247050000 114.1659290000,22.5245880000 114.1655840000,22.5242930000 114.1654220000,22.5242300000 114.1653160000,22.5242410000 114.1651920000,22.5242360000 114.1649000000,22.5241800000 114.1646900000,22.5241860000 114.1646170000,22.5242020000 114.1644700000,22.5242390000 114.1641490000,22.5243320000 114.1639850000,22.5244070000 114.1638060000,22.5244850000 114.1636930000,22.5245110000 114.1635440000,22.5245420000 114.1633680000,22.5245720000 114.1632780000,22.5245990000 114.1631760000,22.5246560000 114.1630330000,22.5247330000 114.1628480000,22.5248040000 114.1626490000,22.5248640000 114.1624650000,22.5249750000 114.1621290000,22.5251050000 114.1620200000,22.5251320000 114.1619200000,22.5251280000 114.1618090000,22.5250970000 114.1618450000,22.5248780000 114.1618840000,22.5246190000 114.1618290000,22.5244300000 114.1618160000,22.5242520000 114.1619990000,22.5239550000 114.1620900000,22.5238010000 114.1621540000,22.5235190000 114.1621600000,22.5231620000 114.1621310000,22.5229230000 114.1620840000,22.5228150000 114.1620280000,22.5227310000 114.1623350000,22.5221950000 114.1627520000,22.5214650000 114.1630440000,22.5209510000 114.1631560000,22.5208100000 114.1632910000,22.5206890000 114.1635090000,22.5205510000 114.1644740000,22.5201420000 114.1645200000,22.5201230000 114.1648330000,22.5199960000 114.1650200000,22.5199030000 114.1651500000,22.5197840000 114.1652240000,22.5196570000 114.1656760000,22.5182600000 114.1657290000,22.5181070000 114.1658430000,22.5176870000 114.1659760000,22.5172780000 114.1661090000,22.5169060000 114.1661480000,22.5168200000 114.1662450000,22.5167170000 114.1663120000,22.5165970000 114.1663650000,22.5165570000 114.1664160000,22.5164370000 114.1664400000,22.5163800000 114.1666230000,22.5155890000 114.1667740000,22.5151340000 114.1668810000,22.5148950000 114.1670740000,22.5146090000 114.1671380000,22.5145270000 114.1671920000,22.5144040000 114.1672360000,22.5142290000 114.1672730000,22.5141490000 114.1673340000,22.5139810000 114.1673550000,22.5139270000 114.1673740000,22.5139000000 114.1673940000,22.5138830000 114.1674940000,22.5138420000 114.1675170000,22.5138400000 114.1675920000,22.5138860000 114.1679130000,22.5141440000 114.1681540000,22.5143190000 114.1683370000,22.5144290000 114.1683800000,22.5144690000 114.1688180000,22.5148250000 114.1690770000,22.5150190000 114.1692920000,22.5151600000 114.1693680000,22.5152100000 114.1703310000,22.5157640000 114.1708500000,22.5160690000 114.1714020000,22.5163910000 114.1721050000,22.5168060000 114.1721930000,22.5168580000 114.1728250000,22.5172370000 114.1729990000,22.5173410000 114.1741610000,22.5180210000 114.1747000000,22.5183180000 114.1750150000,22.5185170000 114.1753150000,22.5186960000 114.1754980000,22.5188400000 114.1756600000,22.5189990000 114.1760730000,22.5194030000 114.1761910000,22.5195730000 114.1762830000,22.5197310000 114.1764380000,22.5199750000 114.1765450000,22.5201410000 114.1773950000,22.5209970000 114.1775920000,22.5211340000 114.1778520000,22.5212280000 114.1780270000,22.5212780000 114.1781100000,22.5212960000 114.1781740000,22.5213100000 114.1782760000,22.5213350000 114.1784050000,22.5213670000 114.1785840000,22.5214160000 114.1787070000,22.5214670000 114.1788290000,22.5215430000 114.1788330000,22.5215700000 114.1788410000,22.5216160000 114.1788880000,22.5217480000 114.1789000000,22.5217820000 114.1789590000,22.5218620000 114.1789860000,22.5218820000 114.1790790000,22.5219500000 114.1791700000,22.5219880000 114.1791890000,22.5219960000 114.1792990000,22.5220420000 114.1793250000,22.5220420000 114.1796070000,22.5220480000 114.1796980000,22.5220410000 114.1798550000,22.5220290000 114.1800100000,22.5220120000 114.1800660000,22.5219820000 114.1801480000,22.5219370000 114.1802050000,22.5218780000 114.1802760000,22.5217990000 114.1803270000,22.5216880000 114.1803460000,22.5215740000 114.1803460000,22.5215560000 114.1803510000,22.5214100000 114.1803240000,22.5213290000 114.1802810000,22.5212720000 114.1802540000,22.5212100000 114.1801900000,22.5210990000 114.1802060000,22.5210210000 114.1810350000,22.5201340000 114.1813530000,22.5198130000 114.1814760000,22.5196530000 114.1817290000,22.5192990000 114.1820680000,22.5190110000 114.1822880000,22.5187700000 114.1823930000,22.5186490000 114.1824870000,22.5185250000 114.1825110000,22.5184820000 114.1825290000,22.5184510000 114.1826080000,22.5183080000 114.1826290000,22.5182690000 114.1828090000,22.5179610000 114.1829200000,22.5175720000 114.1829210000,22.5170250000 114.1828660000,22.5164370000 114.1826200000,22.5157960000 114.1824020000,22.5154590000 114.1821370000,22.5151630000 114.1818480000,22.5149240000 114.1773420000,22.5126640000 114.1750670000,22.5110780000 114.1747660000,22.5107510000 114.1687030000,22.5038390000 114.1660550000,22.5008490000 114.1563130000,22.4862980000 114.1558750000,22.4855280000 114.1558130000,22.4854170000 114.1553790000,22.4846400000 114.1553400000,22.4845700000 114.1553260000,22.4845410000 114.1552930000,22.4844710000 114.1552310000,22.4843570000 114.1551710000,22.4842250000 114.1550600000,22.4839610000 114.1549890000,22.4837930000 114.1548180000,22.4834230000 114.1546990000,22.4831850000 114.1545900000,22.4828910000 114.1544970000,22.4826290000 114.1544470000,22.4823260000 114.1544250000,22.4822060000 114.1544280000,22.4819650000 114.1544350000,22.4818580000 114.1544490000,22.4816490000 114.1544680000,22.4814150000 114.1544960000,22.4812440000 114.1545370000,22.4810500000 114.1546100000,22.4807600000 114.1546820000,22.4804180000 114.1547260000,22.4800740000 114.1547750000,22.4796600000 114.1547870000,22.4793760000 114.1547770000,22.4790780000 114.1547630000,22.4788260000 114.1547460000,22.4786290000 114.1547180000,22.4785100000 114.1546540000,22.4783730000 114.1545710000,22.4782330000 114.1544840000,22.4781320000 114.1543490000,22.4780280000 114.1542740000,22.4779830000 114.1541750000,22.4779430000 114.1540660000,22.4779120000 114.1539450000,22.4778940000 114.1537890000,22.4779090000 114.1536570000,22.4779450000 114.1535330000,22.4780000000 114.1534080000,22.4780670000 114.1532950000,22.4781540000 114.1531690000,22.4783200000 114.1531340000,22.4784530000 114.1531160000,22.4785370000 114.1531140000,22.4786710000 114.1531210000,22.4787660000 114.1531360000,22.4788240000 114.1531960000,22.4790530000 114.1532470000,22.4792090000 114.1534110000,22.4796010000 114.1534800000,22.4798560000 114.1535280000,22.4800440000 114.1535510000,22.4801840000 114.1535890000,22.4804540000 114.1535740000,22.4807180000 114.1535480000,22.4809430000 114.1534940000,22.4816150000 114.1533970000,22.4823220000 114.1533260000,22.4826570000 114.1532850000,22.4828760000 114.1532220000,22.4830990000 114.1531370000,22.4833450000 114.1530700000,22.4835070000 114.1530030000,22.4836270000 114.1528620000,22.4838730000 114.1527910000,22.4839880000 114.1527010000,22.4841260000 114.1525300000,22.4843300000 114.1523270000,22.4845160000 114.1518790000,22.4848500000 114.1513960000,22.4851570000 114.1502320000,22.4858920000 114.1495300000,22.4862970000 114.1490840000,22.4865250000 114.1487370000,22.4866930000 114.1484030000,22.4868240000 114.1481120000,22.4869330000 114.1464550000,22.4875260000 114.1459770000,22.4876810000 114.1454560000,22.4878540000 114.1446400000,22.4880920000 114.1442410000,22.4882120000 114.1441180000,22.4882440000 114.1435140000,22.4884150000 114.1432440000,22.4884990000 114.1429990000,22.4885750000 114.1427040000,22.4886860000 114.1424690000,22.4887800000 114.1422140000,22.4888970000 114.1417430000,22.4891330000 114.1412880000,22.4894200000 114.1408240000,22.4897540000 114.1403470000,22.4901410000 114.1393340000,22.4910040000 114.1389050000,22.4913500000 114.1384010000,22.4917340000 114.1379930000,22.4920740000 114.1363950000,22.4934970000 114.1354050000,22.4943780000 114.1343170000,22.4953470000 114.1337490000,22.4958120000 114.1333450000,22.4961050000 114.1331480000,22.4962490000 114.1324930000,22.4966850000 114.1320430000,22.4969620000 114.1315490000,22.4972400000 114.1314930000,22.4972710000 114.1313700000,22.4973400000 114.1310020000,22.4975470000 114.1309150000,22.4975970000 114.1308000000,22.4976650000 114.1306260000,22.4977650000 114.1302290000,22.4979730000 114.1297680000,22.4981810000 114.1291540000,22.4984210000 114.1284830000,22.4986530000 114.1283130000,22.4987060000 114.1281110000,22.4987620000 114.1276500000,22.4988810000 114.1267770000,22.4991060000 114.1256880000,22.4993800000 114.1252310000,22.4995100000 114.1244480000,22.4997790000 114.1236600000,22.5000660000 114.1228460000,22.5003960000 114.1220110000,22.5007910000 114.1212110000,22.5012260000 114.1210580000,22.5013050000 114.1200850000,22.5018180000 114.1197380000,22.5019720000 114.1194270000,22.5020810000 114.1190770000,22.5021660000 114.1186450000,22.5022230000 114.1181280000,22.5022530000 114.1177570000,22.5022530000 114.1173440000,22.5022190000 114.1164180000,22.5021120000 114.1159240000,22.5020560000 114.1155500000,22.5020130000 114.1150920000,22.5019900000 114.1147120000,22.5019950000 114.1143160000,22.5020300000 114.1134410000,22.5021520000 114.1111400000,22.5024830000 114.1101430000,22.5026110000 114.1092710000,22.5027090000 114.1073400000,22.5028560000 114.1056640000,22.5029750000 114.1049990000,22.5030240000 114.0974150000,22.5036190000 114.0963870000,22.5036960000 114.0934750000,22.5039100000 114.0904970000,22.5041290000 114.0898710000,22.5041590000 114.0893780000,22.5041720000 114.0892330000,22.5041760000 114.0886180000,22.5041480000 114.0881970000,22.5041120000 114.0878000000,22.5040630000 114.0874240000,22.5040010000 114.0868790000,22.5039000000 114.0864430000,22.5037880000 114.0859680000,22.5036530000 114.0857310000,22.5035640000 114.0853260000,22.5033270000 114.0849200000,22.5031350000 114.0846500000,22.5029950000 114.0842980000,22.5027710000 114.0838480000,22.5024640000 114.0835020000,22.5022220000 114.0834030000,22.5021550000 114.0830980000,22.5019240000 114.0827500000,22.5016250000 114.0825660000,22.5014970000 114.0822600000,22.5013670000 114.0821990000,22.5012870000 114.0821180000,22.5012220000 114.0820490000,22.5011860000 114.0819730000,22.5011630000 114.0818940000,22.5011530000 114.0818140000,22.5011560000 114.0817360000,22.5011720000 114.0816720000,22.5011960000 114.0816120000,22.5012290000 114.0815590000,22.5012700000 114.0815140000,22.5013190000 114.0814770000,22.5013730000 114.0814500000,22.5014320000 114.0814330000,22.5014970000 114.0814280000,22.5015630000 114.0814340000,22.5016290000 114.0814430000,22.5016630000 114.0814520000,22.5016930000 114.0814880000,22.5017690000 114.0815330000,22.5018270000 114.0815890000,22.5018780000 114.0816530000,22.5019180000 114.0817230000,22.5019480000 114.0817610000,22.5019570000 114.0817990000,22.5019650000 114.0820490000,22.5021480000 114.0825730000,22.5025010000 114.0826620000,22.5025680000 114.0828390000,22.5027390000 114.0828860000,22.5028080000 114.0829050000,22.5028610000 114.0829160000,22.5029160000 114.0829140000,22.5029710000 114.0829010000,22.5030620000 114.0828800000,22.5031350000 114.0828190000,22.5033100000 114.0827620000,22.5034020000 114.0827190000,22.5034480000 114.0826650000,22.5034770000 114.0826060000,22.5034950000 114.0825460000,22.5035020000 114.0824870000,22.5035010000 114.0824200000,22.5034890000 114.0822270000,22.5034040000 114.0819450000,22.5032540000 114.0815830000,22.5030570000 114.0815080000,22.5030160000 114.0813750000,22.5029360000 114.0812870000,22.5028710000 114.0814940000,22.5026420000 114.0817320000,22.5024190000 114.0818030000,22.5023720000 114.0819150000,22.5024150000 114.0820040000,22.5024580000 114.0825070000,22.5027210000 114.0825630000,22.5028040000 114.0825080000,22.5029160000 114.0824390000,22.5030430000 114.0823440000,22.5032180000 114.0822270000,22.5034040000 114.0819450000,22.5032540000 114.0815830000,22.5030570000 114.0815080000,22.5030160000 114.0813750000,22.5029360000 114.0812870000,22.5028710000 114.0810910000,22.5027170000 114.0810200000,22.5026430000 114.0806690000,22.5023030000 114.0805360000,22.5022010000 114.0802840000,22.5019600000 114.0801800000,22.5017490000 114.0801650000,22.5016750000 114.0801770000,22.5015490000 114.0802170000,22.5013870000 114.0804010000,22.5011900000 114.0804560000,22.5011370000 114.0805190000,22.5011040000 114.0805950000,22.5010830000 114.0806770000,22.5010840000 114.0807400000,22.5010990000 114.0807950000,22.5011230000 114.0808900000,22.5011920000 114.0810480000,22.5013140000 114.0813400000,22.5015290000 114.0813800000,22.5015620000 114.0814050000,22.5015920000 114.0814270000,22.5016320000 114.0814400000,22.5016630000 114.0814520000,22.5016930000 114.0814880000,22.5017690000 114.0815330000,22.5018270000 114.0815890000,22.5018780000 114.0816530000,22.5019180000 114.0817230000,22.5019480000 114.0817610000,22.5019570000 114.0817990000,22.5019650000 114.0818660000,22.5019710000 114.0819340000,22.5019660000 114.0820000000,22.5019530000 114.0820630000,22.5019300000 114.0821290000,22.5018940000 114.0821880000,22.5018470000 114.0822370000,22.5017920000 114.0822740000,22.5017290000 114.0822990000,22.5016610000 114.0823100000,22.5016020000 114.0823120000,22.5015410000 114.0823040000,22.5014810000 114.0822870000,22.5014230000 114.0822600000,22.5013670000 114.0821990000,22.5012870000 114.0821180000,22.5012220000 114.0820340000,22.5010670000 114.0816010000,22.5007020000 114.0813150000,22.5004660000 114.0808070000,22.5000260000 114.0806830000,22.4999130000 114.0804010000,22.4996700000 114.0800880000,22.4993620000 114.0797790000,22.4989730000 114.0792660000,22.4984400000 114.0781880000,22.4970000000 114.0780060000,22.4967820000 114.0778450000,22.4965940000 114.0776620000,22.4964150000 114.0774580000,22.4962470000 114.0772220000,22.4960880000 114.0769330000,22.4959100000 114.0766220000,22.4957610000 114.0763000000,22.4956220000 114.0758170000,22.4954740000 114.0734120000,22.4948180000 114.0732130000,22.4947640000 114.0694070000,22.4937270000 114.0690930000,22.4936390000 114.0656570000,22.4926980000 114.0642620000,22.4922920000 114.0638650000,22.4921730000 114.0635110000,22.4920240000 114.0631890000,22.4918850000 114.0628460000,22.4917270000 114.0624590000,22.4915190000 114.0621270000,22.4913100000 114.0617840000,22.4910720000 114.0614620000,22.4908150000 114.0611830000,22.4905770000 114.0608290000,22.4902500000 114.0605820000,22.4899820000 114.0602710000,22.4896150000 114.0600260000,22.4893030000 114.0597690000,22.4889060000 114.0594900000,22.4884400000 114.0592540000,22.4879640000 114.0590390000,22.4874290000 114.0588680000,22.4868540000 114.0587600000,22.4862990000 114.0586640000,22.4856750000 114.0583630000,22.4805890000 114.0583050000,22.4799730000 114.0582730000,22.4794870000 114.0582280000,22.4792060000 114.0581690000,22.4788520000 114.0581450000,22.4787240000 114.0580690000,22.4783670000 114.0579510000,22.4779800000 114.0578120000,22.4775840000 114.0576400000,22.4771280000 114.0573610000,22.4765330000 114.0570180000,22.4759180000 114.0567610000,22.4754420000 114.0565900000,22.4749990000 114.0565170000,22.4748740000 114.0563960000,22.4745800000 114.0562240000,22.4740340000 114.0556980000,22.4720220000 114.0555400000,22.4713970000 114.0553730000,22.4707510000 114.0550650000,22.4694860000 114.0546550000,22.4678420000 114.0523890000,22.4586130000 114.0521630000,22.4576710000 114.0520240000,22.4571560000 114.0518840000,22.4567490000 114.0517340000,22.4564120000 114.0515730000,22.4561150000 114.0513480000,22.4557780000 114.0510480000,22.4553810000 114.0501830000,22.4544330000 114.0498860000,22.4541130000 114.0496510000,22.4537880000 114.0494500000,22.4534760000 114.0493000000,22.4532290000 114.0491390000,22.4529410000 114.0490000000,22.4526630000 114.0488710000,22.4523660000 114.0487320000,22.4519890000 114.0486240000,22.4516220000 114.0485490000,22.4512350000 114.0485170000,22.4510170000 114.0484630000,22.4506110000 114.0484420000,22.4502340000 114.0484380000,22.4501150000 114.0484310000,22.4498570000 114.0484740000,22.4494310000 114.0485170000,22.4490340000 114.0485810000,22.4486870000 114.0486670000,22.4483400000 114.0487850000,22.4479530000 114.0489250000,22.4475270000 114.0490430000,22.4471200000 114.0490930000,22.4470000000 114.0494010000,22.4462650000 114.0495150000,22.4459900000 114.0499120000,22.4451870000 114.0500570000,22.4449580000 114.0502760000,22.4445320000 114.0505090000,22.4441380000 114.0506630000,22.4438980000 114.0511030000,22.4432930000 114.0515210000,22.4427670000 114.0515640000,22.4427220000 114.0516480000,22.4426430000 114.0520840000,22.4421920000 114.0525380000,22.4417980000 114.0529800000,22.4414190000 114.0552440000,22.4397030000 114.0566270000,22.4387340000 114.0574420000,22.4381680000 114.0580760000,22.4376940000 114.0586750000,22.4372040000 114.0591920000,22.4367400000 114.0596270000,22.4363460000 114.0601230000,22.4358700000 114.0607360000,22.4352330000 114.0611550000,22.4347070000 114.0617550000,22.4338640000 114.0622730000,22.4331580000 114.0626900000,22.4324490000 114.0630580000,22.4316410000 114.0633420000,22.4308540000 114.0635560000,22.4301880000 114.0638320000,22.4291520000 114.0640530000,22.4281040000 114.0641500000,22.4274210000 114.0642720000,22.4259930000 114.0643150000,22.4243600000 114.0643190000,22.4232760000 114.0643020000,22.4220230000 114.0642750000,22.4215430000 114.0642570000,22.4213660000 114.0641580000,22.4204600000 114.0640030000,22.4189740000 114.0639950000,22.4189290000 114.0638760000,22.4183200000 114.0635200000,22.4166570000 114.0634500000,22.4161790000 114.0633480000,22.4155790000 114.0632220000,22.4150740000 114.0630650000,22.4145840000 114.0628950000,22.4141420000 114.0626700000,22.4136450000 114.0623410000,22.4130610000 114.0610200000,22.4108000000 114.0609240000,22.4106400000 114.0608370000,22.4104800000 114.0607560000,22.4103200000 114.0606700000,22.4101500000 114.0605900000,22.4099800000 114.0605150000,22.4098100000 114.0604420000,22.4096400000 114.0603740000,22.4094700000 114.0603150000,22.4093000000 114.0602650000,22.4091500000 114.0602190000,22.4090000000 114.0601790000,22.4088600000 114.0601310000,22.4086900000 114.0600910000,22.4085300000 114.0600550000,22.4083790000 114.0600430000,22.4083300000 114.0600010000,22.4081530000 114.0599670000,22.4080000000 114.0599350000,22.4078400000 114.0599080000,22.4076800000 114.0598880000,22.4075200000 114.0598690000,22.4073600000 114.0598510000,22.4072000000 114.0598350000,22.4070400000 114.0598260000,22.4068800000 114.0598220000,22.4067200000 114.0598200000,22.4065600000 114.0598200000,22.4064000000 114.0598220000,22.4062400000 114.0598260000,22.4060800000 114.0598320000,22.4059200000 114.0598410000,22.4057600000 114.0598540000,22.4056000000 114.0598690000,22.4054400000 114.0598910000,22.4052500000 114.0599270000,22.4049690000 114.0637180000,22.3811750000 114.0637550000,22.3810000000 114.0637950000,22.3808300000 114.0638400000,22.3806600000 114.0638870000,22.3804900000 114.0639380000,22.3803100000 114.0639920000,22.3801310000 114.0640500000,22.3799600000 114.0641120000,22.3797900000 114.0641800000,22.3796200000 114.0642480000,22.3794600000 114.0643150000,22.3793030000 114.0643830000,22.3791500000 114.0644610000,22.3789900000 114.0645400000,22.3788400000 114.0646200000,22.3786900000 114.0647230000,22.3785000000 114.0648310000,22.3783200000 114.0649400000,22.3781500000 114.0650520000,22.3779800000 114.0651700000,22.3778100000 114.0652900000,22.3776450000 114.0654130000,22.3774800000 114.0655400000,22.3773200000 114.0656660000,22.3771710000 114.0658010000,22.3770150000 114.0659500000,22.3768540000 114.0661020000,22.3766950000 114.0662500000,22.3765450000 114.0664000000,22.3764000000 114.0665500000,22.3762610000 114.0667140000,22.3761200000 114.0668830000,22.3759780000 114.0672200000,22.3757280000 114.0673840000,22.3756120000 114.0675860000,22.3754680000 114.0682370000,22.3750400000 114.0688590000,22.3745820000 114.0691710000,22.3743530000 114.0692520000,22.3742940000 114.0701770000,22.3737060000 114.0713690000,22.3729280000 114.0734950000,22.3716110000 114.0753200000,22.3704760000 114.0755740000,22.3703150000 114.0758210000,22.3701600000 114.0760750000,22.3699840000 114.0763020000,22.3698280000 114.0765090000,22.3696660000 114.0766860000,22.3695240000 114.0768870000,22.3693440000 114.0770660000,22.3691490000 114.0772400000,22.3689350000 114.0773870000,22.3687280000 114.0775940000,22.3684210000 114.0779680000,22.3677150000 114.0783000000,22.3670880000 114.0785960000,22.3665690000 114.0819110000,22.3602270000 114.0825020000,22.3591100000 114.0825850000,22.3589570000 114.0827900000,22.3586820000 114.0829930000,22.3583180000 114.0834750000,22.3574640000 114.0836750000,22.3571410000 114.0838070000,22.3570150000 114.0839520000,22.3568150000 114.0840630000,22.3566640000 114.0843560000,22.3563530000 114.0849050000,22.3559050000 114.0850610000,22.3556890000 114.0851500000,22.3555470000 114.0852420000,22.3553740000 114.0852960000,22.3552360000 114.0853320000,22.3550740000 114.0853400000,22.3548670000 114.0853350000,22.3547110000 114.0853140000,22.3545660000 114.0852480000,22.3543840000 114.0851500000,22.3541890000 114.0850440000,22.3540390000 114.0849290000,22.3539080000 114.0847580000,22.3537620000 114.0845960000,22.3536690000 114.0844560000,22.3535940000 114.0842850000,22.3535360000 114.0840170000,22.3534620000 114.0837540000,22.3534130000 114.0834060000,22.3533780000 114.0829810000,22.3533400000 114.0827130000,22.3533160000 114.0825240000,22.3532920000 114.0823050000,22.3532570000 114.0820940000,22.3532100000 114.0818650000,22.3531560000 114.0809840000,22.3529310000 114.0807580000,22.3529290000 114.0628910000,22.3479420000 114.0621920000,22.3477430000 114.0617970000,22.3476210000 114.0613990000,22.3474890000 114.0610110000,22.3473460000 114.0606270000,22.3471880000 114.0602360000,22.3470150000 114.0598750000,22.3468400000 114.0595140000,22.3466480000 114.0591600000,22.3464470000 114.0588470000,22.3462540000 114.0585430000,22.3460600000 114.0525500000,22.3421550000 114.0519850000,22.3418020000 114.0517420000,22.3416520000 114.0514980000,22.3415220000 114.0511970000,22.3413840000 114.0509050000,22.3412690000 114.0504640000,22.3411370000 114.0501150000,22.3410650000 114.0496320000,22.3409870000 114.0488040000,22.3409060000 114.0482030000,22.3408520000 114.0472620000,22.3407500000 114.0466410000,22.3406480000 114.0460530000,22.3405040000 114.0458190000,22.3404340000 114.0456190000,22.3403700000 114.0453110000,22.3402400000 114.0449720000,22.3400670000 114.0440850000,22.3395510000 114.0432940000,22.3391030000 114.0404020000,22.3378420000 114.0397780000,22.3375450000 114.0393360000,22.3373640000 114.0390890000,22.3372750000 114.0387840000,22.3371820000 114.0384720000,22.3371100000 114.0380410000,22.3370070000 114.0375410000,22.3369040000 114.0371380000,22.3368240000 114.0367080000,22.3367090000 114.0364270000,22.3366290000 114.0362160000,22.3365560000 114.0357730000,22.3363950000 114.0352720000,22.3361990000 114.0347250000,22.3359550000 114.0342730000,22.3357320000 114.0338990000,22.3355020000 114.0333890000,22.3351500000 114.0328770000,22.3347490000 114.0324430000,22.3343380000 114.0299060000,22.3319080000 114.0272230000,22.3293370000 114.0265270000,22.3286850000 114.0251240000,22.3273490000 114.0247260000,22.3270220000 114.0244480000,22.3267970000 114.0243000000,22.3266910000 114.0239930000,22.3264980000 114.0235970000,22.3262700000 114.0230920000,22.3260010000 114.0226320000,22.3257790000 114.0218850000,22.3254810000 114.0213490000,22.3253080000 114.0208380000,22.3251670000 114.0203120000,22.3250680000 114.0198860000,22.3249950000 114.0194280000,22.3249350000 114.0189490000,22.3248840000 114.0184730000,22.3248690000 114.0179280000,22.3248690000 114.0157280000,22.3250250000 114.0151360000,22.3250500000 114.0146250000,22.3250580000 114.0140290000,22.3250370000 114.0134250000,22.3249950000 114.0129230000,22.3249450000 114.0124980000,22.3248840000 114.0120280000,22.3247880000 114.0109800000,22.3245210000 114.0104470000,22.3243410000 114.0099940000,22.3241710000 114.0092210000,22.3238440000 114.0073390000,22.3230500000 114.0030460000,22.3210970000 114.0022110000,22.3207110000 114.0018700000,22.3205380000 114.0015450000,22.3203740000 114.0012450000,22.3202230000 114.0009200000,22.3200340000 114.0006410000,22.3198590000 114.0004230000,22.3197030000 114.0001470000,22.3195040000 113.9998380000,22.3192620000 113.9994860000,22.3189590000 113.9992090000,22.3186870000 113.9989500000,22.3184190000 113.9985960000,22.3180270000 113.9983040000,22.3176570000 113.9980000000,22.3172060000 113.9977570000,22.3168210000 113.9974960000,22.3163870000 113.9973020000,22.3160790000 113.9971020000,22.3157770000 113.9968930000,22.3154780000 113.9966240000,22.3151180000 113.9964650000,22.3149000000 113.9961560000,22.3145280000 113.9959240000,22.3142630000 113.9957120000,22.3140280000 113.9954890000,22.3137910000 113.9951210000,22.3134260000 113.9948160000,22.3131480000 113.9944550000,22.3128470000 113.9940660000,22.3125250000 113.9937300000,22.3122730000 113.9933570000,22.3120010000 113.9929640000,22.3117410000 113.9926010000,22.3115140000 113.9877960000,22.3087560000 113.9856810000,22.3074790000 113.9851170000,22.3071400000 113.9844290000,22.3067090000 113.9829960000,22.3058040000 113.9824520000,22.3052550000 113.9814150000,22.3043480000 113.9809100000,22.3039300000 113.9794500000,22.3028000000 113.9787200000,22.3022900000 113.9777300000,22.3017600000 113.9770100000,22.3014600000 113.9763500000,22.3012400000 113.9760700000,22.3011570000 113.9758600000,22.3011090000 113.9756400000,22.3010780000 113.9754300000,22.3010650000 113.9752610000,22.3010700000 113.9750690000,22.3010940000 113.9749000000,22.3011300000 113.9746000000,22.3012100000 113.9730300000,22.3017300000 113.9721740000,22.3021930000 113.9714830000,22.3025690000 113.9700320000,22.3034210000 113.9692830000,22.3038730000 113.9686450000,22.3042280000 113.9602570000,22.3092190000 113.9597550000,22.3094460000 113.9591860000,22.3097390000 113.9585230000,22.3100990000 113.9578700000,22.3104190000 113.9571210000,22.3107980000 113.9567830000,22.3109450000 113.9564340000,22.3110560000 113.9559380000,22.3111630000 113.9553750000,22.3112750000 113.9549110000,22.3113900000 113.9545590000,22.3114980000 113.9539460000,22.3117630000 113.9537640000,22.3119040000 113.9536150000,22.3120250000 113.9534380000,22.3121800000 113.9532760000,22.3123870000 113.9531300000,22.3126170000 113.9529470000,22.3129610000 113.9528290000,22.3131730000 113.9527390000,22.3133320000 113.9526630000,22.3134660000 113.9526070000,22.3135450000 113.9524810000,22.3136250000 113.9521790000,22.3137530000 113.9520570000,22.3137900000 113.9519280000,22.3138230000 113.9517350000,22.3138340000 113.9515820000,22.3138350000 113.9508520000,22.3139930000 113.9497780000,22.3142950000 113.9495940000,22.3143530000 113.9492790000,22.3144580000 113.9491460000,22.3145140000 113.9490060000,22.3145920000 113.9489430000,22.3146720000 113.9488600000,22.3148080000 113.9488030000,22.3149580000 113.9488060000,22.3151360000 113.9488330000,22.3152910000 113.9488990000,22.3154430000 113.9489790000,22.3155770000 113.9490920000,22.3157180000 113.9491880000,22.3158580000 113.9495720000,22.3170230000 113.9496280000,22.3171810000 113.9496780000,22.3173250000 113.9501390000,22.3171990000 113.9504040000,22.3171290000 113.9505550000,22.3170890000 113.9507680000,22.3170320000 113.9508990000,22.3169990000 113.9508990000,22.3169990000 113.9510940000,22.3168030000 113.9518690000,22.3165870000 113.9522530000,22.3164860000 113.9522110000,22.3163350000 113.9520810000,22.3159090000 113.9519740000,22.3155380000 113.9518730000,22.3152100000 113.9518500000,22.3150640000 113.9518300000,22.3149280000 113.9518170000,22.3148070000 113.9518040000,22.3146220000 113.9517870000,22.3144950000 113.9517630000,22.3143990000 113.9517060000,22.3142840000 113.9515850000,22.3141770000 113.9514950000,22.3141040000 113.9513570000,22.3141010000 113.9511220000,22.3141260000 113.9499210000,22.3144440000 113.9498100000,22.3145060000 113.9497090000,22.3145800000 113.9495520000,22.3146520000 113.9494600000,22.3146980000 113.9493200000,22.3147950000 113.9492230000,22.3148720000 113.9491250000,22.3149470000 113.9490130000,22.3150000000 113.9488360000,22.3150500000 113.9486920000,22.3150710000 113.9485540000,22.3150620000 113.9483900000,22.3150140000 113.9482450000,22.3149220000 113.9481940000,22.3146840000 113.9482050000,22.3145570000 113.9482350000,22.3144660000 113.9482780000,22.3143960000 113.9483420000,22.3143340000 113.9484350000,22.3142750000 113.9485380000,22.3142240000 113.9486570000,22.3141840000 113.9487920000,22.3141480000 113.9489400000,22.3141160000 113.9490620000,22.3140900000 113.9491720000,22.3140640000 113.9493820000,22.3140100000 113.9498910000,22.3138880000 113.9506120000,22.3137000000 113.9510150000,22.3135790000 113.9512710000,22.3134980000 113.9514080000,22.3134430000 113.9515840000,22.3133680000 113.9519440000,22.3131620000 113.9524660000,22.3128930000 113.9531640000,22.3125470000 113.9540780000,22.3121270000 113.9544850000,22.3120520000 113.9547020000,22.3120280000 113.9549450000,22.3119970000 113.9551730000,22.3119890000 113.9554450000,22.3119890000 113.9558620000,22.3120320000 113.9565710000,22.3122190000 113.9567790000,22.3122390000 113.9571060000,22.3122680000 113.9575180000,22.3122250000 113.9578440000,22.3121490000 113.9581670000,22.3120470000 113.9585370000,22.3118530000 113.9589250000,22.3115190000 113.9592610000,22.3110290000 113.9595900000,22.3104420000 113.9597550000,22.3101550000 113.9599910000,22.3098730000 113.9602590000,22.3096190000 113.9606130000,22.3093570000 113.9610490000,22.3089490000 113.9683380000,22.3046070000 113.9687760000,22.3043090000 113.9696660000,22.3037900000 113.9704090000,22.3033300000 113.9709300000,22.3030600000 113.9713800000,22.3028700000 113.9716780000,22.3027600000 113.9719500000,22.3026710000 113.9723500000,22.3025580000 113.9727700000,22.3024500000 113.9732400000,22.3023500000 113.9745890000,22.3021080000 113.9748610000,22.3020620000 113.9751700000,22.3020300000 113.9753200000,22.3020270000 113.9755500000,22.3020400000 113.9757300000,22.3020680000 113.9759000000,22.3021090000 113.9760600000,22.3021600000 113.9762200000,22.3022300000 113.9765550000,22.3024100000 113.9787830000,22.3038620000 113.9805060000,22.3047800000 113.9824910000,22.3057870000 113.9837140000,22.3064070000 113.9843200000,22.3067900000 113.9850400000,22.3072450000 113.9856060000,22.3075890000 113.9877310000,22.3088640000 113.9925320000,22.3116130000 113.9928940000,22.3118400000 113.9932800000,22.3121080000 113.9936540000,22.3123690000 113.9939850000,22.3126240000 113.9943640000,22.3129400000 113.9947170000,22.3132380000 113.9950160000,22.3135030000 113.9953880000,22.3138680000 113.9956090000,22.3141060000 113.9958140000,22.3143200000 113.9960710000,22.3146170000 113.9963520000,22.3149690000 113.9965180000,22.3151920000 113.9967760000,22.3155490000 113.9969850000,22.3158460000 113.9971800000,22.3161470000 113.9973750000,22.3164580000 113.9976390000,22.3168830000 113.9978800000,22.3172650000 113.9981960000,22.3177340000 113.9984880000,22.3181120000 113.9988430000,22.3185050000 113.9990980000,22.3187760000 113.9994070000,22.3190820000 114.0000590000,22.3196040000 114.0003390000,22.3198090000 114.0005530000,22.3199570000 114.0008490000,22.3201550000 114.0011770000,22.3203390000 114.0014940000,22.3205080000 114.0018710000,22.3206920000 114.0022100000,22.3208580000 114.0029710000,22.3212190000 114.0091410000,22.3239620000 114.0099340000,22.3243030000 114.0104060000,22.3244710000 114.0109360000,22.3246490000 114.0119840000,22.3249220000 114.0124700000,22.3250190000 114.0129110000,22.3250790000 114.0134120000,22.3251210000 114.0140080000,22.3251570000 114.0146170000,22.3251700000 114.0151360000,22.3251530000 114.0157200000,22.3251290000 114.0179230000,22.3249950000 114.0184700000,22.3249970000 114.0189250000,22.3250100000 114.0194170000,22.3250510000 114.0198690000,22.3251110000 114.0202650000,22.3251710000 114.0207940000,22.3252890000 114.0213080000,22.3254290000 114.0218170000,22.3256010000 114.0225660000,22.3258960000 114.0230280000,22.3261070000 114.0235650000,22.3263960000 114.0239050000,22.3266040000 114.0242100000,22.3268090000 114.0243490000,22.3269190000 114.0246080000,22.3271220000 114.0247390000,22.3272290000 114.0253400000,22.3277860000 114.0260460000,22.3284120000 114.0264620000,22.3287970000 114.0297800000,22.3320070000 114.0323360000,22.3344360000 114.0327820000,22.3348390000 114.0333080000,22.3352490000 114.0338240000,22.3356090000 114.0341940000,22.3358400000 114.0344370000,22.3359930000 114.0347430000,22.3361510000 114.0350240000,22.3362900000 114.0355250000,22.3365430000 114.0360790000,22.3367460000 114.0366460000,22.3369090000 114.0370510000,22.3370060000 114.0374980000,22.3370760000 114.0380100000,22.3371620000 114.0384370000,22.3372490000 114.0388250000,22.3373460000 114.0392640000,22.3374860000 114.0397170000,22.3376620000 114.0403300000,22.3379590000 114.0409450000,22.3382610000 114.0430490000,22.3395020000 114.0438450000,22.3398740000 114.0444670000,22.3401500000 114.0450310000,22.3403730000 114.0457530000,22.3405940000 114.0460570000,22.3406770000 114.0466800000,22.3408170000 114.0473730000,22.3409100000 114.0482450000,22.3409950000 114.0487620000,22.3410670000 114.0496140000,22.3411750000 114.0500720000,22.3412490000 114.0504120000,22.3413120000 114.0508330000,22.3414360000 114.0511730000,22.3415610000 114.0514230000,22.3416710000 114.0516610000,22.3417990000 114.0518850000,22.3419290000 114.0520460000,22.3420240000 114.0524520000,22.3422840000 114.0584460000,22.3461890000 114.0587520000,22.3463840000 114.0590690000,22.3465800000 114.0594270000,22.3467830000 114.0597930000,22.3469780000 114.0601590000,22.3471560000 114.0605560000,22.3473310000 114.0609450000,22.3474910000 114.0613390000,22.3476360000 114.0617410000,22.3477700000 114.0621400000,22.3478920000 114.0628380000,22.3480920000 114.0807100000,22.3530780000 114.0815240000,22.3533110000 114.0816810000,22.3533950000 114.0820430000,22.3535190000 114.0821840000,22.3535790000 114.0823730000,22.3536570000 114.0825460000,22.3537670000 114.0827210000,22.3538910000 114.0829990000,22.3540730000 114.0831560000,22.3542420000 114.0833090000,22.3544430000 114.0834070000,22.3546400000 114.0835130000,22.3549360000 114.0835890000,22.3552150000 114.0836430000,22.3554670000 114.0836500000,22.3557430000 114.0836490000,22.3559990000 114.0836240000,22.3562260000 114.0835440000,22.3565220000 114.0834440000,22.3567510000 114.0831110000,22.3574770000 114.0827160000,22.3583350000 114.0823470000,22.3590330000 114.0817280000,22.3601470000 114.0784010000,22.3664850000 114.0777670000,22.3675880000 114.0777150000,22.3677360000 114.0774160000,22.3683250000 114.0773160000,22.3685090000 114.0770930000,22.3688420000 114.0769400000,22.3690480000 114.0767580000,22.3692520000 114.0765560000,22.3694450000 114.0763760000,22.3695940000 114.0761870000,22.3697450000 114.0760250000,22.3698660000 114.0757800000,22.3700540000 114.0755210000,22.3702260000 114.0752510000,22.3703950000 114.0734230000,22.3715160000 114.0714360000,22.3727580000 114.0700810000,22.3735450000 114.0691650000,22.3740570000 114.0686690000,22.3743500000 114.0680660000,22.3746770000 114.0674440000,22.3750520000 114.0671190000,22.3752480000 114.0671050000,22.3752570000 114.0669000000,22.3753850000 114.0667150000,22.3755200000 114.0665630000,22.3756400000 114.0664200000,22.3757600000 114.0662790000,22.3758800000 114.0661410000,22.3760010000 114.0660170000,22.3761210000 114.0658870000,22.3762500000 114.0657670000,22.3763700000 114.0656400000,22.3765000000 114.0655140000,22.3766300000 114.0653940000,22.3767600000 114.0652830000,22.3768900000 114.0651700000,22.3770250000 114.0650620000,22.3771600000 114.0649600000,22.3772950000 114.0648600000,22.3774300000 114.0647660000,22.3775610000 114.0646670000,22.3777000000 114.0645780000,22.3778300000 114.0644870000,22.3779700000 114.0643920000,22.3781210000 114.0643070000,22.3782700000 114.0642190000,22.3784300000 114.0641320000,22.3785900000 114.0640530000,22.3787400000 114.0639750000,22.3789000000 114.0639000000,22.3790600000 114.0638300000,22.3792200000 114.0637600000,22.3793850000 114.0636900000,22.3795600000 114.0636290000,22.3797200000 114.0635680000,22.3799000000 114.0635100000,22.3800800000 114.0634500000,22.3802800000 114.0633950000,22.3804800000 114.0633400000,22.3807000000 114.0632940000,22.3809100000 114.0632710000,22.3810420000 114.0593990000,22.4053980000 114.0593770000,22.4055790000 114.0593560000,22.4058000000 114.0593450000,22.4060000000 114.0593400000,22.4062000000 114.0593380000,22.4063500000 114.0593370000,22.4065000000 114.0593370000,22.4066500000 114.0593410000,22.4068000000 114.0593500000,22.4069800000 114.0593600000,22.4071500000 114.0593800000,22.4073700000 114.0594000000,22.4075600000 114.0594200000,22.4077300000 114.0594450000,22.4079000000 114.0594710000,22.4080600000 114.0595100000,22.4082430000 114.0595450000,22.4084000000 114.0595900000,22.4086000000 114.0596400000,22.4088000000 114.0596880000,22.4089500000 114.0597400000,22.4091000000 114.0597940000,22.4092500000 114.0598500000,22.4094000000 114.0599200000,22.4095600000 114.0599900000,22.4097100000 114.0600640000,22.4098600000 114.0601400000,22.4100100000 114.0602250000,22.4101600000 114.0603170000,22.4103100000 114.0603800000,22.4104100000 114.0604160000,22.4104600000 114.0605880000,22.4107290000 114.0621750000,22.4131710000 114.0623450000,22.4134530000 114.0624790000,22.4137160000 114.0626320000,22.4140050000 114.0627740000,22.4143430000 114.0629310000,22.4147790000 114.0630260000,22.4150800000 114.0631030000,22.4153860000 114.0631600000,22.4156780000 114.0632030000,22.4159050000 114.0632440000,22.4161640000 114.0633070000,22.4166640000 114.0633480000,22.4172350000 114.0633840000,22.4182370000 114.0634610000,22.4189950000 114.0634650000,22.4190400000 114.0636610000,22.4200300000 114.0638150000,22.4206580000 114.0639010000,22.4209710000 114.0639970000,22.4213920000 114.0640270000,22.4215360000 114.0640500000,22.4216920000 114.0640990000,22.4220490000 114.0641190000,22.4232790000 114.0640870000,22.4259440000 114.0640220000,22.4268200000 114.0639200000,22.4277240000 114.0637770000,22.4285930000 114.0635410000,22.4296160000 114.0632550000,22.4305100000 114.0629540000,22.4313360000 114.0626350000,22.4320300000 114.0622920000,22.4327040000 114.0618090000,22.4334780000 114.0612940000,22.4342310000 114.0607250000,22.4349550000 114.0600050000,22.4357480000 114.0595240000,22.4362250000 114.0592950000,22.4364300000 114.0588160000,22.4368590000 114.0581290000,22.4374250000 114.0573570000,22.4380100000 114.0565380000,22.4385440000 114.0551350000,22.4395660000 114.0528590000,22.4413090000 114.0525830000,22.4415180000 114.0521860000,22.4418550000 114.0517580000,22.4422580000 114.0512860000,22.4427720000 114.0509410000,22.4431830000 114.0506780000,22.4435630000 114.0503510000,22.4440780000 114.0500900000,22.4445150000 114.0499770000,22.4446820000 114.0497800000,22.4450950000 114.0495290000,22.4456110000 114.0492980000,22.4461380000 114.0489890000,22.4468030000 114.0488280000,22.4472790000 114.0486670000,22.4477350000 114.0484950000,22.4482710000 114.0483880000,22.4487270000 114.0483410000,22.4488710000 114.0483130000,22.4491930000 114.0482490000,22.4496790000 114.0482490000,22.4501150000 114.0482700000,22.4506210000 114.0482970000,22.4508400000 114.0483450000,22.4510870000 114.0484010000,22.4513600000 114.0484740000,22.4516220000 114.0485710000,22.4520090000 114.0487210000,22.4524250000 114.0488820000,22.4528020000 114.0490640000,22.4531590000 114.0492790000,22.4535560000 114.0494050000,22.4537570000 114.0495070000,22.4538910000 114.0497440000,22.4542000000 114.0503300000,22.4548650000 114.0507180000,22.4552730000 114.0508580000,22.4554290000 114.0510920000,22.4557020000 114.0513380000,22.4560690000 114.0515200000,22.4564010000 114.0515880000,22.4565590000 114.0517160000,22.4568310000 114.0519130000,22.4573490000 114.0521200000,22.4580910000 114.0521930000,22.4583940000 114.0541640000,22.4666500000 114.0549320000,22.4695170000 114.0552480000,22.4707920000 114.0554120000,22.4714140000 114.0555720000,22.4720290000 114.0561060000,22.4740940000 114.0562830000,22.4746300000 114.0564070000,22.4749210000 114.0564600000,22.4750430000 114.0566710000,22.4754880000 114.0569220000,22.4759660000 114.0572390000,22.4765930000 114.0573800000,22.4769120000 114.0575120000,22.4771870000 114.0577050000,22.4776530000 114.0578660000,22.4781390000 114.0579940000,22.4785950000 114.0580450000,22.4788630000 114.0580800000,22.4790510000 114.0581070000,22.4792310000 114.0581340000,22.4794080000 114.0581660000,22.4798740000 114.0582130000,22.4805690000 114.0585030000,22.4855160000 114.0585780000,22.4861110000 114.0586850000,22.4866760000 114.0588030000,22.4871320000 114.0590070000,22.4877270000 114.0592430000,22.4882620000 114.0595440000,22.4887870000 114.0598650000,22.4892930000 114.0601640000,22.4897140000 114.0605600000,22.4901800000 114.0608820000,22.4905070000 114.0612360000,22.4908150000 114.0616330000,22.4911220000 114.0617150000,22.4911780000 114.0620290000,22.4913940000 114.0620950000,22.4914390000 114.0624710000,22.4916710000 114.0628760000,22.4918900000 114.0633010000,22.4920970000 114.0637250000,22.4922620000 114.0641980000,22.4924210000 114.0653240000,22.4927180000 114.0661830000,22.4930020000 114.0690560000,22.4937500000 114.0693710000,22.4938350000 114.0731790000,22.4948720000 114.0733800000,22.4949280000 114.0757530000,22.4955730000 114.0762030000,22.4957310000 114.0766000000,22.4958900000 114.0769110000,22.4960390000 114.0772010000,22.4962270000 114.0774370000,22.4964150000 114.0776840000,22.4966240000 114.0778880000,22.4968420000 114.0780550000,22.4970720000 114.0787410000,22.4979040000 114.0790490000,22.4984870000 114.0793390000,22.4989420000 114.0795490000,22.4992720000 114.0797940000,22.4996770000 114.0800590000,22.5001960000 114.0801900000,22.5004720000 114.0802520000,22.5006610000 114.0802680000,22.5008180000 114.0802670000,22.5009460000 114.0802540000,22.5010330000 114.0802310000,22.5011160000 114.0801990000,22.5012190000 114.0800350000,22.5014220000 114.0799510000,22.5015140000 114.0798720000,22.5015920000 114.0799240000,22.5016710000 114.0801030000,22.5019260000 114.0802110000,22.5020420000 114.0805780000,22.5023480000 114.0809770000,22.5027270000 114.0810970000,22.5028170000 114.0812400000,22.5029250000 114.0812870000,22.5028710000 114.0814940000,22.5026420000 114.0817320000,22.5024190000 114.0818030000,22.5023720000 114.0819150000,22.5024150000 114.0820040000,22.5024580000 114.0825070000,22.5027210000 114.0825630000,22.5028040000 114.0825080000,22.5029160000 114.0824360000,22.5030490000 114.0823440000,22.5032180000 114.0822270000,22.5034040000 114.0819450000,22.5032540000 114.0815830000,22.5030570000 114.0815080000,22.5030160000 114.0813750000,22.5029360000 114.0812870000,22.5028710000 114.0810910000,22.5027170000 114.0810200000,22.5026430000 114.0806690000,22.5023030000 114.0805360000,22.5022010000 114.0802840000,22.5019600000 114.0801800000,22.5017490000 114.0801650000,22.5016750000 114.0801770000,22.5015490000 114.0802170000,22.5013870000 114.0804010000,22.5011900000 114.0804560000,22.5011370000 114.0805190000,22.5011040000 114.0805950000,22.5010830000 114.0806770000,22.5010840000 114.0807400000,22.5010990000 114.0807950000,22.5011230000 114.0808900000,22.5011920000 114.0810480000,22.5013140000 114.0813400000,22.5015290000 114.0813800000,22.5015620000 114.0814050000,22.5015920000 114.0814270000,22.5016320000 114.0814400000,22.5016630000 114.0814520000,22.5016930000 114.0814880000,22.5017690000 114.0815330000,22.5018270000 114.0815890000,22.5018780000 114.0816530000,22.5019180000 114.0817230000,22.5019480000 114.0817610000,22.5019570000 114.0817990000,22.5019650000 114.0820490000,22.5021480000 114.0825730000,22.5025010000 114.0826620000,22.5025680000 114.0830620000,22.5027440000 114.0835170000,22.5029300000 114.0844540000,22.5032930000 114.0850630000,22.5035150000 114.0858260000,22.5037280000 114.0863240000,22.5038690000 114.0867970000,22.5039910000 114.0872700000,22.5040760000 114.0877270000,22.5041570000 114.0877740000,22.5041630000 114.0882670000,22.5042310000 114.0888750000,22.5042850000 114.0891540000,22.5042900000 114.0894880000,22.5042970000 114.0901250000,22.5042870000 114.0907370000,22.5042580000 114.0908670000,22.5042520000 114.0913330000,22.5042150000 114.0920270000,22.5041610000 114.0929120000,22.5040910000 114.0949490000,22.5039300000 114.0973530000,22.5037470000 114.1050390000,22.5031710000 114.1056990000,22.5031210000 114.1073460000,22.5030040000 114.1088480000,22.5028850000 114.1097490000,22.5028060000 114.1103390000,22.5027470000 114.1110470000,22.5026480000 114.1134180000,22.5022930000 114.1139430000,22.5022200000 114.1143400000,22.5021740000 114.1146500000,22.5021440000 114.1149510000,22.5021350000 114.1153060000,22.5021350000 114.1158370000,22.5021710000 114.1163570000,22.5022340000 114.1173010000,22.5023330000 114.1177270000,22.5023760000 114.1181040000,22.5023970000 114.1184490000,22.5023820000 114.1188570000,22.5023430000 114.1192970000,22.5022540000 114.1197370000,22.5021250000 114.1202730000,22.5018870000 114.1206820000,22.5016640000 114.1212880000,22.5013360000 114.1219570000,22.5009750000 114.1228370000,22.5005590000 114.1236610000,22.5002170000 114.1247910000,22.4998110000 114.1252630000,22.4996580000 114.1257230000,22.4995210000 114.1269640000,22.4992110000 114.1275580000,22.4990560000 114.1282100000,22.4988900000 114.1289490000,22.4986770000 114.1298060000,22.4983430000 114.1302610000,22.4981460000 114.1307610000,22.4978970000 114.1309110000,22.4978130000 114.1310070000,22.4977590000 114.1314610000,22.4975060000 114.1315960000,22.4974310000 114.1316840000,22.4973810000 114.1322310000,22.4970540000 114.1328430000,22.4966480000 114.1332860000,22.4963410000 114.1338550000,22.4959230000 114.1344200000,22.4954460000 114.1380690000,22.4921690000 114.1384840000,22.4918290000 114.1389160000,22.4914710000 114.1397230000,22.4908070000 114.1406450000,22.4900220000 114.1411810000,22.4896490000 114.1415670000,22.4893940000 114.1418830000,22.4892160000 114.1424410000,22.4889300000 114.1430670000,22.4886890000 114.1433680000,22.4885900000 114.1437670000,22.4884670000 114.1444850000,22.4882710000 114.1456580000,22.4879200000 114.1461780000,22.4877490000 114.1478470000,22.4871580000 114.1482880000,22.4869960000 114.1488850000,22.4867790000 114.1490120000,22.4867280000 114.1491400000,22.4866810000 114.1495480000,22.4864900000 114.1500340000,22.4862130000 114.1505480000,22.4859140000 114.1510360000,22.4856720000 114.1513000000,22.4855400000 114.1513210000,22.4855280000 114.1516230000,22.4853740000 114.1518760000,22.4852290000 114.1521300000,22.4850790000 114.1523140000,22.4849430000 114.1524790000,22.4848020000 114.1526030000,22.4846800000 114.1528430000,22.4844300000 114.1530090000,22.4842270000 114.1531770000,22.4839690000 114.1532520000,22.4838320000 114.1533430000,22.4836740000 114.1533750000,22.4836170000 114.1534000000,22.4835730000 114.1535080000,22.4833950000 114.1536130000,22.4831830000 114.1538170000,22.4825660000 114.1539120000,22.4822430000 114.1539900000,22.4819460000 114.1540200000,22.4817320000 114.1540350000,22.4814930000 114.1540020000,22.4812410000 114.1539520000,22.4810050000 114.1539080000,22.4808060000 114.1537310000,22.4802820000 114.1535810000,22.4798710000 114.1533170000,22.4791190000 114.1532430000,22.4788680000 114.1532080000,22.4787330000 114.1532100000,22.4786290000 114.1532240000,22.4785140000 114.1532970000,22.4783240000 114.1534190000,22.4782130000 114.1535130000,22.4781310000 114.1536050000,22.4780790000 114.1537290000,22.4780390000 114.1538100000,22.4780280000 114.1539600000,22.4780270000 114.1540720000,22.4780480000 114.1542100000,22.4780960000 114.1543350000,22.4781740000 114.1544900000,22.4783350000 114.1545390000,22.4784390000 114.1545750000,22.4785770000 114.1545870000,22.4786940000 114.1545910000,22.4788940000 114.1545460000,22.4791840000 114.1544360000,22.4796740000 114.1544120000,22.4798690000 114.1543760000,22.4802670000 114.1543090000,22.4808180000 114.1542750000,22.4812360000 114.1542640000,22.4815270000 114.1542570000,22.4817860000 114.1542680000,22.4819470000 114.1543070000,22.4823590000 114.1543050000,22.4825440000 114.1543380000,22.4826900000 114.1544290000,22.4830460000 114.1545160000,22.4832600000 114.1546800000,22.4836570000 114.1547920000,22.4839000000 114.1548500000,22.4840270000 114.1550350000,22.4844430000 114.1550860000,22.4845330000 114.1551220000,22.4846050000 114.1551360000,22.4846320000 114.1551730000,22.4847230000 114.1560520000,22.4863610000 114.1657940000,22.5009120000 114.1744990000,22.5108810000 114.1747780000,22.5111710000 114.1765080000,22.5124670000 114.1770010000,22.5127750000 114.1779230000,22.5132600000 114.1793320000,22.5139580000 114.1815920000,22.5150860000 114.1818310000,22.5152620000 114.1821550000,22.5155710000 114.1823590000,22.5158590000 114.1826030000,22.5164620000 114.1826600000,22.5170880000 114.1826190000,22.5176360000 114.1824560000,22.5181920000 114.1824230000,22.5182410000 114.1824130000,22.5182560000 114.1823700000,22.5183390000 114.1822400000,22.5185220000 114.1821080000,22.5186870000 114.1820110000,22.5188080000 114.1818210000,22.5190060000 114.1816090000,22.5192290000 114.1810820000,22.5195470000 114.1806360000,22.5199830000 114.1801220000,22.5204790000 114.1796210000,22.5208570000 114.1795540000,22.5209080000 114.1794810000,22.5209400000 114.1793920000,22.5209710000 114.1792260000,22.5209530000 114.1790720000,22.5209690000 114.1790240000,22.5209820000 114.1789880000,22.5210020000 114.1788230000,22.5210610000 114.1787420000,22.5211100000 114.1786640000,22.5211800000 114.1785230000,22.5212810000 114.1784300000,22.5213170000 114.1782760000,22.5213350000 114.1781740000,22.5213100000 114.1781100000,22.5212960000 114.1780270000,22.5212780000 114.1778520000,22.5212280000 114.1775920000,22.5211340000 114.1773950000,22.5209970000 114.1765450000,22.5201410000 114.1764380000,22.5199750000 114.1762830000,22.5197310000 114.1761910000,22.5195730000 114.1760730000,22.5194030000 114.1756600000,22.5189990000 114.1754980000,22.5188400000 114.1753150000,22.5186960000 114.1750150000,22.5185170000 114.1747000000,22.5183180000 114.1741610000,22.5180210000 114.1729990000,22.5173410000 114.1728250000,22.5172370000 114.1721930000,22.5168580000 114.1721050000,22.5168060000 114.1714020000,22.5163910000 114.1708500000,22.5160690000 114.1703310000,22.5157640000 114.1693680000,22.5152100000 114.1692920000,22.5151600000 114.1690770000,22.5150190000 114.1688180000,22.5148250000 114.1683800000,22.5144690000 114.1683370000,22.5144290000 114.1682120000,22.5142650000 114.1680310000,22.5140540000 114.1678420000,22.5138180000 114.1676960000,22.5135940000 114.1676670000,22.5135350000 114.1676200000,22.5134870000 114.1675590000,22.5134560000 114.1674900000,22.5134450000 114.1674210000,22.5134550000 114.1673570000,22.5134860000 114.1673070000,22.5135350000 114.1672790000,22.5135970000 114.1672740000,22.5136640000 114.1672830000,22.5137040000 114.1672760000,22.5138580000 114.1672460000,22.5140210000 114.1672320000,22.5141500000 114.1672360000,22.5142290000 114.1671920000,22.5144040000 114.1671380000,22.5145270000 114.1670740000,22.5146090000 114.1668810000,22.5148950000 114.1667740000,22.5151340000 114.1666230000,22.5155890000 114.1664400000,22.5163800000 114.1664160000,22.5164370000 114.1663650000,22.5165570000 114.1663120000,22.5165970000 114.1662450000,22.5167170000 114.1661480000,22.5168200000 114.1661090000,22.5169060000 114.1659760000,22.5172780000 114.1658430000,22.5176870000 114.1657290000,22.5181070000 114.1656760000,22.5182600000 114.1652240000,22.5196570000 114.1651500000,22.5197840000 114.1650200000,22.5199030000 114.1648330000,22.5199960000 114.1645200000,22.5201230000 114.1644740000,22.5201420000 114.1635090000,22.5205510000 114.1632910000,22.5206890000 114.1631560000,22.5208100000 114.1630440000,22.5209510000 114.1627520000,22.5214650000 114.1623350000,22.5221950000 114.1620280000,22.5227310000 114.1618120000,22.5230830000 114.1617270000,22.5231940000 114.1615770000,22.5233420000 114.1611880000,22.5237340000 114.1606730000,22.5242130000 114.1603350000,22.5245420000 114.1601550000,22.5247510000 114.1605170000,22.5249830000 114.1607020000,22.5251010000 114.1608410000,22.5251540000 114.1609730000,22.5251770000 114.1611280000,22.5251830000 114.1612410000,22.5251740000 114.1614390000,22.5251440000 114.1616390000,22.5250950000 114.1617140000,22.5250910000 114.1618090000,22.5250970000 114.1619200000,22.5251280000 114.1620200000,22.5251320000 114.1621290000,22.5251050000 114.1624650000,22.5249750000 114.1626490000,22.5248640000 114.1628480000,22.5248040000 114.1630330000,22.5247330000 114.1631760000,22.5246560000 114.1632780000,22.5245990000 114.1633680000,22.5245720000 114.1635440000,22.5245420000 114.1636930000,22.5245110000 114.1638060000,22.5244850000 114.1639850000,22.5244070000 114.1641490000,22.5243320000 114.1644700000,22.5242390000 114.1646170000,22.5242020000 114.1646900000,22.5241860000 114.1649000000,22.5241800000 114.1651920000,22.5242360000 114.1653160000,22.5242410000 114.1654220000,22.5242300000 114.1655840000,22.5242930000 114.1659290000,22.5245880000 114.1660590000,22.5247050000 114.1661820000,22.5248020000 114.1662690000,22.5248410000 114.1663290000,22.5247790000 114.1664060000,22.5246930000</coordinates>
                </LineString>
                <ExtendedData>
                    <Data name="length">
                        <value>112354.06882279446</value>
                    </Data>
                    <Data name="duration">
                        <value>02:15:07</value>
                    </Data>
                </ExtendedData>
            </Placemark>
        </Document>
    </Document>
</kml>