<?xml version="1.0" encoding="UTF-8"?>
<kml xmlns="http://www.opengis.net/kml/2.2" xmlns:gx="http://www.google.com/kml/ext/2.2">
    <Document>
        <name>Route</name>
        <Folder>
            <name>Route Request</name>
            <Placemark>
                <address>Tsung Yuen Ha Tsuen Public Toilet, Lin Ma Hang Road, Ta Kwu Ling, Tsung Yuen Ha, North District, Hong Kong, DD78 353, PRC</address>
                <Point>
                    <coordinates>114.1561071922,22.5527777084</coordinates>
                </Point>
                <ExtendedData>
                    <Data name="hamlet">
                        <value>Tsung Yuen Ha</value>
                    </Data>
                    <Data name="road">
                        <value>Lin Ma Hang Road</value>
                    </Data>
                    <Data name="country_code">
                        <value>cn</value>
                    </Data>
                    <Data name="country">
                        <value>PRC</value>
                    </Data>
                    <Data name="suburb">
                        <value>Ta Kwu Ling</value>
                    </Data>
                    <Data name="toilets">
                        <value>Tsung Yuen Ha Tsuen Public Toilet</value>
                    </Data>
                    <Data name="county">
                        <value>North District</value>
                    </Data>
                    <Data name="postcode">
                        <value>DD78 353</value>
                    </Data>
                </ExtendedData>
            </Placemark>
            <Placemark>
                <address>Lung Shan Tunnel, Tin Sam, Kwan Tei, San Uk Tsai, North District, Hong Kong, DD76 2589, PRC</address>
                <Point>
                    <coordinates>114.1579948868,22.4878693540</coordinates>
                </Point>
                <ExtendedData>
                    <Data name="hamlet">
                        <value>San Uk Tsai</value>
                    </Data>
                    <Data name="neighbourhood">
                        <value>Tin Sam</value>
                    </Data>
                    <Data name="road">
                        <value>Lung Shan Tunnel</value>
                    </Data>
                    <Data name="country_code">
                        <value>cn</value>
                    </Data>
                    <Data name="country">
                        <value>PRC</value>
                    </Data>
                    <Data name="suburb">
                        <value>Kwan Tei</value>
                    </Data>
                    <Data name="county">
                        <value>North District</value>
                    </Data>
                    <Data name="postcode">
                        <value>DD76 2589</value>
                    </Data>
                </ExtendedData>
            </Placemark>
            <Placemark>
                <address>Cross Boundary Shuttle Bus San Tin Terminus, Castle Peak Road – Chau Tau, Lok Ma Chau, Chau Tau Tsuen, Yuen Long District, Hong Kong, DD105 1275, PRC</address>
                <Point>
                    <coordinates>114.0820928765,22.5030104031</coordinates>
                </Point>
                <ExtendedData>
                    <Data name="hamlet">
                        <value>Chau Tau Tsuen</value>
                    </Data>
                    <Data name="building">
                        <value>Cross Boundary Shuttle Bus San Tin Terminus</value>
                    </Data>
                    <Data name="road">
                        <value>Castle Peak Road – Chau Tau</value>
                    </Data>
                    <Data name="country_code">
                        <value>cn</value>
                    </Data>
                    <Data name="country">
                        <value>PRC</value>
                    </Data>
                    <Data name="suburb">
                        <value>Lok Ma Chau</value>
                    </Data>
                    <Data name="county">
                        <value>Yuen Long District</value>
                    </Data>
                    <Data name="postcode">
                        <value>DD105 1275</value>
                    </Data>
                </ExtendedData>
            </Placemark>
            <Placemark>
                <address>Tsing Long Highway, Sham Tseng, Sham Tseng East Village, Tsuen Wan District, Hong Kong, DD106 2011, PRC</address>
                <Point>
                    <coordinates>114.0751480763,22.3707727227</coordinates>
                </Point>
                <ExtendedData>
                    <Data name="hamlet">
                        <value>Sham Tseng East Village</value>
                    </Data>
                    <Data name="road">
                        <value>Tsing Long Highway</value>
                    </Data>
                    <Data name="country_code">
                        <value>cn</value>
                    </Data>
                    <Data name="country">
                        <value>PRC</value>
                    </Data>
                    <Data name="suburb">
                        <value>Sham Tseng</value>
                    </Data>
                    <Data name="county">
                        <value>Tsuen Wan District</value>
                    </Data>
                    <Data name="postcode">
                        <value>DD106 2011</value>
                    </Data>
                </ExtendedData>
            </Placemark>
            <Placemark>
                <address>Disneyland, Fantasy Road, Tsing Chau Tsai Peninsula, Fa Peng, Tsuen Wan District, Hong Kong, NT, PRC</address>
                <Point>
                    <coordinates>114.0452649958,22.3164005724</coordinates>
                </Point>
                <ExtendedData>
                    <Data name="bus_station">
                        <value>Disneyland</value>
                    </Data>
                    <Data name="hamlet">
                        <value>Fa Peng</value>
                    </Data>
                    <Data name="road">
                        <value>Fantasy Road</value>
                    </Data>
                    <Data name="country_code">
                        <value>cn</value>
                    </Data>
                    <Data name="country">
                        <value>PRC</value>
                    </Data>
                    <Data name="suburb">
                        <value>Tsing Chau Tsai Peninsula</value>
                    </Data>
                    <Data name="county">
                        <value>Tsuen Wan District</value>
                    </Data>
                    <Data name="postcode">
                        <value>NT</value>
                    </Data>
                </ExtendedData>
            </Placemark>
            <Placemark>
                <address>Tsing Long Highway, Sham Tseng, Sham Tseng East Village, Tsuen Wan District, Hong Kong, DD106 2011, PRC</address>
                <Point>
                    <coordinates>114.0724462129,22.3721592164</coordinates>
                </Point>
                <ExtendedData>
                    <Data name="hamlet">
                        <value>Sham Tseng East Village</value>
                    </Data>
                    <Data name="road">
                        <value>Tsing Long Highway</value>
                    </Data>
                    <Data name="country_code">
                        <value>cn</value>
                    </Data>
                    <Data name="country">
                        <value>PRC</value>
                    </Data>
                    <Data name="suburb">
                        <value>Sham Tseng</value>
                    </Data>
                    <Data name="county">
                        <value>Tsuen Wan District</value>
                    </Data>
                    <Data name="postcode">
                        <value>DD106 2011</value>
                    </Data>
                </ExtendedData>
            </Placemark>
            <Placemark>
                <address>Cross Boundary Shuttle Bus San Tin Terminus, Castle Peak Road – Chau Tau, Lok Ma Chau, Chau Tau Tsuen, Yuen Long District, Hong Kong, DD105 1275, PRC</address>
                <Point>
                    <coordinates>114.0820825284,22.5029833576</coordinates>
                </Point>
                <ExtendedData>
                    <Data name="hamlet">
                        <value>Chau Tau Tsuen</value>
                    </Data>
                    <Data name="building">
                        <value>Cross Boundary Shuttle Bus San Tin Terminus</value>
                    </Data>
                    <Data name="road">
                        <value>Castle Peak Road – Chau Tau</value>
                    </Data>
                    <Data name="country_code">
                        <value>cn</value>
                    </Data>
                    <Data name="country">
                        <value>PRC</value>
                    </Data>
                    <Data name="suburb">
                        <value>Lok Ma Chau</value>
                    </Data>
                    <Data name="county">
                        <value>Yuen Long District</value>
                    </Data>
                    <Data name="postcode">
                        <value>DD105 1275</value>
                    </Data>
                </ExtendedData>
            </Placemark>
            <Placemark>
                <address>龍山隧道萊洞出入口 Loi Tung Entrance and exit of Lung Shan Tunnel, Lung Shan Tunnel, Tin Sam, Kwan Tei, San Uk Tsai, North District, Hong Kong, DD76 2589, PRC</address>
                <Point>
                    <coordinates>114.1821277674,22.5181396230</coordinates>
                </Point>
                <ExtendedData>
                    <Data name="hamlet">
                        <value>San Uk Tsai</value>
                    </Data>
                    <Data name="building">
                        <value>龍山隧道萊洞出入口 Loi Tung Entrance and exit of Lung Shan Tunnel</value>
                    </Data>
                    <Data name="neighbourhood">
                        <value>Tin Sam</value>
                    </Data>
                    <Data name="road">
                        <value>Lung Shan Tunnel</value>
                    </Data>
                    <Data name="country_code">
                        <value>cn</value>
                    </Data>
                    <Data name="country">
                        <value>PRC</value>
                    </Data>
                    <Data name="suburb">
                        <value>Kwan Tei</value>
                    </Data>
                    <Data name="county">
                        <value>North District</value>
                    </Data>
                    <Data name="postcode">
                        <value>DD76 2589</value>
                    </Data>
                </ExtendedData>
            </Placemark>
            <Placemark>
                <address>Tsung Yuen Ha Tsuen Public Toilet, Lin Ma Hang Road, Ta Kwu Ling, Tsung Yuen Ha, North District, Hong Kong, DD78 353, PRC</address>
                <Point>
                    <coordinates>114.1561071922,22.5527777084</coordinates>
                </Point>
                <ExtendedData>
                    <Data name="hamlet">
                        <value>Tsung Yuen Ha</value>
                    </Data>
                    <Data name="road">
                        <value>Lin Ma Hang Road</value>
                    </Data>
                    <Data name="country_code">
                        <value>cn</value>
                    </Data>
                    <Data name="country">
                        <value>PRC</value>
                    </Data>
                    <Data name="suburb">
                        <value>Ta Kwu Ling</value>
                    </Data>
                    <Data name="toilets">
                        <value>Tsung Yuen Ha Tsuen Public Toilet</value>
                    </Data>
                    <Data name="county">
                        <value>North District</value>
                    </Data>
                    <Data name="postcode">
                        <value>DD78 353</value>
                    </Data>
                </ExtendedData>
            </Placemark>
        </Folder>
        <Document>
            <name>98.7 km; 01:58 h (OSRM)</name>
            <Placemark>
                <name>Route</name>
                <LineString>
                    <coordinates>114.1560490000,22.5527200000 114.1559400000,22.5528140000 114.1558590000,22.5528680000 114.1557970000,22.5529320000 114.1557820000,22.5529480000 114.1557790000,22.5529610000 114.1557750000,22.5529780000 114.1556080000,22.5530720000 114.1555400000,22.5531010000 114.1555530000,22.5534100000 114.1555440000,22.5534500000 114.1555200000,22.5534900000 114.1554950000,22.5535200000 114.1554620000,22.5535500000 114.1554350000,22.5535100000 114.1554100000,22.5534600000 114.1553930000,22.5534100000 114.1553800000,22.5533500000 114.1553700000,22.5532800000 114.1553490000,22.5527160000 114.1552880000,22.5521000000 114.1552720000,22.5518000000 114.1552680000,22.5515000000 114.1552650000,22.5510800000 114.1552610000,22.5510300000 114.1552540000,22.5509800000 114.1552450000,22.5509300000 114.1552330000,22.5508800000 114.1552180000,22.5508300000 114.1552000000,22.5507800000 114.1551810000,22.5507300000 114.1551650000,22.5506900000 114.1551470000,22.5506500000 114.1551240000,22.5506100000 114.1550020000,22.5504000000 114.1549820000,22.5503600000 114.1549600000,22.5503100000 114.1549410000,22.5502600000 114.1549250000,22.5502100000 114.1549120000,22.5501600000 114.1549010000,22.5501100000 114.1548910000,22.5500600000 114.1548850000,22.5500100000 114.1548820000,22.5499600000 114.1548800000,22.5499000000 114.1548920000,22.5496500000 114.1548900000,22.5496000000 114.1548820000,22.5495600000 114.1548700000,22.5495200000 114.1548550000,22.5494800000 114.1548350000,22.5494400000 114.1548100000,22.5494000000 114.1547800000,22.5493610000 114.1547480000,22.5493310000 114.1547100000,22.5493020000 114.1546700000,22.5492780000 114.1546300000,22.5492570000 114.1545900000,22.5492400000 114.1545500000,22.5492280000 114.1545000000,22.5492180000 114.1544500000,22.5492150000 114.1544000000,22.5492130000 114.1539160000,22.5492150000 114.1538100000,22.5492150000 114.1537400000,22.5492060000 114.1536700000,22.5491900000 114.1536000000,22.5491700000 114.1535500000,22.5491530000 114.1532530000,22.5490310000 114.1531000000,22.5489600000 114.1529970000,22.5489080000 114.1529500000,22.5488800000 114.1529000000,22.5488470000 114.1528500000,22.5488100000 114.1528000000,22.5487630000 114.1527450000,22.5487080000 114.1527340000,22.5486810000 114.1526200000,22.5486820000 114.1524800000,22.5486520000 114.1524440000,22.5486400000 114.1523550000,22.5486120000 114.1522380000,22.5485750000 114.1523620000,22.5482660000 114.1523750000,22.5482180000 114.1523990000,22.5481370000 114.1524190000,22.5480650000 114.1524510000,22.5480720000 114.1524830000,22.5480700000 114.1524990000,22.5480630000 114.1525120000,22.5480580000 114.1525360000,22.5480370000 114.1525510000,22.5480110000 114.1525560000,22.5479810000 114.1525500000,22.5479520000 114.1525830000,22.5479190000 114.1526300000,22.5478330000 114.1526560000,22.5477710000 114.1526930000,22.5474970000 114.1526890000,22.5470710000 114.1526750000,22.5468820000 114.1526640000,22.5467160000 114.1526560000,22.5465740000 114.1526280000,22.5460350000 114.1526240000,22.5459550000 114.1526180000,22.5458850000 114.1525940000,22.5455510000 114.1525830000,22.5451080000 114.1526050000,22.5446420000 114.1527460000,22.5442240000 114.1528520000,22.5438490000 114.1530690000,22.5434110000 114.1532650000,22.5430940000 114.1534450000,22.5428650000 114.1537770000,22.5425090000 114.1541410000,22.5421080000 114.1551150000,22.5411960000 114.1554140000,22.5409320000 114.1555370000,22.5408360000 114.1558210000,22.5406540000 114.1560980000,22.5405240000 114.1562760000,22.5404550000 114.1570310000,22.5402550000 114.1581250000,22.5399630000 114.1608180000,22.5391860000 114.1633360000,22.5383820000 114.1642960000,22.5380830000 114.1646990000,22.5379380000 114.1653340000,22.5376150000 114.1657360000,22.5373910000 114.1659330000,22.5372370000 114.1660710000,22.5371170000 114.1661490000,22.5370490000 114.1664560000,22.5367830000 114.1665030000,22.5367130000 114.1672350000,22.5356510000 114.1689260000,22.5330460000 114.1698630000,22.5316370000 114.1701630000,22.5311450000 114.1704840000,22.5307120000 114.1709460000,22.5301840000 114.1713710000,22.5297460000 114.1716950000,22.5294050000 114.1717750000,22.5293210000 114.1718250000,22.5292720000 114.1718540000,22.5292420000 114.1745080000,22.5275270000 114.1756450000,22.5266990000 114.1765220000,22.5257810000 114.1772950000,22.5247870000 114.1773200000,22.5247470000 114.1773520000,22.5246930000 114.1773980000,22.5246180000 114.1774390000,22.5245500000 114.1776740000,22.5241850000 114.1777060000,22.5241270000 114.1781510000,22.5233250000 114.1788950000,22.5222580000 114.1792170000,22.5218760000 114.1796320000,22.5213690000 114.1802900000,22.5207040000 114.1803600000,22.5206270000 114.1816260000,22.5194000000 114.1817290000,22.5192990000 114.1820680000,22.5190110000 114.1822880000,22.5187700000 114.1823930000,22.5186490000 114.1824870000,22.5185250000 114.1825110000,22.5184820000 114.1825290000,22.5184510000 114.1826080000,22.5183080000 114.1826290000,22.5182690000 114.1828090000,22.5179610000 114.1829200000,22.5175720000 114.1829210000,22.5170250000 114.1828660000,22.5164370000 114.1826200000,22.5157960000 114.1824020000,22.5154590000 114.1821370000,22.5151630000 114.1818480000,22.5149240000 114.1773420000,22.5126640000 114.1750670000,22.5110780000 114.1747660000,22.5107510000 114.1687030000,22.5038390000 114.1660550000,22.5008490000 114.1575390000,22.4881300000 114.1563130000,22.4862980000 114.1558750000,22.4855280000 114.1553790000,22.4846400000 114.1553400000,22.4845700000 114.1553260000,22.4845410000 114.1552930000,22.4844710000 114.1552310000,22.4843570000 114.1551710000,22.4842250000 114.1550600000,22.4839610000 114.1549890000,22.4837930000 114.1548180000,22.4834230000 114.1546990000,22.4831850000 114.1545900000,22.4828910000 114.1544970000,22.4826290000 114.1544470000,22.4823260000 114.1544250000,22.4822060000 114.1544280000,22.4819650000 114.1544350000,22.4818580000 114.1544490000,22.4816490000 114.1544680000,22.4814150000 114.1544960000,22.4812440000 114.1545370000,22.4810500000 114.1546100000,22.4807600000 114.1546820000,22.4804180000 114.1547260000,22.4800740000 114.1547750000,22.4796600000 114.1547870000,22.4793760000 114.1547770000,22.4790780000 114.1547630000,22.4788260000 114.1547460000,22.4786290000 114.1547180000,22.4785100000 114.1546540000,22.4783730000 114.1545710000,22.4782330000 114.1544840000,22.4781320000 114.1543490000,22.4780280000 114.1542740000,22.4779830000 114.1541750000,22.4779430000 114.1540660000,22.4779120000 114.1539450000,22.4778940000 114.1537890000,22.4779090000 114.1536570000,22.4779450000 114.1535330000,22.4780000000 114.1534080000,22.4780670000 114.1532950000,22.4781540000 114.1531690000,22.4783200000 114.1531340000,22.4784530000 114.1531160000,22.4785370000 114.1531140000,22.4786710000 114.1531210000,22.4787660000 114.1531360000,22.4788240000 114.1531960000,22.4790530000 114.1532470000,22.4792090000 114.1534110000,22.4796010000 114.1534800000,22.4798560000 114.1535280000,22.4800440000 114.1535510000,22.4801840000 114.1535890000,22.4804540000 114.1535740000,22.4807180000 114.1535480000,22.4809430000 114.1534940000,22.4816150000 114.1533970000,22.4823220000 114.1533260000,22.4826570000 114.1532850000,22.4828760000 114.1532220000,22.4830990000 114.1531370000,22.4833450000 114.1530700000,22.4835070000 114.1530030000,22.4836270000 114.1528620000,22.4838730000 114.1527910000,22.4839880000 114.1527010000,22.4841260000 114.1525300000,22.4843300000 114.1523270000,22.4845160000 114.1518790000,22.4848500000 114.1513960000,22.4851570000 114.1502320000,22.4858920000 114.1495300000,22.4862970000 114.1490840000,22.4865250000 114.1487370000,22.4866930000 114.1484030000,22.4868240000 114.1481120000,22.4869330000 114.1464550000,22.4875260000 114.1459770000,22.4876810000 114.1454560000,22.4878540000 114.1446400000,22.4880920000 114.1442410000,22.4882120000 114.1441180000,22.4882440000 114.1435140000,22.4884150000 114.1432440000,22.4884990000 114.1429990000,22.4885750000 114.1427040000,22.4886860000 114.1424690000,22.4887800000 114.1422140000,22.4888970000 114.1417430000,22.4891330000 114.1412880000,22.4894200000 114.1408240000,22.4897540000 114.1403470000,22.4901410000 114.1393340000,22.4910040000 114.1389050000,22.4913500000 114.1384010000,22.4917340000 114.1379930000,22.4920740000 114.1363950000,22.4934970000 114.1354050000,22.4943780000 114.1343170000,22.4953470000 114.1337490000,22.4958120000 114.1333450000,22.4961050000 114.1331480000,22.4962490000 114.1324930000,22.4966850000 114.1320430000,22.4969620000 114.1315490000,22.4972400000 114.1314930000,22.4972710000 114.1313700000,22.4973400000 114.1310020000,22.4975470000 114.1309150000,22.4975970000 114.1308000000,22.4976650000 114.1306260000,22.4977650000 114.1302290000,22.4979730000 114.1297680000,22.4981810000 114.1291540000,22.4984210000 114.1284830000,22.4986530000 114.1283130000,22.4987060000 114.1281110000,22.4987620000 114.1276500000,22.4988810000 114.1267770000,22.4991060000 114.1256880000,22.4993800000 114.1252310000,22.4995100000 114.1244480000,22.4997790000 114.1236600000,22.5000660000 114.1228460000,22.5003960000 114.1220110000,22.5007910000 114.1212110000,22.5012260000 114.1210580000,22.5013050000 114.1200850000,22.5018180000 114.1197380000,22.5019720000 114.1194270000,22.5020810000 114.1190770000,22.5021660000 114.1186450000,22.5022230000 114.1181280000,22.5022530000 114.1177570000,22.5022530000 114.1173440000,22.5022190000 114.1164180000,22.5021120000 114.1159240000,22.5020560000 114.1155500000,22.5020130000 114.1150920000,22.5019900000 114.1147120000,22.5019950000 114.1143160000,22.5020300000 114.1134410000,22.5021520000 114.1111400000,22.5024830000 114.1101430000,22.5026110000 114.1092710000,22.5027090000 114.1073400000,22.5028560000 114.1056640000,22.5029750000 114.1049990000,22.5030240000 114.0974150000,22.5036190000 114.0963870000,22.5036960000 114.0934750000,22.5039100000 114.0904970000,22.5041290000 114.0898710000,22.5041590000 114.0893780000,22.5041720000 114.0892330000,22.5041760000 114.0886180000,22.5041480000 114.0881970000,22.5041120000 114.0878000000,22.5040630000 114.0874240000,22.5040010000 114.0868790000,22.5039000000 114.0864430000,22.5037880000 114.0859680000,22.5036530000 114.0857310000,22.5035640000 114.0853260000,22.5033270000 114.0849200000,22.5031350000 114.0846500000,22.5029950000 114.0842980000,22.5027710000 114.0838480000,22.5024640000 114.0835020000,22.5022220000 114.0834030000,22.5021550000 114.0830980000,22.5019240000 114.0827500000,22.5016250000 114.0825660000,22.5014970000 114.0822600000,22.5013670000 114.0821990000,22.5012870000 114.0821180000,22.5012220000 114.0820490000,22.5011860000 114.0819730000,22.5011630000 114.0818940000,22.5011530000 114.0818140000,22.5011560000 114.0817360000,22.5011720000 114.0816720000,22.5011960000 114.0816120000,22.5012290000 114.0815590000,22.5012700000 114.0815140000,22.5013190000 114.0814770000,22.5013730000 114.0814500000,22.5014320000 114.0814330000,22.5014970000 114.0814280000,22.5015630000 114.0814340000,22.5016290000 114.0814430000,22.5016630000 114.0814520000,22.5016930000 114.0814880000,22.5017690000 114.0815330000,22.5018270000 114.0815890000,22.5018780000 114.0816530000,22.5019180000 114.0817230000,22.5019480000 114.0817610000,22.5019570000 114.0817990000,22.5019650000 114.0820490000,22.5021480000 114.0825730000,22.5025010000 114.0826620000,22.5025680000 114.0828390000,22.5027390000 114.0828860000,22.5028080000 114.0829050000,22.5028610000 114.0829160000,22.5029160000 114.0829140000,22.5029710000 114.0829010000,22.5030620000 114.0828800000,22.5031350000 114.0828190000,22.5033100000 114.0827620000,22.5034020000 114.0827190000,22.5034480000 114.0826650000,22.5034770000 114.0826060000,22.5034950000 114.0825460000,22.5035020000 114.0824870000,22.5035010000 114.0824200000,22.5034890000 114.0822270000,22.5034040000 114.0819450000,22.5032540000 114.0819450000,22.5032540000 114.0815830000,22.5030570000 114.0815080000,22.5030160000 114.0813750000,22.5029360000 114.0812870000,22.5028710000 114.0810910000,22.5027170000 114.0810200000,22.5026430000 114.0806690000,22.5023030000 114.0805360000,22.5022010000 114.0802840000,22.5019600000 114.0801800000,22.5017490000 114.0801650000,22.5016750000 114.0801770000,22.5015490000 114.0802170000,22.5013870000 114.0804010000,22.5011900000 114.0804560000,22.5011370000 114.0805190000,22.5011040000 114.0805950000,22.5010830000 114.0806770000,22.5010840000 114.0807400000,22.5010990000 114.0807950000,22.5011230000 114.0808900000,22.5011920000 114.0810480000,22.5013140000 114.0813400000,22.5015290000 114.0813800000,22.5015620000 114.0814050000,22.5015920000 114.0814270000,22.5016320000 114.0814400000,22.5016630000 114.0814520000,22.5016930000 114.0814880000,22.5017690000 114.0815330000,22.5018270000 114.0815890000,22.5018780000 114.0816530000,22.5019180000 114.0817230000,22.5019480000 114.0817610000,22.5019570000 114.0817990000,22.5019650000 114.0818660000,22.5019710000 114.0819340000,22.5019660000 114.0820000000,22.5019530000 114.0820630000,22.5019300000 114.0821290000,22.5018940000 114.0821880000,22.5018470000 114.0822370000,22.5017920000 114.0822740000,22.5017290000 114.0822990000,22.5016610000 114.0823100000,22.5016020000 114.0823120000,22.5015410000 114.0823040000,22.5014810000 114.0822870000,22.5014230000 114.0822600000,22.5013670000 114.0821990000,22.5012870000 114.0821180000,22.5012220000 114.0820340000,22.5010670000 114.0816010000,22.5007020000 114.0813150000,22.5004660000 114.0808070000,22.5000260000 114.0806830000,22.4999130000 114.0804010000,22.4996700000 114.0800880000,22.4993620000 114.0797790000,22.4989730000 114.0792660000,22.4984400000 114.0781880000,22.4970000000 114.0780060000,22.4967820000 114.0778450000,22.4965940000 114.0776620000,22.4964150000 114.0774580000,22.4962470000 114.0772220000,22.4960880000 114.0769330000,22.4959100000 114.0766220000,22.4957610000 114.0763000000,22.4956220000 114.0758170000,22.4954740000 114.0734120000,22.4948180000 114.0732130000,22.4947640000 114.0694070000,22.4937270000 114.0690930000,22.4936390000 114.0656570000,22.4926980000 114.0642620000,22.4922920000 114.0638650000,22.4921730000 114.0635110000,22.4920240000 114.0631890000,22.4918850000 114.0628460000,22.4917270000 114.0624590000,22.4915190000 114.0621270000,22.4913100000 114.0617840000,22.4910720000 114.0614620000,22.4908150000 114.0611830000,22.4905770000 114.0608290000,22.4902500000 114.0605820000,22.4899820000 114.0602710000,22.4896150000 114.0600260000,22.4893030000 114.0597690000,22.4889060000 114.0594900000,22.4884400000 114.0592540000,22.4879640000 114.0590390000,22.4874290000 114.0588680000,22.4868540000 114.0587600000,22.4862990000 114.0586640000,22.4856750000 114.0583630000,22.4805890000 114.0583050000,22.4799730000 114.0582730000,22.4794870000 114.0582280000,22.4792060000 114.0581690000,22.4788520000 114.0581450000,22.4787240000 114.0580690000,22.4783670000 114.0579510000,22.4779800000 114.0578120000,22.4775840000 114.0576400000,22.4771280000 114.0573610000,22.4765330000 114.0570180000,22.4759180000 114.0567610000,22.4754420000 114.0565900000,22.4749990000 114.0565170000,22.4748740000 114.0563960000,22.4745800000 114.0562240000,22.4740340000 114.0556980000,22.4720220000 114.0555400000,22.4713970000 114.0553730000,22.4707510000 114.0550650000,22.4694860000 114.0546550000,22.4678420000 114.0523890000,22.4586130000 114.0521630000,22.4576710000 114.0520240000,22.4571560000 114.0518840000,22.4567490000 114.0517340000,22.4564120000 114.0515730000,22.4561150000 114.0513480000,22.4557780000 114.0510480000,22.4553810000 114.0501830000,22.4544330000 114.0498860000,22.4541130000 114.0496510000,22.4537880000 114.0494500000,22.4534760000 114.0493000000,22.4532290000 114.0491390000,22.4529410000 114.0490000000,22.4526630000 114.0488710000,22.4523660000 114.0487320000,22.4519890000 114.0486240000,22.4516220000 114.0485490000,22.4512350000 114.0485170000,22.4510170000 114.0484630000,22.4506110000 114.0484420000,22.4502340000 114.0484380000,22.4501150000 114.0484310000,22.4498570000 114.0484740000,22.4494310000 114.0485170000,22.4490340000 114.0485810000,22.4486870000 114.0486670000,22.4483400000 114.0487850000,22.4479530000 114.0489250000,22.4475270000 114.0490430000,22.4471200000 114.0490930000,22.4470000000 114.0494010000,22.4462650000 114.0495150000,22.4459900000 114.0499120000,22.4451870000 114.0500570000,22.4449580000 114.0502760000,22.4445320000 114.0505090000,22.4441380000 114.0506630000,22.4438980000 114.0511030000,22.4432930000 114.0515210000,22.4427670000 114.0515640000,22.4427220000 114.0516480000,22.4426430000 114.0520840000,22.4421920000 114.0525380000,22.4417980000 114.0529800000,22.4414190000 114.0552440000,22.4397030000 114.0566270000,22.4387340000 114.0574420000,22.4381680000 114.0580760000,22.4376940000 114.0586750000,22.4372040000 114.0591920000,22.4367400000 114.0596270000,22.4363460000 114.0601230000,22.4358700000 114.0607360000,22.4352330000 114.0611550000,22.4347070000 114.0617550000,22.4338640000 114.0622730000,22.4331580000 114.0626900000,22.4324490000 114.0630580000,22.4316410000 114.0633420000,22.4308540000 114.0635560000,22.4301880000 114.0638320000,22.4291520000 114.0640530000,22.4281040000 114.0641500000,22.4274210000 114.0642720000,22.4259930000 114.0643150000,22.4243600000 114.0643190000,22.4232760000 114.0643020000,22.4220230000 114.0642750000,22.4215430000 114.0642570000,22.4213660000 114.0641580000,22.4204600000 114.0640030000,22.4189740000 114.0639950000,22.4189290000 114.0638760000,22.4183200000 114.0635200000,22.4166570000 114.0634500000,22.4161790000 114.0633480000,22.4155790000 114.0632220000,22.4150740000 114.0630650000,22.4145840000 114.0628950000,22.4141420000 114.0626700000,22.4136450000 114.0623410000,22.4130610000 114.0610200000,22.4108000000 114.0609240000,22.4106400000 114.0608370000,22.4104800000 114.0607560000,22.4103200000 114.0606700000,22.4101500000 114.0605900000,22.4099800000 114.0605150000,22.4098100000 114.0604420000,22.4096400000 114.0603740000,22.4094700000 114.0603150000,22.4093000000 114.0602650000,22.4091500000 114.0602190000,22.4090000000 114.0601790000,22.4088600000 114.0601310000,22.4086900000 114.0600910000,22.4085300000 114.0600550000,22.4083790000 114.0600430000,22.4083300000 114.0600010000,22.4081530000 114.0599670000,22.4080000000 114.0599350000,22.4078400000 114.0599080000,22.4076800000 114.0598880000,22.4075200000 114.0598690000,22.4073600000 114.0598510000,22.4072000000 114.0598350000,22.4070400000 114.0598260000,22.4068800000 114.0598220000,22.4067200000 114.0598200000,22.4065600000 114.0598200000,22.4064000000 114.0598220000,22.4062400000 114.0598260000,22.4060800000 114.0598320000,22.4059200000 114.0598410000,22.4057600000 114.0598540000,22.4056000000 114.0598690000,22.4054400000 114.0598910000,22.4052500000 114.0599270000,22.4049690000 114.0637180000,22.3811750000 114.0637550000,22.3810000000 114.0637950000,22.3808300000 114.0638400000,22.3806600000 114.0638870000,22.3804900000 114.0639380000,22.3803100000 114.0639920000,22.3801310000 114.0640500000,22.3799600000 114.0641120000,22.3797900000 114.0641800000,22.3796200000 114.0642480000,22.3794600000 114.0643150000,22.3793030000 114.0643830000,22.3791500000 114.0644610000,22.3789900000 114.0645400000,22.3788400000 114.0646200000,22.3786900000 114.0647230000,22.3785000000 114.0648310000,22.3783200000 114.0649400000,22.3781500000 114.0650520000,22.3779800000 114.0651700000,22.3778100000 114.0652900000,22.3776450000 114.0654130000,22.3774800000 114.0655400000,22.3773200000 114.0656660000,22.3771710000 114.0658010000,22.3770150000 114.0659500000,22.3768540000 114.0661020000,22.3766950000 114.0662500000,22.3765450000 114.0664000000,22.3764000000 114.0665500000,22.3762610000 114.0667140000,22.3761200000 114.0668830000,22.3759780000 114.0672200000,22.3757280000 114.0673840000,22.3756120000 114.0675860000,22.3754680000 114.0682370000,22.3750400000 114.0688590000,22.3745820000 114.0691710000,22.3743530000 114.0692520000,22.3742940000 114.0701770000,22.3737060000 114.0713690000,22.3729280000 114.0734950000,22.3716110000 114.0750530000,22.3706420000 114.0753200000,22.3704760000 114.0755740000,22.3703150000 114.0758210000,22.3701600000 114.0760750000,22.3699840000 114.0763020000,22.3698280000 114.0765090000,22.3696660000 114.0766860000,22.3695240000 114.0768870000,22.3693440000 114.0770660000,22.3691490000 114.0772400000,22.3689350000 114.0773870000,22.3687280000 114.0775940000,22.3684210000 114.0779680000,22.3677150000 114.0783000000,22.3670880000 114.0785960000,22.3665690000 114.0819110000,22.3602270000 114.0825020000,22.3591100000 114.0825850000,22.3589570000 114.0827900000,22.3586820000 114.0829930000,22.3583180000 114.0834750000,22.3574640000 114.0836750000,22.3571410000 114.0838070000,22.3570150000 114.0839520000,22.3568150000 114.0840630000,22.3566640000 114.0843560000,22.3563530000 114.0849050000,22.3559050000 114.0850610000,22.3556890000 114.0851500000,22.3555470000 114.0852420000,22.3553740000 114.0852960000,22.3552360000 114.0853320000,22.3550740000 114.0853400000,22.3548670000 114.0853350000,22.3547110000 114.0853140000,22.3545660000 114.0852480000,22.3543840000 114.0851500000,22.3541890000 114.0850440000,22.3540390000 114.0849290000,22.3539080000 114.0847580000,22.3537620000 114.0845960000,22.3536690000 114.0844560000,22.3535940000 114.0842850000,22.3535360000 114.0840170000,22.3534620000 114.0837540000,22.3534130000 114.0834060000,22.3533780000 114.0829810000,22.3533400000 114.0827130000,22.3533160000 114.0825240000,22.3532920000 114.0823050000,22.3532570000 114.0820940000,22.3532100000 114.0818650000,22.3531560000 114.0809840000,22.3529310000 114.0807580000,22.3529290000 114.0628910000,22.3479420000 114.0621920000,22.3477430000 114.0617970000,22.3476210000 114.0613990000,22.3474890000 114.0610110000,22.3473460000 114.0606270000,22.3471880000 114.0602360000,22.3470150000 114.0598750000,22.3468400000 114.0595140000,22.3466480000 114.0591600000,22.3464470000 114.0588470000,22.3462540000 114.0585430000,22.3460600000 114.0525500000,22.3421550000 114.0519850000,22.3418020000 114.0517420000,22.3416520000 114.0514980000,22.3415220000 114.0511970000,22.3413840000 114.0509050000,22.3412690000 114.0504640000,22.3411370000 114.0501150000,22.3410650000 114.0496320000,22.3409870000 114.0488040000,22.3409060000 114.0482030000,22.3408520000 114.0472620000,22.3407500000 114.0466410000,22.3406480000 114.0460530000,22.3405040000 114.0458190000,22.3404340000 114.0456190000,22.3403700000 114.0453110000,22.3402400000 114.0449720000,22.3400670000 114.0440850000,22.3395510000 114.0432940000,22.3391030000 114.0404020000,22.3378420000 114.0397780000,22.3375450000 114.0393360000,22.3373640000 114.0390890000,22.3372750000 114.0387840000,22.3371820000 114.0384720000,22.3371100000 114.0380410000,22.3370070000 114.0375410000,22.3369040000 114.0371380000,22.3368240000 114.0367080000,22.3367090000 114.0364270000,22.3366290000 114.0362160000,22.3365560000 114.0356310000,22.3362720000 114.0350000000,22.3359860000 114.0347060000,22.3358240000 114.0343530000,22.3356130000 114.0341460000,22.3354760000 114.0339830000,22.3353600000 114.0336100000,22.3350840000 114.0332640000,22.3347990000 114.0329400000,22.3345180000 114.0325290000,22.3340850000 114.0322440000,22.3337070000 114.0321120000,22.3335020000 114.0319740000,22.3332200000 114.0318820000,22.3329920000 114.0318010000,22.3327120000 114.0317740000,22.3325760000 114.0317460000,22.3323970000 114.0317370000,22.3322320000 114.0317200000,22.3320090000 114.0317420000,22.3316630000 114.0318350000,22.3311820000 114.0319430000,22.3308580000 114.0320800000,22.3305760000 114.0322930000,22.3302070000 114.0326140000,22.3296570000 114.0329180000,22.3290860000 114.0333050000,22.3284140000 114.0337020000,22.3277570000 114.0340090000,22.3273360000 114.0342480000,22.3270450000 114.0345910000,22.3266790000 114.0348980000,22.3263790000 114.0352940000,22.3260340000 114.0357090000,22.3257330000 114.0361680000,22.3254110000 114.0367210000,22.3250930000 114.0378230000,22.3246050000 114.0385710000,22.3243510000 114.0397910000,22.3238880000 114.0399890000,22.3238410000 114.0401430000,22.3238400000 114.0402770000,22.3238950000 114.0403950000,22.3239100000 114.0405130000,22.3238960000 114.0406240000,22.3238560000 114.0407270000,22.3237840000 114.0408050000,22.3236890000 114.0408520000,22.3235770000 114.0408640000,22.3234580000 114.0408410000,22.3233410000 114.0407830000,22.3232340000 114.0406960000,22.3231460000 114.0405870000,22.3230830000 114.0404910000,22.3229920000 114.0404210000,22.3229150000 114.0402970000,22.3227150000 114.0400610000,22.3220780000 114.0396940000,22.3207740000 114.0395030000,22.3201900000 114.0394970000,22.3200960000 114.0395040000,22.3200210000 114.0395270000,22.3198940000 114.0395680000,22.3198420000 114.0396250000,22.3197530000 114.0396550000,22.3196520000 114.0397060000,22.3195710000 114.0399100000,22.3194550000 114.0407740000,22.3191460000 114.0417960000,22.3187840000 114.0419160000,22.3187410000 114.0418530000,22.3185780000 114.0418270000,22.3185050000 114.0418090000,22.3184560000 114.0418030000,22.3183860000 114.0418110000,22.3183220000 114.0418430000,22.3182530000 114.0419240000,22.3181940000 114.0427580000,22.3179200000 114.0430010000,22.3178420000 114.0430440000,22.3178260000 114.0431050000,22.3178090000 114.0436510000,22.3175950000 114.0437940000,22.3175000000 114.0439230000,22.3173640000 114.0441230000,22.3171360000 114.0442490000,22.3169920000 114.0442780000,22.3169280000 114.0442690000,22.3168300000 114.0442500000,22.3166170000 114.0442430000,22.3165450000 114.0442430000,22.3165450000 114.0442220000,22.3164550000 114.0440180000,22.3164440000 114.0436770000,22.3164610000 114.0431520000,22.3165280000 114.0426770000,22.3166100000 114.0427310000,22.3168080000 114.0427820000,22.3169960000 114.0428370000,22.3171980000 114.0428700000,22.3173170000 114.0428790000,22.3173540000 114.0428910000,22.3174060000 114.0428980000,22.3174340000 114.0429060000,22.3174680000 114.0429020000,22.3175130000 114.0428520000,22.3176540000 114.0427740000,22.3177480000 114.0427160000,22.3177760000 114.0426590000,22.3178030000 114.0418640000,22.3180760000 114.0417010000,22.3181430000 114.0416290000,22.3182320000 114.0416170000,22.3183440000 114.0417000000,22.3185490000 114.0417300000,22.3186210000 114.0407130000,22.3189760000 114.0396990000,22.3193100000 114.0395290000,22.3193100000 114.0394480000,22.3192530000 114.0393550000,22.3192140000 114.0392550000,22.3191970000 114.0391530000,22.3192020000 114.0390570000,22.3192280000 114.0389710000,22.3192740000 114.0388970000,22.3193370000 114.0388320000,22.3194330000 114.0387980000,22.3195420000 114.0387990000,22.3196560000 114.0388330000,22.3197610000 114.0388970000,22.3198550000 114.0389850000,22.3199280000 114.0390880000,22.3199750000 114.0391310000,22.3199880000 114.0392080000,22.3200670000 114.0393080000,22.3202270000 114.0395470000,22.3210460000 114.0398000000,22.3219390000 114.0400350000,22.3226930000 114.0400570000,22.3228290000 114.0400600000,22.3229430000 114.0400540000,22.3230600000 114.0400450000,22.3231940000 114.0400040000,22.3232450000 114.0399710000,22.3233020000 114.0398640000,22.3233590000 114.0397530000,22.3234100000 114.0390310000,22.3236540000 114.0386790000,22.3237740000 114.0384140000,22.3238870000 114.0380690000,22.3240590000 114.0365650000,22.3248510000 114.0359840000,22.3252620000 114.0351450000,22.3259020000 114.0346820000,22.3263130000 114.0342700000,22.3267460000 114.0338410000,22.3272450000 114.0335450000,22.3276550000 114.0328280000,22.3287350000 114.0325410000,22.3292230000 114.0322890000,22.3296620000 114.0321370000,22.3299080000 114.0318540000,22.3303640000 114.0315940000,22.3308150000 114.0314230000,22.3311760000 114.0313200000,22.3314370000 114.0312580000,22.3317310000 114.0312140000,22.3321000000 114.0312090000,22.3324050000 114.0312290000,22.3326850000 114.0312820000,22.3329800000 114.0314100000,22.3333700000 114.0315460000,22.3337240000 114.0317400000,22.3340080000 114.0319310000,22.3342500000 114.0321420000,22.3345020000 114.0323660000,22.3347460000 114.0327630000,22.3350710000 114.0332360000,22.3354130000 114.0336250000,22.3356700000 114.0339810000,22.3358910000 114.0343380000,22.3360750000 114.0344950000,22.3361340000 114.0352490000,22.3364490000 114.0355250000,22.3365430000 114.0360790000,22.3367460000 114.0366460000,22.3369090000 114.0370510000,22.3370060000 114.0374980000,22.3370760000 114.0380100000,22.3371620000 114.0384370000,22.3372490000 114.0388250000,22.3373460000 114.0392640000,22.3374860000 114.0397170000,22.3376620000 114.0403300000,22.3379590000 114.0409450000,22.3382610000 114.0430490000,22.3395020000 114.0438450000,22.3398740000 114.0444670000,22.3401500000 114.0450310000,22.3403730000 114.0457530000,22.3405940000 114.0460570000,22.3406770000 114.0466800000,22.3408170000 114.0473730000,22.3409100000 114.0482450000,22.3409950000 114.0487620000,22.3410670000 114.0496140000,22.3411750000 114.0500720000,22.3412490000 114.0504120000,22.3413120000 114.0508330000,22.3414360000 114.0511730000,22.3415610000 114.0514230000,22.3416710000 114.0516610000,22.3417990000 114.0518850000,22.3419290000 114.0520460000,22.3420240000 114.0524520000,22.3422840000 114.0584460000,22.3461890000 114.0587520000,22.3463840000 114.0590690000,22.3465800000 114.0594270000,22.3467830000 114.0597930000,22.3469780000 114.0601590000,22.3471560000 114.0605560000,22.3473310000 114.0609450000,22.3474910000 114.0613390000,22.3476360000 114.0617410000,22.3477700000 114.0621400000,22.3478920000 114.0628380000,22.3480920000 114.0807100000,22.3530780000 114.0815240000,22.3533110000 114.0816810000,22.3533950000 114.0820430000,22.3535190000 114.0821840000,22.3535790000 114.0823730000,22.3536570000 114.0825460000,22.3537670000 114.0827210000,22.3538910000 114.0829990000,22.3540730000 114.0831560000,22.3542420000 114.0833090000,22.3544430000 114.0834070000,22.3546400000 114.0835130000,22.3549360000 114.0835890000,22.3552150000 114.0836430000,22.3554670000 114.0836500000,22.3557430000 114.0836490000,22.3559990000 114.0836240000,22.3562260000 114.0835440000,22.3565220000 114.0834440000,22.3567510000 114.0831110000,22.3574770000 114.0827160000,22.3583350000 114.0823470000,22.3590330000 114.0817280000,22.3601470000 114.0784010000,22.3664850000 114.0777670000,22.3675880000 114.0777150000,22.3677360000 114.0774160000,22.3683250000 114.0773160000,22.3685090000 114.0770930000,22.3688420000 114.0769400000,22.3690480000 114.0767580000,22.3692520000 114.0765560000,22.3694450000 114.0763760000,22.3695940000 114.0761870000,22.3697450000 114.0760250000,22.3698660000 114.0757800000,22.3700540000 114.0755210000,22.3702260000 114.0752510000,22.3703950000 114.0734230000,22.3715160000 114.0724300000,22.3721370000 114.0714360000,22.3727580000 114.0700810000,22.3735450000 114.0691650000,22.3740570000 114.0686690000,22.3743500000 114.0680660000,22.3746770000 114.0674440000,22.3750520000 114.0671190000,22.3752480000 114.0671050000,22.3752570000 114.0669000000,22.3753850000 114.0667150000,22.3755200000 114.0665630000,22.3756400000 114.0664200000,22.3757600000 114.0662790000,22.3758800000 114.0661410000,22.3760010000 114.0660170000,22.3761210000 114.0658870000,22.3762500000 114.0657670000,22.3763700000 114.0656400000,22.3765000000 114.0655140000,22.3766300000 114.0653940000,22.3767600000 114.0652830000,22.3768900000 114.0651700000,22.3770250000 114.0650620000,22.3771600000 114.0649600000,22.3772950000 114.0648600000,22.3774300000 114.0647660000,22.3775610000 114.0646670000,22.3777000000 114.0645780000,22.3778300000 114.0644870000,22.3779700000 114.0643920000,22.3781210000 114.0643070000,22.3782700000 114.0642190000,22.3784300000 114.0641320000,22.3785900000 114.0640530000,22.3787400000 114.0639750000,22.3789000000 114.0639000000,22.3790600000 114.0638300000,22.3792200000 114.0637600000,22.3793850000 114.0636900000,22.3795600000 114.0636290000,22.3797200000 114.0635680000,22.3799000000 114.0635100000,22.3800800000 114.0634500000,22.3802800000 114.0633950000,22.3804800000 114.0633400000,22.3807000000 114.0632940000,22.3809100000 114.0632710000,22.3810420000 114.0593990000,22.4053980000 114.0593770000,22.4055790000 114.0593560000,22.4058000000 114.0593450000,22.4060000000 114.0593400000,22.4062000000 114.0593380000,22.4063500000 114.0593370000,22.4065000000 114.0593370000,22.4066500000 114.0593410000,22.4068000000 114.0593500000,22.4069800000 114.0593600000,22.4071500000 114.0593800000,22.4073700000 114.0594000000,22.4075600000 114.0594200000,22.4077300000 114.0594450000,22.4079000000 114.0594710000,22.4080600000 114.0595100000,22.4082430000 114.0595450000,22.4084000000 114.0595900000,22.4086000000 114.0596400000,22.4088000000 114.0596880000,22.4089500000 114.0597400000,22.4091000000 114.0597940000,22.4092500000 114.0598500000,22.4094000000 114.0599200000,22.4095600000 114.0599900000,22.4097100000 114.0600640000,22.4098600000 114.0601400000,22.4100100000 114.0602250000,22.4101600000 114.0603170000,22.4103100000 114.0603800000,22.4104100000 114.0604160000,22.4104600000 114.0605880000,22.4107290000 114.0621750000,22.4131710000 114.0623450000,22.4134530000 114.0624790000,22.4137160000 114.0626320000,22.4140050000 114.0627740000,22.4143430000 114.0629310000,22.4147790000 114.0630260000,22.4150800000 114.0631030000,22.4153860000 114.0631600000,22.4156780000 114.0632030000,22.4159050000 114.0632440000,22.4161640000 114.0633070000,22.4166640000 114.0633480000,22.4172350000 114.0633840000,22.4182370000 114.0634610000,22.4189950000 114.0634650000,22.4190400000 114.0636610000,22.4200300000 114.0638150000,22.4206580000 114.0639010000,22.4209710000 114.0639970000,22.4213920000 114.0640270000,22.4215360000 114.0640500000,22.4216920000 114.0640990000,22.4220490000 114.0641190000,22.4232790000 114.0640870000,22.4259440000 114.0640220000,22.4268200000 114.0639200000,22.4277240000 114.0637770000,22.4285930000 114.0635410000,22.4296160000 114.0632550000,22.4305100000 114.0629540000,22.4313360000 114.0626350000,22.4320300000 114.0622920000,22.4327040000 114.0618090000,22.4334780000 114.0612940000,22.4342310000 114.0607250000,22.4349550000 114.0600050000,22.4357480000 114.0595240000,22.4362250000 114.0592950000,22.4364300000 114.0588160000,22.4368590000 114.0581290000,22.4374250000 114.0573570000,22.4380100000 114.0565380000,22.4385440000 114.0551350000,22.4395660000 114.0528590000,22.4413090000 114.0525830000,22.4415180000 114.0521860000,22.4418550000 114.0517580000,22.4422580000 114.0512860000,22.4427720000 114.0509410000,22.4431830000 114.0506780000,22.4435630000 114.0503510000,22.4440780000 114.0500900000,22.4445150000 114.0499770000,22.4446820000 114.0497800000,22.4450950000 114.0495290000,22.4456110000 114.0492980000,22.4461380000 114.0489890000,22.4468030000 114.0488280000,22.4472790000 114.0486670000,22.4477350000 114.0484950000,22.4482710000 114.0483880000,22.4487270000 114.0483410000,22.4488710000 114.0483130000,22.4491930000 114.0482490000,22.4496790000 114.0482490000,22.4501150000 114.0482700000,22.4506210000 114.0482970000,22.4508400000 114.0483450000,22.4510870000 114.0484010000,22.4513600000 114.0484740000,22.4516220000 114.0485710000,22.4520090000 114.0487210000,22.4524250000 114.0488820000,22.4528020000 114.0490640000,22.4531590000 114.0492790000,22.4535560000 114.0494050000,22.4537570000 114.0495070000,22.4538910000 114.0497440000,22.4542000000 114.0503300000,22.4548650000 114.0507180000,22.4552730000 114.0508580000,22.4554290000 114.0510920000,22.4557020000 114.0513380000,22.4560690000 114.0515200000,22.4564010000 114.0515880000,22.4565590000 114.0517160000,22.4568310000 114.0519130000,22.4573490000 114.0521200000,22.4580910000 114.0521930000,22.4583940000 114.0541640000,22.4666500000 114.0549320000,22.4695170000 114.0552480000,22.4707920000 114.0554120000,22.4714140000 114.0555720000,22.4720290000 114.0561060000,22.4740940000 114.0562830000,22.4746300000 114.0564070000,22.4749210000 114.0564600000,22.4750430000 114.0566710000,22.4754880000 114.0569220000,22.4759660000 114.0572390000,22.4765930000 114.0573800000,22.4769120000 114.0575120000,22.4771870000 114.0577050000,22.4776530000 114.0578660000,22.4781390000 114.0579940000,22.4785950000 114.0580450000,22.4788630000 114.0580800000,22.4790510000 114.0581070000,22.4792310000 114.0581340000,22.4794080000 114.0581660000,22.4798740000 114.0582130000,22.4805690000 114.0585030000,22.4855160000 114.0585780000,22.4861110000 114.0586850000,22.4866760000 114.0588030000,22.4871320000 114.0590070000,22.4877270000 114.0592430000,22.4882620000 114.0595440000,22.4887870000 114.0598650000,22.4892930000 114.0601640000,22.4897140000 114.0605600000,22.4901800000 114.0608820000,22.4905070000 114.0612360000,22.4908150000 114.0616330000,22.4911220000 114.0617150000,22.4911780000 114.0620290000,22.4913940000 114.0620950000,22.4914390000 114.0624710000,22.4916710000 114.0628760000,22.4918900000 114.0633010000,22.4920970000 114.0637250000,22.4922620000 114.0641980000,22.4924210000 114.0653240000,22.4927180000 114.0661830000,22.4930020000 114.0690560000,22.4937500000 114.0693710000,22.4938350000 114.0731790000,22.4948720000 114.0733800000,22.4949280000 114.0757530000,22.4955730000 114.0762030000,22.4957310000 114.0766000000,22.4958900000 114.0769110000,22.4960390000 114.0772010000,22.4962270000 114.0774370000,22.4964150000 114.0776840000,22.4966240000 114.0778880000,22.4968420000 114.0780550000,22.4970720000 114.0787410000,22.4979040000 114.0790490000,22.4984870000 114.0793390000,22.4989420000 114.0795490000,22.4992720000 114.0797940000,22.4996770000 114.0801190000,22.5001650000 114.0802080000,22.5003140000 114.0803110000,22.5004500000 114.0805230000,22.5007100000 114.0807650000,22.5009800000 114.0810480000,22.5013140000 114.0813400000,22.5015290000 114.0813800000,22.5015620000 114.0814050000,22.5015920000 114.0814270000,22.5016320000 114.0814400000,22.5016630000 114.0814520000,22.5016930000 114.0814880000,22.5017690000 114.0815330000,22.5018270000 114.0815890000,22.5018780000 114.0816530000,22.5019180000 114.0817230000,22.5019480000 114.0817610000,22.5019570000 114.0817990000,22.5019650000 114.0820490000,22.5021480000 114.0825730000,22.5025010000 114.0826620000,22.5025680000 114.0828390000,22.5027390000 114.0828860000,22.5028080000 114.0829050000,22.5028610000 114.0829160000,22.5029160000 114.0829140000,22.5029710000 114.0829010000,22.5030620000 114.0828800000,22.5031350000 114.0828190000,22.5033100000 114.0827620000,22.5034020000 114.0827190000,22.5034480000 114.0826650000,22.5034770000 114.0826060000,22.5034950000 114.0825460000,22.5035020000 114.0824870000,22.5035010000 114.0824200000,22.5034890000 114.0822270000,22.5034040000 114.0819450000,22.5032540000 114.0819190000,22.5032400000 114.0815830000,22.5030570000 114.0815080000,22.5030160000 114.0813750000,22.5029360000 114.0812870000,22.5028710000 114.0810910000,22.5027170000 114.0810200000,22.5026430000 114.0806690000,22.5023030000 114.0805360000,22.5022010000 114.0802840000,22.5019600000 114.0801800000,22.5017490000 114.0801650000,22.5016750000 114.0801770000,22.5015490000 114.0802170000,22.5013870000 114.0804010000,22.5011900000 114.0804560000,22.5011370000 114.0805190000,22.5011040000 114.0805950000,22.5010830000 114.0806770000,22.5010840000 114.0807400000,22.5010990000 114.0807950000,22.5011230000 114.0808900000,22.5011920000 114.0810480000,22.5013140000 114.0813400000,22.5015290000 114.0813800000,22.5015620000 114.0814050000,22.5015920000 114.0814270000,22.5016320000 114.0814400000,22.5016630000 114.0814520000,22.5016930000 114.0814880000,22.5017690000 114.0815330000,22.5018270000 114.0815890000,22.5018780000 114.0816530000,22.5019180000 114.0817230000,22.5019480000 114.0817610000,22.5019570000 114.0817990000,22.5019650000 114.0820490000,22.5021480000 114.0825730000,22.5025010000 114.0826620000,22.5025680000 114.0830620000,22.5027440000 114.0835170000,22.5029300000 114.0844540000,22.5032930000 114.0850630000,22.5035150000 114.0858260000,22.5037280000 114.0863240000,22.5038690000 114.0867970000,22.5039910000 114.0872700000,22.5040760000 114.0877270000,22.5041570000 114.0877740000,22.5041630000 114.0882670000,22.5042310000 114.0888750000,22.5042850000 114.0891540000,22.5042900000 114.0894880000,22.5042970000 114.0901250000,22.5042870000 114.0907370000,22.5042580000 114.0908670000,22.5042520000 114.0913330000,22.5042150000 114.0920270000,22.5041610000 114.0929120000,22.5040910000 114.0949490000,22.5039300000 114.0973530000,22.5037470000 114.1050390000,22.5031710000 114.1056990000,22.5031210000 114.1073460000,22.5030040000 114.1088480000,22.5028850000 114.1097490000,22.5028060000 114.1103390000,22.5027470000 114.1110470000,22.5026480000 114.1134180000,22.5022930000 114.1139430000,22.5022200000 114.1143400000,22.5021740000 114.1146500000,22.5021440000 114.1149510000,22.5021350000 114.1153060000,22.5021350000 114.1158370000,22.5021710000 114.1163570000,22.5022340000 114.1173010000,22.5023330000 114.1177270000,22.5023760000 114.1181040000,22.5023970000 114.1184490000,22.5023820000 114.1188570000,22.5023430000 114.1192970000,22.5022540000 114.1197370000,22.5021250000 114.1202730000,22.5018870000 114.1206820000,22.5016640000 114.1212880000,22.5013360000 114.1219570000,22.5009750000 114.1228370000,22.5005590000 114.1236610000,22.5002170000 114.1247910000,22.4998110000 114.1252630000,22.4996580000 114.1257230000,22.4995210000 114.1269640000,22.4992110000 114.1275580000,22.4990560000 114.1282100000,22.4988900000 114.1289490000,22.4986770000 114.1298060000,22.4983430000 114.1302610000,22.4981460000 114.1307610000,22.4978970000 114.1309110000,22.4978130000 114.1310070000,22.4977590000 114.1314610000,22.4975060000 114.1315960000,22.4974310000 114.1316840000,22.4973810000 114.1322310000,22.4970540000 114.1328430000,22.4966480000 114.1332860000,22.4963410000 114.1338550000,22.4959230000 114.1344200000,22.4954460000 114.1380690000,22.4921690000 114.1384840000,22.4918290000 114.1389160000,22.4914710000 114.1397230000,22.4908070000 114.1406450000,22.4900220000 114.1411810000,22.4896490000 114.1415670000,22.4893940000 114.1418830000,22.4892160000 114.1424410000,22.4889300000 114.1430670000,22.4886890000 114.1433680000,22.4885900000 114.1437670000,22.4884670000 114.1444850000,22.4882710000 114.1456580000,22.4879200000 114.1461780000,22.4877490000 114.1478470000,22.4871580000 114.1482880000,22.4869960000 114.1488850000,22.4867790000 114.1490120000,22.4867280000 114.1491400000,22.4866810000 114.1495480000,22.4864900000 114.1500340000,22.4862130000 114.1505480000,22.4859140000 114.1510360000,22.4856720000 114.1513000000,22.4855400000 114.1513210000,22.4855280000 114.1516230000,22.4853740000 114.1518760000,22.4852290000 114.1521300000,22.4850790000 114.1523140000,22.4849430000 114.1524790000,22.4848020000 114.1526030000,22.4846800000 114.1528430000,22.4844300000 114.1530090000,22.4842270000 114.1531770000,22.4839690000 114.1532520000,22.4838320000 114.1533430000,22.4836740000 114.1533750000,22.4836170000 114.1534000000,22.4835730000 114.1535080000,22.4833950000 114.1536130000,22.4831830000 114.1538170000,22.4825660000 114.1539120000,22.4822430000 114.1539900000,22.4819460000 114.1540200000,22.4817320000 114.1540350000,22.4814930000 114.1540020000,22.4812410000 114.1539520000,22.4810050000 114.1539080000,22.4808060000 114.1537310000,22.4802820000 114.1535810000,22.4798710000 114.1533170000,22.4791190000 114.1532430000,22.4788680000 114.1532080000,22.4787330000 114.1532100000,22.4786290000 114.1532240000,22.4785140000 114.1532970000,22.4783240000 114.1534190000,22.4782130000 114.1535130000,22.4781310000 114.1536050000,22.4780790000 114.1537290000,22.4780390000 114.1538100000,22.4780280000 114.1539600000,22.4780270000 114.1540720000,22.4780480000 114.1542100000,22.4780960000 114.1543350000,22.4781740000 114.1544900000,22.4783350000 114.1545390000,22.4784390000 114.1545750000,22.4785770000 114.1545870000,22.4786940000 114.1545910000,22.4788940000 114.1545460000,22.4791840000 114.1544360000,22.4796740000 114.1544120000,22.4798690000 114.1543760000,22.4802670000 114.1543090000,22.4808180000 114.1542750000,22.4812360000 114.1542640000,22.4815270000 114.1542570000,22.4817860000 114.1542680000,22.4819470000 114.1543070000,22.4823590000 114.1543050000,22.4825440000 114.1543380000,22.4826900000 114.1544290000,22.4830460000 114.1545160000,22.4832600000 114.1546800000,22.4836570000 114.1547920000,22.4839000000 114.1548500000,22.4840270000 114.1550350000,22.4844430000 114.1550860000,22.4845330000 114.1551220000,22.4846050000 114.1551360000,22.4846320000 114.1551730000,22.4847230000 114.1560520000,22.4863610000 114.1657940000,22.5009120000 114.1744990000,22.5108810000 114.1747780000,22.5111710000 114.1765080000,22.5124670000 114.1770010000,22.5127750000 114.1779230000,22.5132600000 114.1793320000,22.5139580000 114.1815920000,22.5150860000 114.1818310000,22.5152620000 114.1821550000,22.5155710000 114.1823590000,22.5158590000 114.1826030000,22.5164620000 114.1826600000,22.5170880000 114.1826190000,22.5176360000 114.1824560000,22.5181920000 114.1824230000,22.5182410000 114.1824130000,22.5182560000 114.1824090000,22.5182640000 114.1823700000,22.5183390000 114.1822400000,22.5185220000 114.1821080000,22.5186870000 114.1820110000,22.5188080000 114.1816090000,22.5192290000 114.1814790000,22.5193660000 114.1802520000,22.5205290000 114.1801860000,22.5206020000 114.1795010000,22.5213080000 114.1790870000,22.5218200000 114.1787870000,22.5221970000 114.1774820000,22.5240870000 114.1772010000,22.5245180000 114.1771290000,22.5246300000 114.1770890000,22.5246900000 114.1765180000,22.5254700000 114.1762760000,22.5257370000 114.1757600000,22.5262600000 114.1754710000,22.5265700000 114.1744970000,22.5272660000 114.1736020000,22.5278480000 114.1719250000,22.5288730000 114.1716790000,22.5290430000 114.1715950000,22.5291190000 114.1715710000,22.5291410000 114.1715540000,22.5291610000 114.1714660000,22.5292740000 114.1713650000,22.5293790000 114.1711430000,22.5296270000 114.1709520000,22.5298310000 114.1708030000,22.5300180000 114.1704850000,22.5304150000 114.1703080000,22.5306580000 114.1700530000,22.5310410000 114.1697530000,22.5315360000 114.1688680000,22.5328900000 114.1671110000,22.5355820000 114.1664480000,22.5365550000 114.1663360000,22.5367200000 114.1660580000,22.5369610000 114.1659660000,22.5370410000 114.1658130000,22.5371740000 114.1656380000,22.5372920000 114.1650370000,22.5376410000 114.1646770000,22.5378170000 114.1642490000,22.5379890000 114.1632150000,22.5383050000 114.1626910000,22.5384750000 114.1618470000,22.5387350000 114.1608200000,22.5390500000 114.1604010000,22.5391750000 114.1590550000,22.5395740000 114.1579190000,22.5399190000 114.1569940000,22.5401140000 114.1568080000,22.5401600000 114.1564530000,22.5402580000 114.1560520000,22.5404050000 114.1558470000,22.5404920000 114.1555790000,22.5406390000 114.1553810000,22.5407810000 114.1551430000,22.5409750000 114.1547300000,22.5413830000 114.1539810000,22.5420260000 114.1536850000,22.5423640000 114.1533360000,22.5427570000 114.1531340000,22.5430380000 114.1529230000,22.5433740000 114.1528470000,22.5435080000 114.1526930000,22.5438250000 114.1526150000,22.5440520000 114.1525850000,22.5441350000 114.1524730000,22.5442150000 114.1523470000,22.5446310000 114.1522890000,22.5449490000 114.1522670000,22.5451220000 114.1522450000,22.5452560000 114.1522290000,22.5454150000 114.1522190000,22.5456260000 114.1522150000,22.5457780000 114.1522250000,22.5458920000 114.1522430000,22.5461190000 114.1523440000,22.5468150000 114.1523910000,22.5473040000 114.1523970000,22.5473900000 114.1523960000,22.5475570000 114.1523990000,22.5477380000 114.1523960000,22.5478580000 114.1523910000,22.5479170000 114.1523720000,22.5479410000 114.1523620000,22.5479690000 114.1523620000,22.5479980000 114.1523730000,22.5480260000 114.1523800000,22.5480340000 114.1523930000,22.5480490000 114.1524190000,22.5480650000 114.1523990000,22.5481370000 114.1523750000,22.5482180000 114.1523620000,22.5482660000 114.1522380000,22.5485750000 114.1523550000,22.5486120000 114.1524440000,22.5486400000 114.1524800000,22.5486520000 114.1526200000,22.5486820000 114.1527340000,22.5486810000 114.1527450000,22.5487080000 114.1528000000,22.5487630000 114.1528500000,22.5488100000 114.1529000000,22.5488470000 114.1529500000,22.5488800000 114.1529970000,22.5489080000 114.1531000000,22.5489600000 114.1532530000,22.5490310000 114.1535500000,22.5491530000 114.1536000000,22.5491700000 114.1536700000,22.5491900000 114.1537400000,22.5492060000 114.1538100000,22.5492150000 114.1539160000,22.5492150000 114.1544000000,22.5492130000 114.1544500000,22.5492150000 114.1545000000,22.5492180000 114.1545500000,22.5492280000 114.1545900000,22.5492400000 114.1546300000,22.5492570000 114.1546700000,22.5492780000 114.1547100000,22.5493020000 114.1547480000,22.5493310000 114.1547800000,22.5493610000 114.1548100000,22.5494000000 114.1548350000,22.5494400000 114.1548550000,22.5494800000 114.1548700000,22.5495200000 114.1548820000,22.5495600000 114.1548900000,22.5496000000 114.1548920000,22.5496500000 114.1548800000,22.5499000000 114.1548820000,22.5499600000 114.1548850000,22.5500100000 114.1548910000,22.5500600000 114.1549010000,22.5501100000 114.1549120000,22.5501600000 114.1549250000,22.5502100000 114.1549410000,22.5502600000 114.1549600000,22.5503100000 114.1549820000,22.5503600000 114.1550020000,22.5504000000 114.1551240000,22.5506100000 114.1551470000,22.5506500000 114.1551650000,22.5506900000 114.1551810000,22.5507300000 114.1552000000,22.5507800000 114.1552180000,22.5508300000 114.1552330000,22.5508800000 114.1552450000,22.5509300000 114.1552540000,22.5509800000 114.1552610000,22.5510300000 114.1552650000,22.5510800000 114.1552680000,22.5515000000 114.1552720000,22.5518000000 114.1552880000,22.5521000000 114.1553490000,22.5527160000 114.1553890000,22.5527170000 114.1554100000,22.5527180000 114.1554600000,22.5527300000 114.1554950000,22.5527480000 114.1555200000,22.5527800000 114.1555290000,22.5528200000 114.1555390000,22.5530670000 114.1555400000,22.5531010000 114.1556080000,22.5530720000 114.1557750000,22.5529780000 114.1557790000,22.5529610000 114.1557820000,22.5529480000 114.1557970000,22.5529320000 114.1558590000,22.5528680000 114.1559400000,22.5528140000 114.1560490000,22.5527200000</coordinates>
                </LineString>
                <ExtendedData>
                    <Data name="duration">
                        <value>01:58:53</value>
                    </Data>
                    <Data name="length">
                        <value>98707.04493770692</value>
                    </Data>
                </ExtendedData>
            </Placemark>
        </Document>
    </Document>
</kml>