<?xml version="1.0" encoding="UTF-8"?>
<kml xmlns="http://www.opengis.net/kml/2.2" xmlns:gx="http://www.google.com/kml/ext/2.2">
    <Document>
        <name>Route</name>
        <Folder>
            <name>Route Request</name>
            <Placemark>
                <Point>
                    <coordinates>113.9435784737,22.4970240342</coordinates>
                </Point>
                <ExtendedData>
                    <Data name="routingVisited">
                        <value>false</value>
                    </Data>
                </ExtendedData>
            </Placemark>
            <Placemark>
                <Point>
                    <coordinates>113.9792267992,22.4082677936</coordinates>
                </Point>
                <ExtendedData>
                    <Data name="routingVisited">
                        <value>false</value>
                    </Data>
                </ExtendedData>
            </Placemark>
            <Placemark>
                <Point>
                    <coordinates>113.9746101218,22.3951470262</coordinates>
                </Point>
            </Placemark>
            <Placemark>
                <Point>
                    <coordinates>113.9687290798,22.3790579886</coordinates>
                </Point>
            </Placemark>
            <Placemark>
                <Point>
                    <coordinates>113.9661239516,22.3754935926</coordinates>
                </Point>
                <ExtendedData>
                    <Data name="routingVisited">
                        <value>false</value>
                    </Data>
                </ExtendedData>
            </Placemark>
            <Placemark>
                <Point>
                    <coordinates>113.9672172177,22.3774743078</coordinates>
                </Point>
                <ExtendedData>
                    <Data name="routingVisited">
                        <value>false</value>
                    </Data>
                </ExtendedData>
            </Placemark>
            <Placemark>
                <Point>
                    <coordinates>113.9503298146,22.3170651940</coordinates>
                </Point>
            </Placemark>
            <Placemark>
                <Point>
                    <coordinates>114.0490737626,22.3165808225</coordinates>
                </Point>
            </Placemark>
            <Placemark>
                <Point>
                    <coordinates>113.9503593464,22.3171198360</coordinates>
                </Point>
            </Placemark>
            <Placemark>
                <Point>
                    <coordinates>113.9680887985,22.3771600822</coordinates>
                </Point>
                <ExtendedData>
                    <Data name="routingVisited">
                        <value>false</value>
                    </Data>
                </ExtendedData>
            </Placemark>
            <Placemark>
                <Point>
                    <coordinates>113.9669363023,22.3722560542</coordinates>
                </Point>
                <ExtendedData>
                    <Data name="routingVisited">
                        <value>false</value>
                    </Data>
                </ExtendedData>
            </Placemark>
            <Placemark>
                <Point>
                    <coordinates>113.9664342391,22.3770235445</coordinates>
                </Point>
                <ExtendedData>
                    <Data name="routingVisited">
                        <value>false</value>
                    </Data>
                </ExtendedData>
            </Placemark>
            <Placemark>
                <Point>
                    <coordinates>113.9694973602,22.3798775456</coordinates>
                </Point>
            </Placemark>
            <Placemark>
                <Point>
                    <coordinates>113.9766494037,22.4009935701</coordinates>
                </Point>
            </Placemark>
            <Placemark>
                <Point>
                    <coordinates>113.9822414641,22.4121744662</coordinates>
                </Point>
                <ExtendedData>
                    <Data name="routingVisited">
                        <value>false</value>
                    </Data>
                </ExtendedData>
            </Placemark>
            <Placemark>
                <Point>
                    <coordinates>113.9435784737,22.4970240342</coordinates>
                </Point>
                <ExtendedData>
                    <Data name="routingVisited">
                        <value>false</value>
                    </Data>
                </ExtendedData>
            </Placemark>
        </Folder>
        <Document>
            <name>92.0 km; 01:42 h (OSRM)</name>
            <Placemark>
                <name>Route</name>
                <LineString>
                    <coordinates>113.9430500000,22.4971030000 113.9430500000,22.4971030000 113.9430760000,22.4973020000 113.9430830000,22.4976180000 113.9430680000,22.4982040000 113.9430540000,22.4987380000 113.9430340000,22.4988230000 113.9429940000,22.4988960000 113.9429480000,22.4989490000 113.9428910000,22.4990140000 113.9428520000,22.4990460000 113.9427740000,22.4990800000 113.9427070000,22.4991010000 113.9426180000,22.4991140000 113.9422410000,22.4991140000 113.9421410000,22.4991400000 113.9420690000,22.4991760000 113.9419990000,22.4992330000 113.9419500000,22.4992970000 113.9419000000,22.4993670000 113.9418660000,22.4994310000 113.9418430000,22.4995030000 113.9418330000,22.4995860000 113.9418260000,22.4997150000 113.9417910000,22.5015240000 113.9417800000,22.5021910000 113.9415270000,22.5021880000 113.9403400000,22.5021780000 113.9403160000,22.5035890000 113.9403110000,22.5038570000 113.9403060000,22.5047530000 113.9403010000,22.5047920000 113.9402970000,22.5048100000 113.9402830000,22.5048310000 113.9402640000,22.5048430000 113.9402370000,22.5048520000 113.9402050000,22.5048550000 113.9401580000,22.5048560000 113.9401060000,22.5048410000 113.9399640000,22.5048370000 113.9391790000,22.5048280000 113.9391240000,22.5048340000 113.9390690000,22.5048620000 113.9390320000,22.5048970000 113.9390060000,22.5049380000 113.9389920000,22.5049930000 113.9389560000,22.5066750000 113.9389430000,22.5072870000 113.9389360000,22.5076260000 113.9389600000,22.5076970000 113.9389920000,22.5077590000 113.9390380000,22.5078160000 113.9390910000,22.5078650000 113.9391710000,22.5079180000 113.9392610000,22.5079570000 113.9418440000,22.5079860000 113.9422840000,22.5078540000 113.9423330000,22.5078120000 113.9423740000,22.5077610000 113.9424000000,22.5076860000 113.9424070000,22.5074630000 113.9423050000,22.5071290000 113.9422930000,22.5070470000 113.9422940000,22.5069580000 113.9423120000,22.5068720000 113.9423840000,22.5066590000 113.9424220000,22.5065260000 113.9424360000,22.5064430000 113.9424390000,22.5064000000 113.9424380000,22.5063060000 113.9424360000,22.5061930000 113.9424460000,22.5060990000 113.9424640000,22.5060030000 113.9425070000,22.5058980000 113.9425810000,22.5058010000 113.9426700000,22.5057120000 113.9427420000,22.5056570000 113.9428140000,22.5056140000 113.9429040000,22.5055770000 113.9429960000,22.5055520000 113.9430970000,22.5055370000 113.9431820000,22.5055290000 113.9434950000,22.5055300000 113.9435220000,22.5055270000 113.9435620000,22.5055150000 113.9435940000,22.5054910000 113.9436170000,22.5054560000 113.9436270000,22.5054240000 113.9436310000,22.5053920000 113.9436390000,22.5048940000 113.9436430000,22.5046650000 113.9436440000,22.5045790000 113.9436450000,22.5044750000 113.9436480000,22.5043570000 113.9436560000,22.5038530000 113.9436570000,22.5038270000 113.9436570000,22.5037930000 113.9436580000,22.5037640000 113.9436580000,22.5037430000 113.9436580000,22.5036820000 113.9436610000,22.5035550000 113.9436720000,22.5028850000 113.9436740000,22.5028470000 113.9436760000,22.5028110000 113.9436790000,22.5027710000 113.9436840000,22.5027310000 113.9436880000,22.5027060000 113.9436960000,22.5026420000 113.9437070000,22.5025710000 113.9437260000,22.5024960000 113.9437500000,22.5024220000 113.9437690000,22.5023760000 113.9437930000,22.5023320000 113.9438910000,22.5022070000 113.9445520000,22.5015730000 113.9447690000,22.5013760000 113.9451050000,22.5011170000 113.9453560000,22.5009440000 113.9454240000,22.5008960000 113.9454970000,22.5008420000 113.9455690000,22.5007780000 113.9456280000,22.5007160000 113.9456910000,22.5006410000 113.9457460000,22.5005610000 113.9458040000,22.5004690000 113.9458420000,22.5003930000 113.9458690000,22.5002850000 113.9458900000,22.5001810000 113.9458980000,22.5000750000 113.9459050000,22.4997570000 113.9459310000,22.4986260000 113.9459580000,22.4961010000 113.9459610000,22.4959150000 113.9459580000,22.4957210000 113.9459510000,22.4955200000 113.9459400000,22.4952920000 113.9459170000,22.4949000000 113.9459140000,22.4948450000 113.9459100000,22.4943820000 113.9459150000,22.4939530000 113.9459570000,22.4912400000 113.9459670000,22.4905490000 113.9459780000,22.4903300000 113.9459850000,22.4902140000 113.9460030000,22.4900870000 113.9460250000,22.4899490000 113.9460470000,22.4898350000 113.9460660000,22.4897440000 113.9460960000,22.4896260000 113.9461300000,22.4895020000 113.9461800000,22.4893610000 113.9462330000,22.4892260000 113.9463050000,22.4890600000 113.9463720000,22.4889230000 113.9464530000,22.4887630000 113.9465800000,22.4885120000 113.9466990000,22.4882830000 113.9468020000,22.4880930000 113.9470310000,22.4877020000 113.9472330000,22.4873610000 113.9472730000,22.4872990000 113.9474770000,22.4869950000 113.9475560000,22.4868600000 113.9481980000,22.4857640000 113.9487020000,22.4849040000 113.9488210000,22.4847010000 113.9489410000,22.4844960000 113.9490550000,22.4843050000 113.9491690000,22.4841200000 113.9492940000,22.4839140000 113.9494200000,22.4837110000 113.9495480000,22.4835130000 113.9496700000,22.4833260000 113.9498020000,22.4831240000 113.9499330000,22.4829290000 113.9500720000,22.4827230000 113.9502120000,22.4825210000 113.9503480000,22.4823200000 113.9504840000,22.4821270000 113.9506270000,22.4819310000 113.9507610000,22.4817460000 113.9509030000,22.4815530000 113.9510440000,22.4813670000 113.9511840000,22.4811780000 113.9513200000,22.4810030000 113.9514630000,22.4808190000 113.9515980000,22.4806480000 113.9517330000,22.4804800000 113.9518720000,22.4803080000 113.9520170000,22.4801290000 113.9521610000,22.4799550000 113.9523260000,22.4797590000 113.9524890000,22.4795680000 113.9526400000,22.4793930000 113.9527880000,22.4792210000 113.9529450000,22.4790480000 113.9530970000,22.4788810000 113.9532540000,22.4787070000 113.9534110000,22.4785380000 113.9535720000,22.4783680000 113.9537380000,22.4781900000 113.9538930000,22.4780270000 113.9540580000,22.4778570000 113.9542220000,22.4776900000 113.9543980000,22.4775170000 113.9547220000,22.4772040000 113.9553240000,22.4766330000 113.9559840000,22.4759960000 113.9574270000,22.4746000000 113.9578850000,22.4741720000 113.9612120000,22.4709660000 113.9613750000,22.4708060000 113.9615450000,22.4706350000 113.9617090000,22.4704700000 113.9618750000,22.4702980000 113.9620300000,22.4701370000 113.9621900000,22.4699690000 113.9623520000,22.4697960000 113.9625170000,22.4696180000 113.9626710000,22.4694490000 113.9628310000,22.4692700000 113.9629800000,22.4691040000 113.9631310000,22.4689310000 113.9632880000,22.4687500000 113.9634470000,22.4685650000 113.9636000000,22.4683850000 113.9637550000,22.4681990000 113.9638990000,22.4680250000 113.9640440000,22.4678480000 113.9641890000,22.4676670000 113.9643290000,22.4674890000 113.9644710000,22.4673070000 113.9646210000,22.4671120000 113.9647600000,22.4669300000 113.9649010000,22.4667420000 113.9650420000,22.4665540000 113.9651810000,22.4663630000 113.9653170000,22.4661730000 113.9654480000,22.4659890000 113.9655840000,22.4657950000 113.9657230000,22.4655960000 113.9658560000,22.4654020000 113.9659920000,22.4651990000 113.9661220000,22.4650030000 113.9662510000,22.4648020000 113.9663820000,22.4645990000 113.9665090000,22.4644010000 113.9666350000,22.4642010000 113.9667540000,22.4640090000 113.9668710000,22.4638150000 113.9669910000,22.4636140000 113.9671070000,22.4634180000 113.9672250000,22.4632160000 113.9673400000,22.4630120000 113.9674540000,22.4628120000 113.9675680000,22.4626080000 113.9676810000,22.4624010000 113.9677880000,22.4622020000 113.9678970000,22.4619990000 113.9687540000,22.4604090000 113.9688630000,22.4602100000 113.9689680000,22.4600110000 113.9690790000,22.4598070000 113.9691990000,22.4595900000 113.9693010000,22.4594030000 113.9694130000,22.4591980000 113.9695240000,22.4590050000 113.9696450000,22.4587970000 113.9697630000,22.4585980000 113.9698830000,22.4583960000 113.9700030000,22.4582000000 113.9701280000,22.4579970000 113.9702510000,22.4578010000 113.9703740000,22.4576070000 113.9704950000,22.4574190000 113.9706180000,22.4572340000 113.9707390000,22.4570480000 113.9708710000,22.4568500000 113.9710010000,22.4566580000 113.9711400000,22.4564540000 113.9712750000,22.4562640000 113.9714130000,22.4560660000 113.9715440000,22.4558860000 113.9716830000,22.4556990000 113.9718150000,22.4555210000 113.9719700000,22.4553240000 113.9723830000,22.4547730000 113.9729400000,22.4540320000 113.9732150000,22.4536750000 113.9733580000,22.4534910000 113.9734960000,22.4533280000 113.9736680000,22.4531380000 113.9738060000,22.4529850000 113.9739410000,22.4528480000 113.9741020000,22.4526850000 113.9743370000,22.4524680000 113.9743730000,22.4524350000 113.9744850000,22.4523320000 113.9746050000,22.4522240000 113.9747500000,22.4521070000 113.9750860000,22.4518340000 113.9751050000,22.4518200000 113.9752890000,22.4516780000 113.9754900000,22.4515170000 113.9755850000,22.4514420000 113.9756900000,22.4513530000 113.9757920000,22.4512650000 113.9758690000,22.4511920000 113.9759700000,22.4510950000 113.9760630000,22.4509990000 113.9761550000,22.4508930000 113.9762300000,22.4508040000 113.9763000000,22.4507180000 113.9763660000,22.4506300000 113.9764740000,22.4504760000 113.9765860000,22.4502950000 113.9766780000,22.4501410000 113.9767630000,22.4499920000 113.9769390000,22.4496860000 113.9770440000,22.4495130000 113.9771410000,22.4493710000 113.9772360000,22.4492370000 113.9773340000,22.4491020000 113.9774320000,22.4489930000 113.9775500000,22.4488710000 113.9776650000,22.4487660000 113.9777810000,22.4486680000 113.9778880000,22.4485870000 113.9779940000,22.4485130000 113.9780990000,22.4484470000 113.9786590000,22.4481850000 113.9792060000,22.4480020000 113.9797440000,22.4478560000 113.9803720000,22.4476580000 113.9807440000,22.4474970000 113.9811400000,22.4472740000 113.9820130000,22.4465800000 113.9827630000,22.4459850000 113.9832520000,22.4455760000 113.9836030000,22.4452070000 113.9839590000,22.4447940000 113.9848910000,22.4434390000 113.9851750000,22.4430130000 113.9853920000,22.4426390000 113.9855720000,22.4422330000 113.9856970000,22.4418440000 113.9857960000,22.4414030000 113.9858190000,22.4410050000 113.9858190000,22.4406200000 113.9857540000,22.4400540000 113.9855120000,22.4387330000 113.9852330000,22.4372390000 113.9850040000,22.4361860000 113.9846820000,22.4351430000 113.9843100000,22.4342010000 113.9839140000,22.4334210000 113.9834770000,22.4326340000 113.9832250000,22.4321390000 113.9829920000,22.4315700000 113.9828680000,22.4312340000 113.9826930000,22.4305640000 113.9826180000,22.4301420000 113.9825600000,22.4296760000 113.9825330000,22.4291450000 113.9825480000,22.4286030000 113.9826090000,22.4280210000 113.9826930000,22.4274970000 113.9829100000,22.4266930000 113.9831660000,22.4260150000 113.9835090000,22.4253390000 113.9840330000,22.4243910000 113.9842770000,22.4239820000 113.9849320000,22.4228890000 113.9854720000,22.4221030000 113.9856880000,22.4218160000 113.9859550000,22.4214650000 113.9862110000,22.4211480000 113.9863650000,22.4209730000 113.9865680000,22.4207630000 113.9868330000,22.4205020000 113.9871430000,22.4202200000 113.9873940000,22.4200070000 113.9877640000,22.4197410000 113.9878660000,22.4196820000 113.9879830000,22.4196220000 113.9880960000,22.4195730000 113.9882120000,22.4195300000 113.9883380000,22.4194900000 113.9884720000,22.4194570000 113.9885790000,22.4194390000 113.9887120000,22.4194250000 113.9888150000,22.4194210000 113.9889160000,22.4194190000 113.9890140000,22.4194200000 113.9901880000,22.4194730000 113.9903590000,22.4194770000 113.9904900000,22.4194770000 113.9905850000,22.4194720000 113.9906820000,22.4194630000 113.9907750000,22.4194480000 113.9908700000,22.4194270000 113.9909750000,22.4194000000 113.9910670000,22.4193680000 113.9911710000,22.4193270000 113.9912730000,22.4192790000 113.9913650000,22.4192310000 113.9914670000,22.4191660000 113.9915400000,22.4191110000 113.9916230000,22.4190390000 113.9917100000,22.4189590000 113.9917820000,22.4188820000 113.9918540000,22.4187940000 113.9919090000,22.4187170000 113.9919610000,22.4186320000 113.9920010000,22.4185560000 113.9920450000,22.4184620000 113.9920780000,22.4183750000 113.9921060000,22.4182840000 113.9921290000,22.4181800000 113.9921430000,22.4180820000 113.9921540000,22.4179760000 113.9921580000,22.4178700000 113.9921520000,22.4177640000 113.9921290000,22.4176340000 113.9920420000,22.4172800000 113.9920040000,22.4171890000 113.9919570000,22.4171030000 113.9919020000,22.4170160000 113.9918380000,22.4169290000 113.9917620000,22.4168400000 113.9916740000,22.4167510000 113.9916080000,22.4166920000 113.9915370000,22.4166370000 113.9914530000,22.4165750000 113.9913720000,22.4165180000 113.9912880000,22.4164720000 113.9910720000,22.4163690000 113.9909890000,22.4163320000 113.9907270000,22.4162290000 113.9903730000,22.4160890000 113.9902420000,22.4160430000 113.9901100000,22.4159990000 113.9899310000,22.4159530000 113.9897570000,22.4159100000 113.9894550000,22.4158430000 113.9892880000,22.4158090000 113.9889240000,22.4157510000 113.9885570000,22.4156950000 113.9883690000,22.4156690000 113.9869590000,22.4155110000 113.9867580000,22.4154830000 113.9867070000,22.4154750000 113.9864960000,22.4154460000 113.9862110000,22.4154110000 113.9856980000,22.4153560000 113.9853460000,22.4153290000 113.9848130000,22.4153010000 113.9843950000,22.4152380000 113.9841320000,22.4152110000 113.9839680000,22.4151960000 113.9838180000,22.4151740000 113.9836560000,22.4151270000 113.9835190000,22.4150830000 113.9833740000,22.4150310000 113.9832480000,22.4149600000 113.9831110000,22.4148580000 113.9828380000,22.4146820000 113.9827210000,22.4146190000 113.9826040000,22.4145660000 113.9824850000,22.4145500000 113.9824810000,22.4144420000 113.9824800000,22.4143960000 113.9824730000,22.4143260000 113.9824480000,22.4140320000 113.9824280000,22.4137950000 113.9824150000,22.4136450000 113.9824010000,22.4134280000 113.9823960000,22.4133470000 113.9823860000,22.4130400000 113.9823890000,22.4126660000 113.9823880000,22.4125560000 113.9823900000,22.4124500000 113.9823870000,22.4119100000 113.9823820000,22.4112330000 113.9823740000,22.4110250000 113.9823740000,22.4110160000 113.9823720000,22.4109680000 113.9823560000,22.4103110000 113.9823490000,22.4101810000 113.9823410000,22.4100870000 113.9823290000,22.4099920000 113.9823050000,22.4098500000 113.9822750000,22.4097250000 113.9822500000,22.4096480000 113.9822190000,22.4095700000 113.9821820000,22.4094940000 113.9821380000,22.4094140000 113.9820890000,22.4093390000 113.9820350000,22.4092660000 113.9819730000,22.4091870000 113.9819110000,22.4091190000 113.9818610000,22.4090720000 113.9818080000,22.4090250000 113.9817490000,22.4089770000 113.9816890000,22.4089310000 113.9816150000,22.4088850000 113.9815220000,22.4088300000 113.9814360000,22.4087870000 113.9813520000,22.4087520000 113.9812560000,22.4087180000 113.9811760000,22.4086950000 113.9810940000,22.4086760000 113.9808780000,22.4086470000 113.9807230000,22.4086420000 113.9806820000,22.4086410000 113.9803390000,22.4086350000 113.9802250000,22.4086310000 113.9801300000,22.4086270000 113.9800280000,22.4086030000 113.9799220000,22.4085760000 113.9797960000,22.4085560000 113.9797060000,22.4085260000 113.9796670000,22.4085110000 113.9796350000,22.4084980000 113.9795390000,22.4084540000 113.9795110000,22.4084300000 113.9794540000,22.4083820000 113.9794210000,22.4083610000 113.9793740000,22.4083320000 113.9793420000,22.4083120000 113.9792850000,22.4082670000 113.9792520000,22.4082410000 113.9791870000,22.4081900000 113.9791560000,22.4081540000 113.9791280000,22.4081190000 113.9790520000,22.4080280000 113.9790140000,22.4079620000 113.9789760000,22.4078990000 113.9789550000,22.4078580000 113.9789250000,22.4078010000 113.9788650000,22.4075970000 113.9788310000,22.4074470000 113.9787240000,22.4069420000 113.9786200000,22.4064380000 113.9785990000,22.4062850000 113.9785870000,22.4061400000 113.9785910000,22.4060150000 113.9786010000,22.4058920000 113.9786380000,22.4057490000 113.9786610000,22.4056840000 113.9786930000,22.4056010000 113.9787230000,22.4055330000 113.9787640000,22.4054550000 113.9788040000,22.4053860000 113.9788480000,22.4053170000 113.9789040000,22.4052320000 113.9789690000,22.4051400000 113.9791340000,22.4049170000 113.9792840000,22.4047160000 113.9793890000,22.4045550000 113.9794360000,22.4044700000 113.9794780000,22.4043800000 113.9795080000,22.4043040000 113.9795310000,22.4042270000 113.9795520000,22.4041360000 113.9795630000,22.4040510000 113.9795680000,22.4039530000 113.9795600000,22.4038270000 113.9795340000,22.4036680000 113.9794890000,22.4035030000 113.9794370000,22.4033610000 113.9793870000,22.4032350000 113.9792470000,22.4029170000 113.9791940000,22.4028050000 113.9787970000,22.4020560000 113.9784100000,22.4013330000 113.9781880000,22.4008800000 113.9781160000,22.4007350000 113.9780020000,22.4007550000 113.9779350000,22.4007660000 113.9778820000,22.4007750000 113.9776020000,22.4008300000 113.9769170000,22.4009650000 113.9767510000,22.4009810000 113.9765800000,22.4009740000 113.9764820000,22.4009570000 113.9763850000,22.4009270000 113.9763010000,22.4008640000 113.9761580000,22.4007540000 113.9759820000,22.4005310000 113.9758720000,22.4003880000 113.9755890000,22.3999810000 113.9754520000,22.3997640000 113.9754110000,22.3995960000 113.9753950000,22.3994710000 113.9753890000,22.3992490000 113.9753890000,22.3992410000 113.9753750000,22.3990870000 113.9753430000,22.3989060000 113.9751980000,22.3983320000 113.9751450000,22.3981150000 113.9751170000,22.3980200000 113.9751280000,22.3979650000 113.9751250000,22.3979330000 113.9751170000,22.3978370000 113.9750680000,22.3976820000 113.9750050000,22.3974240000 113.9748540000,22.3968600000 113.9747970000,22.3966550000 113.9746260000,22.3959950000 113.9746200000,22.3959730000 113.9745870000,22.3958660000 113.9745670000,22.3957910000 113.9745380000,22.3956910000 113.9745340000,22.3956660000 113.9745270000,22.3956200000 113.9744950000,22.3954350000 113.9745060000,22.3952620000 113.9745210000,22.3951800000 113.9745370000,22.3951280000 113.9745510000,22.3950840000 113.9745890000,22.3949630000 113.9746140000,22.3948900000 113.9746380000,22.3948350000 113.9746570000,22.3947910000 113.9746990000,22.3946740000 113.9747520000,22.3945320000 113.9747600000,22.3945100000 113.9747830000,22.3944550000 113.9748240000,22.3943340000 113.9748560000,22.3942080000 113.9749150000,22.3940810000 113.9749300000,22.3940470000 113.9749800000,22.3939780000 113.9750020000,22.3939450000 113.9751750000,22.3933980000 113.9752810000,22.3929730000 113.9753170000,22.3925260000 113.9753160000,22.3919480000 113.9753050000,22.3917350000 113.9753020000,22.3916390000 113.9752910000,22.3912590000 113.9752890000,22.3911890000 113.9752830000,22.3910200000 113.9753330000,22.3900960000 113.9753390000,22.3899800000 113.9753400000,22.3898760000 113.9753700000,22.3886420000 113.9753620000,22.3879360000 113.9753620000,22.3879240000 113.9753610000,22.3878840000 113.9753600000,22.3877990000 113.9753570000,22.3876380000 113.9753510000,22.3874400000 113.9753490000,22.3873510000 113.9753470000,22.3873160000 113.9753390000,22.3866490000 113.9753300000,22.3853840000 113.9753180000,22.3851980000 113.9752950000,22.3848270000 113.9752790000,22.3846280000 113.9752750000,22.3845610000 113.9752540000,22.3841710000 113.9752220000,22.3837750000 113.9751940000,22.3831020000 113.9752040000,22.3829790000 113.9752430000,22.3828080000 113.9753160000,22.3826350000 113.9753860000,22.3824860000 113.9754550000,22.3823620000 113.9753980000,22.3823380000 113.9753470000,22.3823150000 113.9753210000,22.3823050000 113.9751930000,22.3822520000 113.9735770000,22.3815690000 113.9734550000,22.3815170000 113.9732260000,22.3814190000 113.9725320000,22.3811190000 113.9719650000,22.3808700000 113.9716950000,22.3807620000 113.9715560000,22.3807080000 113.9713640000,22.3806230000 113.9710800000,22.3805140000 113.9709310000,22.3804840000 113.9707830000,22.3804730000 113.9705530000,22.3804750000 113.9704150000,22.3804800000 113.9703930000,22.3804810000 113.9703290000,22.3804860000 113.9702880000,22.3804890000 113.9702040000,22.3805000000 113.9701730000,22.3804170000 113.9701290000,22.3803300000 113.9700210000,22.3801270000 113.9699350000,22.3799960000 113.9698350000,22.3798830000 113.9696470000,22.3797400000 113.9690120000,22.3793760000 113.9686540000,22.3791670000 113.9678730000,22.3787100000 113.9675320000,22.3785060000 113.9673270000,22.3783550000 113.9671650000,22.3782060000 113.9669870000,22.3779410000 113.9669190000,22.3777980000 113.9668730000,22.3776960000 113.9668350000,22.3776070000 113.9665990000,22.3770540000 113.9664110000,22.3765040000 113.9663900000,22.3764340000 113.9661030000,22.3754990000 113.9658200000,22.3745750000 113.9657910000,22.3744830000 113.9654650000,22.3734180000 113.9654320000,22.3733160000 113.9657480000,22.3732410000 113.9659950000,22.3731770000 113.9661410000,22.3731390000 113.9662630000,22.3731070000 113.9666440000,22.3730090000 113.9668550000,22.3729520000 113.9673070000,22.3728510000 113.9673880000,22.3728340000 113.9679080000,22.3727240000 113.9679910000,22.3727150000 113.9680890000,22.3727150000 113.9681670000,22.3727030000 113.9682130000,22.3726970000 113.9683040000,22.3726910000 113.9683390000,22.3726890000 113.9683660000,22.3726880000 113.9684180000,22.3726470000 113.9684850000,22.3726530000 113.9685850000,22.3726560000 113.9687230000,22.3726620000 113.9691700000,22.3726850000 113.9697810000,22.3727560000 113.9700390000,22.3727820000 113.9704300000,22.3728460000 113.9704520000,22.3728660000 113.9704640000,22.3728890000 113.9704700000,22.3729210000 113.9704710000,22.3729510000 113.9704590000,22.3729910000 113.9704430000,22.3730260000 113.9702590000,22.3733510000 113.9700400000,22.3737390000 113.9698780000,22.3740240000 113.9697740000,22.3742080000 113.9695230000,22.3746520000 113.9692890000,22.3750660000 113.9687780000,22.3759690000 113.9686320000,22.3762270000 113.9685310000,22.3764050000 113.9682380000,22.3769230000 113.9682100000,22.3769680000 113.9681790000,22.3770130000 113.9681430000,22.3770570000 113.9681060000,22.3771000000 113.9680590000,22.3771470000 113.9680090000,22.3771890000 113.9679510000,22.3772290000 113.9678870000,22.3772670000 113.9675780000,22.3773550000 113.9672180000,22.3774770000 113.9670550000,22.3775320000 113.9669790000,22.3775580000 113.9669420000,22.3775700000 113.9668350000,22.3776070000 113.9666880000,22.3776520000 113.9660990000,22.3778560000 113.9641850000,22.3784520000 113.9637140000,22.3785970000 113.9629000000,22.3788600000 113.9626360000,22.3789640000 113.9623580000,22.3785950000 113.9622840000,22.3785030000 113.9615430000,22.3775830000 113.9614230000,22.3774260000 113.9605800000,22.3763820000 113.9604030000,22.3762000000 113.9603300000,22.3761310000 113.9602940000,22.3761000000 113.9602230000,22.3760380000 113.9599510000,22.3758090000 113.9598260000,22.3757240000 113.9596720000,22.3756440000 113.9594900000,22.3755600000 113.9593390000,22.3754910000 113.9592270000,22.3754490000 113.9582230000,22.3750760000 113.9581430000,22.3750450000 113.9570740000,22.3746400000 113.9566340000,22.3744650000 113.9563380000,22.3743300000 113.9561930000,22.3742540000 113.9560510000,22.3741690000 113.9559150000,22.3740810000 113.9557710000,22.3739790000 113.9556550000,22.3738910000 113.9555170000,22.3737800000 113.9553410000,22.3736170000 113.9551440000,22.3734090000 113.9550060000,22.3732540000 113.9549050000,22.3731250000 113.9548390000,22.3730290000 113.9547730000,22.3729330000 113.9547180000,22.3728450000 113.9546910000,22.3728010000 113.9544290000,22.3723010000 113.9542790000,22.3720230000 113.9542350000,22.3719520000 113.9541840000,22.3718800000 113.9540470000,22.3717540000 113.9539230000,22.3716900000 113.9537900000,22.3716500000 113.9536790000,22.3716280000 113.9535700000,22.3716090000 113.9534610000,22.3715880000 113.9534080000,22.3715780000 113.9533920000,22.3715730000 113.9533470000,22.3715460000 113.9533010000,22.3715300000 113.9532450000,22.3715200000 113.9531990000,22.3715170000 113.9530980000,22.3715370000 113.9530100000,22.3715860000 113.9529780000,22.3716230000 113.9529450000,22.3716600000 113.9529110000,22.3717450000 113.9529060000,22.3717710000 113.9529050000,22.3717960000 113.9528720000,22.3719020000 113.9528290000,22.3719830000 113.9528180000,22.3720000000 113.9528070000,22.3720160000 113.9527930000,22.3720330000 113.9527750000,22.3720500000 113.9527410000,22.3720790000 113.9527070000,22.3721000000 113.9526620000,22.3721200000 113.9526080000,22.3721330000 113.9525170000,22.3721380000 113.9524830000,22.3721360000 113.9524520000,22.3721320000 113.9523860000,22.3721180000 113.9523370000,22.3720990000 113.9522830000,22.3720700000 113.9520250000,22.3718950000 113.9516760000,22.3716420000 113.9516280000,22.3716040000 113.9515810000,22.3715620000 113.9514300000,22.3714220000 113.9512510000,22.3712310000 113.9508440000,22.3708960000 113.9507000000,22.3707830000 113.9504740000,22.3706100000 113.9502750000,22.3704450000 113.9501180000,22.3703100000 113.9498720000,22.3700910000 113.9496680000,22.3698900000 113.9494940000,22.3697220000 113.9491980000,22.3693990000 113.9488600000,22.3690300000 113.9485730000,22.3686840000 113.9484210000,22.3684980000 113.9483740000,22.3684380000 113.9481730000,22.3681740000 113.9481420000,22.3681240000 113.9480760000,22.3680160000 113.9479950000,22.3678770000 113.9478700000,22.3676280000 113.9478050000,22.3674840000 113.9477370000,22.3673090000 113.9476590000,22.3670430000 113.9476370000,22.3669470000 113.9476090000,22.3668080000 113.9475900000,22.3666680000 113.9475770000,22.3665320000 113.9475700000,22.3663990000 113.9475670000,22.3662180000 113.9475710000,22.3659880000 113.9475850000,22.3657900000 113.9476000000,22.3656560000 113.9476160000,22.3655220000 113.9476380000,22.3653870000 113.9476820000,22.3651650000 113.9477590000,22.3648960000 113.9478320000,22.3646520000 113.9479580000,22.3643440000 113.9481000000,22.3640520000 113.9482620000,22.3637790000 113.9483000000,22.3637230000 113.9486770000,22.3631580000 113.9487290000,22.3630800000 113.9561000000,22.3523800000 113.9562900000,22.3520800000 113.9569300000,22.3509900000 113.9571900000,22.3504100000 113.9574100000,22.3498100000 113.9576800000,22.3488900000 113.9578600000,22.3479500000 113.9613030000,22.3240300000 113.9614150000,22.3231920000 113.9614300000,22.3230530000 113.9615030000,22.3223660000 113.9615250000,22.3220080000 113.9615380000,22.3217330000 113.9615380000,22.3217030000 113.9615380000,22.3214600000 113.9615360000,22.3214240000 113.9615270000,22.3212120000 113.9615220000,22.3211560000 113.9615040000,22.3209630000 113.9614960000,22.3209020000 113.9614670000,22.3206800000 113.9614600000,22.3206400000 113.9614210000,22.3204250000 113.9614140000,22.3203880000 113.9613660000,22.3201350000 113.9613380000,22.3200120000 113.9613000000,22.3198480000 113.9612490000,22.3196560000 113.9612280000,22.3195740000 113.9611540000,22.3192900000 113.9610060000,22.3188050000 113.9609240000,22.3185370000 113.9607660000,22.3180280000 113.9606520000,22.3176620000 113.9603240000,22.3166050000 113.9602120000,22.3162360000 113.9599980000,22.3155690000 113.9598390000,22.3150370000 113.9596480000,22.3143880000 113.9596330000,22.3143370000 113.9595450000,22.3140390000 113.9595330000,22.3140010000 113.9594790000,22.3137720000 113.9594330000,22.3135760000 113.9593160000,22.3130800000 113.9591650000,22.3124940000 113.9590470000,22.3121490000 113.9590060000,22.3120500000 113.9589550000,22.3119500000 113.9588950000,22.3118470000 113.9588300000,22.3117490000 113.9587300000,22.3116220000 113.9586120000,22.3114970000 113.9585070000,22.3114040000 113.9584150000,22.3113300000 113.9583300000,22.3112680000 113.9582460000,22.3112100000 113.9581640000,22.3111610000 113.9580740000,22.3111140000 113.9579930000,22.3110800000 113.9578490000,22.3110300000 113.9577310000,22.3110010000 113.9576010000,22.3109830000 113.9574230000,22.3109720000 113.9572350000,22.3109840000 113.9570390000,22.3110070000 113.9565730000,22.3110910000 113.9560550000,22.3112150000 113.9556080000,22.3113120000 113.9553310000,22.3113730000 113.9548790000,22.3114600000 113.9543880000,22.3115840000 113.9541800000,22.3116790000 113.9539780000,22.3117890000 113.9537880000,22.3119060000 113.9536220000,22.3120350000 113.9534750000,22.3121860000 113.9533280000,22.3123940000 113.9530600000,22.3128410000 113.9529530000,22.3130130000 113.9528420000,22.3131750000 113.9527560000,22.3133090000 113.9527210000,22.3133630000 113.9526690000,22.3134230000 113.9526090000,22.3134810000 113.9525730000,22.3135120000 113.9525310000,22.3135450000 113.9524400000,22.3136040000 113.9522650000,22.3137110000 113.9521490000,22.3137600000 113.9520570000,22.3137900000 113.9519550000,22.3138130000 113.9518290000,22.3138230000 113.9516630000,22.3138290000 113.9514130000,22.3138630000 113.9508680000,22.3140050000 113.9496760000,22.3143260000 113.9494170000,22.3143990000 113.9493140000,22.3144350000 113.9492320000,22.3144720000 113.9491500000,22.3145180000 113.9490810000,22.3145650000 113.9490180000,22.3146200000 113.9489640000,22.3146790000 113.9489160000,22.3147490000 113.9488810000,22.3148140000 113.9488550000,22.3148820000 113.9488400000,22.3149410000 113.9488300000,22.3150080000 113.9488280000,22.3150840000 113.9488330000,22.3151540000 113.9488410000,22.3152110000 113.9488530000,22.3152600000 113.9488860000,22.3153420000 113.9489170000,22.3154030000 113.9489590000,22.3154700000 113.9491350000,22.3157290000 113.9491740000,22.3157980000 113.9492100000,22.3158780000 113.9492400000,22.3159580000 113.9495080000,22.3168020000 113.9496000000,22.3170940000 113.9496130000,22.3171230000 113.9496330000,22.3171490000 113.9496590000,22.3171660000 113.9496900000,22.3171800000 113.9497350000,22.3171910000 113.9497760000,22.3171930000 113.9498260000,22.3171880000 113.9498890000,22.3171740000 113.9501120000,22.3171140000 113.9503270000,22.3170540000 113.9510100000,22.3168640000 113.9511530000,22.3166360000 113.9518260000,22.3164570000 113.9519090000,22.3164370000 113.9519690000,22.3164170000 113.9520240000,22.3163920000 113.9520620000,22.3163640000 113.9520970000,22.3163240000 113.9521140000,22.3162890000 113.9521200000,22.3162480000 113.9521230000,22.3161990000 113.9521160000,22.3161410000 113.9520390000,22.3159110000 113.9518710000,22.3153950000 113.9518390000,22.3152810000 113.9518140000,22.3151760000 113.9517960000,22.3150660000 113.9517470000,22.3145110000 113.9517370000,22.3144610000 113.9517200000,22.3144090000 113.9516960000,22.3143580000 113.9516640000,22.3143040000 113.9516340000,22.3142650000 113.9515980000,22.3142290000 113.9515300000,22.3141830000 113.9514800000,22.3141590000 113.9514120000,22.3141380000 113.9513130000,22.3141230000 113.9512050000,22.3141200000 113.9511110000,22.3141290000 113.9509790000,22.3141600000 113.9498850000,22.3144640000 113.9498090000,22.3144890000 113.9497230000,22.3145230000 113.9496520000,22.3145600000 113.9495560000,22.3146230000 113.9494140000,22.3147370000 113.9493190000,22.3147960000 113.9490080000,22.3150090000 113.9489460000,22.3150440000 113.9488650000,22.3150790000 113.9487820000,22.3151080000 113.9487260000,22.3151180000 113.9486740000,22.3151210000 113.9486170000,22.3151210000 113.9485530000,22.3151120000 113.9484800000,22.3150930000 113.9484320000,22.3150730000 113.9483760000,22.3150420000 113.9483280000,22.3150100000 113.9482870000,22.3149730000 113.9482500000,22.3149280000 113.9482190000,22.3148810000 113.9481980000,22.3148390000 113.9481790000,22.3147940000 113.9481680000,22.3147500000 113.9481630000,22.3147100000 113.9481620000,22.3146560000 113.9481650000,22.3146020000 113.9481750000,22.3145560000 113.9481960000,22.3145000000 113.9482220000,22.3144450000 113.9482540000,22.3143990000 113.9482910000,22.3143590000 113.9483410000,22.3143160000 113.9483910000,22.3142820000 113.9484550000,22.3142510000 113.9485410000,22.3142160000 113.9486400000,22.3141840000 113.9487250000,22.3141620000 113.9488410000,22.3141390000 113.9490810000,22.3140870000 113.9499140000,22.3138840000 113.9505550000,22.3137110000 113.9510150000,22.3135790000 113.9512680000,22.3134890000 113.9513960000,22.3134320000 113.9516200000,22.3133160000 113.9526980000,22.3127730000 113.9531640000,22.3125470000 113.9536040000,22.3123170000 113.9538520000,22.3122140000 113.9542550000,22.3121070000 113.9545370000,22.3120570000 113.9547960000,22.3120240000 113.9549430000,22.3120110000 113.9551680000,22.3119970000 113.9554430000,22.3119990000 113.9556240000,22.3120110000 113.9558620000,22.3120320000 113.9564370000,22.3121390000 113.9567760000,22.3122150000 113.9571130000,22.3122330000 113.9573170000,22.3122280000 113.9575090000,22.3122060000 113.9577650000,22.3121540000 113.9579390000,22.3121040000 113.9581410000,22.3120260000 113.9583890000,22.3119000000 113.9585400000,22.3118060000 113.9586620000,22.3117140000 113.9587580000,22.3116340000 113.9588470000,22.3115500000 113.9589140000,22.3114830000 113.9589880000,22.3114020000 113.9590620000,22.3113130000 113.9591430000,22.3112010000 113.9591970000,22.3111190000 113.9592290000,22.3110640000 113.9592730000,22.3109850000 113.9595770000,22.3104020000 113.9597480000,22.3101230000 113.9598370000,22.3100010000 113.9599540000,22.3098580000 113.9600880000,22.3097140000 113.9602320000,22.3095770000 113.9603970000,22.3094420000 113.9605980000,22.3092960000 113.9622950000,22.3081040000 113.9676430000,22.3049180000 113.9696390000,22.3037280000 113.9700960000,22.3034630000 113.9704360000,22.3032810000 113.9707430000,22.3031300000 113.9711060000,22.3029700000 113.9713810000,22.3028600000 113.9716250000,22.3027680000 113.9718540000,22.3026900000 113.9720620000,22.3026250000 113.9723010000,22.3025550000 113.9725700000,22.3024830000 113.9728440000,22.3024180000 113.9731430000,22.3023550000 113.9746990000,22.3020750000 113.9748970000,22.3020430000 113.9750980000,22.3020220000 113.9752690000,22.3020130000 113.9754450000,22.3020150000 113.9755900000,22.3020280000 113.9757510000,22.3020540000 113.9758920000,22.3020890000 113.9760450000,22.3021380000 113.9761900000,22.3021980000 113.9763330000,22.3022670000 113.9765060000,22.3023650000 113.9766760000,22.3024710000 113.9777470000,22.3031610000 113.9781680000,22.3034180000 113.9788340000,22.3037910000 113.9803350000,22.3046190000 113.9805240000,22.3047230000 113.9810370000,22.3050190000 113.9814830000,22.3052700000 113.9818840000,22.3054990000 113.9821760000,22.3056650000 113.9824640000,22.3058250000 113.9828370000,22.3060150000 113.9835720000,22.3063990000 113.9836830000,22.3064590000 113.9843200000,22.3067900000 113.9849640000,22.3071960000 113.9850400000,22.3072450000 113.9856060000,22.3075890000 113.9877310000,22.3088640000 113.9889150000,22.3095420000 113.9925320000,22.3116130000 113.9928940000,22.3118400000 113.9932800000,22.3121080000 113.9935900000,22.3123250000 113.9936540000,22.3123690000 113.9939850000,22.3126240000 113.9943640000,22.3129400000 113.9944820000,22.3130400000 113.9947170000,22.3132380000 113.9948820000,22.3133840000 113.9950160000,22.3135030000 113.9950710000,22.3135560000 113.9953880000,22.3138680000 113.9956090000,22.3141060000 113.9958140000,22.3143200000 113.9960710000,22.3146170000 113.9963520000,22.3149690000 113.9965180000,22.3151920000 113.9967760000,22.3155490000 113.9969850000,22.3158460000 113.9971800000,22.3161470000 113.9973750000,22.3164580000 113.9975970000,22.3168140000 113.9976390000,22.3168830000 113.9978800000,22.3172650000 113.9979170000,22.3173200000 113.9981960000,22.3177340000 113.9984880000,22.3181120000 113.9988430000,22.3185050000 113.9990980000,22.3187760000 113.9994070000,22.3190820000 114.0000590000,22.3196040000 114.0003390000,22.3198090000 114.0005530000,22.3199570000 114.0008490000,22.3201550000 114.0011770000,22.3203390000 114.0014940000,22.3205080000 114.0018710000,22.3206920000 114.0022100000,22.3208580000 114.0029710000,22.3212190000 114.0094760000,22.3241070000 114.0099360000,22.3243000000 114.0104040000,22.3244760000 114.0109520000,22.3246520000 114.0120140000,22.3249200000 114.0125020000,22.3250130000 114.0129320000,22.3250750000 114.0134220000,22.3251330000 114.0140090000,22.3251710000 114.0146250000,22.3251850000 114.0151410000,22.3251750000 114.0157440000,22.3251400000 114.0179320000,22.3249830000 114.0184860000,22.3249840000 114.0189250000,22.3250100000 114.0194170000,22.3250510000 114.0198900000,22.3251030000 114.0202650000,22.3251710000 114.0207940000,22.3252890000 114.0213080000,22.3254290000 114.0218170000,22.3256010000 114.0225660000,22.3258960000 114.0230280000,22.3261070000 114.0235650000,22.3263960000 114.0237450000,22.3265060000 114.0238250000,22.3265550000 114.0239050000,22.3266040000 114.0242030000,22.3267940000 114.0243490000,22.3268920000 114.0246170000,22.3270780000 114.0247720000,22.3271940000 114.0254040000,22.3277460000 114.0255270000,22.3279270000 114.0256870000,22.3281240000 114.0260110000,22.3284580000 114.0270250000,22.3295660000 114.0274590000,22.3300070000 114.0275970000,22.3301320000 114.0277080000,22.3302280000 114.0278470000,22.3303400000 114.0279800000,22.3304320000 114.0281230000,22.3305220000 114.0282670000,22.3306020000 114.0284060000,22.3306740000 114.0285710000,22.3307520000 114.0287100000,22.3308060000 114.0288610000,22.3308560000 114.0290190000,22.3309010000 114.0291620000,22.3309380000 114.0293280000,22.3309660000 114.0294810000,22.3309860000 114.0296310000,22.3309960000 114.0298380000,22.3310050000 114.0300340000,22.3310010000 114.0301990000,22.3309900000 114.0303260000,22.3309740000 114.0305070000,22.3309440000 114.0306500000,22.3309120000 114.0307800000,22.3308730000 114.0309040000,22.3308330000 114.0310250000,22.3307840000 114.0312140000,22.3306970000 114.0313120000,22.3306450000 114.0314020000,22.3305930000 114.0316840000,22.3304240000 114.0319660000,22.3302100000 114.0320620000,22.3301330000 114.0321550000,22.3300500000 114.0322700000,22.3299330000 114.0324070000,22.3297740000 114.0324940000,22.3296570000 114.0325830000,22.3295280000 114.0327090000,22.3293330000 114.0328990000,22.3290830000 114.0332810000,22.3284000000 114.0336890000,22.3277360000 114.0339880000,22.3273240000 114.0342430000,22.3270140000 114.0345740000,22.3266650000 114.0348790000,22.3263630000 114.0352620000,22.3260230000 114.0356760000,22.3256880000 114.0361570000,22.3253610000 114.0367170000,22.3250510000 114.0371330000,22.3248410000 114.0375920000,22.3246610000 114.0385620000,22.3243440000 114.0394240000,22.3240130000 114.0397830000,22.3238830000 114.0399890000,22.3238410000 114.0401430000,22.3238400000 114.0402770000,22.3238950000 114.0403950000,22.3239100000 114.0405130000,22.3238960000 114.0406240000,22.3238560000 114.0407270000,22.3237840000 114.0408050000,22.3236890000 114.0408520000,22.3235770000 114.0408640000,22.3234580000 114.0408410000,22.3233410000 114.0407830000,22.3232340000 114.0406960000,22.3231460000 114.0405870000,22.3230830000 114.0404910000,22.3229920000 114.0404210000,22.3229150000 114.0402970000,22.3227150000 114.0400610000,22.3220780000 114.0396940000,22.3207740000 114.0395030000,22.3201900000 114.0394970000,22.3200960000 114.0395040000,22.3200210000 114.0395270000,22.3198940000 114.0395680000,22.3198420000 114.0396250000,22.3197530000 114.0396550000,22.3196520000 114.0397060000,22.3195710000 114.0399100000,22.3194550000 114.0407740000,22.3191460000 114.0417960000,22.3187840000 114.0419160000,22.3187410000 114.0432190000,22.3183000000 114.0442030000,22.3179860000 114.0443960000,22.3179230000 114.0449740000,22.3178140000 114.0451850000,22.3177760000 114.0455060000,22.3177410000 114.0461660000,22.3177140000 114.0468900000,22.3177510000 114.0471960000,22.3177920000 114.0474510000,22.3178360000 114.0481460000,22.3179970000 114.0489680000,22.3182220000 114.0491860000,22.3182970000 114.0493970000,22.3183730000 114.0494810000,22.3183750000 114.0495460000,22.3183370000 114.0495820000,22.3182780000 114.0495850000,22.3182400000 114.0495780000,22.3181980000 114.0495460000,22.3181580000 114.0495010000,22.3181300000 114.0494790000,22.3181210000 114.0492070000,22.3180630000 114.0490760000,22.3180270000 114.0491370000,22.3179100000 114.0492480000,22.3175970000 114.0492100000,22.3174100000 114.0491890000,22.3172200000 114.0492190000,22.3170520000 114.0492600000,22.3168860000 114.0493000000,22.3167280000 114.0492940000,22.3166820000 114.0492630000,22.3166300000 114.0492360000,22.3165990000 114.0491840000,22.3165910000 114.0491250000,22.3166070000 114.0491090000,22.3166190000 114.0490890000,22.3166350000 114.0490670000,22.3166910000 114.0490790000,22.3174600000 114.0490630000,22.3176090000 114.0489940000,22.3176970000 114.0489940000,22.3178480000 114.0489540000,22.3179150000 114.0488600000,22.3179690000 114.0484660000,22.3178640000 114.0474050000,22.3175810000 114.0465200000,22.3174900000 114.0458430000,22.3174970000 114.0454020000,22.3175490000 114.0448200000,22.3176340000 114.0440880000,22.3178050000 114.0431430000,22.3181310000 114.0418530000,22.3185780000 114.0417300000,22.3186210000 114.0408560000,22.3189450000 114.0407280000,22.3189940000 114.0405100000,22.3190650000 114.0396990000,22.3193100000 114.0395290000,22.3193100000 114.0394480000,22.3192530000 114.0393550000,22.3192140000 114.0392550000,22.3191970000 114.0391530000,22.3192020000 114.0390570000,22.3192280000 114.0389710000,22.3192740000 114.0388970000,22.3193370000 114.0388320000,22.3194330000 114.0387980000,22.3195420000 114.0387990000,22.3196560000 114.0388330000,22.3197610000 114.0388970000,22.3198550000 114.0389850000,22.3199280000 114.0390880000,22.3199750000 114.0391310000,22.3199880000 114.0392080000,22.3200670000 114.0393080000,22.3202270000 114.0395470000,22.3210460000 114.0398000000,22.3219390000 114.0400350000,22.3226930000 114.0400570000,22.3228290000 114.0400600000,22.3229430000 114.0400540000,22.3230600000 114.0400450000,22.3231940000 114.0400040000,22.3232450000 114.0399710000,22.3233020000 114.0398640000,22.3233590000 114.0397530000,22.3234100000 114.0390170000,22.3236370000 114.0386590000,22.3237580000 114.0383780000,22.3238720000 114.0380370000,22.3240280000 114.0374870000,22.3243000000 114.0369860000,22.3245630000 114.0365150000,22.3248350000 114.0359440000,22.3252540000 114.0355560000,22.3255320000 114.0351150000,22.3258960000 114.0346640000,22.3263000000 114.0342480000,22.3267400000 114.0338300000,22.3272430000 114.0335320000,22.3276470000 114.0328280000,22.3287350000 114.0325060000,22.3291760000 114.0321760000,22.3296600000 114.0319840000,22.3298860000 114.0317830000,22.3300840000 114.0315920000,22.3302450000 114.0314700000,22.3303330000 114.0313230000,22.3304280000 114.0311740000,22.3305150000 114.0310240000,22.3305840000 114.0308650000,22.3306420000 114.0307870000,22.3306680000 114.0307110000,22.3306890000 114.0305800000,22.3307190000 114.0304530000,22.3307400000 114.0303450000,22.3307510000 114.0302080000,22.3307620000 114.0300580000,22.3307660000 114.0299140000,22.3307620000 114.0297910000,22.3307490000 114.0296650000,22.3307330000 114.0295280000,22.3307090000 114.0293700000,22.3306720000 114.0291940000,22.3306190000 114.0290560000,22.3305670000 114.0288760000,22.3304860000 114.0286880000,22.3303830000 114.0285330000,22.3302840000 114.0281710000,22.3300020000 114.0277980000,22.3296730000 114.0269300000,22.3288720000 114.0264290000,22.3283840000 114.0258460000,22.3278390000 114.0254190000,22.3274500000 114.0251450000,22.3272100000 114.0248560000,22.3269890000 114.0246350000,22.3268610000 114.0243000000,22.3266910000 114.0239930000,22.3264980000 114.0238300000,22.3264040000 114.0237490000,22.3263580000 114.0235970000,22.3262700000 114.0230920000,22.3260010000 114.0226320000,22.3257790000 114.0218850000,22.3254810000 114.0213490000,22.3253080000 114.0208470000,22.3251460000 114.0203250000,22.3250340000 114.0198930000,22.3249550000 114.0194430000,22.3248980000 114.0189510000,22.3248540000 114.0184850000,22.3248340000 114.0179330000,22.3248360000 114.0157300000,22.3249950000 114.0151520000,22.3250270000 114.0146290000,22.3250370000 114.0140400000,22.3250260000 114.0134390000,22.3249840000 114.0129530000,22.3249290000 114.0125170000,22.3248670000 114.0120450000,22.3247740000 114.0110200000,22.3245160000 114.0104500000,22.3243350000 114.0099940000,22.3241710000 114.0092210000,22.3238440000 114.0030460000,22.3210970000 114.0022110000,22.3207110000 114.0018700000,22.3205380000 114.0015450000,22.3203740000 114.0012450000,22.3202230000 114.0009200000,22.3200340000 114.0006410000,22.3198590000 114.0004230000,22.3197030000 114.0001470000,22.3195040000 113.9998380000,22.3192620000 113.9994860000,22.3189590000 113.9992090000,22.3186870000 113.9989500000,22.3184190000 113.9985960000,22.3180270000 113.9983040000,22.3176570000 113.9980380000,22.3172630000 113.9980000000,22.3172060000 113.9977570000,22.3168210000 113.9977160000,22.3167520000 113.9974960000,22.3163870000 113.9973020000,22.3160790000 113.9971020000,22.3157770000 113.9968930000,22.3154780000 113.9966240000,22.3151180000 113.9964650000,22.3149000000 113.9961560000,22.3145280000 113.9959240000,22.3142630000 113.9957120000,22.3140280000 113.9954890000,22.3137910000 113.9951690000,22.3134730000 113.9951210000,22.3134260000 113.9949860000,22.3133030000 113.9948160000,22.3131480000 113.9945760000,22.3129470000 113.9944550000,22.3128470000 113.9940660000,22.3125250000 113.9937300000,22.3122730000 113.9936770000,22.3122350000 113.9933570000,22.3120010000 113.9929640000,22.3117410000 113.9926010000,22.3115140000 113.9889850000,22.3094370000 113.9877960000,22.3087560000 113.9860440000,22.3076980000 113.9856810000,22.3074790000 113.9851170000,22.3071400000 113.9850420000,22.3070920000 113.9840910000,22.3064780000 113.9836320000,22.3060970000 113.9830130000,22.3056380000 113.9828080000,22.3054640000 113.9824940000,22.3051810000 113.9822520000,22.3049730000 113.9819680000,22.3047420000 113.9815660000,22.3044460000 113.9812270000,22.3041920000 113.9808890000,22.3039400000 113.9794060000,22.3027920000 113.9792170000,22.3026510000 113.9789950000,22.3024950000 113.9787150000,22.3023110000 113.9784980000,22.3021780000 113.9782980000,22.3020650000 113.9781170000,22.3019670000 113.9779170000,22.3018660000 113.9776690000,22.3017490000 113.9773680000,22.3016200000 113.9770960000,22.3015140000 113.9768390000,22.3014210000 113.9762240000,22.3012150000 113.9760760000,22.3011710000 113.9759110000,22.3011310000 113.9757840000,22.3011070000 113.9756480000,22.3010880000 113.9754980000,22.3010790000 113.9753570000,22.3010800000 113.9752430000,22.3010880000 113.9751130000,22.3011040000 113.9749940000,22.3011230000 113.9748720000,22.3011500000 113.9747160000,22.3011930000 113.9745460000,22.3012430000 113.9736530000,22.3015280000 113.9734540000,22.3015960000 113.9732170000,22.3016800000 113.9730030000,22.3017620000 113.9726230000,22.3019210000 113.9723460000,22.3020500000 113.9721030000,22.3021720000 113.9718530000,22.3023060000 113.9715610000,22.3024740000 113.9700140000,22.3033950000 113.9692620000,22.3038420000 113.9679790000,22.3046060000 113.9622390000,22.3080250000 113.9606310000,22.3088770000 113.9600250000,22.3092170000 113.9596890000,22.3093970000 113.9587900000,22.3098960000 113.9584140000,22.3101030000 113.9581280000,22.3102590000 113.9573160000,22.3106730000 113.9571260000,22.3107670000 113.9569650000,22.3108400000 113.9568080000,22.3109020000 113.9566550000,22.3109570000 113.9564990000,22.3110050000 113.9563480000,22.3110450000 113.9562150000,22.3110760000 113.9551570000,22.3113040000 113.9548570000,22.3113830000 113.9546160000,22.3114710000 113.9543880000,22.3115840000 113.9541800000,22.3116790000 113.9539780000,22.3117890000 113.9537880000,22.3119060000 113.9536220000,22.3120350000 113.9534750000,22.3121860000 113.9533280000,22.3123940000 113.9530600000,22.3128410000 113.9529530000,22.3130130000 113.9528420000,22.3131750000 113.9527560000,22.3133090000 113.9527210000,22.3133630000 113.9526690000,22.3134230000 113.9526090000,22.3134810000 113.9525730000,22.3135120000 113.9525310000,22.3135450000 113.9524400000,22.3136040000 113.9522650000,22.3137110000 113.9521490000,22.3137600000 113.9520570000,22.3137900000 113.9519550000,22.3138130000 113.9518290000,22.3138230000 113.9516630000,22.3138290000 113.9514130000,22.3138630000 113.9508680000,22.3140050000 113.9496760000,22.3143260000 113.9494170000,22.3143990000 113.9493140000,22.3144350000 113.9492320000,22.3144720000 113.9491500000,22.3145180000 113.9490810000,22.3145650000 113.9490180000,22.3146200000 113.9489640000,22.3146790000 113.9489160000,22.3147490000 113.9488810000,22.3148140000 113.9488550000,22.3148820000 113.9488400000,22.3149410000 113.9488300000,22.3150080000 113.9488280000,22.3150840000 113.9488330000,22.3151540000 113.9488410000,22.3152110000 113.9488530000,22.3152600000 113.9488860000,22.3153420000 113.9489170000,22.3154030000 113.9489590000,22.3154700000 113.9491350000,22.3157290000 113.9491740000,22.3157980000 113.9492100000,22.3158780000 113.9492400000,22.3159580000 113.9495080000,22.3168020000 113.9496000000,22.3170940000 113.9496400000,22.3172210000 113.9496510000,22.3172460000 113.9496640000,22.3172700000 113.9496780000,22.3172880000 113.9496930000,22.3173010000 113.9497150000,22.3173120000 113.9497400000,22.3173210000 113.9497730000,22.3173240000 113.9498320000,22.3173130000 113.9501490000,22.3172280000 113.9503740000,22.3171660000 113.9504120000,22.3171560000 113.9505640000,22.3171140000 113.9507720000,22.3170570000 113.9508580000,22.3170330000 113.9508900000,22.3170210000 113.9509200000,22.3170030000 113.9509430000,22.3169790000 113.9510100000,22.3168640000 113.9511530000,22.3166360000 113.9518260000,22.3164570000 113.9519090000,22.3164370000 113.9519690000,22.3164170000 113.9520240000,22.3163920000 113.9520620000,22.3163640000 113.9520970000,22.3163240000 113.9521140000,22.3162890000 113.9521200000,22.3162480000 113.9521230000,22.3161990000 113.9521160000,22.3161410000 113.9520390000,22.3159110000 113.9518710000,22.3153950000 113.9518390000,22.3152810000 113.9518140000,22.3151760000 113.9517960000,22.3150660000 113.9517470000,22.3145110000 113.9517370000,22.3144610000 113.9517200000,22.3144090000 113.9516960000,22.3143580000 113.9516640000,22.3143040000 113.9516340000,22.3142650000 113.9515980000,22.3142290000 113.9515300000,22.3141830000 113.9514800000,22.3141590000 113.9514120000,22.3141380000 113.9513130000,22.3141230000 113.9512050000,22.3141200000 113.9511110000,22.3141290000 113.9509790000,22.3141600000 113.9498850000,22.3144640000 113.9498090000,22.3144890000 113.9497230000,22.3145230000 113.9496520000,22.3145600000 113.9495560000,22.3146230000 113.9494140000,22.3147370000 113.9493190000,22.3147960000 113.9490080000,22.3150090000 113.9489460000,22.3150440000 113.9488650000,22.3150790000 113.9487820000,22.3151080000 113.9487260000,22.3151180000 113.9486740000,22.3151210000 113.9486170000,22.3151210000 113.9485530000,22.3151120000 113.9484800000,22.3150930000 113.9484320000,22.3150730000 113.9483760000,22.3150420000 113.9483280000,22.3150100000 113.9482870000,22.3149730000 113.9482500000,22.3149280000 113.9482190000,22.3148810000 113.9481980000,22.3148390000 113.9481790000,22.3147940000 113.9481680000,22.3147500000 113.9481630000,22.3147100000 113.9481620000,22.3146560000 113.9481650000,22.3146020000 113.9481750000,22.3145560000 113.9481960000,22.3145000000 113.9482220000,22.3144450000 113.9482540000,22.3143990000 113.9482910000,22.3143590000 113.9483410000,22.3143160000 113.9483910000,22.3142820000 113.9484550000,22.3142510000 113.9485410000,22.3142160000 113.9486400000,22.3141840000 113.9487250000,22.3141620000 113.9488410000,22.3141390000 113.9490810000,22.3140870000 113.9499140000,22.3138840000 113.9505550000,22.3137110000 113.9510150000,22.3135790000 113.9512680000,22.3134890000 113.9513960000,22.3134320000 113.9516200000,22.3133160000 113.9526980000,22.3127730000 113.9531640000,22.3125470000 113.9536040000,22.3123170000 113.9538440000,22.3121590000 113.9541820000,22.3120340000 113.9544170000,22.3119670000 113.9548350000,22.3119020000 113.9554030000,22.3118470000 113.9561090000,22.3118130000 113.9565680000,22.3118330000 113.9569240000,22.3118720000 113.9572500000,22.3119460000 113.9576460000,22.3120830000 113.9579280000,22.3122370000 113.9580940000,22.3123380000 113.9582930000,22.3124760000 113.9584300000,22.3125880000 113.9585690000,22.3127140000 113.9586770000,22.3128220000 113.9587680000,22.3129230000 113.9588950000,22.3130860000 113.9589820000,22.3132150000 113.9590420000,22.3133090000 113.9591170000,22.3134400000 113.9592090000,22.3136330000 113.9593460000,22.3139830000 113.9593890000,22.3141010000 113.9594700000,22.3143530000 113.9594910000,22.3144240000 113.9596840000,22.3150750000 113.9598470000,22.3156130000 113.9600520000,22.3162850000 113.9601600000,22.3166390000 113.9604870000,22.3176950000 113.9606000000,22.3180610000 113.9607570000,22.3185760000 113.9608400000,22.3188450000 113.9609760000,22.3193300000 113.9610500000,22.3196070000 113.9610730000,22.3196940000 113.9611100000,22.3198580000 113.9611540000,22.3200520000 113.9611720000,22.3201600000 113.9612150000,22.3204140000 113.9612230000,22.3204620000 113.9612560000,22.3206710000 113.9612600000,22.3207050000 113.9612900000,22.3209230000 113.9612960000,22.3209830000 113.9613140000,22.3211620000 113.9613170000,22.3212160000 113.9613290000,22.3214250000 113.9613290000,22.3214640000 113.9613260000,22.3217050000 113.9613250000,22.3217350000 113.9613110000,22.3219940000 113.9612860000,22.3223590000 113.9612230000,22.3230460000 113.9612120000,22.3231700000 113.9611110000,22.3240130000 113.9576800000,22.3479200000 113.9574900000,22.3488700000 113.9571900000,22.3498800000 113.9570100000,22.3503700000 113.9567600000,22.3509000000 113.9562300000,22.3518400000 113.9559900000,22.3522000000 113.9485780000,22.3630010000 113.9484630000,22.3631870000 113.9481840000,22.3636410000 113.9481380000,22.3637160000 113.9479110000,22.3641550000 113.9478420000,22.3643080000 113.9477790000,22.3644500000 113.9477510000,22.3645250000 113.9477210000,22.3646090000 113.9475950000,22.3650070000 113.9475270000,22.3652910000 113.9474890000,22.3655100000 113.9474650000,22.3656600000 113.9474320000,22.3659590000 113.9474200000,22.3661940000 113.9474170000,22.3664920000 113.9474260000,22.3666930000 113.9474400000,22.3668910000 113.9474680000,22.3671140000 113.9474990000,22.3673170000 113.9475550000,22.3675880000 113.9475920000,22.3677450000 113.9476390000,22.3679170000 113.9476890000,22.3680750000 113.9477720000,22.3682960000 113.9479060000,22.3686160000 113.9479810000,22.3687760000 113.9480770000,22.3689530000 113.9482450000,22.3692310000 113.9486570000,22.3698320000 113.9488100000,22.3700310000 113.9490740000,22.3703430000 113.9491260000,22.3704080000 113.9494930000,22.3709100000 113.9500240000,22.3716650000 113.9502070000,22.3719260000 113.9502640000,22.3719890000 113.9504380000,22.3721520000 113.9506010000,22.3722950000 113.9507440000,22.3724140000 113.9508700000,22.3725010000 113.9509580000,22.3725520000 113.9510440000,22.3725960000 113.9512030000,22.3726560000 113.9513300000,22.3726910000 113.9514500000,22.3727130000 113.9515370000,22.3727220000 113.9516540000,22.3727280000 113.9517920000,22.3727210000 113.9519110000,22.3727050000 113.9520340000,22.3726780000 113.9521080000,22.3726560000 113.9521720000,22.3726330000 113.9522570000,22.3725980000 113.9523260000,22.3725620000 113.9525000000,22.3724420000 113.9526200000,22.3723530000 113.9528570000,22.3721760000 113.9529030000,22.3721450000 113.9529520000,22.3721180000 113.9530350000,22.3720840000 113.9531050000,22.3720600000 113.9531350000,22.3720710000 113.9531540000,22.3720780000 113.9532640000,22.3720770000 113.9533560000,22.3720470000 113.9533700000,22.3720370000 113.9534340000,22.3719910000 113.9534820000,22.3719320000 113.9534900000,22.3719130000 113.9534930000,22.3719070000 113.9534960000,22.3718930000 113.9535360000,22.3718610000 113.9536050000,22.3718170000 113.9536600000,22.3717870000 113.9537010000,22.3717740000 113.9537430000,22.3717680000 113.9537830000,22.3717680000 113.9538220000,22.3717750000 113.9538590000,22.3717870000 113.9538920000,22.3718040000 113.9539280000,22.3718270000 113.9539650000,22.3718560000 113.9540010000,22.3718890000 113.9540440000,22.3719340000 113.9541050000,22.3720090000 113.9541430000,22.3720670000 113.9545430000,22.3727520000 113.9546290000,22.3728910000 113.9546880000,22.3729860000 113.9547860000,22.3731270000 113.9550210000,22.3734210000 113.9552400000,22.3736790000 113.9553520000,22.3737920000 113.9556050000,22.3739930000 113.9558700000,22.3741830000 113.9562700000,22.3744040000 113.9567530000,22.3746170000 113.9570210000,22.3747250000 113.9572820000,22.3748300000 113.9581040000,22.3751210000 113.9581820000,22.3751520000 113.9591050000,22.3755190000 113.9594100000,22.3756400000 113.9595860000,22.3757190000 113.9597040000,22.3757780000 113.9597750000,22.3758240000 113.9598790000,22.3758940000 113.9600130000,22.3759940000 113.9601960000,22.3761320000 113.9602790000,22.3761970000 113.9602990000,22.3762140000 113.9603210000,22.3762340000 113.9604230000,22.3763480000 113.9609840000,22.3770450000 113.9618720000,22.3781650000 113.9620010000,22.3783290000 113.9621790000,22.3785600000 113.9622490000,22.3786500000 113.9625300000,22.3790130000 113.9626030000,22.3791080000 113.9626970000,22.3790640000 113.9629890000,22.3789350000 113.9640320000,22.3785940000 113.9642260000,22.3785340000 113.9651100000,22.3782590000 113.9659350000,22.3780030000 113.9663180000,22.3778800000 113.9667350000,22.3777480000 113.9668730000,22.3776960000 113.9669750000,22.3776600000 113.9670120000,22.3776480000 113.9670890000,22.3776210000 113.9671250000,22.3776070000 113.9673010000,22.3775470000 113.9676130000,22.3774440000 113.9678080000,22.3773580000 113.9678870000,22.3772670000 113.9679510000,22.3772290000 113.9680090000,22.3771890000 113.9680590000,22.3771470000 113.9680660000,22.3771400000 113.9681060000,22.3771000000 113.9681430000,22.3770570000 113.9681790000,22.3770130000 113.9682100000,22.3769680000 113.9682380000,22.3769230000 113.9685310000,22.3764050000 113.9686320000,22.3762270000 113.9687780000,22.3759690000 113.9692890000,22.3750660000 113.9695230000,22.3746520000 113.9697740000,22.3742080000 113.9698780000,22.3740240000 113.9700400000,22.3737390000 113.9702590000,22.3733510000 113.9704430000,22.3730260000 113.9704590000,22.3729910000 113.9704710000,22.3729510000 113.9704700000,22.3729210000 113.9704640000,22.3728890000 113.9704520000,22.3728660000 113.9704300000,22.3728460000 113.9700390000,22.3727820000 113.9697810000,22.3727560000 113.9691700000,22.3726850000 113.9687230000,22.3726620000 113.9685850000,22.3726560000 113.9684850000,22.3726530000 113.9684180000,22.3726470000 113.9683810000,22.3726180000 113.9683420000,22.3726100000 113.9683090000,22.3726060000 113.9682200000,22.3726120000 113.9681770000,22.3726150000 113.9681190000,22.3726230000 113.9681120000,22.3725120000 113.9681130000,22.3724640000 113.9681020000,22.3723830000 113.9680660000,22.3722830000 113.9679680000,22.3721580000 113.9678630000,22.3721300000 113.9677530000,22.3721310000 113.9676570000,22.3721470000 113.9676090000,22.3721710000 113.9675740000,22.3722000000 113.9675560000,22.3722280000 113.9675400000,22.3722510000 113.9673390000,22.3725700000 113.9672410000,22.3725930000 113.9671140000,22.3726230000 113.9670550000,22.3726390000 113.9669820000,22.3726580000 113.9668560000,22.3726920000 113.9667480000,22.3727220000 113.9667090000,22.3728040000 113.9666840000,22.3728560000 113.9666740000,22.3728760000 113.9666450000,22.3729420000 113.9657290000,22.3731800000 113.9654160000,22.3732640000 113.9653110000,22.3732900000 113.9653260000,22.3733410000 113.9653530000,22.3734390000 113.9655330000,22.3740270000 113.9656610000,22.3744440000 113.9656830000,22.3745160000 113.9657990000,22.3748940000 113.9660070000,22.3756000000 113.9660520000,22.3757210000 113.9662910000,22.3765120000 113.9663370000,22.3766530000 113.9663620000,22.3767310000 113.9664560000,22.3770180000 113.9664750000,22.3770750000 113.9666420000,22.3775280000 113.9666880000,22.3776520000 113.9667350000,22.3777480000 113.9667970000,22.3778590000 113.9669140000,22.3780660000 113.9670690000,22.3782710000 113.9672470000,22.3784330000 113.9674540000,22.3785760000 113.9678070000,22.3787850000 113.9689560000,22.3794660000 113.9695420000,22.3798130000 113.9695520000,22.3798190000 113.9697570000,22.3799820000 113.9698230000,22.3800620000 113.9699170000,22.3802010000 113.9700080000,22.3803640000 113.9700730000,22.3805320000 113.9700850000,22.3805710000 113.9701070000,22.3806600000 113.9702250000,22.3806430000 113.9703080000,22.3806370000 113.9703450000,22.3806360000 113.9703990000,22.3806340000 113.9704260000,22.3806340000 113.9707950000,22.3806300000 113.9709200000,22.3806390000 113.9710430000,22.3806560000 113.9711650000,22.3806980000 113.9713050000,22.3807470000 113.9714650000,22.3808100000 113.9722650000,22.3811460000 113.9724120000,22.3812050000 113.9732270000,22.3815380000 113.9732850000,22.3815610000 113.9734040000,22.3816150000 113.9746010000,22.3821410000 113.9750690000,22.3823470000 113.9751300000,22.3823730000 113.9751880000,22.3824000000 113.9752440000,22.3824250000 113.9752760000,22.3824370000 113.9752180000,22.3825780000 113.9751420000,22.3827700000 113.9751060000,22.3828720000 113.9750890000,22.3829700000 113.9750820000,22.3831000000 113.9750850000,22.3833000000 113.9751100000,22.3837750000 113.9751980000,22.3851500000 113.9752120000,22.3853740000 113.9752240000,22.3866390000 113.9752290000,22.3869030000 113.9752460000,22.3872770000 113.9752460000,22.3873540000 113.9752480000,22.3874820000 113.9752500000,22.3877210000 113.9752500000,22.3877630000 113.9752510000,22.3879250000 113.9752540000,22.3886410000 113.9752340000,22.3891900000 113.9752120000,22.3897840000 113.9752090000,22.3898760000 113.9752050000,22.3899770000 113.9751590000,22.3910020000 113.9751860000,22.3920090000 113.9751920000,22.3923300000 113.9751880000,22.3925770000 113.9751640000,22.3929480000 113.9750660000,22.3933790000 113.9750120000,22.3935010000 113.9748740000,22.3938170000 113.9748680000,22.3938480000 113.9748570000,22.3939070000 113.9748130000,22.3940100000 113.9747970000,22.3940470000 113.9747510000,22.3941740000 113.9747030000,22.3943000000 113.9746670000,22.3944170000 113.9746480000,22.3944710000 113.9746370000,22.3945010000 113.9745810000,22.3946300000 113.9744990000,22.3949000000 113.9744810000,22.3949790000 113.9744460000,22.3951360000 113.9744200000,22.3952550000 113.9744140000,22.3954310000 113.9744530000,22.3956810000 113.9744560000,22.3957010000 113.9744880000,22.3958100000 113.9745070000,22.3958810000 113.9745350000,22.3959880000 113.9745420000,22.3960120000 113.9746620000,22.3964230000 113.9747560000,22.3967560000 113.9747710000,22.3968150000 113.9747890000,22.3968790000 113.9750080000,22.3976950000 113.9750540000,22.3978520000 113.9750740000,22.3979370000 113.9750830000,22.3979760000 113.9751170000,22.3980200000 113.9751450000,22.3981150000 113.9751980000,22.3983320000 113.9753430000,22.3989060000 113.9753750000,22.3990870000 113.9753890000,22.3992410000 113.9753890000,22.3992490000 113.9753950000,22.3994710000 113.9754110000,22.3995960000 113.9754520000,22.3997640000 113.9755890000,22.3999810000 113.9758720000,22.4003880000 113.9759820000,22.4005310000 113.9761580000,22.4007540000 113.9763010000,22.4008640000 113.9763850000,22.4009270000 113.9764820000,22.4009570000 113.9765800000,22.4009740000 113.9766500000,22.4009770000 113.9767510000,22.4009810000 113.9769170000,22.4009650000 113.9776020000,22.4008300000 113.9778820000,22.4007750000 113.9779350000,22.4007660000 113.9780020000,22.4007550000 113.9783100000,22.4013650000 113.9783500000,22.4014390000 113.9786970000,22.4020840000 113.9790750000,22.4028580000 113.9791140000,22.4029330000 113.9791150000,22.4029360000 113.9792800000,22.4032670000 113.9793180000,22.4033570000 113.9793500000,22.4034390000 113.9793830000,22.4035320000 113.9794110000,22.4036170000 113.9794290000,22.4036780000 113.9794410000,22.4037340000 113.9794560000,22.4038220000 113.9794630000,22.4038760000 113.9794660000,22.4039320000 113.9794630000,22.4040000000 113.9794550000,22.4040700000 113.9794390000,22.4041600000 113.9794220000,22.4042270000 113.9794000000,22.4042940000 113.9793650000,22.4043740000 113.9793250000,22.4044530000 113.9792810000,22.4045290000 113.9792340000,22.4046030000 113.9791730000,22.4046870000 113.9790430000,22.4048570000 113.9787890000,22.4052410000 113.9786740000,22.4054430000 113.9785770000,22.4056570000 113.9785420000,22.4057770000 113.9785220000,22.4059080000 113.9785180000,22.4061310000 113.9785280000,22.4063250000 113.9785510000,22.4064820000 113.9786860000,22.4072140000 113.9787370000,22.4074620000 113.9787600000,22.4075820000 113.9787640000,22.4076100000 113.9788300000,22.4078330000 113.9788470000,22.4078880000 113.9788760000,22.4079480000 113.9789090000,22.4080310000 113.9789380000,22.4080880000 113.9790150000,22.4081940000 113.9790620000,22.4082440000 113.9790900000,22.4082720000 113.9791990000,22.4083650000 113.9792480000,22.4084050000 113.9792820000,22.4084340000 113.9793520000,22.4084750000 113.9793990000,22.4085030000 113.9796100000,22.4086070000 113.9796350000,22.4086170000 113.9796680000,22.4086280000 113.9797740000,22.4086530000 113.9798810000,22.4086800000 113.9800050000,22.4086990000 113.9801150000,22.4087170000 113.9802110000,22.4087190000 113.9803900000,22.4087230000 113.9806780000,22.4087300000 113.9807070000,22.4087310000 113.9808670000,22.4087400000 113.9810040000,22.4087550000 113.9811260000,22.4087770000 113.9812730000,22.4088220000 113.9814150000,22.4088730000 113.9815620000,22.4089480000 113.9816910000,22.4090320000 113.9818620000,22.4091850000 113.9819990000,22.4093470000 113.9820910000,22.4094800000 113.9821470000,22.4096040000 113.9822010000,22.4097230000 113.9822300000,22.4098290000 113.9822500000,22.4099350000 113.9822730000,22.4101510000 113.9822800000,22.4103970000 113.9822810000,22.4106250000 113.9822830000,22.4109750000 113.9822840000,22.4110160000 113.9822850000,22.4110280000 113.9822840000,22.4117210000 113.9822800000,22.4119080000 113.9822800000,22.4121740000 113.9822800000,22.4129600000 113.9822860000,22.4133440000 113.9822940000,22.4134320000 113.9823220000,22.4137360000 113.9823480000,22.4139900000 113.9823930000,22.4144030000 113.9823960000,22.4144450000 113.9824020000,22.4145420000 113.9823990000,22.4146050000 113.9823710000,22.4148610000 113.9823290000,22.4150070000 113.9822800000,22.4151120000 113.9822270000,22.4152010000 113.9821550000,22.4152940000 113.9821100000,22.4153440000 113.9819870000,22.4154480000 113.9817710000,22.4156780000 113.9816560000,22.4158000000 113.9815380000,22.4156430000 113.9814930000,22.4155740000 113.9814570000,22.4155100000 113.9814000000,22.4153970000 113.9813540000,22.4153120000 113.9813200000,22.4152500000 113.9813230000,22.4152360000 113.9813260000,22.4152210000 113.9813260000,22.4151990000 113.9813190000,22.4151700000 113.9813070000,22.4151400000 113.9812900000,22.4151110000 113.9812590000,22.4150720000 113.9812160000,22.4150370000 113.9811700000,22.4150080000 113.9811320000,22.4149890000 113.9810830000,22.4149690000 113.9810280000,22.4149560000 113.9809720000,22.4149510000 113.9809190000,22.4149560000 113.9808730000,22.4149630000 113.9808380000,22.4149740000 113.9808030000,22.4149940000 113.9807820000,22.4150120000 113.9807630000,22.4150340000 113.9807520000,22.4150530000 113.9807440000,22.4150980000 113.9807440000,22.4151450000 113.9807590000,22.4151910000 113.9807800000,22.4152260000 113.9808140000,22.4152620000 113.9808600000,22.4152960000 113.9809090000,22.4153190000 113.9809600000,22.4153410000 113.9810140000,22.4153570000 113.9813000000,22.4155970000 113.9814630000,22.4157340000 113.9815040000,22.4157680000 113.9816030000,22.4158580000 113.9817060000,22.4159060000 113.9817950000,22.4159850000 113.9818900000,22.4158670000 113.9819570000,22.4158020000 113.9820610000,22.4157320000 113.9821670000,22.4156760000 113.9822590000,22.4156460000 113.9823620000,22.4156310000 113.9825980000,22.4156260000 113.9828590000,22.4156210000 113.9830190000,22.4156070000 113.9831680000,22.4155760000 113.9833720000,22.4155360000 113.9836810000,22.4154790000 113.9839490000,22.4154560000 113.9841560000,22.4154560000 113.9848330000,22.4154500000 113.9854390000,22.4154900000 113.9860370000,22.4155460000 113.9865800000,22.4156130000 113.9875000000,22.4157640000 113.9884580000,22.4159730000 113.9886510000,22.4160220000 113.9892140000,22.4162270000 113.9896740000,22.4163900000 113.9899310000,22.4164920000 113.9900410000,22.4165380000 113.9901570000,22.4165940000 113.9903480000,22.4166950000 113.9904960000,22.4167800000 113.9908920000,22.4170540000 113.9913480000,22.4174090000 113.9915590000,22.4175950000 113.9916470000,22.4176870000 113.9917150000,22.4177700000 113.9917580000,22.4178370000 113.9918050000,22.4179190000 113.9918390000,22.4180070000 113.9918670000,22.4180870000 113.9918830000,22.4181590000 113.9918890000,22.4182260000 113.9918910000,22.4182770000 113.9918900000,22.4183550000 113.9918820000,22.4184420000 113.9918680000,22.4185130000 113.9918530000,22.4185750000 113.9918220000,22.4186570000 113.9917910000,22.4187270000 113.9917550000,22.4187890000 113.9917160000,22.4188420000 113.9916740000,22.4188920000 113.9916300000,22.4189360000 113.9915770000,22.4189860000 113.9915050000,22.4190420000 113.9914500000,22.4190770000 113.9913930000,22.4191050000 113.9913170000,22.4191390000 113.9912420000,22.4191680000 113.9911740000,22.4191890000 113.9911030000,22.4192030000 113.9910230000,22.4192140000 113.9909510000,22.4192180000 113.9908890000,22.4192200000 113.9908060000,22.4192180000 113.9907330000,22.4192120000 113.9906390000,22.4192030000 113.9905620000,22.4191900000 113.9904700000,22.4191700000 113.9900010000,22.4190520000 113.9895900000,22.4189750000 113.9890430000,22.4189050000 113.9889110000,22.4189060000 113.9886520000,22.4189210000 113.9884500000,22.4189260000 113.9882700000,22.4189480000 113.9881350000,22.4189750000 113.9879970000,22.4190140000 113.9878410000,22.4190790000 113.9877170000,22.4191380000 113.9876100000,22.4192000000 113.9874940000,22.4192790000 113.9873650000,22.4193770000 113.9872330000,22.4194930000 113.9870430000,22.4196840000 113.9867510000,22.4200200000 113.9863160000,22.4205310000 113.9859760000,22.4209620000 113.9854020000,22.4218010000 113.9848220000,22.4227500000 113.9841520000,22.4239050000 113.9839070000,22.4243370000 113.9835720000,22.4249270000 113.9834740000,22.4251120000 113.9833860000,22.4252690000 113.9830470000,22.4259470000 113.9827660000,22.4266720000 113.9825500000,22.4274680000 113.9824570000,22.4280120000 113.9824020000,22.4285910000 113.9823890000,22.4291410000 113.9824150000,22.4296690000 113.9824840000,22.4301510000 113.9825600000,22.4305850000 113.9827410000,22.4312610000 113.9828410000,22.4316030000 113.9829660000,22.4319220000 113.9830970000,22.4322170000 113.9833710000,22.4327060000 113.9837790000,22.4334720000 113.9841800000,22.4342380000 113.9845590000,22.4351940000 113.9848820000,22.4362100000 113.9849730000,22.4365690000 113.9851100000,22.4372590000 113.9853720000,22.4387510000 113.9856240000,22.4400480000 113.9856640000,22.4403330000 113.9856680000,22.4406000000 113.9856640000,22.4409840000 113.9856380000,22.4413340000 113.9855420000,22.4417850000 113.9854280000,22.4421540000 113.9852570000,22.4425730000 113.9850540000,22.4429370000 113.9847930000,22.4433650000 113.9838670000,22.4447090000 113.9834940000,22.4451250000 113.9831570000,22.4454630000 113.9826710000,22.4458860000 113.9819240000,22.4465030000 113.9810890000,22.4471420000 113.9806780000,22.4473740000 113.9803250000,22.4475390000 113.9797400000,22.4477200000 113.9791310000,22.4478870000 113.9786210000,22.4480460000 113.9780220000,22.4483360000 113.9779040000,22.4484140000 113.9777980000,22.4484890000 113.9776840000,22.4485700000 113.9775620000,22.4486710000 113.9774450000,22.4487820000 113.9773270000,22.4489070000 113.9772270000,22.4490250000 113.9771170000,22.4491660000 113.9770160000,22.4493040000 113.9769140000,22.4494530000 113.9768150000,22.4496190000 113.9766290000,22.4499240000 113.9765480000,22.4500570000 113.9764450000,22.4502220000 113.9762970000,22.4504500000 113.9761230000,22.4506690000 113.9760250000,22.4507820000 113.9759240000,22.4508870000 113.9758280000,22.4509830000 113.9757530000,22.4510490000 113.9756600000,22.4511290000 113.9755670000,22.4512080000 113.9754600000,22.4512910000 113.9753710000,22.4513560000 113.9749530000,22.4516440000 113.9748800000,22.4516920000 113.9745710000,22.4519080000 113.9744250000,22.4520170000 113.9742710000,22.4521410000 113.9741580000,22.4522340000 113.9740360000,22.4523480000 113.9738560000,22.4525220000 113.9737160000,22.4526700000 113.9735800000,22.4528280000 113.9734470000,22.4529890000 113.9733010000,22.4531810000 113.9731660000,22.4533610000 113.9730300000,22.4535530000 113.9727530000,22.4539390000 113.9724930000,22.4543020000 113.9722200000,22.4546700000 113.9718130000,22.4552230000 113.9716630000,22.4554200000 113.9715320000,22.4555890000 113.9713810000,22.4557910000 113.9712450000,22.4559770000 113.9711000000,22.4561840000 113.9709700000,22.4563700000 113.9708400000,22.4565620000 113.9707010000,22.4567660000 113.9705680000,22.4569640000 113.9704470000,22.4571460000 113.9703260000,22.4573350000 113.9702060000,22.4575220000 113.9700830000,22.4577170000 113.9699550000,22.4579180000 113.9698350000,22.4581140000 113.9697090000,22.4583190000 113.9695910000,22.4585160000 113.9694750000,22.4587140000 113.9693600000,22.4589190000 113.9692450000,22.4591180000 113.9691310000,22.4593210000 113.9690160000,22.4595320000 113.9689080000,22.4597320000 113.9687950000,22.4599370000 113.9686910000,22.4601360000 113.9685830000,22.4603330000 113.9677250000,22.4619200000 113.9676110000,22.4621320000 113.9675080000,22.4623230000 113.9673900000,22.4625380000 113.9672770000,22.4627390000 113.9671660000,22.4629400000 113.9670440000,22.4631510000 113.9669320000,22.4633440000 113.9668210000,22.4635330000 113.9667000000,22.4637330000 113.9665880000,22.4639200000 113.9664660000,22.4641150000 113.9663440000,22.4643090000 113.9662190000,22.4645090000 113.9660900000,22.4647090000 113.9659550000,22.4649130000 113.9658280000,22.4651040000 113.9656920000,22.4653090000 113.9655590000,22.4655040000 113.9654200000,22.4657060000 113.9652810000,22.4658980000 113.9651490000,22.4660880000 113.9650170000,22.4662720000 113.9648800000,22.4664550000 113.9647400000,22.4666450000 113.9646070000,22.4668230000 113.9644630000,22.4670120000 113.9643150000,22.4672040000 113.9641720000,22.4673870000 113.9640290000,22.4675700000 113.9638910000,22.4677420000 113.9637430000,22.4679230000 113.9635970000,22.4680990000 113.9634450000,22.4682840000 113.9633010000,22.4684560000 113.9631400000,22.4686390000 113.9629810000,22.4688190000 113.9628260000,22.4689980000 113.9626750000,22.4691670000 113.9625190000,22.4693400000 113.9623660000,22.4695090000 113.9622020000,22.4696870000 113.9620430000,22.4698560000 113.9618810000,22.4700260000 113.9617270000,22.4701860000 113.9615660000,22.4703520000 113.9614010000,22.4705180000 113.9612330000,22.4706880000 113.9610700000,22.4708480000 113.9577420000,22.4740520000 113.9572870000,22.4744820000 113.9558460000,22.4758800000 113.9551830000,22.4765130000 113.9545840000,22.4770800000 113.9542490000,22.4774020000 113.9540760000,22.4775750000 113.9539100000,22.4777420000 113.9537460000,22.4779120000 113.9535900000,22.4780740000 113.9534230000,22.4782490000 113.9532600000,22.4784230000 113.9531050000,22.4785930000 113.9529450000,22.4787680000 113.9527940000,22.4789340000 113.9526380000,22.4791080000 113.9524830000,22.4792900000 113.9523390000,22.4794580000 113.9521700000,22.4796550000 113.9520100000,22.4798470000 113.9518580000,22.4800280000 113.9517150000,22.4802040000 113.9515710000,22.4803810000 113.9514380000,22.4805490000 113.9513020000,22.4807200000 113.9511600000,22.4808990000 113.9510220000,22.4810790000 113.9508830000,22.4812670000 113.9507470000,22.4814490000 113.9505970000,22.4816470000 113.9504580000,22.4818380000 113.9503150000,22.4820360000 113.9501790000,22.4822300000 113.9500430000,22.4824250000 113.9499040000,22.4826350000 113.9497700000,22.4828330000 113.9496300000,22.4830360000 113.9494950000,22.4832440000 113.9493750000,22.4834300000 113.9492510000,22.4836260000 113.9491270000,22.4838240000 113.9490030000,22.4840300000 113.9488810000,22.4842280000 113.9487670000,22.4844190000 113.9486450000,22.4846220000 113.9485310000,22.4848170000 113.9480260000,22.4856850000 113.9475750000,22.4864570000 113.9475030000,22.4865800000 113.9473890000,22.4867750000 113.9473340000,22.4868700000 113.9472150000,22.4870750000 113.9470910000,22.4872890000 113.9469870000,22.4874670000 113.9468780000,22.4876560000 113.9467760000,22.4878410000 113.9463840000,22.4885350000 113.9462710000,22.4887350000 113.9460970000,22.4891480000 113.9460630000,22.4892250000 113.9458430000,22.4896700000 113.9456600000,22.4900230000 113.9456060000,22.4901510000 113.9455810000,22.4902260000 113.9455540000,22.4903270000 113.9455340000,22.4904240000 113.9455240000,22.4905210000 113.9455170000,22.4906510000 113.9455200000,22.4907550000 113.9455270000,22.4908370000 113.9455400000,22.4909130000 113.9455560000,22.4909890000 113.9455890000,22.4911050000 113.9456210000,22.4911880000 113.9456570000,22.4912700000 113.9457120000,22.4913850000 113.9457640000,22.4914860000 113.9458190000,22.4915900000 113.9460020000,22.4919490000 113.9458150000,22.4919480000 113.9457870000,22.4918650000 113.9457640000,22.4918100000 113.9457320000,22.4917490000 113.9456970000,22.4916910000 113.9456460000,22.4916260000 113.9455900000,22.4915670000 113.9455220000,22.4915110000 113.9454520000,22.4914610000 113.9453530000,22.4914050000 113.9452520000,22.4913530000 113.9449190000,22.4911970000 113.9447610000,22.4911350000 113.9446460000,22.4910950000 113.9445510000,22.4910700000 113.9444640000,22.4910540000 113.9443690000,22.4910470000 113.9429030000,22.4910070000 113.9429330000,22.4910720000 113.9429400000,22.4911050000 113.9429330000,22.4911390000 113.9429160000,22.4911840000 113.9428980000,22.4912140000 113.9428790000,22.4912710000 113.9428800000,22.4913400000 113.9428900000,22.4913850000 113.9429030000,22.4914160000 113.9429150000,22.4914420000 113.9429630000,22.4914990000 113.9432270000,22.4915030000 113.9432790000,22.4915100000 113.9433250000,22.4915270000 113.9433630000,22.4915450000 113.9433960000,22.4915790000 113.9434200000,22.4916100000 113.9434420000,22.4916500000 113.9434400000,22.4916940000 113.9434360000,22.4919010000 113.9433950000,22.4935380000 113.9433700000,22.4945240000 113.9433670000,22.4946760000 113.9433860000,22.4947880000 113.9434690000,22.4948960000 113.9436290000,22.4949720000 113.9438010000,22.4949980000 113.9439620000,22.4950100000 113.9440990000,22.4950110000 113.9447610000,22.4949840000 113.9445290000,22.4952790000 113.9444630000,22.4953460000 113.9443740000,22.4954090000 113.9442950000,22.4954520000 113.9441070000,22.4954840000 113.9439590000,22.4954850000 113.9435410000,22.4954890000 113.9434870000,22.4955190000 113.9434500000,22.4955780000 113.9434340000,22.4956560000 113.9434250000,22.4963390000 113.9434440000,22.4963860000 113.9434790000,22.4964230000 113.9431600000,22.4964630000 113.9428100000,22.4964750000 113.9429300000,22.4967070000 113.9429960000,22.4968970000 113.9430500000,22.4971030000</coordinates>
                </LineString>
                <ExtendedData>
                    <Data name="duration">
                        <value>01:42:12</value>
                    </Data>
                    <Data name="length">
                        <value>91982.25451257078</value>
                    </Data>
                </ExtendedData>
            </Placemark>
        </Document>
    </Document>
</kml>