<?xml version="1.0" encoding="UTF-8"?>
<kml xmlns="http://www.opengis.net/kml/2.2" xmlns:gx="http://www.google.com/kml/ext/2.2">
    <Document>
        <name>Route</name>
        <Folder>
            <name>Route Request</name>
            <Placemark>
                <address>Block 15, Lung Chak Road, Yeung Siu Hang, Castle Peak Bay, Tsing Shan Tsuen, New Territories, Hong Kong, DD132 586, PRC</address>
                <Point>
                    <coordinates>113.9774765621,22.3821925769</coordinates>
                </Point>
                <ExtendedData>
                    <Data name="neighbourhood">
                        <value>Yeung Siu Hang</value>
                    </Data>
                    <Data name="country_code">
                        <value>cn</value>
                    </Data>
                    <Data name="country">
                        <value>PRC</value>
                    </Data>
                    <Data name="building">
                        <value>Block 15</value>
                    </Data>
                    <Data name="region">
                        <value>New Territories</value>
                    </Data>
                    <Data name="state">
                        <value>Hong Kong</value>
                    </Data>
                    <Data name="hamlet">
                        <value>Tsing Shan Tsuen</value>
                    </Data>
                    <Data name="suburb">
                        <value>Castle Peak Bay</value>
                    </Data>
                    <Data name="postcode">
                        <value>DD132 586</value>
                    </Data>
                    <Data name="road">
                        <value>Lung Chak Road</value>
                    </Data>
                    <Data name="routingVisited">
                        <value>false</value>
                    </Data>
                </ExtendedData>
            </Placemark>
            <Placemark>
                <Point>
                    <coordinates>114.0191459035,22.3624333167</coordinates>
                </Point>
                <ExtendedData>
                    <Data name="routingVisited">
                        <value>false</value>
                    </Data>
                </ExtendedData>
            </Placemark>
            <Placemark>
                <Point>
                    <coordinates>114.0444397213,22.3616490520</coordinates>
                </Point>
            </Placemark>
            <Placemark>
                <Point>
                    <coordinates>114.0999194500,22.3450555959</coordinates>
                </Point>
                <ExtendedData>
                    <Data name="routingVisited">
                        <value>false</value>
                    </Data>
                </ExtendedData>
            </Placemark>
            <Placemark>
                <Point>
                    <coordinates>114.1746954647,22.3177235246</coordinates>
                </Point>
                <ExtendedData>
                    <Data name="routingVisited">
                        <value>false</value>
                    </Data>
                </ExtendedData>
            </Placemark>
            <Placemark>
                <Point>
                    <coordinates>114.1824999803,22.3123415964</coordinates>
                </Point>
                <ExtendedData>
                    <Data name="routingVisited">
                        <value>false</value>
                    </Data>
                </ExtendedData>
            </Placemark>
            <Placemark>
                <Point>
                    <coordinates>114.1922599544,22.3076490422</coordinates>
                </Point>
                <ExtendedData>
                    <Data name="routingVisited">
                        <value>false</value>
                    </Data>
                </ExtendedData>
            </Placemark>
            <Placemark>
                <Point>
                    <coordinates>114.1821746503,22.3123415050</coordinates>
                </Point>
            </Placemark>
            <Placemark>
                <Point>
                    <coordinates>114.1683869091,22.3124829398</coordinates>
                </Point>
                <ExtendedData>
                    <Data name="routingVisited">
                        <value>false</value>
                    </Data>
                </ExtendedData>
            </Placemark>
            <Placemark>
                <Point>
                    <coordinates>114.1026353910,22.3447822492</coordinates>
                </Point>
            </Placemark>
            <Placemark>
                <Point>
                    <coordinates>114.0352543377,22.3574771380</coordinates>
                </Point>
                <ExtendedData>
                    <Data name="routingVisited">
                        <value>false</value>
                    </Data>
                </ExtendedData>
            </Placemark>
            <Placemark>
                <Point>
                    <coordinates>114.0179347137,22.3630616686</coordinates>
                </Point>
                <ExtendedData>
                    <Data name="routingVisited">
                        <value>false</value>
                    </Data>
                </ExtendedData>
            </Placemark>
            <Placemark>
                <address>Block 15, Lung Chak Road, Yeung Siu Hang, Castle Peak Bay, Tsing Shan Tsuen, New Territories, Hong Kong, DD132 586, PRC</address>
                <Point>
                    <coordinates>113.9774913344,22.3822335583</coordinates>
                </Point>
                <ExtendedData>
                    <Data name="neighbourhood">
                        <value>Yeung Siu Hang</value>
                    </Data>
                    <Data name="country_code">
                        <value>cn</value>
                    </Data>
                    <Data name="country">
                        <value>PRC</value>
                    </Data>
                    <Data name="building">
                        <value>Block 15</value>
                    </Data>
                    <Data name="region">
                        <value>New Territories</value>
                    </Data>
                    <Data name="state">
                        <value>Hong Kong</value>
                    </Data>
                    <Data name="hamlet">
                        <value>Tsing Shan Tsuen</value>
                    </Data>
                    <Data name="suburb">
                        <value>Castle Peak Bay</value>
                    </Data>
                    <Data name="postcode">
                        <value>DD132 586</value>
                    </Data>
                    <Data name="road">
                        <value>Lung Chak Road</value>
                    </Data>
                    <Data name="routingVisited">
                        <value>false</value>
                    </Data>
                </ExtendedData>
            </Placemark>
        </Folder>
        <Document>
            <name>61.4 km; 01:47 h (OSRM)</name>
            <Placemark>
                <name>Route</name>
                <LineString>
                    <coordinates>113.9775410000,22.3820970000 113.9777140000,22.3821950000 113.9778560000,22.3822740000 113.9782940000,22.3825390000 113.9783440000,22.3824320000 113.9783800000,22.3823700000 113.9787940000,22.3817480000 113.9788130000,22.3817200000 113.9788390000,22.3816800000 113.9790460000,22.3813650000 113.9791980000,22.3811460000 113.9794370000,22.3807850000 113.9800810000,22.3798620000 113.9801910000,22.3796850000 113.9804160000,22.3793170000 113.9805200000,22.3791700000 113.9808210000,22.3787420000 113.9811140000,22.3785140000 113.9813770000,22.3783710000 113.9817760000,22.3782150000 113.9822150000,22.3781100000 113.9823960000,22.3780780000 113.9827420000,22.3780240000 113.9829590000,22.3779900000 113.9832610000,22.3779110000 113.9833690000,22.3778740000 113.9835910000,22.3777710000 113.9836580000,22.3777270000 113.9844450000,22.3771180000 113.9847210000,22.3769060000 113.9847660000,22.3768610000 113.9848480000,22.3767860000 113.9858200000,22.3757940000 113.9860360000,22.3756020000 113.9860790000,22.3755540000 113.9861540000,22.3754690000 113.9871310000,22.3745520000 113.9873890000,22.3743100000 113.9874230000,22.3742780000 113.9876190000,22.3741230000 113.9878340000,22.3740050000 113.9880410000,22.3739610000 113.9885810000,22.3739100000 113.9894320000,22.3738670000 113.9897830000,22.3738390000 113.9901830000,22.3737930000 113.9902780000,22.3738070000 113.9907490000,22.3737590000 113.9912650000,22.3736990000 113.9916580000,22.3736490000 113.9920700000,22.3735800000 113.9924270000,22.3734340000 113.9925680000,22.3733420000 113.9926860000,22.3732350000 113.9928030000,22.3730930000 113.9928810000,22.3729920000 113.9929910000,22.3728330000 113.9935090000,22.3720560000 113.9936830000,22.3717960000 113.9941370000,22.3711560000 113.9942670000,22.3709720000 113.9947690000,22.3702630000 113.9951290000,22.3697690000 113.9953600000,22.3694410000 113.9955200000,22.3692370000 113.9955980000,22.3691030000 113.9957280000,22.3689060000 113.9958620000,22.3686990000 113.9960000000,22.3685070000 113.9961760000,22.3683090000 113.9963730000,22.3681480000 113.9964820000,22.3680850000 113.9966920000,22.3679820000 113.9967430000,22.3679950000 113.9967940000,22.3679850000 113.9968340000,22.3679530000 113.9968530000,22.3679080000 113.9969440000,22.3679020000 113.9970970000,22.3678790000 113.9972860000,22.3678760000 113.9974760000,22.3678890000 113.9974880000,22.3678900000 113.9976240000,22.3679190000 113.9981460000,22.3680370000 113.9984080000,22.3680830000 113.9986910000,22.3681100000 113.9988930000,22.3681180000 113.9992090000,22.3681080000 113.9993430000,22.3680950000 113.9995800000,22.3680410000 113.9998290000,22.3679710000 114.0000780000,22.3678860000 114.0004030000,22.3677350000 114.0005370000,22.3676590000 114.0006600000,22.3675720000 114.0016980000,22.3667000000 114.0018830000,22.3665730000 114.0020740000,22.3664640000 114.0023370000,22.3663780000 114.0023680000,22.3663860000 114.0024010000,22.3663860000 114.0024320000,22.3663780000 114.0024600000,22.3663630000 114.0024830000,22.3663410000 114.0026350000,22.3662780000 114.0027920000,22.3662360000 114.0029860000,22.3662190000 114.0031660000,22.3662090000 114.0033890000,22.3662030000 114.0037530000,22.3661920000 114.0041780000,22.3661680000 114.0049360000,22.3661420000 114.0052030000,22.3661540000 114.0054160000,22.3661690000 114.0060190000,22.3662670000 114.0064780000,22.3663480000 114.0069950000,22.3664550000 114.0076190000,22.3665490000 114.0079250000,22.3665660000 114.0082470000,22.3665670000 114.0085080000,22.3665640000 114.0088250000,22.3665380000 114.0089440000,22.3665200000 114.0095490000,22.3664390000 114.0106850000,22.3663280000 114.0108930000,22.3663050000 114.0112590000,22.3662710000 114.0115190000,22.3662300000 114.0118070000,22.3661440000 114.0120220000,22.3660620000 114.0122220000,22.3659720000 114.0123990000,22.3658760000 114.0126450000,22.3657120000 114.0128480000,22.3655450000 114.0130470000,22.3653580000 114.0131250000,22.3652700000 114.0132430000,22.3651090000 114.0133150000,22.3649880000 114.0134330000,22.3647410000 114.0135480000,22.3645510000 114.0136330000,22.3644740000 114.0136920000,22.3644470000 114.0137400000,22.3644040000 114.0137730000,22.3643500000 114.0139420000,22.3643720000 114.0144090000,22.3643540000 114.0145500000,22.3643450000 114.0147480000,22.3643120000 114.0149160000,22.3642650000 114.0150520000,22.3642110000 114.0151150000,22.3641860000 114.0153490000,22.3641290000 114.0162800000,22.3636500000 114.0164100000,22.3635900000 114.0168000000,22.3634100000 114.0170000000,22.3633500000 114.0171000000,22.3633300000 114.0171600000,22.3633200000 114.0178000000,22.3632600000 114.0180710000,22.3632330000 114.0182180000,22.3632230000 114.0183390000,22.3632020000 114.0185680000,22.3631380000 114.0187830000,22.3630250000 114.0189930000,22.3628570000 114.0191650000,22.3626430000 114.0191920000,22.3625790000 114.0192400000,22.3624680000 114.0192740000,22.3623920000 114.0193090000,22.3622770000 114.0193220000,22.3621790000 114.0193290000,22.3620660000 114.0193360000,22.3617610000 114.0192990000,22.3614720000 114.0192060000,22.3608630000 114.0191610000,22.3603020000 114.0191600000,22.3602850000 114.0191550000,22.3589520000 114.0191600000,22.3586500000 114.0191460000,22.3584100000 114.0191320000,22.3582490000 114.0191210000,22.3581460000 114.0191100000,22.3580870000 114.0190990000,22.3580460000 114.0191000000,22.3579720000 114.0190940000,22.3578280000 114.0190910000,22.3577500000 114.0190870000,22.3576710000 114.0191750000,22.3574800000 114.0192470000,22.3573720000 114.0193510000,22.3572800000 114.0195460000,22.3571480000 114.0198050000,22.3570110000 114.0204690000,22.3567540000 114.0210690000,22.3565460000 114.0221580000,22.3562410000 114.0231740000,22.3559800000 114.0240620000,22.3557960000 114.0248430000,22.3556850000 114.0255860000,22.3556220000 114.0263700000,22.3555880000 114.0270500000,22.3555910000 114.0284030000,22.3556820000 114.0292460000,22.3557580000 114.0295190000,22.3557740000 114.0301770000,22.3558570000 114.0307300000,22.3559570000 114.0313790000,22.3560980000 114.0317440000,22.3562050000 114.0323440000,22.3564100000 114.0329540000,22.3566450000 114.0334790000,22.3568610000 114.0335920000,22.3569400000 114.0337050000,22.3570410000 114.0338220000,22.3571660000 114.0338460000,22.3572040000 114.0338820000,22.3572330000 114.0339250000,22.3572480000 114.0339700000,22.3572490000 114.0340140000,22.3572370000 114.0342000000,22.3572620000 114.0342500000,22.3572750000 114.0346890000,22.3574520000 114.0349170000,22.3575320000 114.0351620000,22.3576220000 114.0354130000,22.3577110000 114.0355850000,22.3577660000 114.0359020000,22.3578670000 114.0362360000,22.3579550000 114.0367100000,22.3580810000 114.0370230000,22.3581440000 114.0374400000,22.3581930000 114.0380320000,22.3582920000 114.0382720000,22.3583520000 114.0384660000,22.3584170000 114.0388180000,22.3585590000 114.0390920000,22.3586960000 114.0393250000,22.3588340000 114.0395390000,22.3589820000 114.0397420000,22.3591450000 114.0401050000,22.3594570000 114.0404080000,22.3597110000 114.0405650000,22.3598390000 114.0410870000,22.3601870000 114.0415270000,22.3604080000 114.0418500000,22.3605610000 114.0423790000,22.3607890000 114.0427830000,22.3609490000 114.0434070000,22.3612280000 114.0436620000,22.3613340000 114.0439920000,22.3614600000 114.0443370000,22.3615570000 114.0444540000,22.3615770000 114.0446870000,22.3616160000 114.0450200000,22.3616340000 114.0454470000,22.3615990000 114.0454850000,22.3616500000 114.0455400000,22.3616850000 114.0456050000,22.3617010000 114.0456710000,22.3616960000 114.0457260000,22.3616730000 114.0457710000,22.3616360000 114.0458010000,22.3615880000 114.0460380000,22.3614700000 114.0461130000,22.3614420000 114.0463060000,22.3613690000 114.0465620000,22.3612900000 114.0467990000,22.3612240000 114.0471250000,22.3611620000 114.0473970000,22.3611290000 114.0475600000,22.3611220000 114.0477220000,22.3611230000 114.0480800000,22.3611440000 114.0483560000,22.3611840000 114.0486030000,22.3612320000 114.0488990000,22.3613170000 114.0491520000,22.3614170000 114.0496710000,22.3616640000 114.0500680000,22.3618680000 114.0503510000,22.3620120000 114.0505230000,22.3621270000 114.0507030000,22.3622380000 114.0510000000,22.3624370000 114.0516860000,22.3629420000 114.0519610000,22.3631050000 114.0523080000,22.3632390000 114.0526620000,22.3633290000 114.0533540000,22.3634470000 114.0535810000,22.3634890000 114.0537980000,22.3635520000 114.0541590000,22.3637110000 114.0544310000,22.3639080000 114.0547850000,22.3642150000 114.0548910000,22.3643510000 114.0549520000,22.3644970000 114.0549420000,22.3645490000 114.0549500000,22.3646020000 114.0549710000,22.3646470000 114.0550040000,22.3646850000 114.0550460000,22.3647140000 114.0550960000,22.3647320000 114.0551480000,22.3647370000 114.0552780000,22.3647890000 114.0553250000,22.3648140000 114.0554610000,22.3648940000 114.0556090000,22.3649920000 114.0558180000,22.3650910000 114.0561550000,22.3652260000 114.0563970000,22.3653190000 114.0567610000,22.3654610000 114.0569760000,22.3655440000 114.0570370000,22.3655720000 114.0571430000,22.3656200000 114.0574860000,22.3657760000 114.0577730000,22.3659210000 114.0581190000,22.3661440000 114.0583740000,22.3663480000 114.0588580000,22.3667740000 114.0590040000,22.3668930000 114.0590720000,22.3669470000 114.0593470000,22.3671760000 114.0595110000,22.3673200000 114.0598240000,22.3675540000 114.0600450000,22.3676750000 114.0601310000,22.3677080000 114.0602150000,22.3677350000 114.0603160000,22.3677460000 114.0604140000,22.3677510000 114.0606500000,22.3677490000 114.0609040000,22.3677260000 114.0610350000,22.3677120000 114.0611310000,22.3677000000 114.0617500000,22.3676360000 114.0618820000,22.3676240000 114.0621030000,22.3676030000 114.0623540000,22.3675630000 114.0624150000,22.3675690000 114.0626010000,22.3675470000 114.0626910000,22.3675440000 114.0627320000,22.3675600000 114.0627850000,22.3675900000 114.0629070000,22.3676740000 114.0629580000,22.3677570000 114.0629850000,22.3678530000 114.0629910000,22.3679260000 114.0629890000,22.3680230000 114.0629550000,22.3681200000 114.0629030000,22.3682340000 114.0628420000,22.3682910000 114.0626540000,22.3684840000 114.0625090000,22.3685360000 114.0624180000,22.3685790000 114.0624200000,22.3686340000 114.0624460000,22.3687470000 114.0625440000,22.3689570000 114.0626400000,22.3691940000 114.0627120000,22.3693730000 114.0627030000,22.3694290000 114.0626820000,22.3695160000 114.0626450000,22.3695960000 114.0625840000,22.3696890000 114.0624750000,22.3697670000 114.0623600000,22.3698110000 114.0622570000,22.3698180000 114.0621490000,22.3697720000 114.0620670000,22.3696980000 114.0620750000,22.3695700000 114.0620890000,22.3694760000 114.0621840000,22.3694030000 114.0622670000,22.3693630000 114.0625140000,22.3692940000 114.0627710000,22.3691630000 114.0629400000,22.3690620000 114.0630380000,22.3689630000 114.0632220000,22.3688180000 114.0634510000,22.3685850000 114.0639000000,22.3681040000 114.0643830000,22.3676700000 114.0648230000,22.3673200000 114.0653050000,22.3669960000 114.0657350000,22.3667230000 114.0662530000,22.3664310000 114.0665890000,22.3662810000 114.0668770000,22.3661850000 114.0674260000,22.3660140000 114.0679390000,22.3659040000 114.0687240000,22.3659270000 114.0691980000,22.3659830000 114.0695480000,22.3660610000 114.0698940000,22.3661810000 114.0703140000,22.3663970000 114.0706040000,22.3666200000 114.0708690000,22.3668880000 114.0710850000,22.3671950000 114.0713520000,22.3676950000 114.0716300000,22.3682420000 114.0718640000,22.3687150000 114.0720680000,22.3690510000 114.0722750000,22.3693270000 114.0725470000,22.3696100000 114.0729400000,22.3699040000 114.0732500000,22.3700930000 114.0735350000,22.3702290000 114.0740020000,22.3703800000 114.0743010000,22.3704510000 114.0746330000,22.3704960000 114.0749640000,22.3705070000 114.0751920000,22.3705060000 114.0754420000,22.3704810000 114.0757630000,22.3704160000 114.0760450000,22.3703230000 114.0763460000,22.3701750000 114.0766300000,22.3699690000 114.0768570000,22.3697610000 114.0771670000,22.3693930000 114.0774250000,22.3689450000 114.0780550000,22.3677510000 114.0783600000,22.3671140000 114.0785960000,22.3665690000 114.0819110000,22.3602270000 114.0825020000,22.3591100000 114.0825850000,22.3589570000 114.0830530000,22.3580330000 114.0838930000,22.3564690000 114.0842770000,22.3558590000 114.0853960000,22.3542650000 114.0859470000,22.3533570000 114.0861040000,22.3530750000 114.0861630000,22.3529440000 114.0862120000,22.3528500000 114.0863720000,22.3524850000 114.0864880000,22.3521920000 114.0865490000,22.3520270000 114.0866230000,22.3518530000 114.0869190000,22.3510640000 114.0869720000,22.3508990000 114.0870520000,22.3506180000 114.0872560000,22.3499170000 114.0873720000,22.3494690000 114.0873980000,22.3493700000 114.0875480000,22.3486660000 114.0875920000,22.3485000000 114.0877130000,22.3482200000 114.0878060000,22.3480050000 114.0879030000,22.3478290000 114.0879460000,22.3477590000 114.0880270000,22.3476410000 114.0881880000,22.3474400000 114.0884050000,22.3472080000 114.0887280000,22.3469380000 114.0889780000,22.3467510000 114.0892720000,22.3465590000 114.0898710000,22.3462360000 114.0904280000,22.3459560000 114.0909630000,22.3456820000 114.0913410000,22.3455040000 114.0917190000,22.3453490000 114.0921550000,22.3452070000 114.0926230000,22.3450940000 114.0931090000,22.3450000000 114.0933720000,22.3449740000 114.0939120000,22.3449600000 114.0947650000,22.3449530000 114.0952440000,22.3449500000 114.0957200000,22.3449460000 114.0999200000,22.3449880000 114.1004000000,22.3449930000 114.1010700000,22.3450180000 114.1014000000,22.3450400000 114.1017300000,22.3450680000 114.1020600000,22.3451030000 114.1023900000,22.3451480000 114.1030400000,22.3452500000 114.1033000000,22.3453000000 114.1035300000,22.3453500000 114.1037300000,22.3453950000 114.1038810000,22.3454310000 114.1040300000,22.3454700000 114.1042020000,22.3455180000 114.1043800000,22.3455700000 114.1046900000,22.3456680000 114.1049680000,22.3457620000 114.1051600000,22.3458300000 114.1053500000,22.3459000000 114.1056800000,22.3460270000 114.1060000000,22.3461600000 114.1066070000,22.3464420000 114.1092280000,22.3478020000 114.1094000000,22.3478900000 114.1094990000,22.3479370000 114.1095990000,22.3479820000 114.1098100000,22.3480700000 114.1100000000,22.3481490000 114.1103700000,22.3483000000 114.1107400000,22.3484400000 114.1117850000,22.3488280000 114.1122940000,22.3490260000 114.1139190000,22.3496290000 114.1142620000,22.3497560000 114.1150360000,22.3500590000 114.1152760000,22.3501570000 114.1155700000,22.3502930000 114.1159460000,22.3504950000 114.1163210000,22.3507340000 114.1167000000,22.3510040000 114.1170480000,22.3512810000 114.1174180000,22.3515670000 114.1177500000,22.3517760000 114.1179500000,22.3518880000 114.1181630000,22.3519900000 114.1185390000,22.3521520000 114.1187440000,22.3522270000 114.1189890000,22.3523010000 114.1192310000,22.3523660000 114.1195060000,22.3524250000 114.1197310000,22.3524620000 114.1199660000,22.3524930000 114.1204150000,22.3525210000 114.1208080000,22.3525130000 114.1212930000,22.3524700000 114.1214870000,22.3524420000 114.1216850000,22.3524020000 114.1220080000,22.3523000000 114.1223600000,22.3521610000 114.1225800000,22.3520590000 114.1227700000,22.3519640000 114.1230910000,22.3517690000 114.1234160000,22.3515320000 114.1237280000,22.3512190000 114.1239480000,22.3509410000 114.1241480000,22.3506360000 114.1243000000,22.3503120000 114.1244440000,22.3499020000 114.1244990000,22.3496360000 114.1245460000,22.3490950000 114.1245370000,22.3484120000 114.1245330000,22.3480180000 114.1245490000,22.3476170000 114.1246110000,22.3472070000 114.1247310000,22.3467150000 114.1248690000,22.3463550000 114.1250230000,22.3459890000 114.1252280000,22.3456200000 114.1254330000,22.3453410000 114.1256160000,22.3450810000 114.1258580000,22.3448130000 114.1260660000,22.3446100000 114.1265330000,22.3442760000 114.1273480000,22.3438330000 114.1276470000,22.3436840000 114.1281330000,22.3434510000 114.1283770000,22.3433460000 114.1286560000,22.3432050000 114.1289710000,22.3430190000 114.1291870000,22.3428750000 114.1294020000,22.3427320000 114.1295670000,22.3426040000 114.1297310000,22.3424680000 114.1298900000,22.3423150000 114.1301370000,22.3420730000 114.1303630000,22.3417950000 114.1306770000,22.3413100000 114.1308700000,22.3409770000 114.1310190000,22.3406270000 114.1311910000,22.3402610000 114.1313730000,22.3398820000 114.1316710000,22.3392680000 114.1318380000,22.3388800000 114.1320290000,22.3384520000 114.1321900000,22.3381270000 114.1323810000,22.3378010000 114.1326340000,22.3374160000 114.1328490000,22.3371110000 114.1330810000,22.3368060000 114.1333360000,22.3365110000 114.1336020000,22.3362270000 114.1338900000,22.3359480000 114.1339530000,22.3358950000 114.1348240000,22.3351680000 114.1351300000,22.3349590000 114.1354160000,22.3347750000 114.1357060000,22.3346060000 114.1360310000,22.3344250000 114.1363260000,22.3342690000 114.1366140000,22.3341310000 114.1369430000,22.3339880000 114.1373830000,22.3338160000 114.1378110000,22.3336600000 114.1386610000,22.3333430000 114.1395230000,22.3329850000 114.1440510000,22.3312520000 114.1461640000,22.3304630000 114.1472530000,22.3300310000 114.1479270000,22.3297640000 114.1484760000,22.3295300000 114.1490060000,22.3292880000 114.1495250000,22.3290460000 114.1508110000,22.3283430000 114.1512720000,22.3280540000 114.1518840000,22.3276670000 114.1522940000,22.3273890000 114.1528420000,22.3269960000 114.1532080000,22.3267150000 114.1536570000,22.3263590000 114.1540770000,22.3260070000 114.1544350000,22.3256710000 114.1547960000,22.3253360000 114.1551400000,22.3249960000 114.1554890000,22.3246310000 114.1556770000,22.3244380000 114.1558850000,22.3242120000 114.1561370000,22.3239280000 114.1564520000,22.3235770000 114.1567130000,22.3232530000 114.1569820000,22.3229170000 114.1573320000,22.3224540000 114.1576600000,22.3219910000 114.1579160000,22.3216230000 114.1581500000,22.3212580000 114.1584730000,22.3206990000 114.1588490000,22.3199810000 114.1591160000,22.3194600000 114.1593190000,22.3190490000 114.1595390000,22.3185730000 114.1597120000,22.3181800000 114.1603290000,22.3167100000 114.1605310000,22.3162300000 114.1608300000,22.3155880000 114.1610290000,22.3150940000 114.1612400000,22.3145370000 114.1613170000,22.3143800000 114.1614240000,22.3141290000 114.1615580000,22.3137960000 114.1617950000,22.3134070000 114.1621340000,22.3128320000 114.1623680000,22.3125800000 114.1628110000,22.3123430000 114.1631730000,22.3121900000 114.1633110000,22.3121370000 114.1634460000,22.3120760000 114.1635610000,22.3120370000 114.1636690000,22.3120110000 114.1638130000,22.3119870000 114.1639620000,22.3119830000 114.1641430000,22.3119990000 114.1642400000,22.3120150000 114.1643360000,22.3120400000 114.1646390000,22.3120760000 114.1647310000,22.3120880000 114.1648590000,22.3121090000 114.1649820000,22.3121290000 114.1654340000,22.3122020000 114.1658900000,22.3122760000 114.1665030000,22.3123820000 114.1666550000,22.3124020000 114.1667710000,22.3124140000 114.1670050000,22.3124500000 114.1674820000,22.3125180000 114.1675660000,22.3125290000 114.1685170000,22.3126950000 114.1689750000,22.3127740000 114.1694280000,22.3128440000 114.1700260000,22.3129430000 114.1705980000,22.3130570000 114.1706980000,22.3130740000 114.1712530000,22.3131580000 114.1713190000,22.3131700000 114.1713600000,22.3131800000 114.1713980000,22.3131920000 114.1714430000,22.3132110000 114.1714750000,22.3132350000 114.1715020000,22.3132660000 114.1717420000,22.3136150000 114.1719640000,22.3139250000 114.1721480000,22.3141940000 114.1723710000,22.3144890000 114.1727120000,22.3149300000 114.1734430000,22.3159060000 114.1738080000,22.3163920000 114.1739920000,22.3166440000 114.1743700000,22.3171700000 114.1747500000,22.3176890000 114.1748900000,22.3178800000 114.1751200000,22.3181900000 114.1753210000,22.3184600000 114.1754010000,22.3185600000 114.1754380000,22.3186090000 114.1755480000,22.3185400000 114.1762830000,22.3181630000 114.1765440000,22.3180460000 114.1767720000,22.3180160000 114.1769930000,22.3180040000 114.1772270000,22.3179980000 114.1775060000,22.3179230000 114.1778320000,22.3177930000 114.1779300000,22.3177520000 114.1782430000,22.3176240000 114.1788210000,22.3173730000 114.1789490000,22.3173190000 114.1792150000,22.3172110000 114.1793640000,22.3171600000 114.1798070000,22.3170080000 114.1799610000,22.3169450000 114.1803060000,22.3167850000 114.1807310000,22.3165330000 114.1811170000,22.3161940000 114.1811570000,22.3161570000 114.1811960000,22.3161150000 114.1812810000,22.3160110000 114.1813590000,22.3158810000 114.1814180000,22.3157250000 114.1815210000,22.3152410000 114.1816770000,22.3145490000 114.1817360000,22.3143430000 114.1819190000,22.3136320000 114.1819580000,22.3134430000 114.1819500000,22.3132540000 114.1820730000,22.3127500000 114.1821250000,22.3126070000 114.1821960000,22.3124720000 114.1822800000,22.3123390000 114.1823710000,22.3122400000 114.1824180000,22.3121890000 114.1828380000,22.3117890000 114.1829540000,22.3116800000 114.1840480000,22.3106540000 114.1841950000,22.3105170000 114.1842840000,22.3104340000 114.1843040000,22.3104160000 114.1844600000,22.3102730000 114.1849180000,22.3098440000 114.1853320000,22.3094530000 114.1856900000,22.3091140000 114.1858650000,22.3089800000 114.1859580000,22.3089350000 114.1860420000,22.3089070000 114.1861170000,22.3088920000 114.1862140000,22.3088860000 114.1863200000,22.3088760000 114.1864430000,22.3088740000 114.1866470000,22.3088730000 114.1872930000,22.3088780000 114.1875110000,22.3088860000 114.1877720000,22.3089030000 114.1879550000,22.3089090000 114.1884080000,22.3089130000 114.1892820000,22.3089030000 114.1899070000,22.3088920000 114.1901820000,22.3088850000 114.1902790000,22.3088820000 114.1903910000,22.3088790000 114.1904930000,22.3088680000 114.1905370000,22.3088560000 114.1905740000,22.3088440000 114.1907200000,22.3087830000 114.1911930000,22.3085610000 114.1914670000,22.3084420000 114.1916210000,22.3083760000 114.1916810000,22.3083430000 114.1919180000,22.3084700000 114.1921320000,22.3082820000 114.1923300000,22.3081640000 114.1925690000,22.3080520000 114.1926430000,22.3078360000 114.1926440000,22.3077820000 114.1925990000,22.3075830000 114.1923590000,22.3065200000 114.1922700000,22.3065320000 114.1921090000,22.3057800000 114.1918600000,22.3047670000 114.1913360000,22.3050910000 114.1910840000,22.3052620000 114.1910160000,22.3053080000 114.1908160000,22.3054380000 114.1907360000,22.3055850000 114.1907050000,22.3056920000 114.1906860000,22.3058080000 114.1906660000,22.3058750000 114.1906050000,22.3059690000 114.1905470000,22.3060370000 114.1896280000,22.3066360000 114.1895370000,22.3066910000 114.1896860000,22.3069040000 114.1897820000,22.3070580000 114.1898250000,22.3071380000 114.1900140000,22.3074900000 114.1900790000,22.3076650000 114.1901470000,22.3078870000 114.1902010000,22.3080990000 114.1902280000,22.3082090000 114.1902480000,22.3083570000 114.1902570000,22.3084330000 114.1902790000,22.3088820000 114.1901820000,22.3088850000 114.1899070000,22.3088920000 114.1892820000,22.3089030000 114.1884080000,22.3089130000 114.1879550000,22.3089090000 114.1877720000,22.3089030000 114.1875110000,22.3088860000 114.1872930000,22.3088780000 114.1866470000,22.3088730000 114.1864430000,22.3088740000 114.1863200000,22.3088760000 114.1862140000,22.3088860000 114.1861170000,22.3088920000 114.1860420000,22.3089070000 114.1859580000,22.3089350000 114.1858650000,22.3089800000 114.1856900000,22.3091140000 114.1853320000,22.3094530000 114.1849180000,22.3098440000 114.1844600000,22.3102730000 114.1843040000,22.3104160000 114.1842840000,22.3104340000 114.1841950000,22.3105170000 114.1840480000,22.3106540000 114.1829540000,22.3116800000 114.1828380000,22.3117890000 114.1824180000,22.3121890000 114.1822800000,22.3123390000 114.1822520000,22.3123840000 114.1821960000,22.3124720000 114.1821250000,22.3126070000 114.1820730000,22.3127500000 114.1819500000,22.3132540000 114.1818660000,22.3133450000 114.1818220000,22.3135010000 114.1817950000,22.3136030000 114.1817540000,22.3138030000 114.1816270000,22.3143040000 114.1815620000,22.3145250000 114.1814110000,22.3152210000 114.1812880000,22.3156890000 114.1812100000,22.3158690000 114.1811160000,22.3160520000 114.1810980000,22.3160790000 114.1810850000,22.3160970000 114.1810690000,22.3161150000 114.1810530000,22.3161350000 114.1809810000,22.3162050000 114.1808100000,22.3163580000 114.1806880000,22.3164710000 114.1805080000,22.3165750000 114.1802680000,22.3167080000 114.1798970000,22.3168560000 114.1797650000,22.3169060000 114.1791900000,22.3171230000 114.1788020000,22.3172860000 114.1781920000,22.3175370000 114.1778920000,22.3176700000 114.1777960000,22.3177110000 114.1774640000,22.3178480000 114.1772040000,22.3179080000 114.1767660000,22.3179270000 114.1764790000,22.3179840000 114.1754950000,22.3184700000 114.1753600000,22.3182900000 114.1750390000,22.3178610000 114.1746720000,22.3173700000 114.1740330000,22.3165100000 114.1734910000,22.3157970000 114.1728080000,22.3148650000 114.1725490000,22.3145170000 114.1722080000,22.3140620000 114.1720620000,22.3138710000 114.1718370000,22.3135680000 114.1715940000,22.3132320000 114.1715440000,22.3131770000 114.1715000000,22.3131430000 114.1714640000,22.3131190000 114.1714120000,22.3131010000 114.1713660000,22.3130870000 114.1707170000,22.3129770000 114.1706170000,22.3129600000 114.1701050000,22.3128580000 114.1694490000,22.3127390000 114.1689950000,22.3126750000 114.1683700000,22.3125600000 114.1682360000,22.3125350000 114.1675250000,22.3124150000 114.1672710000,22.3123500000 114.1670340000,22.3122560000 114.1664750000,22.3121650000 114.1663310000,22.3121360000 114.1661950000,22.3120870000 114.1659300000,22.3119480000 114.1657710000,22.3118450000 114.1656590000,22.3117630000 114.1653980000,22.3115410000 114.1652630000,22.3113550000 114.1652060000,22.3112790000 114.1651160000,22.3111580000 114.1650660000,22.3110900000 114.1649370000,22.3109430000 114.1649120000,22.3109060000 114.1648720000,22.3108580000 114.1648060000,22.3108110000 114.1647180000,22.3107750000 114.1644050000,22.3107320000 114.1641940000,22.3106910000 114.1639540000,22.3106370000 114.1637380000,22.3105810000 114.1633620000,22.3104710000 114.1629630000,22.3103320000 114.1626350000,22.3102260000 114.1623330000,22.3101430000 114.1621450000,22.3101200000 114.1619750000,22.3101150000 114.1618100000,22.3101150000 114.1615900000,22.3101700000 114.1613450000,22.3102580000 114.1612390000,22.3103330000 114.1611500000,22.3104020000 114.1610040000,22.3105600000 114.1608670000,22.3107570000 114.1608020000,22.3108810000 114.1607570000,22.3110180000 114.1606780000,22.3113700000 114.1606690000,22.3116000000 114.1606550000,22.3120200000 114.1606590000,22.3123530000 114.1606790000,22.3126820000 114.1607290000,22.3131430000 114.1607660000,22.3137870000 114.1607810000,22.3140190000 114.1607760000,22.3141790000 114.1607590000,22.3143550000 114.1607260000,22.3146350000 114.1606640000,22.3148920000 114.1605100000,22.3153440000 114.1599830000,22.3166670000 114.1593540000,22.3182770000 114.1592270000,22.3185940000 114.1589750000,22.3191820000 114.1588790000,22.3194320000 114.1587230000,22.3198130000 114.1585730000,22.3201030000 114.1584220000,22.3203760000 114.1582390000,22.3206750000 114.1580410000,22.3209780000 114.1577780000,22.3213580000 114.1567620000,22.3227470000 114.1563920000,22.3232040000 114.1560050000,22.3236420000 114.1555090000,22.3242060000 114.1551290000,22.3246030000 114.1547720000,22.3249070000 114.1545800000,22.3250590000 114.1543480000,22.3252160000 114.1534280000,22.3259320000 114.1530330000,22.3262600000 114.1527240000,22.3265660000 114.1522310000,22.3270260000 114.1519620000,22.3272490000 114.1514500000,22.3276420000 114.1499690000,22.3284660000 114.1495610000,22.3286740000 114.1493470000,22.3287790000 114.1489480000,22.3289760000 114.1486200000,22.3291300000 114.1483290000,22.3292640000 114.1476850000,22.3295300000 114.1471200000,22.3297390000 114.1466370000,22.3299120000 114.1463240000,22.3300390000 114.1453670000,22.3304340000 114.1449050000,22.3306190000 114.1440650000,22.3309030000 114.1422410000,22.3316350000 114.1419400000,22.3317580000 114.1416450000,22.3318640000 114.1415840000,22.3318910000 114.1409270000,22.3321250000 114.1406060000,22.3322590000 114.1401940000,22.3324580000 114.1396920000,22.3327020000 114.1394230000,22.3328760000 114.1377460000,22.3335210000 114.1373110000,22.3336840000 114.1368720000,22.3338520000 114.1365480000,22.3339950000 114.1362520000,22.3341350000 114.1359540000,22.3342920000 114.1356170000,22.3344760000 114.1353230000,22.3346500000 114.1350280000,22.3348370000 114.1347180000,22.3350490000 114.1345310000,22.3351930000 114.1342810000,22.3353920000 114.1340320000,22.3356040000 114.1337680000,22.3358450000 114.1334860000,22.3361240000 114.1332150000,22.3364170000 114.1329590000,22.3367180000 114.1327150000,22.3370340000 114.1325000000,22.3373380000 114.1322550000,22.3377220000 114.1320490000,22.3380880000 114.1318960000,22.3384030000 114.1317130000,22.3388030000 114.1313580000,22.3395440000 114.1310790000,22.3401370000 114.1310470000,22.3402070000 114.1308880000,22.3405740000 114.1307190000,22.3409130000 114.1305230000,22.3412450000 114.1302290000,22.3416960000 114.1300150000,22.3419730000 114.1297900000,22.3422150000 114.1296350000,22.3423570000 114.1294840000,22.3425000000 114.1293200000,22.3426370000 114.1291160000,22.3427790000 114.1288740000,22.3429000000 114.1285800000,22.3430670000 114.1282990000,22.3432080000 114.1280790000,22.3433120000 114.1275730000,22.3435180000 114.1272420000,22.3436620000 114.1269010000,22.3438300000 114.1265480000,22.3440350000 114.1261970000,22.3442850000 114.1259420000,22.3444920000 114.1256990000,22.3447270000 114.1254680000,22.3449730000 114.1252700000,22.3452380000 114.1250080000,22.3455860000 114.1248240000,22.3458870000 114.1246430000,22.3463590000 114.1244800000,22.3469000000 114.1244150000,22.3472210000 114.1243800000,22.3475480000 114.1243660000,22.3478910000 114.1243750000,22.3483980000 114.1243460000,22.3492150000 114.1242840000,22.3496110000 114.1241960000,22.3499950000 114.1240920000,22.3503190000 114.1239530000,22.3506300000 114.1237610000,22.3509160000 114.1234880000,22.3512340000 114.1230260000,22.3516520000 114.1228280000,22.3518040000 114.1226080000,22.3519350000 114.1221550000,22.3521050000 114.1217180000,22.3522390000 114.1214310000,22.3523020000 114.1211440000,22.3523490000 114.1207110000,22.3523730000 114.1203330000,22.3523730000 114.1199880000,22.3523650000 114.1194960000,22.3522790000 114.1191870000,22.3522180000 114.1188760000,22.3521210000 114.1185250000,22.3519850000 114.1181990000,22.3518490000 114.1179480000,22.3517290000 114.1175950000,22.3515240000 114.1172010000,22.3512330000 114.1166410000,22.3508060000 114.1162170000,22.3505070000 114.1159110000,22.3503370000 114.1156210000,22.3501800000 114.1153280000,22.3500460000 114.1150960000,22.3499490000 114.1143120000,22.3496360000 114.1132010000,22.3492230000 114.1124200000,22.3489270000 114.1118410000,22.3487000000 114.1115030000,22.3485560000 114.1108790000,22.3482700000 114.1067700000,22.3461380000 114.1065040000,22.3460130000 114.1062830000,22.3459150000 114.1060100000,22.3457980000 114.1057500000,22.3456900000 114.1055200000,22.3456000000 114.1053160000,22.3455250000 114.1050600000,22.3454400000 114.1048010000,22.3453580000 114.1045000000,22.3452660000 114.1042000000,22.3451750000 114.1039000000,22.3450920000 114.1036000000,22.3450220000 114.1033000000,22.3449580000 114.1030000000,22.3449000000 114.1026240000,22.3448390000 114.1026000000,22.3448350000 114.1020600000,22.3447660000 114.1017660000,22.3447330000 114.1014700000,22.3447070000 114.1011840000,22.3446860000 114.1009000000,22.3446750000 114.1003400000,22.3446570000 114.0957200000,22.3446110000 114.0956240000,22.3446120000 114.0943500000,22.3446090000 114.0937600000,22.3445980000 114.0932450000,22.3446000000 114.0929810000,22.3446070000 114.0927640000,22.3446250000 114.0924930000,22.3446550000 114.0921460000,22.3447160000 114.0920330000,22.3447350000 114.0918930000,22.3447670000 114.0917140000,22.3448180000 114.0915160000,22.3448850000 114.0912310000,22.3449890000 114.0909600000,22.3451060000 114.0906860000,22.3452240000 114.0903900000,22.3453580000 114.0901860000,22.3454620000 114.0897600000,22.3456670000 114.0895210000,22.3457890000 114.0893050000,22.3459100000 114.0889220000,22.3461740000 114.0885700000,22.3464410000 114.0882590000,22.3467350000 114.0881270000,22.3468140000 114.0880130000,22.3469050000 114.0878070000,22.3471650000 114.0875500000,22.3475690000 114.0873430000,22.3479580000 114.0871970000,22.3483340000 114.0870280000,22.3489680000 114.0868450000,22.3496650000 114.0866810000,22.3502570000 114.0866620000,22.3504730000 114.0865950000,22.3507390000 114.0865170000,22.3509830000 114.0863840000,22.3512760000 114.0862900000,22.3514840000 114.0861000000,22.3518620000 114.0857890000,22.3524070000 114.0854520000,22.3530980000 114.0847120000,22.3546080000 114.0839530000,22.3559680000 114.0837450000,22.3564090000 114.0835520000,22.3568150000 114.0827160000,22.3583350000 114.0823470000,22.3590330000 114.0817280000,22.3601470000 114.0784010000,22.3664850000 114.0777670000,22.3675880000 114.0776390000,22.3677580000 114.0772760000,22.3683730000 114.0770190000,22.3687380000 114.0768310000,22.3689600000 114.0766180000,22.3691540000 114.0763310000,22.3693640000 114.0759950000,22.3695490000 114.0756140000,22.3696930000 114.0751180000,22.3697580000 114.0747640000,22.3697600000 114.0743370000,22.3697100000 114.0739760000,22.3696220000 114.0735600000,22.3694520000 114.0732020000,22.3692330000 114.0728820000,22.3689540000 114.0725720000,22.3685980000 114.0722640000,22.3681810000 114.0718940000,22.3676870000 114.0714030000,22.3669150000 114.0710910000,22.3665460000 114.0707490000,22.3662430000 114.0704070000,22.3660360000 114.0700740000,22.3658990000 114.0697620000,22.3658060000 114.0693730000,22.3657280000 114.0689650000,22.3656990000 114.0685320000,22.3657080000 114.0681330000,22.3657420000 114.0673960000,22.3658570000 114.0668420000,22.3659990000 114.0664770000,22.3661340000 114.0661160000,22.3662990000 114.0656300000,22.3665750000 114.0652190000,22.3668530000 114.0647100000,22.3671610000 114.0642650000,22.3675080000 114.0637770000,22.3679800000 114.0632830000,22.3684860000 114.0630500000,22.3687160000 114.0626970000,22.3689330000 114.0624200000,22.3690000000 114.0621380000,22.3690540000 114.0618450000,22.3690880000 114.0616380000,22.3690950000 114.0614020000,22.3690810000 114.0613070000,22.3690730000 114.0612170000,22.3690510000 114.0611720000,22.3690260000 114.0611430000,22.3689990000 114.0611200000,22.3689700000 114.0611020000,22.3689290000 114.0610950000,22.3688910000 114.0610970000,22.3688370000 114.0611050000,22.3687920000 114.0611230000,22.3687490000 114.0611430000,22.3687140000 114.0612540000,22.3686690000 114.0613160000,22.3686670000 114.0614010000,22.3686960000 114.0616560000,22.3687400000 114.0617890000,22.3687300000 114.0619380000,22.3687020000 114.0620690000,22.3686800000 114.0621760000,22.3686600000 114.0623310000,22.3686500000 114.0624200000,22.3686340000 114.0625860000,22.3685680000 114.0626540000,22.3684840000 114.0628420000,22.3682910000 114.0629030000,22.3682340000 114.0629550000,22.3681200000 114.0629890000,22.3680230000 114.0629910000,22.3679260000 114.0629850000,22.3678530000 114.0629580000,22.3677570000 114.0629070000,22.3676740000 114.0628420000,22.3675730000 114.0628410000,22.3674890000 114.0627880000,22.3674020000 114.0627350000,22.3673120000 114.0626390000,22.3673600000 114.0624950000,22.3674120000 114.0622870000,22.3674720000 114.0620920000,22.3675050000 114.0614990000,22.3675570000 114.0610700000,22.3675930000 114.0608640000,22.3676160000 114.0607000000,22.3676310000 114.0604350000,22.3676340000 114.0602420000,22.3676110000 114.0600890000,22.3675640000 114.0599370000,22.3674950000 114.0598470000,22.3674320000 114.0594290000,22.3670870000 114.0591840000,22.3668840000 114.0589660000,22.3667040000 114.0580960000,22.3659660000 114.0578270000,22.3657980000 114.0575770000,22.3656790000 114.0572280000,22.3655330000 114.0567270000,22.3653450000 114.0564070000,22.3652120000 114.0562940000,22.3651650000 114.0558710000,22.3649900000 114.0557050000,22.3648970000 114.0555300000,22.3647780000 114.0553790000,22.3646310000 114.0553430000,22.3645350000 114.0553270000,22.3644790000 114.0552940000,22.3644300000 114.0552470000,22.3643930000 114.0551890000,22.3643710000 114.0551270000,22.3643670000 114.0550430000,22.3643310000 114.0549760000,22.3642720000 114.0548760000,22.3641660000 114.0545060000,22.3638410000 114.0542300000,22.3636440000 114.0538470000,22.3634670000 114.0537490000,22.3634300000 114.0536090000,22.3633900000 114.0533250000,22.3633260000 114.0530810000,22.3632890000 114.0526290000,22.3632010000 114.0524140000,22.3631440000 114.0522610000,22.3630920000 114.0520260000,22.3629990000 114.0517730000,22.3628650000 114.0515750000,22.3627410000 114.0512270000,22.3624870000 114.0507370000,22.3621530000 114.0504020000,22.3619460000 114.0501270000,22.3617900000 114.0491910000,22.3613410000 114.0489110000,22.3612290000 114.0486330000,22.3611440000 114.0483640000,22.3610810000 114.0481040000,22.3610380000 114.0477010000,22.3610110000 114.0475560000,22.3610110000 114.0471140000,22.3610590000 114.0469320000,22.3610920000 114.0466430000,22.3611640000 114.0463590000,22.3612510000 114.0459810000,22.3613790000 114.0458570000,22.3613880000 114.0457390000,22.3613820000 114.0456900000,22.3613570000 114.0456340000,22.3613450000 114.0455770000,22.3613500000 114.0455240000,22.3613690000 114.0454800000,22.3614020000 114.0453880000,22.3614520000 114.0452790000,22.3614860000 114.0451150000,22.3615000000 114.0449200000,22.3614990000 114.0447550000,22.3614830000 114.0445860000,22.3614650000 114.0444230000,22.3614320000 114.0443040000,22.3614050000 114.0437790000,22.3612200000 114.0435340000,22.3611290000 114.0424390000,22.3606820000 114.0418800000,22.3604350000 114.0416090000,22.3603190000 114.0412680000,22.3601410000 114.0409760000,22.3599760000 114.0406930000,22.3598040000 114.0404950000,22.3596380000 114.0401800000,22.3593780000 114.0398240000,22.3590860000 114.0396230000,22.3589240000 114.0394010000,22.3587720000 114.0392240000,22.3586550000 114.0391560000,22.3586170000 114.0389130000,22.3585010000 114.0385230000,22.3583290000 114.0383130000,22.3582610000 114.0381010000,22.3582050000 114.0375410000,22.3581050000 114.0371370000,22.3580740000 114.0369520000,22.3580590000 114.0368580000,22.3580390000 114.0362630000,22.3578740000 114.0358720000,22.3577680000 114.0354710000,22.3576380000 114.0352240000,22.3575450000 114.0352090000,22.3575390000 114.0342400000,22.3571350000 114.0340600000,22.3570430000 114.0340220000,22.3570130000 114.0339760000,22.3569970000 114.0339260000,22.3569970000 114.0337030000,22.3568430000 114.0336300000,22.3567950000 114.0333380000,22.3566680000 114.0330680000,22.3565550000 114.0329020000,22.3564880000 114.0324740000,22.3563230000 114.0319860000,22.3561700000 114.0314430000,22.3560220000 114.0304150000,22.3558150000 114.0301520000,22.3557690000 114.0295720000,22.3557030000 114.0292610000,22.3556730000 114.0283940000,22.3555960000 114.0276810000,22.3555360000 114.0270900000,22.3555130000 114.0263750000,22.3554930000 114.0256410000,22.3555320000 114.0248410000,22.3555930000 114.0240480000,22.3557140000 114.0231650000,22.3558800000 114.0221190000,22.3561530000 114.0210470000,22.3564490000 114.0200380000,22.3568030000 114.0196390000,22.3569790000 114.0193410000,22.3571750000 114.0191920000,22.3572770000 114.0190650000,22.3573570000 114.0187720000,22.3574680000 114.0187130000,22.3575050000 114.0186700000,22.3575560000 114.0186470000,22.3576180000 114.0186440000,22.3576660000 114.0186530000,22.3577130000 114.0186740000,22.3577570000 114.0187050000,22.3577950000 114.0187450000,22.3578260000 114.0187910000,22.3578470000 114.0188160000,22.3578540000 114.0188530000,22.3578590000 114.0190120000,22.3579680000 114.0190990000,22.3580460000 114.0191100000,22.3580870000 114.0191210000,22.3581460000 114.0191320000,22.3582490000 114.0191460000,22.3584100000 114.0191600000,22.3586500000 114.0191550000,22.3589520000 114.0191600000,22.3602850000 114.0191610000,22.3603020000 114.0192060000,22.3608630000 114.0192990000,22.3614720000 114.0193360000,22.3617610000 114.0193290000,22.3620660000 114.0193220000,22.3621790000 114.0193090000,22.3622770000 114.0192740000,22.3623920000 114.0191920000,22.3625790000 114.0191650000,22.3626430000 114.0189930000,22.3628570000 114.0187830000,22.3630250000 114.0185680000,22.3631380000 114.0183390000,22.3632020000 114.0182180000,22.3632230000 114.0180710000,22.3632330000 114.0179560000,22.3632440000 114.0178000000,22.3632600000 114.0176370000,22.3632490000 114.0173000000,22.3631800000 114.0172000000,22.3631800000 114.0171300000,22.3631900000 114.0171000000,22.3631950000 114.0170000000,22.3632400000 114.0169000000,22.3632800000 114.0163300000,22.3635450000 114.0162500000,22.3635800000 114.0161120000,22.3636580000 114.0159510000,22.3637440000 114.0153000000,22.3640580000 114.0151150000,22.3641860000 114.0150520000,22.3642110000 114.0149160000,22.3642650000 114.0147480000,22.3643120000 114.0145500000,22.3643450000 114.0144090000,22.3643540000 114.0139420000,22.3643720000 114.0137730000,22.3643500000 114.0137860000,22.3642940000 114.0137820000,22.3642360000 114.0137600000,22.3641810000 114.0137240000,22.3641360000 114.0136770000,22.3641020000 114.0136210000,22.3640810000 114.0135610000,22.3640740000 114.0135040000,22.3640820000 114.0134520000,22.3641030000 114.0134020000,22.3641410000 114.0133650000,22.3641900000 114.0133460000,22.3642480000 114.0133440000,22.3642770000 114.0133460000,22.3643060000 114.0133560000,22.3643460000 114.0133740000,22.3643830000 114.0134010000,22.3644160000 114.0133890000,22.3645730000 114.0133560000,22.3646830000 114.0133100000,22.3647730000 114.0131640000,22.3650330000 114.0130490000,22.3651830000 114.0129450000,22.3653000000 114.0127680000,22.3654720000 114.0125950000,22.3656150000 114.0125340000,22.3656670000 114.0123390000,22.3657990000 114.0120210000,22.3659610000 114.0117650000,22.3660470000 114.0115310000,22.3661290000 114.0113920000,22.3661560000 114.0112340000,22.3661700000 114.0106810000,22.3662310000 114.0094720000,22.3663510000 114.0089990000,22.3664010000 114.0087960000,22.3664210000 114.0082360000,22.3664600000 114.0079270000,22.3664600000 114.0076440000,22.3664420000 114.0073270000,22.3664060000 114.0070170000,22.3663530000 114.0059740000,22.3661630000 114.0055380000,22.3660870000 114.0052380000,22.3660580000 114.0049560000,22.3660450000 114.0029810000,22.3661090000 114.0026470000,22.3661510000 114.0024620000,22.3661830000 114.0024300000,22.3661660000 114.0023930000,22.3661590000 114.0023570000,22.3661620000 114.0023220000,22.3661740000 114.0022900000,22.3662000000 114.0022680000,22.3662350000 114.0020900000,22.3663510000 114.0018700000,22.3664710000 114.0017000000,22.3665730000 114.0010080000,22.3671700000 114.0005800000,22.3675080000 114.0003070000,22.3676700000 114.0000530000,22.3677860000 113.9996260000,22.3679200000 113.9994150000,22.3679660000 113.9992090000,22.3679910000 113.9990930000,22.3679970000 113.9987140000,22.3680140000 113.9984620000,22.3679880000 113.9976760000,22.3678260000 113.9975330000,22.3677970000 113.9975090000,22.3677940000 113.9973460000,22.3677790000 113.9971860000,22.3677830000 113.9969740000,22.3678000000 113.9969070000,22.3678050000 113.9968100000,22.3678160000 113.9967740000,22.3678000000 113.9967350000,22.3677970000 113.9966810000,22.3678170000 113.9966460000,22.3678600000 113.9966030000,22.3679050000 113.9965550000,22.3679370000 113.9964300000,22.3680010000 113.9962930000,22.3680900000 113.9962090000,22.3681520000 113.9960900000,22.3682590000 113.9959140000,22.3684630000 113.9957790000,22.3686430000 113.9956290000,22.3688570000 113.9955150000,22.3690230000 113.9954130000,22.3691760000 113.9950330000,22.3697240000 113.9946920000,22.3702150000 113.9941920000,22.3709230000 113.9940820000,22.3710720000 113.9938930000,22.3713420000 113.9936060000,22.3717510000 113.9929130000,22.3727680000 113.9928000000,22.3729430000 113.9927080000,22.3730700000 113.9925790000,22.3732150000 113.9924080000,22.3733530000 113.9923140000,22.3734040000 113.9922260000,22.3734390000 113.9920750000,22.3734860000 113.9919330000,22.3735230000 113.9916520000,22.3735790000 113.9912820000,22.3736220000 113.9902760000,22.3737550000 113.9901830000,22.3737930000 113.9897830000,22.3738390000 113.9894320000,22.3738670000 113.9885810000,22.3739100000 113.9880410000,22.3739610000 113.9878340000,22.3740050000 113.9876190000,22.3741230000 113.9874230000,22.3742780000 113.9873890000,22.3743100000 113.9871310000,22.3745520000 113.9861540000,22.3754690000 113.9860790000,22.3755540000 113.9860360000,22.3756020000 113.9858200000,22.3757940000 113.9848480000,22.3767860000 113.9847660000,22.3768610000 113.9847210000,22.3769060000 113.9844450000,22.3771180000 113.9836580000,22.3777270000 113.9835910000,22.3777710000 113.9833690000,22.3778740000 113.9832610000,22.3779110000 113.9829590000,22.3779900000 113.9827420000,22.3780240000 113.9823960000,22.3780780000 113.9822150000,22.3781100000 113.9817760000,22.3782150000 113.9813770000,22.3783710000 113.9811140000,22.3785140000 113.9808210000,22.3787420000 113.9805200000,22.3791700000 113.9804160000,22.3793170000 113.9801910000,22.3796850000 113.9800810000,22.3798620000 113.9794370000,22.3807850000 113.9791020000,22.3805950000 113.9788890000,22.3804790000 113.9787930000,22.3804340000 113.9786090000,22.3803280000 113.9781590000,22.3800870000 113.9781240000,22.3800760000 113.9780900000,22.3800710000 113.9780510000,22.3800880000 113.9780280000,22.3801040000 113.9779450000,22.3802190000 113.9776790000,22.3805910000 113.9774850000,22.3808940000 113.9773250000,22.3811430000 113.9770160000,22.3816240000 113.9770010000,22.3816580000 113.9769920000,22.3817020000 113.9769890000,22.3817520000 113.9770350000,22.3818060000 113.9771500000,22.3818760000 113.9775700000,22.3821140000</coordinates>
                </LineString>
                <ExtendedData>
                    <Data name="duration">
                        <value>01:47:24</value>
                    </Data>
                    <Data name="length">
                        <value>61444.64236486001</value>
                    </Data>
                </ExtendedData>
            </Placemark>
        </Document>
    </Document>
</kml>