<?xml version="1.0" encoding="UTF-8"?>
<kml xmlns="http://www.opengis.net/kml/2.2" xmlns:gx="http://www.google.com/kml/ext/2.2">
    <Document>
        <name>Route</name>
        <Folder>
            <name>Route Request</name>
            <Placemark>
                <address>Block 15, Lung Chak Road, Yeung Siu Hang, Castle Peak Bay, Tsing Shan Tsuen, New Territories, Hong Kong, DD132 586, PRC</address>
                <Point>
                    <coordinates>113.9646457885,22.3807142324</coordinates>
                </Point>
                <ExtendedData>
                    <Data name="country_code">
                        <value>cn</value>
                    </Data>
                    <Data name="postcode">
                        <value>DD132 586</value>
                    </Data>
                    <Data name="suburb">
                        <value>Castle Peak Bay</value>
                    </Data>
                    <Data name="hamlet">
                        <value>Tsing Shan Tsuen</value>
                    </Data>
                    <Data name="neighbourhood">
                        <value>Yeung Siu Hang</value>
                    </Data>
                    <Data name="country">
                        <value>PRC</value>
                    </Data>
                    <Data name="building">
                        <value>Block 15</value>
                    </Data>
                    <Data name="state">
                        <value>Hong Kong</value>
                    </Data>
                    <Data name="region">
                        <value>New Territories</value>
                    </Data>
                    <Data name="road">
                        <value>Lung Chak Road</value>
                    </Data>
                    <Data name="routingVisited">
                        <value>false</value>
                    </Data>
                </ExtendedData>
            </Placemark>
            <Placemark>
                <Point>
                    <coordinates>113.9633623035,22.3736306877</coordinates>
                </Point>
                <ExtendedData>
                    <Data name="routingVisited">
                        <value>false</value>
                    </Data>
                </ExtendedData>
            </Placemark>
            <Placemark>
                <Point>
                    <coordinates>113.9807017172,22.3874601302</coordinates>
                </Point>
                <ExtendedData>
                    <Data name="routingVisited">
                        <value>false</value>
                    </Data>
                </ExtendedData>
            </Placemark>
            <Placemark>
                <Point>
                    <coordinates>114.0172300808,22.3622208592</coordinates>
                </Point>
                <ExtendedData>
                    <Data name="routingVisited">
                        <value>false</value>
                    </Data>
                </ExtendedData>
            </Placemark>
            <Placemark>
                <Point>
                    <coordinates>114.0999194500,22.3450555959</coordinates>
                </Point>
                <ExtendedData>
                    <Data name="routingVisited">
                        <value>false</value>
                    </Data>
                </ExtendedData>
            </Placemark>
            <Placemark>
                <Point>
                    <coordinates>114.1671428656,22.3284025920</coordinates>
                </Point>
                <ExtendedData>
                    <Data name="routingVisited">
                        <value>false</value>
                    </Data>
                </ExtendedData>
            </Placemark>
            <Placemark>
                <Point>
                    <coordinates>114.1721885624,22.3002541438</coordinates>
                </Point>
                <ExtendedData>
                    <Data name="routingVisited">
                        <value>false</value>
                    </Data>
                </ExtendedData>
            </Placemark>
            <Placemark>
                <Point>
                    <coordinates>114.1819439286,22.3031526241</coordinates>
                </Point>
            </Placemark>
            <Placemark>
                <Point>
                    <coordinates>114.1860716762,22.3072818620</coordinates>
                </Point>
                <ExtendedData>
                    <Data name="routingVisited">
                        <value>false</value>
                    </Data>
                </ExtendedData>
            </Placemark>
            <Placemark>
                <Point>
                    <coordinates>114.1902865319,22.3017828019</coordinates>
                </Point>
                <ExtendedData>
                    <Data name="routingVisited">
                        <value>false</value>
                    </Data>
                </ExtendedData>
            </Placemark>
            <Placemark>
                <Point>
                    <coordinates>114.1870186681,22.3039566439</coordinates>
                </Point>
            </Placemark>
            <Placemark>
                <Point>
                    <coordinates>114.1819653863,22.3031526241</coordinates>
                </Point>
            </Placemark>
            <Placemark>
                <Point>
                    <coordinates>114.1718237821,22.2995394408</coordinates>
                </Point>
                <ExtendedData>
                    <Data name="routingVisited">
                        <value>false</value>
                    </Data>
                </ExtendedData>
            </Placemark>
            <Placemark>
                <Point>
                    <coordinates>114.1691058338,22.3202444933</coordinates>
                </Point>
                <ExtendedData>
                    <Data name="routingVisited">
                        <value>false</value>
                    </Data>
                </ExtendedData>
            </Placemark>
            <Placemark>
                <Point>
                    <coordinates>114.1629033740,22.3341586275</coordinates>
                </Point>
                <ExtendedData>
                    <Data name="routingVisited">
                        <value>false</value>
                    </Data>
                </ExtendedData>
            </Placemark>
            <Placemark>
                <Point>
                    <coordinates>114.1026353910,22.3447822492</coordinates>
                </Point>
            </Placemark>
            <Placemark>
                <Point>
                    <coordinates>114.0183458797,22.3584702941</coordinates>
                </Point>
                <ExtendedData>
                    <Data name="routingVisited">
                        <value>false</value>
                    </Data>
                </ExtendedData>
            </Placemark>
            <Placemark>
                <Point>
                    <coordinates>113.9811737860,22.3854363952</coordinates>
                </Point>
                <ExtendedData>
                    <Data name="routingVisited">
                        <value>false</value>
                    </Data>
                </ExtendedData>
            </Placemark>
            <Placemark>
                <Point>
                    <coordinates>113.9618080253,22.3743648533</coordinates>
                </Point>
            </Placemark>
            <Placemark>
                <Point>
                    <coordinates>113.9659388387,22.3848610142</coordinates>
                </Point>
            </Placemark>
            <Placemark>
                <address>Block 15, Lung Chak Road, Yeung Siu Hang, Castle Peak Bay, Tsing Shan Tsuen, New Territories, Hong Kong, DD132 586, PRC</address>
                <Point>
                    <coordinates>113.9646511669,22.3807142324</coordinates>
                </Point>
                <ExtendedData>
                    <Data name="country_code">
                        <value>cn</value>
                    </Data>
                    <Data name="postcode">
                        <value>DD132 586</value>
                    </Data>
                    <Data name="suburb">
                        <value>Castle Peak Bay</value>
                    </Data>
                    <Data name="hamlet">
                        <value>Tsing Shan Tsuen</value>
                    </Data>
                    <Data name="neighbourhood">
                        <value>Yeung Siu Hang</value>
                    </Data>
                    <Data name="country">
                        <value>PRC</value>
                    </Data>
                    <Data name="building">
                        <value>Block 15</value>
                    </Data>
                    <Data name="state">
                        <value>Hong Kong</value>
                    </Data>
                    <Data name="region">
                        <value>New Territories</value>
                    </Data>
                    <Data name="road">
                        <value>Lung Chak Road</value>
                    </Data>
                    <Data name="routingVisited">
                        <value>false</value>
                    </Data>
                </ExtendedData>
            </Placemark>
        </Folder>
        <Document>
            <name>83.9 km; 03:04 h (OSRM)</name>
            <Placemark>
                <name>Route</name>
                <LineString>
                    <coordinates>113.9645550000,22.3807430000 113.9645550000,22.3807430000 113.9645440000,22.3807150000 113.9645240000,22.3806920000 113.9644960000,22.3806760000 113.9644640000,22.3806710000 113.9644320000,22.3806760000 113.9644040000,22.3806910000 113.9643830000,22.3807140000 113.9643720000,22.3807420000 113.9643720000,22.3807710000 113.9643820000,22.3808000000 113.9642790000,22.3808710000 113.9642470000,22.3808910000 113.9641910000,22.3809150000 113.9640280000,22.3809860000 113.9638630000,22.3810520000 113.9634860000,22.3812090000 113.9634310000,22.3810130000 113.9632200000,22.3801720000 113.9631010000,22.3797960000 113.9629630000,22.3794740000 113.9628580000,22.3792630000 113.9626970000,22.3790640000 113.9626360000,22.3789640000 113.9623580000,22.3785950000 113.9615430000,22.3775830000 113.9614230000,22.3774260000 113.9605080000,22.3762270000 113.9605010000,22.3761700000 113.9605130000,22.3760980000 113.9605350000,22.3760330000 113.9606860000,22.3758080000 113.9607810000,22.3757000000 113.9609400000,22.3755210000 113.9609640000,22.3754940000 113.9614250000,22.3749730000 113.9615290000,22.3748590000 113.9615420000,22.3748520000 113.9616100000,22.3747670000 113.9616900000,22.3746660000 113.9619160000,22.3743970000 113.9623210000,22.3739110000 113.9624820000,22.3738250000 113.9625220000,22.3738040000 113.9626350000,22.3737610000 113.9631680000,22.3736470000 113.9633590000,22.3736150000 113.9634090000,22.3736070000 113.9636520000,22.3735660000 113.9643490000,22.3734570000 113.9644420000,22.3734420000 113.9651770000,22.3733360000 113.9652140000,22.3733300000 113.9652470000,22.3733240000 113.9653260000,22.3733410000 113.9653530000,22.3734390000 113.9655330000,22.3740270000 113.9656610000,22.3744440000 113.9656830000,22.3745160000 113.9657990000,22.3748940000 113.9660070000,22.3756000000 113.9660520000,22.3757210000 113.9662910000,22.3765120000 113.9663370000,22.3766530000 113.9663620000,22.3767310000 113.9664750000,22.3770750000 113.9666420000,22.3775280000 113.9666880000,22.3776520000 113.9667350000,22.3777480000 113.9667970000,22.3778590000 113.9669140000,22.3780660000 113.9670690000,22.3782710000 113.9672470000,22.3784330000 113.9674360000,22.3786030000 113.9677930000,22.3788190000 113.9689560000,22.3794660000 113.9695950000,22.3798580000 113.9697260000,22.3799740000 113.9698180000,22.3800830000 113.9699520000,22.3803170000 113.9700490000,22.3805360000 113.9700730000,22.3806080000 113.9700850000,22.3806570000 113.9702250000,22.3806430000 113.9703150000,22.3806370000 113.9703680000,22.3806350000 113.9703990000,22.3806340000 113.9707950000,22.3806300000 113.9709200000,22.3806390000 113.9710430000,22.3806560000 113.9711650000,22.3806980000 113.9713050000,22.3807470000 113.9714650000,22.3808100000 113.9722650000,22.3811460000 113.9724120000,22.3812050000 113.9732270000,22.3815380000 113.9732850000,22.3815610000 113.9734040000,22.3816150000 113.9746010000,22.3821410000 113.9750700000,22.3823470000 113.9751300000,22.3823730000 113.9751880000,22.3824000000 113.9752440000,22.3824250000 113.9752760000,22.3824370000 113.9753860000,22.3824860000 113.9755390000,22.3825510000 113.9762360000,22.3828450000 113.9763460000,22.3828920000 113.9771690000,22.3832390000 113.9778820000,22.3835410000 113.9779470000,22.3835650000 113.9780840000,22.3836020000 113.9782010000,22.3836280000 113.9783380000,22.3836460000 113.9790370000,22.3836740000 113.9795860000,22.3837600000 113.9798540000,22.3838580000 113.9801010000,22.3839970000 113.9803650000,22.3842220000 113.9805690000,22.3844340000 113.9807270000,22.3846950000 113.9808610000,22.3850040000 113.9809650000,22.3854790000 113.9809810000,22.3859040000 113.9809550000,22.3862700000 113.9808970000,22.3865310000 113.9807660000,22.3872140000 113.9807070000,22.3874610000 113.9806540000,22.3876820000 113.9805400000,22.3881300000 113.9804800000,22.3883310000 113.9802070000,22.3893660000 113.9801170000,22.3896790000 113.9799000000,22.3904350000 113.9798280000,22.3906730000 113.9796740000,22.3906410000 113.9788610000,22.3904620000 113.9785420000,22.3903810000 113.9783760000,22.3902480000 113.9783350000,22.3901700000 113.9783270000,22.3900450000 113.9783170000,22.3899020000 113.9784700000,22.3889240000 113.9784960000,22.3887000000 113.9785480000,22.3884900000 113.9786780000,22.3880290000 113.9789210000,22.3872400000 113.9790430000,22.3868260000 113.9791420000,22.3865030000 113.9792200000,22.3862900000 113.9793410000,22.3859100000 113.9793900000,22.3858250000 113.9796330000,22.3854870000 113.9796990000,22.3853570000 113.9797720000,22.3851710000 113.9799050000,22.3847480000 113.9800050000,22.3845290000 113.9802230000,22.3841450000 113.9803850000,22.3838440000 113.9804560000,22.3837080000 113.9807740000,22.3831050000 113.9809100000,22.3829270000 113.9811710000,22.3826090000 113.9813720000,22.3823680000 113.9815040000,22.3822380000 113.9821650000,22.3816410000 113.9828990000,22.3810610000 113.9839000000,22.3802780000 113.9846100000,22.3796430000 113.9852940000,22.3789850000 113.9859080000,22.3783770000 113.9864820000,22.3777370000 113.9868050000,22.3773380000 113.9872790000,22.3768080000 113.9874600000,22.3765890000 113.9880600000,22.3759340000 113.9883310000,22.3757070000 113.9885140000,22.3755730000 113.9887780000,22.3754140000 113.9891350000,22.3752610000 113.9894140000,22.3751730000 113.9897150000,22.3751270000 113.9900350000,22.3751210000 113.9904760000,22.3751540000 113.9909950000,22.3752530000 113.9918510000,22.3755010000 113.9929040000,22.3758300000 113.9932540000,22.3759500000 113.9936130000,22.3760320000 113.9939450000,22.3760810000 113.9943560000,22.3761040000 113.9947240000,22.3760820000 113.9950380000,22.3760240000 113.9953340000,22.3759340000 113.9956180000,22.3758120000 113.9958720000,22.3756880000 113.9961470000,22.3755040000 113.9965460000,22.3751260000 113.9966900000,22.3749710000 113.9969750000,22.3746640000 113.9970670000,22.3745730000 113.9974340000,22.3741130000 113.9979490000,22.3733630000 113.9981690000,22.3730100000 113.9984530000,22.3725000000 113.9990740000,22.3714450000 113.9994890000,22.3707680000 113.9998790000,22.3701830000 114.0003660000,22.3695420000 114.0010540000,22.3686540000 114.0012610000,22.3684300000 114.0014620000,22.3682520000 114.0018530000,22.3679500000 114.0022990000,22.3676870000 114.0027330000,22.3675010000 114.0031680000,22.3673620000 114.0035600000,22.3672900000 114.0039210000,22.3672610000 114.0043770000,22.3672620000 114.0048220000,22.3673070000 114.0055380000,22.3674380000 114.0059420000,22.3674780000 114.0063330000,22.3674780000 114.0066690000,22.3674310000 114.0069270000,22.3673710000 114.0079760000,22.3670700000 114.0085220000,22.3669440000 114.0090600000,22.3668350000 114.0097620000,22.3667710000 114.0109020000,22.3667340000 114.0112990000,22.3667050000 114.0116500000,22.3666400000 114.0119910000,22.3665200000 114.0123590000,22.3663360000 114.0126870000,22.3661200000 114.0130800000,22.3658160000 114.0134620000,22.3654460000 114.0136940000,22.3651790000 114.0139720000,22.3648050000 114.0145940000,22.3638980000 114.0151150000,22.3633140000 114.0151880000,22.3632600000 114.0152690000,22.3632140000 114.0153730000,22.3631740000 114.0154710000,22.3631570000 114.0156060000,22.3631450000 114.0157230000,22.3631670000 114.0159680000,22.3632320000 114.0161600000,22.3633700000 114.0162200000,22.3634300000 114.0162700000,22.3635000000 114.0163300000,22.3635450000 114.0164100000,22.3635900000 114.0168000000,22.3634100000 114.0170000000,22.3633180000 114.0171000000,22.3632640000 114.0171500000,22.3632550000 114.0172000000,22.3632480000 114.0173000000,22.3631800000 114.0173420000,22.3631200000 114.0173660000,22.3630790000 114.0173760000,22.3630370000 114.0173900000,22.3629700000 114.0173600000,22.3629000000 114.0172800000,22.3628000000 114.0171900000,22.3627000000 114.0169500000,22.3624610000 114.0168270000,22.3623380000 114.0166730000,22.3622860000 114.0166370000,22.3622330000 114.0165890000,22.3620800000 114.0165740000,22.3619480000 114.0165700000,22.3618160000 114.0165830000,22.3615820000 114.0166050000,22.3614320000 114.0166560000,22.3613600000 114.0172830000,22.3606030000 114.0180030000,22.3597600000 114.0187270000,22.3589340000 114.0189640000,22.3586480000 114.0193410000,22.3582800000 114.0196550000,22.3580190000 114.0199370000,22.3578190000 114.0202160000,22.3576500000 114.0205760000,22.3574690000 114.0214520000,22.3570830000 114.0228240000,22.3565380000 114.0234370000,22.3563540000 114.0243070000,22.3561640000 114.0250640000,22.3560630000 114.0257520000,22.3560090000 114.0264730000,22.3560020000 114.0278380000,22.3560900000 114.0287650000,22.3561870000 114.0295420000,22.3562920000 114.0300580000,22.3564010000 114.0304990000,22.3565420000 114.0308810000,22.3566970000 114.0313660000,22.3569490000 114.0317530000,22.3572030000 114.0321790000,22.3575430000 114.0332080000,22.3584550000 114.0338450000,22.3589180000 114.0345560000,22.3593830000 114.0353370000,22.3597970000 114.0360880000,22.3602130000 114.0362590000,22.3603190000 114.0364450000,22.3604510000 114.0367370000,22.3606910000 114.0372600000,22.3611610000 114.0379050000,22.3616760000 114.0384270000,22.3620350000 114.0388490000,22.3623030000 114.0398880000,22.3629740000 114.0401590000,22.3632030000 114.0403880000,22.3634080000 114.0407360000,22.3637780000 114.0411660000,22.3642500000 114.0413970000,22.3644550000 114.0417190000,22.3646640000 114.0420160000,22.3647780000 114.0423270000,22.3648860000 114.0427120000,22.3649520000 114.0433070000,22.3649420000 114.0437220000,22.3649630000 114.0441590000,22.3650320000 114.0448180000,22.3652390000 114.0454450000,22.3655080000 114.0457640000,22.3656090000 114.0461190000,22.3657170000 114.0464360000,22.3657850000 114.0467560000,22.3658430000 114.0471160000,22.3658690000 114.0474370000,22.3658730000 114.0477580000,22.3658430000 114.0484930000,22.3657160000 114.0489350000,22.3656230000 114.0493350000,22.3655680000 114.0497190000,22.3655440000 114.0501370000,22.3655320000 114.0505520000,22.3655650000 114.0511250000,22.3656410000 114.0514380000,22.3657190000 114.0517450000,22.3658250000 114.0524260000,22.3661250000 114.0531790000,22.3665430000 114.0535910000,22.3667230000 114.0540080000,22.3668490000 114.0546060000,22.3669740000 114.0550210000,22.3670290000 114.0557200000,22.3670290000 114.0563460000,22.3670880000 114.0567720000,22.3671780000 114.0572340000,22.3673160000 114.0576860000,22.3674790000 114.0581280000,22.3676530000 114.0585140000,22.3678760000 114.0594440000,22.3684660000 114.0602060000,22.3689350000 114.0604320000,22.3690760000 114.0606370000,22.3691760000 114.0609490000,22.3692830000 114.0611990000,22.3693230000 114.0615900000,22.3693380000 114.0618250000,22.3693390000 114.0619630000,22.3693240000 114.0622170000,22.3692830000 114.0624720000,22.3692070000 114.0627100000,22.3691150000 114.0630380000,22.3689630000 114.0632220000,22.3688180000 114.0634510000,22.3685850000 114.0639000000,22.3681040000 114.0643830000,22.3676700000 114.0648230000,22.3673200000 114.0653050000,22.3669960000 114.0657350000,22.3667230000 114.0662530000,22.3664310000 114.0665890000,22.3662810000 114.0668770000,22.3661850000 114.0674260000,22.3660140000 114.0679390000,22.3659040000 114.0687240000,22.3659270000 114.0691980000,22.3659830000 114.0695480000,22.3660610000 114.0698940000,22.3661810000 114.0703140000,22.3663970000 114.0706040000,22.3666200000 114.0708690000,22.3668880000 114.0710850000,22.3671950000 114.0713520000,22.3676950000 114.0716300000,22.3682420000 114.0718640000,22.3687150000 114.0720680000,22.3690510000 114.0722750000,22.3693270000 114.0725470000,22.3696100000 114.0729400000,22.3699040000 114.0732500000,22.3700930000 114.0735350000,22.3702290000 114.0740020000,22.3703800000 114.0743010000,22.3704510000 114.0746330000,22.3704960000 114.0749640000,22.3705070000 114.0751920000,22.3705060000 114.0754420000,22.3704810000 114.0757630000,22.3704160000 114.0760450000,22.3703230000 114.0763460000,22.3701750000 114.0766300000,22.3699690000 114.0768570000,22.3697610000 114.0771670000,22.3693930000 114.0774250000,22.3689450000 114.0780550000,22.3677510000 114.0783600000,22.3671140000 114.0785960000,22.3665690000 114.0819110000,22.3602270000 114.0825020000,22.3591100000 114.0825850000,22.3589570000 114.0830530000,22.3580330000 114.0838930000,22.3564690000 114.0842770000,22.3558590000 114.0853960000,22.3542650000 114.0859470000,22.3533570000 114.0861040000,22.3530750000 114.0861630000,22.3529440000 114.0862120000,22.3528500000 114.0863720000,22.3524850000 114.0864880000,22.3521920000 114.0865490000,22.3520270000 114.0866230000,22.3518530000 114.0869190000,22.3510640000 114.0869720000,22.3508990000 114.0870520000,22.3506180000 114.0872560000,22.3499170000 114.0873720000,22.3494690000 114.0873980000,22.3493700000 114.0875480000,22.3486660000 114.0875920000,22.3485000000 114.0877130000,22.3482200000 114.0878060000,22.3480050000 114.0879030000,22.3478290000 114.0879460000,22.3477590000 114.0880270000,22.3476410000 114.0881880000,22.3474400000 114.0884050000,22.3472080000 114.0887280000,22.3469380000 114.0889780000,22.3467510000 114.0892720000,22.3465590000 114.0898710000,22.3462360000 114.0904280000,22.3459560000 114.0909630000,22.3456820000 114.0913410000,22.3455040000 114.0917190000,22.3453490000 114.0921550000,22.3452070000 114.0926230000,22.3450940000 114.0931090000,22.3450000000 114.0933720000,22.3449740000 114.0939120000,22.3449600000 114.0947650000,22.3449530000 114.0952440000,22.3449500000 114.0957200000,22.3449460000 114.0999200000,22.3449880000 114.1004000000,22.3449930000 114.1010700000,22.3450180000 114.1014000000,22.3450400000 114.1017300000,22.3450680000 114.1020600000,22.3451030000 114.1023900000,22.3451480000 114.1030400000,22.3452500000 114.1033000000,22.3453000000 114.1035300000,22.3453500000 114.1037300000,22.3453950000 114.1038810000,22.3454310000 114.1040300000,22.3454700000 114.1042020000,22.3455180000 114.1043800000,22.3455700000 114.1046900000,22.3456680000 114.1049680000,22.3457620000 114.1051600000,22.3458300000 114.1053500000,22.3459000000 114.1056800000,22.3460270000 114.1060000000,22.3461600000 114.1066070000,22.3464420000 114.1092280000,22.3478020000 114.1094000000,22.3478900000 114.1094990000,22.3479370000 114.1095990000,22.3479820000 114.1098100000,22.3480700000 114.1100000000,22.3481490000 114.1103700000,22.3483000000 114.1107400000,22.3484400000 114.1117850000,22.3488280000 114.1122940000,22.3490260000 114.1139190000,22.3496290000 114.1142620000,22.3497560000 114.1150360000,22.3500590000 114.1152760000,22.3501570000 114.1155700000,22.3502930000 114.1159460000,22.3504950000 114.1163210000,22.3507340000 114.1167000000,22.3510040000 114.1170480000,22.3512810000 114.1174180000,22.3515670000 114.1177500000,22.3517760000 114.1179500000,22.3518880000 114.1181630000,22.3519900000 114.1185390000,22.3521520000 114.1187440000,22.3522270000 114.1189890000,22.3523010000 114.1192310000,22.3523660000 114.1195060000,22.3524250000 114.1197310000,22.3524620000 114.1199660000,22.3524930000 114.1204150000,22.3525210000 114.1208080000,22.3525130000 114.1212930000,22.3524700000 114.1214870000,22.3524420000 114.1216850000,22.3524020000 114.1220080000,22.3523000000 114.1223600000,22.3521610000 114.1225800000,22.3520590000 114.1227700000,22.3519640000 114.1230910000,22.3517690000 114.1234160000,22.3515320000 114.1237280000,22.3512190000 114.1239480000,22.3509410000 114.1241480000,22.3506360000 114.1243000000,22.3503120000 114.1244440000,22.3499020000 114.1244990000,22.3496360000 114.1245460000,22.3490950000 114.1245370000,22.3484120000 114.1245330000,22.3480180000 114.1245490000,22.3476170000 114.1246110000,22.3472070000 114.1247310000,22.3467150000 114.1248690000,22.3463550000 114.1250230000,22.3459890000 114.1252280000,22.3456200000 114.1254330000,22.3453410000 114.1256160000,22.3450810000 114.1258580000,22.3448130000 114.1260660000,22.3446100000 114.1265330000,22.3442760000 114.1273480000,22.3438330000 114.1276470000,22.3436840000 114.1281330000,22.3434510000 114.1283770000,22.3433460000 114.1286560000,22.3432050000 114.1289710000,22.3430190000 114.1291870000,22.3428750000 114.1294020000,22.3427320000 114.1295670000,22.3426040000 114.1297310000,22.3424680000 114.1298900000,22.3423150000 114.1301370000,22.3420730000 114.1303630000,22.3417950000 114.1306770000,22.3413100000 114.1308700000,22.3409770000 114.1310190000,22.3406270000 114.1311910000,22.3402610000 114.1313730000,22.3398820000 114.1316030000,22.3395690000 114.1317430000,22.3393020000 114.1319650000,22.3389160000 114.1321860000,22.3385200000 114.1323490000,22.3381980000 114.1325610000,22.3378840000 114.1326820000,22.3377160000 114.1328200000,22.3375310000 114.1329340000,22.3373860000 114.1330520000,22.3372410000 114.1331650000,22.3371070000 114.1332900000,22.3369690000 114.1334200000,22.3368390000 114.1335610000,22.3367200000 114.1337120000,22.3366090000 114.1338480000,22.3365500000 114.1340050000,22.3365000000 114.1341740000,22.3364620000 114.1344000000,22.3364560000 114.1345610000,22.3364620000 114.1347270000,22.3364910000 114.1349060000,22.3365550000 114.1350520000,22.3366250000 114.1351610000,22.3366910000 114.1352480000,22.3367540000 114.1354760000,22.3369650000 114.1355560000,22.3370680000 114.1356470000,22.3372250000 114.1357230000,22.3373780000 114.1357810000,22.3375990000 114.1358180000,22.3378430000 114.1358070000,22.3382780000 114.1358140000,22.3386480000 114.1358400000,22.3389990000 114.1359170000,22.3392970000 114.1359950000,22.3396130000 114.1362150000,22.3404640000 114.1362940000,22.3406170000 114.1363760000,22.3407570000 114.1364990000,22.3409230000 114.1366610000,22.3410740000 114.1368110000,22.3411900000 114.1369940000,22.3412930000 114.1371900000,22.3413630000 114.1374620000,22.3414190000 114.1376640000,22.3414410000 114.1378490000,22.3414330000 114.1380060000,22.3414150000 114.1381830000,22.3413640000 114.1383630000,22.3412890000 114.1388120000,22.3411060000 114.1391810000,22.3408970000 114.1399880000,22.3403290000 114.1404400000,22.3400810000 114.1406460000,22.3400140000 114.1408740000,22.3399450000 114.1411450000,22.3399420000 114.1413540000,22.3399530000 114.1415920000,22.3400400000 114.1416690000,22.3400870000 114.1419010000,22.3402690000 114.1424680000,22.3407800000 114.1427240000,22.3409890000 114.1428620000,22.3410740000 114.1429790000,22.3411210000 114.1430690000,22.3411540000 114.1431830000,22.3411830000 114.1432930000,22.3412000000 114.1433840000,22.3412070000 114.1435080000,22.3412080000 114.1436040000,22.3412070000 114.1437140000,22.3411960000 114.1438040000,22.3411670000 114.1440800000,22.3410180000 114.1441700000,22.3409530000 114.1443000000,22.3408260000 114.1445620000,22.3404730000 114.1446690000,22.3403370000 114.1447360000,22.3402750000 114.1448380000,22.3401920000 114.1449640000,22.3401250000 114.1451290000,22.3400430000 114.1453170000,22.3400070000 114.1455790000,22.3399850000 114.1459450000,22.3399910000 114.1463270000,22.3400010000 114.1466450000,22.3400310000 114.1468840000,22.3400680000 114.1471390000,22.3401190000 114.1487060000,22.3405890000 114.1492740000,22.3407430000 114.1495080000,22.3408140000 114.1497260000,22.3408970000 114.1499710000,22.3409990000 114.1508180000,22.3413740000 114.1511960000,22.3415390000 114.1518730000,22.3417970000 114.1525490000,22.3420820000 114.1541150000,22.3427540000 114.1543950000,22.3428430000 114.1545670000,22.3428850000 114.1547130000,22.3429090000 114.1549220000,22.3429240000 114.1550660000,22.3429210000 114.1556260000,22.3428670000 114.1558500000,22.3428530000 114.1561130000,22.3428480000 114.1563590000,22.3428530000 114.1565660000,22.3428640000 114.1567280000,22.3428790000 114.1572840000,22.3429300000 114.1574470000,22.3429440000 114.1578930000,22.3429760000 114.1581140000,22.3429730000 114.1583270000,22.3429680000 114.1585380000,22.3429390000 114.1587590000,22.3429050000 114.1589920000,22.3428530000 114.1592060000,22.3427750000 114.1594870000,22.3426510000 114.1595790000,22.3425810000 114.1596740000,22.3425060000 114.1597570000,22.3424270000 114.1598070000,22.3423710000 114.1598650000,22.3422870000 114.1599120000,22.3422050000 114.1599520000,22.3421130000 114.1599870000,22.3420170000 114.1600800000,22.3417120000 114.1601240000,22.3415470000 114.1601590000,22.3414620000 114.1602060000,22.3413890000 114.1602990000,22.3412920000 114.1604120000,22.3412120000 114.1606100000,22.3411040000 114.1612190000,22.3408040000 114.1620930000,22.3403810000 114.1622920000,22.3402560000 114.1624010000,22.3401820000 114.1624970000,22.3401090000 114.1626770000,22.3399290000 114.1628300000,22.3397400000 114.1629690000,22.3395480000 114.1630900000,22.3392690000 114.1631820000,22.3390290000 114.1631910000,22.3389330000 114.1631980000,22.3388380000 114.1631820000,22.3385920000 114.1631090000,22.3383990000 114.1630280000,22.3382570000 114.1626300000,22.3378100000 114.1623470000,22.3375450000 114.1621900000,22.3373070000 114.1621200000,22.3371350000 114.1620940000,22.3369590000 114.1620830000,22.3367800000 114.1621090000,22.3365960000 114.1621430000,22.3364350000 114.1626860000,22.3351730000 114.1627030000,22.3351340000 114.1627430000,22.3350430000 114.1629290000,22.3346140000 114.1629800000,22.3344920000 114.1633630000,22.3336250000 114.1633830000,22.3335790000 114.1634560000,22.3333860000 114.1635160000,22.3332720000 114.1635620000,22.3331900000 114.1636200000,22.3331070000 114.1636960000,22.3329930000 114.1643850000,22.3322350000 114.1650250000,22.3315420000 114.1651620000,22.3313820000 114.1652070000,22.3313350000 114.1657330000,22.3307530000 114.1657950000,22.3306780000 114.1658430000,22.3306120000 114.1658850000,22.3305550000 114.1659900000,22.3304000000 114.1660570000,22.3302820000 114.1663220000,22.3297660000 114.1664760000,22.3294390000 114.1665460000,22.3292920000 114.1670170000,22.3283490000 114.1671120000,22.3281590000 114.1672140000,22.3279570000 114.1673070000,22.3277480000 114.1673270000,22.3276890000 114.1673450000,22.3276290000 114.1673520000,22.3275810000 114.1673520000,22.3275270000 114.1673460000,22.3274760000 114.1673160000,22.3273890000 114.1672780000,22.3272900000 114.1672700000,22.3272460000 114.1672680000,22.3272060000 114.1672750000,22.3271670000 114.1672830000,22.3271360000 114.1673030000,22.3271060000 114.1673530000,22.3270820000 114.1674040000,22.3270560000 114.1674530000,22.3270230000 114.1676480000,22.3268480000 114.1677660000,22.3267310000 114.1678470000,22.3266350000 114.1679190000,22.3264760000 114.1679560000,22.3263890000 114.1679810000,22.3263140000 114.1680030000,22.3262340000 114.1681560000,22.3255460000 114.1682360000,22.3251720000 114.1682480000,22.3251100000 114.1683990000,22.3243410000 114.1684600000,22.3240570000 114.1684740000,22.3239910000 114.1686640000,22.3230770000 114.1687280000,22.3227800000 114.1687690000,22.3225640000 114.1687740000,22.3225400000 114.1687860000,22.3224820000 114.1688740000,22.3220360000 114.1690750000,22.3210050000 114.1690820000,22.3209690000 114.1691120000,22.3208340000 114.1691710000,22.3205520000 114.1692280000,22.3202610000 114.1693170000,22.3198470000 114.1693890000,22.3194980000 114.1694180000,22.3193590000 114.1694290000,22.3193120000 114.1694680000,22.3191260000 114.1694830000,22.3190570000 114.1695380000,22.3187820000 114.1696280000,22.3183450000 114.1696600000,22.3181870000 114.1697870000,22.3175640000 114.1697990000,22.3175010000 114.1699580000,22.3167360000 114.1699920000,22.3165510000 114.1702310000,22.3154080000 114.1702360000,22.3153740000 114.1703270000,22.3149370000 114.1703380000,22.3148880000 114.1703990000,22.3145700000 114.1704180000,22.3144740000 114.1704350000,22.3143890000 114.1704660000,22.3142320000 114.1705300000,22.3139010000 114.1706980000,22.3130740000 114.1707170000,22.3129770000 114.1708160000,22.3125020000 114.1708200000,22.3124780000 114.1709270000,22.3119420000 114.1711040000,22.3109890000 114.1711200000,22.3109100000 114.1712230000,22.3103170000 114.1712290000,22.3102590000 114.1712300000,22.3101390000 114.1712520000,22.3096750000 114.1713030000,22.3091940000 114.1713190000,22.3090320000 114.1713840000,22.3084990000 114.1713890000,22.3084130000 114.1714240000,22.3078700000 114.1714890000,22.3070430000 114.1715310000,22.3065590000 114.1715670000,22.3061210000 114.1715830000,22.3059440000 114.1716850000,22.3053910000 114.1717000000,22.3052850000 114.1717760000,22.3044440000 114.1718060000,22.3039660000 114.1718370000,22.3032770000 114.1718410000,22.3032030000 114.1718860000,22.3026370000 114.1719080000,22.3023190000 114.1719430000,22.3017180000 114.1719850000,22.3012240000 114.1720470000,22.3004490000 114.1720530000,22.3003670000 114.1720570000,22.3003170000 114.1720580000,22.3002990000 114.1720630000,22.3002440000 114.1721260000,22.2995330000 114.1721640000,22.2987190000 114.1721880000,22.2981630000 114.1722150000,22.2976370000 114.1722680000,22.2969500000 114.1723780000,22.2956030000 114.1724090000,22.2952440000 114.1724440000,22.2947870000 114.1729400000,22.2948230000 114.1731840000,22.2948150000 114.1734460000,22.2948190000 114.1736550000,22.2948460000 114.1738450000,22.2948740000 114.1740480000,22.2949120000 114.1743100000,22.2949750000 114.1746070000,22.2950660000 114.1750700000,22.2952190000 114.1753400000,22.2953530000 114.1757400000,22.2955780000 114.1761700000,22.2958460000 114.1764870000,22.2960830000 114.1768410000,22.2963800000 114.1770830000,22.2965810000 114.1772740000,22.2967680000 114.1777830000,22.2972190000 114.1784480000,22.2977890000 114.1785320000,22.2978640000 114.1786180000,22.2979290000 114.1788540000,22.2980390000 114.1793290000,22.2984350000 114.1800920000,22.2990470000 114.1802350000,22.2991300000 114.1803980000,22.2992060000 114.1805880000,22.2992740000 114.1807220000,22.2993140000 114.1809890000,22.2993690000 114.1812160000,22.2993870000 114.1816700000,22.2994160000 114.1817960000,22.2994610000 114.1821290000,22.2995550000 114.1826230000,22.2997740000 114.1830240000,22.2999950000 114.1832710000,22.3001310000 114.1835030000,22.3002800000 114.1836680000,22.3004090000 114.1838200000,22.3005800000 114.1839460000,22.3007730000 114.1840010000,22.3009180000 114.1840480000,22.3010710000 114.1841010000,22.3013640000 114.1841110000,22.3016010000 114.1841090000,22.3019370000 114.1840180000,22.3020740000 114.1838940000,22.3021820000 114.1831550000,22.3021910000 114.1831280000,22.3020940000 114.1830870000,22.3020460000 114.1830220000,22.3019960000 114.1829600000,22.3019900000 114.1829040000,22.3020160000 114.1828090000,22.3020040000 114.1824470000,22.3020180000 114.1823740000,22.3020230000 114.1823010000,22.3020270000 114.1815420000,22.3020510000 114.1811750000,22.3020550000 114.1811220000,22.3022120000 114.1810990000,22.3023780000 114.1811270000,22.3027000000 114.1811320000,22.3030880000 114.1811950000,22.3035400000 114.1812130000,22.3035680000 114.1812480000,22.3035900000 114.1812760000,22.3036050000 114.1813220000,22.3036100000 114.1814320000,22.3036050000 114.1818630000,22.3035620000 114.1818880000,22.3035530000 114.1819070000,22.3035340000 114.1819160000,22.3035130000 114.1818920000,22.3032820000 114.1818510000,22.3032340000 114.1818510000,22.3032340000 114.1818920000,22.3032820000 114.1819160000,22.3035130000 114.1819070000,22.3035340000 114.1818880000,22.3035530000 114.1818630000,22.3035620000 114.1814320000,22.3036050000 114.1814570000,22.3038040000 114.1815010000,22.3038420000 114.1820690000,22.3037950000 114.1824100000,22.3037680000 114.1827780000,22.3037420000 114.1829030000,22.3037300000 114.1829270000,22.3035180000 114.1829250000,22.3033040000 114.1828980000,22.3026050000 114.1828890000,22.3024900000 114.1828600000,22.3023880000 114.1828000000,22.3022560000 114.1827400000,22.3021660000 114.1826460000,22.3020950000 114.1824470000,22.3020180000 114.1823740000,22.3020230000 114.1823010000,22.3020270000 114.1815420000,22.3020510000 114.1811750000,22.3020550000 114.1811220000,22.3022120000 114.1810990000,22.3023780000 114.1811270000,22.3027000000 114.1811770000,22.3031460000 114.1812620000,22.3036870000 114.1813040000,22.3037670000 114.1813890000,22.3039060000 114.1814520000,22.3039870000 114.1815220000,22.3040680000 114.1815780000,22.3041080000 114.1816430000,22.3041310000 114.1819190000,22.3041090000 114.1820000000,22.3041690000 114.1820400000,22.3042600000 114.1820500000,22.3044200000 114.1820550000,22.3044600000 114.1820660000,22.3045110000 114.1820850000,22.3045800000 114.1821090000,22.3046500000 114.1821390000,22.3047200000 114.1821570000,22.3047500000 114.1821820000,22.3047900000 114.1822400000,22.3048590000 114.1823000000,22.3049100000 114.1823570000,22.3049520000 114.1823890000,22.3049720000 114.1824200000,22.3049890000 114.1824570000,22.3050060000 114.1824890000,22.3050190000 114.1825190000,22.3050300000 114.1826600000,22.3050690000 114.1827250000,22.3050900000 114.1827580000,22.3051020000 114.1827900000,22.3051200000 114.1832110000,22.3054990000 114.1834010000,22.3056550000 114.1835460000,22.3058090000 114.1837010000,22.3060470000 114.1838310000,22.3062700000 114.1839190000,22.3063670000 114.1842310000,22.3067900000 114.1842590000,22.3068330000 114.1842910000,22.3068780000 114.1843940000,22.3070210000 114.1844580000,22.3071100000 114.1847210000,22.3074740000 114.1850190000,22.3078840000 114.1850900000,22.3078410000 114.1854620000,22.3076090000 114.1858770000,22.3073350000 114.1859030000,22.3073180000 114.1860360000,22.3072340000 114.1864610000,22.3069640000 114.1865870000,22.3068850000 114.1866970000,22.3068150000 114.1871810000,22.3065180000 114.1877030000,22.3061920000 114.1880610000,22.3059660000 114.1882260000,22.3058620000 114.1882400000,22.3058530000 114.1886070000,22.3056220000 114.1886160000,22.3056160000 114.1886580000,22.3055880000 114.1887260000,22.3055500000 114.1888230000,22.3054860000 114.1890100000,22.3053550000 114.1900620000,22.3046950000 114.1892980000,22.3036520000 114.1890570000,22.3033140000 114.1888860000,22.3030800000 114.1888610000,22.3029670000 114.1888060000,22.3028750000 114.1887660000,22.3027450000 114.1887380000,22.3025310000 114.1887460000,22.3024450000 114.1887210000,22.3022590000 114.1888290000,22.3022310000 114.1890080000,22.3021020000 114.1891550000,22.3020480000 114.1893080000,22.3020690000 114.1894560000,22.3021580000 114.1895990000,22.3022670000 114.1896800000,22.3023390000 114.1897760000,22.3023800000 114.1898730000,22.3023720000 114.1900420000,22.3022990000 114.1901480000,22.3022520000 114.1902760000,22.3021960000 114.1903800000,22.3021510000 114.1906520000,22.3016630000 114.1906090000,22.3015600000 114.1904610000,22.3014910000 114.1903960000,22.3014880000 114.1903140000,22.3014870000 114.1902710000,22.3015560000 114.1902310000,22.3016280000 114.1901760000,22.3017330000 114.1900300000,22.3020120000 114.1899270000,22.3022420000 114.1898700000,22.3022780000 114.1898040000,22.3023010000 114.1897140000,22.3023010000 114.1895990000,22.3022670000 114.1894560000,22.3021580000 114.1893080000,22.3020690000 114.1891550000,22.3020480000 114.1890080000,22.3021020000 114.1888290000,22.3022310000 114.1887210000,22.3022590000 114.1886070000,22.3022700000 114.1886270000,22.3023570000 114.1886390000,22.3024750000 114.1886380000,22.3025700000 114.1886180000,22.3026490000 114.1885900000,22.3027410000 114.1885590000,22.3028090000 114.1885390000,22.3028400000 114.1883880000,22.3030490000 114.1876200000,22.3035540000 114.1872170000,22.3038220000 114.1870220000,22.3039600000 114.1863290000,22.3044520000 114.1859770000,22.3046870000 114.1858710000,22.3047700000 114.1856810000,22.3049040000 114.1855270000,22.3050070000 114.1851290000,22.3052130000 114.1848340000,22.3053650000 114.1843940000,22.3055710000 114.1841680000,22.3056840000 114.1837320000,22.3059260000 114.1835950000,22.3057760000 114.1834410000,22.3056240000 114.1832480000,22.3054540000 114.1828000000,22.3050900000 114.1827780000,22.3050740000 114.1827500000,22.3050600000 114.1826900000,22.3050400000 114.1825300000,22.3049980000 114.1824900000,22.3049800000 114.1824390000,22.3049500000 114.1823800000,22.3049110000 114.1823270000,22.3048710000 114.1822900000,22.3048400000 114.1822600000,22.3048100000 114.1822100000,22.3047500000 114.1821800000,22.3047100000 114.1821610000,22.3046810000 114.1821450000,22.3046500000 114.1821300000,22.3046140000 114.1821200000,22.3045820000 114.1821040000,22.3045100000 114.1820960000,22.3044650000 114.1820900000,22.3044190000 114.1820870000,22.3042580000 114.1821000000,22.3041680000 114.1821700000,22.3040900000 114.1824890000,22.3040680000 114.1826190000,22.3040590000 114.1827420000,22.3040650000 114.1828430000,22.3040190000 114.1828960000,22.3038980000 114.1829030000,22.3037300000 114.1829270000,22.3035180000 114.1829250000,22.3033040000 114.1828980000,22.3026050000 114.1828890000,22.3024900000 114.1828600000,22.3023880000 114.1828000000,22.3022560000 114.1827400000,22.3021660000 114.1826460000,22.3020950000 114.1824470000,22.3020180000 114.1823740000,22.3020230000 114.1823010000,22.3020270000 114.1815420000,22.3020510000 114.1811750000,22.3020550000 114.1811220000,22.3022120000 114.1810990000,22.3023780000 114.1811270000,22.3027000000 114.1811320000,22.3030880000 114.1811950000,22.3035400000 114.1812130000,22.3035680000 114.1812480000,22.3035900000 114.1812760000,22.3036050000 114.1813220000,22.3036100000 114.1814320000,22.3036050000 114.1818630000,22.3035620000 114.1818880000,22.3035530000 114.1819070000,22.3035340000 114.1819160000,22.3035130000 114.1818920000,22.3032820000 114.1818510000,22.3032340000 114.1818520000,22.3032350000 114.1818920000,22.3032820000 114.1819160000,22.3035130000 114.1819070000,22.3035340000 114.1818880000,22.3035530000 114.1818630000,22.3035620000 114.1814320000,22.3036050000 114.1814570000,22.3038040000 114.1815010000,22.3038420000 114.1820690000,22.3037950000 114.1824100000,22.3037680000 114.1827780000,22.3037420000 114.1829030000,22.3037300000 114.1829270000,22.3035180000 114.1829850000,22.3030090000 114.1830120000,22.3027410000 114.1830750000,22.3023980000 114.1831100000,22.3023860000 114.1831380000,22.3023580000 114.1831470000,22.3023370000 114.1831530000,22.3022900000 114.1834300000,22.3022710000 114.1838960000,22.3022680000 114.1841030000,22.3022600000 114.1841730000,22.3022150000 114.1842750000,22.3021560000 114.1843230000,22.3020980000 114.1843640000,22.3020260000 114.1844000000,22.3019630000 114.1844000000,22.3016950000 114.1842660000,22.3007820000 114.1841260000,22.3003950000 114.1839360000,22.3001570000 114.1837880000,22.3000200000 114.1835850000,22.2998820000 114.1834310000,22.2998050000 114.1832870000,22.2997450000 114.1827420000,22.2995550000 114.1826300000,22.2995150000 114.1823580000,22.2994740000 114.1819920000,22.2993590000 114.1818440000,22.2993300000 114.1816930000,22.2993080000 114.1813190000,22.2992930000 114.1809730000,22.2992660000 114.1807720000,22.2992310000 114.1806210000,22.2991930000 114.1804390000,22.2991280000 114.1802870000,22.2990560000 114.1801510000,22.2989700000 114.1799110000,22.2987840000 114.1797830000,22.2986710000 114.1793940000,22.2983380000 114.1791530000,22.2981160000 114.1790120000,22.2979800000 114.1786460000,22.2976800000 114.1783710000,22.2974830000 114.1781150000,22.2973120000 114.1778480000,22.2971100000 114.1773460000,22.2966870000 114.1771340000,22.2965130000 114.1767700000,22.2962170000 114.1764670000,22.2959670000 114.1762290000,22.2958020000 114.1759960000,22.2956460000 114.1757850000,22.2955160000 114.1753820000,22.2952910000 114.1750950000,22.2951560000 114.1746400000,22.2949980000 114.1743320000,22.2949050000 114.1740720000,22.2948400000 114.1738640000,22.2947980000 114.1736690000,22.2947710000 114.1734490000,22.2947490000 114.1730260000,22.2947200000 114.1725320000,22.2946820000 114.1724890000,22.2946800000 114.1724500000,22.2946810000 114.1724240000,22.2946860000 114.1723990000,22.2946980000 114.1723690000,22.2947120000 114.1723390000,22.2947420000 114.1723210000,22.2947800000 114.1722640000,22.2956150000 114.1722390000,22.2959540000 114.1722000000,22.2964850000 114.1721280000,22.2975570000 114.1720930000,22.2981590000 114.1720810000,22.2983370000 114.1720360000,22.2989300000 114.1720070000,22.2995080000 114.1720040000,22.2995500000 114.1719480000,22.3003360000 114.1718720000,22.3013390000 114.1718390000,22.3016970000 114.1717980000,22.3022690000 114.1717450000,22.3031930000 114.1717400000,22.3032700000 114.1717190000,22.3039150000 114.1716840000,22.3043850000 114.1716090000,22.3052720000 114.1716010000,22.3053650000 114.1715100000,22.3059380000 114.1714700000,22.3065360000 114.1714610000,22.3066150000 114.1714140000,22.3070950000 114.1713450000,22.3077040000 114.1712780000,22.3084120000 114.1712710000,22.3084970000 114.1711910000,22.3092030000 114.1711830000,22.3092980000 114.1711430000,22.3096650000 114.1711010000,22.3102040000 114.1710930000,22.3102910000 114.1710200000,22.3109160000 114.1708380000,22.3119030000 114.1706170000,22.3129600000 114.1705980000,22.3130570000 114.1704300000,22.3138660000 114.1704060000,22.3139780000 114.1703870000,22.3140810000 114.1702980000,22.3145550000 114.1702850000,22.3146150000 114.1702220000,22.3149060000 114.1701980000,22.3150140000 114.1701270000,22.3153490000 114.1701180000,22.3153940000 114.1699740000,22.3160650000 114.1699470000,22.3162200000 114.1698800000,22.3165370000 114.1698450000,22.3167110000 114.1697770000,22.3170440000 114.1696740000,22.3175180000 114.1696010000,22.3179070000 114.1695180000,22.3183090000 114.1694820000,22.3184960000 114.1693710000,22.3190360000 114.1693570000,22.3191060000 114.1693200000,22.3192930000 114.1692700000,22.3195280000 114.1692500000,22.3196220000 114.1692170000,22.3197760000 114.1691840000,22.3199350000 114.1691760000,22.3199730000 114.1691170000,22.3202460000 114.1691160000,22.3202520000 114.1690780000,22.3204490000 114.1690730000,22.3204740000 114.1690380000,22.3206440000 114.1690220000,22.3207200000 114.1690010000,22.3208190000 114.1689990000,22.3208400000 114.1689860000,22.3208940000 114.1688970000,22.3213210000 114.1688490000,22.3215520000 114.1687620000,22.3220220000 114.1687560000,22.3220470000 114.1686870000,22.3223340000 114.1686520000,22.3225330000 114.1686500000,22.3225260000 114.1685600000,22.3230190000 114.1684510000,22.3235330000 114.1683460000,22.3239670000 114.1683300000,22.3240350000 114.1683060000,22.3241450000 114.1681200000,22.3251120000 114.1679450000,22.3259110000 114.1679270000,22.3259940000 114.1678710000,22.3262210000 114.1678470000,22.3262890000 114.1678120000,22.3263620000 114.1677750000,22.3264240000 114.1677360000,22.3264840000 114.1677220000,22.3264990000 114.1676640000,22.3265810000 114.1676070000,22.3266510000 114.1675510000,22.3267160000 114.1674840000,22.3267810000 114.1672130000,22.3270060000 114.1671760000,22.3270510000 114.1671490000,22.3271040000 114.1671390000,22.3271520000 114.1671360000,22.3271970000 114.1671390000,22.3272400000 114.1671450000,22.3272840000 114.1671570000,22.3273200000 114.1672290000,22.3274860000 114.1672400000,22.3275220000 114.1672420000,22.3275650000 114.1672380000,22.3275990000 114.1672280000,22.3276390000 114.1672110000,22.3276820000 114.1671400000,22.3278170000 114.1670890000,22.3279300000 114.1667230000,22.3286750000 114.1665160000,22.3290890000 114.1663830000,22.3293390000 114.1662620000,22.3296090000 114.1659860000,22.3301670000 114.1659300000,22.3302920000 114.1659090000,22.3303350000 114.1658820000,22.3303830000 114.1658450000,22.3304460000 114.1658070000,22.3305060000 114.1657800000,22.3305380000 114.1657290000,22.3306020000 114.1656760000,22.3306640000 114.1656070000,22.3307380000 114.1654670000,22.3308870000 114.1653460000,22.3310130000 114.1652740000,22.3310920000 114.1652550000,22.3311130000 114.1651500000,22.3312190000 114.1650610000,22.3313150000 114.1643210000,22.3321700000 114.1640960000,22.3324190000 114.1635840000,22.3329460000 114.1634360000,22.3331180000 114.1633440000,22.3332740000 114.1633330000,22.3332930000 114.1632770000,22.3334220000 114.1632300000,22.3334990000 114.1630880000,22.3338290000 114.1629530000,22.3341760000 114.1626350000,22.3349910000 114.1626070000,22.3350570000 114.1625920000,22.3350920000 114.1620800000,22.3363090000 114.1619640000,22.3366400000 114.1619480000,22.3369860000 114.1620260000,22.3372740000 114.1621840000,22.3375230000 114.1623680000,22.3377380000 114.1626350000,22.3379990000 114.1628690000,22.3382310000 114.1629830000,22.3383810000 114.1630610000,22.3385430000 114.1631000000,22.3387220000 114.1630890000,22.3389470000 114.1630620000,22.3390770000 114.1630080000,22.3392460000 114.1628340000,22.3395960000 114.1627580000,22.3397110000 114.1625540000,22.3399590000 114.1624140000,22.3400780000 114.1621780000,22.3402070000 114.1616470000,22.3404840000 114.1612220000,22.3406720000 114.1609850000,22.3407830000 114.1605400000,22.3410050000 114.1604490000,22.3410630000 114.1603010000,22.3411570000 114.1600010000,22.3414900000 114.1595470000,22.3421010000 114.1593610000,22.3422830000 114.1590520000,22.3424510000 114.1589210000,22.3425060000 114.1587260000,22.3425760000 114.1585470000,22.3426230000 114.1583550000,22.3426600000 114.1581640000,22.3426770000 114.1579830000,22.3426860000 114.1577670000,22.3426890000 114.1573350000,22.3426760000 114.1563510000,22.3425840000 114.1561210000,22.3425800000 114.1558340000,22.3425880000 114.1555990000,22.3426170000 114.1552840000,22.3426740000 114.1551240000,22.3426930000 114.1549760000,22.3427080000 114.1548200000,22.3427030000 114.1546610000,22.3426910000 114.1544540000,22.3426590000 114.1539990000,22.3425520000 114.1536980000,22.3424250000 114.1509700000,22.3412490000 114.1505350000,22.3410710000 114.1500930000,22.3408870000 114.1498310000,22.3407830000 114.1496330000,22.3407010000 114.1492640000,22.3405710000 114.1487650000,22.3404020000 114.1472160000,22.3399700000 114.1469300000,22.3398970000 114.1466690000,22.3398570000 114.1463180000,22.3398320000 114.1455850000,22.3398140000 114.1453110000,22.3398360000 114.1450780000,22.3398850000 114.1448680000,22.3399770000 114.1447450000,22.3400500000 114.1446390000,22.3401350000 114.1445300000,22.3402420000 114.1441970000,22.3406980000 114.1441110000,22.3408110000 114.1440340000,22.3408970000 114.1439820000,22.3409430000 114.1439060000,22.3410000000 114.1437720000,22.3410560000 114.1436270000,22.3410950000 114.1435470000,22.3411080000 114.1434300000,22.3411090000 114.1433470000,22.3410990000 114.1432000000,22.3410730000 114.1429990000,22.3410070000 114.1427900000,22.3408930000 114.1425460000,22.3407080000 114.1418420000,22.3400970000 114.1417020000,22.3400050000 114.1413940000,22.3398740000 114.1412340000,22.3398470000 114.1410360000,22.3398390000 114.1408280000,22.3398550000 114.1406170000,22.3399190000 114.1403200000,22.3400310000 114.1399660000,22.3402170000 114.1390790000,22.3408220000 114.1387950000,22.3409890000 114.1384860000,22.3411350000 114.1381500000,22.3412550000 114.1379970000,22.3412930000 114.1378480000,22.3413160000 114.1376760000,22.3413210000 114.1374900000,22.3413090000 114.1372610000,22.3412580000 114.1370550000,22.3411850000 114.1369150000,22.3411080000 114.1367940000,22.3410270000 114.1365860000,22.3408270000 114.1363900000,22.3402970000 114.1362210000,22.3396570000 114.1361060000,22.3391020000 114.1360550000,22.3387210000 114.1360460000,22.3384780000 114.1360890000,22.3380640000 114.1360940000,22.3378930000 114.1360660000,22.3375860000 114.1360230000,22.3373800000 114.1359920000,22.3372220000 114.1358870000,22.3368620000 114.1356660000,22.3362620000 114.1355740000,22.3360490000 114.1355630000,22.3360300000 114.1354450000,22.3358220000 114.1353490000,22.3356940000 114.1352720000,22.3356130000 114.1351930000,22.3355320000 114.1350470000,22.3354150000 114.1348860000,22.3353250000 114.1347640000,22.3352680000 114.1346510000,22.3352280000 114.1345290000,22.3351850000 114.1343880000,22.3351510000 114.1342250000,22.3351310000 114.1340760000,22.3351260000 114.1338890000,22.3351310000 114.1337130000,22.3351580000 114.1335140000,22.3352100000 114.1333480000,22.3352740000 114.1331810000,22.3353580000 114.1330670000,22.3354300000 114.1329450000,22.3355330000 114.1328470000,22.3356230000 114.1327460000,22.3357410000 114.1326520000,22.3358750000 114.1325760000,22.3360100000 114.1324940000,22.3361850000 114.1324350000,22.3363490000 114.1323820000,22.3365190000 114.1322850000,22.3368760000 114.1322250000,22.3370820000 114.1321510000,22.3373000000 114.1320370000,22.3376300000 114.1318910000,22.3379940000 114.1317450000,22.3383260000 114.1315600000,22.3387620000 114.1312770000,22.3394790000 114.1311420000,22.3398180000 114.1310790000,22.3401370000 114.1310470000,22.3402070000 114.1308880000,22.3405740000 114.1307190000,22.3409130000 114.1305230000,22.3412450000 114.1302290000,22.3416960000 114.1300150000,22.3419730000 114.1297900000,22.3422150000 114.1296350000,22.3423570000 114.1294840000,22.3425000000 114.1293200000,22.3426370000 114.1291160000,22.3427790000 114.1288740000,22.3429000000 114.1285800000,22.3430670000 114.1282990000,22.3432080000 114.1280790000,22.3433120000 114.1275730000,22.3435180000 114.1272420000,22.3436620000 114.1269010000,22.3438300000 114.1265480000,22.3440350000 114.1261970000,22.3442850000 114.1259420000,22.3444920000 114.1256990000,22.3447270000 114.1254680000,22.3449730000 114.1252700000,22.3452380000 114.1250080000,22.3455860000 114.1248240000,22.3458870000 114.1246430000,22.3463590000 114.1244800000,22.3469000000 114.1244150000,22.3472210000 114.1243800000,22.3475480000 114.1243660000,22.3478910000 114.1243750000,22.3483980000 114.1243460000,22.3492150000 114.1242840000,22.3496110000 114.1241960000,22.3499950000 114.1240920000,22.3503190000 114.1239530000,22.3506300000 114.1237610000,22.3509160000 114.1234880000,22.3512340000 114.1230260000,22.3516520000 114.1228280000,22.3518040000 114.1226080000,22.3519350000 114.1221550000,22.3521050000 114.1217180000,22.3522390000 114.1214310000,22.3523020000 114.1211440000,22.3523490000 114.1207110000,22.3523730000 114.1203330000,22.3523730000 114.1199880000,22.3523650000 114.1194960000,22.3522790000 114.1191870000,22.3522180000 114.1188760000,22.3521210000 114.1185250000,22.3519850000 114.1181990000,22.3518490000 114.1179480000,22.3517290000 114.1175950000,22.3515240000 114.1172010000,22.3512330000 114.1166410000,22.3508060000 114.1162170000,22.3505070000 114.1159110000,22.3503370000 114.1156210000,22.3501800000 114.1153280000,22.3500460000 114.1150960000,22.3499490000 114.1143120000,22.3496360000 114.1132010000,22.3492230000 114.1124200000,22.3489270000 114.1118410000,22.3487000000 114.1115030000,22.3485560000 114.1108790000,22.3482700000 114.1067700000,22.3461380000 114.1065040000,22.3460130000 114.1062830000,22.3459150000 114.1060100000,22.3457980000 114.1057500000,22.3456900000 114.1055200000,22.3456000000 114.1053160000,22.3455250000 114.1050600000,22.3454400000 114.1048010000,22.3453580000 114.1045000000,22.3452660000 114.1042000000,22.3451750000 114.1039000000,22.3450920000 114.1036000000,22.3450220000 114.1033000000,22.3449580000 114.1030000000,22.3449000000 114.1026240000,22.3448390000 114.1026000000,22.3448350000 114.1020600000,22.3447660000 114.1017660000,22.3447330000 114.1014700000,22.3447070000 114.1011840000,22.3446860000 114.1009000000,22.3446750000 114.1003400000,22.3446570000 114.0957200000,22.3446110000 114.0956240000,22.3446120000 114.0943500000,22.3446090000 114.0937600000,22.3445980000 114.0932450000,22.3446000000 114.0929810000,22.3446070000 114.0927640000,22.3446250000 114.0924930000,22.3446550000 114.0921460000,22.3447160000 114.0920330000,22.3447350000 114.0918930000,22.3447670000 114.0917140000,22.3448180000 114.0915160000,22.3448850000 114.0912310000,22.3449890000 114.0909600000,22.3451060000 114.0906860000,22.3452240000 114.0903900000,22.3453580000 114.0901860000,22.3454620000 114.0897600000,22.3456670000 114.0895210000,22.3457890000 114.0893050000,22.3459100000 114.0889220000,22.3461740000 114.0885700000,22.3464410000 114.0882590000,22.3467350000 114.0881270000,22.3468140000 114.0880130000,22.3469050000 114.0878070000,22.3471650000 114.0875500000,22.3475690000 114.0873430000,22.3479580000 114.0871970000,22.3483340000 114.0870280000,22.3489680000 114.0868450000,22.3496650000 114.0866810000,22.3502570000 114.0866620000,22.3504730000 114.0865950000,22.3507390000 114.0865170000,22.3509830000 114.0863840000,22.3512760000 114.0862900000,22.3514840000 114.0861000000,22.3518620000 114.0857890000,22.3524070000 114.0854520000,22.3530980000 114.0847120000,22.3546080000 114.0839530000,22.3559680000 114.0837450000,22.3564090000 114.0835520000,22.3568150000 114.0827160000,22.3583350000 114.0823470000,22.3590330000 114.0817280000,22.3601470000 114.0784010000,22.3664850000 114.0777670000,22.3675880000 114.0776390000,22.3677580000 114.0772760000,22.3683730000 114.0770190000,22.3687380000 114.0768310000,22.3689600000 114.0766180000,22.3691540000 114.0763310000,22.3693640000 114.0759950000,22.3695490000 114.0756140000,22.3696930000 114.0751180000,22.3697580000 114.0747640000,22.3697600000 114.0743370000,22.3697100000 114.0739760000,22.3696220000 114.0735600000,22.3694520000 114.0732020000,22.3692330000 114.0728820000,22.3689540000 114.0725720000,22.3685980000 114.0722640000,22.3681810000 114.0718940000,22.3676870000 114.0714030000,22.3669150000 114.0710910000,22.3665460000 114.0707490000,22.3662430000 114.0704070000,22.3660360000 114.0700740000,22.3658990000 114.0697620000,22.3658060000 114.0693730000,22.3657280000 114.0689650000,22.3656990000 114.0685320000,22.3657080000 114.0681330000,22.3657420000 114.0673960000,22.3658570000 114.0668420000,22.3659990000 114.0664770000,22.3661340000 114.0661160000,22.3662990000 114.0656300000,22.3665750000 114.0652190000,22.3668530000 114.0647100000,22.3671610000 114.0642650000,22.3675080000 114.0637770000,22.3679800000 114.0632830000,22.3684860000 114.0630500000,22.3687160000 114.0626970000,22.3689330000 114.0623290000,22.3690650000 114.0618990000,22.3691620000 114.0616810000,22.3691820000 114.0614730000,22.3691730000 114.0612180000,22.3691410000 114.0610360000,22.3691050000 114.0607960000,22.3690250000 114.0604710000,22.3688780000 114.0602780000,22.3687780000 114.0601660000,22.3687160000 114.0594090000,22.3682780000 114.0586060000,22.3677780000 114.0581730000,22.3675290000 114.0577580000,22.3673870000 114.0573080000,22.3672120000 114.0569580000,22.3670800000 114.0566330000,22.3670140000 114.0562640000,22.3669610000 114.0557200000,22.3669290000 114.0549970000,22.3669100000 114.0543390000,22.3668040000 114.0538210000,22.3666840000 114.0532600000,22.3664760000 114.0524750000,22.3660430000 114.0518060000,22.3657050000 114.0514800000,22.3655970000 114.0510520000,22.3654810000 114.0505540000,22.3654210000 114.0499330000,22.3654090000 114.0493620000,22.3654230000 114.0484850000,22.3655630000 114.0481530000,22.3656350000 114.0477410000,22.3657050000 114.0475150000,22.3657230000 114.0472800000,22.3657320000 114.0470220000,22.3657160000 114.0467680000,22.3656940000 114.0460830000,22.3655630000 114.0455230000,22.3653820000 114.0448700000,22.3651270000 114.0442010000,22.3649190000 114.0437380000,22.3648520000 114.0433020000,22.3648000000 114.0428130000,22.3647800000 114.0424760000,22.3647340000 114.0421510000,22.3646450000 114.0418700000,22.3645490000 114.0414950000,22.3643100000 114.0413720000,22.3641910000 114.0412430000,22.3640720000 114.0404930000,22.3633030000 114.0402490000,22.3630950000 114.0399400000,22.3628440000 114.0389400000,22.3621920000 114.0385070000,22.3619300000 114.0380060000,22.3615730000 114.0374250000,22.3611060000 114.0368370000,22.3605850000 114.0365170000,22.3603180000 114.0361880000,22.3600810000 114.0359040000,22.3599210000 114.0354620000,22.3596830000 114.0347040000,22.3592690000 114.0340220000,22.3588170000 114.0335260000,22.3584320000 114.0325260000,22.3575190000 114.0320420000,22.3571260000 114.0315400000,22.3568000000 114.0310850000,22.3565790000 114.0305640000,22.3563650000 114.0301570000,22.3562380000 114.0296130000,22.3561120000 114.0287750000,22.3560160000 114.0278430000,22.3559250000 114.0272110000,22.3558610000 114.0264990000,22.3558250000 114.0257800000,22.3558420000 114.0250300000,22.3558950000 114.0242670000,22.3560020000 114.0233260000,22.3562210000 114.0229730000,22.3563340000 114.0224510000,22.3565300000 114.0214650000,22.3569450000 114.0212420000,22.3570290000 114.0206670000,22.3572760000 114.0203130000,22.3574530000 114.0200510000,22.3575950000 114.0199330000,22.3576660000 114.0197810000,22.3577660000 114.0194230000,22.3580430000 114.0192930000,22.3581580000 114.0190660000,22.3583600000 114.0188760000,22.3585500000 114.0186010000,22.3588460000 114.0182610000,22.3592470000 114.0179110000,22.3596600000 114.0171920000,22.3605100000 114.0165480000,22.3612540000 114.0153550000,22.3626330000 114.0152310000,22.3627840000 114.0150830000,22.3628760000 114.0148160000,22.3631810000 114.0146980000,22.3633070000 114.0145900000,22.3633810000 114.0145250000,22.3634130000 114.0144260000,22.3634400000 114.0142560000,22.3634680000 114.0138490000,22.3634370000 114.0136150000,22.3634540000 114.0134340000,22.3635140000 114.0133110000,22.3635880000 114.0132200000,22.3636620000 114.0131580000,22.3637820000 114.0131460000,22.3638680000 114.0131530000,22.3639360000 114.0131770000,22.3639960000 114.0132200000,22.3640630000 114.0132750000,22.3641300000 114.0133460000,22.3642480000 114.0133440000,22.3642770000 114.0133460000,22.3643060000 114.0133560000,22.3643460000 114.0133740000,22.3643830000 114.0134010000,22.3644160000 114.0134500000,22.3644540000 114.0135080000,22.3644770000 114.0135700000,22.3644840000 114.0136330000,22.3644740000 114.0136920000,22.3644470000 114.0137400000,22.3644040000 114.0137730000,22.3643500000 114.0137860000,22.3642940000 114.0137820000,22.3642360000 114.0137600000,22.3641810000 114.0137720000,22.3640640000 114.0137930000,22.3639870000 114.0140020000,22.3636640000 114.0141870000,22.3634060000 114.0180260000,22.3585000000 114.0183920000,22.3581140000 114.0185360000,22.3579920000 114.0186450000,22.3579160000 114.0187190000,22.3578770000 114.0187910000,22.3578470000 114.0188160000,22.3578540000 114.0188530000,22.3578590000 114.0188700000,22.3579470000 114.0188690000,22.3579950000 114.0188530000,22.3580240000 114.0188040000,22.3580600000 114.0187290000,22.3580700000 114.0186500000,22.3580820000 114.0185960000,22.3580990000 114.0184890000,22.3581510000 114.0184360000,22.3582010000 114.0185090000,22.3582700000 114.0183760000,22.3584050000 114.0183760000,22.3584050000 114.0182960000,22.3583360000 114.0182060000,22.3584300000 114.0181870000,22.3584710000 114.0181880000,22.3585370000 114.0182150000,22.3585960000 114.0182510000,22.3586190000 114.0183030000,22.3586250000 114.0183580000,22.3586090000 114.0184040000,22.3585720000 114.0184590000,22.3585130000 114.0185630000,22.3583990000 114.0186730000,22.3582800000 114.0187780000,22.3581580000 114.0188120000,22.3581200000 114.0188830000,22.3580840000 114.0189730000,22.3580760000 114.0190360000,22.3580900000 114.0190750000,22.3581090000 114.0191210000,22.3581460000 114.0191100000,22.3580870000 114.0190990000,22.3580460000 114.0191000000,22.3579720000 114.0190940000,22.3578280000 114.0190910000,22.3577500000 114.0190870000,22.3576710000 114.0190820000,22.3576100000 114.0190590000,22.3575530000 114.0190180000,22.3575050000 114.0189640000,22.3574700000 114.0189010000,22.3574510000 114.0188350000,22.3574510000 114.0187720000,22.3574680000 114.0187130000,22.3575050000 114.0186700000,22.3575560000 114.0186470000,22.3576180000 114.0185830000,22.3577400000 114.0185160000,22.3578380000 114.0183130000,22.3580480000 114.0179560000,22.3584360000 114.0141100000,22.3633420000 114.0139210000,22.3636010000 114.0137000000,22.3639460000 114.0135610000,22.3640740000 114.0135040000,22.3640820000 114.0134520000,22.3641030000 114.0133430000,22.3640380000 114.0132620000,22.3639910000 114.0132160000,22.3639080000 114.0132160000,22.3638020000 114.0132680000,22.3636990000 114.0133510000,22.3636250000 114.0134520000,22.3635610000 114.0135950000,22.3635110000 114.0138160000,22.3634860000 114.0139310000,22.3635130000 114.0140090000,22.3635510000 114.0140970000,22.3636260000 114.0141860000,22.3637500000 114.0142110000,22.3638330000 114.0142140000,22.3638960000 114.0142170000,22.3639510000 114.0142000000,22.3640450000 114.0140750000,22.3643040000 114.0138560000,22.3646050000 114.0137240000,22.3648730000 114.0135620000,22.3650800000 114.0133000000,22.3653560000 114.0129760000,22.3656760000 114.0126080000,22.3659720000 114.0122710000,22.3661940000 114.0119790000,22.3663430000 114.0116660000,22.3664600000 114.0113170000,22.3665380000 114.0109350000,22.3665690000 114.0103720000,22.3665820000 114.0097670000,22.3666050000 114.0094340000,22.3666360000 114.0090760000,22.3666840000 114.0084840000,22.3667920000 114.0079990000,22.3669110000 114.0076050000,22.3670260000 114.0069090000,22.3672190000 114.0066570000,22.3672740000 114.0064220000,22.3673070000 114.0061710000,22.3673190000 114.0059200000,22.3673110000 114.0055370000,22.3672670000 114.0048100000,22.3671450000 114.0043380000,22.3670930000 114.0039700000,22.3670950000 114.0036620000,22.3671110000 114.0033500000,22.3671460000 114.0029420000,22.3672420000 114.0025440000,22.3673820000 114.0022000000,22.3675340000 114.0018190000,22.3677560000 114.0013800000,22.3680810000 114.0011500000,22.3683150000 114.0009340000,22.3685640000 114.0006220000,22.3689530000 114.0003080000,22.3693670000 113.9997290000,22.3701790000 113.9992960000,22.3707940000 113.9989670000,22.3713120000 113.9987410000,22.3716880000 113.9978750000,22.3731250000 113.9976240000,22.3735300000 113.9974590000,22.3737670000 113.9969330000,22.3744420000 113.9965720000,22.3748470000 113.9964360000,22.3749890000 113.9960740000,22.3753420000 113.9957380000,22.3755720000 113.9954260000,22.3757260000 113.9950400000,22.3758660000 113.9947260000,22.3759320000 113.9943730000,22.3759610000 113.9939630000,22.3759210000 113.9936550000,22.3758660000 113.9933110000,22.3757860000 113.9929510000,22.3756820000 113.9919070000,22.3753700000 113.9910530000,22.3751220000 113.9905130000,22.3749930000 113.9902590000,22.3749640000 113.9900120000,22.3749610000 113.9897720000,22.3749720000 113.9895500000,22.3750010000 113.9893140000,22.3750490000 113.9890820000,22.3751160000 113.9888110000,22.3752200000 113.9885680000,22.3753440000 113.9884080000,22.3754430000 113.9881470000,22.3756370000 113.9879200000,22.3758440000 113.9873400000,22.3764860000 113.9871350000,22.3767250000 113.9863630000,22.3776480000 113.9858180000,22.3782510000 113.9851640000,22.3788860000 113.9846950000,22.3793350000 113.9827990000,22.3809530000 113.9820410000,22.3815410000 113.9813650000,22.3821350000 113.9810390000,22.3824890000 113.9807670000,22.3828140000 113.9803530000,22.3833410000 113.9798030000,22.3841460000 113.9794840000,22.3847210000 113.9794570000,22.3847830000 113.9791820000,22.3855420000 113.9790420000,22.3859510000 113.9789150000,22.3864180000 113.9786740000,22.3872860000 113.9785200000,22.3878590000 113.9782710000,22.3887890000 113.9780380000,22.3892550000 113.9777650000,22.3898070000 113.9776120000,22.3901690000 113.9775870000,22.3902510000 113.9776830000,22.3902730000 113.9781340000,22.3903780000 113.9782260000,22.3903970000 113.9785160000,22.3904650000 113.9788360000,22.3905410000 113.9796520000,22.3907440000 113.9797920000,22.3907760000 113.9799130000,22.3908040000 113.9799490000,22.3907010000 113.9799830000,22.3906030000 113.9800120000,22.3905130000 113.9802260000,22.3897110000 113.9803080000,22.3893930000 113.9805770000,22.3883610000 113.9806320000,22.3881490000 113.9807410000,22.3877020000 113.9807680000,22.3875930000 113.9809290000,22.3869360000 113.9810180000,22.3865530000 113.9810720000,22.3862930000 113.9811050000,22.3859060000 113.9810910000,22.3854380000 113.9810910000,22.3854280000 113.9809910000,22.3850870000 113.9809710000,22.3849880000 113.9808250000,22.3846480000 113.9806780000,22.3843850000 113.9804430000,22.3841230000 113.9801710000,22.3838940000 113.9799240000,22.3837570000 113.9795970000,22.3836500000 113.9790660000,22.3835780000 113.9784610000,22.3835650000 113.9782840000,22.3835490000 113.9781040000,22.3835200000 113.9779710000,22.3834790000 113.9777870000,22.3834010000 113.9776270000,22.3833300000 113.9773860000,22.3832230000 113.9771330000,22.3831100000 113.9762740000,22.3827270000 113.9756540000,22.3824510000 113.9755250000,22.3823930000 113.9754550000,22.3823620000 113.9753980000,22.3823380000 113.9753470000,22.3823150000 113.9753210000,22.3823050000 113.9751900000,22.3822490000 113.9735770000,22.3815690000 113.9734550000,22.3815170000 113.9732260000,22.3814190000 113.9725320000,22.3811190000 113.9719650000,22.3808700000 113.9716950000,22.3807620000 113.9715560000,22.3807080000 113.9713640000,22.3806230000 113.9710800000,22.3805140000 113.9709310000,22.3804840000 113.9707830000,22.3804730000 113.9705530000,22.3804750000 113.9703590000,22.3804820000 113.9703040000,22.3804870000 113.9702040000,22.3805000000 113.9701730000,22.3804170000 113.9701290000,22.3803300000 113.9700210000,22.3801270000 113.9699350000,22.3799960000 113.9698350000,22.3798830000 113.9696470000,22.3797400000 113.9690120000,22.3793760000 113.9678540000,22.3787350000 113.9675070000,22.3785280000 113.9673270000,22.3783550000 113.9671650000,22.3782060000 113.9669870000,22.3779410000 113.9669190000,22.3777980000 113.9668730000,22.3776960000 113.9668350000,22.3776070000 113.9665990000,22.3770540000 113.9664110000,22.3765040000 113.9663900000,22.3764340000 113.9658200000,22.3745750000 113.9657910000,22.3744830000 113.9654650000,22.3734180000 113.9654320000,22.3733160000 113.9654160000,22.3732640000 113.9653110000,22.3732900000 113.9652470000,22.3733240000 113.9652140000,22.3733300000 113.9651770000,22.3733360000 113.9644420000,22.3734420000 113.9643490000,22.3734570000 113.9636520000,22.3735660000 113.9634090000,22.3736070000 113.9631680000,22.3736470000 113.9626350000,22.3737610000 113.9625220000,22.3738040000 113.9624820000,22.3738250000 113.9623210000,22.3739110000 113.9619160000,22.3743970000 113.9618920000,22.3744250000 113.9616900000,22.3746660000 113.9616100000,22.3747670000 113.9615420000,22.3748520000 113.9615290000,22.3748590000 113.9614250000,22.3749730000 113.9609640000,22.3754940000 113.9609400000,22.3755210000 113.9607810000,22.3757000000 113.9606860000,22.3758080000 113.9605060000,22.3760110000 113.9604200000,22.3761430000 113.9604020000,22.3762120000 113.9604230000,22.3763480000 113.9609840000,22.3770450000 113.9618720000,22.3781650000 113.9620010000,22.3783290000 113.9625300000,22.3790130000 113.9626030000,22.3791080000 113.9627950000,22.3794160000 113.9629330000,22.3796750000 113.9630520000,22.3800410000 113.9631000000,22.3802930000 113.9631710000,22.3805850000 113.9632080000,22.3807260000 113.9633330000,22.3811150000 113.9633720000,22.3812520000 113.9634180000,22.3814020000 113.9634500000,22.3815140000 113.9635070000,22.3817350000 113.9636100000,22.3820560000 113.9636320000,22.3821170000 113.9636660000,22.3822020000 113.9640150000,22.3829980000 113.9640440000,22.3830700000 113.9640560000,22.3831030000 113.9640710000,22.3831390000 113.9643130000,22.3836210000 113.9644940000,22.3839050000 113.9647390000,22.3842650000 113.9648140000,22.3844010000 113.9648740000,22.3845360000 113.9649290000,22.3846500000 113.9651190000,22.3845650000 113.9652880000,22.3844860000 113.9653900000,22.3844430000 113.9654900000,22.3844130000 113.9656340000,22.3843780000 113.9656550000,22.3844020000 113.9656910000,22.3844840000 113.9657300000,22.3845730000 113.9656960000,22.3846620000 113.9658580000,22.3850140000 113.9659150000,22.3851260000 113.9659360000,22.3851680000 113.9660860000,22.3854630000 113.9663280000,22.3858820000 113.9664480000,22.3861010000 113.9664820000,22.3861280000 113.9665130000,22.3861380000 113.9665460000,22.3861350000 113.9665770000,22.3861230000 113.9666160000,22.3861000000 113.9666270000,22.3860790000 113.9666290000,22.3860510000 113.9666250000,22.3860190000 113.9666040000,22.3859720000 113.9665560000,22.3858890000 113.9665360000,22.3858490000 113.9665140000,22.3858140000 113.9664490000,22.3857090000 113.9663800000,22.3856000000 113.9663430000,22.3855400000 113.9662740000,22.3854290000 113.9661230000,22.3851230000 113.9660880000,22.3850520000 113.9660470000,22.3850160000 113.9659670000,22.3849850000 113.9658880000,22.3849370000 113.9658670000,22.3848880000 113.9657300000,22.3845730000 113.9656910000,22.3844840000 113.9656550000,22.3844020000 113.9656340000,22.3843780000 113.9656730000,22.3843810000 113.9657100000,22.3843730000 113.9657430000,22.3843540000 113.9657670000,22.3843270000 113.9657800000,22.3842940000 113.9657810000,22.3842580000 113.9657740000,22.3842340000 113.9657620000,22.3842120000 113.9657360000,22.3841870000 113.9657040000,22.3841710000 113.9656680000,22.3841650000 113.9656310000,22.3841700000 113.9655980000,22.3841840000 113.9655710000,22.3842090000 113.9655540000,22.3842400000 113.9655480000,22.3842740000 113.9655540000,22.3843080000 113.9650620000,22.3844590000 113.9649880000,22.3843470000 113.9648240000,22.3841580000 113.9645540000,22.3837530000 113.9644730000,22.3836200000 113.9644100000,22.3835180000 113.9641780000,22.3830690000 113.9641570000,22.3830050000 113.9641490000,22.3829890000 113.9638550000,22.3823140000 113.9638090000,22.3822030000 113.9637860000,22.3821470000 113.9637520000,22.3820610000 113.9636130000,22.3816160000 113.9636000000,22.3815670000 113.9635210000,22.3813270000 113.9634860000,22.3812090000 113.9638630000,22.3810520000 113.9640280000,22.3809860000 113.9641910000,22.3809150000 113.9642470000,22.3808910000 113.9642790000,22.3808710000 113.9643820000,22.3808000000 113.9644030000,22.3808230000 113.9644310000,22.3808380000 113.9644630000,22.3808430000 113.9644940000,22.3808380000 113.9645230000,22.3808230000 113.9645430000,22.3808010000 113.9645550000,22.3807730000 113.9645550000,22.3807430000</coordinates>
                </LineString>
                <ExtendedData>
                    <Data name="duration">
                        <value>03:04:15</value>
                    </Data>
                    <Data name="length">
                        <value>83913.14637662434</value>
                    </Data>
                </ExtendedData>
            </Placemark>
        </Document>
    </Document>
</kml>