<?xml version="1.0" encoding="UTF-8"?>
<kml xmlns="http://www.opengis.net/kml/2.2" xmlns:gx="http://www.google.com/kml/ext/2.2">
    <Document>
        <name>Route</name>
        <Folder>
            <name>Route Request</name>
            <Placemark>
                <address>Block 15, Lung Chak Road, Yeung Siu Hang, Castle Peak Bay, Tsing Shan Tsuen, New Territories, Hong Kong, DD132 586, PRC</address>
                <Point>
                    <coordinates>113.9782263740,22.3811431794</coordinates>
                </Point>
                <ExtendedData>
                    <Data name="country_code">
                        <value>cn</value>
                    </Data>
                    <Data name="road">
                        <value>Lung Chak Road</value>
                    </Data>
                    <Data name="country">
                        <value>PRC</value>
                    </Data>
                    <Data name="state">
                        <value>Hong Kong</value>
                    </Data>
                    <Data name="building">
                        <value>Block 15</value>
                    </Data>
                    <Data name="neighbourhood">
                        <value>Yeung Siu Hang</value>
                    </Data>
                    <Data name="region">
                        <value>New Territories</value>
                    </Data>
                    <Data name="suburb">
                        <value>Castle Peak Bay</value>
                    </Data>
                    <Data name="postcode">
                        <value>DD132 586</value>
                    </Data>
                    <Data name="hamlet">
                        <value>Tsing Shan Tsuen</value>
                    </Data>
                    <Data name="routingVisited">
                        <value>false</value>
                    </Data>
                </ExtendedData>
            </Placemark>
            <Placemark>
                <address>The Aegean, Castle Peak Road – Tai Lam, Siu Sau, Siu Lam San Tsuen, Tuen Mun District, Hong Kong, NT, PRC</address>
                <Point>
                    <coordinates>114.0029820143,22.3663895384</coordinates>
                </Point>
                <ExtendedData>
                    <Data name="road">
                        <value>Castle Peak Road – Tai Lam</value>
                    </Data>
                    <Data name="county">
                        <value>Tuen Mun District</value>
                    </Data>
                    <Data name="country_code">
                        <value>cn</value>
                    </Data>
                    <Data name="country">
                        <value>PRC</value>
                    </Data>
                    <Data name="suburb">
                        <value>Siu Sau</value>
                    </Data>
                    <Data name="postcode">
                        <value>NT</value>
                    </Data>
                    <Data name="hamlet">
                        <value>Siu Lam San Tsuen</value>
                    </Data>
                    <Data name="bus_stop">
                        <value>The Aegean</value>
                    </Data>
                </ExtendedData>
            </Placemark>
            <Placemark>
                <Point>
                    <coordinates>114.0191459035,22.3624333167</coordinates>
                </Point>
                <ExtendedData>
                    <Data name="routingVisited">
                        <value>false</value>
                    </Data>
                </ExtendedData>
            </Placemark>
            <Placemark>
                <address>Block 2, Castle Peak Road – Tsing Lung Tau, Tsing Lung Tau, Tsing Lung Tau Tsuen, Tsuen Wan District, Hong Kong, NT, PRC</address>
                <Point>
                    <coordinates>114.0444397213,22.3616490520</coordinates>
                </Point>
                <ExtendedData>
                    <Data name="road">
                        <value>Castle Peak Road – Tsing Lung Tau</value>
                    </Data>
                    <Data name="county">
                        <value>Tsuen Wan District</value>
                    </Data>
                    <Data name="country_code">
                        <value>cn</value>
                    </Data>
                    <Data name="country">
                        <value>PRC</value>
                    </Data>
                    <Data name="building">
                        <value>Block 2</value>
                    </Data>
                    <Data name="suburb">
                        <value>Tsing Lung Tau</value>
                    </Data>
                    <Data name="postcode">
                        <value>NT</value>
                    </Data>
                    <Data name="hamlet">
                        <value>Tsing Lung Tau Tsuen</value>
                    </Data>
                </ExtendedData>
            </Placemark>
            <Placemark>
                <address>Cheung Tsing Tunnel, Cheung Ching Estate, Ha Kwai Chung, Yim Tin Kok Resite Village, Kwai Tsing District, Hong Kong, 852, PRC</address>
                <Point>
                    <coordinates>114.0999194500,22.3450555959</coordinates>
                </Point>
                <ExtendedData>
                    <Data name="road">
                        <value>Cheung Tsing Tunnel</value>
                    </Data>
                    <Data name="county">
                        <value>Kwai Tsing District</value>
                    </Data>
                    <Data name="country_code">
                        <value>cn</value>
                    </Data>
                    <Data name="country">
                        <value>PRC</value>
                    </Data>
                    <Data name="suburb">
                        <value>Ha Kwai Chung</value>
                    </Data>
                    <Data name="residential">
                        <value>Cheung Ching Estate</value>
                    </Data>
                    <Data name="postcode">
                        <value>852</value>
                    </Data>
                    <Data name="hamlet">
                        <value>Yim Tin Kok Resite Village</value>
                    </Data>
                </ExtendedData>
            </Placemark>
            <Placemark>
                <address>Pioneer Centre Shopping Arcade, Nathan Road, Mong Kok, Yau Tsim Mong District, Hong Kong, KIL 3348, PRC</address>
                <Point>
                    <coordinates>114.1687795466,22.3229367906</coordinates>
                </Point>
                <ExtendedData>
                    <Data name="mall">
                        <value>Pioneer Centre Shopping Arcade</value>
                    </Data>
                    <Data name="road">
                        <value>Nathan Road</value>
                    </Data>
                    <Data name="county">
                        <value>Yau Tsim Mong District</value>
                    </Data>
                    <Data name="country_code">
                        <value>cn</value>
                    </Data>
                    <Data name="country">
                        <value>PRC</value>
                    </Data>
                    <Data name="suburb">
                        <value>Mong Kok</value>
                    </Data>
                    <Data name="postcode">
                        <value>KIL 3348</value>
                    </Data>
                </ExtendedData>
            </Placemark>
            <Placemark>
                <address>Garden Restaurant, Nathan Road, King's Park, Yau Tsim Mong District, Hong Kong, KIL 3348, PRC</address>
                <Point>
                    <coordinates>114.1712276605,22.3103629922</coordinates>
                </Point>
                <ExtendedData>
                    <Data name="restaurant">
                        <value>Garden Restaurant</value>
                    </Data>
                    <Data name="road">
                        <value>Nathan Road</value>
                    </Data>
                    <Data name="county">
                        <value>Yau Tsim Mong District</value>
                    </Data>
                    <Data name="country_code">
                        <value>cn</value>
                    </Data>
                    <Data name="country">
                        <value>PRC</value>
                    </Data>
                    <Data name="suburb">
                        <value>King's Park</value>
                    </Data>
                    <Data name="postcode">
                        <value>KIL 3348</value>
                    </Data>
                </ExtendedData>
            </Placemark>
            <Placemark>
                <address>39-41, Mody Road, Tsim Sha Tsui, Yau Tsim Mong District, Hong Kong, 00000, PRC</address>
                <Point>
                    <coordinates>114.1748385637,22.2973215645</coordinates>
                </Point>
                <ExtendedData>
                    <Data name="road">
                        <value>Mody Road</value>
                    </Data>
                    <Data name="county">
                        <value>Yau Tsim Mong District</value>
                    </Data>
                    <Data name="country_code">
                        <value>cn</value>
                    </Data>
                    <Data name="country">
                        <value>PRC</value>
                    </Data>
                    <Data name="house_number">
                        <value>39-41</value>
                    </Data>
                    <Data name="suburb">
                        <value>Tsim Sha Tsui</value>
                    </Data>
                    <Data name="postcode">
                        <value>00000</value>
                    </Data>
                </ExtendedData>
            </Placemark>
            <Placemark>
                <address>Chatham Road South, Tsim Sha Tsui, Yau Tsim Mong District, Hong Kong, 00000, PRC</address>
                <Point>
                    <coordinates>114.1767298760,22.3024889440</coordinates>
                </Point>
                <ExtendedData>
                    <Data name="road">
                        <value>Chatham Road South</value>
                    </Data>
                    <Data name="county">
                        <value>Yau Tsim Mong District</value>
                    </Data>
                    <Data name="country_code">
                        <value>cn</value>
                    </Data>
                    <Data name="country">
                        <value>PRC</value>
                    </Data>
                    <Data name="suburb">
                        <value>Tsim Sha Tsui</value>
                    </Data>
                    <Data name="postcode">
                        <value>00000</value>
                    </Data>
                </ExtendedData>
            </Placemark>
            <Placemark>
                <address>Intercity Through Train Concourse / Exit C Concourse of MTR Hung Hom Station, 8, Cheong Wan Road, The Metropolis, Yau Tsim Mong District, Hong Kong, 00000, PRC</address>
                <Point>
                    <coordinates>114.1822509265,22.3030605355</coordinates>
                </Point>
                <ExtendedData>
                    <Data name="commercial">
                        <value>The Metropolis</value>
                    </Data>
                    <Data name="road">
                        <value>Cheong Wan Road</value>
                    </Data>
                    <Data name="county">
                        <value>Yau Tsim Mong District</value>
                    </Data>
                    <Data name="country_code">
                        <value>cn</value>
                    </Data>
                    <Data name="country">
                        <value>PRC</value>
                    </Data>
                    <Data name="building">
                        <value>Intercity Through Train Concourse / Exit C Concourse of MTR Hung Hom Station</value>
                    </Data>
                    <Data name="house_number">
                        <value>8</value>
                    </Data>
                    <Data name="postcode">
                        <value>00000</value>
                    </Data>
                </ExtendedData>
            </Placemark>
            <Placemark>
                <address>Tsim Sha Tsui East Waterfront Podium Garden, Salisbury Road, Tsim Sha Tsui, Yau Tsim Mong District, Hong Kong, 00000, PRC</address>
                <Point>
                    <coordinates>114.1755176946,22.2964746025</coordinates>
                </Point>
                <ExtendedData>
                    <Data name="road">
                        <value>Salisbury Road</value>
                    </Data>
                    <Data name="county">
                        <value>Yau Tsim Mong District</value>
                    </Data>
                    <Data name="country_code">
                        <value>cn</value>
                    </Data>
                    <Data name="country">
                        <value>PRC</value>
                    </Data>
                    <Data name="building">
                        <value>Tsim Sha Tsui East Waterfront Podium Garden</value>
                    </Data>
                    <Data name="suburb">
                        <value>Tsim Sha Tsui</value>
                    </Data>
                    <Data name="postcode">
                        <value>00000</value>
                    </Data>
                </ExtendedData>
            </Placemark>
            <Placemark>
                <Point>
                    <coordinates>114.1719164757,22.2987188003</coordinates>
                </Point>
                <ExtendedData>
                    <Data name="routingVisited">
                        <value>false</value>
                    </Data>
                </ExtendedData>
            </Placemark>
            <Placemark>
                <address>譚仔雲南米線, 514, Nathan Road, King's Park, Yau Tsim Mong District, Hong Kong, KIL 3348, PRC</address>
                <Point>
                    <coordinates>114.1707174125,22.3121919325</coordinates>
                </Point>
                <ExtendedData>
                    <Data name="restaurant">
                        <value>譚仔雲南米線</value>
                    </Data>
                    <Data name="road">
                        <value>Nathan Road</value>
                    </Data>
                    <Data name="county">
                        <value>Yau Tsim Mong District</value>
                    </Data>
                    <Data name="country_code">
                        <value>cn</value>
                    </Data>
                    <Data name="country">
                        <value>PRC</value>
                    </Data>
                    <Data name="house_number">
                        <value>514</value>
                    </Data>
                    <Data name="suburb">
                        <value>King's Park</value>
                    </Data>
                    <Data name="postcode">
                        <value>KIL 3348</value>
                    </Data>
                </ExtendedData>
            </Placemark>
            <Placemark>
                <address>Prince Edward Station, Nathan Road, Sham Shui Po District, Hong Kong, KIL 3348, PRC</address>
                <Point>
                    <coordinates>114.1678351834,22.3257931808</coordinates>
                </Point>
                <ExtendedData>
                    <Data name="road">
                        <value>Nathan Road</value>
                    </Data>
                    <Data name="county">
                        <value>Sham Shui Po District</value>
                    </Data>
                    <Data name="country_code">
                        <value>cn</value>
                    </Data>
                    <Data name="country">
                        <value>PRC</value>
                    </Data>
                    <Data name="postcode">
                        <value>KIL 3348</value>
                    </Data>
                    <Data name="bus_stop">
                        <value>Prince Edward Station</value>
                    </Data>
                </ExtendedData>
            </Placemark>
            <Placemark>
                <address>Cheung Tsing Tunnel, Cheung Ching Estate, Ha Kwai Chung, Yim Tin Kok Resite Village, Kwai Tsing District, Hong Kong, 852, PRC</address>
                <Point>
                    <coordinates>114.1026353910,22.3447822492</coordinates>
                </Point>
                <ExtendedData>
                    <Data name="road">
                        <value>Cheung Tsing Tunnel</value>
                    </Data>
                    <Data name="county">
                        <value>Kwai Tsing District</value>
                    </Data>
                    <Data name="country_code">
                        <value>cn</value>
                    </Data>
                    <Data name="country">
                        <value>PRC</value>
                    </Data>
                    <Data name="suburb">
                        <value>Ha Kwai Chung</value>
                    </Data>
                    <Data name="residential">
                        <value>Cheung Ching Estate</value>
                    </Data>
                    <Data name="postcode">
                        <value>852</value>
                    </Data>
                    <Data name="hamlet">
                        <value>Yim Tin Kok Resite Village</value>
                    </Data>
                </ExtendedData>
            </Placemark>
            <Placemark>
                <address>Castle Peak Road – Tsing Lung Tau, Tsing Lung Tau, Ka Loon Tsuen, Tsuen Wan District, Hong Kong, NT, PRC</address>
                <Point>
                    <coordinates>114.0352543377,22.3574771380</coordinates>
                </Point>
                <ExtendedData>
                    <Data name="road">
                        <value>Castle Peak Road – Tsing Lung Tau</value>
                    </Data>
                    <Data name="county">
                        <value>Tsuen Wan District</value>
                    </Data>
                    <Data name="country_code">
                        <value>cn</value>
                    </Data>
                    <Data name="country">
                        <value>PRC</value>
                    </Data>
                    <Data name="suburb">
                        <value>Tsing Lung Tau</value>
                    </Data>
                    <Data name="postcode">
                        <value>NT</value>
                    </Data>
                    <Data name="hamlet">
                        <value>Ka Loon Tsuen</value>
                    </Data>
                </ExtendedData>
            </Placemark>
            <Placemark>
                <address>Castle Peak Road – Tai Lam, Siu Lam, Luen On San Tsuen, Tuen Mun District, Hong Kong, NT, PRC</address>
                <Point>
                    <coordinates>114.0179347137,22.3630616686</coordinates>
                </Point>
                <ExtendedData>
                    <Data name="road">
                        <value>Castle Peak Road – Tai Lam</value>
                    </Data>
                    <Data name="county">
                        <value>Tuen Mun District</value>
                    </Data>
                    <Data name="country_code">
                        <value>cn</value>
                    </Data>
                    <Data name="country">
                        <value>PRC</value>
                    </Data>
                    <Data name="suburb">
                        <value>Siu Lam</value>
                    </Data>
                    <Data name="postcode">
                        <value>NT</value>
                    </Data>
                    <Data name="hamlet">
                        <value>Luen On San Tsuen</value>
                    </Data>
                </ExtendedData>
            </Placemark>
            <Placemark>
                <address>Fung Yu House, Sam Shing Street, Leung Tin Tsuen, Castle Peak Bay, Tuen Mun, Tuen Mun District, Hong Kong, DD132 586, PRC</address>
                <Point>
                    <coordinates>113.9782510831,22.3811872141</coordinates>
                </Point>
                <ExtendedData>
                    <Data name="road">
                        <value>Sam Shing Street</value>
                    </Data>
                    <Data name="county">
                        <value>Tuen Mun District</value>
                    </Data>
                    <Data name="country_code">
                        <value>cn</value>
                    </Data>
                    <Data name="country">
                        <value>PRC</value>
                    </Data>
                    <Data name="building">
                        <value>Fung Yu House</value>
                    </Data>
                    <Data name="town">
                        <value>Tuen Mun</value>
                    </Data>
                    <Data name="neighbourhood">
                        <value>Leung Tin Tsuen</value>
                    </Data>
                    <Data name="suburb">
                        <value>Castle Peak Bay</value>
                    </Data>
                    <Data name="postcode">
                        <value>DD132 586</value>
                    </Data>
                </ExtendedData>
            </Placemark>
        </Folder>
        <Document>
            <name>66.0 km; 02:20 h (OSRM)</name>
            <Placemark>
                <name>Route</name>
                <LineString>
                    <coordinates>113.9783080000,22.3811880000 113.9786750000,22.3806220000 113.9787930000,22.3804340000 113.9786090000,22.3803280000 113.9781590000,22.3800870000 113.9781240000,22.3800760000 113.9780900000,22.3800710000 113.9780510000,22.3800880000 113.9780280000,22.3801040000 113.9779450000,22.3802190000 113.9776790000,22.3805910000 113.9774850000,22.3808940000 113.9773250000,22.3811430000 113.9770380000,22.3815910000 113.9770160000,22.3816240000 113.9770010000,22.3816580000 113.9769920000,22.3817020000 113.9769890000,22.3817520000 113.9770350000,22.3818060000 113.9771500000,22.3818760000 113.9777140000,22.3821950000 113.9778560000,22.3822740000 113.9782940000,22.3825390000 113.9783440000,22.3824320000 113.9783800000,22.3823700000 113.9787940000,22.3817480000 113.9788130000,22.3817200000 113.9788390000,22.3816800000 113.9790460000,22.3813650000 113.9791980000,22.3811460000 113.9794370000,22.3807850000 113.9800810000,22.3798620000 113.9801910000,22.3796850000 113.9804160000,22.3793170000 113.9805200000,22.3791700000 113.9808210000,22.3787420000 113.9811140000,22.3785140000 113.9813770000,22.3783710000 113.9817760000,22.3782150000 113.9822150000,22.3781100000 113.9823960000,22.3780780000 113.9827420000,22.3780240000 113.9829590000,22.3779900000 113.9832610000,22.3779110000 113.9833690000,22.3778740000 113.9835910000,22.3777710000 113.9836580000,22.3777270000 113.9844450000,22.3771180000 113.9847210000,22.3769060000 113.9847660000,22.3768610000 113.9848480000,22.3767860000 113.9858200000,22.3757940000 113.9860360000,22.3756020000 113.9860790000,22.3755540000 113.9861540000,22.3754690000 113.9871310000,22.3745520000 113.9873890000,22.3743100000 113.9874230000,22.3742780000 113.9876190000,22.3741230000 113.9878340000,22.3740050000 113.9880410000,22.3739610000 113.9885810000,22.3739100000 113.9894320000,22.3738670000 113.9897830000,22.3738390000 113.9901830000,22.3737930000 113.9902780000,22.3738070000 113.9907490000,22.3737590000 113.9912650000,22.3736990000 113.9916580000,22.3736490000 113.9920700000,22.3735800000 113.9924270000,22.3734340000 113.9925680000,22.3733420000 113.9926860000,22.3732350000 113.9928030000,22.3730930000 113.9928810000,22.3729920000 113.9929910000,22.3728330000 113.9935090000,22.3720560000 113.9936830000,22.3717960000 113.9941370000,22.3711560000 113.9942670000,22.3709720000 113.9947690000,22.3702630000 113.9951290000,22.3697690000 113.9953600000,22.3694410000 113.9955200000,22.3692370000 113.9955980000,22.3691030000 113.9957280000,22.3689060000 113.9958620000,22.3686990000 113.9960000000,22.3685070000 113.9961760000,22.3683090000 113.9963730000,22.3681480000 113.9964820000,22.3680850000 113.9966920000,22.3679820000 113.9967430000,22.3679950000 113.9967940000,22.3679850000 113.9968340000,22.3679530000 113.9968530000,22.3679080000 113.9969440000,22.3679020000 113.9970970000,22.3678790000 113.9972860000,22.3678760000 113.9974760000,22.3678890000 113.9974880000,22.3678900000 113.9976240000,22.3679190000 113.9981460000,22.3680370000 113.9984080000,22.3680830000 113.9986910000,22.3681100000 113.9988930000,22.3681180000 113.9992090000,22.3681080000 113.9993430000,22.3680950000 113.9995800000,22.3680410000 113.9998290000,22.3679710000 114.0000780000,22.3678860000 114.0004030000,22.3677350000 114.0005370000,22.3676590000 114.0006600000,22.3675720000 114.0016980000,22.3667000000 114.0018830000,22.3665730000 114.0020740000,22.3664640000 114.0023370000,22.3663780000 114.0023680000,22.3663860000 114.0024010000,22.3663860000 114.0024320000,22.3663780000 114.0024600000,22.3663630000 114.0024830000,22.3663410000 114.0026350000,22.3662780000 114.0027920000,22.3662360000 114.0029650000,22.3662210000 114.0029860000,22.3662190000 114.0031660000,22.3662090000 114.0033890000,22.3662030000 114.0037530000,22.3661920000 114.0041780000,22.3661680000 114.0049360000,22.3661420000 114.0052030000,22.3661540000 114.0054160000,22.3661690000 114.0060190000,22.3662670000 114.0064780000,22.3663480000 114.0069950000,22.3664550000 114.0076190000,22.3665490000 114.0079250000,22.3665660000 114.0082470000,22.3665670000 114.0085080000,22.3665640000 114.0088250000,22.3665380000 114.0089440000,22.3665200000 114.0095490000,22.3664390000 114.0106850000,22.3663280000 114.0108930000,22.3663050000 114.0112590000,22.3662710000 114.0115190000,22.3662300000 114.0118070000,22.3661440000 114.0120070000,22.3660680000 114.0120220000,22.3660620000 114.0122220000,22.3659720000 114.0123990000,22.3658760000 114.0126450000,22.3657120000 114.0128480000,22.3655450000 114.0130470000,22.3653580000 114.0131160000,22.3652800000 114.0131250000,22.3652700000 114.0132430000,22.3651090000 114.0133150000,22.3649880000 114.0134330000,22.3647410000 114.0135480000,22.3645510000 114.0136330000,22.3644740000 114.0136920000,22.3644470000 114.0137400000,22.3644040000 114.0137730000,22.3643500000 114.0139420000,22.3643720000 114.0144090000,22.3643540000 114.0145500000,22.3643450000 114.0146990000,22.3643200000 114.0147480000,22.3643120000 114.0149160000,22.3642650000 114.0150520000,22.3642110000 114.0151150000,22.3641860000 114.0153490000,22.3641290000 114.0162800000,22.3636500000 114.0164100000,22.3635900000 114.0168000000,22.3634100000 114.0170000000,22.3633500000 114.0171000000,22.3633300000 114.0171600000,22.3633200000 114.0178000000,22.3632600000 114.0180710000,22.3632330000 114.0182180000,22.3632230000 114.0183390000,22.3632020000 114.0185680000,22.3631380000 114.0187830000,22.3630250000 114.0189930000,22.3628570000 114.0191650000,22.3626430000 114.0191920000,22.3625790000 114.0192400000,22.3624680000 114.0192740000,22.3623920000 114.0193090000,22.3622770000 114.0193220000,22.3621790000 114.0193290000,22.3620660000 114.0193360000,22.3617610000 114.0192990000,22.3614720000 114.0192060000,22.3608630000 114.0191610000,22.3603020000 114.0191600000,22.3602850000 114.0191550000,22.3589520000 114.0191600000,22.3586500000 114.0191500000,22.3584710000 114.0191460000,22.3584100000 114.0191320000,22.3582490000 114.0191210000,22.3581460000 114.0191100000,22.3580870000 114.0190990000,22.3580460000 114.0191000000,22.3579720000 114.0190940000,22.3578280000 114.0190910000,22.3577500000 114.0190870000,22.3576710000 114.0191750000,22.3574800000 114.0192470000,22.3573720000 114.0193510000,22.3572800000 114.0195460000,22.3571480000 114.0198050000,22.3570110000 114.0204690000,22.3567540000 114.0210690000,22.3565460000 114.0221580000,22.3562410000 114.0231740000,22.3559800000 114.0240620000,22.3557960000 114.0248430000,22.3556850000 114.0255860000,22.3556220000 114.0263700000,22.3555880000 114.0270500000,22.3555910000 114.0284030000,22.3556820000 114.0292460000,22.3557580000 114.0295190000,22.3557740000 114.0301770000,22.3558570000 114.0307300000,22.3559570000 114.0313790000,22.3560980000 114.0317440000,22.3562050000 114.0323440000,22.3564100000 114.0329540000,22.3566450000 114.0334790000,22.3568610000 114.0335920000,22.3569400000 114.0337050000,22.3570410000 114.0338220000,22.3571660000 114.0338460000,22.3572040000 114.0338820000,22.3572330000 114.0339250000,22.3572480000 114.0339700000,22.3572490000 114.0340140000,22.3572370000 114.0342000000,22.3572620000 114.0342500000,22.3572750000 114.0346890000,22.3574520000 114.0349170000,22.3575320000 114.0351620000,22.3576220000 114.0354130000,22.3577110000 114.0355850000,22.3577660000 114.0359020000,22.3578670000 114.0362360000,22.3579550000 114.0367100000,22.3580810000 114.0370230000,22.3581440000 114.0374400000,22.3581930000 114.0380320000,22.3582920000 114.0382720000,22.3583520000 114.0384660000,22.3584170000 114.0388180000,22.3585590000 114.0390920000,22.3586960000 114.0393250000,22.3588340000 114.0395390000,22.3589820000 114.0397420000,22.3591450000 114.0401050000,22.3594570000 114.0404080000,22.3597110000 114.0405650000,22.3598390000 114.0410870000,22.3601870000 114.0415270000,22.3604080000 114.0418500000,22.3605610000 114.0423790000,22.3607890000 114.0427830000,22.3609490000 114.0434070000,22.3612280000 114.0436620000,22.3613340000 114.0439920000,22.3614600000 114.0443370000,22.3615570000 114.0444540000,22.3615770000 114.0446870000,22.3616160000 114.0450200000,22.3616340000 114.0454470000,22.3615990000 114.0454850000,22.3616500000 114.0455400000,22.3616850000 114.0456050000,22.3617010000 114.0456710000,22.3616960000 114.0457260000,22.3616730000 114.0457710000,22.3616360000 114.0458010000,22.3615880000 114.0460380000,22.3614700000 114.0461130000,22.3614420000 114.0463060000,22.3613690000 114.0465620000,22.3612900000 114.0467990000,22.3612240000 114.0471250000,22.3611620000 114.0473970000,22.3611290000 114.0475600000,22.3611220000 114.0477220000,22.3611230000 114.0480800000,22.3611440000 114.0483560000,22.3611840000 114.0486030000,22.3612320000 114.0488990000,22.3613170000 114.0491520000,22.3614170000 114.0496710000,22.3616640000 114.0500680000,22.3618680000 114.0503510000,22.3620120000 114.0505230000,22.3621270000 114.0507030000,22.3622380000 114.0510000000,22.3624370000 114.0516860000,22.3629420000 114.0519610000,22.3631050000 114.0523080000,22.3632390000 114.0526620000,22.3633290000 114.0533540000,22.3634470000 114.0535810000,22.3634890000 114.0537980000,22.3635520000 114.0541590000,22.3637110000 114.0544310000,22.3639080000 114.0547850000,22.3642150000 114.0548910000,22.3643510000 114.0549520000,22.3644970000 114.0549420000,22.3645490000 114.0549500000,22.3646020000 114.0549710000,22.3646470000 114.0550040000,22.3646850000 114.0550460000,22.3647140000 114.0550960000,22.3647320000 114.0551480000,22.3647370000 114.0552780000,22.3647890000 114.0553250000,22.3648140000 114.0554610000,22.3648940000 114.0556090000,22.3649920000 114.0558180000,22.3650910000 114.0561550000,22.3652260000 114.0563970000,22.3653190000 114.0567610000,22.3654610000 114.0569760000,22.3655440000 114.0570370000,22.3655720000 114.0571430000,22.3656200000 114.0574860000,22.3657760000 114.0577730000,22.3659210000 114.0581190000,22.3661440000 114.0583740000,22.3663480000 114.0588580000,22.3667740000 114.0590040000,22.3668930000 114.0590720000,22.3669470000 114.0593470000,22.3671760000 114.0595110000,22.3673200000 114.0598240000,22.3675540000 114.0600450000,22.3676750000 114.0601310000,22.3677080000 114.0602150000,22.3677350000 114.0603160000,22.3677460000 114.0604140000,22.3677510000 114.0606500000,22.3677490000 114.0609040000,22.3677260000 114.0610350000,22.3677120000 114.0611310000,22.3677000000 114.0617500000,22.3676360000 114.0618820000,22.3676240000 114.0621030000,22.3676030000 114.0623540000,22.3675630000 114.0624150000,22.3675690000 114.0626010000,22.3675470000 114.0626910000,22.3675440000 114.0627320000,22.3675600000 114.0627850000,22.3675900000 114.0629070000,22.3676740000 114.0629580000,22.3677570000 114.0629850000,22.3678530000 114.0629910000,22.3679260000 114.0629890000,22.3680230000 114.0629800000,22.3680800000 114.0629650000,22.3681280000 114.0629400000,22.3681780000 114.0629030000,22.3682340000 114.0628460000,22.3682980000 114.0627530000,22.3683800000 114.0626810000,22.3684110000 114.0626300000,22.3684530000 114.0626120000,22.3684760000 114.0625490000,22.3685210000 114.0624760000,22.3685510000 114.0624400000,22.3685790000 114.0624230000,22.3686060000 114.0624200000,22.3686340000 114.0624460000,22.3687470000 114.0625440000,22.3689570000 114.0626400000,22.3691940000 114.0626820000,22.3693030000 114.0626880000,22.3693510000 114.0626820000,22.3694090000 114.0626670000,22.3694480000 114.0626530000,22.3694820000 114.0626610000,22.3695270000 114.0626240000,22.3695830000 114.0625790000,22.3696310000 114.0625250000,22.3696700000 114.0624770000,22.3696960000 114.0624280000,22.3697170000 114.0623780000,22.3697330000 114.0622980000,22.3697460000 114.0622470000,22.3697160000 114.0622170000,22.3697120000 114.0621850000,22.3697040000 114.0621430000,22.3696760000 114.0621140000,22.3696440000 114.0620900000,22.3696120000 114.0620750000,22.3695700000 114.0620720000,22.3695450000 114.0620740000,22.3695200000 114.0620890000,22.3694760000 114.0621200000,22.3694250000 114.0621680000,22.3693880000 114.0622770000,22.3693410000 114.0625140000,22.3692590000 114.0627550000,22.3691520000 114.0629360000,22.3690570000 114.0630380000,22.3689630000 114.0632220000,22.3688180000 114.0634510000,22.3685850000 114.0635510000,22.3684770000 114.0639000000,22.3681040000 114.0643830000,22.3676700000 114.0648230000,22.3673200000 114.0651400000,22.3671070000 114.0653050000,22.3669960000 114.0657350000,22.3667230000 114.0662530000,22.3664310000 114.0665890000,22.3662810000 114.0668770000,22.3661850000 114.0674260000,22.3660140000 114.0679390000,22.3659040000 114.0687240000,22.3659270000 114.0691980000,22.3659830000 114.0695480000,22.3660610000 114.0698940000,22.3661810000 114.0703140000,22.3663970000 114.0706040000,22.3666200000 114.0708690000,22.3668880000 114.0710850000,22.3671950000 114.0713520000,22.3676950000 114.0716300000,22.3682420000 114.0718640000,22.3687150000 114.0720680000,22.3690510000 114.0722750000,22.3693270000 114.0725470000,22.3696100000 114.0729400000,22.3699040000 114.0732500000,22.3700930000 114.0735350000,22.3702290000 114.0740020000,22.3703800000 114.0743010000,22.3704510000 114.0746330000,22.3704960000 114.0749640000,22.3705070000 114.0751920000,22.3705060000 114.0754420000,22.3704810000 114.0757630000,22.3704160000 114.0760450000,22.3703230000 114.0763460000,22.3701750000 114.0766300000,22.3699690000 114.0768570000,22.3697610000 114.0771670000,22.3693930000 114.0774250000,22.3689450000 114.0780550000,22.3677510000 114.0783600000,22.3671140000 114.0785960000,22.3665690000 114.0819110000,22.3602270000 114.0825020000,22.3591100000 114.0825850000,22.3589570000 114.0830530000,22.3580330000 114.0838930000,22.3564690000 114.0842770000,22.3558590000 114.0853960000,22.3542650000 114.0859470000,22.3533570000 114.0861040000,22.3530750000 114.0861630000,22.3529440000 114.0862120000,22.3528500000 114.0863720000,22.3524850000 114.0864880000,22.3521920000 114.0865490000,22.3520270000 114.0866230000,22.3518530000 114.0869190000,22.3510640000 114.0869720000,22.3508990000 114.0870520000,22.3506180000 114.0872560000,22.3499170000 114.0873720000,22.3494690000 114.0873980000,22.3493700000 114.0875480000,22.3486660000 114.0875920000,22.3485000000 114.0877130000,22.3482200000 114.0878060000,22.3480050000 114.0880270000,22.3476410000 114.0881880000,22.3474400000 114.0884050000,22.3472080000 114.0887280000,22.3469380000 114.0889780000,22.3467510000 114.0892720000,22.3465590000 114.0898710000,22.3462360000 114.0904280000,22.3459560000 114.0909630000,22.3456820000 114.0913410000,22.3455040000 114.0917190000,22.3453490000 114.0921550000,22.3452070000 114.0926230000,22.3450940000 114.0931090000,22.3450000000 114.0933720000,22.3449740000 114.0939120000,22.3449600000 114.0947650000,22.3449530000 114.0952440000,22.3449500000 114.0957200000,22.3449460000 114.0999200000,22.3449880000 114.1004000000,22.3449930000 114.1010700000,22.3450180000 114.1014000000,22.3450400000 114.1017300000,22.3450680000 114.1020600000,22.3451030000 114.1023900000,22.3451480000 114.1030400000,22.3452500000 114.1033000000,22.3453000000 114.1035300000,22.3453500000 114.1037300000,22.3453950000 114.1038810000,22.3454310000 114.1040300000,22.3454700000 114.1042020000,22.3455180000 114.1043800000,22.3455700000 114.1046900000,22.3456680000 114.1049680000,22.3457620000 114.1051600000,22.3458300000 114.1053500000,22.3459000000 114.1056800000,22.3460270000 114.1060000000,22.3461600000 114.1066070000,22.3464420000 114.1092280000,22.3478020000 114.1094000000,22.3478900000 114.1094990000,22.3479370000 114.1095990000,22.3479820000 114.1098100000,22.3480700000 114.1100000000,22.3481490000 114.1103700000,22.3483000000 114.1107080000,22.3484390000 114.1114010000,22.3486980000 114.1121180000,22.3489710000 114.1150360000,22.3500680000 114.1152660000,22.3501660000 114.1155460000,22.3503070000 114.1158280000,22.3504570000 114.1160890000,22.3506120000 114.1163380000,22.3507780000 114.1166890000,22.3510310000 114.1170420000,22.3512980000 114.1174180000,22.3515670000 114.1177500000,22.3517760000 114.1179500000,22.3518880000 114.1181630000,22.3519900000 114.1185390000,22.3521520000 114.1187440000,22.3522270000 114.1189890000,22.3523010000 114.1192310000,22.3523660000 114.1195060000,22.3524250000 114.1197310000,22.3524620000 114.1199660000,22.3524930000 114.1204150000,22.3525210000 114.1208080000,22.3525130000 114.1212930000,22.3524700000 114.1214870000,22.3524420000 114.1216850000,22.3524020000 114.1220080000,22.3523000000 114.1223600000,22.3521610000 114.1225800000,22.3520590000 114.1227700000,22.3519640000 114.1230910000,22.3517690000 114.1234160000,22.3515320000 114.1237280000,22.3512190000 114.1239480000,22.3509410000 114.1241480000,22.3506360000 114.1243000000,22.3503120000 114.1244440000,22.3499020000 114.1244990000,22.3496360000 114.1245460000,22.3490950000 114.1245370000,22.3484120000 114.1245330000,22.3480180000 114.1245490000,22.3476170000 114.1246110000,22.3472070000 114.1247310000,22.3467150000 114.1248690000,22.3463550000 114.1250230000,22.3459890000 114.1252280000,22.3456200000 114.1254330000,22.3453410000 114.1256160000,22.3450810000 114.1258580000,22.3448130000 114.1260660000,22.3446100000 114.1265330000,22.3442760000 114.1269240000,22.3440300000 114.1272820000,22.3438400000 114.1276470000,22.3436840000 114.1281270000,22.3434690000 114.1283770000,22.3433460000 114.1286560000,22.3432050000 114.1289710000,22.3430190000 114.1291870000,22.3428750000 114.1294020000,22.3427320000 114.1295670000,22.3426040000 114.1297310000,22.3424680000 114.1298900000,22.3423150000 114.1301370000,22.3420730000 114.1303630000,22.3417950000 114.1306770000,22.3413100000 114.1308700000,22.3409770000 114.1310190000,22.3406270000 114.1311910000,22.3402610000 114.1313730000,22.3398820000 114.1316030000,22.3395690000 114.1317430000,22.3393020000 114.1319650000,22.3389160000 114.1321860000,22.3385200000 114.1323490000,22.3381980000 114.1325610000,22.3378840000 114.1326820000,22.3377160000 114.1328200000,22.3375310000 114.1329340000,22.3373860000 114.1330520000,22.3372410000 114.1331650000,22.3371070000 114.1332900000,22.3369690000 114.1334200000,22.3368390000 114.1335610000,22.3367200000 114.1337120000,22.3366090000 114.1338480000,22.3365500000 114.1340050000,22.3365000000 114.1341740000,22.3364620000 114.1344000000,22.3364560000 114.1345610000,22.3364620000 114.1347270000,22.3364910000 114.1349060000,22.3365550000 114.1350520000,22.3366250000 114.1351610000,22.3366910000 114.1352480000,22.3367540000 114.1354760000,22.3369650000 114.1355560000,22.3370680000 114.1356470000,22.3372250000 114.1357230000,22.3373780000 114.1357810000,22.3375990000 114.1358180000,22.3378430000 114.1358070000,22.3382780000 114.1358140000,22.3386480000 114.1358400000,22.3389990000 114.1359170000,22.3392970000 114.1359950000,22.3396130000 114.1362150000,22.3404640000 114.1362940000,22.3406170000 114.1363760000,22.3407570000 114.1364990000,22.3409230000 114.1366610000,22.3410740000 114.1368110000,22.3411900000 114.1369940000,22.3412930000 114.1371900000,22.3413630000 114.1374620000,22.3414190000 114.1376640000,22.3414410000 114.1378490000,22.3414330000 114.1380060000,22.3414150000 114.1381830000,22.3413640000 114.1383630000,22.3412890000 114.1388120000,22.3411060000 114.1391810000,22.3408970000 114.1399880000,22.3403290000 114.1404400000,22.3400810000 114.1406460000,22.3400140000 114.1408740000,22.3399450000 114.1411450000,22.3399420000 114.1413540000,22.3399530000 114.1415920000,22.3400400000 114.1416690000,22.3400870000 114.1419010000,22.3402690000 114.1424680000,22.3407800000 114.1427240000,22.3409890000 114.1428620000,22.3410740000 114.1429790000,22.3411210000 114.1430690000,22.3411540000 114.1431830000,22.3411830000 114.1432930000,22.3412000000 114.1433840000,22.3412070000 114.1435080000,22.3412080000 114.1436040000,22.3412070000 114.1437140000,22.3411960000 114.1438040000,22.3411670000 114.1440800000,22.3410180000 114.1441700000,22.3409530000 114.1443000000,22.3408260000 114.1445620000,22.3404730000 114.1446690000,22.3403370000 114.1447360000,22.3402750000 114.1448380000,22.3401920000 114.1449640000,22.3401250000 114.1451290000,22.3400430000 114.1453170000,22.3400070000 114.1455790000,22.3399850000 114.1459450000,22.3399910000 114.1463270000,22.3400010000 114.1466450000,22.3400310000 114.1468840000,22.3400680000 114.1471390000,22.3401190000 114.1487060000,22.3405890000 114.1492740000,22.3407430000 114.1495080000,22.3408140000 114.1497260000,22.3408970000 114.1499710000,22.3409990000 114.1508180000,22.3413740000 114.1511960000,22.3415390000 114.1518730000,22.3417970000 114.1525490000,22.3420820000 114.1541150000,22.3427540000 114.1543950000,22.3428430000 114.1545670000,22.3428850000 114.1547130000,22.3429090000 114.1549220000,22.3429240000 114.1550660000,22.3429210000 114.1556260000,22.3428670000 114.1558500000,22.3428530000 114.1561130000,22.3428480000 114.1563590000,22.3428530000 114.1565660000,22.3428640000 114.1567280000,22.3428790000 114.1572840000,22.3429300000 114.1574470000,22.3429440000 114.1578930000,22.3429760000 114.1581140000,22.3429730000 114.1583270000,22.3429680000 114.1585380000,22.3429390000 114.1587590000,22.3429050000 114.1589920000,22.3428530000 114.1592060000,22.3427750000 114.1594870000,22.3426510000 114.1595790000,22.3425810000 114.1596740000,22.3425060000 114.1597570000,22.3424270000 114.1598070000,22.3423710000 114.1598650000,22.3422870000 114.1599120000,22.3422050000 114.1599520000,22.3421130000 114.1599870000,22.3420170000 114.1600800000,22.3417120000 114.1601240000,22.3415470000 114.1601590000,22.3414620000 114.1602060000,22.3413890000 114.1602990000,22.3412920000 114.1604120000,22.3412120000 114.1606100000,22.3411040000 114.1612190000,22.3408040000 114.1620930000,22.3403810000 114.1622920000,22.3402560000 114.1624010000,22.3401820000 114.1624970000,22.3401090000 114.1626770000,22.3399290000 114.1628300000,22.3397400000 114.1629690000,22.3395480000 114.1630900000,22.3392690000 114.1631820000,22.3390290000 114.1631910000,22.3389330000 114.1631980000,22.3388380000 114.1631820000,22.3385920000 114.1631090000,22.3383990000 114.1630280000,22.3382570000 114.1626300000,22.3378100000 114.1623470000,22.3375450000 114.1621900000,22.3373070000 114.1621200000,22.3371350000 114.1620940000,22.3369590000 114.1620830000,22.3367800000 114.1621090000,22.3365960000 114.1621430000,22.3364350000 114.1626860000,22.3351730000 114.1627030000,22.3351340000 114.1627430000,22.3350430000 114.1629290000,22.3346140000 114.1629800000,22.3344920000 114.1633630000,22.3336250000 114.1633830000,22.3335790000 114.1634560000,22.3333860000 114.1635160000,22.3332720000 114.1635620000,22.3331900000 114.1636200000,22.3331070000 114.1636960000,22.3329930000 114.1643850000,22.3322350000 114.1650250000,22.3315420000 114.1651620000,22.3313820000 114.1652070000,22.3313350000 114.1657330000,22.3307530000 114.1657950000,22.3306780000 114.1658430000,22.3306120000 114.1658850000,22.3305550000 114.1659900000,22.3304000000 114.1660570000,22.3302820000 114.1663220000,22.3297660000 114.1664760000,22.3294390000 114.1665460000,22.3292920000 114.1671120000,22.3281590000 114.1672140000,22.3279570000 114.1673070000,22.3277480000 114.1673270000,22.3276890000 114.1673450000,22.3276290000 114.1673520000,22.3275810000 114.1673520000,22.3275270000 114.1673460000,22.3274760000 114.1673160000,22.3273890000 114.1672780000,22.3272900000 114.1672700000,22.3272460000 114.1672680000,22.3272060000 114.1672750000,22.3271670000 114.1672830000,22.3271360000 114.1673030000,22.3271060000 114.1673530000,22.3270820000 114.1674040000,22.3270560000 114.1674530000,22.3270230000 114.1676480000,22.3268480000 114.1677660000,22.3267310000 114.1678470000,22.3266350000 114.1679190000,22.3264760000 114.1679560000,22.3263890000 114.1679810000,22.3263140000 114.1680030000,22.3262340000 114.1681560000,22.3255460000 114.1682360000,22.3251720000 114.1682480000,22.3251100000 114.1683990000,22.3243410000 114.1684600000,22.3240570000 114.1684740000,22.3239910000 114.1685080000,22.3238270000 114.1686640000,22.3230770000 114.1686970000,22.3229220000 114.1687280000,22.3227800000 114.1687690000,22.3225640000 114.1687740000,22.3225400000 114.1687860000,22.3224820000 114.1688740000,22.3220360000 114.1690750000,22.3210050000 114.1690820000,22.3209690000 114.1691120000,22.3208340000 114.1691710000,22.3205520000 114.1692280000,22.3202610000 114.1693170000,22.3198470000 114.1693890000,22.3194980000 114.1694180000,22.3193590000 114.1694290000,22.3193120000 114.1694680000,22.3191260000 114.1694830000,22.3190570000 114.1695380000,22.3187820000 114.1696280000,22.3183450000 114.1696600000,22.3181870000 114.1697870000,22.3175640000 114.1697990000,22.3175010000 114.1699580000,22.3167360000 114.1699920000,22.3165510000 114.1702310000,22.3154080000 114.1702360000,22.3153740000 114.1703270000,22.3149370000 114.1703380000,22.3148880000 114.1703990000,22.3145700000 114.1704180000,22.3144740000 114.1704350000,22.3143890000 114.1704660000,22.3142320000 114.1705300000,22.3139010000 114.1706980000,22.3130740000 114.1707170000,22.3129770000 114.1708160000,22.3125020000 114.1708200000,22.3124780000 114.1709270000,22.3119420000 114.1711040000,22.3109890000 114.1711200000,22.3109100000 114.1712150000,22.3103610000 114.1712230000,22.3103170000 114.1712290000,22.3102590000 114.1712300000,22.3101390000 114.1712520000,22.3096750000 114.1713030000,22.3091940000 114.1713190000,22.3090320000 114.1713840000,22.3084990000 114.1713890000,22.3084130000 114.1714240000,22.3078700000 114.1714890000,22.3070430000 114.1715310000,22.3065590000 114.1715670000,22.3061210000 114.1715830000,22.3059440000 114.1716850000,22.3053910000 114.1717000000,22.3052850000 114.1717760000,22.3044440000 114.1718060000,22.3039660000 114.1718370000,22.3032770000 114.1718410000,22.3032030000 114.1718860000,22.3026370000 114.1719080000,22.3023190000 114.1719430000,22.3017180000 114.1719850000,22.3012240000 114.1720470000,22.3004490000 114.1720530000,22.3003670000 114.1720570000,22.3003170000 114.1720580000,22.3002990000 114.1721260000,22.2995330000 114.1721640000,22.2987190000 114.1721880000,22.2981630000 114.1722150000,22.2976370000 114.1722680000,22.2969500000 114.1723240000,22.2969580000 114.1730230000,22.2970530000 114.1735670000,22.2971150000 114.1736840000,22.2971260000 114.1746080000,22.2972290000 114.1748470000,22.2972530000 114.1754110000,22.2973090000 114.1754600000,22.2973040000 114.1755700000,22.2978340000 114.1756140000,22.2981310000 114.1757140000,22.2987740000 114.1758130000,22.2993340000 114.1758250000,22.2994040000 114.1758570000,22.2995700000 114.1759340000,22.2998330000 114.1761220000,22.3005240000 114.1762230000,22.3008190000 114.1762780000,22.3009730000 114.1763470000,22.3011610000 114.1764810000,22.3015570000 114.1766200000,22.3019540000 114.1768130000,22.3024620000 114.1768430000,22.3025400000 114.1770660000,22.3027870000 114.1771560000,22.3029200000 114.1771740000,22.3029460000 114.1771940000,22.3029630000 114.1772150000,22.3029750000 114.1772340000,22.3029800000 114.1772520000,22.3029840000 114.1772570000,22.3029820000 114.1774100000,22.3029110000 114.1775410000,22.3028530000 114.1780480000,22.3026310000 114.1782860000,22.3025270000 114.1783480000,22.3024990000 114.1785130000,22.3024200000 114.1788520000,22.3023220000 114.1790790000,22.3022700000 114.1792950000,22.3022400000 114.1806720000,22.3021370000 114.1808000000,22.3021230000 114.1810060000,22.3021200000 114.1810580000,22.3021790000 114.1810990000,22.3023780000 114.1811270000,22.3027000000 114.1811320000,22.3030880000 114.1811950000,22.3035400000 114.1812130000,22.3035680000 114.1812480000,22.3035900000 114.1812760000,22.3036050000 114.1813220000,22.3036100000 114.1814320000,22.3036050000 114.1818630000,22.3035620000 114.1818880000,22.3035530000 114.1819070000,22.3035340000 114.1819160000,22.3035130000 114.1818920000,22.3032820000 114.1818920000,22.3032820000 114.1818510000,22.3032340000 114.1818920000,22.3032820000 114.1819160000,22.3035130000 114.1819070000,22.3035340000 114.1818880000,22.3035530000 114.1818630000,22.3035620000 114.1814320000,22.3036050000 114.1814570000,22.3038040000 114.1815010000,22.3038420000 114.1820690000,22.3037950000 114.1824100000,22.3037680000 114.1827780000,22.3037420000 114.1829030000,22.3037300000 114.1829270000,22.3035180000 114.1829250000,22.3033040000 114.1828980000,22.3026050000 114.1828890000,22.3024900000 114.1828600000,22.3023880000 114.1828000000,22.3022560000 114.1827400000,22.3021660000 114.1826460000,22.3020950000 114.1824470000,22.3020180000 114.1823740000,22.3020230000 114.1823010000,22.3020270000 114.1815420000,22.3020510000 114.1811750000,22.3020550000 114.1811070000,22.3020540000 114.1809980000,22.3020540000 114.1808440000,22.3020570000 114.1792990000,22.3021850000 114.1790920000,22.3022140000 114.1788450000,22.3022660000 114.1786020000,22.3023340000 114.1784390000,22.3023860000 114.1781840000,22.3024580000 114.1776360000,22.3026960000 114.1775250000,22.3027470000 114.1773340000,22.3027550000 114.1773010000,22.3027430000 114.1772480000,22.3027230000 114.1770240000,22.3026010000 114.1769630000,22.3024940000 114.1767330000,22.3019130000 114.1765970000,22.3015200000 114.1764460000,22.3010740000 114.1763410000,22.3007860000 114.1762520000,22.3005230000 114.1759960000,22.2996640000 114.1759630000,22.2995540000 114.1759280000,22.2993880000 114.1759280000,22.2993850000 114.1758680000,22.2989950000 114.1758190000,22.2986710000 114.1757330000,22.2981050000 114.1755820000,22.2972560000 114.1755250000,22.2970180000 114.1754350000,22.2964870000 114.1753120000,22.2957560000 114.1752980000,22.2954300000 114.1753220000,22.2951710000 114.1752130000,22.2951200000 114.1751020000,22.2950780000 114.1747670000,22.2949600000 114.1746590000,22.2949150000 114.1742890000,22.2948160000 114.1739770000,22.2947460000 114.1736740000,22.2946890000 114.1735480000,22.2946750000 114.1733350000,22.2946720000 114.1732200000,22.2946690000 114.1730150000,22.2946670000 114.1725320000,22.2946820000 114.1724890000,22.2946800000 114.1724500000,22.2946810000 114.1724240000,22.2946860000 114.1723990000,22.2946980000 114.1723690000,22.2947120000 114.1723390000,22.2947420000 114.1723210000,22.2947800000 114.1722640000,22.2956150000 114.1722390000,22.2959540000 114.1722000000,22.2964850000 114.1721280000,22.2975570000 114.1720930000,22.2981590000 114.1720810000,22.2983370000 114.1720510000,22.2987280000 114.1720360000,22.2989300000 114.1720070000,22.2995080000 114.1719480000,22.3003360000 114.1718720000,22.3013390000 114.1718390000,22.3016970000 114.1717980000,22.3022690000 114.1717450000,22.3031930000 114.1717400000,22.3032700000 114.1717190000,22.3039150000 114.1716840000,22.3043850000 114.1716090000,22.3052720000 114.1716010000,22.3053650000 114.1715100000,22.3059380000 114.1714700000,22.3065360000 114.1714610000,22.3066150000 114.1714140000,22.3070950000 114.1713450000,22.3077040000 114.1712780000,22.3084120000 114.1712710000,22.3084970000 114.1711910000,22.3092030000 114.1711830000,22.3092980000 114.1711430000,22.3096650000 114.1711010000,22.3102040000 114.1710930000,22.3102910000 114.1710200000,22.3109160000 114.1708380000,22.3119030000 114.1707750000,22.3122020000 114.1706170000,22.3129600000 114.1705980000,22.3130570000 114.1704300000,22.3138660000 114.1704060000,22.3139780000 114.1703870000,22.3140810000 114.1702980000,22.3145550000 114.1702850000,22.3146150000 114.1702220000,22.3149060000 114.1701980000,22.3150140000 114.1701270000,22.3153490000 114.1701180000,22.3153940000 114.1699740000,22.3160650000 114.1699470000,22.3162200000 114.1698800000,22.3165370000 114.1698450000,22.3167110000 114.1697770000,22.3170440000 114.1696740000,22.3175180000 114.1696010000,22.3179070000 114.1695180000,22.3183090000 114.1694820000,22.3184960000 114.1693710000,22.3190360000 114.1693570000,22.3191060000 114.1693200000,22.3192930000 114.1692700000,22.3195280000 114.1692500000,22.3196220000 114.1692170000,22.3197760000 114.1691840000,22.3199350000 114.1691760000,22.3199730000 114.1691160000,22.3202520000 114.1690780000,22.3204490000 114.1690730000,22.3204740000 114.1690380000,22.3206440000 114.1690220000,22.3207200000 114.1690010000,22.3208190000 114.1689990000,22.3208400000 114.1689860000,22.3208940000 114.1688970000,22.3213210000 114.1688490000,22.3215520000 114.1687620000,22.3220220000 114.1687560000,22.3220470000 114.1686870000,22.3223340000 114.1686520000,22.3225330000 114.1685600000,22.3230190000 114.1684510000,22.3235330000 114.1683460000,22.3239670000 114.1683300000,22.3240350000 114.1683060000,22.3241450000 114.1681200000,22.3251120000 114.1679650000,22.3258170000 114.1679450000,22.3259110000 114.1678710000,22.3262210000 114.1678470000,22.3262890000 114.1678120000,22.3263620000 114.1677750000,22.3264240000 114.1677360000,22.3264840000 114.1677220000,22.3264990000 114.1676640000,22.3265810000 114.1676070000,22.3266510000 114.1675510000,22.3267160000 114.1674840000,22.3267810000 114.1672130000,22.3270060000 114.1671760000,22.3270510000 114.1671490000,22.3271040000 114.1671390000,22.3271520000 114.1671360000,22.3271970000 114.1671390000,22.3272400000 114.1671450000,22.3272840000 114.1671570000,22.3273200000 114.1672290000,22.3274860000 114.1672400000,22.3275220000 114.1672420000,22.3275650000 114.1672380000,22.3275990000 114.1672280000,22.3276390000 114.1672110000,22.3276820000 114.1671400000,22.3278170000 114.1670890000,22.3279300000 114.1667230000,22.3286750000 114.1665160000,22.3290890000 114.1663830000,22.3293390000 114.1662620000,22.3296090000 114.1659860000,22.3301670000 114.1659300000,22.3302920000 114.1659090000,22.3303350000 114.1658820000,22.3303830000 114.1658450000,22.3304460000 114.1658070000,22.3305060000 114.1657800000,22.3305380000 114.1657290000,22.3306020000 114.1656760000,22.3306640000 114.1656070000,22.3307380000 114.1654670000,22.3308870000 114.1653460000,22.3310130000 114.1652740000,22.3310920000 114.1652550000,22.3311130000 114.1651500000,22.3312190000 114.1650610000,22.3313150000 114.1643210000,22.3321700000 114.1640960000,22.3324190000 114.1635840000,22.3329460000 114.1634360000,22.3331180000 114.1633440000,22.3332740000 114.1633330000,22.3332930000 114.1632770000,22.3334220000 114.1632300000,22.3334990000 114.1630880000,22.3338290000 114.1626350000,22.3349910000 114.1626070000,22.3350570000 114.1625920000,22.3350920000 114.1620800000,22.3363090000 114.1619640000,22.3366400000 114.1619480000,22.3369860000 114.1620260000,22.3372740000 114.1621840000,22.3375230000 114.1623680000,22.3377380000 114.1626350000,22.3379990000 114.1628690000,22.3382310000 114.1629830000,22.3383810000 114.1630610000,22.3385430000 114.1631000000,22.3387220000 114.1630890000,22.3389470000 114.1630620000,22.3390770000 114.1630080000,22.3392460000 114.1628340000,22.3395960000 114.1627580000,22.3397110000 114.1625540000,22.3399590000 114.1624140000,22.3400780000 114.1621780000,22.3402070000 114.1616470000,22.3404840000 114.1612220000,22.3406720000 114.1609850000,22.3407830000 114.1605400000,22.3410050000 114.1604490000,22.3410630000 114.1603010000,22.3411570000 114.1600010000,22.3414900000 114.1595470000,22.3421010000 114.1593610000,22.3422830000 114.1590520000,22.3424510000 114.1589210000,22.3425060000 114.1587260000,22.3425760000 114.1585470000,22.3426230000 114.1583550000,22.3426600000 114.1581640000,22.3426770000 114.1579830000,22.3426860000 114.1577670000,22.3426890000 114.1573350000,22.3426760000 114.1563510000,22.3425840000 114.1561210000,22.3425800000 114.1558340000,22.3425880000 114.1555990000,22.3426170000 114.1552840000,22.3426740000 114.1551240000,22.3426930000 114.1549760000,22.3427080000 114.1548200000,22.3427030000 114.1546610000,22.3426910000 114.1544540000,22.3426590000 114.1539990000,22.3425520000 114.1536980000,22.3424250000 114.1509700000,22.3412490000 114.1505350000,22.3410710000 114.1500930000,22.3408870000 114.1498310000,22.3407830000 114.1496330000,22.3407010000 114.1492640000,22.3405710000 114.1487650000,22.3404020000 114.1472160000,22.3399700000 114.1469300000,22.3398970000 114.1466690000,22.3398570000 114.1463180000,22.3398320000 114.1455850000,22.3398140000 114.1453110000,22.3398360000 114.1450780000,22.3398850000 114.1448680000,22.3399770000 114.1447450000,22.3400500000 114.1446390000,22.3401350000 114.1445300000,22.3402420000 114.1441970000,22.3406980000 114.1441110000,22.3408110000 114.1440340000,22.3408970000 114.1439820000,22.3409430000 114.1439060000,22.3410000000 114.1437720000,22.3410560000 114.1436270000,22.3410950000 114.1435470000,22.3411080000 114.1434300000,22.3411090000 114.1433470000,22.3410990000 114.1432000000,22.3410730000 114.1429990000,22.3410070000 114.1427900000,22.3408930000 114.1425460000,22.3407080000 114.1418420000,22.3400970000 114.1417020000,22.3400050000 114.1413940000,22.3398740000 114.1412340000,22.3398470000 114.1410360000,22.3398390000 114.1408280000,22.3398550000 114.1406170000,22.3399190000 114.1403200000,22.3400310000 114.1399660000,22.3402170000 114.1390790000,22.3408220000 114.1387950000,22.3409890000 114.1384860000,22.3411350000 114.1381500000,22.3412550000 114.1379970000,22.3412930000 114.1378480000,22.3413160000 114.1376760000,22.3413210000 114.1374900000,22.3413090000 114.1372610000,22.3412580000 114.1370550000,22.3411850000 114.1369150000,22.3411080000 114.1367940000,22.3410270000 114.1365860000,22.3408270000 114.1363900000,22.3402970000 114.1362210000,22.3396570000 114.1361060000,22.3391020000 114.1360550000,22.3387210000 114.1360460000,22.3384780000 114.1360890000,22.3380640000 114.1360940000,22.3378930000 114.1360660000,22.3375860000 114.1360230000,22.3373800000 114.1359920000,22.3372220000 114.1358870000,22.3368620000 114.1356660000,22.3362620000 114.1355740000,22.3360490000 114.1355630000,22.3360300000 114.1354450000,22.3358220000 114.1353490000,22.3356940000 114.1352720000,22.3356130000 114.1351930000,22.3355320000 114.1350470000,22.3354150000 114.1348860000,22.3353250000 114.1347640000,22.3352680000 114.1346510000,22.3352280000 114.1345290000,22.3351850000 114.1343880000,22.3351510000 114.1342250000,22.3351310000 114.1340760000,22.3351260000 114.1338890000,22.3351310000 114.1337130000,22.3351580000 114.1335140000,22.3352100000 114.1333480000,22.3352740000 114.1331810000,22.3353580000 114.1330670000,22.3354300000 114.1329450000,22.3355330000 114.1328470000,22.3356230000 114.1327460000,22.3357410000 114.1326520000,22.3358750000 114.1325760000,22.3360100000 114.1324940000,22.3361850000 114.1324350000,22.3363490000 114.1323820000,22.3365190000 114.1322850000,22.3368760000 114.1322250000,22.3370820000 114.1321510000,22.3373000000 114.1320370000,22.3376300000 114.1318910000,22.3379940000 114.1317450000,22.3383260000 114.1315600000,22.3387620000 114.1312770000,22.3394790000 114.1311420000,22.3398180000 114.1310790000,22.3401370000 114.1310470000,22.3402070000 114.1308880000,22.3405740000 114.1307190000,22.3409130000 114.1305230000,22.3412450000 114.1302290000,22.3416960000 114.1300150000,22.3419730000 114.1297900000,22.3422150000 114.1296350000,22.3423570000 114.1294840000,22.3425000000 114.1293200000,22.3426370000 114.1291160000,22.3427790000 114.1288580000,22.3429320000 114.1285800000,22.3430670000 114.1282990000,22.3432080000 114.1280790000,22.3433120000 114.1275730000,22.3435180000 114.1272420000,22.3436620000 114.1269010000,22.3438300000 114.1265480000,22.3440350000 114.1261970000,22.3442850000 114.1259420000,22.3444920000 114.1256990000,22.3447270000 114.1254680000,22.3449730000 114.1252700000,22.3452380000 114.1250080000,22.3455860000 114.1248240000,22.3458870000 114.1246430000,22.3463590000 114.1244800000,22.3469000000 114.1244150000,22.3472210000 114.1243800000,22.3475480000 114.1243660000,22.3478910000 114.1243750000,22.3483980000 114.1243460000,22.3492150000 114.1242840000,22.3496110000 114.1241960000,22.3499950000 114.1240920000,22.3503190000 114.1239530000,22.3506300000 114.1237610000,22.3509160000 114.1234880000,22.3512340000 114.1230260000,22.3516520000 114.1228280000,22.3518040000 114.1226080000,22.3519350000 114.1221550000,22.3521050000 114.1217180000,22.3522390000 114.1214310000,22.3523020000 114.1211440000,22.3523490000 114.1207110000,22.3523730000 114.1203330000,22.3523730000 114.1199880000,22.3523650000 114.1194960000,22.3522790000 114.1191870000,22.3522180000 114.1188760000,22.3521210000 114.1185250000,22.3519850000 114.1181990000,22.3518490000 114.1179480000,22.3517290000 114.1175950000,22.3515240000 114.1171200000,22.3512030000 114.1167670000,22.3509350000 114.1163940000,22.3506770000 114.1161560000,22.3505160000 114.1158850000,22.3503530000 114.1156120000,22.3502090000 114.1153200000,22.3500660000 114.1151020000,22.3499700000 114.1121710000,22.3488580000 114.1114850000,22.3485670000 114.1108420000,22.3482640000 114.1067700000,22.3461380000 114.1065040000,22.3460130000 114.1062830000,22.3459150000 114.1060100000,22.3457980000 114.1057500000,22.3456900000 114.1055200000,22.3456000000 114.1053160000,22.3455250000 114.1050600000,22.3454400000 114.1048010000,22.3453580000 114.1045000000,22.3452660000 114.1042000000,22.3451750000 114.1039000000,22.3450920000 114.1036000000,22.3450220000 114.1033000000,22.3449580000 114.1030000000,22.3449000000 114.1026240000,22.3448390000 114.1026000000,22.3448350000 114.1020600000,22.3447660000 114.1017660000,22.3447330000 114.1014700000,22.3447070000 114.1011840000,22.3446860000 114.1009000000,22.3446750000 114.1003400000,22.3446570000 114.0957200000,22.3446110000 114.0956240000,22.3446120000 114.0943500000,22.3446090000 114.0937600000,22.3445980000 114.0932450000,22.3446000000 114.0929810000,22.3446070000 114.0927640000,22.3446250000 114.0924930000,22.3446550000 114.0921460000,22.3447160000 114.0920330000,22.3447350000 114.0918930000,22.3447670000 114.0917140000,22.3448180000 114.0915160000,22.3448850000 114.0912310000,22.3449890000 114.0909600000,22.3451060000 114.0906860000,22.3452240000 114.0903900000,22.3453580000 114.0901860000,22.3454620000 114.0897600000,22.3456670000 114.0895210000,22.3457890000 114.0893050000,22.3459100000 114.0889220000,22.3461740000 114.0885700000,22.3464410000 114.0882590000,22.3467350000 114.0881270000,22.3468140000 114.0878070000,22.3471650000 114.0875500000,22.3475690000 114.0873430000,22.3479580000 114.0871970000,22.3483340000 114.0870280000,22.3489680000 114.0868630000,22.3496330000 114.0867930000,22.3498930000 114.0866620000,22.3504730000 114.0865950000,22.3507390000 114.0865170000,22.3509830000 114.0863840000,22.3512760000 114.0862900000,22.3514840000 114.0861000000,22.3518620000 114.0857890000,22.3524070000 114.0854520000,22.3530980000 114.0847120000,22.3546080000 114.0839530000,22.3559680000 114.0837450000,22.3564090000 114.0835520000,22.3568150000 114.0827160000,22.3583350000 114.0823470000,22.3590330000 114.0817280000,22.3601470000 114.0784010000,22.3664850000 114.0777670000,22.3675880000 114.0776390000,22.3677580000 114.0772760000,22.3683730000 114.0770190000,22.3687380000 114.0768310000,22.3689600000 114.0766180000,22.3691540000 114.0763310000,22.3693640000 114.0759950000,22.3695490000 114.0756140000,22.3696930000 114.0751180000,22.3697580000 114.0747640000,22.3697600000 114.0743370000,22.3697100000 114.0739760000,22.3696220000 114.0735600000,22.3694520000 114.0732020000,22.3692330000 114.0728820000,22.3689540000 114.0725720000,22.3685980000 114.0722640000,22.3681810000 114.0718940000,22.3676870000 114.0714030000,22.3669150000 114.0710910000,22.3665460000 114.0707490000,22.3662430000 114.0704070000,22.3660360000 114.0700740000,22.3658990000 114.0697620000,22.3658060000 114.0693730000,22.3657280000 114.0689650000,22.3656990000 114.0685320000,22.3657080000 114.0681330000,22.3657420000 114.0673960000,22.3658570000 114.0668420000,22.3659990000 114.0664770000,22.3661340000 114.0661160000,22.3662990000 114.0656300000,22.3665750000 114.0652190000,22.3668530000 114.0650180000,22.3669740000 114.0647100000,22.3671610000 114.0642650000,22.3675080000 114.0637770000,22.3679800000 114.0633960000,22.3683700000 114.0632830000,22.3684860000 114.0630530000,22.3686880000 114.0628500000,22.3688270000 114.0626800000,22.3689090000 114.0625810000,22.3689130000 114.0624130000,22.3689700000 114.0621460000,22.3690390000 114.0618450000,22.3690880000 114.0616380000,22.3690950000 114.0614020000,22.3690810000 114.0613070000,22.3690730000 114.0612170000,22.3690510000 114.0611720000,22.3690260000 114.0611430000,22.3689990000 114.0611200000,22.3689700000 114.0611020000,22.3689290000 114.0610950000,22.3688910000 114.0610970000,22.3688370000 114.0611050000,22.3687920000 114.0611230000,22.3687490000 114.0611430000,22.3687140000 114.0612540000,22.3686690000 114.0613160000,22.3686670000 114.0614170000,22.3686960000 114.0615270000,22.3687250000 114.0616560000,22.3687400000 114.0617890000,22.3687300000 114.0619380000,22.3687020000 114.0620690000,22.3686800000 114.0621760000,22.3686600000 114.0623100000,22.3686590000 114.0624200000,22.3686340000 114.0625700000,22.3685830000 114.0626520000,22.3685330000 114.0627300000,22.3684550000 114.0627530000,22.3683800000 114.0628460000,22.3682980000 114.0629030000,22.3682340000 114.0629400000,22.3681780000 114.0629650000,22.3681280000 114.0629800000,22.3680800000 114.0629890000,22.3680230000 114.0629910000,22.3679260000 114.0629850000,22.3678530000 114.0629580000,22.3677570000 114.0629070000,22.3676740000 114.0628420000,22.3675730000 114.0628410000,22.3674890000 114.0627880000,22.3674020000 114.0627350000,22.3673120000 114.0626390000,22.3673600000 114.0624950000,22.3674120000 114.0622870000,22.3674720000 114.0620920000,22.3675050000 114.0614990000,22.3675570000 114.0610700000,22.3675930000 114.0608640000,22.3676160000 114.0607000000,22.3676310000 114.0604350000,22.3676340000 114.0602420000,22.3676110000 114.0600890000,22.3675640000 114.0599370000,22.3674950000 114.0598470000,22.3674320000 114.0594290000,22.3670870000 114.0591840000,22.3668840000 114.0589660000,22.3667040000 114.0580960000,22.3659660000 114.0578270000,22.3657980000 114.0575770000,22.3656790000 114.0572280000,22.3655330000 114.0567270000,22.3653450000 114.0564070000,22.3652120000 114.0562940000,22.3651650000 114.0558710000,22.3649900000 114.0557050000,22.3648970000 114.0555300000,22.3647780000 114.0553790000,22.3646310000 114.0553430000,22.3645350000 114.0553270000,22.3644790000 114.0552940000,22.3644300000 114.0552470000,22.3643930000 114.0551890000,22.3643710000 114.0551270000,22.3643670000 114.0550430000,22.3643310000 114.0549760000,22.3642720000 114.0548760000,22.3641660000 114.0545060000,22.3638410000 114.0542300000,22.3636440000 114.0538470000,22.3634670000 114.0537490000,22.3634300000 114.0536090000,22.3633900000 114.0533250000,22.3633260000 114.0530810000,22.3632890000 114.0526290000,22.3632010000 114.0524140000,22.3631440000 114.0522610000,22.3630920000 114.0520260000,22.3629990000 114.0517730000,22.3628650000 114.0515750000,22.3627410000 114.0512270000,22.3624870000 114.0507370000,22.3621530000 114.0504020000,22.3619460000 114.0501270000,22.3617900000 114.0491910000,22.3613410000 114.0489110000,22.3612290000 114.0486330000,22.3611440000 114.0483640000,22.3610810000 114.0481040000,22.3610380000 114.0477010000,22.3610110000 114.0475560000,22.3610110000 114.0471140000,22.3610590000 114.0469320000,22.3610920000 114.0466430000,22.3611640000 114.0463590000,22.3612510000 114.0459810000,22.3613790000 114.0458570000,22.3613880000 114.0457390000,22.3613820000 114.0456900000,22.3613570000 114.0456340000,22.3613450000 114.0455770000,22.3613500000 114.0455240000,22.3613690000 114.0454800000,22.3614020000 114.0453880000,22.3614520000 114.0452790000,22.3614860000 114.0451150000,22.3615000000 114.0449200000,22.3614990000 114.0447550000,22.3614830000 114.0445860000,22.3614650000 114.0444230000,22.3614320000 114.0443040000,22.3614050000 114.0437790000,22.3612200000 114.0435340000,22.3611290000 114.0430350000,22.3609250000 114.0424390000,22.3606820000 114.0418800000,22.3604350000 114.0416090000,22.3603190000 114.0412680000,22.3601410000 114.0409760000,22.3599760000 114.0406930000,22.3598040000 114.0404950000,22.3596380000 114.0401800000,22.3593780000 114.0398240000,22.3590860000 114.0396230000,22.3589240000 114.0394010000,22.3587720000 114.0392240000,22.3586550000 114.0391560000,22.3586170000 114.0389130000,22.3585010000 114.0385230000,22.3583290000 114.0383130000,22.3582610000 114.0381010000,22.3582050000 114.0375410000,22.3581050000 114.0371370000,22.3580740000 114.0369520000,22.3580590000 114.0368580000,22.3580390000 114.0362630000,22.3578740000 114.0358720000,22.3577680000 114.0354710000,22.3576380000 114.0352240000,22.3575450000 114.0352090000,22.3575390000 114.0342400000,22.3571350000 114.0340600000,22.3570430000 114.0340220000,22.3570130000 114.0339760000,22.3569970000 114.0339260000,22.3569970000 114.0337030000,22.3568430000 114.0336300000,22.3567950000 114.0333380000,22.3566680000 114.0330680000,22.3565550000 114.0329020000,22.3564880000 114.0324740000,22.3563230000 114.0319860000,22.3561700000 114.0314430000,22.3560220000 114.0304150000,22.3558150000 114.0301520000,22.3557690000 114.0295720000,22.3557030000 114.0292610000,22.3556730000 114.0283940000,22.3555960000 114.0276810000,22.3555360000 114.0270900000,22.3555130000 114.0263750000,22.3554930000 114.0256410000,22.3555320000 114.0248410000,22.3555930000 114.0240480000,22.3557140000 114.0231650000,22.3558800000 114.0221190000,22.3561530000 114.0210470000,22.3564490000 114.0200380000,22.3568030000 114.0196390000,22.3569790000 114.0193410000,22.3571750000 114.0191920000,22.3572770000 114.0190650000,22.3573570000 114.0187720000,22.3574680000 114.0187130000,22.3575050000 114.0186700000,22.3575560000 114.0186470000,22.3576180000 114.0186440000,22.3576660000 114.0186530000,22.3577130000 114.0186740000,22.3577570000 114.0187050000,22.3577950000 114.0187450000,22.3578260000 114.0187910000,22.3578470000 114.0188160000,22.3578540000 114.0188530000,22.3578590000 114.0190120000,22.3579680000 114.0190990000,22.3580460000 114.0191100000,22.3580870000 114.0191210000,22.3581460000 114.0191320000,22.3582490000 114.0191460000,22.3584100000 114.0191500000,22.3584710000 114.0191600000,22.3586500000 114.0191550000,22.3589520000 114.0191600000,22.3602850000 114.0191610000,22.3603020000 114.0192060000,22.3608630000 114.0192990000,22.3614720000 114.0193360000,22.3617610000 114.0193290000,22.3620660000 114.0193220000,22.3621790000 114.0193090000,22.3622770000 114.0192740000,22.3623920000 114.0191920000,22.3625790000 114.0191650000,22.3626430000 114.0189930000,22.3628570000 114.0187830000,22.3630250000 114.0185680000,22.3631380000 114.0183390000,22.3632020000 114.0182180000,22.3632230000 114.0180710000,22.3632330000 114.0179560000,22.3632440000 114.0178000000,22.3632600000 114.0176370000,22.3632490000 114.0173000000,22.3631800000 114.0172000000,22.3631800000 114.0171300000,22.3631900000 114.0171000000,22.3631950000 114.0170000000,22.3632400000 114.0169000000,22.3632800000 114.0163300000,22.3635450000 114.0162500000,22.3635800000 114.0161120000,22.3636580000 114.0159510000,22.3637440000 114.0153000000,22.3640580000 114.0151150000,22.3641860000 114.0150520000,22.3642110000 114.0149160000,22.3642650000 114.0147480000,22.3643120000 114.0146990000,22.3643200000 114.0145500000,22.3643450000 114.0144090000,22.3643540000 114.0139420000,22.3643720000 114.0137730000,22.3643500000 114.0137860000,22.3642940000 114.0137820000,22.3642360000 114.0137600000,22.3641810000 114.0137240000,22.3641360000 114.0136770000,22.3641020000 114.0136210000,22.3640810000 114.0135610000,22.3640740000 114.0135040000,22.3640820000 114.0134520000,22.3641030000 114.0134020000,22.3641410000 114.0133650000,22.3641900000 114.0133460000,22.3642480000 114.0133440000,22.3642770000 114.0133460000,22.3643060000 114.0133560000,22.3643460000 114.0133740000,22.3643830000 114.0134010000,22.3644160000 114.0133890000,22.3645730000 114.0133560000,22.3646830000 114.0133100000,22.3647730000 114.0131640000,22.3650330000 114.0130490000,22.3651830000 114.0130430000,22.3651890000 114.0129450000,22.3653000000 114.0127680000,22.3654720000 114.0125950000,22.3656150000 114.0125340000,22.3656670000 114.0123390000,22.3657990000 114.0120210000,22.3659610000 114.0120130000,22.3659640000 114.0117650000,22.3660470000 114.0115310000,22.3661290000 114.0113920000,22.3661560000 114.0112340000,22.3661700000 114.0106810000,22.3662310000 114.0094720000,22.3663510000 114.0089990000,22.3664010000 114.0087960000,22.3664210000 114.0082360000,22.3664600000 114.0079270000,22.3664600000 114.0076440000,22.3664420000 114.0073270000,22.3664060000 114.0070170000,22.3663530000 114.0059740000,22.3661630000 114.0055380000,22.3660870000 114.0052380000,22.3660580000 114.0049560000,22.3660450000 114.0029810000,22.3661090000 114.0026470000,22.3661510000 114.0024620000,22.3661830000 114.0024300000,22.3661660000 114.0023930000,22.3661590000 114.0023570000,22.3661620000 114.0023220000,22.3661740000 114.0022900000,22.3662000000 114.0022680000,22.3662350000 114.0020900000,22.3663510000 114.0018700000,22.3664710000 114.0017000000,22.3665730000 114.0010080000,22.3671700000 114.0005800000,22.3675080000 114.0003070000,22.3676700000 114.0000530000,22.3677860000 113.9996260000,22.3679200000 113.9994150000,22.3679660000 113.9992090000,22.3679910000 113.9990930000,22.3679970000 113.9987140000,22.3680140000 113.9984620000,22.3679880000 113.9976760000,22.3678260000 113.9975330000,22.3677970000 113.9975090000,22.3677940000 113.9973460000,22.3677790000 113.9971860000,22.3677830000 113.9969740000,22.3678000000 113.9969070000,22.3678050000 113.9968100000,22.3678160000 113.9967740000,22.3678000000 113.9967350000,22.3677970000 113.9966810000,22.3678170000 113.9966460000,22.3678600000 113.9966030000,22.3679050000 113.9965550000,22.3679370000 113.9964300000,22.3680010000 113.9962930000,22.3680900000 113.9962090000,22.3681520000 113.9960900000,22.3682590000 113.9959140000,22.3684630000 113.9957790000,22.3686430000 113.9956290000,22.3688570000 113.9955150000,22.3690230000 113.9954130000,22.3691760000 113.9950330000,22.3697240000 113.9946920000,22.3702150000 113.9941920000,22.3709230000 113.9940820000,22.3710720000 113.9938930000,22.3713420000 113.9936060000,22.3717510000 113.9929130000,22.3727680000 113.9928000000,22.3729430000 113.9927080000,22.3730700000 113.9925790000,22.3732150000 113.9924080000,22.3733530000 113.9923140000,22.3734040000 113.9922260000,22.3734390000 113.9920750000,22.3734860000 113.9919330000,22.3735230000 113.9916520000,22.3735790000 113.9912820000,22.3736220000 113.9902760000,22.3737550000 113.9901830000,22.3737930000 113.9897830000,22.3738390000 113.9894320000,22.3738670000 113.9885810000,22.3739100000 113.9880410000,22.3739610000 113.9878340000,22.3740050000 113.9876190000,22.3741230000 113.9874230000,22.3742780000 113.9873890000,22.3743100000 113.9871310000,22.3745520000 113.9861540000,22.3754690000 113.9860790000,22.3755540000 113.9860360000,22.3756020000 113.9858200000,22.3757940000 113.9848480000,22.3767860000 113.9847660000,22.3768610000 113.9847210000,22.3769060000 113.9844450000,22.3771180000 113.9836580000,22.3777270000 113.9835910000,22.3777710000 113.9833690000,22.3778740000 113.9832610000,22.3779110000 113.9829590000,22.3779900000 113.9827420000,22.3780240000 113.9823960000,22.3780780000 113.9822150000,22.3781100000 113.9817760000,22.3782150000 113.9813770000,22.3783710000 113.9811140000,22.3785140000 113.9808210000,22.3787420000 113.9805200000,22.3791700000 113.9804160000,22.3793170000 113.9801910000,22.3796850000 113.9800810000,22.3798620000 113.9794370000,22.3807850000 113.9793330000,22.3807260000 113.9791020000,22.3805950000 113.9788890000,22.3804790000 113.9787930000,22.3804340000 113.9786750000,22.3806220000 113.9782930000,22.3812100000</coordinates>
                </LineString>
                <ExtendedData>
                    <Data name="length">
                        <value>66010.44162991023</value>
                    </Data>
                    <Data name="duration">
                        <value>02:20:13</value>
                    </Data>
                </ExtendedData>
            </Placemark>
        </Document>
    </Document>
</kml>