<?xml version="1.0" encoding="UTF-8"?>
<kml xmlns="http://www.opengis.net/kml/2.2" xmlns:gx="http://www.google.com/kml/ext/2.2">
    <Document>
        <name>Route</name>
        <Folder>
            <name>Route Request</name>
            <Placemark>
                <address>Block 15, Lung Chak Road, Yeung Siu Hang, Castle Peak Bay, Tsing Shan Tsuen, New Territories, Hong Kong, DD132 586, PRC</address>
                <Point>
                    <coordinates>114.0062462822,22.4601818276</coordinates>
                </Point>
                <ExtendedData>
                    <Data name="road">
                        <value>Lung Chak Road</value>
                    </Data>
                    <Data name="postcode">
                        <value>DD132 586</value>
                    </Data>
                    <Data name="region">
                        <value>New Territories</value>
                    </Data>
                    <Data name="suburb">
                        <value>Castle Peak Bay</value>
                    </Data>
                    <Data name="routingVisited">
                        <value>false</value>
                    </Data>
                    <Data name="hamlet">
                        <value>Tsing Shan Tsuen</value>
                    </Data>
                    <Data name="neighbourhood">
                        <value>Yeung Siu Hang</value>
                    </Data>
                    <Data name="state">
                        <value>Hong Kong</value>
                    </Data>
                    <Data name="country_code">
                        <value>cn</value>
                    </Data>
                    <Data name="country">
                        <value>PRC</value>
                    </Data>
                    <Data name="building">
                        <value>Block 15</value>
                    </Data>
                </ExtendedData>
            </Placemark>
            <Placemark>
                <Point>
                    <coordinates>114.0069560365,22.4519309779</coordinates>
                </Point>
                <ExtendedData>
                    <Data name="routingVisited">
                        <value>false</value>
                    </Data>
                </ExtendedData>
            </Placemark>
            <Placemark>
                <Point>
                    <coordinates>114.1198927973,22.3525202495</coordinates>
                </Point>
                <ExtendedData>
                    <Data name="routingVisited">
                        <value>false</value>
                    </Data>
                </ExtendedData>
            </Placemark>
            <Placemark>
                <Point>
                    <coordinates>114.2028771598,22.3394840563</coordinates>
                </Point>
                <ExtendedData>
                    <Data name="routingVisited">
                        <value>false</value>
                    </Data>
                </ExtendedData>
            </Placemark>
            <Placemark>
                <Point>
                    <coordinates>114.2386142719,22.2960134446</coordinates>
                </Point>
                <ExtendedData>
                    <Data name="routingVisited">
                        <value>false</value>
                    </Data>
                </ExtendedData>
            </Placemark>
            <Placemark>
                <Point>
                    <coordinates>114.2295215051,22.3097294978</coordinates>
                </Point>
                <ExtendedData>
                    <Data name="routingVisited">
                        <value>false</value>
                    </Data>
                </ExtendedData>
            </Placemark>
            <Placemark>
                <Point>
                    <coordinates>114.0944425808,22.3444669475</coordinates>
                </Point>
                <ExtendedData>
                    <Data name="routingVisited">
                        <value>false</value>
                    </Data>
                </ExtendedData>
            </Placemark>
            <Placemark>
                <Point>
                    <coordinates>114.0059509158,22.4527505730</coordinates>
                </Point>
                <ExtendedData>
                    <Data name="routingVisited">
                        <value>false</value>
                    </Data>
                </ExtendedData>
            </Placemark>
            <Placemark>
                <Point>
                    <coordinates>114.0062462822,22.4601818276</coordinates>
                </Point>
                <ExtendedData>
                    <Data name="routingVisited">
                        <value>false</value>
                    </Data>
                </ExtendedData>
            </Placemark>
        </Folder>
        <Document>
            <name>84.5 km; 01:47 h (OSRM)</name>
            <Placemark>
                <name>Route</name>
                <LineString>
                    <coordinates>114.0064220000,22.4600420000 114.0061610000,22.4597620000 114.0060670000,22.4595750000 114.0059480000,22.4594630000 114.0057920000,22.4592930000 114.0056890000,22.4591790000 114.0053760000,22.4588310000 114.0047660000,22.4581720000 114.0046670000,22.4580580000 114.0048040000,22.4579550000 114.0055500000,22.4573700000 114.0056110000,22.4573250000 114.0057390000,22.4572300000 114.0059260000,22.4570260000 114.0060740000,22.4568260000 114.0061510000,22.4566260000 114.0062070000,22.4564600000 114.0062330000,22.4563780000 114.0062590000,22.4561790000 114.0062350000,22.4559190000 114.0061710000,22.4556710000 114.0059650000,22.4550640000 114.0057600000,22.4544420000 114.0057240000,22.4542260000 114.0057320000,22.4541450000 114.0057510000,22.4540630000 114.0057720000,22.4539720000 114.0058140000,22.4538370000 114.0059260000,22.4535540000 114.0060810000,22.4532420000 114.0061280000,22.4531490000 114.0064080000,22.4525840000 114.0064810000,22.4524390000 114.0065760000,22.4522650000 114.0066540000,22.4521200000 114.0068020000,22.4518570000 114.0069460000,22.4516000000 114.0071310000,22.4514480000 114.0072110000,22.4514040000 114.0073480000,22.4513850000 114.0075020000,22.4513880000 114.0077460000,22.4514900000 114.0080010000,22.4515740000 114.0082650000,22.4516520000 114.0086950000,22.4517270000 114.0089240000,22.4517510000 114.0089860000,22.4517560000 114.0091550000,22.4517710000 114.0091820000,22.4517590000 114.0091920000,22.4517510000 114.0092060000,22.4517400000 114.0092180000,22.4517220000 114.0092260000,22.4517050000 114.0092330000,22.4516840000 114.0092630000,22.4515200000 114.0093510000,22.4510540000 114.0094360000,22.4507880000 114.0095380000,22.4504990000 114.0097090000,22.4501640000 114.0099310000,22.4497690000 114.0104080000,22.4490350000 114.0105480000,22.4489080000 114.0118500000,22.4478110000 114.0120720000,22.4476680000 114.0124090000,22.4474850000 114.0127270000,22.4473600000 114.0130690000,22.4472660000 114.0134020000,22.4472000000 114.0137700000,22.4471740000 114.0143400000,22.4471250000 114.0147230000,22.4470780000 114.0150110000,22.4470130000 114.0152120000,22.4469560000 114.0154330000,22.4468740000 114.0157320000,22.4467290000 114.0159770000,22.4465730000 114.0162630000,22.4462960000 114.0164150000,22.4460800000 114.0165050000,22.4458980000 114.0165880000,22.4456090000 114.0166380000,22.4452870000 114.0167470000,22.4444510000 114.0168000000,22.4439650000 114.0168280000,22.4433360000 114.0168120000,22.4430380000 114.0167700000,22.4427170000 114.0166720000,22.4422850000 114.0166120000,22.4419440000 114.0159820000,22.4397070000 114.0158200000,22.4391300000 114.0155580000,22.4386370000 114.0155110000,22.4385060000 114.0154780000,22.4382430000 114.0155370000,22.4380450000 114.0157070000,22.4378270000 114.0159150000,22.4376810000 114.0161310000,22.4375720000 114.0164540000,22.4374460000 114.0168350000,22.4372390000 114.0171310000,22.4370750000 114.0179120000,22.4366830000 114.0185440000,22.4363780000 114.0189770000,22.4362060000 114.0194660000,22.4360410000 114.0197440000,22.4359700000 114.0200460000,22.4358930000 114.0216170000,22.4355470000 114.0229420000,22.4352820000 114.0246420000,22.4349650000 114.0250320000,22.4348960000 114.0293740000,22.4341600000 114.0299430000,22.4340840000 114.0302640000,22.4340600000 114.0304810000,22.4340490000 114.0309290000,22.4340500000 114.0315460000,22.4341180000 114.0318430000,22.4341900000 114.0322080000,22.4342740000 114.0326560000,22.4344000000 114.0331000000,22.4345470000 114.0335720000,22.4347450000 114.0339590000,22.4349570000 114.0343200000,22.4351810000 114.0346520000,22.4354290000 114.0375910000,22.4379080000 114.0378050000,22.4380950000 114.0381390000,22.4384030000 114.0384140000,22.4387330000 114.0386390000,22.4390450000 114.0388930000,22.4394610000 114.0391210000,22.4399840000 114.0392100000,22.4402640000 114.0392840000,22.4405500000 114.0393420000,22.4409050000 114.0393570000,22.4411400000 114.0393700000,22.4413790000 114.0393720000,22.4418700000 114.0393860000,22.4431860000 114.0393960000,22.4445250000 114.0394290000,22.4448920000 114.0394650000,22.4451480000 114.0395170000,22.4454020000 114.0395680000,22.4455750000 114.0396970000,22.4459920000 114.0398360000,22.4463100000 114.0399970000,22.4466170000 114.0401490000,22.4468570000 114.0402970000,22.4471380000 114.0404570000,22.4473430000 114.0406150000,22.4475120000 114.0407840000,22.4476730000 114.0409370000,22.4478070000 114.0411900000,22.4480140000 114.0414820000,22.4482210000 114.0417720000,22.4484040000 114.0420700000,22.4485560000 114.0423790000,22.4487250000 114.0426740000,22.4488440000 114.0431190000,22.4489980000 114.0436760000,22.4491300000 114.0442120000,22.4492730000 114.0447480000,22.4493660000 114.0450280000,22.4493910000 114.0455360000,22.4494000000 114.0460600000,22.4493710000 114.0465110000,22.4492920000 114.0468650000,22.4491630000 114.0472510000,22.4490140000 114.0476260000,22.4488560000 114.0479270000,22.4487070000 114.0482590000,22.4485190000 114.0485600000,22.4483500000 114.0487530000,22.4482210000 114.0490000000,22.4480330000 114.0492570000,22.4477850000 114.0495250000,22.4475470000 114.0497400000,22.4472990000 114.0499330000,22.4470610000 114.0501160000,22.4467440000 114.0502760000,22.4463770000 114.0503940000,22.4460100000 114.0504800000,22.4455830000 114.0505770000,22.4451070000 114.0506630000,22.4446810000 114.0507810000,22.4442940000 114.0509310000,22.4439180000 114.0510540000,22.4436750000 114.0512990000,22.4432780000 114.0515650000,22.4429060000 114.0518320000,22.4425660000 114.0523300000,22.4420110000 114.0525380000,22.4417980000 114.0529800000,22.4414190000 114.0552440000,22.4397030000 114.0566270000,22.4387340000 114.0574420000,22.4381680000 114.0580760000,22.4376940000 114.0586750000,22.4372040000 114.0591920000,22.4367400000 114.0596270000,22.4363460000 114.0601230000,22.4358700000 114.0607360000,22.4352330000 114.0611550000,22.4347070000 114.0617550000,22.4338640000 114.0622730000,22.4331580000 114.0626900000,22.4324490000 114.0630580000,22.4316410000 114.0633420000,22.4308540000 114.0635560000,22.4301880000 114.0638320000,22.4291520000 114.0640530000,22.4281040000 114.0641500000,22.4274210000 114.0642720000,22.4259930000 114.0643150000,22.4243600000 114.0643190000,22.4232760000 114.0643020000,22.4220230000 114.0642750000,22.4215430000 114.0642570000,22.4213660000 114.0641580000,22.4204600000 114.0640030000,22.4189740000 114.0639950000,22.4189290000 114.0638760000,22.4183200000 114.0635200000,22.4166570000 114.0634500000,22.4161790000 114.0633480000,22.4155790000 114.0632220000,22.4150740000 114.0630650000,22.4145840000 114.0628950000,22.4141420000 114.0626700000,22.4136450000 114.0623410000,22.4130610000 114.0610200000,22.4108000000 114.0609240000,22.4106400000 114.0608370000,22.4104800000 114.0607560000,22.4103200000 114.0606700000,22.4101500000 114.0605900000,22.4099800000 114.0605150000,22.4098100000 114.0604420000,22.4096400000 114.0603740000,22.4094700000 114.0603150000,22.4093000000 114.0602650000,22.4091500000 114.0602190000,22.4090000000 114.0601790000,22.4088600000 114.0601310000,22.4086900000 114.0600910000,22.4085300000 114.0600430000,22.4083300000 114.0600010000,22.4081530000 114.0599670000,22.4080000000 114.0599350000,22.4078400000 114.0599080000,22.4076800000 114.0598880000,22.4075200000 114.0598690000,22.4073600000 114.0598510000,22.4072000000 114.0598350000,22.4070400000 114.0598260000,22.4068800000 114.0598220000,22.4067200000 114.0598200000,22.4065600000 114.0598200000,22.4064000000 114.0598220000,22.4062400000 114.0598260000,22.4060800000 114.0598320000,22.4059200000 114.0598410000,22.4057600000 114.0598540000,22.4056000000 114.0598690000,22.4054400000 114.0598910000,22.4052500000 114.0599270000,22.4049690000 114.0637180000,22.3811750000 114.0637550000,22.3810000000 114.0637950000,22.3808300000 114.0638400000,22.3806600000 114.0638870000,22.3804900000 114.0639380000,22.3803100000 114.0639920000,22.3801310000 114.0640500000,22.3799600000 114.0641120000,22.3797900000 114.0641800000,22.3796200000 114.0642480000,22.3794600000 114.0643150000,22.3793030000 114.0643830000,22.3791500000 114.0644610000,22.3789900000 114.0645400000,22.3788400000 114.0646200000,22.3786900000 114.0647230000,22.3785000000 114.0648310000,22.3783200000 114.0649400000,22.3781500000 114.0650520000,22.3779800000 114.0651700000,22.3778100000 114.0652900000,22.3776450000 114.0654130000,22.3774800000 114.0655400000,22.3773200000 114.0656660000,22.3771710000 114.0658010000,22.3770150000 114.0659500000,22.3768540000 114.0661020000,22.3766950000 114.0662500000,22.3765450000 114.0664000000,22.3764000000 114.0665500000,22.3762610000 114.0667140000,22.3761200000 114.0668830000,22.3759780000 114.0672200000,22.3757280000 114.0675860000,22.3754680000 114.0682370000,22.3750400000 114.0688590000,22.3745820000 114.0692520000,22.3742940000 114.0701770000,22.3737060000 114.0713690000,22.3729280000 114.0734950000,22.3716110000 114.0753200000,22.3704760000 114.0755740000,22.3703150000 114.0758210000,22.3701600000 114.0760750000,22.3699840000 114.0763020000,22.3698280000 114.0765090000,22.3696660000 114.0766860000,22.3695240000 114.0768870000,22.3693440000 114.0770660000,22.3691490000 114.0772400000,22.3689350000 114.0773870000,22.3687280000 114.0775940000,22.3684210000 114.0779680000,22.3677150000 114.0783000000,22.3670880000 114.0785960000,22.3665690000 114.0819110000,22.3602270000 114.0825020000,22.3591100000 114.0825850000,22.3589570000 114.0830530000,22.3580330000 114.0838930000,22.3564690000 114.0842770000,22.3558590000 114.0853960000,22.3542650000 114.0859470000,22.3533570000 114.0861040000,22.3530750000 114.0861630000,22.3529440000 114.0862120000,22.3528500000 114.0863720000,22.3524850000 114.0864880000,22.3521920000 114.0865490000,22.3520270000 114.0866230000,22.3518530000 114.0869190000,22.3510640000 114.0869720000,22.3508990000 114.0870520000,22.3506180000 114.0872560000,22.3499170000 114.0873720000,22.3494690000 114.0873980000,22.3493700000 114.0875480000,22.3486660000 114.0875920000,22.3485000000 114.0877130000,22.3482200000 114.0878060000,22.3480050000 114.0880270000,22.3476410000 114.0881880000,22.3474400000 114.0884050000,22.3472080000 114.0887280000,22.3469380000 114.0889780000,22.3467510000 114.0892720000,22.3465590000 114.0898710000,22.3462360000 114.0904280000,22.3459560000 114.0909630000,22.3456820000 114.0913410000,22.3455040000 114.0917190000,22.3453490000 114.0921550000,22.3452070000 114.0926230000,22.3450940000 114.0931090000,22.3450000000 114.0933720000,22.3449740000 114.0939120000,22.3449600000 114.0947650000,22.3449530000 114.0952440000,22.3449500000 114.0957200000,22.3449460000 114.1004000000,22.3449930000 114.1010700000,22.3450180000 114.1014000000,22.3450400000 114.1017300000,22.3450680000 114.1020600000,22.3451030000 114.1023900000,22.3451480000 114.1030400000,22.3452500000 114.1033000000,22.3453000000 114.1035300000,22.3453500000 114.1037300000,22.3453950000 114.1038810000,22.3454310000 114.1040300000,22.3454700000 114.1042020000,22.3455180000 114.1043800000,22.3455700000 114.1046900000,22.3456680000 114.1049680000,22.3457620000 114.1051600000,22.3458300000 114.1053500000,22.3459000000 114.1056800000,22.3460270000 114.1060000000,22.3461600000 114.1066070000,22.3464420000 114.1092280000,22.3478020000 114.1094000000,22.3478900000 114.1094990000,22.3479370000 114.1095990000,22.3479820000 114.1098100000,22.3480700000 114.1100000000,22.3481490000 114.1103700000,22.3483000000 114.1107080000,22.3484390000 114.1114010000,22.3486980000 114.1121180000,22.3489710000 114.1150360000,22.3500680000 114.1152660000,22.3501660000 114.1155460000,22.3503070000 114.1158280000,22.3504570000 114.1160890000,22.3506120000 114.1163380000,22.3507780000 114.1166890000,22.3510310000 114.1170420000,22.3512980000 114.1174180000,22.3515670000 114.1177500000,22.3517760000 114.1179500000,22.3518880000 114.1181630000,22.3519900000 114.1185390000,22.3521520000 114.1187440000,22.3522270000 114.1189890000,22.3523010000 114.1192310000,22.3523660000 114.1195060000,22.3524250000 114.1197310000,22.3524620000 114.1198990000,22.3524840000 114.1199660000,22.3524930000 114.1204150000,22.3525210000 114.1208080000,22.3525130000 114.1212930000,22.3524700000 114.1214870000,22.3524420000 114.1216850000,22.3524020000 114.1220080000,22.3523000000 114.1223600000,22.3521610000 114.1225800000,22.3520590000 114.1227700000,22.3519640000 114.1230910000,22.3517690000 114.1234160000,22.3515320000 114.1237280000,22.3512190000 114.1239480000,22.3509410000 114.1241480000,22.3506360000 114.1243000000,22.3503120000 114.1244440000,22.3499020000 114.1244990000,22.3496360000 114.1245460000,22.3490950000 114.1245370000,22.3484120000 114.1245330000,22.3480180000 114.1245490000,22.3476170000 114.1246110000,22.3472070000 114.1247310000,22.3467150000 114.1248690000,22.3463550000 114.1250230000,22.3459890000 114.1252280000,22.3456200000 114.1254330000,22.3453410000 114.1256160000,22.3450810000 114.1258580000,22.3448130000 114.1260660000,22.3446100000 114.1265330000,22.3442760000 114.1269240000,22.3440300000 114.1272820000,22.3438400000 114.1276470000,22.3436840000 114.1281270000,22.3434690000 114.1283770000,22.3433460000 114.1286560000,22.3432050000 114.1289710000,22.3430190000 114.1291870000,22.3428750000 114.1294020000,22.3427320000 114.1295670000,22.3426040000 114.1297310000,22.3424680000 114.1298900000,22.3423150000 114.1301370000,22.3420730000 114.1303630000,22.3417950000 114.1306770000,22.3413100000 114.1308700000,22.3409770000 114.1310190000,22.3406270000 114.1311910000,22.3402610000 114.1313730000,22.3398820000 114.1316030000,22.3395690000 114.1317430000,22.3393020000 114.1319650000,22.3389160000 114.1321860000,22.3385200000 114.1323490000,22.3381980000 114.1325610000,22.3378840000 114.1326820000,22.3377160000 114.1328200000,22.3375310000 114.1329340000,22.3373860000 114.1330520000,22.3372410000 114.1331650000,22.3371070000 114.1332900000,22.3369690000 114.1334200000,22.3368390000 114.1335610000,22.3367200000 114.1337120000,22.3366090000 114.1338480000,22.3365500000 114.1340050000,22.3365000000 114.1341740000,22.3364620000 114.1344000000,22.3364560000 114.1345610000,22.3364620000 114.1347270000,22.3364910000 114.1349060000,22.3365550000 114.1350520000,22.3366250000 114.1351610000,22.3366910000 114.1352480000,22.3367540000 114.1354760000,22.3369650000 114.1355560000,22.3370680000 114.1356470000,22.3372250000 114.1357230000,22.3373780000 114.1357810000,22.3375990000 114.1358180000,22.3378430000 114.1358070000,22.3382780000 114.1358140000,22.3386480000 114.1358400000,22.3389990000 114.1359170000,22.3392970000 114.1359950000,22.3396130000 114.1362150000,22.3404640000 114.1362940000,22.3406170000 114.1363760000,22.3407570000 114.1364990000,22.3409230000 114.1366610000,22.3410740000 114.1368110000,22.3411900000 114.1369940000,22.3412930000 114.1371900000,22.3413630000 114.1374620000,22.3414190000 114.1376640000,22.3414410000 114.1378490000,22.3414330000 114.1380060000,22.3414150000 114.1381830000,22.3413640000 114.1383630000,22.3412890000 114.1388120000,22.3411060000 114.1391810000,22.3408970000 114.1399880000,22.3403290000 114.1404400000,22.3400810000 114.1406460000,22.3400140000 114.1408740000,22.3399450000 114.1411450000,22.3399420000 114.1413540000,22.3399530000 114.1415920000,22.3400400000 114.1416690000,22.3400870000 114.1419010000,22.3402690000 114.1424680000,22.3407800000 114.1427240000,22.3409890000 114.1428620000,22.3410740000 114.1429790000,22.3411210000 114.1430690000,22.3411540000 114.1431830000,22.3411830000 114.1432930000,22.3412000000 114.1433840000,22.3412070000 114.1435080000,22.3412080000 114.1436040000,22.3412070000 114.1437140000,22.3411960000 114.1438040000,22.3411670000 114.1440800000,22.3410180000 114.1441700000,22.3409530000 114.1443000000,22.3408260000 114.1445620000,22.3404730000 114.1446690000,22.3403370000 114.1447360000,22.3402750000 114.1448380000,22.3401920000 114.1449640000,22.3401250000 114.1451290000,22.3400430000 114.1453170000,22.3400070000 114.1455790000,22.3399850000 114.1459450000,22.3399910000 114.1463270000,22.3400010000 114.1466450000,22.3400310000 114.1468840000,22.3400680000 114.1471390000,22.3401190000 114.1487060000,22.3405890000 114.1492740000,22.3407430000 114.1495080000,22.3408140000 114.1497260000,22.3408970000 114.1499710000,22.3409990000 114.1508180000,22.3413740000 114.1511960000,22.3415390000 114.1518730000,22.3417970000 114.1525490000,22.3420820000 114.1541150000,22.3427540000 114.1543950000,22.3428430000 114.1545670000,22.3428850000 114.1547130000,22.3429090000 114.1549220000,22.3429240000 114.1550660000,22.3429210000 114.1556260000,22.3428670000 114.1558500000,22.3428530000 114.1561130000,22.3428480000 114.1563590000,22.3428530000 114.1565660000,22.3428640000 114.1567280000,22.3428790000 114.1572840000,22.3429300000 114.1574470000,22.3429440000 114.1577650000,22.3429550000 114.1580790000,22.3429460000 114.1583150000,22.3429170000 114.1585570000,22.3428850000 114.1587690000,22.3428390000 114.1589890000,22.3427510000 114.1591710000,22.3426510000 114.1593500000,22.3425280000 114.1595230000,22.3423810000 114.1596600000,22.3422470000 114.1600020000,22.3418720000 114.1601140000,22.3417510000 114.1602440000,22.3416500000 114.1604010000,22.3415500000 114.1605630000,22.3414580000 114.1607840000,22.3413600000 114.1610040000,22.3412730000 114.1612190000,22.3412160000 114.1614630000,22.3411820000 114.1617170000,22.3411700000 114.1619800000,22.3411870000 114.1622220000,22.3412230000 114.1624510000,22.3412880000 114.1626770000,22.3413690000 114.1630340000,22.3415330000 114.1633980000,22.3416990000 114.1636130000,22.3417920000 114.1638110000,22.3418610000 114.1639940000,22.3419180000 114.1641760000,22.3419600000 114.1643620000,22.3419930000 114.1645670000,22.3420130000 114.1652690000,22.3420550000 114.1657260000,22.3420680000 114.1659870000,22.3420560000 114.1661760000,22.3420320000 114.1663590000,22.3419980000 114.1664830000,22.3419640000 114.1666240000,22.3419110000 114.1668090000,22.3418300000 114.1670540000,22.3417130000 114.1672620000,22.3416100000 114.1677620000,22.3413500000 114.1678860000,22.3412990000 114.1680630000,22.3412360000 114.1682040000,22.3412070000 114.1683200000,22.3411960000 114.1684150000,22.3411970000 114.1685310000,22.3412110000 114.1686940000,22.3412510000 114.1688600000,22.3413160000 114.1690070000,22.3413980000 114.1691580000,22.3414950000 114.1693140000,22.3416270000 114.1703680000,22.3426990000 114.1707810000,22.3430890000 114.1709550000,22.3432250000 114.1711220000,22.3433320000 114.1712720000,22.3433900000 114.1714350000,22.3434350000 114.1715730000,22.3434540000 114.1716880000,22.3434620000 114.1717860000,22.3434610000 114.1719340000,22.3434470000 114.1720840000,22.3434130000 114.1722060000,22.3433610000 114.1723150000,22.3433130000 114.1724150000,22.3432550000 114.1730510000,22.3428430000 114.1731770000,22.3427730000 114.1732980000,22.3427270000 114.1734420000,22.3426910000 114.1736090000,22.3426710000 114.1737600000,22.3426710000 114.1739410000,22.3426990000 114.1740970000,22.3427570000 114.1742630000,22.3428280000 114.1744130000,22.3429470000 114.1745310000,22.3430660000 114.1746600000,22.3432650000 114.1750140000,22.3438700000 114.1751110000,22.3440190000 114.1752390000,22.3441580000 114.1753680000,22.3442670000 114.1755500000,22.3443760000 114.1757970000,22.3444750000 114.1768200000,22.3447950000 114.1769530000,22.3448320000 114.1771320000,22.3448710000 114.1772760000,22.3448890000 114.1774380000,22.3448930000 114.1776070000,22.3448820000 114.1777460000,22.3448560000 114.1779150000,22.3448050000 114.1788360000,22.3444410000 114.1790330000,22.3443750000 114.1792240000,22.3443110000 114.1794940000,22.3442450000 114.1797780000,22.3442070000 114.1800880000,22.3441810000 114.1806240000,22.3441690000 114.1807950000,22.3441710000 114.1819600000,22.3442420000 114.1821420000,22.3442500000 114.1822800000,22.3442460000 114.1823870000,22.3442340000 114.1825060000,22.3442080000 114.1826210000,22.3441710000 114.1827300000,22.3441250000 114.1828560000,22.3440650000 114.1830220000,22.3439750000 114.1836130000,22.3435700000 114.1838680000,22.3434000000 114.1841430000,22.3432740000 114.1846130000,22.3430880000 114.1850800000,22.3428960000 114.1852960000,22.3428080000 114.1855600000,22.3427320000 114.1857930000,22.3426750000 114.1860610000,22.3426220000 114.1863390000,22.3425850000 114.1864860000,22.3425670000 114.1869390000,22.3425470000 114.1875150000,22.3425370000 114.1885190000,22.3425370000 114.1887960000,22.3425240000 114.1891320000,22.3424810000 114.1894990000,22.3423920000 114.1899660000,22.3421980000 114.1903150000,22.3420380000 114.1906920000,22.3418650000 114.1909750000,22.3417600000 114.1912260000,22.3417090000 114.1914940000,22.3416970000 114.1926250000,22.3417090000 114.1956600000,22.3417580000 114.1958090000,22.3417600000 114.1963520000,22.3417620000 114.1971850000,22.3417830000 114.1976130000,22.3417830000 114.1977440000,22.3417730000 114.1979580000,22.3417480000 114.1982100000,22.3416990000 114.1985330000,22.3416090000 114.1988230000,22.3414960000 114.1992450000,22.3412810000 114.1999010000,22.3410540000 114.2003290000,22.3408770000 114.2006510000,22.3407410000 114.2006960000,22.3407230000 114.2009540000,22.3406200000 114.2012380000,22.3404880000 114.2021360000,22.3398970000 114.2028260000,22.3395160000 114.2028710000,22.3394780000 114.2035020000,22.3389530000 114.2039810000,22.3385010000 114.2049800000,22.3379780000 114.2062600000,22.3372110000 114.2066750000,22.3369490000 114.2069740000,22.3367550000 114.2071370000,22.3366460000 114.2073210000,22.3364080000 114.2074340000,22.3362430000 114.2075360000,22.3360770000 114.2080100000,22.3349510000 114.2081020000,22.3347670000 114.2081880000,22.3345650000 114.2082130000,22.3344590000 114.2082310000,22.3343540000 114.2082370000,22.3342480000 114.2082150000,22.3341240000 114.2081900000,22.3340350000 114.2081390000,22.3339190000 114.2080530000,22.3337730000 114.2079470000,22.3335780000 114.2078360000,22.3334300000 114.2077410000,22.3332770000 114.2076620000,22.3330890000 114.2076440000,22.3329210000 114.2076680000,22.3327500000 114.2077270000,22.3326070000 114.2078280000,22.3324880000 114.2079970000,22.3323300000 114.2081430000,22.3322020000 114.2087380000,22.3317140000 114.2096250000,22.3310300000 114.2100790000,22.3306930000 114.2104900000,22.3303520000 114.2111900000,22.3296680000 114.2114570000,22.3295130000 114.2119600000,22.3291520000 114.2125680000,22.3286790000 114.2127230000,22.3285500000 114.2128560000,22.3283830000 114.2132980000,22.3277250000 114.2137260000,22.3270450000 114.2139320000,22.3267480000 114.2140770000,22.3264970000 114.2141280000,22.3264030000 114.2141850000,22.3262550000 114.2142210000,22.3261500000 114.2142560000,22.3259930000 114.2142540000,22.3253250000 114.2142650000,22.3250490000 114.2143020000,22.3244900000 114.2143480000,22.3239770000 114.2144050000,22.3233960000 114.2144340000,22.3231270000 114.2144470000,22.3230150000 114.2144910000,22.3226050000 114.2145230000,22.3223020000 114.2145410000,22.3221080000 114.2146740000,22.3211690000 114.2146910000,22.3210100000 114.2148460000,22.3194590000 114.2148780000,22.3191090000 114.2149170000,22.3186080000 114.2149450000,22.3183960000 114.2150370000,22.3180160000 114.2151450000,22.3177290000 114.2152150000,22.3175810000 114.2153140000,22.3174160000 114.2154820000,22.3171970000 114.2156590000,22.3170040000 114.2158440000,22.3168260000 114.2161390000,22.3165800000 114.2164250000,22.3163840000 114.2166910000,22.3161990000 114.2169280000,22.3160680000 114.2171030000,22.3159820000 114.2173760000,22.3158690000 114.2178520000,22.3156840000 114.2183090000,22.3154960000 114.2199970000,22.3148600000 114.2207980000,22.3145870000 114.2221090000,22.3140910000 114.2225480000,22.3139290000 114.2226260000,22.3139020000 114.2228740000,22.3138120000 114.2229970000,22.3137680000 114.2233960000,22.3136260000 114.2238220000,22.3134600000 114.2239170000,22.3134230000 114.2243810000,22.3132350000 114.2245350000,22.3131710000 114.2247610000,22.3130640000 114.2252690000,22.3128550000 114.2254140000,22.3127880000 114.2258650000,22.3125770000 114.2261610000,22.3124330000 114.2265970000,22.3121950000 114.2268640000,22.3120370000 114.2271200000,22.3118680000 114.2281810000,22.3111980000 114.2286470000,22.3108920000 114.2291210000,22.3105900000 114.2295670000,22.3103120000 114.2296600000,22.3102540000 114.2299940000,22.3100440000 114.2301770000,22.3099440000 114.2304940000,22.3097300000 114.2304960000,22.3097260000 114.2305890000,22.3096630000 114.2308120000,22.3095100000 114.2310960000,22.3093270000 114.2313660000,22.3091040000 114.2315360000,22.3089900000 114.2317150000,22.3088340000 114.2319800000,22.3085380000 114.2325960000,22.3078270000 114.2327220000,22.3076760000 114.2333660000,22.3069280000 114.2334890000,22.3067880000 114.2335770000,22.3066820000 114.2336190000,22.3066330000 114.2336590000,22.3065840000 114.2336900000,22.3065470000 114.2340050000,22.3061690000 114.2340540000,22.3061060000 114.2341350000,22.3060090000 114.2343810000,22.3057370000 114.2347980000,22.3053090000 114.2349100000,22.3051840000 114.2351560000,22.3049100000 114.2352750000,22.3047920000 114.2353490000,22.3047110000 114.2353930000,22.3046910000 114.2354560000,22.3046470000 114.2355070000,22.3045920000 114.2355430000,22.3045270000 114.2355550000,22.3044940000 114.2355620000,22.3044610000 114.2357980000,22.3041710000 114.2359780000,22.3039650000 114.2361370000,22.3037630000 114.2362480000,22.3036230000 114.2364040000,22.3034160000 114.2365300000,22.3032570000 114.2366600000,22.3030720000 114.2370080000,22.3025820000 114.2370740000,22.3025010000 114.2373460000,22.3021380000 114.2381440000,22.3010340000 114.2383110000,22.3007560000 114.2383240000,22.3007350000 114.2383960000,22.3006030000 114.2385100000,22.3003490000 114.2385830000,22.3001380000 114.2386600000,22.2999140000 114.2387170000,22.2997490000 114.2388330000,22.2994140000 114.2392690000,22.2981520000 114.2395060000,22.2974660000 114.2396160000,22.2971460000 114.2400830000,22.2957640000 114.2401160000,22.2956000000 114.2401260000,22.2955300000 114.2401370000,22.2954870000 114.2401530000,22.2954610000 114.2401610000,22.2954310000 114.2401620000,22.2954010000 114.2401530000,22.2953710000 114.2401310000,22.2953380000 114.2400990000,22.2953130000 114.2400600000,22.2952990000 114.2400180000,22.2952970000 114.2399770000,22.2953080000 114.2399640000,22.2953170000 114.2398640000,22.2953040000 114.2397490000,22.2952960000 114.2396120000,22.2952990000 114.2395360000,22.2953030000 114.2394160000,22.2953220000 114.2392690000,22.2953590000 114.2387020000,22.2954630000 114.2386370000,22.2954750000 114.2385330000,22.2954960000 114.2382240000,22.2955600000 114.2381210000,22.2955820000 114.2381420000,22.2956820000 114.2381420000,22.2957960000 114.2381220000,22.2959630000 114.2381200000,22.2959810000 114.2380570000,22.2961300000 114.2378610000,22.2964490000 114.2376800000,22.2967050000 114.2376190000,22.2967800000 114.2375720000,22.2968320000 114.2361980000,22.2987010000 114.2359950000,22.2989710000 114.2358180000,22.2991150000 114.2356420000,22.2992160000 114.2353910000,22.2993150000 114.2351770000,22.2993600000 114.2348680000,22.2993550000 114.2346650000,22.2993320000 114.2344670000,22.2992760000 114.2337940000,22.2992000000 114.2337780000,22.2991980000 114.2335060000,22.2991720000 114.2334160000,22.2991650000 114.2334060000,22.2992320000 114.2333870000,22.2993730000 114.2333860000,22.2994280000 114.2333960000,22.2995110000 114.2334170000,22.2995890000 114.2334310000,22.2996140000 114.2334810000,22.2997000000 114.2335900000,22.2998210000 114.2337690000,22.2999340000 114.2339690000,22.3000180000 114.2341630000,22.3000790000 114.2354180000,22.3004140000 114.2357060000,22.3005000000 114.2358240000,22.3005320000 114.2358620000,22.3005480000 114.2359950000,22.3006120000 114.2363470000,22.3008320000 114.2364260000,22.3009400000 114.2364390000,22.3009600000 114.2364930000,22.3010850000 114.2365290000,22.3012020000 114.2365430000,22.3013420000 114.2365450000,22.3014510000 114.2365230000,22.3016970000 114.2364850000,22.3019080000 114.2364850000,22.3020490000 114.2365430000,22.3021740000 114.2366020000,22.3022730000 114.2366950000,22.3023690000 114.2367730000,22.3025010000 114.2367870000,22.3025280000 114.2367990000,22.3026230000 114.2368000000,22.3027030000 114.2365590000,22.3030250000 114.2364380000,22.3031960000 114.2363540000,22.3033080000 114.2360410000,22.3036900000 114.2358430000,22.3039320000 114.2357360000,22.3040650000 114.2356840000,22.3041080000 114.2356480000,22.3041310000 114.2356010000,22.3041550000 114.2355450000,22.3041650000 114.2354370000,22.3041650000 114.2353570000,22.3041200000 114.2352670000,22.3040970000 114.2351740000,22.3040970000 114.2351060000,22.3041110000 114.2350440000,22.3041380000 114.2349810000,22.3041820000 114.2349300000,22.3042390000 114.2348950000,22.3043040000 114.2348760000,22.3043750000 114.2348760000,22.3044490000 114.2348560000,22.3046520000 114.2347940000,22.3048040000 114.2347440000,22.3048910000 114.2344320000,22.3052760000 114.2342510000,22.3054790000 114.2341860000,22.3055470000 114.2341390000,22.3056020000 114.2329220000,22.3070300000 114.2324240000,22.3076520000 114.2319310000,22.3082190000 114.2315590000,22.3086570000 114.2313770000,22.3088390000 114.2310440000,22.3090920000 114.2309450000,22.3091600000 114.2306310000,22.3093760000 114.2304650000,22.3094820000 114.2303790000,22.3095340000 114.2301940000,22.3096550000 114.2299690000,22.3097930000 114.2298340000,22.3098760000 114.2297020000,22.3099630000 114.2292410000,22.3102660000 114.2290200000,22.3104170000 114.2288430000,22.3105360000 114.2287650000,22.3105870000 114.2286110000,22.3106880000 114.2281850000,22.3109640000 114.2278660000,22.3111700000 114.2270490000,22.3117960000 114.2266860000,22.3120260000 114.2264070000,22.3121870000 114.2258170000,22.3124850000 114.2252910000,22.3126800000 114.2246460000,22.3128940000 114.2241830000,22.3130760000 114.2235070000,22.3133410000 114.2230510000,22.3135200000 114.2222350000,22.3138190000 114.2211840000,22.3141970000 114.2206530000,22.3144230000 114.2199370000,22.3147400000 114.2181960000,22.3154090000 114.2172730000,22.3157140000 114.2170070000,22.3158230000 114.2165900000,22.3160100000 114.2163360000,22.3161610000 114.2160320000,22.3163460000 114.2158000000,22.3165230000 114.2156690000,22.3166440000 114.2155020000,22.3167930000 114.2153290000,22.3169920000 114.2151940000,22.3171960000 114.2151090000,22.3173450000 114.2149810000,22.3176320000 114.2148640000,22.3179760000 114.2147770000,22.3183500000 114.2147400000,22.3185790000 114.2146790000,22.3193310000 114.2146600000,22.3195580000 114.2144550000,22.3216390000 114.2143860000,22.3223370000 114.2141670000,22.3244710000 114.2141580000,22.3245460000 114.2140790000,22.3253430000 114.2140040000,22.3257270000 114.2139600000,22.3258950000 114.2138420000,22.3261750000 114.2135700000,22.3267250000 114.2134330000,22.3270690000 114.2133830000,22.3272390000 114.2129550000,22.3279110000 114.2126050000,22.3282920000 114.2124310000,22.3284610000 114.2112230000,22.3294250000 114.2111030000,22.3295990000 114.2109560000,22.3297180000 114.2102850000,22.3303220000 114.2095940000,22.3309020000 114.2094020000,22.3310460000 114.2089830000,22.3313820000 114.2085780000,22.3317250000 114.2077620000,22.3324250000 114.2076570000,22.3325420000 114.2075840000,22.3326810000 114.2075460000,22.3328340000 114.2075370000,22.3329780000 114.2075490000,22.3331410000 114.2076430000,22.3333550000 114.2077710000,22.3335460000 114.2079020000,22.3337230000 114.2080320000,22.3339030000 114.2081090000,22.3340630000 114.2081310000,22.3341440000 114.2081460000,22.3342360000 114.2081470000,22.3343140000 114.2081410000,22.3344140000 114.2080980000,22.3345960000 114.2080490000,22.3347250000 114.2079540000,22.3349340000 114.2073910000,22.3361300000 114.2073310000,22.3362310000 114.2072640000,22.3363180000 114.2071770000,22.3364180000 114.2070330000,22.3365360000 114.2068360000,22.3366820000 114.2065980000,22.3368240000 114.2058220000,22.3372860000 114.2048450000,22.3378630000 114.2033930000,22.3387210000 114.2029090000,22.3389990000 114.2028670000,22.3390220000 114.2023130000,22.3393480000 114.2022820000,22.3393660000 114.2019440000,22.3395080000 114.2015980000,22.3396600000 114.2013390000,22.3397800000 114.2012010000,22.3398550000 114.2010780000,22.3399330000 114.2009950000,22.3399900000 114.2009100000,22.3400510000 114.2007820000,22.3401520000 114.2005820000,22.3403130000 114.2004860000,22.3403930000 114.2001110000,22.3406470000 114.1996590000,22.3409170000 114.1991220000,22.3412210000 114.1989070000,22.3413350000 114.1986750000,22.3414190000 114.1984530000,22.3415150000 114.1982130000,22.3415850000 114.1978650000,22.3416190000 114.1975150000,22.3416490000 114.1966610000,22.3416600000 114.1958210000,22.3416580000 114.1956640000,22.3416580000 114.1955220000,22.3416570000 114.1924510000,22.3416280000 114.1919230000,22.3416100000 114.1916870000,22.3416060000 114.1915690000,22.3416060000 114.1914520000,22.3416050000 114.1911270000,22.3416250000 114.1908750000,22.3416730000 114.1906570000,22.3417450000 114.1904920000,22.3418110000 114.1897670000,22.3421530000 114.1893730000,22.3423270000 114.1889930000,22.3423970000 114.1886880000,22.3424180000 114.1884710000,22.3424320000 114.1875170000,22.3424300000 114.1867250000,22.3424410000 114.1863010000,22.3424730000 114.1856720000,22.3425860000 114.1854220000,22.3426580000 114.1849890000,22.3427940000 114.1841130000,22.3431610000 114.1837920000,22.3433060000 114.1833190000,22.3435730000 114.1829600000,22.3438240000 114.1828630000,22.3438840000 114.1827840000,22.3439320000 114.1827380000,22.3439590000 114.1826570000,22.3439950000 114.1825750000,22.3440270000 114.1824900000,22.3440530000 114.1823910000,22.3440740000 114.1822850000,22.3440830000 114.1821470000,22.3440880000 114.1819010000,22.3440850000 114.1809550000,22.3440150000 114.1800600000,22.3440080000 114.1797930000,22.3440320000 114.1795670000,22.3440680000 114.1793300000,22.3441200000 114.1790560000,22.3441910000 114.1787900000,22.3442810000 114.1779280000,22.3446190000 114.1777690000,22.3446690000 114.1775780000,22.3447070000 114.1773820000,22.3447200000 114.1771540000,22.3447010000 114.1768970000,22.3446330000 114.1759000000,22.3443210000 114.1757270000,22.3442560000 114.1755780000,22.3441760000 114.1754120000,22.3440510000 114.1752930000,22.3439240000 114.1752030000,22.3437750000 114.1748210000,22.3431390000 114.1747360000,22.3430290000 114.1746100000,22.3428770000 114.1744690000,22.3427530000 114.1743100000,22.3426510000 114.1741510000,22.3425770000 114.1739850000,22.3425200000 114.1738440000,22.3425030000 114.1736660000,22.3424940000 114.1734200000,22.3425380000 114.1732640000,22.3425750000 114.1731250000,22.3426170000 114.1729430000,22.3427050000 114.1723510000,22.3430880000 114.1722070000,22.3431590000 114.1720780000,22.3432030000 114.1719320000,22.3432500000 114.1718040000,22.3432690000 114.1716860000,22.3432780000 114.1715690000,22.3432770000 114.1714350000,22.3432600000 114.1713070000,22.3432270000 114.1711970000,22.3431840000 114.1711020000,22.3431310000 114.1710120000,22.3430720000 114.1708890000,22.3429780000 114.1706260000,22.3427190000 114.1704220000,22.3425010000 114.1699620000,22.3420690000 114.1694490000,22.3415410000 114.1693270000,22.3414250000 114.1692030000,22.3413310000 114.1690860000,22.3412520000 114.1689330000,22.3411650000 114.1687640000,22.3410980000 114.1686140000,22.3410550000 114.1684660000,22.3410370000 114.1683150000,22.3410300000 114.1681540000,22.3410490000 114.1680280000,22.3410740000 114.1678650000,22.3411220000 114.1676980000,22.3411910000 114.1668350000,22.3416210000 114.1667110000,22.3416850000 114.1665720000,22.3417560000 114.1664070000,22.3418190000 114.1662880000,22.3418540000 114.1661510000,22.3418790000 114.1659600000,22.3419030000 114.1657280000,22.3419140000 114.1652790000,22.3419070000 114.1646000000,22.3418750000 114.1644170000,22.3418560000 114.1642460000,22.3418310000 114.1640610000,22.3417900000 114.1638820000,22.3417390000 114.1636810000,22.3416680000 114.1634660000,22.3415750000 114.1631320000,22.3414180000 114.1627710000,22.3412590000 114.1625530000,22.3411730000 114.1622960000,22.3411020000 114.1620110000,22.3410440000 114.1617160000,22.3410250000 114.1614370000,22.3410310000 114.1612000000,22.3410610000 114.1609450000,22.3411290000 114.1606890000,22.3412190000 114.1605040000,22.3413080000 114.1603610000,22.3414020000 114.1602270000,22.3415030000 114.1600600000,22.3416480000 114.1599200000,22.3417840000 114.1595910000,22.3421560000 114.1594570000,22.3422990000 114.1593490000,22.3424050000 114.1592300000,22.3425000000 114.1590960000,22.3425810000 114.1589260000,22.3426640000 114.1587340000,22.3427320000 114.1585780000,22.3427760000 114.1583820000,22.3428150000 114.1581200000,22.3428430000 114.1578230000,22.3428530000 114.1574960000,22.3428360000 114.1572960000,22.3428180000 114.1567660000,22.3427710000 114.1565860000,22.3427520000 114.1564280000,22.3427340000 114.1561290000,22.3427140000 114.1558810000,22.3427140000 114.1556090000,22.3427320000 114.1551680000,22.3427880000 114.1549500000,22.3427930000 114.1547950000,22.3427870000 114.1546030000,22.3427550000 114.1544320000,22.3427110000 114.1539990000,22.3425520000 114.1536980000,22.3424250000 114.1509700000,22.3412490000 114.1505350000,22.3410710000 114.1500930000,22.3408870000 114.1498310000,22.3407830000 114.1496330000,22.3407010000 114.1492640000,22.3405710000 114.1487650000,22.3404020000 114.1472160000,22.3399700000 114.1469300000,22.3398970000 114.1466690000,22.3398570000 114.1463180000,22.3398320000 114.1455850000,22.3398140000 114.1453110000,22.3398360000 114.1450780000,22.3398850000 114.1448680000,22.3399770000 114.1447450000,22.3400500000 114.1446390000,22.3401350000 114.1445300000,22.3402420000 114.1441970000,22.3406980000 114.1441110000,22.3408110000 114.1440340000,22.3408970000 114.1439820000,22.3409430000 114.1439060000,22.3410000000 114.1437720000,22.3410560000 114.1436270000,22.3410950000 114.1435470000,22.3411080000 114.1434300000,22.3411090000 114.1433470000,22.3410990000 114.1432000000,22.3410730000 114.1429990000,22.3410070000 114.1427900000,22.3408930000 114.1425460000,22.3407080000 114.1418420000,22.3400970000 114.1417020000,22.3400050000 114.1413940000,22.3398740000 114.1412340000,22.3398470000 114.1410360000,22.3398390000 114.1408280000,22.3398550000 114.1406170000,22.3399190000 114.1403200000,22.3400310000 114.1399660000,22.3402170000 114.1390790000,22.3408220000 114.1387950000,22.3409890000 114.1384860000,22.3411350000 114.1381500000,22.3412550000 114.1379970000,22.3412930000 114.1378480000,22.3413160000 114.1376760000,22.3413210000 114.1374900000,22.3413090000 114.1372610000,22.3412580000 114.1370550000,22.3411850000 114.1369150000,22.3411080000 114.1367940000,22.3410270000 114.1365860000,22.3408270000 114.1363900000,22.3402970000 114.1362210000,22.3396570000 114.1361060000,22.3391020000 114.1360550000,22.3387210000 114.1360460000,22.3384780000 114.1360890000,22.3380640000 114.1360940000,22.3378930000 114.1360660000,22.3375860000 114.1360230000,22.3373800000 114.1359920000,22.3372220000 114.1358870000,22.3368620000 114.1356660000,22.3362620000 114.1355740000,22.3360490000 114.1355630000,22.3360300000 114.1354450000,22.3358220000 114.1353490000,22.3356940000 114.1352720000,22.3356130000 114.1351930000,22.3355320000 114.1350470000,22.3354150000 114.1348860000,22.3353250000 114.1347640000,22.3352680000 114.1346510000,22.3352280000 114.1345290000,22.3351850000 114.1343880000,22.3351510000 114.1342250000,22.3351310000 114.1340760000,22.3351260000 114.1338890000,22.3351310000 114.1337130000,22.3351580000 114.1335140000,22.3352100000 114.1333480000,22.3352740000 114.1331810000,22.3353580000 114.1330670000,22.3354300000 114.1329450000,22.3355330000 114.1328470000,22.3356230000 114.1327460000,22.3357410000 114.1326520000,22.3358750000 114.1325760000,22.3360100000 114.1324940000,22.3361850000 114.1324350000,22.3363490000 114.1323820000,22.3365190000 114.1322850000,22.3368760000 114.1322250000,22.3370820000 114.1321510000,22.3373000000 114.1320370000,22.3376300000 114.1318910000,22.3379940000 114.1317450000,22.3383260000 114.1315600000,22.3387620000 114.1312770000,22.3394790000 114.1311420000,22.3398180000 114.1310790000,22.3401370000 114.1310470000,22.3402070000 114.1308880000,22.3405740000 114.1307190000,22.3409130000 114.1305230000,22.3412450000 114.1302290000,22.3416960000 114.1300150000,22.3419730000 114.1297900000,22.3422150000 114.1296350000,22.3423570000 114.1294840000,22.3425000000 114.1293200000,22.3426370000 114.1291160000,22.3427790000 114.1288580000,22.3429320000 114.1285800000,22.3430670000 114.1282990000,22.3432080000 114.1280790000,22.3433120000 114.1275730000,22.3435180000 114.1272420000,22.3436620000 114.1269010000,22.3438300000 114.1265480000,22.3440350000 114.1261970000,22.3442850000 114.1259420000,22.3444920000 114.1256990000,22.3447270000 114.1254680000,22.3449730000 114.1252700000,22.3452380000 114.1250080000,22.3455860000 114.1248240000,22.3458870000 114.1246430000,22.3463590000 114.1244800000,22.3469000000 114.1244150000,22.3472210000 114.1243800000,22.3475480000 114.1243660000,22.3478910000 114.1243750000,22.3483980000 114.1243460000,22.3492150000 114.1242840000,22.3496110000 114.1241960000,22.3499950000 114.1240920000,22.3503190000 114.1239530000,22.3506300000 114.1237610000,22.3509160000 114.1234880000,22.3512340000 114.1230260000,22.3516520000 114.1228280000,22.3518040000 114.1226080000,22.3519350000 114.1221550000,22.3521050000 114.1217180000,22.3522390000 114.1214310000,22.3523020000 114.1211440000,22.3523490000 114.1207110000,22.3523730000 114.1203330000,22.3523730000 114.1199880000,22.3523650000 114.1194960000,22.3522790000 114.1191870000,22.3522180000 114.1188760000,22.3521210000 114.1185250000,22.3519850000 114.1181990000,22.3518490000 114.1179480000,22.3517290000 114.1175950000,22.3515240000 114.1171200000,22.3512030000 114.1167670000,22.3509350000 114.1163940000,22.3506770000 114.1161560000,22.3505160000 114.1158850000,22.3503530000 114.1156120000,22.3502090000 114.1153200000,22.3500660000 114.1151020000,22.3499700000 114.1121710000,22.3488580000 114.1114850000,22.3485670000 114.1108420000,22.3482640000 114.1067700000,22.3461380000 114.1065040000,22.3460130000 114.1062830000,22.3459150000 114.1060100000,22.3457980000 114.1057500000,22.3456900000 114.1055200000,22.3456000000 114.1053160000,22.3455250000 114.1050600000,22.3454400000 114.1048010000,22.3453580000 114.1045000000,22.3452660000 114.1042000000,22.3451750000 114.1039000000,22.3450920000 114.1036000000,22.3450220000 114.1033000000,22.3449580000 114.1030000000,22.3449000000 114.1026000000,22.3448350000 114.1020600000,22.3447660000 114.1017660000,22.3447330000 114.1014700000,22.3447070000 114.1011840000,22.3446860000 114.1009000000,22.3446750000 114.1003400000,22.3446570000 114.0957200000,22.3446110000 114.0956240000,22.3446120000 114.0944430000,22.3446090000 114.0943500000,22.3446090000 114.0937600000,22.3445980000 114.0932450000,22.3446000000 114.0929810000,22.3446070000 114.0927640000,22.3446250000 114.0924930000,22.3446550000 114.0921460000,22.3447160000 114.0920330000,22.3447350000 114.0918930000,22.3447670000 114.0917140000,22.3448180000 114.0915160000,22.3448850000 114.0912310000,22.3449890000 114.0909600000,22.3451060000 114.0906860000,22.3452240000 114.0903900000,22.3453580000 114.0901860000,22.3454620000 114.0897600000,22.3456670000 114.0895210000,22.3457890000 114.0893050000,22.3459100000 114.0889220000,22.3461740000 114.0885700000,22.3464410000 114.0882590000,22.3467350000 114.0881270000,22.3468140000 114.0878070000,22.3471650000 114.0875500000,22.3475690000 114.0873430000,22.3479580000 114.0871970000,22.3483340000 114.0870280000,22.3489680000 114.0868630000,22.3496330000 114.0867930000,22.3498930000 114.0866620000,22.3504730000 114.0865950000,22.3507390000 114.0865170000,22.3509830000 114.0863840000,22.3512760000 114.0862900000,22.3514840000 114.0861000000,22.3518620000 114.0857890000,22.3524070000 114.0854520000,22.3530980000 114.0847120000,22.3546080000 114.0839530000,22.3559680000 114.0837450000,22.3564090000 114.0835520000,22.3568150000 114.0827160000,22.3583350000 114.0823470000,22.3590330000 114.0817280000,22.3601470000 114.0784010000,22.3664850000 114.0777670000,22.3675880000 114.0777150000,22.3677360000 114.0774160000,22.3683250000 114.0773160000,22.3685090000 114.0770930000,22.3688420000 114.0769400000,22.3690480000 114.0767580000,22.3692520000 114.0765560000,22.3694450000 114.0763760000,22.3695940000 114.0761870000,22.3697450000 114.0760250000,22.3698660000 114.0757800000,22.3700540000 114.0755210000,22.3702260000 114.0752510000,22.3703950000 114.0734230000,22.3715160000 114.0714360000,22.3727580000 114.0700810000,22.3735450000 114.0691650000,22.3740570000 114.0686690000,22.3743500000 114.0680660000,22.3746770000 114.0674440000,22.3750520000 114.0671190000,22.3752480000 114.0669000000,22.3753850000 114.0667150000,22.3755200000 114.0665630000,22.3756400000 114.0664200000,22.3757600000 114.0662790000,22.3758800000 114.0661410000,22.3760010000 114.0660170000,22.3761210000 114.0658870000,22.3762500000 114.0657670000,22.3763700000 114.0656400000,22.3765000000 114.0655140000,22.3766300000 114.0653940000,22.3767600000 114.0652830000,22.3768900000 114.0651700000,22.3770250000 114.0650620000,22.3771600000 114.0649600000,22.3772950000 114.0648600000,22.3774300000 114.0647660000,22.3775610000 114.0646670000,22.3777000000 114.0645780000,22.3778300000 114.0644870000,22.3779700000 114.0643920000,22.3781210000 114.0643070000,22.3782700000 114.0642190000,22.3784300000 114.0641320000,22.3785900000 114.0640530000,22.3787400000 114.0639750000,22.3789000000 114.0639000000,22.3790600000 114.0638300000,22.3792200000 114.0637600000,22.3793850000 114.0636900000,22.3795600000 114.0636290000,22.3797200000 114.0635680000,22.3799000000 114.0635100000,22.3800800000 114.0634500000,22.3802800000 114.0633950000,22.3804800000 114.0633400000,22.3807000000 114.0632940000,22.3809100000 114.0632710000,22.3810420000 114.0593990000,22.4053980000 114.0593770000,22.4055790000 114.0593560000,22.4058000000 114.0593450000,22.4060000000 114.0593400000,22.4062000000 114.0593380000,22.4063500000 114.0593370000,22.4065000000 114.0593370000,22.4066500000 114.0593410000,22.4068000000 114.0593500000,22.4069800000 114.0593600000,22.4071500000 114.0593800000,22.4073700000 114.0594000000,22.4075600000 114.0594200000,22.4077300000 114.0594450000,22.4079000000 114.0594710000,22.4080600000 114.0595100000,22.4082430000 114.0595450000,22.4084000000 114.0595900000,22.4086000000 114.0596400000,22.4088000000 114.0596880000,22.4089500000 114.0597400000,22.4091000000 114.0597940000,22.4092500000 114.0598500000,22.4094000000 114.0599200000,22.4095600000 114.0599900000,22.4097100000 114.0600640000,22.4098600000 114.0601400000,22.4100100000 114.0602250000,22.4101600000 114.0603170000,22.4103100000 114.0603800000,22.4104100000 114.0604160000,22.4104600000 114.0605880000,22.4107290000 114.0621750000,22.4131710000 114.0623450000,22.4134530000 114.0624790000,22.4137160000 114.0626320000,22.4140050000 114.0627740000,22.4143430000 114.0629310000,22.4147790000 114.0630260000,22.4150800000 114.0631030000,22.4153860000 114.0631600000,22.4156780000 114.0632030000,22.4159050000 114.0632440000,22.4161640000 114.0633070000,22.4166640000 114.0633480000,22.4172350000 114.0633840000,22.4182370000 114.0634610000,22.4189950000 114.0634650000,22.4190400000 114.0636610000,22.4200300000 114.0638150000,22.4206580000 114.0639010000,22.4209710000 114.0639970000,22.4213920000 114.0640270000,22.4215360000 114.0640500000,22.4216920000 114.0640990000,22.4220490000 114.0641190000,22.4232790000 114.0640870000,22.4259440000 114.0640220000,22.4268200000 114.0639200000,22.4277240000 114.0637770000,22.4285930000 114.0635410000,22.4296160000 114.0632550000,22.4305100000 114.0629540000,22.4313360000 114.0626350000,22.4320300000 114.0622920000,22.4327040000 114.0618090000,22.4334780000 114.0612940000,22.4342310000 114.0607250000,22.4349550000 114.0600050000,22.4357480000 114.0595240000,22.4362250000 114.0592950000,22.4364300000 114.0588160000,22.4368590000 114.0581290000,22.4374250000 114.0573570000,22.4380100000 114.0565380000,22.4385440000 114.0551350000,22.4395660000 114.0528590000,22.4413090000 114.0525830000,22.4415180000 114.0521860000,22.4418550000 114.0517580000,22.4422580000 114.0512860000,22.4427720000 114.0509410000,22.4431830000 114.0506780000,22.4435630000 114.0503510000,22.4440780000 114.0500900000,22.4445150000 114.0499770000,22.4446820000 114.0495570000,22.4453350000 114.0493430000,22.4457020000 114.0492100000,22.4459480000 114.0491070000,22.4461390000 114.0489680000,22.4464660000 114.0488980000,22.4466070000 114.0488070000,22.4467930000 114.0486350000,22.4470910000 114.0484420000,22.4473390000 114.0482060000,22.4475670000 114.0479910000,22.4477450000 114.0476800000,22.4479530000 114.0473470000,22.4481620000 114.0469830000,22.4483400000 114.0466070000,22.4485090000 114.0462420000,22.4486530000 114.0458790000,22.4487470000 114.0454360000,22.4488420000 114.0447490000,22.4489710000 114.0443780000,22.4489780000 114.0439690000,22.4489680000 114.0437270000,22.4489350000 114.0434590000,22.4488890000 114.0431640000,22.4488250000 114.0429890000,22.4487850000 114.0426850000,22.4486910000 114.0422390000,22.4484970000 114.0418980000,22.4483110000 114.0415410000,22.4480890000 114.0412110000,22.4478540000 114.0409350000,22.4476020000 114.0407150000,22.4473650000 114.0405780000,22.4472030000 114.0404890000,22.4470790000 114.0402380000,22.4468060000 114.0400800000,22.4465500000 114.0399430000,22.4463000000 114.0397760000,22.4459130000 114.0396400000,22.4455000000 114.0395850000,22.4452430000 114.0395260000,22.4448490000 114.0395020000,22.4445300000 114.0394890000,22.4432020000 114.0394880000,22.4427990000 114.0394980000,22.4415640000 114.0394620000,22.4412790000 114.0394500000,22.4410340000 114.0394140000,22.4407930000 114.0393740000,22.4405640000 114.0393190000,22.4402820000 114.0391440000,22.4397690000 114.0390540000,22.4395620000 114.0387740000,22.4390690000 114.0384790000,22.4386760000 114.0381830000,22.4383230000 114.0378910000,22.4380200000 114.0369850000,22.4372740000 114.0348580000,22.4354900000 114.0342830000,22.4350410000 114.0340150000,22.4348820000 114.0337870000,22.4347480000 114.0335090000,22.4346070000 114.0331650000,22.4344530000 114.0326500000,22.4342620000 114.0322590000,22.4341520000 114.0315560000,22.4339950000 114.0309880000,22.4339380000 114.0303840000,22.4339350000 114.0299470000,22.4339530000 114.0294670000,22.4340150000 114.0290930000,22.4340770000 114.0280700000,22.4342510000 114.0262680000,22.4345650000 114.0250160000,22.4347900000 114.0246180000,22.4348550000 114.0229500000,22.4351510000 114.0215820000,22.4354010000 114.0200120000,22.4357530000 114.0194590000,22.4358980000 114.0189460000,22.4360560000 114.0184760000,22.4362460000 114.0179420000,22.4365000000 114.0176390000,22.4366450000 114.0174110000,22.4367490000 114.0171200000,22.4368900000 114.0166590000,22.4371230000 114.0158300000,22.4373590000 114.0156760000,22.4373870000 114.0155650000,22.4373870000 114.0154490000,22.4373880000 114.0153380000,22.4373670000 114.0152450000,22.4373430000 114.0151340000,22.4372930000 114.0149760000,22.4372060000 114.0147160000,22.4370410000 114.0146420000,22.4370000000 114.0145590000,22.4369670000 114.0144000000,22.4369440000 114.0142750000,22.4369610000 114.0141520000,22.4370000000 114.0140580000,22.4370620000 114.0139810000,22.4371660000 114.0139390000,22.4372990000 114.0139280000,22.4374070000 114.0139310000,22.4374820000 114.0139380000,22.4376470000 114.0139910000,22.4377790000 114.0141730000,22.4380590000 114.0142730000,22.4381900000 114.0144070000,22.4383050000 114.0145100000,22.4383940000 114.0146380000,22.4384590000 114.0147530000,22.4385140000 114.0149670000,22.4386140000 114.0152030000,22.4387480000 114.0154630000,22.4389870000 114.0157360000,22.4393590000 114.0158820000,22.4398000000 114.0164700000,22.4419250000 114.0165730000,22.4422990000 114.0166660000,22.4427280000 114.0166990000,22.4430330000 114.0167130000,22.4433120000 114.0166780000,22.4439730000 114.0166480000,22.4443120000 114.0166180000,22.4447060000 114.0165450000,22.4452900000 114.0164930000,22.4455900000 114.0164090000,22.4458700000 114.0162750000,22.4461330000 114.0161240000,22.4463200000 114.0159230000,22.4465030000 114.0156360000,22.4466870000 114.0153100000,22.4468310000 114.0149510000,22.4469490000 114.0145700000,22.4470220000 114.0141810000,22.4470550000 114.0135180000,22.4470890000 114.0131350000,22.4471420000 114.0127040000,22.4472510000 114.0122950000,22.4474150000 114.0119440000,22.4476230000 114.0117280000,22.4477750000 114.0108840000,22.4484510000 114.0104290000,22.4488410000 114.0100990000,22.4491640000 114.0097020000,22.4496070000 114.0095340000,22.4498540000 114.0092530000,22.4503790000 114.0090590000,22.4509230000 114.0089630000,22.4511920000 114.0088600000,22.4513360000 114.0087660000,22.4514380000 114.0086620000,22.4515230000 114.0085050000,22.4515940000 114.0083360000,22.4515580000 114.0079380000,22.4514460000 114.0077860000,22.4513940000 114.0074880000,22.4512580000 114.0073130000,22.4511620000 114.0072380000,22.4511110000 114.0071520000,22.4510530000 114.0070830000,22.4511520000 114.0070160000,22.4512480000 114.0068560000,22.4515170000 114.0065700000,22.4520350000 114.0064680000,22.4522140000 114.0064000000,22.4523380000 114.0061430000,22.4528360000 114.0059150000,22.4532780000 114.0057920000,22.4535160000 114.0056920000,22.4537560000 114.0056230000,22.4540100000 114.0056150000,22.4541060000 114.0056070000,22.4542160000 114.0056530000,22.4544550000 114.0058740000,22.4550880000 114.0060950000,22.4556850000 114.0061520000,22.4559290000 114.0061610000,22.4561760000 114.0061350000,22.4563610000 114.0061120000,22.4564430000 114.0060610000,22.4565960000 114.0059650000,22.4567930000 114.0058430000,22.4569750000 114.0056500000,22.4571640000 114.0047240000,22.4578700000 114.0045920000,22.4579720000 114.0044940000,22.4580460000 114.0045700000,22.4581310000 114.0046420000,22.4582130000 114.0047730000,22.4583600000 114.0049980000,22.4585940000 114.0052020000,22.4588070000 114.0053030000,22.4589200000 114.0055890000,22.4592300000 114.0056370000,22.4592910000 114.0056560000,22.4593120000 114.0057020000,22.4593610000 114.0058540000,22.4595300000 114.0059850000,22.4596470000 114.0061610000,22.4597620000 114.0064220000,22.4600420000</coordinates>
                </LineString>
                <ExtendedData>
                    <Data name="duration">
                        <value>01:47:16</value>
                    </Data>
                    <Data name="length">
                        <value>84548.15563805518</value>
                    </Data>
                </ExtendedData>
            </Placemark>
        </Document>
    </Document>
</kml>