<?xml version="1.0" encoding="UTF-8"?>
<kml xmlns="http://www.opengis.net/kml/2.2" xmlns:gx="http://www.google.com/kml/ext/2.2">
    <Document>
        <name>Route</name>
        <Folder>
            <name>Route Request</name>
            <Placemark>
                <address>Long Ping Commercial Complex, Long Ping Road, Shui Tin Tsuen, Yuen Long Kau Hui, Wang Chau, Yuen Long District, Hong Kong, DD123 1933, PRC</address>
                <Point>
                    <coordinates>114.0228722305,22.4501653300</coordinates>
                </Point>
                <ExtendedData>
                    <Data name="village">
                        <value>Wang Chau</value>
                    </Data>
                    <Data name="county">
                        <value>Yuen Long District</value>
                    </Data>
                    <Data name="neighbourhood">
                        <value>Shui Tin Tsuen</value>
                    </Data>
                    <Data name="postcode">
                        <value>DD123 1933</value>
                    </Data>
                    <Data name="country_code">
                        <value>cn</value>
                    </Data>
                    <Data name="building">
                        <value>Long Ping Commercial Complex</value>
                    </Data>
                    <Data name="road">
                        <value>Long Ping Road</value>
                    </Data>
                    <Data name="suburb">
                        <value>Yuen Long Kau Hui</value>
                    </Data>
                    <Data name="country">
                        <value>PRC</value>
                    </Data>
                </ExtendedData>
            </Placemark>
            <Placemark>
                <address>Jing Hin Godowns(Yuen Ling)Ltd., 9, Hong Yip Street, Wang Chau Lam Uk Tsuen, Yuen Long Kau Hui, Sai Pin Wai, Yuen Long District, Hong Kong, DD123 1933, PRC</address>
                <Point>
                    <coordinates>114.0297126489,22.4508159085</coordinates>
                </Point>
                <ExtendedData>
                    <Data name="county">
                        <value>Yuen Long District</value>
                    </Data>
                    <Data name="neighbourhood">
                        <value>Wang Chau Lam Uk Tsuen</value>
                    </Data>
                    <Data name="hamlet">
                        <value>Sai Pin Wai</value>
                    </Data>
                    <Data name="postcode">
                        <value>DD123 1933</value>
                    </Data>
                    <Data name="country_code">
                        <value>cn</value>
                    </Data>
                    <Data name="building">
                        <value>Jing Hin Godowns(Yuen Ling)Ltd.</value>
                    </Data>
                    <Data name="road">
                        <value>Hong Yip Street</value>
                    </Data>
                    <Data name="house_number">
                        <value>9</value>
                    </Data>
                    <Data name="suburb">
                        <value>Yuen Long Kau Hui</value>
                    </Data>
                    <Data name="country">
                        <value>PRC</value>
                    </Data>
                </ExtendedData>
            </Placemark>
            <Placemark>
                <address>Tower 3, Long Ming Street, Shan Pui Chung Hau Tsuen, Yuen Long Kau Hui, Tai Wai Tsuen, Yuen Long District, Hong Kong, 00852, PRC</address>
                <Point>
                    <coordinates>114.0374574969,22.4455702485</coordinates>
                </Point>
                <ExtendedData>
                    <Data name="county">
                        <value>Yuen Long District</value>
                    </Data>
                    <Data name="neighbourhood">
                        <value>Shan Pui Chung Hau Tsuen</value>
                    </Data>
                    <Data name="hamlet">
                        <value>Tai Wai Tsuen</value>
                    </Data>
                    <Data name="postcode">
                        <value>00852</value>
                    </Data>
                    <Data name="address29">
                        <value>Tower 3</value>
                    </Data>
                    <Data name="country_code">
                        <value>cn</value>
                    </Data>
                    <Data name="road">
                        <value>Long Ming Street</value>
                    </Data>
                    <Data name="suburb">
                        <value>Yuen Long Kau Hui</value>
                    </Data>
                    <Data name="country">
                        <value>PRC</value>
                    </Data>
                </ExtendedData>
            </Placemark>
            <Placemark>
                <address>Pok Oi Hospital, Long Fai Road, Shan Pui Chung Hau Tsuen, Au Tau, Small Traders New Village, Yuen Long District, Hong Kong, DD115 568, PRC</address>
                <Point>
                    <coordinates>114.0415509974,22.4456539635</coordinates>
                </Point>
                <ExtendedData>
                    <Data name="county">
                        <value>Yuen Long District</value>
                    </Data>
                    <Data name="neighbourhood">
                        <value>Shan Pui Chung Hau Tsuen</value>
                    </Data>
                    <Data name="hamlet">
                        <value>Small Traders New Village</value>
                    </Data>
                    <Data name="postcode">
                        <value>DD115 568</value>
                    </Data>
                    <Data name="country_code">
                        <value>cn</value>
                    </Data>
                    <Data name="hospital">
                        <value>Pok Oi Hospital</value>
                    </Data>
                    <Data name="road">
                        <value>Long Fai Road</value>
                    </Data>
                    <Data name="suburb">
                        <value>Au Tau</value>
                    </Data>
                    <Data name="country">
                        <value>PRC</value>
                    </Data>
                </ExtendedData>
            </Placemark>
            <Placemark>
                <address>Cross Boundary Shuttle Bus San Tin Terminus, Castle Peak Road – Chau Tau, Lok Ma Chau, Chau Tau Tsuen, Yuen Long District, Hong Kong, DD105 1275, PRC</address>
                <Point>
                    <coordinates>114.0822229241,22.5028347735</coordinates>
                </Point>
                <ExtendedData>
                    <Data name="county">
                        <value>Yuen Long District</value>
                    </Data>
                    <Data name="hamlet">
                        <value>Chau Tau Tsuen</value>
                    </Data>
                    <Data name="postcode">
                        <value>DD105 1275</value>
                    </Data>
                    <Data name="country_code">
                        <value>cn</value>
                    </Data>
                    <Data name="building">
                        <value>Cross Boundary Shuttle Bus San Tin Terminus</value>
                    </Data>
                    <Data name="road">
                        <value>Castle Peak Road – Chau Tau</value>
                    </Data>
                    <Data name="suburb">
                        <value>Lok Ma Chau</value>
                    </Data>
                    <Data name="country">
                        <value>PRC</value>
                    </Data>
                </ExtendedData>
            </Placemark>
            <Placemark>
                <address>龍山隧道萊洞出入口 Loi Tung Entrance and exit of Lung Shan Tunnel, Lung Shan Tunnel, Tin Sam, Kwan Tei, San Uk Tsai, North District, Hong Kong, DD76 2589, PRC</address>
                <Point>
                    <coordinates>114.1821112008,22.5177400043</coordinates>
                </Point>
                <ExtendedData>
                    <Data name="county">
                        <value>North District</value>
                    </Data>
                    <Data name="neighbourhood">
                        <value>Tin Sam</value>
                    </Data>
                    <Data name="hamlet">
                        <value>San Uk Tsai</value>
                    </Data>
                    <Data name="postcode">
                        <value>DD76 2589</value>
                    </Data>
                    <Data name="country_code">
                        <value>cn</value>
                    </Data>
                    <Data name="building">
                        <value>龍山隧道萊洞出入口 Loi Tung Entrance and exit of Lung Shan Tunnel</value>
                    </Data>
                    <Data name="road">
                        <value>Lung Shan Tunnel</value>
                    </Data>
                    <Data name="suburb">
                        <value>Kwan Tei</value>
                    </Data>
                    <Data name="country">
                        <value>PRC</value>
                    </Data>
                </ExtendedData>
            </Placemark>
            <Placemark>
                <address>Ng Chow South Road, Ta Kwu Ling, Ping Che, North District, Hong Kong, DD76 2581, PRC</address>
                <Point>
                    <coordinates>114.1644251224,22.5253909442</coordinates>
                </Point>
                <ExtendedData>
                    <Data name="village">
                        <value>Ping Che</value>
                    </Data>
                    <Data name="county">
                        <value>North District</value>
                    </Data>
                    <Data name="postcode">
                        <value>DD76 2581</value>
                    </Data>
                    <Data name="country_code">
                        <value>cn</value>
                    </Data>
                    <Data name="road">
                        <value>Ng Chow South Road</value>
                    </Data>
                    <Data name="suburb">
                        <value>Ta Kwu Ling</value>
                    </Data>
                    <Data name="country">
                        <value>PRC</value>
                    </Data>
                </ExtendedData>
            </Placemark>
            <Placemark>
                <address>Sha Tau Kok Road – Ma Mei Ha, Kwan Tei, Ng Uk Tsuen, North District, Hong Kong, DD76 2581, PRC</address>
                <Point>
                    <coordinates>114.1776161277,22.5211829382</coordinates>
                </Point>
                <ExtendedData>
                    <Data name="county">
                        <value>North District</value>
                    </Data>
                    <Data name="hamlet">
                        <value>Ng Uk Tsuen</value>
                    </Data>
                    <Data name="postcode">
                        <value>DD76 2581</value>
                    </Data>
                    <Data name="country_code">
                        <value>cn</value>
                    </Data>
                    <Data name="road">
                        <value>Sha Tau Kok Road – Ma Mei Ha</value>
                    </Data>
                    <Data name="suburb">
                        <value>Kwan Tei</value>
                    </Data>
                    <Data name="country">
                        <value>PRC</value>
                    </Data>
                </ExtendedData>
            </Placemark>
            <Placemark>
                <address>九龍坑隧道通風樓 Kau Lung Hang Ventilation Building, Lung Shan Tunnel, Tin Sam, Kwan Tei, San Uk Tsai, North District, Hong Kong, DD76 2589, PRC</address>
                <Point>
                    <coordinates>114.1555384356,22.4843043727</coordinates>
                </Point>
                <ExtendedData>
                    <Data name="county">
                        <value>North District</value>
                    </Data>
                    <Data name="neighbourhood">
                        <value>Tin Sam</value>
                    </Data>
                    <Data name="hamlet">
                        <value>San Uk Tsai</value>
                    </Data>
                    <Data name="postcode">
                        <value>DD76 2589</value>
                    </Data>
                    <Data name="country_code">
                        <value>cn</value>
                    </Data>
                    <Data name="building">
                        <value>九龍坑隧道通風樓 Kau Lung Hang Ventilation Building</value>
                    </Data>
                    <Data name="road">
                        <value>Lung Shan Tunnel</value>
                    </Data>
                    <Data name="suburb">
                        <value>Kwan Tei</value>
                    </Data>
                    <Data name="country">
                        <value>PRC</value>
                    </Data>
                </ExtendedData>
            </Placemark>
            <Placemark>
                <Point>
                    <coordinates>114.0822229241,22.5028211131</coordinates>
                </Point>
            </Placemark>
            <Placemark>
                <address>Pok Oi Hospital, Long Fai Road, Shan Pui Chung Hau Tsuen, Au Tau, Small Traders New Village, Yuen Long District, Hong Kong, DD115 568, PRC</address>
                <Point>
                    <coordinates>114.0415509972,22.4456403032</coordinates>
                </Point>
                <ExtendedData>
                    <Data name="county">
                        <value>Yuen Long District</value>
                    </Data>
                    <Data name="neighbourhood">
                        <value>Shan Pui Chung Hau Tsuen</value>
                    </Data>
                    <Data name="hamlet">
                        <value>Small Traders New Village</value>
                    </Data>
                    <Data name="postcode">
                        <value>DD115 568</value>
                    </Data>
                    <Data name="country_code">
                        <value>cn</value>
                    </Data>
                    <Data name="hospital">
                        <value>Pok Oi Hospital</value>
                    </Data>
                    <Data name="road">
                        <value>Long Fai Road</value>
                    </Data>
                    <Data name="suburb">
                        <value>Au Tau</value>
                    </Data>
                    <Data name="country">
                        <value>PRC</value>
                    </Data>
                </ExtendedData>
            </Placemark>
            <Placemark>
                <address>Chung Sing School, 29, Yuen Long Kau Hui Road, Shan Pui Chung Hau Tsuen, Yuen Long Kau Hui, Tung Tau Tsuen, Yuen Long District, Hong Kong, 00852, PRC</address>
                <Point>
                    <coordinates>114.0332840535,22.4491092420</coordinates>
                </Point>
                <ExtendedData>
                    <Data name="school">
                        <value>Chung Sing School</value>
                    </Data>
                    <Data name="county">
                        <value>Yuen Long District</value>
                    </Data>
                    <Data name="neighbourhood">
                        <value>Shan Pui Chung Hau Tsuen</value>
                    </Data>
                    <Data name="hamlet">
                        <value>Tung Tau Tsuen</value>
                    </Data>
                    <Data name="postcode">
                        <value>00852</value>
                    </Data>
                    <Data name="country_code">
                        <value>cn</value>
                    </Data>
                    <Data name="road">
                        <value>Yuen Long Kau Hui Road</value>
                    </Data>
                    <Data name="house_number">
                        <value>29</value>
                    </Data>
                    <Data name="suburb">
                        <value>Yuen Long Kau Hui</value>
                    </Data>
                    <Data name="country">
                        <value>PRC</value>
                    </Data>
                </ExtendedData>
            </Placemark>
            <Placemark>
                <address>Long Ping Commercial Complex, Long Ping Road, Shui Tin Tsuen, Yuen Long Kau Hui, Wang Chau, Yuen Long District, Hong Kong, DD123 1933, PRC</address>
                <Point>
                    <coordinates>114.0228722321,22.4501106885</coordinates>
                </Point>
                <ExtendedData>
                    <Data name="village">
                        <value>Wang Chau</value>
                    </Data>
                    <Data name="county">
                        <value>Yuen Long District</value>
                    </Data>
                    <Data name="neighbourhood">
                        <value>Shui Tin Tsuen</value>
                    </Data>
                    <Data name="postcode">
                        <value>DD123 1933</value>
                    </Data>
                    <Data name="country_code">
                        <value>cn</value>
                    </Data>
                    <Data name="building">
                        <value>Long Ping Commercial Complex</value>
                    </Data>
                    <Data name="road">
                        <value>Long Ping Road</value>
                    </Data>
                    <Data name="suburb">
                        <value>Yuen Long Kau Hui</value>
                    </Data>
                    <Data name="country">
                        <value>PRC</value>
                    </Data>
                </ExtendedData>
            </Placemark>
        </Folder>
        <Document>
            <name>65.1 km; 02:05 h (OSRM)</name>
            <Placemark>
                <name>Route</name>
                <LineString>
                    <coordinates>114.0229070000,22.4500920000 114.0228950000,22.4500870000 114.0228560000,22.4500720000 114.0227320000,22.4500210000 114.0226480000,22.4500600000 114.0225930000,22.4500860000 114.0225450000,22.4501070000 114.0224200000,22.4501660000 114.0223870000,22.4501970000 114.0223490000,22.4502320000 114.0222830000,22.4502950000 114.0222210000,22.4504540000 114.0226640000,22.4510080000 114.0226720000,22.4510210000 114.0228620000,22.4513790000 114.0232160000,22.4520480000 114.0234310000,22.4524980000 114.0235600000,22.4526610000 114.0236580000,22.4527490000 114.0237390000,22.4528070000 114.0238360000,22.4528630000 114.0239620000,22.4529070000 114.0241850000,22.4529510000 114.0243450000,22.4529680000 114.0244420000,22.4529770000 114.0244560000,22.4528720000 114.0244710000,22.4527490000 114.0245050000,22.4525270000 114.0245530000,22.4523900000 114.0246120000,22.4522550000 114.0247520000,22.4520280000 114.0248700000,22.4518980000 114.0249760000,22.4518000000 114.0251160000,22.4516810000 114.0253620000,22.4515080000 114.0256270000,22.4513210000 114.0258200000,22.4511850000 114.0263580000,22.4508310000 114.0265150000,22.4507400000 114.0270520000,22.4514720000 114.0272070000,22.4516920000 114.0272880000,22.4517950000 114.0273440000,22.4518670000 114.0274460000,22.4518050000 114.0275080000,22.4517620000 114.0275860000,22.4517100000 114.0281240000,22.4513290000 114.0286830000,22.4509580000 114.0287720000,22.4508960000 114.0292470000,22.4515240000 114.0299100000,22.4510530000 114.0300560000,22.4509500000 114.0303150000,22.4507900000 114.0306440000,22.4505790000 114.0315210000,22.4500280000 114.0316360000,22.4499580000 114.0316550000,22.4499470000 114.0316690000,22.4499380000 114.0319200000,22.4498270000 114.0321710000,22.4497260000 114.0324060000,22.4496500000 114.0326580000,22.4495940000 114.0329020000,22.4495510000 114.0331270000,22.4495220000 114.0334090000,22.4494980000 114.0334140000,22.4492840000 114.0334170000,22.4491310000 114.0334500000,22.4489280000 114.0334870000,22.4487910000 114.0335430000,22.4486670000 114.0336220000,22.4485250000 114.0336820000,22.4484360000 114.0337180000,22.4483840000 114.0338220000,22.4482730000 114.0339020000,22.4481970000 114.0339970000,22.4481220000 114.0341570000,22.4478870000 114.0341740000,22.4478050000 114.0341810000,22.4476510000 114.0341800000,22.4475510000 114.0341560000,22.4474050000 114.0339940000,22.4469030000 114.0340190000,22.4467580000 114.0340690000,22.4466890000 114.0341660000,22.4466490000 114.0342900000,22.4466180000 114.0345310000,22.4466150000 114.0346880000,22.4466130000 114.0347040000,22.4466130000 114.0349200000,22.4466040000 114.0349650000,22.4466010000 114.0351110000,22.4465940000 114.0351680000,22.4465880000 114.0352380000,22.4465820000 114.0352690000,22.4465790000 114.0353090000,22.4465750000 114.0353580000,22.4465700000 114.0353870000,22.4465670000 114.0354320000,22.4465630000 114.0354810000,22.4465580000 114.0356390000,22.4465420000 114.0358160000,22.4465110000 114.0359500000,22.4464760000 114.0360780000,22.4464160000 114.0361080000,22.4463850000 114.0361400000,22.4463520000 114.0361610000,22.4463010000 114.0361780000,22.4462410000 114.0361920000,22.4461750000 114.0361990000,22.4458480000 114.0362070000,22.4454620000 114.0364080000,22.4454120000 114.0366980000,22.4454150000 114.0368260000,22.4454150000 114.0369440000,22.4454100000 114.0370550000,22.4454110000 114.0371810000,22.4454120000 114.0373360000,22.4454140000 114.0374430000,22.4454150000 114.0374430000,22.4454150000 114.0374730000,22.4453970000 114.0374920000,22.4453470000 114.0374900000,22.4450430000 114.0374910000,22.4450200000 114.0374910000,22.4449700000 114.0374820000,22.4449410000 114.0374500000,22.4449250000 114.0373450000,22.4449270000 114.0371810000,22.4449300000 114.0370610000,22.4449330000 114.0369470000,22.4449350000 114.0368290000,22.4448990000 114.0367000000,22.4449020000 114.0362880000,22.4449000000 114.0362150000,22.4448770000 114.0362240000,22.4446610000 114.0362260000,22.4446300000 114.0362430000,22.4445550000 114.0362710000,22.4444810000 114.0366560000,22.4444730000 114.0368690000,22.4444730000 114.0369880000,22.4444720000 114.0372550000,22.4444700000 114.0378880000,22.4445000000 114.0384730000,22.4445590000 114.0388430000,22.4445520000 114.0389560000,22.4445520000 114.0390130000,22.4445610000 114.0390900000,22.4445900000 114.0391690000,22.4446420000 114.0392690000,22.4446900000 114.0393100000,22.4447050000 114.0393610000,22.4447180000 114.0394100000,22.4447220000 114.0394620000,22.4447200000 114.0395300000,22.4447100000 114.0396000000,22.4446900000 114.0396820000,22.4446520000 114.0397520000,22.4446020000 114.0399710000,22.4445020000 114.0401070000,22.4444790000 114.0404360000,22.4444760000 114.0405130000,22.4444770000 114.0405900000,22.4444900000 114.0406730000,22.4445200000 114.0407200000,22.4445600000 114.0407630000,22.4446180000 114.0408050000,22.4446750000 114.0407890000,22.4447260000 114.0409060000,22.4447100000 114.0412630000,22.4446380000 114.0413120000,22.4449210000 114.0413540000,22.4451660000 114.0414540000,22.4455800000 114.0414720000,22.4456420000 114.0415390000,22.4456600000 114.0415510000,22.4456530000 114.0415960000,22.4456280000 114.0416230000,22.4455610000 114.0414700000,22.4448930000 114.0414080000,22.4446210000 114.0412630000,22.4446380000 114.0409060000,22.4447100000 114.0407890000,22.4447260000 114.0407650000,22.4447580000 114.0406660000,22.4448550000 114.0404490000,22.4448430000 114.0404060000,22.4448500000 114.0403620000,22.4448780000 114.0403290000,22.4449100000 114.0402880000,22.4449890000 114.0402440000,22.4450990000 114.0401980000,22.4452110000 114.0401280000,22.4452810000 114.0400140000,22.4453020000 114.0399050000,22.4452830000 114.0398430000,22.4452430000 114.0397790000,22.4451720000 114.0397500000,22.4451240000 114.0397390000,22.4450190000 114.0397340000,22.4447900000 114.0397520000,22.4446020000 114.0398130000,22.4445400000 114.0398580000,22.4444700000 114.0398730000,22.4444210000 114.0398770000,22.4443700000 114.0398720000,22.4443170000 114.0398600000,22.4442700000 114.0398430000,22.4442320000 114.0398200000,22.4441970000 114.0397880000,22.4441580000 114.0397520000,22.4441230000 114.0396940000,22.4440780000 114.0396290000,22.4440430000 114.0395590000,22.4440250000 114.0394900000,22.4440160000 114.0394200000,22.4440160000 114.0393500000,22.4440200000 114.0392520000,22.4440420000 114.0391870000,22.4440700000 114.0390800000,22.4441400000 114.0390190000,22.4442300000 114.0389900000,22.4443150000 114.0389850000,22.4443900000 114.0390050000,22.4444800000 114.0390300000,22.4445300000 114.0390560000,22.4445620000 114.0390900000,22.4445900000 114.0391610000,22.4447800000 114.0392100000,22.4450000000 114.0392500000,22.4452200000 114.0393100000,22.4454500000 114.0394200000,22.4457900000 114.0396400000,22.4462900000 114.0398290000,22.4465900000 114.0399400000,22.4466870000 114.0400490000,22.4468380000 114.0401700000,22.4470230000 114.0402970000,22.4471380000 114.0404570000,22.4473430000 114.0406150000,22.4475120000 114.0407840000,22.4476730000 114.0409370000,22.4478070000 114.0411900000,22.4480140000 114.0414820000,22.4482210000 114.0417720000,22.4484040000 114.0420700000,22.4485560000 114.0423790000,22.4487250000 114.0426740000,22.4488440000 114.0431250000,22.4489400000 114.0434430000,22.4489920000 114.0437090000,22.4490410000 114.0440640000,22.4490740000 114.0445790000,22.4490940000 114.0450940000,22.4490840000 114.0456520000,22.4491230000 114.0460490000,22.4491930000 114.0464030000,22.4493120000 114.0466820000,22.4494310000 114.0469180000,22.4495600000 114.0471330000,22.4497280000 114.0473150000,22.4499070000 114.0474980000,22.4501350000 114.0476590000,22.4504030000 114.0478300000,22.4507500000 114.0479480000,22.4510770000 114.0480770000,22.4514640000 114.0481950000,22.4518300000 114.0483350000,22.4522770000 114.0484740000,22.4525940000 114.0486560000,22.4529310000 114.0487520000,22.4530820000 114.0488920000,22.4532980000 114.0491170000,22.4536140000 114.0494400000,22.4540120000 114.0498040000,22.4543990000 114.0503300000,22.4548650000 114.0507180000,22.4552730000 114.0508580000,22.4554290000 114.0510920000,22.4557020000 114.0513380000,22.4560690000 114.0515200000,22.4564010000 114.0515880000,22.4565590000 114.0517160000,22.4568310000 114.0519130000,22.4573490000 114.0521200000,22.4580910000 114.0521930000,22.4583940000 114.0541640000,22.4666500000 114.0549320000,22.4695170000 114.0552480000,22.4707920000 114.0554120000,22.4714140000 114.0555720000,22.4720290000 114.0561060000,22.4740940000 114.0562830000,22.4746300000 114.0564070000,22.4749210000 114.0564600000,22.4750430000 114.0566710000,22.4754880000 114.0569220000,22.4759660000 114.0572390000,22.4765930000 114.0573800000,22.4769120000 114.0575120000,22.4771870000 114.0577050000,22.4776530000 114.0578660000,22.4781390000 114.0579940000,22.4785950000 114.0580450000,22.4788630000 114.0580800000,22.4790510000 114.0581070000,22.4792310000 114.0581340000,22.4794080000 114.0581660000,22.4798740000 114.0582130000,22.4805690000 114.0585030000,22.4855160000 114.0585780000,22.4861110000 114.0586850000,22.4866760000 114.0588030000,22.4871320000 114.0590070000,22.4877270000 114.0592430000,22.4882620000 114.0595440000,22.4887870000 114.0598650000,22.4892930000 114.0601640000,22.4897140000 114.0605600000,22.4901800000 114.0608820000,22.4905070000 114.0612360000,22.4908150000 114.0616330000,22.4911220000 114.0617150000,22.4911780000 114.0620290000,22.4913940000 114.0620950000,22.4914390000 114.0624710000,22.4916710000 114.0628760000,22.4918900000 114.0633010000,22.4920970000 114.0637250000,22.4922620000 114.0641980000,22.4924210000 114.0653240000,22.4927180000 114.0661830000,22.4930020000 114.0690560000,22.4937500000 114.0693710000,22.4938350000 114.0731790000,22.4948720000 114.0733800000,22.4949280000 114.0757530000,22.4955730000 114.0762030000,22.4957310000 114.0766000000,22.4958900000 114.0769110000,22.4960390000 114.0772010000,22.4962270000 114.0774370000,22.4964150000 114.0776840000,22.4966240000 114.0778880000,22.4968420000 114.0780550000,22.4970720000 114.0787410000,22.4979040000 114.0790490000,22.4984870000 114.0793390000,22.4989420000 114.0795490000,22.4992720000 114.0797940000,22.4996770000 114.0800590000,22.5001960000 114.0801900000,22.5004720000 114.0802520000,22.5006610000 114.0802680000,22.5008180000 114.0802670000,22.5009460000 114.0802540000,22.5010330000 114.0802310000,22.5011160000 114.0801990000,22.5012190000 114.0800350000,22.5014220000 114.0799510000,22.5015140000 114.0798720000,22.5015920000 114.0799240000,22.5016710000 114.0801030000,22.5019260000 114.0802110000,22.5020420000 114.0805780000,22.5023480000 114.0809770000,22.5027270000 114.0810970000,22.5028170000 114.0812400000,22.5029250000 114.0812870000,22.5028710000 114.0814940000,22.5026420000 114.0817320000,22.5024190000 114.0818030000,22.5023720000 114.0819150000,22.5024150000 114.0820040000,22.5024580000 114.0823450000,22.5026360000 114.0825070000,22.5027210000 114.0825630000,22.5028040000 114.0825080000,22.5029160000 114.0823440000,22.5032180000 114.0822270000,22.5034040000 114.0819450000,22.5032540000 114.0815830000,22.5030570000 114.0815080000,22.5030160000 114.0813750000,22.5029360000 114.0812870000,22.5028710000 114.0810910000,22.5027170000 114.0810200000,22.5026430000 114.0806690000,22.5023030000 114.0805360000,22.5022010000 114.0802840000,22.5019600000 114.0801800000,22.5017490000 114.0801650000,22.5016750000 114.0801770000,22.5015490000 114.0802170000,22.5013870000 114.0804010000,22.5011900000 114.0804560000,22.5011370000 114.0805190000,22.5011040000 114.0805950000,22.5010830000 114.0806770000,22.5010840000 114.0807400000,22.5010990000 114.0807950000,22.5011230000 114.0808900000,22.5011920000 114.0810480000,22.5013140000 114.0813400000,22.5015290000 114.0813800000,22.5015620000 114.0814050000,22.5015920000 114.0814270000,22.5016320000 114.0814400000,22.5016630000 114.0814520000,22.5016930000 114.0814880000,22.5017690000 114.0815330000,22.5018270000 114.0815890000,22.5018780000 114.0816530000,22.5019180000 114.0817230000,22.5019480000 114.0817610000,22.5019570000 114.0817990000,22.5019650000 114.0820490000,22.5021480000 114.0825730000,22.5025010000 114.0826620000,22.5025680000 114.0830620000,22.5027440000 114.0835170000,22.5029300000 114.0844540000,22.5032930000 114.0850630000,22.5035150000 114.0858260000,22.5037280000 114.0863240000,22.5038690000 114.0867970000,22.5039910000 114.0872700000,22.5040760000 114.0877270000,22.5041570000 114.0877740000,22.5041630000 114.0882670000,22.5042310000 114.0888750000,22.5042850000 114.0891540000,22.5042900000 114.0894880000,22.5042970000 114.0901250000,22.5042870000 114.0907370000,22.5042580000 114.0908670000,22.5042520000 114.0913330000,22.5042150000 114.0920270000,22.5041610000 114.0929120000,22.5040910000 114.0949490000,22.5039300000 114.0973530000,22.5037470000 114.1050390000,22.5031710000 114.1056990000,22.5031210000 114.1073460000,22.5030040000 114.1088480000,22.5028850000 114.1097490000,22.5028060000 114.1103390000,22.5027470000 114.1110470000,22.5026480000 114.1134180000,22.5022930000 114.1139430000,22.5022200000 114.1143400000,22.5021740000 114.1146500000,22.5021440000 114.1149510000,22.5021350000 114.1153060000,22.5021350000 114.1158370000,22.5021710000 114.1163570000,22.5022340000 114.1173010000,22.5023330000 114.1177270000,22.5023760000 114.1181040000,22.5023970000 114.1184490000,22.5023820000 114.1188570000,22.5023430000 114.1192970000,22.5022540000 114.1197370000,22.5021250000 114.1202730000,22.5018870000 114.1206820000,22.5016640000 114.1212880000,22.5013360000 114.1219570000,22.5009750000 114.1228370000,22.5005590000 114.1236610000,22.5002170000 114.1247910000,22.4998110000 114.1252630000,22.4996580000 114.1257230000,22.4995210000 114.1269640000,22.4992110000 114.1275580000,22.4990560000 114.1282100000,22.4988900000 114.1289490000,22.4986770000 114.1298060000,22.4983430000 114.1302610000,22.4981460000 114.1307610000,22.4978970000 114.1309110000,22.4978130000 114.1310070000,22.4977590000 114.1314610000,22.4975060000 114.1315960000,22.4974310000 114.1316840000,22.4973810000 114.1322310000,22.4970540000 114.1328430000,22.4966480000 114.1332860000,22.4963410000 114.1338550000,22.4959230000 114.1344200000,22.4954460000 114.1380690000,22.4921690000 114.1384840000,22.4918290000 114.1389160000,22.4914710000 114.1397230000,22.4908070000 114.1406450000,22.4900220000 114.1411810000,22.4896490000 114.1415670000,22.4893940000 114.1418830000,22.4892160000 114.1424410000,22.4889300000 114.1430670000,22.4886890000 114.1433680000,22.4885900000 114.1437670000,22.4884670000 114.1444850000,22.4882710000 114.1456580000,22.4879200000 114.1461780000,22.4877490000 114.1478470000,22.4871580000 114.1482880000,22.4869960000 114.1488850000,22.4867790000 114.1490120000,22.4867280000 114.1491400000,22.4866810000 114.1495480000,22.4864900000 114.1500340000,22.4862130000 114.1505480000,22.4859140000 114.1510360000,22.4856720000 114.1513000000,22.4855400000 114.1513210000,22.4855280000 114.1516230000,22.4853740000 114.1518760000,22.4852290000 114.1521300000,22.4850790000 114.1523140000,22.4849430000 114.1524790000,22.4848020000 114.1526030000,22.4846800000 114.1528430000,22.4844300000 114.1530090000,22.4842270000 114.1531770000,22.4839690000 114.1532520000,22.4838320000 114.1533430000,22.4836740000 114.1533750000,22.4836170000 114.1534000000,22.4835730000 114.1535080000,22.4833950000 114.1536130000,22.4831830000 114.1538170000,22.4825660000 114.1539120000,22.4822430000 114.1539900000,22.4819460000 114.1540200000,22.4817320000 114.1540350000,22.4814930000 114.1540020000,22.4812410000 114.1539520000,22.4810050000 114.1539080000,22.4808060000 114.1537310000,22.4802820000 114.1535810000,22.4798710000 114.1533170000,22.4791190000 114.1532430000,22.4788680000 114.1532080000,22.4787330000 114.1532100000,22.4786290000 114.1532240000,22.4785140000 114.1532970000,22.4783240000 114.1534190000,22.4782130000 114.1535130000,22.4781310000 114.1536050000,22.4780790000 114.1537290000,22.4780390000 114.1538100000,22.4780280000 114.1539600000,22.4780270000 114.1540720000,22.4780480000 114.1542100000,22.4780960000 114.1543350000,22.4781740000 114.1544900000,22.4783350000 114.1545390000,22.4784390000 114.1545750000,22.4785770000 114.1545870000,22.4786940000 114.1545910000,22.4788940000 114.1545460000,22.4791840000 114.1544360000,22.4796740000 114.1544120000,22.4798690000 114.1543760000,22.4802670000 114.1543090000,22.4808180000 114.1542750000,22.4812360000 114.1542640000,22.4815270000 114.1542570000,22.4817860000 114.1542680000,22.4819470000 114.1543070000,22.4823590000 114.1543050000,22.4825440000 114.1543380000,22.4826900000 114.1544290000,22.4830460000 114.1545160000,22.4832600000 114.1546800000,22.4836570000 114.1547920000,22.4839000000 114.1548500000,22.4840270000 114.1550350000,22.4844430000 114.1550860000,22.4845330000 114.1551220000,22.4846050000 114.1551360000,22.4846320000 114.1551730000,22.4847230000 114.1560520000,22.4863610000 114.1657940000,22.5009120000 114.1744990000,22.5108810000 114.1747780000,22.5111710000 114.1765080000,22.5124670000 114.1770010000,22.5127750000 114.1779230000,22.5132600000 114.1793320000,22.5139580000 114.1815920000,22.5150860000 114.1818310000,22.5152620000 114.1821550000,22.5155710000 114.1823590000,22.5158590000 114.1826030000,22.5164620000 114.1826600000,22.5170880000 114.1826190000,22.5176360000 114.1825560000,22.5178510000 114.1824560000,22.5181920000 114.1824230000,22.5182410000 114.1824130000,22.5182560000 114.1823700000,22.5183390000 114.1822400000,22.5185220000 114.1821080000,22.5186870000 114.1820110000,22.5188080000 114.1816090000,22.5192290000 114.1810820000,22.5195470000 114.1806360000,22.5199830000 114.1801220000,22.5204790000 114.1796210000,22.5208570000 114.1795540000,22.5209080000 114.1794810000,22.5209400000 114.1793920000,22.5209710000 114.1792260000,22.5209530000 114.1790720000,22.5209690000 114.1790240000,22.5209820000 114.1789880000,22.5210020000 114.1788230000,22.5210610000 114.1787420000,22.5211100000 114.1786640000,22.5211800000 114.1785230000,22.5212810000 114.1784300000,22.5213170000 114.1782760000,22.5213350000 114.1781740000,22.5213100000 114.1781100000,22.5212960000 114.1780270000,22.5212780000 114.1778520000,22.5212280000 114.1775920000,22.5211340000 114.1773950000,22.5209970000 114.1765450000,22.5201410000 114.1764380000,22.5199750000 114.1762830000,22.5197310000 114.1761910000,22.5195730000 114.1760730000,22.5194030000 114.1756600000,22.5189990000 114.1754980000,22.5188400000 114.1753150000,22.5186960000 114.1750150000,22.5185170000 114.1747000000,22.5183180000 114.1741610000,22.5180210000 114.1729990000,22.5173410000 114.1728250000,22.5172370000 114.1721930000,22.5168580000 114.1721050000,22.5168060000 114.1714020000,22.5163910000 114.1708500000,22.5160690000 114.1703310000,22.5157640000 114.1693680000,22.5152100000 114.1692920000,22.5151600000 114.1690770000,22.5150190000 114.1688180000,22.5148250000 114.1683800000,22.5144690000 114.1683370000,22.5144290000 114.1682120000,22.5142650000 114.1680310000,22.5140540000 114.1678420000,22.5138180000 114.1676960000,22.5135940000 114.1676670000,22.5135350000 114.1676200000,22.5134870000 114.1675590000,22.5134560000 114.1674900000,22.5134450000 114.1674210000,22.5134550000 114.1673570000,22.5134860000 114.1673070000,22.5135350000 114.1672790000,22.5135970000 114.1672740000,22.5136640000 114.1672830000,22.5137040000 114.1672760000,22.5138580000 114.1672460000,22.5140210000 114.1672320000,22.5141500000 114.1672360000,22.5142290000 114.1671920000,22.5144040000 114.1671380000,22.5145270000 114.1670740000,22.5146090000 114.1668810000,22.5148950000 114.1667740000,22.5151340000 114.1666230000,22.5155890000 114.1664400000,22.5163800000 114.1664160000,22.5164370000 114.1663650000,22.5165570000 114.1663120000,22.5165970000 114.1662450000,22.5167170000 114.1661480000,22.5168200000 114.1661090000,22.5169060000 114.1659760000,22.5172780000 114.1658430000,22.5176870000 114.1657290000,22.5181070000 114.1656760000,22.5182600000 114.1652240000,22.5196570000 114.1651500000,22.5197840000 114.1650200000,22.5199030000 114.1648330000,22.5199960000 114.1645200000,22.5201230000 114.1644740000,22.5201420000 114.1635090000,22.5205510000 114.1632910000,22.5206890000 114.1631560000,22.5208100000 114.1630440000,22.5209510000 114.1627520000,22.5214650000 114.1623350000,22.5221950000 114.1620280000,22.5227310000 114.1618120000,22.5230830000 114.1617270000,22.5231940000 114.1615770000,22.5233420000 114.1611880000,22.5237340000 114.1606730000,22.5242130000 114.1603350000,22.5245420000 114.1601550000,22.5247510000 114.1605170000,22.5249830000 114.1607020000,22.5251010000 114.1608410000,22.5251540000 114.1609730000,22.5251770000 114.1611280000,22.5251830000 114.1612410000,22.5251740000 114.1614390000,22.5251440000 114.1616390000,22.5250950000 114.1617140000,22.5250910000 114.1618090000,22.5250970000 114.1619200000,22.5251280000 114.1620200000,22.5251320000 114.1621290000,22.5251050000 114.1624650000,22.5249750000 114.1626490000,22.5248640000 114.1628480000,22.5248040000 114.1630330000,22.5247330000 114.1631760000,22.5246560000 114.1632780000,22.5245990000 114.1633680000,22.5245720000 114.1635440000,22.5245420000 114.1636930000,22.5245110000 114.1638060000,22.5244850000 114.1639340000,22.5244290000 114.1639850000,22.5244070000 114.1641490000,22.5243320000 114.1644700000,22.5242390000 114.1646170000,22.5242020000 114.1646900000,22.5241860000 114.1649000000,22.5241800000 114.1651920000,22.5242360000 114.1653160000,22.5242410000 114.1654220000,22.5242300000 114.1655840000,22.5242930000 114.1659290000,22.5245880000 114.1660590000,22.5247050000 114.1661820000,22.5248020000 114.1662690000,22.5248410000 114.1664310000,22.5249410000 114.1665400000,22.5250040000 114.1666120000,22.5250710000 114.1666650000,22.5251440000 114.1669340000,22.5254130000 114.1670290000,22.5255370000 114.1671310000,22.5257040000 114.1671490000,22.5258070000 114.1671420000,22.5258700000 114.1671280000,22.5263640000 114.1669260000,22.5266660000 114.1668840000,22.5266670000 114.1668010000,22.5266830000 114.1667230000,22.5266980000 114.1666350000,22.5267020000 114.1665580000,22.5267020000 114.1661590000,22.5266130000 114.1658940000,22.5265970000 114.1657160000,22.5266250000 114.1655440000,22.5266710000 114.1654560000,22.5266970000 114.1652090000,22.5266720000 114.1650250000,22.5266640000 114.1645420000,22.5266720000 114.1643830000,22.5266920000 114.1642780000,22.5267270000 114.1641500000,22.5267720000 114.1640590000,22.5267910000 114.1639760000,22.5267940000 114.1636950000,22.5267280000 114.1633390000,22.5266880000 114.1629320000,22.5266520000 114.1627540000,22.5266140000 114.1626750000,22.5265860000 114.1625160000,22.5264830000 114.1622610000,22.5262910000 114.1620140000,22.5261070000 114.1618840000,22.5260270000 114.1617910000,22.5259810000 114.1617370000,22.5259260000 114.1617300000,22.5258770000 114.1617370000,22.5257620000 114.1617730000,22.5254250000 114.1618090000,22.5250970000 114.1618450000,22.5248780000 114.1618840000,22.5246190000 114.1618290000,22.5244300000 114.1618160000,22.5242520000 114.1619990000,22.5239550000 114.1620900000,22.5238010000 114.1621540000,22.5235190000 114.1621600000,22.5231620000 114.1621310000,22.5229230000 114.1620840000,22.5228150000 114.1620280000,22.5227310000 114.1623350000,22.5221950000 114.1627520000,22.5214650000 114.1630440000,22.5209510000 114.1631560000,22.5208100000 114.1632910000,22.5206890000 114.1635090000,22.5205510000 114.1644740000,22.5201420000 114.1645200000,22.5201230000 114.1648330000,22.5199960000 114.1650200000,22.5199030000 114.1651500000,22.5197840000 114.1652240000,22.5196570000 114.1656760000,22.5182600000 114.1657290000,22.5181070000 114.1658430000,22.5176870000 114.1659760000,22.5172780000 114.1661090000,22.5169060000 114.1661480000,22.5168200000 114.1662450000,22.5167170000 114.1663120000,22.5165970000 114.1663650000,22.5165570000 114.1664160000,22.5164370000 114.1664400000,22.5163800000 114.1666230000,22.5155890000 114.1667740000,22.5151340000 114.1668810000,22.5148950000 114.1670740000,22.5146090000 114.1671380000,22.5145270000 114.1671920000,22.5144040000 114.1672360000,22.5142290000 114.1672730000,22.5141490000 114.1673340000,22.5139810000 114.1673550000,22.5139270000 114.1673740000,22.5139000000 114.1673940000,22.5138830000 114.1674940000,22.5138420000 114.1675170000,22.5138400000 114.1675920000,22.5138860000 114.1679130000,22.5141440000 114.1681540000,22.5143190000 114.1683370000,22.5144290000 114.1683800000,22.5144690000 114.1688180000,22.5148250000 114.1690770000,22.5150190000 114.1692920000,22.5151600000 114.1693680000,22.5152100000 114.1703310000,22.5157640000 114.1708500000,22.5160690000 114.1714020000,22.5163910000 114.1721050000,22.5168060000 114.1721930000,22.5168580000 114.1728250000,22.5172370000 114.1729990000,22.5173410000 114.1741610000,22.5180210000 114.1747000000,22.5183180000 114.1750150000,22.5185170000 114.1753150000,22.5186960000 114.1754980000,22.5188400000 114.1756600000,22.5189990000 114.1760730000,22.5194030000 114.1761910000,22.5195730000 114.1762830000,22.5197310000 114.1764380000,22.5199750000 114.1765450000,22.5201410000 114.1773950000,22.5209970000 114.1775920000,22.5211340000 114.1776310000,22.5211480000 114.1778520000,22.5212280000 114.1780270000,22.5212780000 114.1781100000,22.5212960000 114.1781740000,22.5213100000 114.1782760000,22.5213350000 114.1784050000,22.5213670000 114.1785840000,22.5214160000 114.1787070000,22.5214670000 114.1788290000,22.5215430000 114.1788330000,22.5215700000 114.1788410000,22.5216160000 114.1788880000,22.5217480000 114.1789000000,22.5217820000 114.1789590000,22.5218620000 114.1789860000,22.5218820000 114.1790790000,22.5219500000 114.1791700000,22.5219880000 114.1791890000,22.5219960000 114.1792990000,22.5220420000 114.1793250000,22.5220420000 114.1796070000,22.5220480000 114.1796980000,22.5220410000 114.1798550000,22.5220290000 114.1800100000,22.5220120000 114.1800660000,22.5219820000 114.1801480000,22.5219370000 114.1802050000,22.5218780000 114.1802760000,22.5217990000 114.1803270000,22.5216880000 114.1803460000,22.5215740000 114.1803460000,22.5215560000 114.1803510000,22.5214100000 114.1803240000,22.5213290000 114.1802810000,22.5212720000 114.1802540000,22.5212100000 114.1801900000,22.5210990000 114.1802060000,22.5210210000 114.1810350000,22.5201340000 114.1813530000,22.5198130000 114.1814760000,22.5196530000 114.1817290000,22.5192990000 114.1820680000,22.5190110000 114.1822880000,22.5187700000 114.1823930000,22.5186490000 114.1824870000,22.5185250000 114.1825110000,22.5184820000 114.1825290000,22.5184510000 114.1826080000,22.5183080000 114.1826290000,22.5182690000 114.1828090000,22.5179610000 114.1829200000,22.5175720000 114.1829210000,22.5170250000 114.1828660000,22.5164370000 114.1826200000,22.5157960000 114.1824020000,22.5154590000 114.1821370000,22.5151630000 114.1818480000,22.5149240000 114.1773420000,22.5126640000 114.1750670000,22.5110780000 114.1747660000,22.5107510000 114.1687030000,22.5038390000 114.1660550000,22.5008490000 114.1563130000,22.4862980000 114.1558750000,22.4855280000 114.1553790000,22.4846400000 114.1553400000,22.4845700000 114.1553260000,22.4845410000 114.1552930000,22.4844710000 114.1552310000,22.4843570000 114.1551710000,22.4842250000 114.1552540000,22.4841880000 114.1552880000,22.4841750000 114.1553190000,22.4841470000 114.1553190000,22.4841470000 114.1553260000,22.4840960000 114.1552490000,22.4838480000 114.1552010000,22.4837410000 114.1551660000,22.4836890000 114.1551220000,22.4836470000 114.1550470000,22.4836470000 114.1549700000,22.4836500000 114.1546350000,22.4838460000 114.1545400000,22.4839110000 114.1544010000,22.4841710000 114.1543240000,22.4843100000 114.1542730000,22.4844380000 114.1542990000,22.4845600000 114.1543930000,22.4846580000 114.1544800000,22.4846890000 114.1545800000,22.4846820000 114.1547670000,22.4845940000 114.1550350000,22.4844430000 114.1550860000,22.4845330000 114.1550700000,22.4842420000 114.1550600000,22.4839610000 114.1549890000,22.4837930000 114.1548180000,22.4834230000 114.1546990000,22.4831850000 114.1545900000,22.4828910000 114.1544970000,22.4826290000 114.1544470000,22.4823260000 114.1544250000,22.4822060000 114.1544280000,22.4819650000 114.1544350000,22.4818580000 114.1544490000,22.4816490000 114.1544680000,22.4814150000 114.1544960000,22.4812440000 114.1545370000,22.4810500000 114.1546100000,22.4807600000 114.1546820000,22.4804180000 114.1547260000,22.4800740000 114.1547750000,22.4796600000 114.1547870000,22.4793760000 114.1547770000,22.4790780000 114.1547630000,22.4788260000 114.1547460000,22.4786290000 114.1547180000,22.4785100000 114.1546540000,22.4783730000 114.1545710000,22.4782330000 114.1544840000,22.4781320000 114.1543490000,22.4780280000 114.1542740000,22.4779830000 114.1541750000,22.4779430000 114.1540660000,22.4779120000 114.1539450000,22.4778940000 114.1537890000,22.4779090000 114.1536570000,22.4779450000 114.1535330000,22.4780000000 114.1534080000,22.4780670000 114.1532950000,22.4781540000 114.1531690000,22.4783200000 114.1531340000,22.4784530000 114.1531160000,22.4785370000 114.1531140000,22.4786710000 114.1531210000,22.4787660000 114.1531360000,22.4788240000 114.1531960000,22.4790530000 114.1532470000,22.4792090000 114.1534110000,22.4796010000 114.1534800000,22.4798560000 114.1535280000,22.4800440000 114.1535510000,22.4801840000 114.1535890000,22.4804540000 114.1535740000,22.4807180000 114.1535480000,22.4809430000 114.1534940000,22.4816150000 114.1533970000,22.4823220000 114.1533260000,22.4826570000 114.1532850000,22.4828760000 114.1532220000,22.4830990000 114.1531370000,22.4833450000 114.1530700000,22.4835070000 114.1530030000,22.4836270000 114.1528620000,22.4838730000 114.1527910000,22.4839880000 114.1527010000,22.4841260000 114.1525300000,22.4843300000 114.1523270000,22.4845160000 114.1518790000,22.4848500000 114.1513960000,22.4851570000 114.1502320000,22.4858920000 114.1495300000,22.4862970000 114.1490840000,22.4865250000 114.1487370000,22.4866930000 114.1484030000,22.4868240000 114.1481120000,22.4869330000 114.1464550000,22.4875260000 114.1459770000,22.4876810000 114.1454560000,22.4878540000 114.1446400000,22.4880920000 114.1442410000,22.4882120000 114.1441180000,22.4882440000 114.1435140000,22.4884150000 114.1432440000,22.4884990000 114.1429990000,22.4885750000 114.1427040000,22.4886860000 114.1424690000,22.4887800000 114.1422140000,22.4888970000 114.1417430000,22.4891330000 114.1412880000,22.4894200000 114.1408240000,22.4897540000 114.1403470000,22.4901410000 114.1393340000,22.4910040000 114.1389050000,22.4913500000 114.1384010000,22.4917340000 114.1379930000,22.4920740000 114.1363950000,22.4934970000 114.1354050000,22.4943780000 114.1343170000,22.4953470000 114.1337490000,22.4958120000 114.1333450000,22.4961050000 114.1331480000,22.4962490000 114.1324930000,22.4966850000 114.1320430000,22.4969620000 114.1315490000,22.4972400000 114.1314930000,22.4972710000 114.1313700000,22.4973400000 114.1310020000,22.4975470000 114.1309150000,22.4975970000 114.1308000000,22.4976650000 114.1306260000,22.4977650000 114.1302290000,22.4979730000 114.1297680000,22.4981810000 114.1291540000,22.4984210000 114.1284830000,22.4986530000 114.1283130000,22.4987060000 114.1281110000,22.4987620000 114.1276500000,22.4988810000 114.1267770000,22.4991060000 114.1256880000,22.4993800000 114.1252310000,22.4995100000 114.1244480000,22.4997790000 114.1236600000,22.5000660000 114.1228460000,22.5003960000 114.1220110000,22.5007910000 114.1212110000,22.5012260000 114.1210580000,22.5013050000 114.1200850000,22.5018180000 114.1197380000,22.5019720000 114.1194270000,22.5020810000 114.1190770000,22.5021660000 114.1186450000,22.5022230000 114.1181280000,22.5022530000 114.1177570000,22.5022530000 114.1173440000,22.5022190000 114.1164180000,22.5021120000 114.1159240000,22.5020560000 114.1155500000,22.5020130000 114.1150920000,22.5019900000 114.1147120000,22.5019950000 114.1143160000,22.5020300000 114.1134410000,22.5021520000 114.1111400000,22.5024830000 114.1101430000,22.5026110000 114.1092710000,22.5027090000 114.1073400000,22.5028560000 114.1056640000,22.5029750000 114.1049990000,22.5030240000 114.0974150000,22.5036190000 114.0963870000,22.5036960000 114.0934750000,22.5039100000 114.0904970000,22.5041290000 114.0898710000,22.5041590000 114.0893780000,22.5041720000 114.0892330000,22.5041760000 114.0886180000,22.5041480000 114.0881970000,22.5041120000 114.0878000000,22.5040630000 114.0874240000,22.5040010000 114.0868790000,22.5039000000 114.0864430000,22.5037880000 114.0859680000,22.5036530000 114.0857310000,22.5035640000 114.0853260000,22.5033270000 114.0849200000,22.5031350000 114.0846500000,22.5029950000 114.0842980000,22.5027710000 114.0838480000,22.5024640000 114.0835020000,22.5022220000 114.0834030000,22.5021550000 114.0830980000,22.5019240000 114.0827500000,22.5016250000 114.0825660000,22.5014970000 114.0822600000,22.5013670000 114.0821990000,22.5012870000 114.0821180000,22.5012220000 114.0820490000,22.5011860000 114.0819730000,22.5011630000 114.0818940000,22.5011530000 114.0818140000,22.5011560000 114.0817360000,22.5011720000 114.0816720000,22.5011960000 114.0816120000,22.5012290000 114.0815590000,22.5012700000 114.0815140000,22.5013190000 114.0814770000,22.5013730000 114.0814500000,22.5014320000 114.0814330000,22.5014970000 114.0814280000,22.5015630000 114.0814340000,22.5016290000 114.0814430000,22.5016630000 114.0814520000,22.5016930000 114.0814880000,22.5017690000 114.0815330000,22.5018270000 114.0815890000,22.5018780000 114.0816530000,22.5019180000 114.0817230000,22.5019480000 114.0817610000,22.5019570000 114.0817990000,22.5019650000 114.0820490000,22.5021480000 114.0825730000,22.5025010000 114.0826620000,22.5025680000 114.0828390000,22.5027390000 114.0828860000,22.5028080000 114.0829050000,22.5028610000 114.0829160000,22.5029160000 114.0829140000,22.5029710000 114.0829010000,22.5030620000 114.0828800000,22.5031350000 114.0828190000,22.5033100000 114.0827620000,22.5034020000 114.0827190000,22.5034480000 114.0826650000,22.5034770000 114.0826060000,22.5034950000 114.0825460000,22.5035020000 114.0824870000,22.5035010000 114.0824200000,22.5034890000 114.0822270000,22.5034040000 114.0819450000,22.5032540000 114.0815830000,22.5030570000 114.0815080000,22.5030160000 114.0813750000,22.5029360000 114.0812870000,22.5028710000 114.0814940000,22.5026420000 114.0817320000,22.5024190000 114.0818030000,22.5023720000 114.0819150000,22.5024150000 114.0820040000,22.5024580000 114.0823380000,22.5026330000 114.0825070000,22.5027210000 114.0825630000,22.5028040000 114.0825080000,22.5029160000 114.0823440000,22.5032180000 114.0822270000,22.5034040000 114.0819450000,22.5032540000 114.0815830000,22.5030570000 114.0815080000,22.5030160000 114.0813750000,22.5029360000 114.0812870000,22.5028710000 114.0810910000,22.5027170000 114.0810200000,22.5026430000 114.0806690000,22.5023030000 114.0805360000,22.5022010000 114.0802840000,22.5019600000 114.0801800000,22.5017490000 114.0801650000,22.5016750000 114.0801770000,22.5015490000 114.0802170000,22.5013870000 114.0804010000,22.5011900000 114.0804560000,22.5011370000 114.0805190000,22.5011040000 114.0805950000,22.5010830000 114.0806770000,22.5010840000 114.0807400000,22.5010990000 114.0807950000,22.5011230000 114.0808900000,22.5011920000 114.0810480000,22.5013140000 114.0813400000,22.5015290000 114.0813800000,22.5015620000 114.0814050000,22.5015920000 114.0814270000,22.5016320000 114.0814400000,22.5016630000 114.0814520000,22.5016930000 114.0814880000,22.5017690000 114.0815330000,22.5018270000 114.0815890000,22.5018780000 114.0816530000,22.5019180000 114.0817230000,22.5019480000 114.0817610000,22.5019570000 114.0817990000,22.5019650000 114.0818660000,22.5019710000 114.0819340000,22.5019660000 114.0820000000,22.5019530000 114.0820630000,22.5019300000 114.0821290000,22.5018940000 114.0821880000,22.5018470000 114.0822370000,22.5017920000 114.0822740000,22.5017290000 114.0822990000,22.5016610000 114.0823100000,22.5016020000 114.0823120000,22.5015410000 114.0823040000,22.5014810000 114.0822870000,22.5014230000 114.0822600000,22.5013670000 114.0821990000,22.5012870000 114.0821180000,22.5012220000 114.0820340000,22.5010670000 114.0816010000,22.5007020000 114.0813150000,22.5004660000 114.0808070000,22.5000260000 114.0806830000,22.4999130000 114.0804010000,22.4996700000 114.0800880000,22.4993620000 114.0797790000,22.4989730000 114.0792660000,22.4984400000 114.0781880000,22.4970000000 114.0780060000,22.4967820000 114.0778450000,22.4965940000 114.0776620000,22.4964150000 114.0774580000,22.4962470000 114.0772220000,22.4960880000 114.0769330000,22.4959100000 114.0766220000,22.4957610000 114.0763000000,22.4956220000 114.0758170000,22.4954740000 114.0734120000,22.4948180000 114.0732130000,22.4947640000 114.0694070000,22.4937270000 114.0690930000,22.4936390000 114.0656570000,22.4926980000 114.0642620000,22.4922920000 114.0638650000,22.4921730000 114.0635110000,22.4920240000 114.0631890000,22.4918850000 114.0628460000,22.4917270000 114.0624590000,22.4915190000 114.0621270000,22.4913100000 114.0617840000,22.4910720000 114.0614620000,22.4908150000 114.0611830000,22.4905770000 114.0608290000,22.4902500000 114.0605820000,22.4899820000 114.0602710000,22.4896150000 114.0600260000,22.4893030000 114.0597690000,22.4889060000 114.0594900000,22.4884400000 114.0592540000,22.4879640000 114.0590390000,22.4874290000 114.0588680000,22.4868540000 114.0587600000,22.4862990000 114.0586640000,22.4856750000 114.0583630000,22.4805890000 114.0583050000,22.4799730000 114.0582730000,22.4794870000 114.0582280000,22.4792060000 114.0581690000,22.4788520000 114.0581450000,22.4787240000 114.0580690000,22.4783670000 114.0579510000,22.4779800000 114.0578120000,22.4775840000 114.0576400000,22.4771280000 114.0573610000,22.4765330000 114.0570180000,22.4759180000 114.0567610000,22.4754420000 114.0565900000,22.4749990000 114.0565170000,22.4748740000 114.0563960000,22.4745800000 114.0562240000,22.4740340000 114.0556980000,22.4720220000 114.0555400000,22.4713970000 114.0553730000,22.4707510000 114.0550650000,22.4694860000 114.0546550000,22.4678420000 114.0523890000,22.4586130000 114.0521630000,22.4576710000 114.0520240000,22.4571560000 114.0518840000,22.4567490000 114.0517340000,22.4564120000 114.0515730000,22.4561150000 114.0513480000,22.4557780000 114.0510480000,22.4553810000 114.0501830000,22.4544330000 114.0499530000,22.4540330000 114.0497960000,22.4538000000 114.0496310000,22.4535370000 114.0494600000,22.4531800000 114.0494180000,22.4530820000 114.0493550000,22.4529090000 114.0492370000,22.4525910000 114.0491620000,22.4522540000 114.0490970000,22.4517780000 114.0490440000,22.4509950000 114.0490010000,22.4506480000 114.0489360000,22.4503800000 114.0488610000,22.4501130000 114.0487330000,22.4498840000 114.0485720000,22.4496470000 114.0483790000,22.4494280000 114.0481640000,22.4492300000 114.0478640000,22.4490320000 114.0476490000,22.4489420000 114.0473160000,22.4488530000 114.0469840000,22.4487940000 114.0466310000,22.4487870000 114.0462830000,22.4488120000 114.0458740000,22.4488730000 114.0453970000,22.4489310000 114.0447490000,22.4489710000 114.0443780000,22.4489780000 114.0439690000,22.4489680000 114.0437270000,22.4489350000 114.0434590000,22.4488890000 114.0431640000,22.4488250000 114.0429890000,22.4487850000 114.0426850000,22.4486910000 114.0422390000,22.4484970000 114.0418980000,22.4483110000 114.0415410000,22.4480890000 114.0412110000,22.4478540000 114.0409350000,22.4476020000 114.0407150000,22.4473650000 114.0405780000,22.4472030000 114.0404890000,22.4470790000 114.0402650000,22.4467060000 114.0401100000,22.4464300000 114.0399400000,22.4459990000 114.0398400000,22.4456600000 114.0397500000,22.4451240000 114.0397790000,22.4450520000 114.0397970000,22.4449760000 114.0398070000,22.4449200000 114.0398160000,22.4448690000 114.0398300000,22.4448010000 114.0398610000,22.4447410000 114.0398940000,22.4446970000 114.0399310000,22.4446610000 114.0399710000,22.4446310000 114.0400210000,22.4446020000 114.0400700000,22.4445790000 114.0401200000,22.4445590000 114.0401720000,22.4445410000 114.0402410000,22.4445210000 114.0404360000,22.4444760000 114.0405130000,22.4444770000 114.0405900000,22.4444900000 114.0406730000,22.4445200000 114.0407200000,22.4445600000 114.0407630000,22.4446180000 114.0408050000,22.4446750000 114.0407890000,22.4447260000 114.0409060000,22.4447100000 114.0412630000,22.4446380000 114.0413120000,22.4449210000 114.0413540000,22.4451660000 114.0414540000,22.4455800000 114.0414720000,22.4456420000 114.0415390000,22.4456600000 114.0415570000,22.4456500000 114.0415960000,22.4456280000 114.0416230000,22.4455610000 114.0414700000,22.4448930000 114.0414080000,22.4446210000 114.0412630000,22.4446380000 114.0409060000,22.4447100000 114.0407890000,22.4447260000 114.0407650000,22.4447580000 114.0406660000,22.4448550000 114.0404490000,22.4448430000 114.0404060000,22.4448500000 114.0403620000,22.4448780000 114.0403290000,22.4449100000 114.0402880000,22.4449890000 114.0402440000,22.4450990000 114.0401980000,22.4452110000 114.0401280000,22.4452810000 114.0400140000,22.4453020000 114.0399050000,22.4452830000 114.0398430000,22.4452430000 114.0397790000,22.4451720000 114.0397500000,22.4451240000 114.0397390000,22.4450190000 114.0397340000,22.4447900000 114.0397520000,22.4446020000 114.0398130000,22.4445400000 114.0398580000,22.4444700000 114.0398730000,22.4444210000 114.0398770000,22.4443700000 114.0398720000,22.4443170000 114.0398600000,22.4442700000 114.0398430000,22.4442320000 114.0398200000,22.4441970000 114.0397880000,22.4441580000 114.0397520000,22.4441230000 114.0396940000,22.4440780000 114.0396290000,22.4440430000 114.0395590000,22.4440250000 114.0394900000,22.4440160000 114.0394200000,22.4440160000 114.0393500000,22.4440200000 114.0392520000,22.4440420000 114.0391870000,22.4440700000 114.0390800000,22.4441400000 114.0389990000,22.4441880000 114.0388170000,22.4442170000 114.0378870000,22.4442650000 114.0371370000,22.4443670000 114.0368370000,22.4443440000 114.0365970000,22.4443390000 114.0364350000,22.4443410000 114.0361700000,22.4443400000 114.0360540000,22.4443400000 114.0356160000,22.4443790000 114.0352030000,22.4443860000 114.0350060000,22.4443350000 114.0345560000,22.4443400000 114.0345230000,22.4443400000 114.0344560000,22.4443390000 114.0341310000,22.4443570000 114.0339770000,22.4443710000 114.0336930000,22.4444100000 114.0334500000,22.4444950000 114.0331510000,22.4446650000 114.0329130000,22.4448330000 114.0328370000,22.4448870000 114.0327380000,22.4449690000 114.0326940000,22.4450080000 114.0326600000,22.4450390000 114.0326020000,22.4450930000 114.0326640000,22.4451630000 114.0327890000,22.4452990000 114.0328250000,22.4453400000 114.0328780000,22.4454110000 114.0329130000,22.4454500000 114.0330900000,22.4456330000 114.0332640000,22.4457640000 114.0334350000,22.4458370000 114.0336140000,22.4458980000 114.0336680000,22.4459340000 114.0337230000,22.4459840000 114.0337740000,22.4460500000 114.0338270000,22.4462100000 114.0338910000,22.4463760000 114.0339550000,22.4464420000 114.0339670000,22.4465640000 114.0339510000,22.4466520000 114.0339560000,22.4467510000 114.0339940000,22.4469030000 114.0341560000,22.4474050000 114.0341800000,22.4475510000 114.0341810000,22.4476510000 114.0341740000,22.4478050000 114.0341570000,22.4478870000 114.0339970000,22.4481220000 114.0339020000,22.4481970000 114.0338220000,22.4482730000 114.0337180000,22.4483840000 114.0336820000,22.4484360000 114.0336220000,22.4485250000 114.0335430000,22.4486670000 114.0334870000,22.4487910000 114.0334500000,22.4489280000 114.0334170000,22.4491310000 114.0334170000,22.4491310000 114.0334140000,22.4492840000 114.0334090000,22.4494980000 114.0331270000,22.4495220000 114.0329020000,22.4495510000 114.0326580000,22.4495940000 114.0324060000,22.4496500000 114.0321710000,22.4497260000 114.0319200000,22.4498270000 114.0316690000,22.4499380000 114.0316550000,22.4499470000 114.0316360000,22.4499580000 114.0315210000,22.4500280000 114.0306440000,22.4505790000 114.0303150000,22.4507900000 114.0300560000,22.4509500000 114.0292470000,22.4515240000 114.0287720000,22.4508960000 114.0287170000,22.4508250000 114.0286270000,22.4508860000 114.0280710000,22.4512620000 114.0275280000,22.4516410000 114.0274510000,22.4516900000 114.0273870000,22.4517310000 114.0273100000,22.4516260000 114.0266200000,22.4506790000 114.0265270000,22.4505600000 114.0264220000,22.4506280000 114.0263350000,22.4506870000 114.0253710000,22.4513660000 114.0248830000,22.4517290000 114.0247570000,22.4518510000 114.0246520000,22.4519860000 114.0245160000,22.4522250000 114.0244220000,22.4524560000 114.0243140000,22.4526040000 114.0242460000,22.4526660000 114.0241770000,22.4527080000 114.0240880000,22.4527400000 114.0238920000,22.4527590000 114.0237960000,22.4527210000 114.0236910000,22.4526560000 114.0235360000,22.4524280000 114.0233590000,22.4520870000 114.0233450000,22.4520510000 114.0227860000,22.4509770000 114.0228700000,22.4509380000 114.0229240000,22.4509150000 114.0229940000,22.4508800000 114.0230340000,22.4508600000 114.0230750000,22.4508400000 114.0231310000,22.4508130000 114.0231830000,22.4506540000 114.0232030000,22.4505760000 114.0229690000,22.4501170000 114.0228950000,22.4500870000 114.0228850000,22.4500830000</coordinates>
                </LineString>
                <ExtendedData>
                    <Data name="length">
                        <value>65088.807369367314</value>
                    </Data>
                    <Data name="duration">
                        <value>02:05:24</value>
                    </Data>
                </ExtendedData>
            </Placemark>
        </Document>
    </Document>
</kml>