<?xml version="1.0" encoding="UTF-8"?>
<kml xmlns="http://www.opengis.net/kml/2.2" xmlns:gx="http://www.google.com/kml/ext/2.2">
    <Document>
        <name>Route</name>
        <Folder>
            <name>Route Request</name>
            <Placemark>
                <address>Ng Chow South Road, Ta Kwu Ling, Ping Che, North District, Hong Kong, DD76 2581, PRC</address>
                <Point>
                    <coordinates>114.1665231641,22.5247826520</coordinates>
                </Point>
                <ExtendedData>
                    <Data name="road">
                        <value>Ng Chow South Road</value>
                    </Data>
                    <Data name="country_code">
                        <value>cn</value>
                    </Data>
                    <Data name="country">
                        <value>PRC</value>
                    </Data>
                    <Data name="village">
                        <value>Ping Che</value>
                    </Data>
                    <Data name="suburb">
                        <value>Ta Kwu Ling</value>
                    </Data>
                    <Data name="county">
                        <value>North District</value>
                    </Data>
                    <Data name="postcode">
                        <value>DD76 2581</value>
                    </Data>
                </ExtendedData>
            </Placemark>
            <Placemark>
                <address>九龍坑隧道通風樓 Kau Lung Hang Ventilation Building, Lung Shan Tunnel, Tin Sam, Kwan Tei, San Uk Tsai, North District, Hong Kong, DD76 2589, PRC</address>
                <Point>
                    <coordinates>114.1559917001,22.4853322816</coordinates>
                </Point>
                <ExtendedData>
                    <Data name="hamlet">
                        <value>San Uk Tsai</value>
                    </Data>
                    <Data name="building">
                        <value>九龍坑隧道通風樓 Kau Lung Hang Ventilation Building</value>
                    </Data>
                    <Data name="neighbourhood">
                        <value>Tin Sam</value>
                    </Data>
                    <Data name="road">
                        <value>Lung Shan Tunnel</value>
                    </Data>
                    <Data name="country_code">
                        <value>cn</value>
                    </Data>
                    <Data name="country">
                        <value>PRC</value>
                    </Data>
                    <Data name="suburb">
                        <value>Kwan Tei</value>
                    </Data>
                    <Data name="county">
                        <value>North District</value>
                    </Data>
                    <Data name="postcode">
                        <value>DD76 2589</value>
                    </Data>
                </ExtendedData>
            </Placemark>
            <Placemark>
                <address>Tsing Long Highway, Sham Tseng, Tsing Fai Tong New Village, Tsuen Wan District, Hong Kong, DD106 2011, PRC</address>
                <Point>
                    <coordinates>114.0686655291,22.3751751288</coordinates>
                </Point>
                <ExtendedData>
                    <Data name="hamlet">
                        <value>Tsing Fai Tong New Village</value>
                    </Data>
                    <Data name="road">
                        <value>Tsing Long Highway</value>
                    </Data>
                    <Data name="country_code">
                        <value>cn</value>
                    </Data>
                    <Data name="country">
                        <value>PRC</value>
                    </Data>
                    <Data name="suburb">
                        <value>Sham Tseng</value>
                    </Data>
                    <Data name="county">
                        <value>Tsuen Wan District</value>
                    </Data>
                    <Data name="postcode">
                        <value>DD106 2011</value>
                    </Data>
                </ExtendedData>
            </Placemark>
            <Placemark>
                <address>286-288, Sha Tsui Road, Sam Tung Uk, Ham Tin, Tsuen Wan, Tsuen Wan District, Hong Kong, PRC</address>
                <Point>
                    <coordinates>114.1171125700,22.3695396100</coordinates>
                </Point>
                <ExtendedData>
                    <Data name="house_number">
                        <value>286-288</value>
                    </Data>
                    <Data name="neighbourhood">
                        <value>Sam Tung Uk</value>
                    </Data>
                    <Data name="road">
                        <value>Sha Tsui Road</value>
                    </Data>
                    <Data name="country_code">
                        <value>cn</value>
                    </Data>
                    <Data name="country">
                        <value>PRC</value>
                    </Data>
                    <Data name="town">
                        <value>Tsuen Wan</value>
                    </Data>
                    <Data name="suburb">
                        <value>Ham Tin</value>
                    </Data>
                    <Data name="county">
                        <value>Tsuen Wan District</value>
                    </Data>
                </ExtendedData>
            </Placemark>
            <Placemark>
                <address>38, Tak Wah Street, Sam Tung Uk, Ham Tin, Tsuen Wan, Tsuen Wan District, Hong Kong, PRC</address>
                <Point>
                    <coordinates>114.1191215650,22.3691025056</coordinates>
                </Point>
                <ExtendedData>
                    <Data name="house_number">
                        <value>38</value>
                    </Data>
                    <Data name="neighbourhood">
                        <value>Sam Tung Uk</value>
                    </Data>
                    <Data name="road">
                        <value>Tak Wah Street</value>
                    </Data>
                    <Data name="country_code">
                        <value>cn</value>
                    </Data>
                    <Data name="country">
                        <value>PRC</value>
                    </Data>
                    <Data name="town">
                        <value>Tsuen Wan</value>
                    </Data>
                    <Data name="suburb">
                        <value>Ham Tin</value>
                    </Data>
                    <Data name="county">
                        <value>Tsuen Wan District</value>
                    </Data>
                </ExtendedData>
            </Placemark>
            <Placemark>
                <address>Kwai Kin House, Hing Fong Road, Kau Wa Keng, Ha Kwai Chung, Kwai Chung, Kwai Tsing District, Hong Kong, 852, PRC</address>
                <Point>
                    <coordinates>114.1289578588,22.3600795802</coordinates>
                </Point>
                <ExtendedData>
                    <Data name="building">
                        <value>Kwai Kin House</value>
                    </Data>
                    <Data name="neighbourhood">
                        <value>Kau Wa Keng</value>
                    </Data>
                    <Data name="road">
                        <value>Hing Fong Road</value>
                    </Data>
                    <Data name="country_code">
                        <value>cn</value>
                    </Data>
                    <Data name="country">
                        <value>PRC</value>
                    </Data>
                    <Data name="town">
                        <value>Kwai Chung</value>
                    </Data>
                    <Data name="suburb">
                        <value>Ha Kwai Chung</value>
                    </Data>
                    <Data name="county">
                        <value>Kwai Tsing District</value>
                    </Data>
                    <Data name="postcode">
                        <value>852</value>
                    </Data>
                </ExtendedData>
            </Placemark>
            <Placemark>
                <address>Kwai Fong Ancillary Building, Kwai Chung Road, Kau Wa Keng, Ha Kwai Chung, Kwai Chung, Kwai Tsing District, Hong Kong, 852, PRC</address>
                <Point>
                    <coordinates>114.1269491122,22.3544534322</coordinates>
                </Point>
                <ExtendedData>
                    <Data name="building">
                        <value>Kwai Fong Ancillary Building</value>
                    </Data>
                    <Data name="neighbourhood">
                        <value>Kau Wa Keng</value>
                    </Data>
                    <Data name="road">
                        <value>Kwai Chung Road</value>
                    </Data>
                    <Data name="country_code">
                        <value>cn</value>
                    </Data>
                    <Data name="country">
                        <value>PRC</value>
                    </Data>
                    <Data name="town">
                        <value>Kwai Chung</value>
                    </Data>
                    <Data name="suburb">
                        <value>Ha Kwai Chung</value>
                    </Data>
                    <Data name="county">
                        <value>Kwai Tsing District</value>
                    </Data>
                    <Data name="postcode">
                        <value>852</value>
                    </Data>
                </ExtendedData>
            </Placemark>
            <Placemark>
                <address>Buddhist Sin Tak College, 5, Hing Shing Road, Ha Kwai Chung, Kwai Chung, Kwai Tsing District, Hong Kong, 852, PRC</address>
                <Point>
                    <coordinates>114.1300942411,22.3616170164</coordinates>
                </Point>
                <ExtendedData>
                    <Data name="house_number">
                        <value>5</value>
                    </Data>
                    <Data name="road">
                        <value>Hing Shing Road</value>
                    </Data>
                    <Data name="country_code">
                        <value>cn</value>
                    </Data>
                    <Data name="country">
                        <value>PRC</value>
                    </Data>
                    <Data name="town">
                        <value>Kwai Chung</value>
                    </Data>
                    <Data name="school">
                        <value>Buddhist Sin Tak College</value>
                    </Data>
                    <Data name="suburb">
                        <value>Ha Kwai Chung</value>
                    </Data>
                    <Data name="county">
                        <value>Kwai Tsing District</value>
                    </Data>
                    <Data name="postcode">
                        <value>852</value>
                    </Data>
                </ExtendedData>
            </Placemark>
            <Placemark>
                <address>Kwong Fat Building, 254-276, Sha Tsui Road, Sam Tung Uk, Ham Tin, Tsuen Wan, Tsuen Wan District, Hong Kong, PRC</address>
                <Point>
                    <coordinates>114.1159179550,22.3700132271</coordinates>
                </Point>
                <ExtendedData>
                    <Data name="building">
                        <value>Kwong Fat Building</value>
                    </Data>
                    <Data name="house_number">
                        <value>254-276</value>
                    </Data>
                    <Data name="neighbourhood">
                        <value>Sam Tung Uk</value>
                    </Data>
                    <Data name="road">
                        <value>Sha Tsui Road</value>
                    </Data>
                    <Data name="country_code">
                        <value>cn</value>
                    </Data>
                    <Data name="country">
                        <value>PRC</value>
                    </Data>
                    <Data name="town">
                        <value>Tsuen Wan</value>
                    </Data>
                    <Data name="suburb">
                        <value>Ham Tin</value>
                    </Data>
                    <Data name="county">
                        <value>Tsuen Wan District</value>
                    </Data>
                </ExtendedData>
            </Placemark>
            <Placemark>
                <address>Sha Tsui Road, Sam Tung Uk, Chai Wan Kok, Tsuen Wan, Tsuen Wan District, Hong Kong, PRC</address>
                <Point>
                    <coordinates>114.1120321349,22.3721687953</coordinates>
                </Point>
                <ExtendedData>
                    <Data name="neighbourhood">
                        <value>Sam Tung Uk</value>
                    </Data>
                    <Data name="road">
                        <value>Sha Tsui Road</value>
                    </Data>
                    <Data name="country_code">
                        <value>cn</value>
                    </Data>
                    <Data name="country">
                        <value>PRC</value>
                    </Data>
                    <Data name="town">
                        <value>Tsuen Wan</value>
                    </Data>
                    <Data name="suburb">
                        <value>Chai Wan Kok</value>
                    </Data>
                    <Data name="county">
                        <value>Tsuen Wan District</value>
                    </Data>
                </ExtendedData>
            </Placemark>
            <Placemark>
                <address>Tsing Long Highway, Kat Hing Wai, Au Tau, Ko Po Tsuen, Yuen Long District, Hong Kong, DD109 459, PRC</address>
                <Point>
                    <coordinates>114.0588513313,22.4368925477</coordinates>
                </Point>
                <ExtendedData>
                    <Data name="hamlet">
                        <value>Ko Po Tsuen</value>
                    </Data>
                    <Data name="neighbourhood">
                        <value>Kat Hing Wai</value>
                    </Data>
                    <Data name="road">
                        <value>Tsing Long Highway</value>
                    </Data>
                    <Data name="country_code">
                        <value>cn</value>
                    </Data>
                    <Data name="country">
                        <value>PRC</value>
                    </Data>
                    <Data name="suburb">
                        <value>Au Tau</value>
                    </Data>
                    <Data name="county">
                        <value>Yuen Long District</value>
                    </Data>
                    <Data name="postcode">
                        <value>DD109 459</value>
                    </Data>
                </ExtendedData>
            </Placemark>
            <Placemark>
                <address>Heung Yuen Wai Highway, Kwan Tei, Loi Tung, North District, Hong Kong, DD76 2589, PRC</address>
                <Point>
                    <coordinates>114.1816652283,22.5188790138</coordinates>
                </Point>
                <ExtendedData>
                    <Data name="hamlet">
                        <value>Loi Tung</value>
                    </Data>
                    <Data name="road">
                        <value>Heung Yuen Wai Highway</value>
                    </Data>
                    <Data name="country_code">
                        <value>cn</value>
                    </Data>
                    <Data name="country">
                        <value>PRC</value>
                    </Data>
                    <Data name="suburb">
                        <value>Kwan Tei</value>
                    </Data>
                    <Data name="county">
                        <value>North District</value>
                    </Data>
                    <Data name="postcode">
                        <value>DD76 2589</value>
                    </Data>
                </ExtendedData>
            </Placemark>
            <Placemark>
                <address>Ng Chow South Road, Ta Kwu Ling, Ping Che, North District, Hong Kong, DD76 2581, PRC</address>
                <Point>
                    <coordinates>114.1665231641,22.5247826520</coordinates>
                </Point>
                <ExtendedData>
                    <Data name="road">
                        <value>Ng Chow South Road</value>
                    </Data>
                    <Data name="country_code">
                        <value>cn</value>
                    </Data>
                    <Data name="country">
                        <value>PRC</value>
                    </Data>
                    <Data name="village">
                        <value>Ping Che</value>
                    </Data>
                    <Data name="suburb">
                        <value>Ta Kwu Ling</value>
                    </Data>
                    <Data name="county">
                        <value>North District</value>
                    </Data>
                    <Data name="postcode">
                        <value>DD76 2581</value>
                    </Data>
                </ExtendedData>
            </Placemark>
        </Folder>
        <Document>
            <name>90.7 km; 02:06 h (OSRM)</name>
            <Placemark>
                <name>Route</name>
                <LineString>
                    <coordinates>114.1664060000,22.5246930000 114.1663290000,22.5247790000 114.1662690000,22.5248410000 114.1661820000,22.5248020000 114.1660590000,22.5247050000 114.1659290000,22.5245880000 114.1655840000,22.5242930000 114.1654220000,22.5242300000 114.1653160000,22.5242410000 114.1651920000,22.5242360000 114.1649000000,22.5241800000 114.1646900000,22.5241860000 114.1646170000,22.5242020000 114.1644700000,22.5242390000 114.1641490000,22.5243320000 114.1639850000,22.5244070000 114.1638060000,22.5244850000 114.1636930000,22.5245110000 114.1635440000,22.5245420000 114.1633680000,22.5245720000 114.1632780000,22.5245990000 114.1631760000,22.5246560000 114.1630330000,22.5247330000 114.1628480000,22.5248040000 114.1626490000,22.5248640000 114.1624650000,22.5249750000 114.1621290000,22.5251050000 114.1620200000,22.5251320000 114.1619200000,22.5251280000 114.1618090000,22.5250970000 114.1618450000,22.5248780000 114.1618840000,22.5246190000 114.1618290000,22.5244300000 114.1618160000,22.5242520000 114.1619990000,22.5239550000 114.1620900000,22.5238010000 114.1621540000,22.5235190000 114.1621600000,22.5231620000 114.1621310000,22.5229230000 114.1620840000,22.5228150000 114.1620280000,22.5227310000 114.1623350000,22.5221950000 114.1627520000,22.5214650000 114.1630440000,22.5209510000 114.1631560000,22.5208100000 114.1632910000,22.5206890000 114.1635090000,22.5205510000 114.1644740000,22.5201420000 114.1645200000,22.5201230000 114.1648330000,22.5199960000 114.1650200000,22.5199030000 114.1651500000,22.5197840000 114.1652240000,22.5196570000 114.1656760000,22.5182600000 114.1657290000,22.5181070000 114.1658430000,22.5176870000 114.1659760000,22.5172780000 114.1661090000,22.5169060000 114.1661480000,22.5168200000 114.1662450000,22.5167170000 114.1663120000,22.5165970000 114.1663650000,22.5165570000 114.1664160000,22.5164370000 114.1664400000,22.5163800000 114.1666230000,22.5155890000 114.1667740000,22.5151340000 114.1668810000,22.5148950000 114.1670740000,22.5146090000 114.1671380000,22.5145270000 114.1671920000,22.5144040000 114.1672360000,22.5142290000 114.1672730000,22.5141490000 114.1673340000,22.5139810000 114.1673550000,22.5139270000 114.1673740000,22.5139000000 114.1673940000,22.5138830000 114.1674940000,22.5138420000 114.1675170000,22.5138400000 114.1675920000,22.5138860000 114.1679130000,22.5141440000 114.1681540000,22.5143190000 114.1683370000,22.5144290000 114.1683800000,22.5144690000 114.1688180000,22.5148250000 114.1690770000,22.5150190000 114.1692920000,22.5151600000 114.1693680000,22.5152100000 114.1703310000,22.5157640000 114.1708500000,22.5160690000 114.1714020000,22.5163910000 114.1721050000,22.5168060000 114.1721930000,22.5168580000 114.1728250000,22.5172370000 114.1729990000,22.5173410000 114.1741610000,22.5180210000 114.1747000000,22.5183180000 114.1750150000,22.5185170000 114.1753150000,22.5186960000 114.1754980000,22.5188400000 114.1756600000,22.5189990000 114.1760730000,22.5194030000 114.1761910000,22.5195730000 114.1762830000,22.5197310000 114.1764380000,22.5199750000 114.1765450000,22.5201410000 114.1773950000,22.5209970000 114.1775920000,22.5211340000 114.1778520000,22.5212280000 114.1780270000,22.5212780000 114.1781100000,22.5212960000 114.1781740000,22.5213100000 114.1782760000,22.5213350000 114.1784050000,22.5213670000 114.1785840000,22.5214160000 114.1787070000,22.5214670000 114.1788290000,22.5215430000 114.1788330000,22.5215700000 114.1788410000,22.5216160000 114.1788880000,22.5217480000 114.1789000000,22.5217820000 114.1789590000,22.5218620000 114.1789860000,22.5218820000 114.1790790000,22.5219500000 114.1791700000,22.5219880000 114.1791890000,22.5219960000 114.1792990000,22.5220420000 114.1793250000,22.5220420000 114.1796070000,22.5220480000 114.1796980000,22.5220410000 114.1798550000,22.5220290000 114.1800100000,22.5220120000 114.1800660000,22.5219820000 114.1801480000,22.5219370000 114.1802050000,22.5218780000 114.1802760000,22.5217990000 114.1803270000,22.5216880000 114.1803460000,22.5215740000 114.1803460000,22.5215560000 114.1803510000,22.5214100000 114.1803240000,22.5213290000 114.1802810000,22.5212720000 114.1802540000,22.5212100000 114.1801900000,22.5210990000 114.1802060000,22.5210210000 114.1810350000,22.5201340000 114.1813530000,22.5198130000 114.1814760000,22.5196530000 114.1817290000,22.5192990000 114.1820680000,22.5190110000 114.1822880000,22.5187700000 114.1823930000,22.5186490000 114.1824870000,22.5185250000 114.1825110000,22.5184820000 114.1825290000,22.5184510000 114.1826080000,22.5183080000 114.1826290000,22.5182690000 114.1828090000,22.5179610000 114.1829200000,22.5175720000 114.1829210000,22.5170250000 114.1828660000,22.5164370000 114.1826200000,22.5157960000 114.1824020000,22.5154590000 114.1821370000,22.5151630000 114.1818480000,22.5149240000 114.1773420000,22.5126640000 114.1750670000,22.5110780000 114.1747660000,22.5107510000 114.1687030000,22.5038390000 114.1660550000,22.5008490000 114.1563130000,22.4862980000 114.1558750000,22.4855280000 114.1558130000,22.4854170000 114.1553790000,22.4846400000 114.1553400000,22.4845700000 114.1553260000,22.4845410000 114.1552930000,22.4844710000 114.1552310000,22.4843570000 114.1551710000,22.4842250000 114.1550600000,22.4839610000 114.1549890000,22.4837930000 114.1548180000,22.4834230000 114.1546990000,22.4831850000 114.1545900000,22.4828910000 114.1544970000,22.4826290000 114.1544470000,22.4823260000 114.1544250000,22.4822060000 114.1544280000,22.4819650000 114.1544350000,22.4818580000 114.1544490000,22.4816490000 114.1544680000,22.4814150000 114.1544960000,22.4812440000 114.1545370000,22.4810500000 114.1546100000,22.4807600000 114.1546820000,22.4804180000 114.1547260000,22.4800740000 114.1547750000,22.4796600000 114.1547870000,22.4793760000 114.1547770000,22.4790780000 114.1547630000,22.4788260000 114.1547460000,22.4786290000 114.1547180000,22.4785100000 114.1546540000,22.4783730000 114.1545710000,22.4782330000 114.1544840000,22.4781320000 114.1543490000,22.4780280000 114.1542740000,22.4779830000 114.1541750000,22.4779430000 114.1540660000,22.4779120000 114.1539450000,22.4778940000 114.1537890000,22.4779090000 114.1536570000,22.4779450000 114.1535330000,22.4780000000 114.1534080000,22.4780670000 114.1532950000,22.4781540000 114.1531690000,22.4783200000 114.1531340000,22.4784530000 114.1531160000,22.4785370000 114.1531140000,22.4786710000 114.1531210000,22.4787660000 114.1531360000,22.4788240000 114.1531960000,22.4790530000 114.1532470000,22.4792090000 114.1534110000,22.4796010000 114.1534800000,22.4798560000 114.1535280000,22.4800440000 114.1535510000,22.4801840000 114.1535890000,22.4804540000 114.1535740000,22.4807180000 114.1535480000,22.4809430000 114.1534940000,22.4816150000 114.1533970000,22.4823220000 114.1533260000,22.4826570000 114.1532850000,22.4828760000 114.1532220000,22.4830990000 114.1531370000,22.4833450000 114.1530700000,22.4835070000 114.1530030000,22.4836270000 114.1528620000,22.4838730000 114.1527910000,22.4839880000 114.1527010000,22.4841260000 114.1525300000,22.4843300000 114.1523270000,22.4845160000 114.1518790000,22.4848500000 114.1513960000,22.4851570000 114.1502320000,22.4858920000 114.1495300000,22.4862970000 114.1490840000,22.4865250000 114.1487370000,22.4866930000 114.1484030000,22.4868240000 114.1481120000,22.4869330000 114.1464550000,22.4875260000 114.1459770000,22.4876810000 114.1454560000,22.4878540000 114.1446400000,22.4880920000 114.1442410000,22.4882120000 114.1441180000,22.4882440000 114.1435140000,22.4884150000 114.1432440000,22.4884990000 114.1429990000,22.4885750000 114.1427040000,22.4886860000 114.1424690000,22.4887800000 114.1422140000,22.4888970000 114.1417430000,22.4891330000 114.1412880000,22.4894200000 114.1408240000,22.4897540000 114.1403470000,22.4901410000 114.1393340000,22.4910040000 114.1389050000,22.4913500000 114.1384010000,22.4917340000 114.1379930000,22.4920740000 114.1363950000,22.4934970000 114.1354050000,22.4943780000 114.1343170000,22.4953470000 114.1337490000,22.4958120000 114.1333450000,22.4961050000 114.1331480000,22.4962490000 114.1324930000,22.4966850000 114.1320430000,22.4969620000 114.1315490000,22.4972400000 114.1314930000,22.4972710000 114.1313700000,22.4973400000 114.1310020000,22.4975470000 114.1309150000,22.4975970000 114.1308000000,22.4976650000 114.1306260000,22.4977650000 114.1302290000,22.4979730000 114.1297680000,22.4981810000 114.1291540000,22.4984210000 114.1284830000,22.4986530000 114.1283130000,22.4987060000 114.1281110000,22.4987620000 114.1276500000,22.4988810000 114.1267770000,22.4991060000 114.1256880000,22.4993800000 114.1252310000,22.4995100000 114.1244480000,22.4997790000 114.1236600000,22.5000660000 114.1228460000,22.5003960000 114.1220110000,22.5007910000 114.1212110000,22.5012260000 114.1210580000,22.5013050000 114.1200850000,22.5018180000 114.1197380000,22.5019720000 114.1194270000,22.5020810000 114.1190770000,22.5021660000 114.1186450000,22.5022230000 114.1181280000,22.5022530000 114.1177570000,22.5022530000 114.1173440000,22.5022190000 114.1164180000,22.5021120000 114.1159240000,22.5020560000 114.1155500000,22.5020130000 114.1150920000,22.5019900000 114.1147120000,22.5019950000 114.1143160000,22.5020300000 114.1134410000,22.5021520000 114.1111400000,22.5024830000 114.1101430000,22.5026110000 114.1092710000,22.5027090000 114.1073400000,22.5028560000 114.1056640000,22.5029750000 114.1049990000,22.5030240000 114.0974150000,22.5036190000 114.0963870000,22.5036960000 114.0934750000,22.5039100000 114.0904970000,22.5041290000 114.0898710000,22.5041590000 114.0893780000,22.5041720000 114.0892330000,22.5041760000 114.0886180000,22.5041480000 114.0881970000,22.5041120000 114.0878000000,22.5040630000 114.0874240000,22.5040010000 114.0868790000,22.5039000000 114.0864430000,22.5037880000 114.0859680000,22.5036530000 114.0857310000,22.5035640000 114.0853160000,22.5034370000 114.0847760000,22.5032370000 114.0842240000,22.5029880000 114.0837500000,22.5027420000 114.0832740000,22.5024670000 114.0827710000,22.5021460000 114.0824960000,22.5019550000 114.0820060000,22.5015630000 114.0815100000,22.5010970000 114.0811030000,22.5007090000 114.0807610000,22.5003390000 114.0804310000,22.4999640000 114.0795770000,22.4988690000 114.0792660000,22.4984400000 114.0781880000,22.4970000000 114.0780060000,22.4967820000 114.0778450000,22.4965940000 114.0776620000,22.4964150000 114.0774580000,22.4962470000 114.0772220000,22.4960880000 114.0769330000,22.4959100000 114.0766220000,22.4957610000 114.0763000000,22.4956220000 114.0758170000,22.4954740000 114.0734120000,22.4948180000 114.0732130000,22.4947640000 114.0694070000,22.4937270000 114.0690930000,22.4936390000 114.0656570000,22.4926980000 114.0642620000,22.4922920000 114.0638650000,22.4921730000 114.0635110000,22.4920240000 114.0631890000,22.4918850000 114.0628460000,22.4917270000 114.0624590000,22.4915190000 114.0621270000,22.4913100000 114.0617840000,22.4910720000 114.0614620000,22.4908150000 114.0611830000,22.4905770000 114.0608290000,22.4902500000 114.0605820000,22.4899820000 114.0602710000,22.4896150000 114.0600260000,22.4893030000 114.0597690000,22.4889060000 114.0594900000,22.4884400000 114.0592540000,22.4879640000 114.0590390000,22.4874290000 114.0588680000,22.4868540000 114.0587600000,22.4862990000 114.0586640000,22.4856750000 114.0583630000,22.4805890000 114.0583050000,22.4799730000 114.0582730000,22.4794870000 114.0582280000,22.4792060000 114.0581690000,22.4788520000 114.0581450000,22.4787240000 114.0580690000,22.4783670000 114.0579510000,22.4779800000 114.0578120000,22.4775840000 114.0576400000,22.4771280000 114.0573610000,22.4765330000 114.0570180000,22.4759180000 114.0567610000,22.4754420000 114.0565900000,22.4749990000 114.0565170000,22.4748740000 114.0563960000,22.4745800000 114.0562240000,22.4740340000 114.0556980000,22.4720220000 114.0555400000,22.4713970000 114.0553730000,22.4707510000 114.0550650000,22.4694860000 114.0546550000,22.4678420000 114.0523890000,22.4586130000 114.0521630000,22.4576710000 114.0520240000,22.4571560000 114.0518840000,22.4567490000 114.0517340000,22.4564120000 114.0515730000,22.4561150000 114.0513480000,22.4557780000 114.0510480000,22.4553810000 114.0501830000,22.4544330000 114.0498860000,22.4541130000 114.0496510000,22.4537880000 114.0494500000,22.4534760000 114.0493000000,22.4532290000 114.0491390000,22.4529410000 114.0490000000,22.4526630000 114.0488710000,22.4523660000 114.0487320000,22.4519890000 114.0486240000,22.4516220000 114.0485490000,22.4512350000 114.0485170000,22.4510170000 114.0484630000,22.4506110000 114.0484420000,22.4502340000 114.0484380000,22.4501150000 114.0484310000,22.4498570000 114.0484740000,22.4494310000 114.0485170000,22.4490340000 114.0485810000,22.4486870000 114.0486670000,22.4483400000 114.0487850000,22.4479530000 114.0489250000,22.4475270000 114.0490430000,22.4471200000 114.0490930000,22.4470000000 114.0494010000,22.4462650000 114.0495150000,22.4459900000 114.0499120000,22.4451870000 114.0500570000,22.4449580000 114.0502760000,22.4445320000 114.0505090000,22.4441380000 114.0506630000,22.4438980000 114.0511030000,22.4432930000 114.0515210000,22.4427670000 114.0515640000,22.4427220000 114.0516480000,22.4426430000 114.0520840000,22.4421920000 114.0525380000,22.4417980000 114.0529800000,22.4414190000 114.0552440000,22.4397030000 114.0566270000,22.4387340000 114.0574420000,22.4381680000 114.0580760000,22.4376940000 114.0586750000,22.4372040000 114.0591920000,22.4367400000 114.0596270000,22.4363460000 114.0601230000,22.4358700000 114.0607360000,22.4352330000 114.0611550000,22.4347070000 114.0617550000,22.4338640000 114.0622730000,22.4331580000 114.0626900000,22.4324490000 114.0630580000,22.4316410000 114.0633420000,22.4308540000 114.0635560000,22.4301880000 114.0638320000,22.4291520000 114.0640530000,22.4281040000 114.0641500000,22.4274210000 114.0642720000,22.4259930000 114.0643150000,22.4243600000 114.0643190000,22.4232760000 114.0643020000,22.4220230000 114.0642750000,22.4215430000 114.0642570000,22.4213660000 114.0641580000,22.4204600000 114.0640030000,22.4189740000 114.0639950000,22.4189290000 114.0638760000,22.4183200000 114.0635200000,22.4166570000 114.0634500000,22.4161790000 114.0633480000,22.4155790000 114.0632220000,22.4150740000 114.0630650000,22.4145840000 114.0628950000,22.4141420000 114.0626700000,22.4136450000 114.0623410000,22.4130610000 114.0610200000,22.4108000000 114.0609240000,22.4106400000 114.0608370000,22.4104800000 114.0607560000,22.4103200000 114.0606700000,22.4101500000 114.0605900000,22.4099800000 114.0605150000,22.4098100000 114.0604420000,22.4096400000 114.0603740000,22.4094700000 114.0603150000,22.4093000000 114.0602650000,22.4091500000 114.0602190000,22.4090000000 114.0601790000,22.4088600000 114.0601310000,22.4086900000 114.0600910000,22.4085300000 114.0600550000,22.4083790000 114.0600430000,22.4083300000 114.0600010000,22.4081530000 114.0599670000,22.4080000000 114.0599350000,22.4078400000 114.0599080000,22.4076800000 114.0598880000,22.4075200000 114.0598690000,22.4073600000 114.0598510000,22.4072000000 114.0598350000,22.4070400000 114.0598260000,22.4068800000 114.0598220000,22.4067200000 114.0598200000,22.4065600000 114.0598200000,22.4064000000 114.0598220000,22.4062400000 114.0598260000,22.4060800000 114.0598320000,22.4059200000 114.0598410000,22.4057600000 114.0598540000,22.4056000000 114.0598690000,22.4054400000 114.0598910000,22.4052500000 114.0599270000,22.4049690000 114.0637180000,22.3811750000 114.0637550000,22.3810000000 114.0637950000,22.3808300000 114.0638400000,22.3806600000 114.0638870000,22.3804900000 114.0639380000,22.3803100000 114.0639920000,22.3801310000 114.0640500000,22.3799600000 114.0641120000,22.3797900000 114.0641800000,22.3796200000 114.0642480000,22.3794600000 114.0643150000,22.3793030000 114.0643830000,22.3791500000 114.0644610000,22.3789900000 114.0645400000,22.3788400000 114.0646200000,22.3786900000 114.0647230000,22.3785000000 114.0648310000,22.3783200000 114.0649400000,22.3781500000 114.0650520000,22.3779800000 114.0651700000,22.3778100000 114.0652900000,22.3776450000 114.0654130000,22.3774800000 114.0655400000,22.3773200000 114.0656660000,22.3771710000 114.0658010000,22.3770150000 114.0659500000,22.3768540000 114.0661020000,22.3766950000 114.0662500000,22.3765450000 114.0664000000,22.3764000000 114.0665500000,22.3762610000 114.0667140000,22.3761200000 114.0668830000,22.3759780000 114.0672200000,22.3757280000 114.0673840000,22.3756120000 114.0675860000,22.3754680000 114.0682370000,22.3750400000 114.0684280000,22.3748990000 114.0688590000,22.3745820000 114.0691710000,22.3743530000 114.0692520000,22.3742940000 114.0701770000,22.3737060000 114.0707720000,22.3733910000 114.0712910000,22.3731090000 114.0716000000,22.3729500000 114.0721310000,22.3727610000 114.0724780000,22.3726640000 114.0728230000,22.3725910000 114.0732480000,22.3725280000 114.0736650000,22.3724810000 114.0741240000,22.3724250000 114.0746000000,22.3723220000 114.0749880000,22.3721770000 114.0757910000,22.3718600000 114.0761870000,22.3717260000 114.0765330000,22.3716540000 114.0767890000,22.3716270000 114.0773250000,22.3716060000 114.0776390000,22.3716270000 114.0779630000,22.3716710000 114.0786860000,22.3717590000 114.0790740000,22.3718270000 114.0794520000,22.3718600000 114.0798940000,22.3718490000 114.0802560000,22.3717950000 114.0806260000,22.3716800000 114.0809770000,22.3715360000 114.0816380000,22.3711520000 114.0819740000,22.3709450000 114.0822990000,22.3707790000 114.0828140000,22.3705170000 114.0831570000,22.3703740000 114.0835260000,22.3702230000 114.0839730000,22.3700560000 114.0844620000,22.3698900000 114.0848390000,22.3697710000 114.0851540000,22.3696800000 114.0856420000,22.3695500000 114.0862030000,22.3693940000 114.0865610000,22.3692970000 114.0869600000,22.3691910000 114.0872390000,22.3691140000 114.0874830000,22.3690480000 114.0878050000,22.3689760000 114.0881990000,22.3689240000 114.0885600000,22.3689650000 114.0888820000,22.3690560000 114.0891360000,22.3692070000 114.0893810000,22.3694210000 114.0896030000,22.3696770000 114.0898780000,22.3700410000 114.0901590000,22.3703450000 114.0903340000,22.3705010000 114.0905700000,22.3706780000 114.0907600000,22.3707760000 114.0909460000,22.3708570000 114.0911720000,22.3709390000 114.0914150000,22.3710020000 114.0916200000,22.3710340000 114.0918570000,22.3710430000 114.0920490000,22.3710450000 114.0922990000,22.3710220000 114.0924770000,22.3709950000 114.0926770000,22.3709430000 114.0931080000,22.3707790000 114.0934830000,22.3705720000 114.0941110000,22.3701260000 114.0944050000,22.3699500000 114.0945970000,22.3698650000 114.0948340000,22.3697960000 114.0949640000,22.3697710000 114.0950960000,22.3697530000 114.0952310000,22.3697450000 114.0953830000,22.3697460000 114.0955610000,22.3697570000 114.0957060000,22.3697750000 114.0959070000,22.3698310000 114.0961150000,22.3699000000 114.0962670000,22.3699710000 114.0964180000,22.3700640000 114.0965190000,22.3701370000 114.0966300000,22.3702290000 114.0968150000,22.3704240000 114.0968990000,22.3705310000 114.0969690000,22.3706580000 114.0971460000,22.3709910000 114.0973750000,22.3714750000 114.0974600000,22.3716510000 114.0975780000,22.3718360000 114.0977130000,22.3720220000 114.0978430000,22.3721520000 114.0980160000,22.3723150000 114.0982530000,22.3725030000 114.0984520000,22.3726400000 114.0987210000,22.3727570000 114.0992930000,22.3729700000 114.1000660000,22.3732620000 114.1013410000,22.3737480000 114.1016130000,22.3738620000 114.1026220000,22.3741710000 114.1028670000,22.3742280000 114.1032910000,22.3743030000 114.1035420000,22.3743270000 114.1038060000,22.3743230000 114.1043040000,22.3742640000 114.1046620000,22.3741460000 114.1049490000,22.3740040000 114.1052510000,22.3737880000 114.1055310000,22.3735460000 114.1065460000,22.3725840000 114.1070150000,22.3722250000 114.1073580000,22.3719200000 114.1076400000,22.3716400000 114.1080760000,22.3712260000 114.1082830000,22.3710290000 114.1084120000,22.3709580000 114.1085680000,22.3708990000 114.1086620000,22.3708840000 114.1087200000,22.3708860000 114.1088080000,22.3709010000 114.1088780000,22.3709170000 114.1089740000,22.3709380000 114.1091340000,22.3710310000 114.1093050000,22.3711530000 114.1093670000,22.3711960000 114.1094330000,22.3712670000 114.1095470000,22.3714220000 114.1097300000,22.3717010000 114.1100750000,22.3722530000 114.1101550000,22.3723830000 114.1103670000,22.3727110000 114.1105310000,22.3729490000 114.1105400000,22.3729630000 114.1105690000,22.3730070000 114.1105980000,22.3730510000 114.1106280000,22.3730360000 114.1107080000,22.3729950000 114.1115400000,22.3725530000 114.1115890000,22.3725260000 114.1117220000,22.3724550000 114.1127720000,22.3718760000 114.1128070000,22.3718580000 114.1128790000,22.3718200000 114.1130560000,22.3717250000 114.1131770000,22.3716640000 114.1135410000,22.3714730000 114.1136130000,22.3714340000 114.1137160000,22.3713760000 114.1140600000,22.3711850000 114.1143000000,22.3710570000 114.1143520000,22.3710290000 114.1144670000,22.3709660000 114.1145600000,22.3709150000 114.1147460000,22.3708140000 114.1148630000,22.3707500000 114.1150000000,22.3706730000 114.1150390000,22.3706510000 114.1151950000,22.3705630000 114.1157500000,22.3702410000 114.1157850000,22.3702220000 114.1158350000,22.3701970000 114.1164040000,22.3698910000 114.1166060000,22.3697900000 114.1166470000,22.3697690000 114.1167750000,22.3697070000 114.1169150000,22.3696310000 114.1171040000,22.3695260000 114.1175960000,22.3692550000 114.1176160000,22.3692460000 114.1176750000,22.3692130000 114.1179140000,22.3695740000 114.1179700000,22.3695990000 114.1180790000,22.3696240000 114.1189420000,22.3691570000 114.1191040000,22.3690730000 114.1191210000,22.3690640000 114.1194910000,22.3688680000 114.1196170000,22.3688590000 114.1197660000,22.3688780000 114.1200490000,22.3690560000 114.1205490000,22.3693860000 114.1208300000,22.3695420000 114.1208530000,22.3695540000 114.1210080000,22.3696410000 114.1211200000,22.3697320000 114.1212830000,22.3699590000 114.1213550000,22.3700790000 114.1214050000,22.3701680000 114.1214670000,22.3702990000 114.1215960000,22.3703080000 114.1220430000,22.3703390000 114.1224220000,22.3703690000 114.1231570000,22.3704040000 114.1232530000,22.3704090000 114.1233950000,22.3704250000 114.1238290000,22.3704700000 114.1240340000,22.3704830000 114.1245590000,22.3705190000 114.1247650000,22.3705380000 114.1259240000,22.3706420000 114.1262410000,22.3706700000 114.1264630000,22.3706940000 114.1283290000,22.3708740000 114.1294780000,22.3709850000 114.1297970000,22.3709900000 114.1299280000,22.3710110000 114.1300700000,22.3710000000 114.1302840000,22.3709550000 114.1303860000,22.3709290000 114.1305170000,22.3708960000 114.1306810000,22.3708410000 114.1309790000,22.3706920000 114.1313450000,22.3705240000 114.1318650000,22.3702160000 114.1320630000,22.3700930000 114.1324730000,22.3698290000 114.1325370000,22.3697910000 114.1326690000,22.3697300000 114.1327560000,22.3697130000 114.1328570000,22.3697040000 114.1329140000,22.3697060000 114.1329910000,22.3697180000 114.1330710000,22.3697380000 114.1330860000,22.3697420000 114.1331630000,22.3697590000 114.1332470000,22.3697770000 114.1333130000,22.3697960000 114.1333650000,22.3698120000 114.1337040000,22.3699400000 114.1338030000,22.3699730000 114.1338820000,22.3699940000 114.1339680000,22.3700050000 114.1340480000,22.3700080000 114.1341650000,22.3699470000 114.1342380000,22.3699060000 114.1342590000,22.3699000000 114.1342860000,22.3698830000 114.1344430000,22.3697430000 114.1343160000,22.3689930000 114.1342770000,22.3687560000 114.1341900000,22.3684990000 114.1341620000,22.3684150000 114.1339700000,22.3679460000 114.1339070000,22.3677710000 114.1338220000,22.3675090000 114.1335820000,22.3668570000 114.1333810000,22.3662530000 114.1331750000,22.3656850000 114.1331430000,22.3655960000 114.1329600000,22.3652310000 114.1328450000,22.3648730000 114.1328160000,22.3647900000 114.1327960000,22.3647330000 114.1326400000,22.3642780000 114.1324240000,22.3635380000 114.1323860000,22.3634480000 114.1319480000,22.3621710000 114.1318500000,22.3618560000 114.1318280000,22.3617900000 114.1317270000,22.3615060000 114.1316760000,22.3613690000 114.1315800000,22.3610850000 114.1315690000,22.3610560000 114.1315360000,22.3609760000 114.1315040000,22.3608970000 114.1313290000,22.3609370000 114.1311670000,22.3609770000 114.1311380000,22.3609910000 114.1310360000,22.3610330000 114.1307550000,22.3611900000 114.1306190000,22.3612740000 114.1305160000,22.3613350000 114.1303850000,22.3614110000 114.1302650000,22.3615170000 114.1301320000,22.3613930000 114.1297230000,22.3610250000 114.1292820000,22.3606180000 114.1288400000,22.3601830000 114.1288210000,22.3601640000 114.1287230000,22.3600590000 114.1286440000,22.3599670000 114.1283930000,22.3597300000 114.1279710000,22.3593010000 114.1279230000,22.3592510000 114.1276810000,22.3590020000 114.1275720000,22.3588970000 114.1274910000,22.3588150000 114.1274230000,22.3587540000 114.1273390000,22.3586850000 114.1272560000,22.3586300000 114.1271830000,22.3585860000 114.1271140000,22.3585390000 114.1268920000,22.3583870000 114.1266770000,22.3582350000 114.1263880000,22.3580260000 114.1260570000,22.3577820000 114.1257110000,22.3575330000 114.1254440000,22.3573270000 114.1253740000,22.3572360000 114.1253370000,22.3571580000 114.1253210000,22.3570750000 114.1253190000,22.3570090000 114.1253310000,22.3569320000 114.1253530000,22.3568630000 114.1254100000,22.3567720000 114.1255190000,22.3566570000 114.1255900000,22.3565680000 114.1256520000,22.3564770000 114.1257220000,22.3563830000 114.1258110000,22.3562760000 114.1259140000,22.3561600000 114.1261830000,22.3558660000 114.1262260000,22.3558310000 114.1262700000,22.3558060000 114.1263150000,22.3557890000 114.1263600000,22.3557790000 114.1264190000,22.3557750000 114.1264970000,22.3557840000 114.1265730000,22.3557950000 114.1266450000,22.3557930000 114.1267080000,22.3557790000 114.1267700000,22.3557420000 114.1268140000,22.3556970000 114.1268430000,22.3556470000 114.1268770000,22.3555780000 114.1269080000,22.3554880000 114.1269250000,22.3554020000 114.1269260000,22.3553460000 114.1269160000,22.3552980000 114.1268980000,22.3552520000 114.1268570000,22.3551830000 114.1268100000,22.3551430000 114.1267580000,22.3551110000 114.1266910000,22.3550920000 114.1266320000,22.3550870000 114.1265640000,22.3550920000 114.1265040000,22.3551110000 114.1264010000,22.3551430000 114.1263320000,22.3551570000 114.1262720000,22.3551560000 114.1262080000,22.3551370000 114.1261340000,22.3551020000 114.1260670000,22.3550650000 114.1259840000,22.3550090000 114.1259770000,22.3549300000 114.1259900000,22.3548670000 114.1260210000,22.3548330000 114.1260750000,22.3548000000 114.1261340000,22.3547960000 114.1261880000,22.3548140000 114.1262440000,22.3548330000 114.1267300000,22.3548790000 114.1267970000,22.3548960000 114.1268640000,22.3549230000 114.1269340000,22.3549510000 114.1270060000,22.3549780000 114.1270760000,22.3549930000 114.1271660000,22.3549890000 114.1272430000,22.3549620000 114.1272870000,22.3549110000 114.1273000000,22.3548570000 114.1273020000,22.3548470000 114.1272850000,22.3547850000 114.1272370000,22.3547320000 114.1271820000,22.3546920000 114.1271520000,22.3546770000 114.1270990000,22.3546510000 114.1270570000,22.3546370000 114.1269320000,22.3546260000 114.1262580000,22.3545690000 114.1261930000,22.3545840000 114.1261340000,22.3546240000 114.1260090000,22.3547230000 114.1259650000,22.3547700000 114.1259360000,22.3548200000 114.1259200000,22.3548770000 114.1259170000,22.3549490000 114.1259840000,22.3550090000 114.1261130000,22.3551660000 114.1262350000,22.3552840000 114.1262600000,22.3553260000 114.1262730000,22.3553720000 114.1262780000,22.3554300000 114.1262810000,22.3554880000 114.1262670000,22.3555570000 114.1262380000,22.3556190000 114.1261750000,22.3557090000 114.1258540000,22.3561060000 114.1251340000,22.3568510000 114.1250090000,22.3569810000 114.1249110000,22.3570860000 114.1250200000,22.3571670000 114.1253320000,22.3573770000 114.1258590000,22.3577530000 114.1269090000,22.3585210000 114.1271480000,22.3586920000 114.1274160000,22.3588830000 114.1275020000,22.3589610000 114.1278500000,22.3593000000 114.1280060000,22.3594840000 114.1281170000,22.3595810000 114.1283320000,22.3597780000 114.1285970000,22.3600150000 114.1286720000,22.3601020000 114.1287720000,22.3602050000 114.1292400000,22.3606600000 114.1293780000,22.3607880000 114.1295440000,22.3609410000 114.1295780000,22.3609710000 114.1296430000,22.3610330000 114.1300750000,22.3614310000 114.1301850000,22.3615350000 114.1302140000,22.3615630000 114.1302730000,22.3616210000 114.1303250000,22.3615740000 114.1304710000,22.3614630000 114.1304940000,22.3614460000 114.1307320000,22.3613050000 114.1308590000,22.3612950000 114.1309500000,22.3612970000 114.1310440000,22.3613110000 114.1312260000,22.3613940000 114.1313430000,22.3615170000 114.1314020000,22.3616110000 114.1314760000,22.3617320000 114.1315330000,22.3618300000 114.1316620000,22.3620190000 114.1317310000,22.3621460000 114.1317510000,22.3622050000 114.1319610000,22.3627320000 114.1321070000,22.3631680000 114.1322950000,22.3635530000 114.1325220000,22.3641860000 114.1327690000,22.3648970000 114.1330740000,22.3658110000 114.1331540000,22.3661210000 114.1332980000,22.3666390000 114.1333640000,22.3668700000 114.1333880000,22.3669350000 114.1334770000,22.3671780000 114.1335900000,22.3674850000 114.1336160000,22.3675560000 114.1337800000,22.3680170000 114.1338130000,22.3681250000 114.1338560000,22.3682560000 114.1339010000,22.3685110000 114.1339080000,22.3686000000 114.1339000000,22.3686290000 114.1338620000,22.3686940000 114.1337780000,22.3688160000 114.1335980000,22.3689950000 114.1334790000,22.3690920000 114.1331670000,22.3692910000 114.1330440000,22.3693290000 114.1329480000,22.3693860000 114.1326680000,22.3695540000 114.1325860000,22.3696030000 114.1323990000,22.3697110000 114.1320250000,22.3699240000 114.1316760000,22.3701450000 114.1311710000,22.3704500000 114.1310220000,22.3705300000 114.1309620000,22.3705620000 114.1308410000,22.3706520000 114.1306360000,22.3707390000 114.1304860000,22.3707970000 114.1304000000,22.3708190000 114.1302570000,22.3708560000 114.1300540000,22.3708940000 114.1299170000,22.3709070000 114.1297960000,22.3709180000 114.1294770000,22.3709170000 114.1294380000,22.3709120000 114.1290000000,22.3708620000 114.1267140000,22.3706350000 114.1263080000,22.3706080000 114.1252770000,22.3705170000 114.1252430000,22.3705130000 114.1251610000,22.3705070000 114.1250190000,22.3704890000 114.1249410000,22.3704760000 114.1242070000,22.3704130000 114.1233160000,22.3703440000 114.1228920000,22.3702820000 114.1224820000,22.3702560000 114.1216330000,22.3701860000 114.1215460000,22.3701790000 114.1212370000,22.3696500000 114.1211170000,22.3695610000 114.1210690000,22.3695340000 114.1209140000,22.3694660000 114.1202760000,22.3690820000 114.1195940000,22.3686780000 114.1193650000,22.3685670000 114.1191880000,22.3684820000 114.1190910000,22.3684350000 114.1189840000,22.3683840000 114.1188790000,22.3684420000 114.1188380000,22.3684660000 114.1186090000,22.3685830000 114.1177090000,22.3690820000 114.1176820000,22.3690980000 114.1176230000,22.3691300000 114.1175680000,22.3691610000 114.1172950000,22.3693080000 114.1168850000,22.3695330000 114.1168540000,22.3695510000 114.1167180000,22.3696260000 114.1166030000,22.3696900000 114.1164630000,22.3697680000 114.1159470000,22.3700580000 114.1157990000,22.3701410000 114.1157750000,22.3701530000 114.1157500000,22.3701650000 114.1152000000,22.3704580000 114.1150280000,22.3705540000 114.1149850000,22.3705770000 114.1148920000,22.3706310000 114.1147030000,22.3707320000 114.1145130000,22.3708300000 114.1143820000,22.3709040000 114.1142610000,22.3709610000 114.1138780000,22.3711430000 114.1138020000,22.3711780000 114.1136520000,22.3712600000 114.1135480000,22.3713220000 114.1132820000,22.3714730000 114.1130380000,22.3716220000 114.1128830000,22.3717090000 114.1128320000,22.3717380000 114.1127260000,22.3717900000 114.1126490000,22.3718310000 114.1121240000,22.3721130000 114.1120290000,22.3721640000 114.1117270000,22.3723260000 114.1116640000,22.3723630000 114.1115360000,22.3724300000 114.1109360000,22.3727550000 114.1107640000,22.3727900000 114.1106830000,22.3727960000 114.1105730000,22.3727840000 114.1105090000,22.3726840000 114.1102730000,22.3723140000 114.1101310000,22.3721040000 114.1098560000,22.3716540000 114.1097720000,22.3715150000 114.1096760000,22.3713590000 114.1095880000,22.3712150000 114.1095090000,22.3711360000 114.1090560000,22.3707110000 114.1089240000,22.3706150000 114.1088720000,22.3705580000 114.1088690000,22.3705140000 114.1088490000,22.3704590000 114.1088140000,22.3704100000 114.1087670000,22.3703710000 114.1087110000,22.3703440000 114.1086490000,22.3703320000 114.1085860000,22.3703340000 114.1085500000,22.3703430000 114.1084940000,22.3703680000 114.1084470000,22.3704050000 114.1084120000,22.3704520000 114.1083900000,22.3705060000 114.1083840000,22.3705440000 114.1083860000,22.3705830000 114.1082780000,22.3706670000 114.1074370000,22.3714680000 114.1067890000,22.3721300000 114.1062540000,22.3726940000 114.1058340000,22.3731160000 114.1051750000,22.3737350000 114.1049240000,22.3739250000 114.1046300000,22.3740810000 114.1042960000,22.3741950000 114.1038080000,22.3742380000 114.1035460000,22.3742380000 114.1032800000,22.3742090000 114.1028180000,22.3741080000 114.1025120000,22.3740220000 114.1021860000,22.3739210000 114.1016640000,22.3737360000 114.1008430000,22.3734150000 114.1001380000,22.3731280000 114.0993460000,22.3728310000 114.0988930000,22.3726590000 114.0986070000,22.3725290000 114.0983350000,22.3723580000 114.0981860000,22.3722320000 114.0979280000,22.3719820000 114.0978450000,22.3718970000 114.0977620000,22.3717910000 114.0976680000,22.3716390000 114.0975860000,22.3714920000 114.0974940000,22.3713090000 114.0973790000,22.3710430000 114.0973210000,22.3709180000 114.0972380000,22.3707500000 114.0971450000,22.3705790000 114.0970680000,22.3704620000 114.0969630000,22.3703230000 114.0968670000,22.3702250000 114.0967520000,22.3701060000 114.0966320000,22.3700120000 114.0964660000,22.3699030000 114.0961870000,22.3697460000 114.0959810000,22.3696650000 114.0958730000,22.3696360000 114.0957350000,22.3696000000 114.0955670000,22.3695840000 114.0954070000,22.3695680000 114.0952580000,22.3695650000 114.0951410000,22.3695760000 114.0949400000,22.3695950000 114.0947390000,22.3696360000 114.0946190000,22.3696670000 114.0944740000,22.3697200000 114.0942780000,22.3698030000 114.0941110000,22.3698960000 114.0939400000,22.3700070000 114.0938070000,22.3700980000 114.0936510000,22.3702120000 114.0934600000,22.3703610000 114.0933660000,22.3704310000 114.0932490000,22.3705060000 114.0931070000,22.3705810000 114.0929260000,22.3706650000 114.0926800000,22.3707540000 114.0925440000,22.3707930000 114.0923810000,22.3708260000 114.0922270000,22.3708530000 114.0920360000,22.3708670000 114.0918030000,22.3708560000 114.0915480000,22.3708320000 114.0913060000,22.3707780000 114.0910680000,22.3706920000 114.0909290000,22.3706360000 114.0907200000,22.3705290000 114.0904980000,22.3703610000 114.0903320000,22.3701960000 114.0902090000,22.3700730000 114.0900760000,22.3699090000 114.0898750000,22.3696390000 114.0895640000,22.3692550000 114.0894460000,22.3691340000 114.0892880000,22.3689990000 114.0891310000,22.3689080000 114.0888860000,22.3688000000 114.0886970000,22.3687470000 114.0884900000,22.3687130000 114.0880320000,22.3687230000 114.0877060000,22.3687740000 114.0874410000,22.3688330000 114.0870680000,22.3689210000 114.0866250000,22.3690520000 114.0860660000,22.3692170000 114.0854050000,22.3694080000 114.0847150000,22.3696170000 114.0841120000,22.3697950000 114.0835140000,22.3699840000 114.0829190000,22.3702210000 114.0824330000,22.3704340000 114.0815630000,22.3709690000 114.0810910000,22.3712740000 114.0807210000,22.3714500000 114.0803160000,22.3716110000 114.0798330000,22.3716600000 114.0794320000,22.3716680000 114.0792330000,22.3716490000 114.0789790000,22.3715920000 114.0780800000,22.3713160000 114.0779250000,22.3712740000 114.0777000000,22.3712310000 114.0774680000,22.3711950000 114.0772220000,22.3711850000 114.0769450000,22.3711900000 114.0766840000,22.3712210000 114.0764440000,22.3712680000 114.0761310000,22.3713390000 114.0758580000,22.3713790000 114.0756260000,22.3713980000 114.0754060000,22.3714050000 114.0751700000,22.3713860000 114.0749960000,22.3713560000 114.0748070000,22.3713290000 114.0745360000,22.3712690000 114.0743400000,22.3712320000 114.0741270000,22.3711960000 114.0738720000,22.3711980000 114.0736560000,22.3712110000 114.0734600000,22.3712410000 114.0732580000,22.3712920000 114.0730650000,22.3713600000 114.0728640000,22.3714410000 114.0726570000,22.3715630000 114.0724890000,22.3716800000 114.0723040000,22.3718160000 114.0721710000,22.3719170000 114.0712510000,22.3726470000 114.0710560000,22.3727970000 114.0708070000,22.3729810000 114.0706250000,22.3731120000 114.0703890000,22.3732740000 114.0700810000,22.3735450000 114.0691650000,22.3740570000 114.0686690000,22.3743500000 114.0680660000,22.3746770000 114.0674440000,22.3750520000 114.0671190000,22.3752480000 114.0671050000,22.3752570000 114.0669000000,22.3753850000 114.0667150000,22.3755200000 114.0665630000,22.3756400000 114.0664200000,22.3757600000 114.0662790000,22.3758800000 114.0661410000,22.3760010000 114.0660170000,22.3761210000 114.0658870000,22.3762500000 114.0657670000,22.3763700000 114.0656400000,22.3765000000 114.0655140000,22.3766300000 114.0653940000,22.3767600000 114.0652830000,22.3768900000 114.0651700000,22.3770250000 114.0650620000,22.3771600000 114.0649600000,22.3772950000 114.0648600000,22.3774300000 114.0647660000,22.3775610000 114.0646670000,22.3777000000 114.0645780000,22.3778300000 114.0644870000,22.3779700000 114.0643920000,22.3781210000 114.0643070000,22.3782700000 114.0642190000,22.3784300000 114.0641320000,22.3785900000 114.0640530000,22.3787400000 114.0639750000,22.3789000000 114.0639000000,22.3790600000 114.0638300000,22.3792200000 114.0637600000,22.3793850000 114.0636900000,22.3795600000 114.0636290000,22.3797200000 114.0635680000,22.3799000000 114.0635100000,22.3800800000 114.0634500000,22.3802800000 114.0633950000,22.3804800000 114.0633400000,22.3807000000 114.0632940000,22.3809100000 114.0632710000,22.3810420000 114.0593990000,22.4053980000 114.0593770000,22.4055790000 114.0593560000,22.4058000000 114.0593450000,22.4060000000 114.0593400000,22.4062000000 114.0593380000,22.4063500000 114.0593370000,22.4065000000 114.0593370000,22.4066500000 114.0593410000,22.4068000000 114.0593500000,22.4069800000 114.0593600000,22.4071500000 114.0593800000,22.4073700000 114.0594000000,22.4075600000 114.0594200000,22.4077300000 114.0594450000,22.4079000000 114.0594710000,22.4080600000 114.0595100000,22.4082430000 114.0595450000,22.4084000000 114.0595900000,22.4086000000 114.0596400000,22.4088000000 114.0596880000,22.4089500000 114.0597400000,22.4091000000 114.0597940000,22.4092500000 114.0598500000,22.4094000000 114.0599200000,22.4095600000 114.0599900000,22.4097100000 114.0600640000,22.4098600000 114.0601400000,22.4100100000 114.0602250000,22.4101600000 114.0603170000,22.4103100000 114.0603800000,22.4104100000 114.0604160000,22.4104600000 114.0605880000,22.4107290000 114.0621750000,22.4131710000 114.0623450000,22.4134530000 114.0624790000,22.4137160000 114.0626320000,22.4140050000 114.0627740000,22.4143430000 114.0629310000,22.4147790000 114.0630260000,22.4150800000 114.0631030000,22.4153860000 114.0631600000,22.4156780000 114.0632030000,22.4159050000 114.0632440000,22.4161640000 114.0633070000,22.4166640000 114.0633480000,22.4172350000 114.0633840000,22.4182370000 114.0634610000,22.4189950000 114.0634650000,22.4190400000 114.0636610000,22.4200300000 114.0638150000,22.4206580000 114.0639010000,22.4209710000 114.0639970000,22.4213920000 114.0640270000,22.4215360000 114.0640500000,22.4216920000 114.0640990000,22.4220490000 114.0641190000,22.4232790000 114.0640870000,22.4259440000 114.0640220000,22.4268200000 114.0639200000,22.4277240000 114.0637770000,22.4285930000 114.0635410000,22.4296160000 114.0632550000,22.4305100000 114.0629540000,22.4313360000 114.0626350000,22.4320300000 114.0622920000,22.4327040000 114.0618090000,22.4334780000 114.0612940000,22.4342310000 114.0607250000,22.4349550000 114.0600050000,22.4357480000 114.0595240000,22.4362250000 114.0592950000,22.4364300000 114.0588160000,22.4368590000 114.0588160000,22.4368590000 114.0581290000,22.4374250000 114.0573570000,22.4380100000 114.0565380000,22.4385440000 114.0551350000,22.4395660000 114.0528590000,22.4413090000 114.0525830000,22.4415180000 114.0521860000,22.4418550000 114.0517580000,22.4422580000 114.0512860000,22.4427720000 114.0509410000,22.4431830000 114.0506780000,22.4435630000 114.0503510000,22.4440780000 114.0500900000,22.4445150000 114.0499770000,22.4446820000 114.0497800000,22.4450950000 114.0495290000,22.4456110000 114.0492980000,22.4461380000 114.0489890000,22.4468030000 114.0488280000,22.4472790000 114.0486670000,22.4477350000 114.0484950000,22.4482710000 114.0483880000,22.4487270000 114.0483410000,22.4488710000 114.0483130000,22.4491930000 114.0482490000,22.4496790000 114.0482490000,22.4501150000 114.0482700000,22.4506210000 114.0482970000,22.4508400000 114.0483450000,22.4510870000 114.0484010000,22.4513600000 114.0484740000,22.4516220000 114.0485710000,22.4520090000 114.0487210000,22.4524250000 114.0488820000,22.4528020000 114.0490640000,22.4531590000 114.0492790000,22.4535560000 114.0494050000,22.4537570000 114.0495070000,22.4538910000 114.0497440000,22.4542000000 114.0503300000,22.4548650000 114.0507180000,22.4552730000 114.0508580000,22.4554290000 114.0510920000,22.4557020000 114.0513380000,22.4560690000 114.0515200000,22.4564010000 114.0515880000,22.4565590000 114.0517160000,22.4568310000 114.0519130000,22.4573490000 114.0521200000,22.4580910000 114.0521930000,22.4583940000 114.0541640000,22.4666500000 114.0549320000,22.4695170000 114.0552480000,22.4707920000 114.0554120000,22.4714140000 114.0555720000,22.4720290000 114.0561060000,22.4740940000 114.0562830000,22.4746300000 114.0564070000,22.4749210000 114.0564600000,22.4750430000 114.0566710000,22.4754880000 114.0569220000,22.4759660000 114.0572390000,22.4765930000 114.0573800000,22.4769120000 114.0575120000,22.4771870000 114.0577050000,22.4776530000 114.0578660000,22.4781390000 114.0579940000,22.4785950000 114.0580450000,22.4788630000 114.0580800000,22.4790510000 114.0581070000,22.4792310000 114.0581340000,22.4794080000 114.0581660000,22.4798740000 114.0582130000,22.4805690000 114.0585030000,22.4855160000 114.0585780000,22.4861110000 114.0586850000,22.4866760000 114.0588030000,22.4871320000 114.0590070000,22.4877270000 114.0592430000,22.4882620000 114.0595440000,22.4887870000 114.0598650000,22.4892930000 114.0601640000,22.4897140000 114.0605600000,22.4901800000 114.0608820000,22.4905070000 114.0612360000,22.4908150000 114.0616330000,22.4911220000 114.0617150000,22.4911780000 114.0620290000,22.4913940000 114.0620950000,22.4914390000 114.0624710000,22.4916710000 114.0628760000,22.4918900000 114.0633010000,22.4920970000 114.0637250000,22.4922620000 114.0641980000,22.4924210000 114.0653240000,22.4927180000 114.0661830000,22.4930020000 114.0690560000,22.4937500000 114.0693710000,22.4938350000 114.0731790000,22.4948720000 114.0733800000,22.4949280000 114.0757530000,22.4955730000 114.0762030000,22.4957310000 114.0766000000,22.4958900000 114.0769110000,22.4960390000 114.0772010000,22.4962270000 114.0774370000,22.4964150000 114.0776840000,22.4966240000 114.0778880000,22.4968420000 114.0780550000,22.4970720000 114.0787410000,22.4979040000 114.0789920000,22.4982270000 114.0793570000,22.4987970000 114.0800560000,22.4997660000 114.0804650000,22.5002620000 114.0808340000,22.5006320000 114.0811900000,22.5009950000 114.0815470000,22.5013700000 114.0819000000,22.5016580000 114.0824480000,22.5020930000 114.0829700000,22.5024270000 114.0834490000,22.5027120000 114.0839730000,22.5029890000 114.0845960000,22.5032710000 114.0851920000,22.5035060000 114.0858260000,22.5037280000 114.0863240000,22.5038690000 114.0867970000,22.5039910000 114.0872700000,22.5040760000 114.0877270000,22.5041570000 114.0877740000,22.5041630000 114.0882670000,22.5042310000 114.0888750000,22.5042850000 114.0891540000,22.5042900000 114.0894880000,22.5042970000 114.0901250000,22.5042870000 114.0907370000,22.5042580000 114.0908670000,22.5042520000 114.0913330000,22.5042150000 114.0920270000,22.5041610000 114.0929120000,22.5040910000 114.0949490000,22.5039300000 114.0973530000,22.5037470000 114.1050390000,22.5031710000 114.1056990000,22.5031210000 114.1073460000,22.5030040000 114.1088480000,22.5028850000 114.1097490000,22.5028060000 114.1103390000,22.5027470000 114.1110470000,22.5026480000 114.1134180000,22.5022930000 114.1139430000,22.5022200000 114.1143400000,22.5021740000 114.1146500000,22.5021440000 114.1149510000,22.5021350000 114.1153060000,22.5021350000 114.1158370000,22.5021710000 114.1163570000,22.5022340000 114.1173010000,22.5023330000 114.1177270000,22.5023760000 114.1181040000,22.5023970000 114.1184490000,22.5023820000 114.1188570000,22.5023430000 114.1192970000,22.5022540000 114.1197370000,22.5021250000 114.1202730000,22.5018870000 114.1206820000,22.5016640000 114.1212880000,22.5013360000 114.1219570000,22.5009750000 114.1228370000,22.5005590000 114.1236610000,22.5002170000 114.1247910000,22.4998110000 114.1252630000,22.4996580000 114.1257230000,22.4995210000 114.1269640000,22.4992110000 114.1275580000,22.4990560000 114.1282100000,22.4988900000 114.1289490000,22.4986770000 114.1298060000,22.4983430000 114.1302610000,22.4981460000 114.1307610000,22.4978970000 114.1309110000,22.4978130000 114.1310070000,22.4977590000 114.1314610000,22.4975060000 114.1315960000,22.4974310000 114.1316840000,22.4973810000 114.1322310000,22.4970540000 114.1328430000,22.4966480000 114.1332860000,22.4963410000 114.1338550000,22.4959230000 114.1344200000,22.4954460000 114.1380690000,22.4921690000 114.1384840000,22.4918290000 114.1389160000,22.4914710000 114.1397230000,22.4908070000 114.1406450000,22.4900220000 114.1411810000,22.4896490000 114.1415670000,22.4893940000 114.1418830000,22.4892160000 114.1424410000,22.4889300000 114.1430670000,22.4886890000 114.1433680000,22.4885900000 114.1437670000,22.4884670000 114.1444850000,22.4882710000 114.1456580000,22.4879200000 114.1461780000,22.4877490000 114.1478470000,22.4871580000 114.1482880000,22.4869960000 114.1488850000,22.4867790000 114.1490120000,22.4867280000 114.1491400000,22.4866810000 114.1495480000,22.4864900000 114.1500340000,22.4862130000 114.1505480000,22.4859140000 114.1510360000,22.4856720000 114.1513000000,22.4855400000 114.1513210000,22.4855280000 114.1516230000,22.4853740000 114.1518760000,22.4852290000 114.1521300000,22.4850790000 114.1523140000,22.4849430000 114.1524790000,22.4848020000 114.1526030000,22.4846800000 114.1528430000,22.4844300000 114.1530090000,22.4842270000 114.1531770000,22.4839690000 114.1532520000,22.4838320000 114.1533430000,22.4836740000 114.1533750000,22.4836170000 114.1534000000,22.4835730000 114.1535080000,22.4833950000 114.1536130000,22.4831830000 114.1538170000,22.4825660000 114.1539120000,22.4822430000 114.1539900000,22.4819460000 114.1540200000,22.4817320000 114.1540350000,22.4814930000 114.1540020000,22.4812410000 114.1539520000,22.4810050000 114.1539080000,22.4808060000 114.1537310000,22.4802820000 114.1535810000,22.4798710000 114.1533170000,22.4791190000 114.1532430000,22.4788680000 114.1532080000,22.4787330000 114.1532100000,22.4786290000 114.1532240000,22.4785140000 114.1532970000,22.4783240000 114.1534190000,22.4782130000 114.1535130000,22.4781310000 114.1536050000,22.4780790000 114.1537290000,22.4780390000 114.1538100000,22.4780280000 114.1539600000,22.4780270000 114.1540720000,22.4780480000 114.1542100000,22.4780960000 114.1543350000,22.4781740000 114.1544900000,22.4783350000 114.1545390000,22.4784390000 114.1545750000,22.4785770000 114.1545870000,22.4786940000 114.1545910000,22.4788940000 114.1545460000,22.4791840000 114.1544360000,22.4796740000 114.1544120000,22.4798690000 114.1543760000,22.4802670000 114.1543090000,22.4808180000 114.1542750000,22.4812360000 114.1542640000,22.4815270000 114.1542570000,22.4817860000 114.1542680000,22.4819470000 114.1543070000,22.4823590000 114.1543050000,22.4825440000 114.1543380000,22.4826900000 114.1544290000,22.4830460000 114.1545160000,22.4832600000 114.1546800000,22.4836570000 114.1547920000,22.4839000000 114.1548500000,22.4840270000 114.1550350000,22.4844430000 114.1550860000,22.4845330000 114.1551220000,22.4846050000 114.1551360000,22.4846320000 114.1551730000,22.4847230000 114.1560520000,22.4863610000 114.1657940000,22.5009120000 114.1744990000,22.5108810000 114.1747780000,22.5111710000 114.1765080000,22.5124670000 114.1770010000,22.5127750000 114.1779230000,22.5132600000 114.1793320000,22.5139580000 114.1815920000,22.5150860000 114.1818310000,22.5152620000 114.1821550000,22.5155710000 114.1823590000,22.5158590000 114.1826030000,22.5164620000 114.1826600000,22.5170880000 114.1826190000,22.5176360000 114.1824560000,22.5181920000 114.1824230000,22.5182410000 114.1824130000,22.5182560000 114.1823700000,22.5183390000 114.1822400000,22.5185220000 114.1821080000,22.5186870000 114.1820110000,22.5188080000 114.1818210000,22.5190060000 114.1816090000,22.5192290000 114.1810820000,22.5195470000 114.1806360000,22.5199830000 114.1801220000,22.5204790000 114.1796210000,22.5208570000 114.1795540000,22.5209080000 114.1794810000,22.5209400000 114.1793920000,22.5209710000 114.1792260000,22.5209530000 114.1790720000,22.5209690000 114.1790240000,22.5209820000 114.1789880000,22.5210020000 114.1788230000,22.5210610000 114.1787420000,22.5211100000 114.1786640000,22.5211800000 114.1785230000,22.5212810000 114.1784300000,22.5213170000 114.1782760000,22.5213350000 114.1781740000,22.5213100000 114.1781100000,22.5212960000 114.1780270000,22.5212780000 114.1778520000,22.5212280000 114.1775920000,22.5211340000 114.1773950000,22.5209970000 114.1765450000,22.5201410000 114.1764380000,22.5199750000 114.1762830000,22.5197310000 114.1761910000,22.5195730000 114.1760730000,22.5194030000 114.1756600000,22.5189990000 114.1754980000,22.5188400000 114.1753150000,22.5186960000 114.1750150000,22.5185170000 114.1747000000,22.5183180000 114.1741610000,22.5180210000 114.1729990000,22.5173410000 114.1728250000,22.5172370000 114.1721930000,22.5168580000 114.1721050000,22.5168060000 114.1714020000,22.5163910000 114.1708500000,22.5160690000 114.1703310000,22.5157640000 114.1693680000,22.5152100000 114.1692920000,22.5151600000 114.1690770000,22.5150190000 114.1688180000,22.5148250000 114.1683800000,22.5144690000 114.1683370000,22.5144290000 114.1682120000,22.5142650000 114.1680310000,22.5140540000 114.1678420000,22.5138180000 114.1676960000,22.5135940000 114.1676670000,22.5135350000 114.1676200000,22.5134870000 114.1675590000,22.5134560000 114.1674900000,22.5134450000 114.1674210000,22.5134550000 114.1673570000,22.5134860000 114.1673070000,22.5135350000 114.1672790000,22.5135970000 114.1672740000,22.5136640000 114.1672830000,22.5137040000 114.1672760000,22.5138580000 114.1672460000,22.5140210000 114.1672320000,22.5141500000 114.1672360000,22.5142290000 114.1671920000,22.5144040000 114.1671380000,22.5145270000 114.1670740000,22.5146090000 114.1668810000,22.5148950000 114.1667740000,22.5151340000 114.1666230000,22.5155890000 114.1664400000,22.5163800000 114.1664160000,22.5164370000 114.1663650000,22.5165570000 114.1663120000,22.5165970000 114.1662450000,22.5167170000 114.1661480000,22.5168200000 114.1661090000,22.5169060000 114.1659760000,22.5172780000 114.1658430000,22.5176870000 114.1657290000,22.5181070000 114.1656760000,22.5182600000 114.1652240000,22.5196570000 114.1651500000,22.5197840000 114.1650200000,22.5199030000 114.1648330000,22.5199960000 114.1645200000,22.5201230000 114.1644740000,22.5201420000 114.1635090000,22.5205510000 114.1632910000,22.5206890000 114.1631560000,22.5208100000 114.1630440000,22.5209510000 114.1627520000,22.5214650000 114.1623350000,22.5221950000 114.1620280000,22.5227310000 114.1618120000,22.5230830000 114.1617270000,22.5231940000 114.1615770000,22.5233420000 114.1611880000,22.5237340000 114.1606730000,22.5242130000 114.1603350000,22.5245420000 114.1601550000,22.5247510000 114.1605170000,22.5249830000 114.1607020000,22.5251010000 114.1608410000,22.5251540000 114.1609730000,22.5251770000 114.1611280000,22.5251830000 114.1612410000,22.5251740000 114.1614390000,22.5251440000 114.1616390000,22.5250950000 114.1617140000,22.5250910000 114.1618090000,22.5250970000 114.1619200000,22.5251280000 114.1620200000,22.5251320000 114.1621290000,22.5251050000 114.1624650000,22.5249750000 114.1626490000,22.5248640000 114.1628480000,22.5248040000 114.1630330000,22.5247330000 114.1631760000,22.5246560000 114.1632780000,22.5245990000 114.1633680000,22.5245720000 114.1635440000,22.5245420000 114.1636930000,22.5245110000 114.1638060000,22.5244850000 114.1639850000,22.5244070000 114.1641490000,22.5243320000 114.1644700000,22.5242390000 114.1646170000,22.5242020000 114.1646900000,22.5241860000 114.1649000000,22.5241800000 114.1651920000,22.5242360000 114.1653160000,22.5242410000 114.1654220000,22.5242300000 114.1655840000,22.5242930000 114.1659290000,22.5245880000 114.1660590000,22.5247050000 114.1661820000,22.5248020000 114.1662690000,22.5248410000 114.1663290000,22.5247790000 114.1664060000,22.5246930000</coordinates>
                </LineString>
                <ExtendedData>
                    <Data name="duration">
                        <value>02:06:18</value>
                    </Data>
                    <Data name="length">
                        <value>90739.26705272018</value>
                    </Data>
                </ExtendedData>
            </Placemark>
        </Document>
    </Document>
</kml>