<?xml version="1.0" encoding="UTF-8"?>
<kml xmlns="http://www.opengis.net/kml/2.2" xmlns:gx="http://www.google.com/kml/ext/2.2">
    <Document>
        <name>Route</name>
        <Folder>
            <name>Route Request</name>
            <Placemark>
                <Point>
                    <coordinates>113.9673935378,22.3721499917</coordinates>
                </Point>
                <ExtendedData>
                    <Data name="routingVisited">
                        <value>false</value>
                    </Data>
                </ExtendedData>
            </Placemark>
            <Placemark>
                <Point>
                    <coordinates>113.9620124151,22.3783892950</coordinates>
                </Point>
                <ExtendedData>
                    <Data name="routingVisited">
                        <value>false</value>
                    </Data>
                </ExtendedData>
            </Placemark>
            <Placemark>
                <Point>
                    <coordinates>113.9725053797,22.3839980782</coordinates>
                </Point>
            </Placemark>
            <Placemark>
                <Point>
                    <coordinates>113.9805721762,22.3869570259</coordinates>
                </Point>
                <ExtendedData>
                    <Data name="routingVisited">
                        <value>false</value>
                    </Data>
                </ExtendedData>
            </Placemark>
            <Placemark>
                <Point>
                    <coordinates>114.0170751318,22.3625082039</coordinates>
                </Point>
            </Placemark>
            <Placemark>
                <Point>
                    <coordinates>114.1197640238,22.3711022892</coordinates>
                </Point>
            </Placemark>
            <Placemark>
                <Point>
                    <coordinates>114.1287079047,22.3540370466</coordinates>
                </Point>
                <ExtendedData>
                    <Data name="routingVisited">
                        <value>false</value>
                    </Data>
                </ExtendedData>
            </Placemark>
            <Placemark>
                <Point>
                    <coordinates>114.1312874327,22.3509584544</coordinates>
                </Point>
                <ExtendedData>
                    <Data name="routingVisited">
                        <value>false</value>
                    </Data>
                </ExtendedData>
            </Placemark>
            <Placemark>
                <Point>
                    <coordinates>114.1320722761,22.3529270256</coordinates>
                </Point>
                <ExtendedData>
                    <Data name="routingVisited">
                        <value>false</value>
                    </Data>
                </ExtendedData>
            </Placemark>
            <Placemark>
                <Point>
                    <coordinates>114.1293979040,22.3475206137</coordinates>
                </Point>
                <ExtendedData>
                    <Data name="routingVisited">
                        <value>false</value>
                    </Data>
                </ExtendedData>
            </Placemark>
            <Placemark>
                <Point>
                    <coordinates>114.1287278110,22.3571136077</coordinates>
                </Point>
                <ExtendedData>
                    <Data name="routingVisited">
                        <value>false</value>
                    </Data>
                </ExtendedData>
            </Placemark>
            <Placemark>
                <Point>
                    <coordinates>114.1147710147,22.3738344354</coordinates>
                </Point>
            </Placemark>
            <Placemark>
                <Point>
                    <coordinates>114.0184065109,22.3583737012</coordinates>
                </Point>
                <ExtendedData>
                    <Data name="routingVisited">
                        <value>false</value>
                    </Data>
                </ExtendedData>
            </Placemark>
            <Placemark>
                <Point>
                    <coordinates>113.9808673732,22.3846620518</coordinates>
                </Point>
                <ExtendedData>
                    <Data name="routingVisited">
                        <value>false</value>
                    </Data>
                </ExtendedData>
            </Placemark>
            <Placemark>
                <Point>
                    <coordinates>113.9709689282,22.3838888571</coordinates>
                </Point>
            </Placemark>
            <Placemark>
                <Point>
                    <coordinates>113.9640784486,22.3737275723</coordinates>
                </Point>
                <ExtendedData>
                    <Data name="routingVisited">
                        <value>false</value>
                    </Data>
                </ExtendedData>
            </Placemark>
            <Placemark>
                <Point>
                    <coordinates>113.9674021977,22.3721565734</coordinates>
                </Point>
                <ExtendedData>
                    <Data name="routingVisited">
                        <value>false</value>
                    </Data>
                </ExtendedData>
            </Placemark>
        </Folder>
        <Document>
            <name>64.1 km; 02:05 h (OSRM)</name>
            <Placemark>
                <name>Route</name>
                <LineString>
                    <coordinates>113.9676990000,22.3724350000 113.9677410000,22.3725850000 113.9677660000,22.3726740000 113.9674750000,22.3727390000 113.9673300000,22.3727810000 113.9671640000,22.3728200000 113.9670340000,22.3728470000 113.9668370000,22.3728960000 113.9666450000,22.3729420000 113.9657290000,22.3731800000 113.9654160000,22.3732640000 113.9653110000,22.3732900000 113.9652470000,22.3733240000 113.9652140000,22.3733300000 113.9651770000,22.3733360000 113.9644420000,22.3734420000 113.9643490000,22.3734570000 113.9636520000,22.3735660000 113.9634090000,22.3736070000 113.9631680000,22.3736470000 113.9626350000,22.3737610000 113.9625220000,22.3738040000 113.9624820000,22.3738250000 113.9623210000,22.3739110000 113.9619160000,22.3743970000 113.9616900000,22.3746660000 113.9616100000,22.3747670000 113.9615420000,22.3748520000 113.9615290000,22.3748590000 113.9614250000,22.3749730000 113.9609640000,22.3754940000 113.9609400000,22.3755210000 113.9607810000,22.3757000000 113.9606860000,22.3758080000 113.9605060000,22.3760110000 113.9604200000,22.3761430000 113.9604020000,22.3762120000 113.9604230000,22.3763480000 113.9609840000,22.3770450000 113.9618720000,22.3781650000 113.9620010000,22.3783290000 113.9620350000,22.3783740000 113.9625300000,22.3790130000 113.9626030000,22.3791080000 113.9627950000,22.3794160000 113.9629330000,22.3796750000 113.9630520000,22.3800410000 113.9631000000,22.3802930000 113.9631710000,22.3805850000 113.9632080000,22.3807260000 113.9633330000,22.3811150000 113.9633720000,22.3812520000 113.9634180000,22.3814020000 113.9634500000,22.3815140000 113.9635070000,22.3817350000 113.9636100000,22.3820560000 113.9636320000,22.3821170000 113.9636660000,22.3822020000 113.9640150000,22.3829980000 113.9640440000,22.3830700000 113.9640560000,22.3831030000 113.9640710000,22.3831390000 113.9643130000,22.3836210000 113.9644940000,22.3839050000 113.9647390000,22.3842650000 113.9648140000,22.3844010000 113.9648740000,22.3845360000 113.9649290000,22.3846500000 113.9652250000,22.3853310000 113.9652670000,22.3854280000 113.9657230000,22.3864450000 113.9658420000,22.3869910000 113.9659520000,22.3874860000 113.9660460000,22.3877340000 113.9661200000,22.3878430000 113.9662000000,22.3879280000 113.9663410000,22.3880330000 113.9665020000,22.3881080000 113.9666820000,22.3881420000 113.9668390000,22.3881440000 113.9670150000,22.3881050000 113.9671990000,22.3880350000 113.9676010000,22.3878270000 113.9682010000,22.3875210000 113.9689770000,22.3870670000 113.9695640000,22.3867890000 113.9701230000,22.3865100000 113.9708110000,22.3862310000 113.9711810000,22.3860960000 113.9713640000,22.3860610000 113.9715130000,22.3860600000 113.9716640000,22.3861190000 113.9717710000,22.3862300000 113.9717950000,22.3863480000 113.9717570000,22.3864820000 113.9716960000,22.3865660000 113.9715810000,22.3866370000 113.9714560000,22.3866440000 113.9714010000,22.3866350000 113.9712980000,22.3865880000 113.9712110000,22.3864980000 113.9711700000,22.3864130000 113.9710200000,22.3857980000 113.9707830000,22.3846380000 113.9706480000,22.3840180000 113.9709160000,22.3839960000 113.9713710000,22.3839650000 113.9720750000,22.3839220000 113.9721180000,22.3839200000 113.9722300000,22.3839130000 113.9723790000,22.3839050000 113.9724980000,22.3838980000 113.9725430000,22.3838950000 113.9726760000,22.3838880000 113.9728190000,22.3838790000 113.9729790000,22.3838700000 113.9732800000,22.3838560000 113.9733600000,22.3838530000 113.9742820000,22.3838120000 113.9749320000,22.3837830000 113.9749760000,22.3837810000 113.9750290000,22.3837780000 113.9751100000,22.3837750000 113.9752220000,22.3837750000 113.9751950000,22.3831250000 113.9752040000,22.3829790000 113.9752430000,22.3828080000 113.9753160000,22.3826350000 113.9753860000,22.3824860000 113.9755390000,22.3825510000 113.9762360000,22.3828450000 113.9763460000,22.3828920000 113.9771690000,22.3832390000 113.9778820000,22.3835410000 113.9779470000,22.3835650000 113.9780840000,22.3836020000 113.9782010000,22.3836280000 113.9783380000,22.3836460000 113.9790370000,22.3836740000 113.9795860000,22.3837600000 113.9798540000,22.3838580000 113.9801010000,22.3839970000 113.9803650000,22.3842220000 113.9805690000,22.3844340000 113.9807270000,22.3846950000 113.9808610000,22.3850040000 113.9809650000,22.3854790000 113.9809810000,22.3859040000 113.9809550000,22.3862700000 113.9808970000,22.3865310000 113.9808080000,22.3869960000 113.9807660000,22.3872140000 113.9806540000,22.3876820000 113.9805400000,22.3881300000 113.9804800000,22.3883310000 113.9802070000,22.3893660000 113.9801170000,22.3896790000 113.9799000000,22.3904350000 113.9798280000,22.3906730000 113.9796740000,22.3906410000 113.9788610000,22.3904620000 113.9785420000,22.3903810000 113.9783760000,22.3902480000 113.9783350000,22.3901700000 113.9783270000,22.3900450000 113.9783170000,22.3899020000 113.9784700000,22.3889240000 113.9784960000,22.3887000000 113.9785480000,22.3884900000 113.9786780000,22.3880290000 113.9789210000,22.3872400000 113.9790430000,22.3868260000 113.9791420000,22.3865030000 113.9792200000,22.3862900000 113.9793410000,22.3859100000 113.9793900000,22.3858250000 113.9796330000,22.3854870000 113.9796990000,22.3853570000 113.9797720000,22.3851710000 113.9799050000,22.3847480000 113.9800050000,22.3845290000 113.9802230000,22.3841450000 113.9803850000,22.3838440000 113.9804560000,22.3837080000 113.9807740000,22.3831050000 113.9809100000,22.3829270000 113.9811710000,22.3826090000 113.9813720000,22.3823680000 113.9815040000,22.3822380000 113.9821650000,22.3816410000 113.9828990000,22.3810610000 113.9839000000,22.3802780000 113.9846100000,22.3796430000 113.9852940000,22.3789850000 113.9859080000,22.3783770000 113.9864820000,22.3777370000 113.9868050000,22.3773380000 113.9872790000,22.3768080000 113.9874600000,22.3765890000 113.9880600000,22.3759340000 113.9883310000,22.3757070000 113.9885140000,22.3755730000 113.9887780000,22.3754140000 113.9891350000,22.3752610000 113.9894140000,22.3751730000 113.9897150000,22.3751270000 113.9900350000,22.3751210000 113.9904760000,22.3751540000 113.9909950000,22.3752530000 113.9918510000,22.3755010000 113.9929040000,22.3758300000 113.9932540000,22.3759500000 113.9936130000,22.3760320000 113.9939450000,22.3760810000 113.9943560000,22.3761040000 113.9947240000,22.3760820000 113.9950380000,22.3760240000 113.9953340000,22.3759340000 113.9956180000,22.3758120000 113.9958720000,22.3756880000 113.9961470000,22.3755040000 113.9965460000,22.3751260000 113.9966900000,22.3749710000 113.9969750000,22.3746640000 113.9970670000,22.3745730000 113.9974340000,22.3741130000 113.9979490000,22.3733630000 113.9981690000,22.3730100000 113.9984530000,22.3725000000 113.9990740000,22.3714450000 113.9994890000,22.3707680000 113.9998790000,22.3701830000 114.0003660000,22.3695420000 114.0010540000,22.3686540000 114.0012610000,22.3684300000 114.0014620000,22.3682520000 114.0018530000,22.3679500000 114.0022990000,22.3676870000 114.0027330000,22.3675010000 114.0031680000,22.3673620000 114.0035600000,22.3672900000 114.0039210000,22.3672610000 114.0043770000,22.3672620000 114.0048220000,22.3673070000 114.0055380000,22.3674380000 114.0059420000,22.3674780000 114.0063330000,22.3674780000 114.0066690000,22.3674310000 114.0069270000,22.3673710000 114.0079760000,22.3670700000 114.0085220000,22.3669440000 114.0090600000,22.3668350000 114.0097620000,22.3667710000 114.0109020000,22.3667340000 114.0112990000,22.3667050000 114.0116500000,22.3666400000 114.0119910000,22.3665200000 114.0123590000,22.3663360000 114.0126870000,22.3661200000 114.0130800000,22.3658160000 114.0134620000,22.3654460000 114.0136940000,22.3651790000 114.0139720000,22.3648050000 114.0145940000,22.3638980000 114.0151150000,22.3633140000 114.0151880000,22.3632600000 114.0152690000,22.3632140000 114.0153730000,22.3631740000 114.0154710000,22.3631570000 114.0156060000,22.3631450000 114.0157230000,22.3631670000 114.0159680000,22.3632320000 114.0161600000,22.3633700000 114.0162200000,22.3634300000 114.0162700000,22.3635000000 114.0163300000,22.3635450000 114.0164100000,22.3635900000 114.0168000000,22.3634100000 114.0170000000,22.3633180000 114.0171000000,22.3632640000 114.0171500000,22.3632550000 114.0172000000,22.3632480000 114.0173000000,22.3631800000 114.0173420000,22.3631200000 114.0173660000,22.3630790000 114.0173760000,22.3630370000 114.0173900000,22.3629700000 114.0173600000,22.3629000000 114.0172800000,22.3628000000 114.0171900000,22.3627000000 114.0170330000,22.3625440000 114.0168270000,22.3623380000 114.0166730000,22.3622860000 114.0166370000,22.3622330000 114.0165890000,22.3620800000 114.0165740000,22.3619480000 114.0165700000,22.3618160000 114.0165830000,22.3615820000 114.0166050000,22.3614320000 114.0166560000,22.3613600000 114.0172830000,22.3606030000 114.0180030000,22.3597600000 114.0187270000,22.3589340000 114.0189640000,22.3586480000 114.0193410000,22.3582800000 114.0196550000,22.3580190000 114.0199370000,22.3578190000 114.0202160000,22.3576500000 114.0205760000,22.3574690000 114.0214520000,22.3570830000 114.0228240000,22.3565380000 114.0234370000,22.3563540000 114.0243070000,22.3561640000 114.0250640000,22.3560630000 114.0257520000,22.3560090000 114.0264730000,22.3560020000 114.0278380000,22.3560900000 114.0287650000,22.3561870000 114.0295420000,22.3562920000 114.0300580000,22.3564010000 114.0304990000,22.3565420000 114.0308810000,22.3566970000 114.0313660000,22.3569490000 114.0317530000,22.3572030000 114.0321790000,22.3575430000 114.0332080000,22.3584550000 114.0338450000,22.3589180000 114.0345560000,22.3593830000 114.0353370000,22.3597970000 114.0360880000,22.3602130000 114.0362590000,22.3603190000 114.0364450000,22.3604510000 114.0367370000,22.3606910000 114.0372600000,22.3611610000 114.0379050000,22.3616760000 114.0384270000,22.3620350000 114.0388490000,22.3623030000 114.0398880000,22.3629740000 114.0401590000,22.3632030000 114.0403880000,22.3634080000 114.0407360000,22.3637780000 114.0411660000,22.3642500000 114.0413970000,22.3644550000 114.0417190000,22.3646640000 114.0420160000,22.3647780000 114.0423270000,22.3648860000 114.0427120000,22.3649520000 114.0433070000,22.3649420000 114.0437220000,22.3649630000 114.0441590000,22.3650320000 114.0448180000,22.3652390000 114.0454450000,22.3655080000 114.0457640000,22.3656090000 114.0461190000,22.3657170000 114.0464360000,22.3657850000 114.0467560000,22.3658430000 114.0471160000,22.3658690000 114.0474370000,22.3658730000 114.0477580000,22.3658430000 114.0484930000,22.3657160000 114.0489350000,22.3656230000 114.0493350000,22.3655680000 114.0497190000,22.3655440000 114.0501370000,22.3655320000 114.0505520000,22.3655650000 114.0511250000,22.3656410000 114.0514380000,22.3657190000 114.0517450000,22.3658250000 114.0524260000,22.3661250000 114.0531790000,22.3665430000 114.0535910000,22.3667230000 114.0540080000,22.3668490000 114.0546060000,22.3669740000 114.0550210000,22.3670290000 114.0557200000,22.3670290000 114.0563460000,22.3670880000 114.0567720000,22.3671780000 114.0572340000,22.3673160000 114.0576860000,22.3674790000 114.0581280000,22.3676530000 114.0585140000,22.3678760000 114.0594440000,22.3684660000 114.0602060000,22.3689350000 114.0604320000,22.3690760000 114.0606370000,22.3691760000 114.0609490000,22.3692830000 114.0611990000,22.3693230000 114.0615900000,22.3693380000 114.0618250000,22.3693390000 114.0619630000,22.3693240000 114.0622170000,22.3692830000 114.0624720000,22.3692070000 114.0627100000,22.3691150000 114.0630380000,22.3689630000 114.0632220000,22.3688180000 114.0634510000,22.3685850000 114.0639000000,22.3681040000 114.0643830000,22.3676700000 114.0648230000,22.3673200000 114.0653050000,22.3669960000 114.0657350000,22.3667230000 114.0662530000,22.3664310000 114.0665890000,22.3662810000 114.0668770000,22.3661850000 114.0674260000,22.3660140000 114.0679390000,22.3659040000 114.0684970000,22.3658270000 114.0689700000,22.3658300000 114.0693380000,22.3658560000 114.0696170000,22.3659080000 114.0698760000,22.3659870000 114.0701090000,22.3660790000 114.0704840000,22.3662680000 114.0707940000,22.3664970000 114.0710880000,22.3667780000 114.0714710000,22.3672880000 114.0717610000,22.3677680000 114.0724260000,22.3689280000 114.0729120000,22.3697240000 114.0731910000,22.3702180000 114.0734590000,22.3706470000 114.0736510000,22.3709210000 114.0738220000,22.3711170000 114.0740500000,22.3713400000 114.0742930000,22.3714800000 114.0746240000,22.3716240000 114.0749110000,22.3716970000 114.0752050000,22.3717300000 114.0754790000,22.3717200000 114.0758780000,22.3716630000 114.0765340000,22.3715300000 114.0768090000,22.3714940000 114.0773440000,22.3714790000 114.0776850000,22.3715030000 114.0779950000,22.3715400000 114.0786860000,22.3717590000 114.0790740000,22.3718270000 114.0794520000,22.3718600000 114.0798940000,22.3718490000 114.0802560000,22.3717950000 114.0806260000,22.3716800000 114.0809770000,22.3715360000 114.0816380000,22.3711520000 114.0819740000,22.3709450000 114.0822990000,22.3707790000 114.0828140000,22.3705170000 114.0831570000,22.3703740000 114.0835260000,22.3702230000 114.0839730000,22.3700560000 114.0844620000,22.3698900000 114.0848390000,22.3697710000 114.0851540000,22.3696800000 114.0856420000,22.3695500000 114.0862030000,22.3693940000 114.0865610000,22.3692970000 114.0869600000,22.3691910000 114.0872390000,22.3691140000 114.0874830000,22.3690480000 114.0878050000,22.3689760000 114.0881990000,22.3689240000 114.0885600000,22.3689650000 114.0888820000,22.3690560000 114.0891360000,22.3692070000 114.0893810000,22.3694210000 114.0896030000,22.3696770000 114.0898780000,22.3700410000 114.0901590000,22.3703450000 114.0903340000,22.3705010000 114.0905700000,22.3706780000 114.0907600000,22.3707760000 114.0909460000,22.3708570000 114.0911720000,22.3709390000 114.0914150000,22.3710020000 114.0916200000,22.3710340000 114.0918570000,22.3710430000 114.0920490000,22.3710450000 114.0922990000,22.3710220000 114.0924770000,22.3709950000 114.0926770000,22.3709430000 114.0931080000,22.3707790000 114.0934830000,22.3705720000 114.0941110000,22.3701260000 114.0944050000,22.3699500000 114.0945970000,22.3698650000 114.0948340000,22.3697960000 114.0949640000,22.3697710000 114.0950960000,22.3697530000 114.0952310000,22.3697450000 114.0953830000,22.3697460000 114.0955610000,22.3697570000 114.0957060000,22.3697750000 114.0959070000,22.3698310000 114.0961150000,22.3699000000 114.0962670000,22.3699710000 114.0964180000,22.3700640000 114.0965190000,22.3701370000 114.0966300000,22.3702290000 114.0968150000,22.3704240000 114.0968990000,22.3705310000 114.0969690000,22.3706580000 114.0971460000,22.3709910000 114.0973750000,22.3714750000 114.0974600000,22.3716510000 114.0975780000,22.3718360000 114.0977130000,22.3720220000 114.0978430000,22.3721520000 114.0980160000,22.3723150000 114.0982530000,22.3725030000 114.0984520000,22.3726400000 114.0987210000,22.3727570000 114.0992930000,22.3729700000 114.1000660000,22.3732620000 114.1013410000,22.3737480000 114.1016130000,22.3738620000 114.1024440000,22.3742140000 114.1028480000,22.3743600000 114.1032040000,22.3744470000 114.1034460000,22.3744780000 114.1037000000,22.3744860000 114.1041790000,22.3745160000 114.1044260000,22.3745570000 114.1048340000,22.3746850000 114.1051960000,22.3748460000 114.1055170000,22.3750510000 114.1057500000,22.3752460000 114.1058860000,22.3753420000 114.1060360000,22.3754310000 114.1062700000,22.3755320000 114.1064680000,22.3755950000 114.1066130000,22.3756280000 114.1068280000,22.3756410000 114.1073370000,22.3756360000 114.1075440000,22.3756950000 114.1075580000,22.3756940000 114.1077710000,22.3756900000 114.1079270000,22.3756860000 114.1083430000,22.3756880000 114.1088140000,22.3756890000 114.1096780000,22.3757140000 114.1098390000,22.3757200000 114.1104160000,22.3757580000 114.1105760000,22.3757570000 114.1106970000,22.3757530000 114.1110640000,22.3756120000 114.1118320000,22.3752680000 114.1119560000,22.3752120000 114.1120750000,22.3751660000 114.1126560000,22.3749390000 114.1128320000,22.3748750000 114.1129520000,22.3748270000 114.1130010000,22.3748080000 114.1130470000,22.3747890000 114.1131330000,22.3747550000 114.1139890000,22.3744140000 114.1142570000,22.3743070000 114.1143610000,22.3742680000 114.1153670000,22.3738760000 114.1154830000,22.3738300000 114.1156370000,22.3737710000 114.1166570000,22.3733760000 114.1171030000,22.3732030000 114.1171770000,22.3731740000 114.1173890000,22.3730650000 114.1178770000,22.3727700000 114.1184020000,22.3723360000 114.1184450000,22.3722910000 114.1185600000,22.3721720000 114.1185980000,22.3721310000 114.1186470000,22.3720810000 114.1187220000,22.3720020000 114.1189060000,22.3718110000 114.1195020000,22.3711910000 114.1196810000,22.3710250000 114.1200000000,22.3707290000 114.1202370000,22.3705640000 114.1204080000,22.3704780000 114.1205450000,22.3704120000 114.1207430000,22.3703380000 114.1209460000,22.3702920000 114.1211310000,22.3702760000 114.1213210000,22.3702880000 114.1214670000,22.3702990000 114.1215960000,22.3703080000 114.1220430000,22.3703390000 114.1224220000,22.3703690000 114.1230710000,22.3703940000 114.1232530000,22.3704090000 114.1233950000,22.3704250000 114.1238290000,22.3704700000 114.1240340000,22.3704830000 114.1245590000,22.3705190000 114.1247640000,22.3705300000 114.1259230000,22.3706350000 114.1262400000,22.3706630000 114.1264620000,22.3706870000 114.1283300000,22.3708960000 114.1294770000,22.3709780000 114.1297870000,22.3709840000 114.1299210000,22.3709840000 114.1300630000,22.3709730000 114.1302760000,22.3709280000 114.1303780000,22.3709020000 114.1305100000,22.3708690000 114.1306730000,22.3708140000 114.1309870000,22.3706670000 114.1313240000,22.3704960000 114.1318500000,22.3701960000 114.1320470000,22.3700740000 114.1324670000,22.3698230000 114.1326690000,22.3697300000 114.1327560000,22.3697130000 114.1328570000,22.3697040000 114.1329140000,22.3697060000 114.1329910000,22.3697180000 114.1330860000,22.3697420000 114.1332400000,22.3697910000 114.1333080000,22.3698120000 114.1333580000,22.3698310000 114.1336970000,22.3699600000 114.1337980000,22.3699940000 114.1339040000,22.3700220000 114.1340150000,22.3700350000 114.1341110000,22.3700290000 114.1341790000,22.3699850000 114.1342660000,22.3699380000 114.1343030000,22.3699030000 114.1343240000,22.3698830000 114.1344760000,22.3697400000 114.1343490000,22.3689900000 114.1342770000,22.3687560000 114.1341690000,22.3684340000 114.1341490000,22.3683740000 114.1339700000,22.3679460000 114.1337980000,22.3674640000 114.1335820000,22.3668570000 114.1333810000,22.3662530000 114.1331750000,22.3656850000 114.1331430000,22.3655960000 114.1329600000,22.3652310000 114.1328450000,22.3648730000 114.1328160000,22.3647900000 114.1327960000,22.3647330000 114.1326400000,22.3642780000 114.1324240000,22.3635380000 114.1323860000,22.3634480000 114.1319480000,22.3621710000 114.1318500000,22.3618560000 114.1318280000,22.3617900000 114.1317270000,22.3615060000 114.1316760000,22.3613690000 114.1315680000,22.3610610000 114.1315600000,22.3610390000 114.1315300000,22.3609640000 114.1315020000,22.3608910000 114.1314680000,22.3608050000 114.1313930000,22.3605980000 114.1313360000,22.3604300000 114.1311730000,22.3600230000 114.1310600000,22.3597110000 114.1310320000,22.3596260000 114.1310090000,22.3595560000 114.1307620000,22.3589040000 114.1302780000,22.3574350000 114.1302030000,22.3572030000 114.1301910000,22.3571660000 114.1300840000,22.3568940000 114.1298310000,22.3563690000 114.1296110000,22.3559260000 114.1294130000,22.3555870000 114.1292060000,22.3552760000 114.1291310000,22.3551470000 114.1286340000,22.3542080000 114.1285780000,22.3540900000 114.1283610000,22.3536370000 114.1282940000,22.3535000000 114.1275680000,22.3519570000 114.1275110000,22.3518410000 114.1275730000,22.3518070000 114.1278100000,22.3516630000 114.1278530000,22.3516340000 114.1278020000,22.3515680000 114.1275000000,22.3511300000 114.1274290000,22.3509670000 114.1273750000,22.3507980000 114.1273670000,22.3500700000 114.1273710000,22.3498510000 114.1273870000,22.3497500000 114.1274130000,22.3496200000 114.1274570000,22.3494840000 114.1275210000,22.3492960000 114.1275320000,22.3492280000 114.1275290000,22.3491100000 114.1274420000,22.3488470000 114.1274260000,22.3487280000 114.1274340000,22.3485690000 114.1274480000,22.3484430000 114.1275730000,22.3473630000 114.1276130000,22.3472130000 114.1276660000,22.3471210000 114.1277450000,22.3470510000 114.1278510000,22.3470170000 114.1280600000,22.3470070000 114.1284670000,22.3469920000 114.1291020000,22.3469970000 114.1291110000,22.3471900000 114.1290970000,22.3472710000 114.1290720000,22.3473270000 114.1290390000,22.3473740000 114.1290040000,22.3474090000 114.1289580000,22.3474420000 114.1289030000,22.3474690000 114.1288460000,22.3474860000 114.1283630000,22.3475290000 114.1281750000,22.3475450000 114.1281010000,22.3475540000 114.1280380000,22.3475740000 114.1279740000,22.3476220000 114.1279280000,22.3476700000 114.1278860000,22.3477270000 114.1278610000,22.3477840000 114.1278530000,22.3478710000 114.1278490000,22.3483000000 114.1278600000,22.3483870000 114.1278810000,22.3484480000 114.1279340000,22.3485190000 114.1279920000,22.3485680000 114.1280730000,22.3486120000 114.1281390000,22.3486440000 114.1282640000,22.3486760000 114.1283720000,22.3486890000 114.1284700000,22.3486880000 114.1285630000,22.3486820000 114.1287090000,22.3486390000 114.1287930000,22.3485890000 114.1288620000,22.3485300000 114.1291680000,22.3481580000 114.1292460000,22.3480540000 114.1292700000,22.3480160000 114.1294060000,22.3478220000 114.1295000000,22.3476750000 114.1296290000,22.3474320000 114.1296830000,22.3473510000 114.1304300000,22.3465620000 114.1305450000,22.3464570000 114.1306370000,22.3463870000 114.1307050000,22.3463470000 114.1308370000,22.3463190000 114.1309920000,22.3462950000 114.1311220000,22.3462640000 114.1312190000,22.3462280000 114.1313340000,22.3461330000 114.1314360000,22.3460480000 114.1315410000,22.3460250000 114.1316310000,22.3460110000 114.1317350000,22.3461090000 114.1318280000,22.3462470000 114.1318690000,22.3463890000 114.1318730000,22.3465820000 114.1318940000,22.3472970000 114.1318830000,22.3474170000 114.1317930000,22.3479720000 114.1317680000,22.3481420000 114.1317190000,22.3484570000 114.1316710000,22.3486280000 114.1316260000,22.3487190000 114.1315430000,22.3488200000 114.1313970000,22.3489490000 114.1312220000,22.3490790000 114.1311480000,22.3491900000 114.1311060000,22.3493330000 114.1311140000,22.3494600000 114.1311540000,22.3495590000 114.1313250000,22.3498670000 114.1313740000,22.3500130000 114.1313830000,22.3501010000 114.1313780000,22.3501610000 114.1313460000,22.3502400000 114.1312920000,22.3503650000 114.1312570000,22.3504510000 114.1312450000,22.3505820000 114.1312800000,22.3506930000 114.1313180000,22.3507930000 114.1313920000,22.3508890000 114.1314060000,22.3509070000 114.1316110000,22.3511410000 114.1316750000,22.3512670000 114.1316800000,22.3513640000 114.1316660000,22.3514490000 114.1316220000,22.3515470000 114.1315250000,22.3516190000 114.1313840000,22.3516970000 114.1301970000,22.3520990000 114.1300430000,22.3521740000 114.1299360000,22.3522660000 114.1298650000,22.3523620000 114.1298230000,22.3524720000 114.1297560000,22.3527930000 114.1297670000,22.3528880000 114.1298130000,22.3529680000 114.1298830000,22.3530140000 114.1299810000,22.3530290000 114.1301050000,22.3530110000 114.1301910000,22.3529690000 114.1303590000,22.3528400000 114.1305570000,22.3527330000 114.1307090000,22.3526760000 114.1310200000,22.3526180000 114.1311120000,22.3526050000 114.1312240000,22.3526120000 114.1312980000,22.3526420000 114.1313500000,22.3526890000 114.1313930000,22.3527390000 114.1314130000,22.3528030000 114.1314120000,22.3528900000 114.1313830000,22.3529690000 114.1312970000,22.3531430000 114.1311800000,22.3533210000 114.1310970000,22.3534270000 114.1310130000,22.3534950000 114.1309060000,22.3535450000 114.1307650000,22.3535980000 114.1300890000,22.3538180000 114.1298690000,22.3539060000 114.1297220000,22.3539860000 114.1296120000,22.3541020000 114.1295530000,22.3542170000 114.1295390000,22.3543330000 114.1295500000,22.3544370000 114.1296110000,22.3545390000 114.1296990000,22.3546150000 114.1298200000,22.3546480000 114.1299640000,22.3546600000 114.1303870000,22.3546440000 114.1305040000,22.3546610000 114.1305720000,22.3547010000 114.1306480000,22.3547720000 114.1311150000,22.3544610000 114.1315520000,22.3541380000 114.1320780000,22.3537650000 114.1322750000,22.3536170000 114.1323480000,22.3535400000 114.1323930000,22.3534630000 114.1324030000,22.3534010000 114.1323820000,22.3533220000 114.1322890000,22.3531900000 114.1322890000,22.3531900000 114.1323820000,22.3533220000 114.1324030000,22.3534010000 114.1323930000,22.3534630000 114.1323480000,22.3535400000 114.1322750000,22.3536170000 114.1320780000,22.3537650000 114.1315520000,22.3541380000 114.1311150000,22.3544610000 114.1306480000,22.3547720000 114.1305720000,22.3547010000 114.1305040000,22.3546610000 114.1303870000,22.3546440000 114.1299640000,22.3546600000 114.1298200000,22.3546480000 114.1296990000,22.3546150000 114.1296110000,22.3545390000 114.1295500000,22.3544370000 114.1295390000,22.3543330000 114.1295530000,22.3542170000 114.1296120000,22.3541020000 114.1297220000,22.3539860000 114.1298690000,22.3539060000 114.1300890000,22.3538180000 114.1307650000,22.3535980000 114.1309060000,22.3535450000 114.1310130000,22.3534950000 114.1310970000,22.3534270000 114.1311800000,22.3533210000 114.1312970000,22.3531430000 114.1313830000,22.3529690000 114.1314120000,22.3528900000 114.1314270000,22.3527970000 114.1314250000,22.3527190000 114.1314140000,22.3526220000 114.1314040000,22.3525540000 114.1311120000,22.3526050000 114.1310200000,22.3526180000 114.1307090000,22.3526760000 114.1305570000,22.3527330000 114.1303590000,22.3528400000 114.1301910000,22.3529690000 114.1301050000,22.3530110000 114.1299810000,22.3530290000 114.1298830000,22.3530140000 114.1298130000,22.3529680000 114.1297670000,22.3528880000 114.1297560000,22.3527930000 114.1298230000,22.3524720000 114.1298650000,22.3523620000 114.1299360000,22.3522660000 114.1300430000,22.3521740000 114.1301970000,22.3520990000 114.1313840000,22.3516970000 114.1315250000,22.3516190000 114.1316220000,22.3515470000 114.1317280000,22.3514430000 114.1317970000,22.3513620000 114.1316110000,22.3511410000 114.1314060000,22.3509070000 114.1313180000,22.3507930000 114.1312800000,22.3506930000 114.1312450000,22.3505820000 114.1312570000,22.3504510000 114.1312920000,22.3503650000 114.1313460000,22.3502400000 114.1313780000,22.3501610000 114.1313830000,22.3501010000 114.1313740000,22.3500130000 114.1313250000,22.3498670000 114.1311540000,22.3495590000 114.1311140000,22.3494600000 114.1311060000,22.3493330000 114.1311480000,22.3491900000 114.1312220000,22.3490790000 114.1313970000,22.3489490000 114.1315430000,22.3488200000 114.1316260000,22.3487190000 114.1316710000,22.3486280000 114.1317190000,22.3484570000 114.1317680000,22.3481420000 114.1317930000,22.3479720000 114.1318830000,22.3474170000 114.1318940000,22.3472970000 114.1318730000,22.3465820000 114.1318690000,22.3463890000 114.1318280000,22.3462470000 114.1317350000,22.3461090000 114.1316310000,22.3460110000 114.1315410000,22.3460250000 114.1314360000,22.3460480000 114.1313340000,22.3461330000 114.1312190000,22.3462280000 114.1311220000,22.3462640000 114.1309920000,22.3462950000 114.1308370000,22.3463190000 114.1307050000,22.3463470000 114.1306370000,22.3463870000 114.1305450000,22.3464570000 114.1304300000,22.3465620000 114.1296830000,22.3473510000 114.1296290000,22.3474320000 114.1295460000,22.3475880000 114.1295000000,22.3476750000 114.1294060000,22.3478220000 114.1292700000,22.3480160000 114.1292460000,22.3480540000 114.1291680000,22.3481580000 114.1288620000,22.3485300000 114.1287930000,22.3485890000 114.1287090000,22.3486390000 114.1285630000,22.3486820000 114.1284700000,22.3486880000 114.1283720000,22.3486890000 114.1282640000,22.3486760000 114.1281390000,22.3486440000 114.1280730000,22.3486120000 114.1279920000,22.3485680000 114.1279340000,22.3485190000 114.1278810000,22.3484480000 114.1278600000,22.3483870000 114.1278490000,22.3483000000 114.1278530000,22.3478710000 114.1278610000,22.3477840000 114.1278860000,22.3477270000 114.1279280000,22.3476700000 114.1279740000,22.3476220000 114.1280380000,22.3475740000 114.1281010000,22.3475540000 114.1281750000,22.3475450000 114.1283630000,22.3475290000 114.1288460000,22.3474860000 114.1289030000,22.3474690000 114.1289580000,22.3474420000 114.1290040000,22.3474090000 114.1290390000,22.3473740000 114.1290720000,22.3473270000 114.1290970000,22.3472710000 114.1291110000,22.3471900000 114.1291020000,22.3469970000 114.1284670000,22.3469920000 114.1280600000,22.3470070000 114.1278510000,22.3470170000 114.1277450000,22.3470510000 114.1276660000,22.3471210000 114.1276130000,22.3472130000 114.1275730000,22.3473630000 114.1274480000,22.3484430000 114.1274340000,22.3485690000 114.1274260000,22.3487280000 114.1274420000,22.3488470000 114.1275290000,22.3491100000 114.1275320000,22.3492280000 114.1275210000,22.3492960000 114.1274570000,22.3494840000 114.1274130000,22.3496200000 114.1273870000,22.3497500000 114.1273710000,22.3498510000 114.1273670000,22.3500700000 114.1273750000,22.3507980000 114.1274290000,22.3509670000 114.1275000000,22.3511300000 114.1278020000,22.3515680000 114.1277630000,22.3515940000 114.1274790000,22.3517790000 114.1275110000,22.3518410000 114.1275680000,22.3519570000 114.1282940000,22.3535000000 114.1283610000,22.3536370000 114.1283990000,22.3537390000 114.1284250000,22.3538590000 114.1284340000,22.3539720000 114.1284260000,22.3540990000 114.1284060000,22.3542180000 114.1283760000,22.3543170000 114.1283370000,22.3544140000 114.1282880000,22.3545080000 114.1282270000,22.3546000000 114.1281530000,22.3546920000 114.1280600000,22.3547780000 114.1279400000,22.3548660000 114.1278000000,22.3549440000 114.1276430000,22.3550130000 114.1273640000,22.3551060000 114.1272450000,22.3551300000 114.1271490000,22.3551400000 114.1270450000,22.3551410000 114.1269610000,22.3551330000 114.1268300000,22.3551180000 114.1266910000,22.3550920000 114.1266320000,22.3550870000 114.1265640000,22.3550920000 114.1265040000,22.3551110000 114.1264290000,22.3551460000 114.1263810000,22.3551790000 114.1263430000,22.3552260000 114.1263130000,22.3552840000 114.1262900000,22.3553520000 114.1262780000,22.3554300000 114.1262810000,22.3554880000 114.1262940000,22.3555500000 114.1263150000,22.3556050000 114.1263440000,22.3556580000 114.1263850000,22.3557090000 114.1264350000,22.3557520000 114.1264970000,22.3557840000 114.1265730000,22.3557950000 114.1266720000,22.3558020000 114.1267310000,22.3558100000 114.1267770000,22.3558190000 114.1268640000,22.3558560000 114.1269820000,22.3559170000 114.1270420000,22.3559420000 114.1271040000,22.3559580000 114.1271620000,22.3559620000 114.1272810000,22.3559110000 114.1273410000,22.3558840000 114.1274430000,22.3558290000 114.1275080000,22.3557930000 114.1276090000,22.3557360000 114.1276660000,22.3557260000 114.1277050000,22.3557220000 114.1277640000,22.3557320000 114.1277910000,22.3557450000 114.1278170000,22.3557720000 114.1280460000,22.3560850000 114.1282520000,22.3563560000 114.1284730000,22.3566740000 114.1286890000,22.3569810000 114.1287700000,22.3570870000 114.1289610000,22.3573380000 114.1290000000,22.3573900000 114.1290600000,22.3574780000 114.1291020000,22.3575390000 114.1296830000,22.3573460000 114.1297640000,22.3573250000 114.1298350000,22.3573140000 114.1298940000,22.3573140000 114.1299420000,22.3573200000 114.1299920000,22.3573370000 114.1300350000,22.3573620000 114.1300620000,22.3573910000 114.1300920000,22.3574420000 114.1304370000,22.3584620000 114.1307920000,22.3594480000 114.1308680000,22.3596510000 114.1309020000,22.3597650000 114.1309950000,22.3600480000 114.1312900000,22.3608150000 114.1312960000,22.3608320000 114.1313290000,22.3609370000 114.1313600000,22.3610220000 114.1313870000,22.3611070000 114.1317310000,22.3621460000 114.1317510000,22.3622050000 114.1319610000,22.3627320000 114.1321070000,22.3631680000 114.1322950000,22.3635530000 114.1325220000,22.3641860000 114.1327690000,22.3648970000 114.1330740000,22.3658110000 114.1331540000,22.3661210000 114.1332980000,22.3666390000 114.1333640000,22.3668700000 114.1333880000,22.3669350000 114.1334770000,22.3671780000 114.1336160000,22.3675560000 114.1337800000,22.3680170000 114.1338130000,22.3681250000 114.1338560000,22.3682560000 114.1338860000,22.3683750000 114.1338930000,22.3684640000 114.1338910000,22.3685810000 114.1338700000,22.3687050000 114.1335820000,22.3689870000 114.1334640000,22.3690830000 114.1332870000,22.3692020000 114.1326680000,22.3695540000 114.1325860000,22.3696030000 114.1323990000,22.3697110000 114.1320230000,22.3699180000 114.1316590000,22.3701280000 114.1309900000,22.3704850000 114.1309350000,22.3705220000 114.1308260000,22.3706200000 114.1306290000,22.3707130000 114.1304800000,22.3707710000 114.1303980000,22.3708020000 114.1302560000,22.3708390000 114.1300520000,22.3708780000 114.1299150000,22.3708900000 114.1297950000,22.3708990000 114.1294770000,22.3708850000 114.1293050000,22.3708530000 114.1291280000,22.3708420000 114.1263080000,22.3705760000 114.1251610000,22.3704740000 114.1250190000,22.3704570000 114.1249410000,22.3704440000 114.1242070000,22.3703810000 114.1233160000,22.3703120000 114.1228920000,22.3702820000 114.1224820000,22.3702560000 114.1216160000,22.3701880000 114.1215220000,22.3701810000 114.1213810000,22.3701700000 114.1211370000,22.3701600000 114.1209060000,22.3701770000 114.1207910000,22.3702090000 114.1206010000,22.3702870000 114.1204300000,22.3703660000 114.1202510000,22.3704620000 114.1201620000,22.3705090000 114.1199500000,22.3706520000 114.1194420000,22.3711250000 114.1192880000,22.3712610000 114.1192430000,22.3713120000 114.1191820000,22.3713740000 114.1190390000,22.3715140000 114.1188610000,22.3717130000 114.1185140000,22.3720760000 114.1181660000,22.3724060000 114.1180950000,22.3724660000 114.1178600000,22.3726740000 114.1176930000,22.3727830000 114.1175010000,22.3728880000 114.1173900000,22.3729340000 114.1173190000,22.3729640000 114.1170860000,22.3730620000 114.1168470000,22.3731530000 114.1167250000,22.3732030000 114.1162790000,22.3733840000 114.1159220000,22.3735300000 114.1156790000,22.3736290000 114.1155470000,22.3736820000 114.1155260000,22.3736910000 114.1154260000,22.3737310000 114.1151950000,22.3738250000 114.1149940000,22.3739070000 114.1148360000,22.3739710000 114.1148160000,22.3739790000 114.1146020000,22.3740670000 114.1143190000,22.3741810000 114.1142210000,22.3742210000 114.1138270000,22.3743750000 114.1132420000,22.3746030000 114.1130330000,22.3746850000 114.1129580000,22.3747140000 114.1120990000,22.3750500000 114.1120820000,22.3750570000 114.1120220000,22.3750800000 114.1119040000,22.3751260000 114.1117870000,22.3751740000 114.1113780000,22.3753400000 114.1111630000,22.3753970000 114.1110150000,22.3754330000 114.1109120000,22.3754460000 114.1105640000,22.3754590000 114.1103260000,22.3754580000 114.1096540000,22.3754460000 114.1094010000,22.3754470000 114.1092120000,22.3754480000 114.1090490000,22.3754480000 114.1088310000,22.3754840000 114.1083140000,22.3755390000 114.1076300000,22.3755260000 114.1072960000,22.3755280000 114.1070890000,22.3755230000 114.1068110000,22.3755100000 114.1066700000,22.3754860000 114.1064990000,22.3754420000 114.1063340000,22.3753830000 114.1061590000,22.3752850000 114.1060070000,22.3751560000 114.1058540000,22.3750210000 114.1055690000,22.3746980000 114.1051080000,22.3741970000 114.1049820000,22.3740970000 114.1048450000,22.3740120000 114.1046870000,22.3739600000 114.1044500000,22.3739490000 114.1042530000,22.3739600000 114.1039740000,22.3740040000 114.1036100000,22.3740370000 114.1032360000,22.3740350000 114.1028060000,22.3739800000 114.1016640000,22.3737360000 114.1008430000,22.3734150000 114.1001380000,22.3731280000 114.0993460000,22.3728310000 114.0988930000,22.3726590000 114.0986070000,22.3725290000 114.0983350000,22.3723580000 114.0981860000,22.3722320000 114.0979280000,22.3719820000 114.0978450000,22.3718970000 114.0977620000,22.3717910000 114.0976680000,22.3716390000 114.0975860000,22.3714920000 114.0974940000,22.3713090000 114.0973790000,22.3710430000 114.0973210000,22.3709180000 114.0972380000,22.3707500000 114.0971450000,22.3705790000 114.0970680000,22.3704620000 114.0969630000,22.3703230000 114.0968670000,22.3702250000 114.0967520000,22.3701060000 114.0966320000,22.3700120000 114.0964660000,22.3699030000 114.0961870000,22.3697460000 114.0959810000,22.3696650000 114.0958730000,22.3696360000 114.0957350000,22.3696000000 114.0955670000,22.3695840000 114.0954070000,22.3695680000 114.0952580000,22.3695650000 114.0951410000,22.3695760000 114.0949400000,22.3695950000 114.0947390000,22.3696360000 114.0946190000,22.3696670000 114.0944740000,22.3697200000 114.0942780000,22.3698030000 114.0941110000,22.3698960000 114.0939400000,22.3700070000 114.0938070000,22.3700980000 114.0936510000,22.3702120000 114.0934600000,22.3703610000 114.0933660000,22.3704310000 114.0932490000,22.3705060000 114.0931070000,22.3705810000 114.0929260000,22.3706650000 114.0926800000,22.3707540000 114.0925440000,22.3707930000 114.0923810000,22.3708260000 114.0922270000,22.3708530000 114.0920360000,22.3708670000 114.0918030000,22.3708560000 114.0915480000,22.3708320000 114.0913060000,22.3707780000 114.0910680000,22.3706920000 114.0909290000,22.3706360000 114.0907200000,22.3705290000 114.0904980000,22.3703610000 114.0903320000,22.3701960000 114.0902090000,22.3700730000 114.0900760000,22.3699090000 114.0898750000,22.3696390000 114.0895640000,22.3692550000 114.0894460000,22.3691340000 114.0892880000,22.3689990000 114.0891310000,22.3689080000 114.0888860000,22.3688000000 114.0886970000,22.3687470000 114.0884900000,22.3687130000 114.0880320000,22.3687230000 114.0877060000,22.3687740000 114.0874410000,22.3688330000 114.0870680000,22.3689210000 114.0866250000,22.3690520000 114.0860660000,22.3692170000 114.0854050000,22.3694080000 114.0847150000,22.3696170000 114.0841120000,22.3697950000 114.0835140000,22.3699840000 114.0829190000,22.3702210000 114.0824330000,22.3704340000 114.0815630000,22.3709690000 114.0810910000,22.3712740000 114.0807210000,22.3714500000 114.0803160000,22.3716110000 114.0798940000,22.3716960000 114.0795200000,22.3717180000 114.0791290000,22.3716920000 114.0787690000,22.3716070000 114.0779070000,22.3713980000 114.0774020000,22.3713400000 114.0768880000,22.3713480000 114.0763650000,22.3714390000 114.0756260000,22.3715560000 114.0750920000,22.3715820000 114.0748660000,22.3715510000 114.0746400000,22.3714910000 114.0743740000,22.3713660000 114.0740570000,22.3711550000 114.0737750000,22.3708330000 114.0733680000,22.3702490000 114.0730620000,22.3696870000 114.0725430000,22.3688300000 114.0718940000,22.3676870000 114.0714030000,22.3669150000 114.0710910000,22.3665460000 114.0707490000,22.3662430000 114.0704070000,22.3660360000 114.0700740000,22.3658990000 114.0697620000,22.3658060000 114.0693730000,22.3657280000 114.0689650000,22.3656990000 114.0685320000,22.3657080000 114.0681330000,22.3657420000 114.0673960000,22.3658570000 114.0668420000,22.3659990000 114.0664770000,22.3661340000 114.0661160000,22.3662990000 114.0656300000,22.3665750000 114.0652190000,22.3668530000 114.0647100000,22.3671610000 114.0642650000,22.3675080000 114.0637770000,22.3679800000 114.0632830000,22.3684860000 114.0630500000,22.3687160000 114.0626970000,22.3689330000 114.0623290000,22.3690650000 114.0618990000,22.3691620000 114.0616810000,22.3691820000 114.0614730000,22.3691730000 114.0612180000,22.3691410000 114.0610360000,22.3691050000 114.0607960000,22.3690250000 114.0604710000,22.3688780000 114.0602780000,22.3687780000 114.0601660000,22.3687160000 114.0594090000,22.3682780000 114.0586060000,22.3677780000 114.0581730000,22.3675290000 114.0577580000,22.3673870000 114.0573080000,22.3672120000 114.0569580000,22.3670800000 114.0566330000,22.3670140000 114.0562640000,22.3669610000 114.0557200000,22.3669290000 114.0549970000,22.3669100000 114.0543390000,22.3668040000 114.0538210000,22.3666840000 114.0532600000,22.3664760000 114.0524750000,22.3660430000 114.0518060000,22.3657050000 114.0514800000,22.3655970000 114.0510520000,22.3654810000 114.0505540000,22.3654210000 114.0499330000,22.3654090000 114.0493620000,22.3654230000 114.0484850000,22.3655630000 114.0481530000,22.3656350000 114.0477410000,22.3657050000 114.0475150000,22.3657230000 114.0472800000,22.3657320000 114.0470220000,22.3657160000 114.0467680000,22.3656940000 114.0460830000,22.3655630000 114.0455230000,22.3653820000 114.0448700000,22.3651270000 114.0442010000,22.3649190000 114.0437380000,22.3648520000 114.0433020000,22.3648000000 114.0428130000,22.3647800000 114.0424760000,22.3647340000 114.0421510000,22.3646450000 114.0418700000,22.3645490000 114.0414950000,22.3643100000 114.0413720000,22.3641910000 114.0412430000,22.3640720000 114.0404930000,22.3633030000 114.0402490000,22.3630950000 114.0399400000,22.3628440000 114.0389400000,22.3621920000 114.0385070000,22.3619300000 114.0380060000,22.3615730000 114.0374250000,22.3611060000 114.0368370000,22.3605850000 114.0365170000,22.3603180000 114.0361880000,22.3600810000 114.0359040000,22.3599210000 114.0354620000,22.3596830000 114.0347040000,22.3592690000 114.0340220000,22.3588170000 114.0335260000,22.3584320000 114.0325260000,22.3575190000 114.0320420000,22.3571260000 114.0315400000,22.3568000000 114.0310850000,22.3565790000 114.0305640000,22.3563650000 114.0301570000,22.3562380000 114.0296130000,22.3561120000 114.0287750000,22.3560160000 114.0278430000,22.3559250000 114.0272110000,22.3558610000 114.0264990000,22.3558250000 114.0257800000,22.3558420000 114.0250300000,22.3558950000 114.0242670000,22.3560020000 114.0233260000,22.3562210000 114.0229730000,22.3563340000 114.0224510000,22.3565300000 114.0214650000,22.3569450000 114.0212420000,22.3570290000 114.0206670000,22.3572760000 114.0203130000,22.3574530000 114.0200510000,22.3575950000 114.0199330000,22.3576660000 114.0197810000,22.3577660000 114.0194230000,22.3580430000 114.0192930000,22.3581580000 114.0190660000,22.3583600000 114.0188760000,22.3585500000 114.0186010000,22.3588460000 114.0182610000,22.3592470000 114.0179110000,22.3596600000 114.0171920000,22.3605100000 114.0165480000,22.3612540000 114.0153550000,22.3626330000 114.0152310000,22.3627840000 114.0150830000,22.3628760000 114.0148160000,22.3631810000 114.0146980000,22.3633070000 114.0145900000,22.3633810000 114.0145250000,22.3634130000 114.0144260000,22.3634400000 114.0142560000,22.3634680000 114.0138490000,22.3634370000 114.0136150000,22.3634540000 114.0134340000,22.3635140000 114.0133110000,22.3635880000 114.0132200000,22.3636620000 114.0131580000,22.3637820000 114.0131460000,22.3638680000 114.0131530000,22.3639360000 114.0131770000,22.3639960000 114.0132200000,22.3640630000 114.0132750000,22.3641300000 114.0133460000,22.3642480000 114.0133440000,22.3642770000 114.0133460000,22.3643060000 114.0133560000,22.3643460000 114.0133740000,22.3643830000 114.0134010000,22.3644160000 114.0134500000,22.3644540000 114.0135080000,22.3644770000 114.0135700000,22.3644840000 114.0136330000,22.3644740000 114.0136920000,22.3644470000 114.0137400000,22.3644040000 114.0137730000,22.3643500000 114.0137860000,22.3642940000 114.0137820000,22.3642360000 114.0137600000,22.3641810000 114.0137720000,22.3640640000 114.0137930000,22.3639870000 114.0140020000,22.3636640000 114.0141870000,22.3634060000 114.0180260000,22.3585000000 114.0183920000,22.3581140000 114.0185360000,22.3579920000 114.0186450000,22.3579160000 114.0187190000,22.3578770000 114.0187910000,22.3578470000 114.0188160000,22.3578540000 114.0188530000,22.3578590000 114.0188700000,22.3579470000 114.0188690000,22.3579950000 114.0188530000,22.3580240000 114.0188040000,22.3580600000 114.0187290000,22.3580700000 114.0186500000,22.3580820000 114.0185960000,22.3580990000 114.0184890000,22.3581510000 114.0184360000,22.3582010000 114.0185090000,22.3582700000 114.0184070000,22.3583740000 114.0183760000,22.3584050000 114.0182960000,22.3583360000 114.0182060000,22.3584300000 114.0181870000,22.3584710000 114.0181880000,22.3585370000 114.0182150000,22.3585960000 114.0182510000,22.3586190000 114.0183030000,22.3586250000 114.0183580000,22.3586090000 114.0184040000,22.3585720000 114.0184590000,22.3585130000 114.0185630000,22.3583990000 114.0186730000,22.3582800000 114.0187780000,22.3581580000 114.0188120000,22.3581200000 114.0188830000,22.3580840000 114.0189730000,22.3580760000 114.0190360000,22.3580900000 114.0190750000,22.3581090000 114.0191210000,22.3581460000 114.0191100000,22.3580870000 114.0190990000,22.3580460000 114.0191000000,22.3579720000 114.0190940000,22.3578280000 114.0190910000,22.3577500000 114.0190870000,22.3576710000 114.0190820000,22.3576100000 114.0190590000,22.3575530000 114.0190180000,22.3575050000 114.0189640000,22.3574700000 114.0189010000,22.3574510000 114.0188350000,22.3574510000 114.0187720000,22.3574680000 114.0187130000,22.3575050000 114.0186700000,22.3575560000 114.0186470000,22.3576180000 114.0185830000,22.3577400000 114.0185160000,22.3578380000 114.0183130000,22.3580480000 114.0179560000,22.3584360000 114.0141100000,22.3633420000 114.0139210000,22.3636010000 114.0137000000,22.3639460000 114.0135610000,22.3640740000 114.0135040000,22.3640820000 114.0134520000,22.3641030000 114.0133430000,22.3640380000 114.0132620000,22.3639910000 114.0132160000,22.3639080000 114.0132160000,22.3638020000 114.0132680000,22.3636990000 114.0133510000,22.3636250000 114.0134520000,22.3635610000 114.0135950000,22.3635110000 114.0138160000,22.3634860000 114.0139310000,22.3635130000 114.0140090000,22.3635510000 114.0140970000,22.3636260000 114.0141860000,22.3637500000 114.0142110000,22.3638330000 114.0142140000,22.3638960000 114.0142170000,22.3639510000 114.0142000000,22.3640450000 114.0140750000,22.3643040000 114.0138560000,22.3646050000 114.0137240000,22.3648730000 114.0135620000,22.3650800000 114.0133000000,22.3653560000 114.0129760000,22.3656760000 114.0126080000,22.3659720000 114.0122710000,22.3661940000 114.0119790000,22.3663430000 114.0116660000,22.3664600000 114.0113170000,22.3665380000 114.0109350000,22.3665690000 114.0103720000,22.3665820000 114.0097670000,22.3666050000 114.0094340000,22.3666360000 114.0090760000,22.3666840000 114.0084840000,22.3667920000 114.0079990000,22.3669110000 114.0076050000,22.3670260000 114.0069090000,22.3672190000 114.0066570000,22.3672740000 114.0064220000,22.3673070000 114.0061710000,22.3673190000 114.0059200000,22.3673110000 114.0055370000,22.3672670000 114.0048100000,22.3671450000 114.0043380000,22.3670930000 114.0039700000,22.3670950000 114.0036620000,22.3671110000 114.0033500000,22.3671460000 114.0029420000,22.3672420000 114.0025440000,22.3673820000 114.0022000000,22.3675340000 114.0018190000,22.3677560000 114.0013800000,22.3680810000 114.0011500000,22.3683150000 114.0009340000,22.3685640000 114.0006220000,22.3689530000 114.0003080000,22.3693670000 113.9997290000,22.3701790000 113.9992960000,22.3707940000 113.9989670000,22.3713120000 113.9987410000,22.3716880000 113.9978750000,22.3731250000 113.9976240000,22.3735300000 113.9974590000,22.3737670000 113.9969330000,22.3744420000 113.9965720000,22.3748470000 113.9964360000,22.3749890000 113.9960740000,22.3753420000 113.9957380000,22.3755720000 113.9954260000,22.3757260000 113.9950400000,22.3758660000 113.9947260000,22.3759320000 113.9943730000,22.3759610000 113.9939630000,22.3759210000 113.9936550000,22.3758660000 113.9933110000,22.3757860000 113.9929510000,22.3756820000 113.9919070000,22.3753700000 113.9910530000,22.3751220000 113.9905130000,22.3749930000 113.9902590000,22.3749640000 113.9900120000,22.3749610000 113.9897720000,22.3749720000 113.9895500000,22.3750010000 113.9893140000,22.3750490000 113.9890820000,22.3751160000 113.9888110000,22.3752200000 113.9885680000,22.3753440000 113.9884080000,22.3754430000 113.9881470000,22.3756370000 113.9879200000,22.3758440000 113.9873400000,22.3764860000 113.9871350000,22.3767250000 113.9863630000,22.3776480000 113.9858180000,22.3782510000 113.9851640000,22.3788860000 113.9846950000,22.3793350000 113.9827990000,22.3809530000 113.9820410000,22.3815410000 113.9813650000,22.3821350000 113.9810390000,22.3824890000 113.9807670000,22.3828140000 113.9803530000,22.3833410000 113.9798030000,22.3841460000 113.9794840000,22.3847210000 113.9794570000,22.3847830000 113.9791820000,22.3855420000 113.9790420000,22.3859510000 113.9789150000,22.3864180000 113.9786740000,22.3872860000 113.9785200000,22.3878590000 113.9782710000,22.3887890000 113.9780380000,22.3892550000 113.9777650000,22.3898070000 113.9776120000,22.3901690000 113.9775870000,22.3902510000 113.9776830000,22.3902730000 113.9781340000,22.3903780000 113.9782260000,22.3903970000 113.9785160000,22.3904650000 113.9788360000,22.3905410000 113.9796520000,22.3907440000 113.9797920000,22.3907760000 113.9799130000,22.3908040000 113.9799490000,22.3907010000 113.9799830000,22.3906030000 113.9800120000,22.3905130000 113.9802260000,22.3897110000 113.9803080000,22.3893930000 113.9805770000,22.3883610000 113.9806320000,22.3881490000 113.9807410000,22.3877020000 113.9807680000,22.3875930000 113.9809290000,22.3869360000 113.9810180000,22.3865530000 113.9810720000,22.3862930000 113.9811050000,22.3859060000 113.9810910000,22.3854280000 113.9809910000,22.3850870000 113.9809710000,22.3849880000 113.9808360000,22.3846730000 113.9808250000,22.3846480000 113.9806780000,22.3843850000 113.9804430000,22.3841230000 113.9801710000,22.3838940000 113.9799240000,22.3837570000 113.9795970000,22.3836500000 113.9790660000,22.3835780000 113.9784610000,22.3835650000 113.9782840000,22.3835490000 113.9781040000,22.3835200000 113.9779710000,22.3834790000 113.9777870000,22.3834010000 113.9776270000,22.3833300000 113.9773860000,22.3832230000 113.9771330000,22.3831100000 113.9762740000,22.3827270000 113.9756540000,22.3824510000 113.9755250000,22.3823930000 113.9754550000,22.3823620000 113.9753980000,22.3823380000 113.9753470000,22.3823150000 113.9753260000,22.3823570000 113.9752760000,22.3824370000 113.9752180000,22.3825780000 113.9751420000,22.3827700000 113.9751060000,22.3828720000 113.9750890000,22.3829700000 113.9750820000,22.3831000000 113.9750850000,22.3833000000 113.9751100000,22.3837750000 113.9750290000,22.3837780000 113.9749760000,22.3837810000 113.9749320000,22.3837830000 113.9742820000,22.3838120000 113.9733600000,22.3838530000 113.9732800000,22.3838560000 113.9729790000,22.3838700000 113.9728190000,22.3838790000 113.9726760000,22.3838880000 113.9725430000,22.3838950000 113.9723790000,22.3839050000 113.9722300000,22.3839130000 113.9721180000,22.3839200000 113.9720750000,22.3839220000 113.9713710000,22.3839650000 113.9709770000,22.3839920000 113.9709160000,22.3839960000 113.9706480000,22.3840180000 113.9705130000,22.3840380000 113.9706250000,22.3846090000 113.9707640000,22.3856120000 113.9707580000,22.3857600000 113.9707230000,22.3858780000 113.9706080000,22.3860300000 113.9704320000,22.3861720000 113.9700580000,22.3864000000 113.9696660000,22.3866080000 113.9694920000,22.3867070000 113.9689200000,22.3869620000 113.9681450000,22.3871390000 113.9677200000,22.3872010000 113.9671690000,22.3872960000 113.9668490000,22.3873590000 113.9666310000,22.3873470000 113.9664240000,22.3872770000 113.9662740000,22.3871390000 113.9661070000,22.3868010000 113.9659060000,22.3864010000 113.9656980000,22.3858630000 113.9655020000,22.3852860000 113.9651190000,22.3845650000 113.9650620000,22.3844590000 113.9649880000,22.3843470000 113.9648240000,22.3841580000 113.9645540000,22.3837530000 113.9644730000,22.3836200000 113.9644100000,22.3835180000 113.9641780000,22.3830690000 113.9641570000,22.3830050000 113.9641490000,22.3829890000 113.9638550000,22.3823140000 113.9638090000,22.3822030000 113.9637860000,22.3821470000 113.9637520000,22.3820610000 113.9636130000,22.3816160000 113.9636000000,22.3815670000 113.9635210000,22.3813270000 113.9634860000,22.3812090000 113.9634310000,22.3810130000 113.9632200000,22.3801720000 113.9631010000,22.3797960000 113.9629630000,22.3794740000 113.9628580000,22.3792630000 113.9626970000,22.3790640000 113.9626360000,22.3789640000 113.9623580000,22.3785950000 113.9615430000,22.3775830000 113.9614230000,22.3774260000 113.9605080000,22.3762270000 113.9605010000,22.3761700000 113.9605130000,22.3760980000 113.9605350000,22.3760330000 113.9606860000,22.3758080000 113.9607810000,22.3757000000 113.9609400000,22.3755210000 113.9609640000,22.3754940000 113.9614250000,22.3749730000 113.9615290000,22.3748590000 113.9615420000,22.3748520000 113.9616100000,22.3747670000 113.9616900000,22.3746660000 113.9619160000,22.3743970000 113.9623210000,22.3739110000 113.9624820000,22.3738250000 113.9625220000,22.3738040000 113.9626350000,22.3737610000 113.9631680000,22.3736470000 113.9634090000,22.3736070000 113.9636520000,22.3735660000 113.9640370000,22.3735060000 113.9643490000,22.3734570000 113.9644420000,22.3734420000 113.9651770000,22.3733360000 113.9652140000,22.3733300000 113.9652470000,22.3733240000 113.9653260000,22.3733410000 113.9654320000,22.3733160000 113.9657480000,22.3732410000 113.9659950000,22.3731770000 113.9661410000,22.3731390000 113.9662630000,22.3731070000 113.9666440000,22.3730090000 113.9668550000,22.3729520000 113.9679320000,22.3727150000 113.9679800000,22.3726300000 113.9677660000,22.3726740000 113.9677410000,22.3725850000 113.9676990000,22.3724350000</coordinates>
                </LineString>
                <ExtendedData>
                    <Data name="duration">
                        <value>02:05:00</value>
                    </Data>
                    <Data name="length">
                        <value>64122.71520664912</value>
                    </Data>
                </ExtendedData>
            </Placemark>
        </Document>
    </Document>
</kml>