<?xml version="1.0" encoding="UTF-8"?>
<kml xmlns="http://www.opengis.net/kml/2.2" xmlns:gx="http://www.google.com/kml/ext/2.2">
    <Document>
        <name>Route</name>
        <Folder>
            <name>Route Request</name>
            <Placemark>
                <Point>
                    <coordinates>114.0270355455,22.4493274877</coordinates>
                </Point>
                <ExtendedData>
                    <Data name="neighbourhood">
                        <value>Yeung Siu Hang</value>
                    </Data>
                    <Data name="country">
                        <value>PRC</value>
                    </Data>
                    <Data name="country_code">
                        <value>cn</value>
                    </Data>
                    <Data name="building">
                        <value>Block 15</value>
                    </Data>
                    <Data name="road">
                        <value>Lung Chak Road</value>
                    </Data>
                    <Data name="hamlet">
                        <value>Tsing Shan Tsuen</value>
                    </Data>
                    <Data name="routingVisited">
                        <value>false</value>
                    </Data>
                    <Data name="postcode">
                        <value>DD132 586</value>
                    </Data>
                    <Data name="suburb">
                        <value>Castle Peak Bay</value>
                    </Data>
                    <Data name="state">
                        <value>Hong Kong</value>
                    </Data>
                    <Data name="region">
                        <value>New Territories</value>
                    </Data>
                </ExtendedData>
            </Placemark>
            <Placemark>
                <Point>
                    <coordinates>114.0285716548,22.4446186904</coordinates>
                </Point>
                <ExtendedData>
                    <Data name="routingVisited">
                        <value>false</value>
                    </Data>
                </ExtendedData>
            </Placemark>
            <Placemark>
                <address>Long Lok Road, Shan Pui Chung Hau Tsuen, Yuen Long Kau Hui, Nam Bin Wai, Yuen Long District, Hong Kong, 00852, China</address>
                <Point>
                    <coordinates>114.0327975747,22.4454189468</coordinates>
                </Point>
                <ExtendedData>
                    <Data name="neighbourhood">
                        <value>Shan Pui Chung Hau Tsuen</value>
                    </Data>
                    <Data name="county">
                        <value>Yuen Long District</value>
                    </Data>
                    <Data name="country">
                        <value>China</value>
                    </Data>
                    <Data name="road">
                        <value>Long Lok Road</value>
                    </Data>
                    <Data name="country_code">
                        <value>cn</value>
                    </Data>
                    <Data name="hamlet">
                        <value>Nam Bin Wai</value>
                    </Data>
                    <Data name="postcode">
                        <value>00852</value>
                    </Data>
                    <Data name="suburb">
                        <value>Yuen Long Kau Hui</value>
                    </Data>
                </ExtendedData>
            </Placemark>
            <Placemark>
                <address>Sinopec, Kam Tin Road, Kat Hing Wai, Au Tau, Ha Ko Po Tsuen, Yuen Long District, Hong Kong, DD109 754, China</address>
                <Point>
                    <coordinates>114.0495210503,22.4437249608</coordinates>
                </Point>
                <ExtendedData>
                    <Data name="neighbourhood">
                        <value>Kat Hing Wai</value>
                    </Data>
                    <Data name="county">
                        <value>Yuen Long District</value>
                    </Data>
                    <Data name="country">
                        <value>China</value>
                    </Data>
                    <Data name="road">
                        <value>Kam Tin Road</value>
                    </Data>
                    <Data name="country_code">
                        <value>cn</value>
                    </Data>
                    <Data name="hamlet">
                        <value>Ha Ko Po Tsuen</value>
                    </Data>
                    <Data name="postcode">
                        <value>DD109 754</value>
                    </Data>
                    <Data name="fuel">
                        <value>Sinopec</value>
                    </Data>
                    <Data name="suburb">
                        <value>Au Tau</value>
                    </Data>
                </ExtendedData>
            </Placemark>
            <Placemark>
                <address>Castle Peak Road Sitting-out Area, Castle Peak Road, Lai Chi Kok Bay, Lai Chi Kok, Sham Shui Po District, Hong Kong, 852, China</address>
                <Point>
                    <coordinates>114.1419696672,22.3369837945</coordinates>
                </Point>
                <ExtendedData>
                    <Data name="neighbourhood">
                        <value>Lai Chi Kok Bay</value>
                    </Data>
                    <Data name="county">
                        <value>Sham Shui Po District</value>
                    </Data>
                    <Data name="country">
                        <value>China</value>
                    </Data>
                    <Data name="road">
                        <value>Castle Peak Road</value>
                    </Data>
                    <Data name="country_code">
                        <value>cn</value>
                    </Data>
                    <Data name="garden">
                        <value>Castle Peak Road Sitting-out Area</value>
                    </Data>
                    <Data name="postcode">
                        <value>852</value>
                    </Data>
                    <Data name="suburb">
                        <value>Lai Chi Kok</value>
                    </Data>
                </ExtendedData>
            </Placemark>
            <Placemark>
                <address>OCBC, Cheung Sha Wan Road, Tong Mi, Sham Shui Po, Sham Shui Po District, Hong Kong, KIL 3348, China</address>
                <Point>
                    <coordinates>114.1663131333,22.3277738744</coordinates>
                </Point>
                <ExtendedData>
                    <Data name="neighbourhood">
                        <value>Tong Mi</value>
                    </Data>
                    <Data name="county">
                        <value>Sham Shui Po District</value>
                    </Data>
                    <Data name="country">
                        <value>China</value>
                    </Data>
                    <Data name="road">
                        <value>Cheung Sha Wan Road</value>
                    </Data>
                    <Data name="country_code">
                        <value>cn</value>
                    </Data>
                    <Data name="bank">
                        <value>OCBC</value>
                    </Data>
                    <Data name="postcode">
                        <value>KIL 3348</value>
                    </Data>
                    <Data name="suburb">
                        <value>Sham Shui Po</value>
                    </Data>
                </ExtendedData>
            </Placemark>
            <Placemark>
                <address>Apliu Street, Tong Mi, Sham Shui Po, Sham Shui Po District, Hong Kong, KIL 3348, China</address>
                <Point>
                    <coordinates>114.1655099534,22.3267668985</coordinates>
                </Point>
                <ExtendedData>
                    <Data name="neighbourhood">
                        <value>Tong Mi</value>
                    </Data>
                    <Data name="county">
                        <value>Sham Shui Po District</value>
                    </Data>
                    <Data name="country">
                        <value>China</value>
                    </Data>
                    <Data name="road">
                        <value>Apliu Street</value>
                    </Data>
                    <Data name="country_code">
                        <value>cn</value>
                    </Data>
                    <Data name="postcode">
                        <value>KIL 3348</value>
                    </Data>
                    <Data name="suburb">
                        <value>Sham Shui Po</value>
                    </Data>
                </ExtendedData>
            </Placemark>
            <Placemark>
                <address>Kee Wah Bakery, Yen Chow Street, Un Chau, Sham Shui Po, Sham Shui Po District, Hong Kong, KIL 3348, China</address>
                <Point>
                    <coordinates>114.1596920197,22.3307521998</coordinates>
                </Point>
                <ExtendedData>
                    <Data name="neighbourhood">
                        <value>Un Chau</value>
                    </Data>
                    <Data name="county">
                        <value>Sham Shui Po District</value>
                    </Data>
                    <Data name="country">
                        <value>China</value>
                    </Data>
                    <Data name="road">
                        <value>Yen Chow Street</value>
                    </Data>
                    <Data name="country_code">
                        <value>cn</value>
                    </Data>
                    <Data name="bakery">
                        <value>Kee Wah Bakery</value>
                    </Data>
                    <Data name="postcode">
                        <value>KIL 3348</value>
                    </Data>
                    <Data name="suburb">
                        <value>Sham Shui Po</value>
                    </Data>
                </ExtendedData>
            </Placemark>
            <Placemark>
                <address>Cheung Sha Wan Road, Lai Chi Kok Bay, Cheung Sha Wan, Sham Shui Po District, Hong Kong, 852, China</address>
                <Point>
                    <coordinates>114.1462442325,22.3365407359</coordinates>
                </Point>
                <ExtendedData>
                    <Data name="neighbourhood">
                        <value>Lai Chi Kok Bay</value>
                    </Data>
                    <Data name="county">
                        <value>Sham Shui Po District</value>
                    </Data>
                    <Data name="country">
                        <value>China</value>
                    </Data>
                    <Data name="road">
                        <value>Cheung Sha Wan Road</value>
                    </Data>
                    <Data name="country_code">
                        <value>cn</value>
                    </Data>
                    <Data name="postcode">
                        <value>852</value>
                    </Data>
                    <Data name="suburb">
                        <value>Cheung Sha Wan</value>
                    </Data>
                </ExtendedData>
            </Placemark>
            <Placemark>
                <address>1-3, Glee Path, Mei Foo Sun Chuen Phase 2, Lai Chi Kok, Sham Shui Po District, Hong Kong, 852, China</address>
                <Point>
                    <coordinates>114.1391941800,22.3368662882</coordinates>
                </Point>
                <ExtendedData>
                    <Data name="county">
                        <value>Sham Shui Po District</value>
                    </Data>
                    <Data name="country">
                        <value>China</value>
                    </Data>
                    <Data name="road">
                        <value>Glee Path</value>
                    </Data>
                    <Data name="country_code">
                        <value>cn</value>
                    </Data>
                    <Data name="house_number">
                        <value>1-3</value>
                    </Data>
                    <Data name="postcode">
                        <value>852</value>
                    </Data>
                    <Data name="suburb">
                        <value>Lai Chi Kok</value>
                    </Data>
                    <Data name="residential">
                        <value>Mei Foo Sun Chuen Phase 2</value>
                    </Data>
                </ExtendedData>
            </Placemark>
            <Placemark>
                <address>Castle Peak Road – Yuen Long, Shan Pui Chung Hau Tsuen, Au Tau, Lion House, Yuen Long District, Hong Kong, 00852, China</address>
                <Point>
                    <coordinates>114.0418988883,22.4442746914</coordinates>
                </Point>
                <ExtendedData>
                    <Data name="neighbourhood">
                        <value>Shan Pui Chung Hau Tsuen</value>
                    </Data>
                    <Data name="county">
                        <value>Yuen Long District</value>
                    </Data>
                    <Data name="country">
                        <value>China</value>
                    </Data>
                    <Data name="road">
                        <value>Castle Peak Road – Yuen Long</value>
                    </Data>
                    <Data name="country_code">
                        <value>cn</value>
                    </Data>
                    <Data name="hamlet">
                        <value>Lion House</value>
                    </Data>
                    <Data name="postcode">
                        <value>00852</value>
                    </Data>
                    <Data name="suburb">
                        <value>Au Tau</value>
                    </Data>
                </ExtendedData>
            </Placemark>
            <Placemark>
                <address>Len Shing Mansion, Yuen Long Hong Lok Road, Shui Pin Tsuen, Yuen Long San Hui, Yuen Long, Yuen Long District, Hong Kong, 00852, China</address>
                <Point>
                    <coordinates>114.0269940946,22.4443518716</coordinates>
                </Point>
                <ExtendedData>
                    <Data name="neighbourhood">
                        <value>Shui Pin Tsuen</value>
                    </Data>
                    <Data name="county">
                        <value>Yuen Long District</value>
                    </Data>
                    <Data name="country">
                        <value>China</value>
                    </Data>
                    <Data name="building">
                        <value>Len Shing Mansion</value>
                    </Data>
                    <Data name="road">
                        <value>Yuen Long Hong Lok Road</value>
                    </Data>
                    <Data name="country_code">
                        <value>cn</value>
                    </Data>
                    <Data name="town">
                        <value>Yuen Long</value>
                    </Data>
                    <Data name="postcode">
                        <value>00852</value>
                    </Data>
                    <Data name="suburb">
                        <value>Yuen Long San Hui</value>
                    </Data>
                </ExtendedData>
            </Placemark>
            <Placemark>
                <address>Long Ping Railway Station, Fo Yip Street, Wang Chau Yeung Uk Tsuen, Tung Tau Industrial Area, Tai Kiu, Yuen Long District, Hong Kong, DD123 1933, China</address>
                <Point>
                    <coordinates>114.0270503262,22.4493411479</coordinates>
                </Point>
                <ExtendedData>
                    <Data name="neighbourhood">
                        <value>Wang Chau Yeung Uk Tsuen</value>
                    </Data>
                    <Data name="county">
                        <value>Yuen Long District</value>
                    </Data>
                    <Data name="country">
                        <value>China</value>
                    </Data>
                    <Data name="road">
                        <value>Fo Yip Street</value>
                    </Data>
                    <Data name="country_code">
                        <value>cn</value>
                    </Data>
                    <Data name="hamlet">
                        <value>Tai Kiu</value>
                    </Data>
                    <Data name="bus_station">
                        <value>Long Ping Railway Station</value>
                    </Data>
                    <Data name="postcode">
                        <value>DD123 1933</value>
                    </Data>
                    <Data name="suburb">
                        <value>Tung Tau Industrial Area</value>
                    </Data>
                </ExtendedData>
            </Placemark>
        </Folder>
        <Document>
            <name>56.2 km; 01:45 h (OSRM)</name>
            <Placemark>
                <name>Route</name>
                <LineString>
                    <coordinates>114.0271400000,22.4494640000 114.0274100000,22.4492890000 114.0274930000,22.4492300000 114.0276980000,22.4494970000 114.0282280000,22.4501870000 114.0286340000,22.4507150000 114.0287170000,22.4508250000 114.0286270000,22.4508860000 114.0280710000,22.4512620000 114.0275280000,22.4516410000 114.0274510000,22.4516900000 114.0273870000,22.4517310000 114.0273100000,22.4516260000 114.0266200000,22.4506790000 114.0265270000,22.4505600000 114.0264730000,22.4504960000 114.0259200000,22.4497930000 114.0257190000,22.4495120000 114.0256270000,22.4493590000 114.0255470000,22.4491930000 114.0254950000,22.4490540000 114.0254650000,22.4489200000 114.0254510000,22.4487970000 114.0254500000,22.4486310000 114.0254730000,22.4480080000 114.0254780000,22.4478370000 114.0254790000,22.4478030000 114.0254830000,22.4476090000 114.0254040000,22.4476100000 114.0253550000,22.4476110000 114.0252830000,22.4476110000 114.0247040000,22.4476110000 114.0245000000,22.4476110000 114.0241230000,22.4476110000 114.0235990000,22.4476110000 114.0233480000,22.4476160000 114.0229820000,22.4476150000 114.0227850000,22.4476150000 114.0225280000,22.4476150000 114.0223110000,22.4475650000 114.0221510000,22.4474710000 114.0220620000,22.4473750000 114.0219960000,22.4472010000 114.0220370000,22.4470660000 114.0220780000,22.4469780000 114.0222920000,22.4466260000 114.0223850000,22.4465550000 114.0226120000,22.4464630000 114.0226440000,22.4464330000 114.0226810000,22.4463900000 114.0227680000,22.4462320000 114.0227740000,22.4461500000 114.0227560000,22.4460620000 114.0225630000,22.4459550000 114.0222580000,22.4457820000 114.0222120000,22.4456730000 114.0221900000,22.4455800000 114.0222550000,22.4454200000 114.0222750000,22.4452870000 114.0222720000,22.4449570000 114.0223600000,22.4448380000 114.0224550000,22.4447540000 114.0227380000,22.4446410000 114.0232420000,22.4446380000 114.0232990000,22.4446370000 114.0233860000,22.4446360000 114.0236790000,22.4446320000 114.0237560000,22.4446310000 114.0238390000,22.4446300000 114.0240080000,22.4446280000 114.0242880000,22.4446210000 114.0244360000,22.4446060000 114.0250310000,22.4446050000 114.0251060000,22.4446020000 114.0251880000,22.4446030000 114.0256380000,22.4446040000 114.0256610000,22.4446070000 114.0257360000,22.4446060000 114.0259050000,22.4446080000 114.0259670000,22.4446080000 114.0262150000,22.4446040000 114.0263570000,22.4446020000 114.0264050000,22.4446010000 114.0269660000,22.4445920000 114.0270090000,22.4445910000 114.0272100000,22.4445880000 114.0273220000,22.4445860000 114.0280150000,22.4445750000 114.0283280000,22.4445700000 114.0284090000,22.4445690000 114.0284960000,22.4445680000 114.0285710000,22.4445660000 114.0285800000,22.4445660000 114.0287320000,22.4445870000 114.0288540000,22.4445860000 114.0291780000,22.4445850000 114.0292970000,22.4445820000 114.0293470000,22.4445810000 114.0295470000,22.4445500000 114.0296740000,22.4445450000 114.0297880000,22.4445380000 114.0298640000,22.4445330000 114.0303900000,22.4445270000 114.0305090000,22.4445260000 114.0307620000,22.4445230000 114.0310040000,22.4445210000 114.0318160000,22.4445130000 114.0319090000,22.4445310000 114.0320030000,22.4445610000 114.0320680000,22.4445910000 114.0321740000,22.4446810000 114.0323600000,22.4448700000 114.0325530000,22.4450440000 114.0326020000,22.4450930000 114.0326640000,22.4451630000 114.0327890000,22.4452990000 114.0328250000,22.4453400000 114.0328560000,22.4453820000 114.0328780000,22.4454110000 114.0329130000,22.4454500000 114.0330900000,22.4456330000 114.0332640000,22.4457640000 114.0334350000,22.4458370000 114.0336140000,22.4458980000 114.0336680000,22.4459340000 114.0337230000,22.4459840000 114.0337740000,22.4460500000 114.0338270000,22.4462100000 114.0338910000,22.4463760000 114.0339550000,22.4464420000 114.0340650000,22.4465550000 114.0342900000,22.4466180000 114.0345310000,22.4466150000 114.0346880000,22.4466130000 114.0347040000,22.4466130000 114.0349200000,22.4466040000 114.0349650000,22.4466010000 114.0351110000,22.4465940000 114.0351680000,22.4465880000 114.0352380000,22.4465820000 114.0352690000,22.4465790000 114.0353090000,22.4465750000 114.0353580000,22.4465700000 114.0353870000,22.4465670000 114.0354320000,22.4465630000 114.0354810000,22.4465580000 114.0356390000,22.4465420000 114.0358160000,22.4465110000 114.0359500000,22.4464760000 114.0360780000,22.4464160000 114.0361080000,22.4463850000 114.0361400000,22.4463520000 114.0361610000,22.4463010000 114.0361780000,22.4462410000 114.0361920000,22.4461750000 114.0361990000,22.4458480000 114.0362070000,22.4454620000 114.0362110000,22.4452850000 114.0362120000,22.4451270000 114.0362150000,22.4448770000 114.0362240000,22.4446610000 114.0362260000,22.4446300000 114.0362430000,22.4445550000 114.0362710000,22.4444810000 114.0366560000,22.4444730000 114.0368690000,22.4444730000 114.0369880000,22.4444720000 114.0372550000,22.4444700000 114.0388840000,22.4444420000 114.0390790000,22.4444380000 114.0392230000,22.4444360000 114.0395830000,22.4444290000 114.0397650000,22.4444260000 114.0400160000,22.4444220000 114.0407080000,22.4444100000 114.0412100000,22.4444030000 114.0417090000,22.4444130000 114.0422600000,22.4443890000 114.0426590000,22.4443730000 114.0430710000,22.4443630000 114.0433970000,22.4443440000 114.0438800000,22.4442950000 114.0442730000,22.4442310000 114.0448310000,22.4441190000 114.0450510000,22.4440920000 114.0453750000,22.4440670000 114.0454770000,22.4440630000 114.0458500000,22.4440740000 114.0462990000,22.4441140000 114.0467010000,22.4441810000 114.0471160000,22.4442670000 114.0472580000,22.4443190000 114.0473600000,22.4443710000 114.0474610000,22.4444300000 114.0475970000,22.4445140000 114.0476420000,22.4445780000 114.0477060000,22.4446320000 114.0477800000,22.4446620000 114.0478580000,22.4446730000 114.0479840000,22.4446410000 114.0480790000,22.4445570000 114.0481170000,22.4444630000 114.0483260000,22.4442550000 114.0486420000,22.4440700000 114.0489470000,22.4439170000 114.0494320000,22.4436530000 114.0495100000,22.4436130000 114.0498430000,22.4434430000 114.0498880000,22.4434200000 114.0500620000,22.4433330000 114.0500940000,22.4433810000 114.0501370000,22.4434350000 114.0497980000,22.4438030000 114.0496410000,22.4437130000 114.0495440000,22.4437630000 114.0490270000,22.4440300000 114.0489680000,22.4440100000 114.0489450000,22.4439790000 114.0489470000,22.4439170000 114.0494320000,22.4436530000 114.0495100000,22.4436130000 114.0498430000,22.4434430000 114.0498880000,22.4434200000 114.0500620000,22.4433330000 114.0516370000,22.4425450000 114.0520990000,22.4422970000 114.0521440000,22.4422730000 114.0522050000,22.4422400000 114.0542350000,22.4412510000 114.0544260000,22.4411630000 114.0553580000,22.4407040000 114.0557270000,22.4405250000 114.0557520000,22.4405130000 114.0558540000,22.4404670000 114.0560170000,22.4403940000 114.0562860000,22.4402780000 114.0565330000,22.4402110000 114.0566380000,22.4401780000 114.0567560000,22.4401510000 114.0569270000,22.4401130000 114.0571050000,22.4400880000 114.0571490000,22.4400820000 114.0574570000,22.4400550000 114.0577670000,22.4400490000 114.0579310000,22.4400530000 114.0582110000,22.4400550000 114.0582650000,22.4400540000 114.0586710000,22.4400820000 114.0589730000,22.4400790000 114.0590680000,22.4400970000 114.0591460000,22.4401300000 114.0592160000,22.4401740000 114.0592630000,22.4402140000 114.0593210000,22.4402930000 114.0593400000,22.4403580000 114.0593910000,22.4404360000 114.0594610000,22.4405010000 114.0595460000,22.4405480000 114.0596410000,22.4405760000 114.0597380000,22.4405810000 114.0598350000,22.4405660000 114.0599240000,22.4405290000 114.0600020000,22.4404740000 114.0600640000,22.4404040000 114.0601120000,22.4403040000 114.0601270000,22.4402070000 114.0601140000,22.4401100000 114.0600760000,22.4400180000 114.0600130000,22.4399390000 114.0598910000,22.4398580000 114.0598260000,22.4398250000 114.0597820000,22.4398120000 114.0596370000,22.4398230000 114.0595500000,22.4398530000 114.0595080000,22.4398730000 114.0594680000,22.4398970000 114.0594320000,22.4399260000 114.0591350000,22.4399370000 114.0588610000,22.4399300000 114.0582560000,22.4399460000 114.0579440000,22.4399480000 114.0577430000,22.4399550000 114.0575560000,22.4399090000 114.0574020000,22.4398830000 114.0573440000,22.4398680000 114.0573090000,22.4398490000 114.0571870000,22.4397100000 114.0571530000,22.4395470000 114.0571200000,22.4392890000 114.0571200000,22.4390110000 114.0571850000,22.4387730000 114.0572920000,22.4385450000 114.0574420000,22.4383470000 114.0576890000,22.4381580000 114.0581640000,22.4378260000 114.0585850000,22.4374940000 114.0590450000,22.4371190000 114.0593690000,22.4367870000 114.0596990000,22.4364400000 114.0599890000,22.4361520000 114.0605010000,22.4355870000 114.0607360000,22.4352330000 114.0611550000,22.4347070000 114.0617550000,22.4338640000 114.0622730000,22.4331580000 114.0626900000,22.4324490000 114.0630580000,22.4316410000 114.0633420000,22.4308540000 114.0635560000,22.4301880000 114.0638320000,22.4291520000 114.0640530000,22.4281040000 114.0641500000,22.4274210000 114.0642720000,22.4259930000 114.0643150000,22.4243600000 114.0643190000,22.4232760000 114.0643020000,22.4220230000 114.0642750000,22.4215430000 114.0642570000,22.4213660000 114.0641580000,22.4204600000 114.0640030000,22.4189740000 114.0639950000,22.4189290000 114.0638760000,22.4183200000 114.0635200000,22.4166570000 114.0634500000,22.4161790000 114.0633480000,22.4155790000 114.0632220000,22.4150740000 114.0630650000,22.4145840000 114.0628950000,22.4141420000 114.0626700000,22.4136450000 114.0623410000,22.4130610000 114.0610200000,22.4108000000 114.0609240000,22.4106400000 114.0608370000,22.4104800000 114.0607560000,22.4103200000 114.0606700000,22.4101500000 114.0605900000,22.4099800000 114.0605150000,22.4098100000 114.0604420000,22.4096400000 114.0603740000,22.4094700000 114.0603150000,22.4093000000 114.0602650000,22.4091500000 114.0602190000,22.4090000000 114.0601790000,22.4088600000 114.0601310000,22.4086900000 114.0600910000,22.4085300000 114.0600550000,22.4083790000 114.0600430000,22.4083300000 114.0600010000,22.4081530000 114.0599670000,22.4080000000 114.0599350000,22.4078400000 114.0599080000,22.4076800000 114.0598880000,22.4075200000 114.0598690000,22.4073600000 114.0598510000,22.4072000000 114.0598350000,22.4070400000 114.0598260000,22.4068800000 114.0598220000,22.4067200000 114.0598200000,22.4065600000 114.0598200000,22.4064000000 114.0598220000,22.4062400000 114.0598260000,22.4060800000 114.0598320000,22.4059200000 114.0598410000,22.4057600000 114.0598540000,22.4056000000 114.0598690000,22.4054400000 114.0598910000,22.4052500000 114.0637180000,22.3811750000 114.0637550000,22.3810000000 114.0637950000,22.3808300000 114.0638400000,22.3806600000 114.0638870000,22.3804900000 114.0639380000,22.3803100000 114.0639920000,22.3801310000 114.0640500000,22.3799600000 114.0641120000,22.3797900000 114.0641800000,22.3796200000 114.0642480000,22.3794600000 114.0643150000,22.3793030000 114.0643830000,22.3791500000 114.0644610000,22.3789900000 114.0645400000,22.3788400000 114.0646200000,22.3786900000 114.0647230000,22.3785000000 114.0648310000,22.3783200000 114.0649400000,22.3781500000 114.0650520000,22.3779800000 114.0651700000,22.3778100000 114.0652900000,22.3776450000 114.0654130000,22.3774800000 114.0655400000,22.3773200000 114.0656660000,22.3771710000 114.0658010000,22.3770150000 114.0659500000,22.3768540000 114.0661020000,22.3766950000 114.0662500000,22.3765450000 114.0664000000,22.3764000000 114.0665500000,22.3762610000 114.0667140000,22.3761200000 114.0668830000,22.3759780000 114.0672200000,22.3757280000 114.0673840000,22.3756120000 114.0676090000,22.3754820000 114.0682370000,22.3750400000 114.0688590000,22.3745820000 114.0690860000,22.3744300000 114.0692620000,22.3743040000 114.0701770000,22.3737060000 114.0707720000,22.3733910000 114.0712910000,22.3731090000 114.0716000000,22.3729500000 114.0721310000,22.3727610000 114.0724780000,22.3726640000 114.0728230000,22.3725910000 114.0732480000,22.3725280000 114.0736650000,22.3724810000 114.0741240000,22.3724250000 114.0746000000,22.3723220000 114.0749880000,22.3721770000 114.0757910000,22.3718600000 114.0761870000,22.3717260000 114.0763980000,22.3716700000 114.0766960000,22.3716080000 114.0769850000,22.3715820000 114.0779250000,22.3715890000 114.0780010000,22.3716040000 114.0780980000,22.3716270000 114.0782440000,22.3716630000 114.0784650000,22.3717160000 114.0787940000,22.3717930000 114.0790800000,22.3718420000 114.0792530000,22.3718690000 114.0794420000,22.3718790000 114.0796650000,22.3718780000 114.0798850000,22.3718650000 114.0800760000,22.3718400000 114.0802610000,22.3718040000 114.0804780000,22.3717510000 114.0806960000,22.3716740000 114.0808480000,22.3716200000 114.0809970000,22.3715470000 114.0812220000,22.3714150000 114.0816380000,22.3711520000 114.0819740000,22.3709450000 114.0822920000,22.3707710000 114.0825500000,22.3706360000 114.0828140000,22.3705170000 114.0831520000,22.3703650000 114.0835260000,22.3702230000 114.0839830000,22.3700700000 114.0844780000,22.3699170000 114.0848660000,22.3697980000 114.0852120000,22.3696970000 114.0855660000,22.3695930000 114.0858550000,22.3695100000 114.0862030000,22.3693940000 114.0865640000,22.3692760000 114.0869430000,22.3691610000 114.0872370000,22.3690750000 114.0874980000,22.3690030000 114.0878050000,22.3689280000 114.0880100000,22.3689010000 114.0881990000,22.3689040000 114.0883750000,22.3689160000 114.0885600000,22.3689540000 114.0887180000,22.3689980000 114.0888820000,22.3690560000 114.0890220000,22.3691240000 114.0891450000,22.3692040000 114.0892740000,22.3692940000 114.0894090000,22.3694090000 114.0895620000,22.3695690000 114.0897130000,22.3697670000 114.0898980000,22.3700310000 114.0900280000,22.3701890000 114.0901740000,22.3703330000 114.0903490000,22.3704940000 114.0905800000,22.3706640000 114.0907650000,22.3707720000 114.0909480000,22.3708460000 114.0911920000,22.3709250000 114.0914070000,22.3709820000 114.0916430000,22.3710130000 114.0918590000,22.3710290000 114.0920340000,22.3710290000 114.0922690000,22.3710050000 114.0924670000,22.3709720000 114.0926770000,22.3709250000 114.0928960000,22.3708610000 114.0931010000,22.3707700000 114.0934830000,22.3705720000 114.0941110000,22.3701260000 114.0944050000,22.3699500000 114.0945970000,22.3698650000 114.0948340000,22.3697960000 114.0949640000,22.3697710000 114.0950960000,22.3697530000 114.0952310000,22.3697450000 114.0953830000,22.3697460000 114.0955520000,22.3697640000 114.0957010000,22.3697850000 114.0959070000,22.3698450000 114.0961040000,22.3699150000 114.0962590000,22.3699880000 114.0964000000,22.3700750000 114.0965070000,22.3701490000 114.0966170000,22.3702380000 114.0968120000,22.3704380000 114.0968990000,22.3705310000 114.0969690000,22.3706580000 114.0971460000,22.3709910000 114.0973570000,22.3714850000 114.0974600000,22.3716510000 114.0975780000,22.3718360000 114.0977130000,22.3720220000 114.0978430000,22.3721520000 114.0980160000,22.3723150000 114.0982530000,22.3725030000 114.0984520000,22.3726400000 114.0987210000,22.3727570000 114.0992930000,22.3729700000 114.1000660000,22.3732620000 114.1013760000,22.3737480000 114.1020730000,22.3740060000 114.1026240000,22.3741510000 114.1028800000,22.3742020000 114.1032910000,22.3743030000 114.1035420000,22.3743270000 114.1038060000,22.3743230000 114.1043040000,22.3742640000 114.1046620000,22.3741460000 114.1049490000,22.3740040000 114.1052510000,22.3737880000 114.1055310000,22.3735460000 114.1065460000,22.3725840000 114.1098310000,22.3694320000 114.1112530000,22.3681480000 114.1144200000,22.3651850000 114.1146220000,22.3649980000 114.1149340000,22.3647460000 114.1152740000,22.3645310000 114.1156490000,22.3643130000 114.1162030000,22.3640040000 114.1170260000,22.3635210000 114.1174420000,22.3632450000 114.1178000000,22.3629680000 114.1181030000,22.3626710000 114.1183440000,22.3623900000 114.1185790000,22.3620930000 114.1187260000,22.3618630000 114.1188650000,22.3616180000 114.1190890000,22.3611380000 114.1196410000,22.3598800000 114.1198320000,22.3594730000 114.1199770000,22.3591760000 114.1201150000,22.3589430000 114.1203390000,22.3585730000 114.1205520000,22.3582890000 114.1207090000,22.3581150000 114.1210420000,22.3577670000 114.1213110000,22.3575050000 114.1214920000,22.3573370000 114.1219310000,22.3569640000 114.1222020000,22.3567080000 114.1224780000,22.3564550000 114.1231350000,22.3558540000 114.1237890000,22.3552050000 114.1244990000,22.3545360000 114.1251680000,22.3539510000 114.1258860000,22.3532540000 114.1260530000,22.3530360000 114.1261830000,22.3527950000 114.1262590000,22.3526270000 114.1262840000,22.3524340000 114.1262980000,22.3522310000 114.1262760000,22.3520290000 114.1262420000,22.3518280000 114.1261320000,22.3514400000 114.1258160000,22.3505290000 114.1257640000,22.3503510000 114.1257020000,22.3500920000 114.1255930000,22.3495410000 114.1255350000,22.3492900000 114.1254150000,22.3487370000 114.1253320000,22.3483780000 114.1252480000,22.3480190000 114.1251100000,22.3473300000 114.1250710000,22.3464870000 114.1251290000,22.3462360000 114.1252260000,22.3459350000 114.1253260000,22.3457350000 114.1254360000,22.3455410000 114.1256270000,22.3452840000 114.1258900000,22.3450110000 114.1262220000,22.3447270000 114.1265390000,22.3445090000 114.1270900000,22.3442370000 114.1278020000,22.3439570000 114.1291750000,22.3433650000 114.1295900000,22.3432020000 114.1300670000,22.3429730000 114.1304610000,22.3427100000 114.1307960000,22.3424020000 114.1310070000,22.3421540000 114.1313240000,22.3416540000 114.1321500000,22.3403040000 114.1322980000,22.3400690000 114.1324620000,22.3397760000 114.1324710000,22.3397590000 114.1325930000,22.3395480000 114.1327820000,22.3392530000 114.1329880000,22.3390000000 114.1332010000,22.3388100000 114.1333410000,22.3386850000 114.1335440000,22.3385320000 114.1337430000,22.3384180000 114.1339590000,22.3383080000 114.1341840000,22.3382150000 114.1344780000,22.3381290000 114.1350160000,22.3379990000 114.1352460000,22.3379560000 114.1359680000,22.3378160000 114.1366380000,22.3377110000 114.1376220000,22.3375550000 114.1381850000,22.3375330000 114.1386260000,22.3374670000 114.1391560000,22.3373970000 114.1394130000,22.3374040000 114.1397240000,22.3374760000 114.1398680000,22.3375070000 114.1399640000,22.3375240000 114.1401050000,22.3375360000 114.1402020000,22.3375320000 114.1403470000,22.3374950000 114.1404360000,22.3374620000 114.1406040000,22.3373930000 114.1406400000,22.3373780000 114.1407390000,22.3373360000 114.1409140000,22.3372510000 114.1410890000,22.3371810000 114.1412120000,22.3371380000 114.1412750000,22.3371210000 114.1415820000,22.3370530000 114.1419460000,22.3369250000 114.1421030000,22.3368700000 114.1426010000,22.3367550000 114.1439120000,22.3365630000 114.1441880000,22.3365240000 114.1447300000,22.3364650000 114.1449930000,22.3364570000 114.1451340000,22.3364600000 114.1453540000,22.3364560000 114.1456960000,22.3365310000 114.1466080000,22.3368230000 114.1467920000,22.3368780000 114.1470620000,22.3369720000 114.1477910000,22.3372190000 114.1478410000,22.3372360000 114.1478890000,22.3372520000 114.1485180000,22.3374700000 114.1486530000,22.3375170000 114.1487080000,22.3375360000 114.1491460000,22.3377030000 114.1491940000,22.3377210000 114.1493740000,22.3377730000 114.1495090000,22.3378200000 114.1496190000,22.3378570000 114.1499280000,22.3379700000 114.1505500000,22.3381940000 114.1505570000,22.3381970000 114.1509590000,22.3383420000 114.1510130000,22.3383620000 114.1514460000,22.3385110000 114.1517420000,22.3386000000 114.1519950000,22.3386010000 114.1521940000,22.3385580000 114.1522950000,22.3385170000 114.1524590000,22.3384370000 114.1527030000,22.3382640000 114.1528030000,22.3381930000 114.1529100000,22.3381060000 114.1533150000,22.3377800000 114.1534730000,22.3376610000 114.1536360000,22.3375360000 114.1537460000,22.3374520000 114.1539090000,22.3373250000 114.1545640000,22.3368150000 114.1550440000,22.3364410000 114.1552120000,22.3363130000 114.1552870000,22.3362520000 114.1553360000,22.3362140000 114.1554930000,22.3360920000 114.1555360000,22.3360590000 114.1556360000,22.3359830000 114.1557320000,22.3359080000 114.1562790000,22.3354840000 114.1563120000,22.3354580000 114.1564190000,22.3353760000 114.1564430000,22.3353590000 114.1571360000,22.3348180000 114.1572200000,22.3347520000 114.1572980000,22.3347010000 114.1573990000,22.3346180000 114.1575920000,22.3344660000 114.1583380000,22.3338920000 114.1586490000,22.3336410000 114.1591120000,22.3332800000 114.1591530000,22.3332470000 114.1592260000,22.3331900000 114.1596250000,22.3328790000 114.1596780000,22.3328380000 114.1600840000,22.3325260000 114.1606830000,22.3320590000 114.1608450000,22.3319370000 114.1608740000,22.3319160000 114.1609630000,22.3318480000 114.1610050000,22.3318160000 114.1610400000,22.3317890000 114.1611900000,22.3316720000 114.1619020000,22.3311160000 114.1625100000,22.3306380000 114.1625910000,22.3305750000 114.1627640000,22.3304370000 114.1634510000,22.3299220000 114.1635040000,22.3298820000 114.1636690000,22.3297580000 114.1638020000,22.3296320000 114.1638910000,22.3295670000 114.1645560000,22.3290730000 114.1648550000,22.3288400000 114.1651240000,22.3286160000 114.1652070000,22.3285510000 114.1653000000,22.3284880000 114.1653860000,22.3284180000 114.1655050000,22.3283210000 114.1658240000,22.3281070000 114.1660600000,22.3279220000 114.1662820000,22.3277600000 114.1662930000,22.3277520000 114.1669350000,22.3272520000 114.1669910000,22.3272170000 114.1670180000,22.3272030000 114.1670600000,22.3271800000 114.1671390000,22.3271520000 114.1672430000,22.3271250000 114.1673030000,22.3271060000 114.1673530000,22.3270820000 114.1674040000,22.3270560000 114.1674530000,22.3270230000 114.1676480000,22.3268480000 114.1677440000,22.3267530000 114.1677660000,22.3267310000 114.1677730000,22.3267230000 114.1678470000,22.3266350000 114.1679190000,22.3264760000 114.1679560000,22.3263890000 114.1679690000,22.3263510000 114.1679810000,22.3263140000 114.1680030000,22.3262340000 114.1681560000,22.3255460000 114.1682360000,22.3251720000 114.1682480000,22.3251100000 114.1683990000,22.3243410000 114.1684400000,22.3241500000 114.1684440000,22.3241320000 114.1684600000,22.3240570000 114.1684800000,22.3239740000 114.1683510000,22.3239490000 114.1682470000,22.3239310000 114.1679650000,22.3238830000 114.1678120000,22.3239200000 114.1677880000,22.3239260000 114.1677700000,22.3239560000 114.1676660000,22.3244340000 114.1675520000,22.3250140000 114.1674920000,22.3252620000 114.1673690000,22.3253670000 114.1670390000,22.3256400000 114.1664190000,22.3261130000 114.1662300000,22.3262570000 114.1662080000,22.3262730000 114.1661770000,22.3262940000 114.1661560000,22.3263080000 114.1661180000,22.3263350000 114.1660030000,22.3264040000 114.1655290000,22.3267880000 114.1653710000,22.3269160000 114.1653340000,22.3269460000 114.1652580000,22.3270090000 114.1645050000,22.3275920000 114.1639940000,22.3279840000 114.1637480000,22.3281710000 114.1634100000,22.3284250000 114.1630990000,22.3286620000 114.1630060000,22.3287340000 114.1627970000,22.3284960000 114.1626590000,22.3283360000 114.1623070000,22.3279450000 114.1620340000,22.3276520000 114.1620170000,22.3276340000 114.1619420000,22.3275530000 114.1618580000,22.3274700000 114.1618030000,22.3273970000 114.1617800000,22.3273660000 114.1614740000,22.3270150000 114.1611710000,22.3266780000 114.1611490000,22.3266530000 114.1610790000,22.3265760000 114.1609440000,22.3266890000 114.1608260000,22.3267740000 114.1603190000,22.3271670000 114.1600340000,22.3273880000 114.1591690000,22.3280550000 114.1584040000,22.3286390000 114.1583590000,22.3286710000 114.1583260000,22.3286970000 114.1582580000,22.3287510000 114.1583540000,22.3288560000 114.1584660000,22.3289820000 114.1585610000,22.3290780000 114.1586000000,22.3291220000 114.1586570000,22.3292070000 114.1586750000,22.3292270000 114.1589530000,22.3295390000 114.1589740000,22.3295630000 114.1590430000,22.3296410000 114.1591200000,22.3297250000 114.1592170000,22.3298310000 114.1594720000,22.3301200000 114.1595080000,22.3301600000 114.1597830000,22.3304710000 114.1598850000,22.3305850000 114.1597180000,22.3307100000 114.1597180000,22.3307100000 114.1598850000,22.3305850000 114.1599620000,22.3306820000 114.1600990000,22.3308750000 114.1601600000,22.3309430000 114.1603810000,22.3311920000 114.1607530000,22.3316110000 114.1607920000,22.3316550000 114.1608800000,22.3317540000 114.1608040000,22.3318130000 114.1602330000,22.3322520000 114.1600780000,22.3323710000 114.1597500000,22.3326270000 114.1591190000,22.3331180000 114.1591050000,22.3331290000 114.1590660000,22.3331600000 114.1586680000,22.3334690000 114.1586160000,22.3335100000 114.1585460000,22.3335650000 114.1583150000,22.3337440000 114.1575840000,22.3343150000 114.1574770000,22.3343960000 114.1574310000,22.3344320000 114.1573060000,22.3345250000 114.1572090000,22.3346010000 114.1570980000,22.3346960000 114.1563230000,22.3353030000 114.1562790000,22.3353370000 114.1559960000,22.3355550000 114.1559220000,22.3356120000 114.1558520000,22.3356660000 114.1555020000,22.3359410000 114.1554360000,22.3359940000 114.1552620000,22.3361260000 114.1552040000,22.3361700000 114.1551030000,22.3362410000 114.1538210000,22.3372230000 114.1537860000,22.3372510000 114.1536520000,22.3373560000 114.1535590000,22.3374270000 114.1528600000,22.3379970000 114.1528290000,22.3380220000 114.1527240000,22.3381080000 114.1525220000,22.3382400000 114.1523220000,22.3383730000 114.1522470000,22.3383970000 114.1521140000,22.3384390000 114.1520220000,22.3384680000 114.1517540000,22.3384650000 114.1515390000,22.3384270000 114.1513250000,22.3383580000 114.1511910000,22.3383160000 114.1510690000,22.3382750000 114.1510230000,22.3382580000 114.1509150000,22.3382180000 114.1507290000,22.3381480000 114.1506190000,22.3381090000 114.1505060000,22.3380670000 114.1505020000,22.3380650000 114.1496510000,22.3377660000 114.1496120000,22.3377520000 114.1494140000,22.3376830000 114.1492940000,22.3376420000 114.1482860000,22.3372960000 114.1480540000,22.3372150000 114.1479910000,22.3371930000 114.1478230000,22.3371340000 114.1475380000,22.3370330000 114.1473700000,22.3369750000 114.1472300000,22.3369260000 114.1467030000,22.3367430000 114.1462280000,22.3365810000 114.1462130000,22.3365760000 114.1459240000,22.3364740000 114.1457050000,22.3364030000 114.1449850000,22.3361620000 114.1447600000,22.3360930000 114.1445170000,22.3360740000 114.1442060000,22.3361330000 114.1439210000,22.3362200000 114.1434850000,22.3363000000 114.1429970000,22.3364090000 114.1425200000,22.3364870000 114.1424270000,22.3365020000 114.1422030000,22.3365370000 114.1420170000,22.3365530000 114.1418910000,22.3365620000 114.1417120000,22.3365530000 114.1414680000,22.3365370000 114.1413260000,22.3365390000 114.1412600000,22.3365370000 114.1411600000,22.3365420000 114.1410430000,22.3365590000 114.1409290000,22.3365820000 114.1409000000,22.3365890000 114.1408600000,22.3365990000 114.1408460000,22.3366040000 114.1406360000,22.3366520000 114.1405830000,22.3366640000 114.1404650000,22.3367080000 114.1403610000,22.3367250000 114.1401260000,22.3367570000 114.1398980000,22.3367720000 114.1397490000,22.3368060000 114.1394720000,22.3369110000 114.1392560000,22.3369980000 114.1391640000,22.3370350000 114.1387290000,22.3371680000 114.1377590000,22.3374060000 114.1377090000,22.3374410000 114.1363490000,22.3376790000 114.1359600000,22.3377460000 114.1352230000,22.3378750000 114.1346000000,22.3379940000 114.1342510000,22.3380800000 114.1339110000,22.3382030000 114.1336060000,22.3383580000 114.1333190000,22.3385400000 114.1329850000,22.3388240000 114.1328640000,22.3389340000 114.1326450000,22.3392280000 114.1324520000,22.3395240000 114.1320960000,22.3401450000 114.1319410000,22.3403870000 114.1315980000,22.3409290000 114.1311410000,22.3416830000 114.1310400000,22.3418400000 114.1309320000,22.3419790000 114.1308500000,22.3420990000 114.1307040000,22.3422500000 114.1304440000,22.3425000000 114.1301490000,22.3427330000 114.1298710000,22.3429110000 114.1295480000,22.3430710000 114.1292580000,22.3432030000 114.1287920000,22.3433910000 114.1281400000,22.3436410000 114.1273430000,22.3439600000 114.1268190000,22.3441900000 114.1263350000,22.3443760000 114.1258600000,22.3446000000 114.1254910000,22.3449910000 114.1251070000,22.3455570000 114.1249360000,22.3459990000 114.1248340000,22.3466010000 114.1248350000,22.3470460000 114.1248200000,22.3475160000 114.1248360000,22.3478940000 114.1249770000,22.3485900000 114.1250240000,22.3487870000 114.1254880000,22.3505060000 114.1256530000,22.3512270000 114.1257280000,22.3518000000 114.1257570000,22.3520630000 114.1257600000,22.3522640000 114.1257300000,22.3525310000 114.1256800000,22.3527920000 114.1254920000,22.3533050000 114.1251360000,22.3538120000 114.1248940000,22.3540480000 114.1243400000,22.3545640000 114.1230560000,22.3557780000 114.1224090000,22.3563940000 114.1221360000,22.3566400000 114.1218560000,22.3568840000 114.1214350000,22.3572740000 114.1212460000,22.3574610000 114.1209920000,22.3577110000 114.1206480000,22.3580690000 114.1204770000,22.3582440000 114.1202580000,22.3585300000 114.1200110000,22.3588980000 114.1198730000,22.3591260000 114.1197100000,22.3594960000 114.1192960000,22.3604290000 114.1190000000,22.3611150000 114.1187730000,22.3615760000 114.1186210000,22.3618370000 114.1185000000,22.3620460000 114.1182700000,22.3623430000 114.1180180000,22.3626240000 114.1177240000,22.3629160000 114.1173690000,22.3631980000 114.1169760000,22.3634460000 114.1161560000,22.3639230000 114.1156070000,22.3642350000 114.1152220000,22.3644630000 114.1148800000,22.3646900000 114.1145410000,22.3649350000 114.1141090000,22.3652620000 114.1138270000,22.3655140000 114.1133350000,22.3659600000 114.1128120000,22.3664610000 114.1122030000,22.3670450000 114.1117380000,22.3675010000 114.1109930000,22.3681850000 114.1105070000,22.3686550000 114.1100700000,22.3690630000 114.1098930000,22.3692150000 114.1079680000,22.3710720000 114.1074600000,22.3715540000 114.1069130000,22.3721050000 114.1062540000,22.3726940000 114.1058340000,22.3731160000 114.1051750000,22.3737350000 114.1049240000,22.3739250000 114.1046300000,22.3740810000 114.1042960000,22.3741950000 114.1038080000,22.3742380000 114.1035460000,22.3742380000 114.1032800000,22.3742090000 114.1028180000,22.3741080000 114.1025120000,22.3740220000 114.1022060000,22.3739150000 114.1016910000,22.3736870000 114.1008990000,22.3733970000 114.1001490000,22.3731130000 114.0993460000,22.3728310000 114.0989030000,22.3726440000 114.0986310000,22.3725000000 114.0983510000,22.3723410000 114.0981970000,22.3722220000 114.0979470000,22.3719750000 114.0978580000,22.3718840000 114.0977780000,22.3717860000 114.0976780000,22.3716390000 114.0975860000,22.3714920000 114.0974940000,22.3713090000 114.0973790000,22.3710430000 114.0973210000,22.3709180000 114.0972380000,22.3707500000 114.0971450000,22.3705790000 114.0970680000,22.3704620000 114.0969630000,22.3703230000 114.0968670000,22.3702250000 114.0967520000,22.3701060000 114.0966320000,22.3700120000 114.0964660000,22.3699030000 114.0963300000,22.3698170000 114.0961870000,22.3697460000 114.0959810000,22.3696650000 114.0958730000,22.3696360000 114.0957350000,22.3696000000 114.0955710000,22.3695760000 114.0954070000,22.3695680000 114.0952580000,22.3695650000 114.0951410000,22.3695760000 114.0949400000,22.3695950000 114.0947390000,22.3696360000 114.0946190000,22.3696670000 114.0944740000,22.3697200000 114.0942780000,22.3698030000 114.0941110000,22.3698960000 114.0939400000,22.3700070000 114.0938070000,22.3700980000 114.0936510000,22.3702120000 114.0934600000,22.3703610000 114.0933660000,22.3704310000 114.0932490000,22.3705060000 114.0931070000,22.3705810000 114.0929260000,22.3706650000 114.0926800000,22.3707540000 114.0925440000,22.3707930000 114.0923810000,22.3708260000 114.0922270000,22.3708530000 114.0920360000,22.3708670000 114.0918030000,22.3708560000 114.0915480000,22.3708320000 114.0913060000,22.3707780000 114.0910680000,22.3706920000 114.0909290000,22.3706360000 114.0907200000,22.3705290000 114.0904980000,22.3703610000 114.0903320000,22.3701960000 114.0902090000,22.3700730000 114.0900760000,22.3699090000 114.0898750000,22.3696390000 114.0895640000,22.3692550000 114.0894460000,22.3691340000 114.0892880000,22.3689990000 114.0890990000,22.3688840000 114.0888980000,22.3687930000 114.0887130000,22.3687360000 114.0885020000,22.3687020000 114.0882660000,22.3686880000 114.0880300000,22.3686970000 114.0877340000,22.3687500000 114.0874330000,22.3688220000 114.0870680000,22.3689210000 114.0866230000,22.3690450000 114.0859240000,22.3692340000 114.0853100000,22.3694120000 114.0846820000,22.3695850000 114.0841080000,22.3697480000 114.0834930000,22.3699390000 114.0832150000,22.3700460000 114.0829570000,22.3701530000 114.0826010000,22.3703210000 114.0821390000,22.3705620000 114.0818170000,22.3707550000 114.0810670000,22.3712490000 114.0809300000,22.3713350000 114.0807190000,22.3714300000 114.0804910000,22.3715270000 114.0802770000,22.3715940000 114.0800770000,22.3716410000 114.0799300000,22.3716590000 114.0796570000,22.3716540000 114.0794420000,22.3716420000 114.0791780000,22.3716170000 114.0789750000,22.3715770000 114.0784100000,22.3713990000 114.0780540000,22.3712930000 114.0777240000,22.3712210000 114.0775720000,22.3711920000 114.0773660000,22.3711750000 114.0771410000,22.3711680000 114.0769160000,22.3711810000 114.0766760000,22.3712100000 114.0764180000,22.3712530000 114.0761390000,22.3713180000 114.0758740000,22.3713640000 114.0756320000,22.3713900000 114.0754180000,22.3713890000 114.0751880000,22.3713660000 114.0750060000,22.3713380000 114.0748120000,22.3713030000 114.0745670000,22.3712570000 114.0743370000,22.3712140000 114.0741390000,22.3711810000 114.0739140000,22.3711720000 114.0736640000,22.3711880000 114.0734900000,22.3712140000 114.0733680000,22.3712340000 114.0732480000,22.3712700000 114.0730390000,22.3713430000 114.0728470000,22.3714270000 114.0726700000,22.3715290000 114.0724870000,22.3716550000 114.0722880000,22.3718160000 114.0721670000,22.3719130000 114.0712510000,22.3726470000 114.0710560000,22.3727970000 114.0708070000,22.3729810000 114.0706250000,22.3731120000 114.0703890000,22.3732740000 114.0700810000,22.3735450000 114.0691450000,22.3740380000 114.0686290000,22.3743360000 114.0680660000,22.3746380000 114.0674240000,22.3750220000 114.0671140000,22.3752200000 114.0670390000,22.3752760000 114.0669000000,22.3753850000 114.0667150000,22.3755200000 114.0665630000,22.3756400000 114.0664200000,22.3757600000 114.0662790000,22.3758800000 114.0661410000,22.3760010000 114.0660170000,22.3761210000 114.0658870000,22.3762500000 114.0657670000,22.3763700000 114.0656400000,22.3765000000 114.0655140000,22.3766300000 114.0653940000,22.3767600000 114.0652830000,22.3768900000 114.0651700000,22.3770250000 114.0650620000,22.3771600000 114.0649600000,22.3772950000 114.0648600000,22.3774300000 114.0647660000,22.3775610000 114.0646670000,22.3777000000 114.0645780000,22.3778300000 114.0644870000,22.3779700000 114.0643920000,22.3781210000 114.0643070000,22.3782700000 114.0642190000,22.3784300000 114.0641320000,22.3785900000 114.0640530000,22.3787400000 114.0639750000,22.3789000000 114.0639000000,22.3790600000 114.0638300000,22.3792200000 114.0637600000,22.3793850000 114.0636900000,22.3795600000 114.0636290000,22.3797200000 114.0635680000,22.3799000000 114.0635100000,22.3800800000 114.0634500000,22.3802800000 114.0633950000,22.3804800000 114.0633400000,22.3807000000 114.0632940000,22.3809100000 114.0632710000,22.3810420000 114.0593990000,22.4053980000 114.0593770000,22.4055790000 114.0593560000,22.4058000000 114.0593450000,22.4060000000 114.0593400000,22.4062000000 114.0593380000,22.4063500000 114.0593370000,22.4065000000 114.0593370000,22.4066500000 114.0593410000,22.4068000000 114.0593500000,22.4069800000 114.0593600000,22.4071500000 114.0593800000,22.4073700000 114.0594000000,22.4075600000 114.0594200000,22.4077300000 114.0594450000,22.4079000000 114.0594710000,22.4080600000 114.0595100000,22.4082430000 114.0595450000,22.4084000000 114.0595900000,22.4086000000 114.0596400000,22.4088000000 114.0596880000,22.4089500000 114.0597400000,22.4091000000 114.0597940000,22.4092500000 114.0598500000,22.4094000000 114.0599200000,22.4095600000 114.0599900000,22.4097100000 114.0600640000,22.4098600000 114.0601400000,22.4100100000 114.0602250000,22.4101600000 114.0603170000,22.4103100000 114.0603800000,22.4104100000 114.0604160000,22.4104600000 114.0605880000,22.4107290000 114.0621750000,22.4131710000 114.0623450000,22.4134530000 114.0624790000,22.4137160000 114.0626320000,22.4140050000 114.0627740000,22.4143430000 114.0629310000,22.4147790000 114.0630260000,22.4150800000 114.0631030000,22.4153860000 114.0631600000,22.4156780000 114.0632030000,22.4159050000 114.0632440000,22.4161640000 114.0633070000,22.4166640000 114.0633480000,22.4172350000 114.0633840000,22.4182370000 114.0634610000,22.4189950000 114.0634650000,22.4190400000 114.0636610000,22.4200300000 114.0638150000,22.4206580000 114.0639010000,22.4209710000 114.0639970000,22.4213920000 114.0640270000,22.4215360000 114.0640500000,22.4216920000 114.0640990000,22.4220490000 114.0641190000,22.4232790000 114.0640870000,22.4259440000 114.0640220000,22.4268200000 114.0639200000,22.4277240000 114.0637770000,22.4285930000 114.0635410000,22.4296160000 114.0632550000,22.4305100000 114.0629540000,22.4313360000 114.0626350000,22.4320300000 114.0622920000,22.4327040000 114.0618090000,22.4334780000 114.0612940000,22.4342310000 114.0607250000,22.4349550000 114.0600050000,22.4357480000 114.0595240000,22.4362250000 114.0592950000,22.4364300000 114.0584190000,22.4370080000 114.0580750000,22.4372160000 114.0577000000,22.4374250000 114.0574750000,22.4375530000 114.0572920000,22.4377020000 114.0571420000,22.4378610000 114.0570350000,22.4380390000 114.0569490000,22.4382480000 114.0568840000,22.4386240000 114.0569270000,22.4390010000 114.0569720000,22.4393640000 114.0570430000,22.4396360000 114.0570580000,22.4397100000 114.0570660000,22.4398380000 114.0570560000,22.4398960000 114.0570330000,22.4399980000 114.0567970000,22.4400340000 114.0567380000,22.4400430000 114.0564920000,22.4401030000 114.0563020000,22.4401730000 114.0561120000,22.4402460000 114.0559340000,22.4403280000 114.0558350000,22.4403740000 114.0557890000,22.4403950000 114.0554330000,22.4405600000 114.0551100000,22.4407100000 114.0548770000,22.4408180000 114.0544080000,22.4410420000 114.0538200000,22.4413110000 114.0536660000,22.4413810000 114.0532900000,22.4415600000 114.0527970000,22.4417830000 114.0521620000,22.4420950000 114.0521250000,22.4421130000 114.0520730000,22.4421390000 114.0513190000,22.4425340000 114.0508790000,22.4427600000 114.0503840000,22.4430340000 114.0501820000,22.4431370000 114.0499910000,22.4432410000 114.0499540000,22.4432610000 114.0496610000,22.4434260000 114.0488770000,22.4438550000 114.0487700000,22.4439140000 114.0484060000,22.4441080000 114.0483170000,22.4441450000 114.0482040000,22.4441580000 114.0479510000,22.4441940000 114.0478930000,22.4441780000 114.0478170000,22.4441840000 114.0477590000,22.4441970000 114.0474920000,22.4441150000 114.0474500000,22.4441020000 114.0470140000,22.4440450000 114.0463750000,22.4439720000 114.0460780000,22.4439410000 114.0457350000,22.4439560000 114.0454300000,22.4439500000 114.0449980000,22.4439900000 114.0448400000,22.4440100000 114.0446800000,22.4440400000 114.0442960000,22.4441030000 114.0439170000,22.4441700000 114.0434650000,22.4442340000 114.0432210000,22.4442400000 114.0426670000,22.4442530000 114.0423390000,22.4442590000 114.0422650000,22.4442600000 114.0418990000,22.4442800000 114.0416930000,22.4442920000 114.0409970000,22.4443270000 114.0402930000,22.4443340000 114.0400030000,22.4443370000 114.0397670000,22.4443390000 114.0395860000,22.4443410000 114.0392190000,22.4443450000 114.0390670000,22.4443470000 114.0388810000,22.4443490000 114.0383740000,22.4443540000 114.0371370000,22.4443670000 114.0368370000,22.4443440000 114.0365970000,22.4443390000 114.0364350000,22.4443410000 114.0361700000,22.4443400000 114.0360540000,22.4443400000 114.0356160000,22.4443790000 114.0352030000,22.4443860000 114.0350060000,22.4443350000 114.0345560000,22.4443400000 114.0345230000,22.4443400000 114.0344560000,22.4443390000 114.0341310000,22.4443570000 114.0339770000,22.4443710000 114.0336930000,22.4444100000 114.0334500000,22.4444950000 114.0331510000,22.4446650000 114.0329450000,22.4447690000 114.0328970000,22.4447910000 114.0328240000,22.4448190000 114.0326900000,22.4448370000 114.0326070000,22.4448360000 114.0324030000,22.4446240000 114.0322860000,22.4445330000 114.0322120000,22.4444740000 114.0321470000,22.4444330000 114.0320880000,22.4444080000 114.0320210000,22.4443930000 114.0319550000,22.4443870000 114.0314970000,22.4443880000 114.0314020000,22.4443880000 114.0313040000,22.4443890000 114.0311400000,22.4443890000 114.0310880000,22.4443890000 114.0309620000,22.4443900000 114.0306670000,22.4443910000 114.0304670000,22.4443910000 114.0304480000,22.4443920000 114.0302990000,22.4443930000 114.0296980000,22.4443980000 114.0296710000,22.4443980000 114.0294390000,22.4444010000 114.0293320000,22.4444020000 114.0284360000,22.4444110000 114.0283680000,22.4444120000 114.0282970000,22.4444130000 114.0282180000,22.4444140000 114.0281480000,22.4444150000 114.0280700000,22.4444170000 114.0279450000,22.4444190000 114.0279200000,22.4444190000 114.0276250000,22.4444230000 114.0275970000,22.4444150000 114.0272060000,22.4444160000 114.0270450000,22.4444320000 114.0270050000,22.4444330000 114.0269950000,22.4444330000 114.0267770000,22.4444360000 114.0262530000,22.4444440000 114.0261070000,22.4444460000 114.0259860000,22.4444490000 114.0259470000,22.4444490000 114.0256510000,22.4444530000 114.0256340000,22.4444530000 114.0252120000,22.4444530000 114.0251010000,22.4444510000 114.0249210000,22.4444520000 114.0244730000,22.4444480000 114.0244730000,22.4443760000 114.0244710000,22.4442470000 114.0244670000,22.4440390000 114.0244530000,22.4434680000 114.0244390000,22.4430380000 114.0236400000,22.4430430000 114.0233870000,22.4430440000 114.0230390000,22.4430460000 114.0228600000,22.4430500000 114.0222340000,22.4430510000 114.0222320000,22.4433440000 114.0222380000,22.4434470000 114.0222400000,22.4435420000 114.0222450000,22.4437460000 114.0222450000,22.4437770000 114.0222500000,22.4441070000 114.0222640000,22.4444190000 114.0222670000,22.4444800000 114.0222690000,22.4445530000 114.0222700000,22.4445880000 114.0222730000,22.4446540000 114.0222740000,22.4447170000 114.0222720000,22.4449570000 114.0222750000,22.4452870000 114.0222550000,22.4454200000 114.0221900000,22.4455800000 114.0221320000,22.4456760000 114.0220730000,22.4457970000 114.0217210000,22.4459730000 114.0215840000,22.4460480000 114.0215290000,22.4460840000 114.0214980000,22.4460970000 114.0214310000,22.4461450000 114.0213900000,22.4461730000 114.0213670000,22.4461960000 114.0213090000,22.4462580000 114.0211680000,22.4464800000 114.0210240000,22.4467080000 114.0209340000,22.4468610000 114.0209040000,22.4469090000 114.0208430000,22.4470080000 114.0208310000,22.4470250000 114.0207810000,22.4471010000 114.0208830000,22.4471630000 114.0217170000,22.4476420000 114.0218420000,22.4476790000 114.0219680000,22.4477260000 114.0224330000,22.4478100000 114.0227570000,22.4478100000 114.0228930000,22.4478100000 114.0241550000,22.4478120000 114.0252110000,22.4478350000 114.0252770000,22.4478360000 114.0253520000,22.4478360000 114.0254780000,22.4478370000 114.0256360000,22.4478370000 114.0263250000,22.4478360000 114.0264110000,22.4478320000 114.0264610000,22.4479130000 114.0264710000,22.4479780000 114.0264620000,22.4480620000 114.0263900000,22.4481500000 114.0263400000,22.4482400000 114.0263000000,22.4483500000 114.0262890000,22.4484100000 114.0262840000,22.4484800000 114.0263000000,22.4486200000 114.0263300000,22.4487100000 114.0263800000,22.4488100000 114.0264910000,22.4489890000 114.0266640000,22.4492220000 114.0268320000,22.4494300000 114.0268890000,22.4495040000 114.0269450000,22.4495900000 114.0271420000,22.4494620000</coordinates>
                </LineString>
                <ExtendedData>
                    <Data name="duration">
                        <value>01:45:25</value>
                    </Data>
                    <Data name="length">
                        <value>56198.61629561048</value>
                    </Data>
                </ExtendedData>
            </Placemark>
        </Document>
    </Document>
</kml>