<?xml version="1.0" encoding="UTF-8"?>
<kml xmlns="http://www.opengis.net/kml/2.2" xmlns:gx="http://www.google.com/kml/ext/2.2">
    <Document>
        <name>Route</name>
        <Folder>
            <name>Route Request</name>
            <Placemark>
                <address>Ng Chow Road, Ta Kwu Ling, Ping Che, North District, Hong Kong, DD76 2581, PRC</address>
                <Point>
                    <coordinates>114.1662399662,22.5259302779</coordinates>
                </Point>
                <ExtendedData>
                    <Data name="county">
                        <value>North District</value>
                    </Data>
                    <Data name="postcode">
                        <value>DD76 2581</value>
                    </Data>
                    <Data name="road">
                        <value>Ng Chow Road</value>
                    </Data>
                    <Data name="suburb">
                        <value>Ta Kwu Ling</value>
                    </Data>
                    <Data name="country">
                        <value>PRC</value>
                    </Data>
                    <Data name="village">
                        <value>Ping Che</value>
                    </Data>
                    <Data name="country_code">
                        <value>cn</value>
                    </Data>
                </ExtendedData>
            </Placemark>
            <Placemark>
                <address>Tai Tong Wu Public Toilet, Sha Tau Kok Road – Ma Mei Ha, Kwan Tei, 馬尾下 Ma Mei Ha, North District, Hong Kong, DD76 2581, PRC</address>
                <Point>
                    <coordinates>114.1770802011,22.5208483372</coordinates>
                </Point>
                <ExtendedData>
                    <Data name="county">
                        <value>North District</value>
                    </Data>
                    <Data name="toilets">
                        <value>Tai Tong Wu Public Toilet</value>
                    </Data>
                    <Data name="postcode">
                        <value>DD76 2581</value>
                    </Data>
                    <Data name="road">
                        <value>Sha Tau Kok Road – Ma Mei Ha</value>
                    </Data>
                    <Data name="suburb">
                        <value>Kwan Tei</value>
                    </Data>
                    <Data name="country">
                        <value>PRC</value>
                    </Data>
                    <Data name="country_code">
                        <value>cn</value>
                    </Data>
                    <Data name="hamlet">
                        <value>馬尾下 Ma Mei Ha</value>
                    </Data>
                </ExtendedData>
            </Placemark>
            <Placemark>
                <address>Jockey Club Kau Sai Chau Golf Course Public Car Park, Wai Man Road, Tai Mong Tsai, Sai Kung, Sai Kung District, Hong Kong, DD165 1471, PRC</address>
                <Point>
                    <coordinates>114.2771647980,22.3840231501</coordinates>
                </Point>
                <ExtendedData>
                    <Data name="parking">
                        <value>Jockey Club Kau Sai Chau Golf Course Public Car Park</value>
                    </Data>
                    <Data name="county">
                        <value>Sai Kung District</value>
                    </Data>
                    <Data name="postcode">
                        <value>DD165 1471</value>
                    </Data>
                    <Data name="road">
                        <value>Wai Man Road</value>
                    </Data>
                    <Data name="suburb">
                        <value>Tai Mong Tsai</value>
                    </Data>
                    <Data name="country">
                        <value>PRC</value>
                    </Data>
                    <Data name="town">
                        <value>Sai Kung</value>
                    </Data>
                    <Data name="country_code">
                        <value>cn</value>
                    </Data>
                </ExtendedData>
            </Placemark>
            <Placemark>
                <address>Hung Leng, Sha Tau Kok Road – Ma Mei Ha, Kwan Tei, 馬尾下 Ma Mei Ha, North District, Hong Kong, DD76 2581, PRC</address>
                <Point>
                    <coordinates>114.1691383881,22.5145648351</coordinates>
                </Point>
                <ExtendedData>
                    <Data name="county">
                        <value>North District</value>
                    </Data>
                    <Data name="postcode">
                        <value>DD76 2581</value>
                    </Data>
                    <Data name="bus_stop">
                        <value>Hung Leng</value>
                    </Data>
                    <Data name="road">
                        <value>Sha Tau Kok Road – Ma Mei Ha</value>
                    </Data>
                    <Data name="suburb">
                        <value>Kwan Tei</value>
                    </Data>
                    <Data name="country">
                        <value>PRC</value>
                    </Data>
                    <Data name="country_code">
                        <value>cn</value>
                    </Data>
                    <Data name="hamlet">
                        <value>馬尾下 Ma Mei Ha</value>
                    </Data>
                </ExtendedData>
            </Placemark>
            <Placemark>
                <address>Ng Chow Road, Ta Kwu Ling, Ping Che, North District, Hong Kong, DD76 2581, PRC</address>
                <Point>
                    <coordinates>114.1663144098,22.5260395641</coordinates>
                </Point>
                <ExtendedData>
                    <Data name="county">
                        <value>North District</value>
                    </Data>
                    <Data name="postcode">
                        <value>DD76 2581</value>
                    </Data>
                    <Data name="road">
                        <value>Ng Chow Road</value>
                    </Data>
                    <Data name="suburb">
                        <value>Ta Kwu Ling</value>
                    </Data>
                    <Data name="country">
                        <value>PRC</value>
                    </Data>
                    <Data name="village">
                        <value>Ping Che</value>
                    </Data>
                    <Data name="country_code">
                        <value>cn</value>
                    </Data>
                </ExtendedData>
            </Placemark>
        </Folder>
        <Document>
            <name>73.3 km; 01:30 h (OSRM)</name>
            <Placemark>
                <name>Route</name>
                <LineString>
                    <coordinates>114.1661590000,22.5266130000 114.1665580000,22.5267020000 114.1666350000,22.5267020000 114.1667230000,22.5266980000 114.1668010000,22.5266830000 114.1668840000,22.5266670000 114.1669260000,22.5266660000 114.1671280000,22.5263640000 114.1671420000,22.5258700000 114.1671490000,22.5258070000 114.1671310000,22.5257040000 114.1670290000,22.5255370000 114.1669340000,22.5254130000 114.1666650000,22.5251440000 114.1666120000,22.5250710000 114.1665400000,22.5250040000 114.1664310000,22.5249410000 114.1662690000,22.5248410000 114.1661820000,22.5248020000 114.1660590000,22.5247050000 114.1659290000,22.5245880000 114.1655840000,22.5242930000 114.1654220000,22.5242300000 114.1653160000,22.5242410000 114.1651920000,22.5242360000 114.1649000000,22.5241800000 114.1646900000,22.5241860000 114.1646170000,22.5242020000 114.1644700000,22.5242390000 114.1641490000,22.5243320000 114.1639850000,22.5244070000 114.1638060000,22.5244850000 114.1636930000,22.5245110000 114.1636190000,22.5245270000 114.1635440000,22.5245420000 114.1633680000,22.5245720000 114.1633080000,22.5245900000 114.1632780000,22.5245990000 114.1631760000,22.5246560000 114.1630330000,22.5247330000 114.1628480000,22.5248040000 114.1626490000,22.5248640000 114.1626060000,22.5248900000 114.1624650000,22.5249750000 114.1621290000,22.5251050000 114.1620200000,22.5251320000 114.1619200000,22.5251280000 114.1618090000,22.5250970000 114.1618330000,22.5249480000 114.1618450000,22.5248780000 114.1618510000,22.5248350000 114.1618840000,22.5246190000 114.1618290000,22.5244300000 114.1618260000,22.5243860000 114.1618190000,22.5242900000 114.1618160000,22.5242520000 114.1619990000,22.5239550000 114.1620900000,22.5238010000 114.1621540000,22.5235190000 114.1621600000,22.5231620000 114.1621310000,22.5229230000 114.1620840000,22.5228150000 114.1620280000,22.5227310000 114.1623350000,22.5221950000 114.1627520000,22.5214650000 114.1630440000,22.5209510000 114.1631560000,22.5208100000 114.1632910000,22.5206890000 114.1635090000,22.5205510000 114.1644740000,22.5201420000 114.1645200000,22.5201230000 114.1648330000,22.5199960000 114.1650200000,22.5199030000 114.1651500000,22.5197840000 114.1652240000,22.5196570000 114.1656760000,22.5182600000 114.1657290000,22.5181070000 114.1658430000,22.5176870000 114.1659760000,22.5172780000 114.1661090000,22.5169060000 114.1661480000,22.5168200000 114.1662450000,22.5167170000 114.1663120000,22.5165970000 114.1663650000,22.5165570000 114.1664160000,22.5164370000 114.1664400000,22.5163800000 114.1666230000,22.5155890000 114.1667740000,22.5151340000 114.1668810000,22.5148950000 114.1670740000,22.5146090000 114.1671380000,22.5145270000 114.1671920000,22.5144040000 114.1672360000,22.5142290000 114.1672730000,22.5141490000 114.1673340000,22.5139810000 114.1673550000,22.5139270000 114.1673740000,22.5139000000 114.1673940000,22.5138830000 114.1674940000,22.5138420000 114.1675170000,22.5138400000 114.1675920000,22.5138860000 114.1679130000,22.5141440000 114.1681540000,22.5143190000 114.1683370000,22.5144290000 114.1683800000,22.5144690000 114.1688180000,22.5148250000 114.1690770000,22.5150190000 114.1692920000,22.5151600000 114.1693680000,22.5152100000 114.1703310000,22.5157640000 114.1708500000,22.5160690000 114.1714020000,22.5163910000 114.1714360000,22.5164120000 114.1721050000,22.5168060000 114.1721930000,22.5168580000 114.1728250000,22.5172370000 114.1729990000,22.5173410000 114.1741610000,22.5180210000 114.1747000000,22.5183180000 114.1750150000,22.5185170000 114.1753150000,22.5186960000 114.1754980000,22.5188400000 114.1756600000,22.5189990000 114.1760730000,22.5194030000 114.1761910000,22.5195730000 114.1762830000,22.5197310000 114.1764380000,22.5199750000 114.1765450000,22.5201410000 114.1771710000,22.5207710000 114.1773950000,22.5209970000 114.1775920000,22.5211340000 114.1778520000,22.5212280000 114.1780270000,22.5212780000 114.1781100000,22.5212960000 114.1781740000,22.5213100000 114.1782760000,22.5213350000 114.1784050000,22.5213670000 114.1785840000,22.5214160000 114.1787070000,22.5214670000 114.1788290000,22.5215430000 114.1788330000,22.5215700000 114.1788410000,22.5216160000 114.1788880000,22.5217480000 114.1789000000,22.5217820000 114.1789590000,22.5218620000 114.1789860000,22.5218820000 114.1790790000,22.5219500000 114.1791700000,22.5219880000 114.1791890000,22.5219960000 114.1792990000,22.5220420000 114.1793250000,22.5220420000 114.1796070000,22.5220480000 114.1796980000,22.5220410000 114.1798550000,22.5220290000 114.1800100000,22.5220120000 114.1800660000,22.5219820000 114.1801480000,22.5219370000 114.1802050000,22.5218780000 114.1802760000,22.5217990000 114.1803270000,22.5216880000 114.1803460000,22.5215740000 114.1803460000,22.5215560000 114.1803510000,22.5214100000 114.1803240000,22.5213290000 114.1802810000,22.5212720000 114.1802540000,22.5212100000 114.1801900000,22.5210990000 114.1802060000,22.5210210000 114.1810350000,22.5201340000 114.1813530000,22.5198130000 114.1814760000,22.5196530000 114.1817290000,22.5192990000 114.1820680000,22.5190110000 114.1822880000,22.5187700000 114.1823930000,22.5186490000 114.1824870000,22.5185250000 114.1825110000,22.5184820000 114.1825290000,22.5184510000 114.1826080000,22.5183080000 114.1826290000,22.5182690000 114.1827960000,22.5179640000 114.1829200000,22.5175720000 114.1829210000,22.5170250000 114.1828660000,22.5164370000 114.1826200000,22.5157960000 114.1824020000,22.5154590000 114.1821370000,22.5151630000 114.1818480000,22.5149240000 114.1773420000,22.5126640000 114.1750670000,22.5110780000 114.1747660000,22.5107510000 114.1687030000,22.5038390000 114.1660550000,22.5008490000 114.1563130000,22.4862980000 114.1558750000,22.4855280000 114.1554400000,22.4846780000 114.1553660000,22.4845210000 114.1553340000,22.4844540000 114.1552170000,22.4842090000 114.1550990000,22.4839610000 114.1550700000,22.4839000000 114.1547540000,22.4831800000 114.1546930000,22.4830350000 114.1546420000,22.4829000000 114.1545830000,22.4827220000 114.1545300000,22.4825330000 114.1544900000,22.4823500000 114.1544530000,22.4821670000 114.1544200000,22.4819800000 114.1544000000,22.4818200000 114.1543960000,22.4816900000 114.1543950000,22.4815600000 114.1544030000,22.4813000000 114.1544270000,22.4810860000 114.1544500000,22.4808980000 114.1544870000,22.4805260000 114.1545060000,22.4803250000 114.1545220000,22.4800700000 114.1545130000,22.4796890000 114.1544580000,22.4792250000 114.1543350000,22.4785790000 114.1543100000,22.4784300000 114.1542620000,22.4781510000 114.1542120000,22.4777980000 114.1542060000,22.4773400000 114.1542030000,22.4772330000 114.1541720000,22.4769430000 114.1541780000,22.4765640000 114.1541660000,22.4761780000 114.1541490000,22.4758770000 114.1541130000,22.4755610000 114.1540750000,22.4752900000 114.1539930000,22.4748840000 114.1529030000,22.4696220000 114.1527550000,22.4689960000 114.1526620000,22.4686800000 114.1524810000,22.4681610000 114.1524490000,22.4680650000 114.1522990000,22.4677500000 114.1521400000,22.4674690000 114.1519750000,22.4672060000 114.1518300000,22.4669990000 114.1516230000,22.4667180000 114.1514280000,22.4664910000 114.1511640000,22.4662100000 114.1507960000,22.4658460000 114.1505810000,22.4656560000 114.1503750000,22.4654780000 114.1501070000,22.4652070000 114.1498420000,22.4648700000 114.1496490000,22.4646280000 114.1494800000,22.4643760000 114.1492370000,22.4638820000 114.1490140000,22.4634040000 114.1487910000,22.4629730000 114.1486320000,22.4626600000 114.1484430000,22.4623750000 114.1482050000,22.4620810000 114.1479250000,22.4617390000 114.1476450000,22.4613780000 114.1475010000,22.4611460000 114.1474300000,22.4610110000 114.1473670000,22.4608390000 114.1473030000,22.4606020000 114.1472790000,22.4604000000 114.1472750000,22.4602490000 114.1472770000,22.4600770000 114.1473140000,22.4598820000 114.1473610000,22.4597160000 114.1474300000,22.4595460000 114.1475320000,22.4593400000 114.1476850000,22.4590980000 114.1478930000,22.4588230000 114.1486520000,22.4578430000 114.1488560000,22.4575980000 114.1490500000,22.4573720000 114.1491730000,22.4572360000 114.1494680000,22.4568700000 114.1497720000,22.4565060000 114.1500500000,22.4561440000 114.1503580000,22.4557280000 114.1508330000,22.4550700000 114.1516040000,22.4540020000 114.1519070000,22.4536110000 114.1522270000,22.4531990000 114.1524930000,22.4528480000 114.1527380000,22.4525210000 114.1529680000,22.4522050000 114.1531000000,22.4520070000 114.1531800000,22.4518860000 114.1532620000,22.4517520000 114.1533350000,22.4516290000 114.1534240000,22.4514720000 114.1535050000,22.4513200000 114.1536030000,22.4511300000 114.1537400000,22.4508490000 114.1538350000,22.4506390000 114.1539100000,22.4504510000 114.1540180000,22.4501780000 114.1541280000,22.4499090000 114.1541580000,22.4498210000 114.1542960000,22.4493710000 114.1543460000,22.4491380000 114.1543880000,22.4489080000 114.1544030000,22.4488300000 114.1544410000,22.4486220000 114.1545060000,22.4482520000 114.1545520000,22.4480150000 114.1545630000,22.4479680000 114.1545840000,22.4478810000 114.1546290000,22.4476840000 114.1547170000,22.4474560000 114.1547930000,22.4472910000 114.1548810000,22.4471190000 114.1549870000,22.4469460000 114.1551290000,22.4467640000 114.1553320000,22.4465530000 114.1555650000,22.4463630000 114.1558750000,22.4461460000 114.1559940000,22.4460690000 114.1561200000,22.4459970000 114.1562500000,22.4459340000 114.1563880000,22.4458700000 114.1565370000,22.4458030000 114.1566750000,22.4457380000 114.1568090000,22.4456750000 114.1569500000,22.4456070000 114.1570850000,22.4455360000 114.1572120000,22.4454600000 114.1573200000,22.4453920000 114.1574280000,22.4453140000 114.1575460000,22.4452220000 114.1576560000,22.4451250000 114.1577250000,22.4450780000 114.1578290000,22.4449820000 114.1579300000,22.4448780000 114.1580980000,22.4446920000 114.1583040000,22.4443910000 114.1583960000,22.4442230000 114.1584760000,22.4440550000 114.1585310000,22.4439160000 114.1586140000,22.4436260000 114.1586460000,22.4434550000 114.1587150000,22.4429850000 114.1588040000,22.4423540000 114.1588870000,22.4419730000 114.1590230000,22.4416150000 114.1590970000,22.4414670000 114.1593420000,22.4411080000 114.1595240000,22.4409030000 114.1598070000,22.4406540000 114.1599200000,22.4405780000 114.1600130000,22.4405180000 114.1601160000,22.4404590000 114.1602200000,22.4404030000 114.1603340000,22.4403480000 114.1604400000,22.4403050000 114.1605570000,22.4402620000 114.1606620000,22.4402240000 114.1607780000,22.4401860000 114.1608890000,22.4401560000 114.1610080000,22.4401250000 114.1612520000,22.4400690000 114.1617340000,22.4399670000 114.1624450000,22.4398350000 114.1626900000,22.4397900000 114.1629230000,22.4397380000 114.1631600000,22.4396830000 114.1635440000,22.4395870000 114.1637810000,22.4395290000 114.1640140000,22.4394670000 114.1642420000,22.4394150000 114.1644840000,22.4393710000 114.1647210000,22.4393330000 114.1649620000,22.4393140000 114.1651850000,22.4393030000 114.1654290000,22.4393050000 114.1656640000,22.4393240000 114.1658980000,22.4393580000 114.1661390000,22.4394010000 114.1663640000,22.4394550000 114.1665420000,22.4395050000 114.1666800000,22.4395490000 114.1668190000,22.4396000000 114.1670250000,22.4396950000 114.1672420000,22.4398030000 114.1674420000,22.4399190000 114.1676390000,22.4400460000 114.1678240000,22.4401750000 114.1680180000,22.4403200000 114.1682040000,22.4404590000 114.1683600000,22.4405860000 114.1685740000,22.4407570000 114.1687480000,22.4409050000 114.1691230000,22.4411970000 114.1697670000,22.4416800000 114.1709660000,22.4425980000 114.1715410000,22.4430370000 114.1717380000,22.4431840000 114.1719340000,22.4433330000 114.1721390000,22.4434790000 114.1723300000,22.4436140000 114.1726940000,22.4438850000 114.1729090000,22.4440490000 114.1730910000,22.4441980000 114.1732590000,22.4443350000 114.1733930000,22.4444290000 114.1734740000,22.4444830000 114.1736050000,22.4445660000 114.1737490000,22.4446490000 114.1739130000,22.4447350000 114.1740780000,22.4448070000 114.1741610000,22.4448220000 114.1742290000,22.4448490000 114.1743590000,22.4448970000 114.1744760000,22.4449320000 114.1746080000,22.4449660000 114.1747190000,22.4449930000 114.1748410000,22.4450170000 114.1749700000,22.4450390000 114.1750950000,22.4450540000 114.1752010000,22.4450670000 114.1752940000,22.4450750000 114.1754200000,22.4450820000 114.1755040000,22.4450840000 114.1755660000,22.4450840000 114.1757090000,22.4450820000 114.1758450000,22.4450790000 114.1759610000,22.4450730000 114.1760800000,22.4450630000 114.1762780000,22.4450470000 114.1764890000,22.4450300000 114.1767270000,22.4449940000 114.1769780000,22.4449540000 114.1772140000,22.4448950000 114.1774520000,22.4448150000 114.1775910000,22.4447650000 114.1776850000,22.4447260000 114.1779080000,22.4446250000 114.1781190000,22.4445170000 114.1783360000,22.4443930000 114.1785410000,22.4442640000 114.1787400000,22.4441320000 114.1789370000,22.4440000000 114.1791370000,22.4438660000 114.1796940000,22.4434990000 114.1802410000,22.4431540000 114.1811020000,22.4426480000 114.1821620000,22.4420570000 114.1824040000,22.4419240000 114.1826560000,22.4417820000 114.1851950000,22.4403700000 114.1859930000,22.4399230000 114.1865110000,22.4396640000 114.1870100000,22.4394620000 114.1875050000,22.4393070000 114.1880500000,22.4392030000 114.1883820000,22.4391700000 114.1887120000,22.4391530000 114.1890950000,22.4391490000 114.1894390000,22.4391670000 114.1897750000,22.4392070000 114.1900750000,22.4392610000 114.1903540000,22.4393220000 114.1912930000,22.4395350000 114.1916580000,22.4395990000 114.1920800000,22.4396530000 114.1924660000,22.4396720000 114.1925880000,22.4396740000 114.1928060000,22.4396700000 114.1929880000,22.4396620000 114.1932400000,22.4396470000 114.1935820000,22.4395880000 114.1939410000,22.4395040000 114.1942000000,22.4394390000 114.1944230000,22.4393580000 114.1946260000,22.4392760000 114.1949000000,22.4391480000 114.1953780000,22.4389170000 114.1957400000,22.4387320000 114.1961480000,22.4384990000 114.1964600000,22.4383090000 114.1967590000,22.4381110000 114.1969590000,22.4379740000 114.1978520000,22.4372830000 114.1981080000,22.4370630000 114.1983880000,22.4368030000 114.1986490000,22.4365400000 114.1990380000,22.4361320000 114.1993710000,22.4357680000 114.1996240000,22.4354670000 114.1998640000,22.4351680000 114.2000750000,22.4348740000 114.2002750000,22.4345280000 114.2004280000,22.4341910000 114.2005620000,22.4337990000 114.2006680000,22.4334130000 114.2008260000,22.4327200000 114.2009020000,22.4323990000 114.2009890000,22.4321330000 114.2011090000,22.4318280000 114.2012040000,22.4316120000 114.2013570000,22.4313130000 114.2015100000,22.4310640000 114.2017170000,22.4307650000 114.2018730000,22.4305680000 114.2020800000,22.4303280000 114.2022480000,22.4301530000 114.2024400000,22.4299780000 114.2026920000,22.4297640000 114.2030040000,22.4295360000 114.2032860000,22.4293450000 114.2040680000,22.4288230000 114.2056530000,22.4277880000 114.2061580000,22.4274700000 114.2070110000,22.4269340000 114.2079110000,22.4263700000 114.2084050000,22.4260570000 114.2094650000,22.4253630000 114.2102390000,22.4248550000 114.2107840000,22.4244810000 114.2109390000,22.4243730000 114.2110950000,22.4242640000 114.2113790000,22.4240480000 114.2116710000,22.4237890000 114.2119490000,22.4235280000 114.2122230000,22.4232410000 114.2124650000,22.4229660000 114.2126550000,22.4227000000 114.2128240000,22.4224430000 114.2130090000,22.4221490000 114.2131220000,22.4219260000 114.2132490000,22.4216450000 114.2134190000,22.4211850000 114.2135150000,22.4208870000 114.2135870000,22.4205720000 114.2136550000,22.4202400000 114.2137050000,22.4199430000 114.2137570000,22.4194380000 114.2137810000,22.4192400000 114.2137510000,22.4184440000 114.2137120000,22.4180770000 114.2136750000,22.4177050000 114.2135360000,22.4170080000 114.2129990000,22.4143340000 114.2130090000,22.4140680000 114.2128130000,22.4130730000 114.2127660000,22.4127720000 114.2127270000,22.4124880000 114.2127030000,22.4121580000 114.2126960000,22.4117710000 114.2127060000,22.4115550000 114.2127390000,22.4112260000 114.2127940000,22.4109760000 114.2128450000,22.4107800000 114.2129380000,22.4105460000 114.2130330000,22.4103490000 114.2131310000,22.4101990000 114.2132710000,22.4100350000 114.2134350000,22.4098600000 114.2136830000,22.4096080000 114.2146610000,22.4087850000 114.2152450000,22.4082940000 114.2164290000,22.4073370000 114.2174520000,22.4065060000 114.2179820000,22.4061580000 114.2181870000,22.4060120000 114.2183300000,22.4059150000 114.2185150000,22.4058130000 114.2187010000,22.4057490000 114.2188920000,22.4056890000 114.2190710000,22.4056580000 114.2192500000,22.4056450000 114.2194150000,22.4056450000 114.2196030000,22.4056650000 114.2197770000,22.4056940000 114.2199320000,22.4057460000 114.2201020000,22.4058050000 114.2203330000,22.4059110000 114.2204950000,22.4059970000 114.2206790000,22.4061190000 114.2208610000,22.4062580000 114.2209980000,22.4063790000 114.2211270000,22.4064930000 114.2213410000,22.4067020000 114.2214690000,22.4068380000 114.2216520000,22.4070550000 114.2217950000,22.4072420000 114.2220290000,22.4075160000 114.2222160000,22.4078530000 114.2223630000,22.4081550000 114.2224730000,22.4083630000 114.2225980000,22.4085800000 114.2231090000,22.4095930000 114.2233190000,22.4100120000 114.2233890000,22.4101590000 114.2235430000,22.4103880000 114.2235920000,22.4104560000 114.2236440000,22.4105390000 114.2238350000,22.4109060000 114.2240550000,22.4113130000 114.2242800000,22.4116340000 114.2244770000,22.4118890000 114.2245610000,22.4119860000 114.2247930000,22.4122050000 114.2249970000,22.4123820000 114.2251820000,22.4125310000 114.2253860000,22.4126900000 114.2256300000,22.4128660000 114.2258220000,22.4130140000 114.2260500000,22.4131670000 114.2262720000,22.4133020000 114.2265150000,22.4134400000 114.2267430000,22.4135800000 114.2270230000,22.4137180000 114.2272970000,22.4138490000 114.2275520000,22.4139590000 114.2278380000,22.4140930000 114.2281460000,22.4142260000 114.2282280000,22.4142650000 114.2291010000,22.4147340000 114.2294280000,22.4149180000 114.2297740000,22.4151490000 114.2307470000,22.4158980000 114.2315160000,22.4164710000 114.2320690000,22.4168930000 114.2330160000,22.4176350000 114.2335570000,22.4181090000 114.2338970000,22.4184360000 114.2344440000,22.4189670000 114.2349140000,22.4194350000 114.2356370000,22.4201810000 114.2364260000,22.4210030000 114.2366540000,22.4212340000 114.2368540000,22.4214300000 114.2373100000,22.4218550000 114.2376820000,22.4221140000 114.2379960000,22.4223220000 114.2383810000,22.4225230000 114.2388170000,22.4227250000 114.2392140000,22.4229050000 114.2406010000,22.4235730000 114.2410390000,22.4238200000 114.2414210000,22.4240510000 114.2419720000,22.4244560000 114.2429180000,22.4252970000 114.2431950000,22.4255540000 114.2434760000,22.4258380000 114.2439560000,22.4263570000 114.2439880000,22.4263990000 114.2448600000,22.4273080000 114.2453260000,22.4277850000 114.2457400000,22.4280920000 114.2461460000,22.4283660000 114.2466210000,22.4286110000 114.2472730000,22.4288590000 114.2478500000,22.4290610000 114.2496870000,22.4296820000 114.2498170000,22.4297270000 114.2501850000,22.4298560000 114.2506460000,22.4300080000 114.2510530000,22.4301520000 114.2516700000,22.4303690000 114.2520430000,22.4305050000 114.2522270000,22.4305660000 114.2526240000,22.4306800000 114.2527460000,22.4307200000 114.2528380000,22.4308040000 114.2528760000,22.4308480000 114.2528870000,22.4308550000 114.2529250000,22.4308790000 114.2529830000,22.4308970000 114.2529980000,22.4308970000 114.2530430000,22.4308980000 114.2530910000,22.4308870000 114.2531140000,22.4308770000 114.2531350000,22.4308660000 114.2531540000,22.4308510000 114.2532670000,22.4308040000 114.2534100000,22.4307920000 114.2535080000,22.4307850000 114.2535990000,22.4307640000 114.2537910000,22.4306880000 114.2541880000,22.4306500000 114.2545540000,22.4306210000 114.2552120000,22.4305570000 114.2562600000,22.4304720000 114.2567100000,22.4304230000 114.2578110000,22.4303380000 114.2580740000,22.4302900000 114.2585940000,22.4300950000 114.2597190000,22.4296900000 114.2599560000,22.4296050000 114.2600500000,22.4295540000 114.2603240000,22.4293400000 114.2604810000,22.4291720000 114.2606990000,22.4288370000 114.2609360000,22.4284730000 114.2612170000,22.4280380000 114.2615700000,22.4274940000 114.2617370000,22.4272290000 114.2622680000,22.4264140000 114.2623610000,22.4262720000 114.2627980000,22.4254320000 114.2628060000,22.4252700000 114.2628210000,22.4251720000 114.2628290000,22.4251220000 114.2628580000,22.4250410000 114.2628880000,22.4249600000 114.2629950000,22.4248160000 114.2631070000,22.4247150000 114.2631890000,22.4246620000 114.2634230000,22.4241740000 114.2635290000,22.4239370000 114.2636600000,22.4237700000 114.2638020000,22.4236270000 114.2639380000,22.4235340000 114.2640460000,22.4234700000 114.2641390000,22.4234150000 114.2648350000,22.4231640000 114.2653990000,22.4229640000 114.2656200000,22.4228360000 114.2658060000,22.4226780000 114.2658890000,22.4225590000 114.2659620000,22.4223780000 114.2660210000,22.4221440000 114.2660890000,22.4218020000 114.2661440000,22.4215430000 114.2661560000,22.4214160000 114.2661650000,22.4212880000 114.2661610000,22.4210210000 114.2661570000,22.4209070000 114.2661370000,22.4206870000 114.2661010000,22.4200950000 114.2660900000,22.4195930000 114.2660920000,22.4194060000 114.2661240000,22.4187730000 114.2661820000,22.4177570000 114.2661890000,22.4176310000 114.2661950000,22.4175340000 114.2662040000,22.4171360000 114.2661880000,22.4170270000 114.2661660000,22.4169490000 114.2661090000,22.4167760000 114.2658790000,22.4163540000 114.2657590000,22.4161270000 114.2657220000,22.4159870000 114.2657100000,22.4158260000 114.2657280000,22.4157110000 114.2657750000,22.4155790000 114.2658490000,22.4154600000 114.2659460000,22.4153670000 114.2661530000,22.4152710000 114.2662300000,22.4152490000 114.2663960000,22.4152030000 114.2670540000,22.4151150000 114.2675600000,22.4150540000 114.2676680000,22.4150290000 114.2677200000,22.4150160000 114.2683700000,22.4147800000 114.2688360000,22.4145980000 114.2689640000,22.4145560000 114.2692350000,22.4145070000 114.2699940000,22.4144260000 114.2702670000,22.4144110000 114.2705220000,22.4143980000 114.2706800000,22.4143820000 114.2709540000,22.4143460000 114.2711690000,22.4142610000 114.2712440000,22.4142160000 114.2713530000,22.4141510000 114.2714640000,22.4140480000 114.2716840000,22.4138230000 114.2719650000,22.4134570000 114.2720240000,22.4133310000 114.2720440000,22.4132400000 114.2720550000,22.4131360000 114.2720620000,22.4123890000 114.2720520000,22.4122490000 114.2720300000,22.4121510000 114.2720180000,22.4120970000 114.2719630000,22.4119610000 114.2716860000,22.4114120000 114.2716270000,22.4112440000 114.2716030000,22.4110960000 114.2716130000,22.4109430000 114.2716570000,22.4108140000 114.2717140000,22.4107210000 114.2718770000,22.4105710000 114.2720000000,22.4104950000 114.2721560000,22.4104210000 114.2723580000,22.4103210000 114.2731870000,22.4099460000 114.2732510000,22.4099040000 114.2733440000,22.4098440000 114.2734460000,22.4097320000 114.2735820000,22.4095550000 114.2737690000,22.4091620000 114.2739450000,22.4088190000 114.2741030000,22.4085230000 114.2741090000,22.4085120000 114.2741960000,22.4083370000 114.2744580000,22.4078120000 114.2748880000,22.4069960000 114.2750340000,22.4067270000 114.2751470000,22.4065590000 114.2752870000,22.4064060000 114.2754870000,22.4062190000 114.2758010000,22.4059730000 114.2759950000,22.4058210000 114.2761100000,22.4057310000 114.2763350000,22.4056060000 114.2765040000,22.4055280000 114.2766860000,22.4054680000 114.2769400000,22.4054260000 114.2771760000,22.4054260000 114.2772050000,22.4054270000 114.2779730000,22.4054860000 114.2781500000,22.4054900000 114.2783980000,22.4054670000 114.2786260000,22.4054110000 114.2789760000,22.4051780000 114.2790550000,22.4051110000 114.2791780000,22.4050070000 114.2792990000,22.4048930000 114.2795870000,22.4046330000 114.2796910000,22.4045500000 114.2800470000,22.4043930000 114.2802610000,22.4043380000 114.2810150000,22.4041950000 114.2811210000,22.4041770000 114.2812900000,22.4041460000 114.2815660000,22.4040260000 114.2817350000,22.4039080000 114.2818560000,22.4038030000 114.2819830000,22.4036430000 114.2820700000,22.4035050000 114.2821310000,22.4033660000 114.2821640000,22.4032310000 114.2821900000,22.4030750000 114.2821990000,22.4029600000 114.2822030000,22.4020860000 114.2821960000,22.4017030000 114.2821980000,22.4015790000 114.2822010000,22.4014540000 114.2822030000,22.4013570000 114.2822300000,22.4009940000 114.2822600000,22.4008080000 114.2823410000,22.4005420000 114.2824330000,22.4003290000 114.2825690000,22.4000310000 114.2827060000,22.3997770000 114.2828000000,22.3995800000 114.2828920000,22.3993970000 114.2830730000,22.3990920000 114.2832410000,22.3988520000 114.2834890000,22.3985190000 114.2836730000,22.3982860000 114.2837580000,22.3981870000 114.2838570000,22.3980460000 114.2839430000,22.3979530000 114.2840070000,22.3978680000 114.2840700000,22.3977820000 114.2842020000,22.3975930000 114.2843140000,22.3973750000 114.2843800000,22.3971900000 114.2844070000,22.3969660000 114.2844050000,22.3967820000 114.2843840000,22.3966240000 114.2843290000,22.3964290000 114.2842500000,22.3962760000 114.2841250000,22.3961040000 114.2839820000,22.3959440000 114.2838250000,22.3957490000 114.2838690000,22.3957190000 114.2838980000,22.3956760000 114.2839070000,22.3956260000 114.2838950000,22.3955770000 114.2838640000,22.3955350000 114.2838180000,22.3955080000 114.2837640000,22.3954990000 114.2837100000,22.3955090000 114.2834090000,22.3955320000 114.2832630000,22.3955660000 114.2830320000,22.3955340000 114.2828300000,22.3954440000 114.2826480000,22.3953140000 114.2825510000,22.3952010000 114.2823900000,22.3948410000 114.2822220000,22.3946560000 114.2818300000,22.3944550000 114.2816730000,22.3943660000 114.2815750000,22.3942720000 114.2813780000,22.3940630000 114.2811960000,22.3939400000 114.2810830000,22.3939120000 114.2809590000,22.3939080000 114.2808610000,22.3939260000 114.2807550000,22.3939630000 114.2806220000,22.3940670000 114.2804780000,22.3942170000 114.2802590000,22.3944650000 114.2799980000,22.3947490000 114.2798330000,22.3948550000 114.2794410000,22.3950170000 114.2791650000,22.3951120000 114.2788690000,22.3951530000 114.2786710000,22.3951420000 114.2784100000,22.3950390000 114.2779590000,22.3947280000 114.2777880000,22.3945920000 114.2776850000,22.3944180000 114.2774450000,22.3940140000 114.2773990000,22.3938650000 114.2773800000,22.3937140000 114.2773690000,22.3931690000 114.2773040000,22.3929960000 114.2767150000,22.3921990000 114.2765060000,22.3918080000 114.2764350000,22.3915800000 114.2763950000,22.3913680000 114.2763460000,22.3905500000 114.2763070000,22.3903620000 114.2762500000,22.3902110000 114.2760580000,22.3899570000 114.2758010000,22.3896480000 114.2753620000,22.3892150000 114.2752500000,22.3891180000 114.2749670000,22.3888740000 114.2746990000,22.3886380000 114.2744870000,22.3884710000 114.2745200000,22.3884390000 114.2745410000,22.3883990000 114.2745470000,22.3883550000 114.2745370000,22.3883120000 114.2745120000,22.3882740000 114.2744750000,22.3882460000 114.2746670000,22.3878580000 114.2750350000,22.3871870000 114.2751600000,22.3869310000 114.2752270000,22.3867230000 114.2753650000,22.3861940000 114.2753820000,22.3860790000 114.2753890000,22.3859410000 114.2753900000,22.3857790000 114.2753910000,22.3855010000 114.2753920000,22.3852420000 114.2753880000,22.3850270000 114.2753800000,22.3847720000 114.2755990000,22.3847890000 114.2759030000,22.3848520000 114.2760790000,22.3849080000 114.2762460000,22.3850320000 114.2763380000,22.3850380000 114.2763680000,22.3850370000 114.2763970000,22.3850320000 114.2764280000,22.3850230000 114.2764510000,22.3850130000 114.2764780000,22.3849980000 114.2765010000,22.3849830000 114.2765210000,22.3849660000 114.2765360000,22.3849390000 114.2766850000,22.3845600000 114.2766820000,22.3844460000 114.2766340000,22.3843350000 114.2766340000,22.3843350000 114.2766000000,22.3843040000 114.2765450000,22.3842720000 114.2758160000,22.3841330000 114.2756150000,22.3840700000 114.2752560000,22.3843540000 114.2753200000,22.3844710000 114.2753590000,22.3845670000 114.2753760000,22.3846820000 114.2753800000,22.3847720000 114.2753880000,22.3850270000 114.2753920000,22.3852420000 114.2753910000,22.3855010000 114.2753900000,22.3857790000 114.2753890000,22.3859410000 114.2753820000,22.3860790000 114.2753650000,22.3861940000 114.2752270000,22.3867230000 114.2751600000,22.3869310000 114.2750350000,22.3871870000 114.2746670000,22.3878580000 114.2744750000,22.3882460000 114.2744240000,22.3882290000 114.2743780000,22.3882300000 114.2743360000,22.3882430000 114.2742990000,22.3882680000 114.2742730000,22.3883020000 114.2742600000,22.3883420000 114.2742600000,22.3883840000 114.2742750000,22.3884240000 114.2742990000,22.3884540000 114.2743310000,22.3884780000 114.2743690000,22.3884920000 114.2744100000,22.3884950000 114.2744500000,22.3884880000 114.2744870000,22.3884710000 114.2746990000,22.3886380000 114.2749670000,22.3888740000 114.2752500000,22.3891180000 114.2753620000,22.3892150000 114.2758010000,22.3896480000 114.2760580000,22.3899570000 114.2762500000,22.3902110000 114.2763070000,22.3903620000 114.2763460000,22.3905500000 114.2763950000,22.3913680000 114.2764350000,22.3915800000 114.2765060000,22.3918080000 114.2767150000,22.3921990000 114.2773040000,22.3929960000 114.2773690000,22.3931690000 114.2773800000,22.3937140000 114.2773990000,22.3938650000 114.2774450000,22.3940140000 114.2776850000,22.3944180000 114.2777880000,22.3945920000 114.2779590000,22.3947280000 114.2784100000,22.3950390000 114.2786710000,22.3951420000 114.2788690000,22.3951530000 114.2791650000,22.3951120000 114.2794410000,22.3950170000 114.2798330000,22.3948550000 114.2799980000,22.3947490000 114.2802590000,22.3944650000 114.2804780000,22.3942170000 114.2806220000,22.3940670000 114.2807550000,22.3939630000 114.2808610000,22.3939260000 114.2809590000,22.3939080000 114.2810830000,22.3939120000 114.2811960000,22.3939400000 114.2813780000,22.3940630000 114.2815750000,22.3942720000 114.2816730000,22.3943660000 114.2818300000,22.3944550000 114.2822220000,22.3946560000 114.2823900000,22.3948410000 114.2825510000,22.3952010000 114.2826480000,22.3953140000 114.2828300000,22.3954440000 114.2830320000,22.3955340000 114.2832630000,22.3955660000 114.2834090000,22.3956310000 114.2834650000,22.3956530000 114.2836470000,22.3957010000 114.2836810000,22.3957350000 114.2837260000,22.3957560000 114.2837760000,22.3957600000 114.2838250000,22.3957490000 114.2839820000,22.3959440000 114.2841250000,22.3961040000 114.2842500000,22.3962760000 114.2843290000,22.3964290000 114.2843840000,22.3966240000 114.2844050000,22.3967820000 114.2844070000,22.3969660000 114.2843800000,22.3971900000 114.2843140000,22.3973750000 114.2842020000,22.3975930000 114.2840700000,22.3977820000 114.2840070000,22.3978680000 114.2839430000,22.3979530000 114.2838570000,22.3980460000 114.2837580000,22.3981870000 114.2836730000,22.3982860000 114.2834890000,22.3985190000 114.2832410000,22.3988520000 114.2830730000,22.3990920000 114.2828920000,22.3993970000 114.2828000000,22.3995800000 114.2827060000,22.3997770000 114.2825690000,22.4000310000 114.2824330000,22.4003290000 114.2823410000,22.4005420000 114.2822600000,22.4008080000 114.2822300000,22.4009940000 114.2822030000,22.4013570000 114.2822010000,22.4014540000 114.2821980000,22.4015790000 114.2821960000,22.4017030000 114.2822030000,22.4020860000 114.2821990000,22.4029600000 114.2821900000,22.4030750000 114.2821640000,22.4032310000 114.2821310000,22.4033660000 114.2820700000,22.4035050000 114.2819830000,22.4036430000 114.2818560000,22.4038030000 114.2817350000,22.4039080000 114.2815660000,22.4040260000 114.2812900000,22.4041460000 114.2811210000,22.4041770000 114.2810150000,22.4041950000 114.2802610000,22.4043380000 114.2800470000,22.4043930000 114.2796910000,22.4045500000 114.2795870000,22.4046330000 114.2792990000,22.4048930000 114.2791780000,22.4050070000 114.2790550000,22.4051110000 114.2789760000,22.4051780000 114.2786260000,22.4054110000 114.2783980000,22.4054670000 114.2781500000,22.4054900000 114.2779730000,22.4054860000 114.2772050000,22.4054270000 114.2771760000,22.4054260000 114.2769400000,22.4054260000 114.2766860000,22.4054680000 114.2765040000,22.4055280000 114.2763350000,22.4056060000 114.2761100000,22.4057310000 114.2759950000,22.4058210000 114.2758010000,22.4059730000 114.2754870000,22.4062190000 114.2752870000,22.4064060000 114.2751470000,22.4065590000 114.2750340000,22.4067270000 114.2748880000,22.4069960000 114.2744580000,22.4078120000 114.2741960000,22.4083370000 114.2741090000,22.4085120000 114.2741030000,22.4085230000 114.2739450000,22.4088190000 114.2737690000,22.4091620000 114.2735820000,22.4095550000 114.2734460000,22.4097320000 114.2733440000,22.4098440000 114.2732510000,22.4099040000 114.2731870000,22.4099460000 114.2723580000,22.4103210000 114.2721560000,22.4104210000 114.2720000000,22.4104950000 114.2718770000,22.4105710000 114.2717140000,22.4107210000 114.2716570000,22.4108140000 114.2716130000,22.4109430000 114.2716030000,22.4110960000 114.2716270000,22.4112440000 114.2716860000,22.4114120000 114.2719630000,22.4119610000 114.2720180000,22.4120970000 114.2720300000,22.4121510000 114.2720520000,22.4122490000 114.2720620000,22.4123890000 114.2720550000,22.4131360000 114.2720440000,22.4132400000 114.2720240000,22.4133310000 114.2719650000,22.4134570000 114.2716840000,22.4138230000 114.2714640000,22.4140480000 114.2713530000,22.4141510000 114.2712440000,22.4142160000 114.2711690000,22.4142610000 114.2709540000,22.4143460000 114.2706800000,22.4143820000 114.2705220000,22.4143980000 114.2702670000,22.4144110000 114.2699940000,22.4144260000 114.2692350000,22.4145070000 114.2689640000,22.4145560000 114.2688360000,22.4145980000 114.2683700000,22.4147800000 114.2677200000,22.4150160000 114.2676680000,22.4150290000 114.2675600000,22.4150540000 114.2670540000,22.4151150000 114.2663960000,22.4152030000 114.2662300000,22.4152490000 114.2661530000,22.4152710000 114.2659460000,22.4153670000 114.2658490000,22.4154600000 114.2657750000,22.4155790000 114.2657280000,22.4157110000 114.2657100000,22.4158260000 114.2657220000,22.4159870000 114.2657590000,22.4161270000 114.2658790000,22.4163540000 114.2661090000,22.4167760000 114.2661660000,22.4169490000 114.2661880000,22.4170270000 114.2662040000,22.4171360000 114.2661950000,22.4175340000 114.2661890000,22.4176310000 114.2661820000,22.4177570000 114.2661240000,22.4187730000 114.2660920000,22.4194060000 114.2660900000,22.4195930000 114.2661010000,22.4200950000 114.2661370000,22.4206870000 114.2661570000,22.4209070000 114.2661610000,22.4210210000 114.2661650000,22.4212880000 114.2661560000,22.4214160000 114.2661440000,22.4215430000 114.2660890000,22.4218020000 114.2660210000,22.4221440000 114.2659620000,22.4223780000 114.2658890000,22.4225590000 114.2658060000,22.4226780000 114.2656200000,22.4228360000 114.2653990000,22.4229640000 114.2648350000,22.4231640000 114.2641390000,22.4234150000 114.2640460000,22.4234700000 114.2639380000,22.4235340000 114.2638020000,22.4236270000 114.2636600000,22.4237700000 114.2635290000,22.4239370000 114.2634230000,22.4241740000 114.2631890000,22.4246620000 114.2631070000,22.4247150000 114.2629950000,22.4248160000 114.2628880000,22.4249600000 114.2628580000,22.4250410000 114.2628290000,22.4251220000 114.2628210000,22.4251720000 114.2628060000,22.4252700000 114.2627980000,22.4254320000 114.2623610000,22.4262720000 114.2622680000,22.4264140000 114.2617370000,22.4272290000 114.2615700000,22.4274940000 114.2612170000,22.4280380000 114.2609360000,22.4284730000 114.2606990000,22.4288370000 114.2604810000,22.4291720000 114.2603240000,22.4293400000 114.2600500000,22.4295540000 114.2599560000,22.4296050000 114.2597190000,22.4296900000 114.2585940000,22.4300950000 114.2580740000,22.4302900000 114.2578110000,22.4303380000 114.2567100000,22.4304230000 114.2562600000,22.4304720000 114.2552120000,22.4305570000 114.2545540000,22.4306210000 114.2541880000,22.4306500000 114.2537910000,22.4306880000 114.2534550000,22.4306890000 114.2533430000,22.4306850000 114.2532780000,22.4306680000 114.2532120000,22.4306290000 114.2532030000,22.4306140000 114.2531650000,22.4305680000 114.2531150000,22.4305340000 114.2530560000,22.4305150000 114.2530150000,22.4305120000 114.2529740000,22.4305160000 114.2529350000,22.4305280000 114.2527970000,22.4305910000 114.2527100000,22.4306010000 114.2526160000,22.4305990000 114.2525200000,22.4305760000 114.2518500000,22.4303390000 114.2511500000,22.4300980000 114.2510330000,22.4300570000 114.2504840000,22.4298680000 114.2491390000,22.4294050000 114.2486500000,22.4292260000 114.2485510000,22.4291900000 114.2480520000,22.4290100000 114.2474570000,22.4288060000 114.2470150000,22.4286470000 114.2467540000,22.4285200000 114.2465640000,22.4284370000 114.2462270000,22.4282710000 114.2460630000,22.4281670000 114.2456980000,22.4279330000 114.2451590000,22.4274460000 114.2442900000,22.4265180000 114.2435880000,22.4257500000 114.2433470000,22.4254880000 114.2432980000,22.4254350000 114.2430810000,22.4252110000 114.2424460000,22.4246320000 114.2420710000,22.4243330000 114.2417830000,22.4241240000 114.2414510000,22.4238960000 114.2411310000,22.4237030000 114.2408870000,22.4235570000 114.2406320000,22.4234260000 114.2401470000,22.4231770000 114.2397540000,22.4229910000 114.2392820000,22.4227750000 114.2388940000,22.4226070000 114.2384630000,22.4224050000 114.2381180000,22.4222190000 114.2379410000,22.4221160000 114.2377790000,22.4220080000 114.2375990000,22.4218840000 114.2374130000,22.4217450000 114.2369360000,22.4213510000 114.2367410000,22.4211570000 114.2363990000,22.4208050000 114.2360010000,22.4203980000 114.2359070000,22.4203020000 114.2357220000,22.4200990000 114.2350200000,22.4193790000 114.2345540000,22.4189110000 114.2340130000,22.4183810000 114.2336480000,22.4180230000 114.2327980000,22.4172740000 114.2322440000,22.4168330000 114.2316300000,22.4163770000 114.2301830000,22.4152980000 114.2298330000,22.4150430000 114.2295000000,22.4148240000 114.2291470000,22.4146120000 114.2288550000,22.4144450000 114.2286740000,22.4143400000 114.2284590000,22.4142390000 114.2281480000,22.4140920000 114.2278630000,22.4139650000 114.2277010000,22.4138890000 114.2273860000,22.4137430000 114.2270030000,22.4135610000 114.2265960000,22.4133530000 114.2265000000,22.4132990000 114.2260530000,22.4130260000 114.2259100000,22.4129420000 114.2257200000,22.4128130000 114.2254740000,22.4126330000 114.2252640000,22.4124780000 114.2250900000,22.4123140000 114.2246980000,22.4119140000 114.2244630000,22.4116350000 114.2243330000,22.4114610000 114.2242330000,22.4112930000 114.2240810000,22.4110080000 114.2239600000,22.4107640000 114.2238250000,22.4104580000 114.2237460000,22.4101940000 114.2236430000,22.4098570000 114.2234520000,22.4092830000 114.2229540000,22.4083950000 114.2227710000,22.4079730000 114.2226460000,22.4077750000 114.2224540000,22.4074960000 114.2222040000,22.4071300000 114.2218300000,22.4066520000 114.2216770000,22.4064320000 114.2215080000,22.4061810000 114.2213350000,22.4059150000 114.2211750000,22.4056860000 114.2209780000,22.4053870000 114.2205260000,22.4047330000 114.2204500000,22.4045900000 114.2202930000,22.4044010000 114.2202260000,22.4043290000 114.2201490000,22.4042610000 114.2200500000,22.4041900000 114.2198980000,22.4041020000 114.2197520000,22.4040390000 114.2195990000,22.4039920000 114.2194800000,22.4039710000 114.2193400000,22.4039580000 114.2192290000,22.4039580000 114.2190800000,22.4039710000 114.2189700000,22.4039880000 114.2188800000,22.4040110000 114.2187500000,22.4040580000 114.2186700000,22.4040940000 114.2185920000,22.4041350000 114.2185000000,22.4041930000 114.2184100000,22.4042600000 114.2183270000,22.4043370000 114.2182400000,22.4044400000 114.2181650000,22.4045500000 114.2180910000,22.4046770000 114.2180600000,22.4047440000 114.2180330000,22.4048100000 114.2179600000,22.4050200000 114.2179300000,22.4051100000 114.2177910000,22.4055550000 114.2177600000,22.4056500000 114.2177100000,22.4057830000 114.2176610000,22.4059060000 114.2176070000,22.4060220000 114.2175420000,22.4061290000 114.2174450000,22.4062530000 114.2173510000,22.4063540000 114.2172050000,22.4064930000 114.2171260000,22.4066240000 114.2163640000,22.4072380000 114.2134530000,22.4096180000 114.2130510000,22.4099340000 114.2126640000,22.4102900000 114.2125340000,22.4104350000 114.2124060000,22.4106090000 114.2122380000,22.4110620000 114.2121910000,22.4112630000 114.2121560000,22.4114270000 114.2121450000,22.4116080000 114.2121650000,22.4118530000 114.2122120000,22.4121490000 114.2122740000,22.4124680000 114.2123890000,22.4130300000 114.2125130000,22.4135700000 114.2125910000,22.4139010000 114.2126300000,22.4140760000 114.2127270000,22.4145110000 114.2128010000,22.4148450000 114.2128920000,22.4151860000 114.2129780000,22.4155150000 114.2130320000,22.4157110000 114.2131750000,22.4160660000 114.2134430000,22.4173780000 114.2135310000,22.4178000000 114.2135780000,22.4181540000 114.2136020000,22.4184860000 114.2136070000,22.4186930000 114.2135840000,22.4193440000 114.2135830000,22.4194480000 114.2135530000,22.4197530000 114.2134810000,22.4202190000 114.2134060000,22.4206010000 114.2132620000,22.4211350000 114.2130910000,22.4215890000 114.2129690000,22.4218630000 114.2127860000,22.4221940000 114.2126640000,22.4223770000 114.2125190000,22.4225910000 114.2123260000,22.4228480000 114.2120810000,22.4231320000 114.2118210000,22.4234110000 114.2115330000,22.4236860000 114.2111640000,22.4239810000 114.2107250000,22.4242980000 114.2101270000,22.4247050000 114.2093830000,22.4251890000 114.2082980000,22.4259060000 114.2078030000,22.4262290000 114.2060680000,22.4273100000 114.2055580000,22.4276280000 114.2039620000,22.4286650000 114.2031650000,22.4291710000 114.2028840000,22.4293580000 114.2025750000,22.4295790000 114.2023220000,22.4298020000 114.2021240000,22.4299860000 114.2019450000,22.4301690000 114.2017340000,22.4304050000 114.2015370000,22.4306540000 114.2013390000,22.4309430000 114.2011730000,22.4312160000 114.2010190000,22.4315220000 114.2009040000,22.4317780000 114.2007920000,22.4320780000 114.2007010000,22.4323740000 114.2006250000,22.4326870000 114.2004720000,22.4333790000 114.2003670000,22.4337690000 114.2002370000,22.4341340000 114.2000930000,22.4344550000 114.1999040000,22.4347880000 114.1997020000,22.4350710000 114.1994690000,22.4353580000 114.1992040000,22.4356650000 114.1989010000,22.4360060000 114.1985080000,22.4364240000 114.1982510000,22.4366840000 114.1979810000,22.4369430000 114.1977340000,22.4371660000 114.1975180000,22.4373490000 114.1972230000,22.4375700000 114.1968960000,22.4378070000 114.1966460000,22.4379850000 114.1963540000,22.4381700000 114.1960330000,22.4383750000 114.1957730000,22.4385240000 114.1954140000,22.4387350000 114.1949510000,22.4389650000 114.1945640000,22.4391350000 114.1943640000,22.4392140000 114.1941380000,22.4392600000 114.1938890000,22.4393270000 114.1936610000,22.4393790000 114.1934510000,22.4394140000 114.1932250000,22.4394490000 114.1929770000,22.4394740000 114.1928070000,22.4394760000 114.1925890000,22.4394800000 114.1924060000,22.4394850000 114.1921560000,22.4394730000 114.1919090000,22.4394490000 114.1915630000,22.4393950000 114.1904170000,22.4391290000 114.1901480000,22.4390710000 114.1898150000,22.4390160000 114.1895410000,22.4389850000 114.1892900000,22.4389650000 114.1890110000,22.4389570000 114.1886980000,22.4389650000 114.1883670000,22.4389790000 114.1880390000,22.4390290000 114.1877120000,22.4391000000 114.1874480000,22.4391270000 114.1873300000,22.4391570000 114.1871920000,22.4391930000 114.1869450000,22.4392900000 114.1868440000,22.4393360000 114.1864500000,22.4395150000 114.1858960000,22.4397590000 114.1851010000,22.4402260000 114.1825760000,22.4416340000 114.1823280000,22.4417760000 114.1820700000,22.4419170000 114.1813220000,22.4423210000 114.1812600000,22.4423740000 114.1810050000,22.4425140000 114.1804630000,22.4428420000 114.1799580000,22.4431570000 114.1790510000,22.4437430000 114.1788860000,22.4438540000 114.1786560000,22.4440050000 114.1784510000,22.4441300000 114.1782430000,22.4442500000 114.1780350000,22.4443630000 114.1778270000,22.4444680000 114.1776110000,22.4445640000 114.1774020000,22.4446400000 114.1771760000,22.4447130000 114.1769470000,22.4447770000 114.1767110000,22.4448320000 114.1764740000,22.4448750000 114.1762680000,22.4449000000 114.1760790000,22.4449170000 114.1759550000,22.4449270000 114.1758390000,22.4449320000 114.1757200000,22.4449370000 114.1755690000,22.4449370000 114.1754460000,22.4449330000 114.1753210000,22.4449250000 114.1752190000,22.4449140000 114.1751220000,22.4449010000 114.1749910000,22.4448840000 114.1748740000,22.4448670000 114.1747610000,22.4448430000 114.1746560000,22.4448180000 114.1745310000,22.4447830000 114.1744280000,22.4447500000 114.1743160000,22.4447080000 114.1742060000,22.4446620000 114.1741250000,22.4446290000 114.1740070000,22.4445710000 114.1738910000,22.4445090000 114.1738330000,22.4444770000 114.1737870000,22.4444260000 114.1736030000,22.4443120000 114.1734150000,22.4441810000 114.1732320000,22.4440470000 114.1730400000,22.4439000000 114.1724640000,22.4434610000 114.1722720000,22.4433200000 114.1720770000,22.4431740000 114.1718730000,22.4430220000 114.1716810000,22.4428730000 114.1711030000,22.4424270000 114.1699220000,22.4415340000 114.1692780000,22.4410350000 114.1689000000,22.4407450000 114.1685000000,22.4404350000 114.1681550000,22.4401600000 114.1679700000,22.4400190000 114.1677680000,22.4398780000 114.1675590000,22.4397430000 114.1673490000,22.4396210000 114.1671280000,22.4395080000 114.1669110000,22.4394100000 114.1666740000,22.4393220000 114.1664270000,22.4392510000 114.1661890000,22.4391950000 114.1659460000,22.4391500000 114.1658080000,22.4391290000 114.1656420000,22.4391090000 114.1654550000,22.4390930000 114.1651930000,22.4390890000 114.1649450000,22.4390990000 114.1646850000,22.4391220000 114.1644530000,22.4391540000 114.1642050000,22.4392030000 114.1639780000,22.4392550000 114.1634950000,22.4393810000 114.1633630000,22.4394180000 114.1633020000,22.4394350000 114.1632350000,22.4394520000 114.1631150000,22.4394790000 114.1616900000,22.4397790000 114.1612020000,22.4398870000 114.1609500000,22.4399490000 114.1608330000,22.4399800000 114.1607260000,22.4400100000 114.1605950000,22.4400500000 114.1604780000,22.4400880000 114.1603620000,22.4401290000 114.1602440000,22.4401750000 114.1601190000,22.4402330000 114.1600040000,22.4402960000 114.1598910000,22.4403620000 114.1597810000,22.4404300000 114.1596730000,22.4405080000 114.1595730000,22.4405890000 114.1594890000,22.4406570000 114.1594040000,22.4407330000 114.1593090000,22.4408240000 114.1592220000,22.4409190000 114.1591410000,22.4410130000 114.1590700000,22.4411020000 114.1589900000,22.4412100000 114.1589240000,22.4413140000 114.1588670000,22.4414110000 114.1588060000,22.4415200000 114.1587530000,22.4416360000 114.1587060000,22.4417510000 114.1586700000,22.4418560000 114.1586370000,22.4419680000 114.1586080000,22.4420790000 114.1585830000,22.4421970000 114.1585620000,22.4423120000 114.1585450000,22.4424360000 114.1585290000,22.4425490000 114.1585140000,22.4426710000 114.1585020000,22.4427960000 114.1584900000,22.4429160000 114.1584740000,22.4430280000 114.1584570000,22.4431390000 114.1584370000,22.4432500000 114.1584150000,22.4433530000 114.1583890000,22.4434630000 114.1583590000,22.4435630000 114.1583240000,22.4436650000 114.1582830000,22.4437740000 114.1582420000,22.4438730000 114.1581930000,22.4439790000 114.1581420000,22.4440760000 114.1580850000,22.4441740000 114.1580250000,22.4442700000 114.1579600000,22.4443710000 114.1578980000,22.4444600000 114.1578200000,22.4445600000 114.1577360000,22.4446600000 114.1576470000,22.4447610000 114.1575650000,22.4448490000 114.1574720000,22.4449390000 114.1573730000,22.4450230000 114.1572710000,22.4451050000 114.1571610000,22.4451860000 114.1570520000,22.4452610000 114.1569220000,22.4453380000 114.1567950000,22.4454090000 114.1566640000,22.4454770000 114.1565300000,22.4455420000 114.1563870000,22.4456060000 114.1562550000,22.4456660000 114.1561160000,22.4457310000 114.1559860000,22.4457940000 114.1558560000,22.4458650000 114.1557470000,22.4459320000 114.1556030000,22.4460280000 114.1554680000,22.4461200000 114.1553320000,22.4462270000 114.1552250000,22.4463220000 114.1551170000,22.4464280000 114.1549870000,22.4465700000 114.1548570000,22.4467320000 114.1547280000,22.4469130000 114.1546540000,22.4470350000 114.1545760000,22.4471820000 114.1544870000,22.4473690000 114.1544200000,22.4475340000 114.1543780000,22.4476730000 114.1542240000,22.4483870000 114.1541770000,22.4486250000 114.1541310000,22.4488180000 114.1540750000,22.4490190000 114.1540060000,22.4492530000 114.1538270000,22.4498220000 114.1537150000,22.4501680000 114.1535910000,22.4505330000 114.1535050000,22.4507790000 114.1533990000,22.4510540000 114.1533140000,22.4512410000 114.1532360000,22.4514000000 114.1531690000,22.4515210000 114.1530810000,22.4516780000 114.1529310000,22.4519070000 114.1527890000,22.4521000000 114.1524790000,22.4525140000 114.1524430000,22.4526110000 114.1523450000,22.4527520000 114.1521880000,22.4529700000 114.1508210000,22.4548080000 114.1506760000,22.4549660000 114.1501840000,22.4556720000 114.1498910000,22.4560650000 114.1495970000,22.4564220000 114.1491070000,22.4570100000 114.1490170000,22.4571190000 114.1486490000,22.4575630000 114.1485150000,22.4577420000 114.1477040000,22.4587980000 114.1475390000,22.4590180000 114.1473900000,22.4592400000 114.1472810000,22.4594350000 114.1472070000,22.4596120000 114.1471440000,22.4598230000 114.1471070000,22.4600380000 114.1471030000,22.4602310000 114.1471030000,22.4604330000 114.1471350000,22.4606730000 114.1472210000,22.4609460000 114.1472740000,22.4610920000 114.1473400000,22.4612230000 114.1474860000,22.4614600000 114.1477620000,22.4618130000 114.1480740000,22.4621820000 114.1482920000,22.4624660000 114.1484800000,22.4627330000 114.1486520000,22.4630650000 114.1488180000,22.4634100000 114.1490460000,22.4639460000 114.1491760000,22.4642180000 114.1493290000,22.4644480000 114.1495060000,22.4647180000 114.1497260000,22.4649770000 114.1499480000,22.4652200000 114.1501300000,22.4654170000 114.1503160000,22.4656080000 114.1505150000,22.4657740000 114.1507180000,22.4659820000 114.1509670000,22.4662130000 114.1512190000,22.4664940000 114.1513470000,22.4666640000 114.1515610000,22.4669360000 114.1519650000,22.4674910000 114.1522700000,22.4680430000 114.1523540000,22.4681980000 114.1524430000,22.4684290000 114.1525660000,22.4687890000 114.1526780000,22.4691680000 114.1527910000,22.4696390000 114.1538700000,22.4751980000 114.1539180000,22.4754690000 114.1539460000,22.4757160000 114.1539760000,22.4760060000 114.1539810000,22.4762530000 114.1539760000,22.4764870000 114.1539590000,22.4766640000 114.1537800000,22.4774170000 114.1536970000,22.4778220000 114.1535780000,22.4783010000 114.1535440000,22.4786630000 114.1535390000,22.4789350000 114.1535560000,22.4791520000 114.1535780000,22.4793590000 114.1536050000,22.4795000000 114.1539830000,22.4807110000 114.1540490000,22.4809510000 114.1540830000,22.4811320000 114.1541160000,22.4813450000 114.1541300000,22.4815130000 114.1541450000,22.4816850000 114.1541610000,22.4818630000 114.1542020000,22.4821520000 114.1542220000,22.4822580000 114.1543310000,22.4825390000 114.1543730000,22.4826760000 114.1544850000,22.4830340000 114.1545580000,22.4832510000 114.1546540000,22.4834940000 114.1548570000,22.4839800000 114.1548870000,22.4840520000 114.1550480000,22.4844370000 114.1550880000,22.4845330000 114.1551190000,22.4846060000 114.1551900000,22.4847760000 114.1560520000,22.4863610000 114.1657940000,22.5009120000 114.1744990000,22.5108810000 114.1747780000,22.5111710000 114.1765080000,22.5124670000 114.1770010000,22.5127750000 114.1779230000,22.5132600000 114.1793320000,22.5139580000 114.1815920000,22.5150860000 114.1818310000,22.5152620000 114.1821550000,22.5155710000 114.1823590000,22.5158590000 114.1826030000,22.5164620000 114.1826600000,22.5170880000 114.1826760000,22.5172830000 114.1826650000,22.5175220000 114.1826400000,22.5176920000 114.1825840000,22.5179200000 114.1824560000,22.5181920000 114.1824230000,22.5182410000 114.1824130000,22.5182560000 114.1823700000,22.5183390000 114.1822400000,22.5185220000 114.1821080000,22.5186870000 114.1820110000,22.5188080000 114.1816090000,22.5192290000 114.1810820000,22.5195470000 114.1806360000,22.5199830000 114.1801220000,22.5204790000 114.1796210000,22.5208570000 114.1795540000,22.5209080000 114.1794810000,22.5209400000 114.1793920000,22.5209710000 114.1792260000,22.5209530000 114.1790720000,22.5209690000 114.1790240000,22.5209820000 114.1789880000,22.5210020000 114.1788230000,22.5210610000 114.1787420000,22.5211100000 114.1786640000,22.5211800000 114.1785230000,22.5212810000 114.1784300000,22.5213170000 114.1782760000,22.5213350000 114.1781740000,22.5213100000 114.1781100000,22.5212960000 114.1780270000,22.5212780000 114.1778520000,22.5212280000 114.1775920000,22.5211340000 114.1773950000,22.5209970000 114.1765450000,22.5201410000 114.1764380000,22.5199750000 114.1762830000,22.5197310000 114.1761910000,22.5195730000 114.1760730000,22.5194030000 114.1756600000,22.5189990000 114.1754980000,22.5188400000 114.1753150000,22.5186960000 114.1750150000,22.5185170000 114.1747000000,22.5183180000 114.1741610000,22.5180210000 114.1729990000,22.5173410000 114.1728250000,22.5172370000 114.1721930000,22.5168580000 114.1721050000,22.5168060000 114.1714360000,22.5164120000 114.1714020000,22.5163910000 114.1708500000,22.5160690000 114.1703310000,22.5157640000 114.1693680000,22.5152100000 114.1692920000,22.5151600000 114.1690770000,22.5150190000 114.1688730000,22.5148660000 114.1688180000,22.5148250000 114.1683800000,22.5144690000 114.1683370000,22.5144290000 114.1682120000,22.5142650000 114.1680310000,22.5140540000 114.1678420000,22.5138180000 114.1676960000,22.5135940000 114.1676670000,22.5135350000 114.1676200000,22.5134870000 114.1675590000,22.5134560000 114.1674900000,22.5134450000 114.1674210000,22.5134550000 114.1673570000,22.5134860000 114.1673070000,22.5135350000 114.1672790000,22.5135970000 114.1672740000,22.5136640000 114.1672830000,22.5137040000 114.1672760000,22.5138580000 114.1672460000,22.5140210000 114.1672320000,22.5141500000 114.1672360000,22.5142290000 114.1671920000,22.5144040000 114.1671380000,22.5145270000 114.1670740000,22.5146090000 114.1668810000,22.5148950000 114.1667740000,22.5151340000 114.1666230000,22.5155890000 114.1664400000,22.5163800000 114.1664160000,22.5164370000 114.1663650000,22.5165570000 114.1663120000,22.5165970000 114.1662450000,22.5167170000 114.1661480000,22.5168200000 114.1661090000,22.5169060000 114.1659760000,22.5172780000 114.1658430000,22.5176870000 114.1657290000,22.5181070000 114.1656760000,22.5182600000 114.1652240000,22.5196570000 114.1651500000,22.5197840000 114.1650200000,22.5199030000 114.1648330000,22.5199960000 114.1645200000,22.5201230000 114.1644740000,22.5201420000 114.1635090000,22.5205510000 114.1632910000,22.5206890000 114.1631560000,22.5208100000 114.1630440000,22.5209510000 114.1627520000,22.5214650000 114.1623350000,22.5221950000 114.1620280000,22.5227310000 114.1618120000,22.5230830000 114.1617270000,22.5231940000 114.1615770000,22.5233420000 114.1611880000,22.5237340000 114.1606730000,22.5242130000 114.1605440000,22.5243390000 114.1603350000,22.5245420000 114.1601550000,22.5247510000 114.1605170000,22.5249830000 114.1607020000,22.5251010000 114.1608410000,22.5251540000 114.1609730000,22.5251770000 114.1611280000,22.5251830000 114.1612410000,22.5251740000 114.1613860000,22.5251520000 114.1614390000,22.5251440000 114.1616390000,22.5250950000 114.1617140000,22.5250910000 114.1618090000,22.5250970000 114.1617730000,22.5254250000 114.1617370000,22.5257620000 114.1617300000,22.5258770000 114.1617370000,22.5259260000 114.1617910000,22.5259810000 114.1618840000,22.5260270000 114.1620140000,22.5261070000 114.1621160000,22.5261830000 114.1621990000,22.5262450000 114.1622610000,22.5262910000 114.1625160000,22.5264830000 114.1626750000,22.5265860000 114.1627540000,22.5266140000 114.1629320000,22.5266520000 114.1633390000,22.5266880000 114.1636950000,22.5267280000 114.1639760000,22.5267940000 114.1640590000,22.5267910000 114.1641500000,22.5267720000 114.1642780000,22.5267270000 114.1643830000,22.5266920000 114.1645420000,22.5266720000 114.1650250000,22.5266640000 114.1652090000,22.5266720000 114.1654560000,22.5266970000 114.1655440000,22.5266710000 114.1657160000,22.5266250000 114.1658940000,22.5265970000 114.1661590000,22.5266130000 114.1661590000,22.5266130000</coordinates>
                </LineString>
                <ExtendedData>
                    <Data name="length">
                        <value>73256.25952416254</value>
                    </Data>
                    <Data name="duration">
                        <value>01:30:51</value>
                    </Data>
                </ExtendedData>
            </Placemark>
        </Document>
    </Document>
</kml>