<?xml version="1.0" encoding="UTF-8"?>
<kml xmlns="http://www.opengis.net/kml/2.2" xmlns:gx="http://www.google.com/kml/ext/2.2">
    <Document>
        <name>Route</name>
        <Folder>
            <name>Route Request</name>
            <Placemark>
                <Point>
                    <coordinates>114.1880187250,22.3902245287</coordinates>
                </Point>
                <ExtendedData>
                    <Data name="routingVisited">
                        <value>false</value>
                    </Data>
                </ExtendedData>
            </Placemark>
            <Placemark>
                <Point>
                    <coordinates>114.1923571621,22.3832347445</coordinates>
                </Point>
                <ExtendedData>
                    <Data name="routingVisited">
                        <value>false</value>
                    </Data>
                </ExtendedData>
            </Placemark>
            <Placemark>
                <address>New Town Plaza, 18, Sha Tin Centre Street, Yuen Chau Kok, Sha Tin, Sha Tin District, Hong Kong, DD186 484, PRC</address>
                <Point>
                    <coordinates>114.1884536621,22.3818691719</coordinates>
                </Point>
                <ExtendedData>
                    <Data name="house_number">
                        <value>18</value>
                    </Data>
                    <Data name="road">
                        <value>Sha Tin Centre Street</value>
                    </Data>
                    <Data name="country_code">
                        <value>cn</value>
                    </Data>
                    <Data name="postcode">
                        <value>DD186 484</value>
                    </Data>
                    <Data name="suburb">
                        <value>Yuen Chau Kok</value>
                    </Data>
                    <Data name="country">
                        <value>PRC</value>
                    </Data>
                    <Data name="town">
                        <value>Sha Tin</value>
                    </Data>
                    <Data name="mall">
                        <value>New Town Plaza</value>
                    </Data>
                    <Data name="county">
                        <value>Sha Tin District</value>
                    </Data>
                </ExtendedData>
            </Placemark>
            <Placemark>
                <address>Un Hong House, Cheung Sha Wan Road, Cheung Sha Wan, Sham Shui Po District, Hong Kong, KIL 3348, PRC</address>
                <Point>
                    <coordinates>114.1541368803,22.3372568863</coordinates>
                </Point>
                <ExtendedData>
                    <Data name="road">
                        <value>Cheung Sha Wan Road</value>
                    </Data>
                    <Data name="country_code">
                        <value>cn</value>
                    </Data>
                    <Data name="building">
                        <value>Un Hong House</value>
                    </Data>
                    <Data name="postcode">
                        <value>KIL 3348</value>
                    </Data>
                    <Data name="suburb">
                        <value>Cheung Sha Wan</value>
                    </Data>
                    <Data name="country">
                        <value>PRC</value>
                    </Data>
                    <Data name="county">
                        <value>Sham Shui Po District</value>
                    </Data>
                </ExtendedData>
            </Placemark>
            <Placemark>
                <address>Fuk Wa Street, Sham Shui Po, Sham Shui Po District, Hong Kong, KIL 3348, PRC</address>
                <Point>
                    <coordinates>114.1606053870,22.3328035730</coordinates>
                </Point>
                <ExtendedData>
                    <Data name="road">
                        <value>Fuk Wa Street</value>
                    </Data>
                    <Data name="country_code">
                        <value>cn</value>
                    </Data>
                    <Data name="postcode">
                        <value>KIL 3348</value>
                    </Data>
                    <Data name="suburb">
                        <value>Sham Shui Po</value>
                    </Data>
                    <Data name="country">
                        <value>PRC</value>
                    </Data>
                    <Data name="county">
                        <value>Sham Shui Po District</value>
                    </Data>
                </ExtendedData>
            </Placemark>
            <Placemark>
                <address>Nam Cheong Estate, Sham Shui Po, Sai Chuen Road, Sham Shui Po, Sham Shui Po District, Hong Kong, KIL 3348, PRC</address>
                <Point>
                    <coordinates>114.1559626828,22.3269344928</coordinates>
                </Point>
                <ExtendedData>
                    <Data name="road">
                        <value>Sai Chuen Road</value>
                    </Data>
                    <Data name="country_code">
                        <value>cn</value>
                    </Data>
                    <Data name="postcode">
                        <value>KIL 3348</value>
                    </Data>
                    <Data name="suburb">
                        <value>Sham Shui Po</value>
                    </Data>
                    <Data name="country">
                        <value>PRC</value>
                    </Data>
                    <Data name="bus_stop">
                        <value>Nam Cheong Estate, Sham Shui Po</value>
                    </Data>
                    <Data name="county">
                        <value>Sham Shui Po District</value>
                    </Data>
                </ExtendedData>
            </Placemark>
            <Placemark>
                <address>Dragon Centre, 37K, Yen Chow Street, Sham Shui Po, Sham Shui Po District, Hong Kong, KIL 3348, PRC</address>
                <Point>
                    <coordinates>114.1598669445,22.3311916648</coordinates>
                </Point>
                <ExtendedData>
                    <Data name="house_number">
                        <value>37K</value>
                    </Data>
                    <Data name="road">
                        <value>Yen Chow Street</value>
                    </Data>
                    <Data name="country_code">
                        <value>cn</value>
                    </Data>
                    <Data name="postcode">
                        <value>KIL 3348</value>
                    </Data>
                    <Data name="suburb">
                        <value>Sham Shui Po</value>
                    </Data>
                    <Data name="country">
                        <value>PRC</value>
                    </Data>
                    <Data name="mall">
                        <value>Dragon Centre</value>
                    </Data>
                    <Data name="county">
                        <value>Sham Shui Po District</value>
                    </Data>
                </ExtendedData>
            </Placemark>
            <Placemark>
                <address>Jao Tsung-I Academy, 800, Castle Peak Road, Lai Chi Kok, Sham Shui Po District, Hong Kong, 852, PRC</address>
                <Point>
                    <coordinates>114.1416720043,22.3391413522</coordinates>
                </Point>
                <ExtendedData>
                    <Data name="house_number">
                        <value>800</value>
                    </Data>
                    <Data name="road">
                        <value>Castle Peak Road</value>
                    </Data>
                    <Data name="country_code">
                        <value>cn</value>
                    </Data>
                    <Data name="postcode">
                        <value>852</value>
                    </Data>
                    <Data name="suburb">
                        <value>Lai Chi Kok</value>
                    </Data>
                    <Data name="country">
                        <value>PRC</value>
                    </Data>
                    <Data name="museum">
                        <value>Jao Tsung-I Academy</value>
                    </Data>
                    <Data name="county">
                        <value>Sham Shui Po District</value>
                    </Data>
                </ExtendedData>
            </Placemark>
            <Placemark>
                <address>Lucky Plaza, 1-15, Wang Pok Street, Yuen Chau Kok, Sha Tin, Sha Tin District, Hong Kong, STTL 531, PRC</address>
                <Point>
                    <coordinates>114.1900786487,22.3832352957</coordinates>
                </Point>
                <ExtendedData>
                    <Data name="house_number">
                        <value>1-15</value>
                    </Data>
                    <Data name="road">
                        <value>Wang Pok Street</value>
                    </Data>
                    <Data name="country_code">
                        <value>cn</value>
                    </Data>
                    <Data name="postcode">
                        <value>STTL 531</value>
                    </Data>
                    <Data name="suburb">
                        <value>Yuen Chau Kok</value>
                    </Data>
                    <Data name="country">
                        <value>PRC</value>
                    </Data>
                    <Data name="town">
                        <value>Sha Tin</value>
                    </Data>
                    <Data name="mall">
                        <value>Lucky Plaza</value>
                    </Data>
                    <Data name="county">
                        <value>Sha Tin District</value>
                    </Data>
                </ExtendedData>
            </Placemark>
            <Placemark>
                <address>Wo Che Estate, Yuen Wo Road, Yuen Chau Kok, Pai Tau Wai, Sha Tin District, Hong Kong, DD176 770, PRC</address>
                <Point>
                    <coordinates>114.1969925888,22.3884264240</coordinates>
                </Point>
                <ExtendedData>
                    <Data name="road">
                        <value>Yuen Wo Road</value>
                    </Data>
                    <Data name="country_code">
                        <value>cn</value>
                    </Data>
                    <Data name="postcode">
                        <value>DD176 770</value>
                    </Data>
                    <Data name="suburb">
                        <value>Yuen Chau Kok</value>
                    </Data>
                    <Data name="country">
                        <value>PRC</value>
                    </Data>
                    <Data name="hamlet">
                        <value>Pai Tau Wai</value>
                    </Data>
                    <Data name="bus_stop">
                        <value>Wo Che Estate</value>
                    </Data>
                    <Data name="county">
                        <value>Sha Tin District</value>
                    </Data>
                </ExtendedData>
            </Placemark>
            <Placemark>
                <address>Block 18, Sui Wo Road, Fo Tan, Man Hang, Sha Tin District, Hong Kong, DD176 783, PRC</address>
                <Point>
                    <coordinates>114.1880128843,22.3902482167</coordinates>
                </Point>
                <ExtendedData>
                    <Data name="road">
                        <value>Sui Wo Road</value>
                    </Data>
                    <Data name="country_code">
                        <value>cn</value>
                    </Data>
                    <Data name="building">
                        <value>Block 18</value>
                    </Data>
                    <Data name="postcode">
                        <value>DD176 783</value>
                    </Data>
                    <Data name="suburb">
                        <value>Fo Tan</value>
                    </Data>
                    <Data name="country">
                        <value>PRC</value>
                    </Data>
                    <Data name="hamlet">
                        <value>Man Hang</value>
                    </Data>
                    <Data name="county">
                        <value>Sha Tin District</value>
                    </Data>
                </ExtendedData>
            </Placemark>
        </Folder>
        <Document>
            <name>33.5 km; 01:18 h (OSRM)</name>
            <Placemark>
                <name>Route</name>
                <LineString>
                    <coordinates>114.1881830000,22.3906400000 114.1881840000,22.3907320000 114.1880760000,22.3907310000 114.1880420000,22.3907760000 114.1880130000,22.3908480000 114.1880040000,22.3909580000 114.1880070000,22.3911840000 114.1880100000,22.3915380000 114.1879500000,22.3916800000 114.1878440000,22.3917990000 114.1876970000,22.3918810000 114.1875190000,22.3919310000 114.1872660000,22.3919980000 114.1871160000,22.3920330000 114.1869210000,22.3920550000 114.1866920000,22.3920710000 114.1864500000,22.3920500000 114.1862000000,22.3920230000 114.1859390000,22.3920300000 114.1857620000,22.3920520000 114.1856370000,22.3920900000 114.1855120000,22.3921720000 114.1853940000,22.3923620000 114.1853260000,22.3925080000 114.1852910000,22.3926960000 114.1852850000,22.3928740000 114.1853170000,22.3930240000 114.1853870000,22.3931610000 114.1855260000,22.3932830000 114.1857250000,22.3933350000 114.1862840000,22.3933240000 114.1868010000,22.3934250000 114.1875530000,22.3935700000 114.1880360000,22.3936460000 114.1881520000,22.3936700000 114.1884650000,22.3936980000 114.1886240000,22.3936800000 114.1887500000,22.3936380000 114.1888780000,22.3935580000 114.1890280000,22.3933930000 114.1890510000,22.3933480000 114.1891110000,22.3931790000 114.1891340000,22.3930330000 114.1892300000,22.3924610000 114.1892910000,22.3922720000 114.1894000000,22.3921210000 114.1895180000,22.3920010000 114.1896550000,22.3919310000 114.1897870000,22.3919020000 114.1899360000,22.3919050000 114.1901350000,22.3919580000 114.1902970000,22.3920760000 114.1904100000,22.3922070000 114.1904850000,22.3923480000 114.1905620000,22.3925990000 114.1907090000,22.3931560000 114.1908310000,22.3935530000 114.1909130000,22.3938090000 114.1910220000,22.3939550000 114.1911510000,22.3940550000 114.1913530000,22.3941100000 114.1915980000,22.3942780000 114.1917070000,22.3943420000 114.1918420000,22.3943890000 114.1919370000,22.3944010000 114.1920970000,22.3943990000 114.1921990000,22.3943840000 114.1923120000,22.3943370000 114.1923660000,22.3943000000 114.1924070000,22.3942680000 114.1925130000,22.3941710000 114.1927140000,22.3939500000 114.1927940000,22.3938540000 114.1928410000,22.3937830000 114.1928750000,22.3937230000 114.1929140000,22.3936410000 114.1929450000,22.3935340000 114.1929570000,22.3934340000 114.1929500000,22.3933420000 114.1929190000,22.3932410000 114.1928650000,22.3931060000 114.1927760000,22.3928810000 114.1927430000,22.3927470000 114.1927350000,22.3926550000 114.1927450000,22.3925510000 114.1927660000,22.3924730000 114.1928270000,22.3923760000 114.1929070000,22.3922860000 114.1930170000,22.3922040000 114.1931390000,22.3921440000 114.1932730000,22.3921030000 114.1934040000,22.3920990000 114.1935530000,22.3921250000 114.1936790000,22.3921790000 114.1937920000,22.3922480000 114.1938880000,22.3923260000 114.1939590000,22.3924160000 114.1940070000,22.3925230000 114.1940290000,22.3926140000 114.1940460000,22.3927280000 114.1940430000,22.3928170000 114.1940110000,22.3929220000 114.1939800000,22.3929920000 114.1939230000,22.3930600000 114.1937890000,22.3932010000 114.1937180000,22.3933110000 114.1936790000,22.3934030000 114.1936520000,22.3935030000 114.1936330000,22.3936200000 114.1935600000,22.3940460000 114.1934800000,22.3942960000 114.1933700000,22.3945220000 114.1933120000,22.3946760000 114.1933080000,22.3946870000 114.1932640000,22.3948790000 114.1931560000,22.3953580000 114.1931240000,22.3954770000 114.1930460000,22.3956780000 114.1929650000,22.3958730000 114.1927750000,22.3962310000 114.1926960000,22.3963580000 114.1926310000,22.3964520000 114.1925960000,22.3965230000 114.1925340000,22.3965910000 114.1924780000,22.3966650000 114.1923860000,22.3967230000 114.1922690000,22.3967790000 114.1919880000,22.3968820000 114.1916740000,22.3969140000 114.1915370000,22.3969500000 114.1914240000,22.3970490000 114.1914450000,22.3971070000 114.1914770000,22.3971650000 114.1915740000,22.3972730000 114.1916830000,22.3974030000 114.1919960000,22.3976750000 114.1922440000,22.3979490000 114.1926050000,22.3983020000 114.1926960000,22.3983850000 114.1928230000,22.3984890000 114.1928610000,22.3985290000 114.1929790000,22.3986610000 114.1939640000,22.3977380000 114.1940950000,22.3976300000 114.1942720000,22.3974700000 114.1949800000,22.3968310000 114.1951560000,22.3966940000 114.1954890000,22.3963480000 114.1957100000,22.3961330000 114.1960300000,22.3957600000 114.1963250000,22.3952980000 114.1965600000,22.3948390000 114.1966560000,22.3945650000 114.1967790000,22.3942030000 114.1967980000,22.3941000000 114.1968460000,22.3938250000 114.1968730000,22.3934930000 114.1968860000,22.3930930000 114.1968890000,22.3926580000 114.1968990000,22.3923820000 114.1969190000,22.3919070000 114.1969310000,22.3917200000 114.1969440000,22.3915960000 114.1969850000,22.3913660000 114.1970700000,22.3910920000 114.1971140000,22.3909730000 114.1972780000,22.3906390000 114.1981730000,22.3891670000 114.1982010000,22.3891320000 114.1982590000,22.3890450000 114.1981260000,22.3889680000 114.1979960000,22.3888950000 114.1979720000,22.3888810000 114.1977130000,22.3887340000 114.1974830000,22.3886120000 114.1973360000,22.3885190000 114.1971950000,22.3884170000 114.1970420000,22.3882800000 114.1969700000,22.3882130000 114.1964840000,22.3877150000 114.1957450000,22.3869670000 114.1956470000,22.3868730000 114.1950010000,22.3861780000 114.1940700000,22.3851690000 114.1934390000,22.3844870000 114.1930890000,22.3841040000 114.1927750000,22.3837670000 114.1927330000,22.3837220000 114.1925660000,22.3835480000 114.1925220000,22.3835030000 114.1923060000,22.3832770000 114.1920520000,22.3830120000 114.1919620000,22.3828960000 114.1918590000,22.3827960000 114.1910590000,22.3819460000 114.1910120000,22.3818730000 114.1908080000,22.3817040000 114.1907740000,22.3816820000 114.1907200000,22.3816650000 114.1906710000,22.3816620000 114.1906250000,22.3816720000 114.1900570000,22.3821060000 114.1899850000,22.3821660000 114.1898810000,22.3822530000 114.1894180000,22.3826610000 114.1893390000,22.3826620000 114.1892790000,22.3826550000 114.1892130000,22.3826200000 114.1891310000,22.3825500000 114.1889760000,22.3823950000 114.1888780000,22.3822850000 114.1887690000,22.3821850000 114.1887300000,22.3821440000 114.1886010000,22.3820230000 114.1884560000,22.3818670000 114.1883440000,22.3817470000 114.1880070000,22.3813810000 114.1877930000,22.3811480000 114.1877660000,22.3810850000 114.1877500000,22.3809990000 114.1877430000,22.3809330000 114.1877590000,22.3808370000 114.1879150000,22.3802130000 114.1880650000,22.3796640000 114.1881240000,22.3794540000 114.1881700000,22.3792760000 114.1881820000,22.3792170000 114.1881860000,22.3791730000 114.1881830000,22.3791320000 114.1881720000,22.3790850000 114.1881380000,22.3790400000 114.1880840000,22.3789880000 114.1875110000,22.3788710000 114.1862770000,22.3785520000 114.1861570000,22.3785220000 114.1859800000,22.3784780000 114.1853440000,22.3783040000 114.1848770000,22.3781770000 114.1843300000,22.3780410000 114.1833600000,22.3777810000 114.1825810000,22.3775410000 114.1821460000,22.3773940000 114.1817750000,22.3772900000 114.1814860000,22.3772230000 114.1812330000,22.3771200000 114.1810770000,22.3770870000 114.1806970000,22.3770780000 114.1803600000,22.3771100000 114.1796820000,22.3771880000 114.1792810000,22.3772180000 114.1791450000,22.3772190000 114.1788340000,22.3772150000 114.1786130000,22.3771440000 114.1781660000,22.3770100000 114.1777320000,22.3768610000 114.1774190000,22.3767440000 114.1771890000,22.3766370000 114.1769680000,22.3765280000 114.1767520000,22.3763950000 114.1765600000,22.3762580000 114.1763760000,22.3760930000 114.1762510000,22.3759510000 114.1761330000,22.3757340000 114.1760860000,22.3756360000 114.1760450000,22.3755360000 114.1759930000,22.3752710000 114.1756670000,22.3741290000 114.1753160000,22.3732420000 114.1751430000,22.3728130000 114.1749790000,22.3724690000 114.1748180000,22.3720320000 114.1747600000,22.3718580000 114.1746890000,22.3716530000 114.1746650000,22.3715850000 114.1745040000,22.3711910000 114.1743360000,22.3708080000 114.1742100000,22.3705610000 114.1740260000,22.3702380000 114.1737940000,22.3699260000 114.1734920000,22.3695240000 114.1720690000,22.3679170000 114.1719050000,22.3677360000 114.1718730000,22.3677060000 114.1717540000,22.3675940000 114.1714510000,22.3673010000 114.1712410000,22.3671300000 114.1710830000,22.3669950000 114.1705850000,22.3666650000 114.1700580000,22.3663920000 114.1696200000,22.3661870000 114.1693700000,22.3660800000 114.1690900000,22.3659700000 114.1688000000,22.3658700000 114.1679000000,22.3655600000 114.1676500000,22.3654680000 114.1674100000,22.3653700000 114.1671510000,22.3652590000 114.1668800000,22.3651200000 114.1666000000,22.3649610000 114.1663400000,22.3648000000 114.1661110000,22.3646300000 114.1658330000,22.3644190000 114.1655700000,22.3641900000 114.1652900000,22.3639200000 114.1650400000,22.3636500000 114.1647950000,22.3633420000 114.1645700000,22.3630300000 114.1644170000,22.3627720000 114.1642800000,22.3625400000 114.1641500000,22.3622800000 114.1640460000,22.3620400000 114.1638700000,22.3615800000 114.1637210000,22.3611110000 114.1635960000,22.3604240000 114.1634800000,22.3598630000 114.1633900000,22.3593350000 114.1633360000,22.3591380000 114.1631150000,22.3585280000 114.1628900000,22.3580470000 114.1628420000,22.3579440000 114.1627680000,22.3578120000 114.1612200000,22.3548600000 114.1609300000,22.3543480000 114.1606500000,22.3538990000 114.1602900000,22.3533700000 114.1598500000,22.3527830000 114.1593800000,22.3522300000 114.1588600000,22.3516800000 114.1582120000,22.3510800000 114.1575320000,22.3505200000 114.1568480000,22.3500100000 114.1560300000,22.3495000000 114.1552990000,22.3490900000 114.1545000000,22.3487000000 114.1540510000,22.3485090000 114.1536090000,22.3483400000 114.1529600000,22.3481200000 114.1525800000,22.3480000000 114.1521900000,22.3478900000 114.1514300000,22.3477100000 114.1502620000,22.3474600000 114.1499190000,22.3473730000 114.1496100000,22.3472800000 114.1491700000,22.3471300000 114.1489200000,22.3470310000 114.1486770000,22.3469230000 114.1484300000,22.3468000000 114.1482100000,22.3466700000 114.1476800000,22.3463200000 114.1473860000,22.3460910000 114.1467400000,22.3455350000 114.1464340000,22.3452630000 114.1459140000,22.3448280000 114.1457500000,22.3446990000 114.1447490000,22.3438260000 114.1443360000,22.3434030000 114.1442250000,22.3432760000 114.1441540000,22.3431810000 114.1439890000,22.3429410000 114.1438520000,22.3426830000 114.1436710000,22.3422940000 114.1436090000,22.3420990000 114.1435690000,22.3419180000 114.1435400000,22.3417790000 114.1435050000,22.3415490000 114.1435030000,22.3412850000 114.1435090000,22.3410750000 114.1435140000,22.3409550000 114.1435280000,22.3408150000 114.1436110000,22.3405150000 114.1437240000,22.3401940000 114.1438870000,22.3398040000 114.1441110000,22.3393440000 114.1443630000,22.3388750000 114.1445450000,22.3385180000 114.1446170000,22.3383590000 114.1446950000,22.3381300000 114.1447440000,22.3379760000 114.1447900000,22.3377480000 114.1448100000,22.3375340000 114.1448210000,22.3372800000 114.1448310000,22.3370040000 114.1448220000,22.3367250000 114.1448120000,22.3366120000 114.1448290000,22.3363340000 114.1448080000,22.3359920000 114.1447950000,22.3355460000 114.1448150000,22.3350510000 114.1448470000,22.3344940000 114.1448390000,22.3339050000 114.1448330000,22.3326030000 114.1448700000,22.3321190000 114.1449140000,22.3317840000 114.1449270000,22.3316830000 114.1449700000,22.3315250000 114.1450250000,22.3313930000 114.1451020000,22.3312730000 114.1452250000,22.3311440000 114.1453490000,22.3310510000 114.1455680000,22.3309560000 114.1459050000,22.3308360000 114.1473900000,22.3302710000 114.1475820000,22.3302310000 114.1476800000,22.3302380000 114.1477990000,22.3302730000 114.1479200000,22.3303450000 114.1480280000,22.3304730000 114.1481870000,22.3307510000 114.1485050000,22.3314030000 114.1485280000,22.3314390000 114.1486220000,22.3315440000 114.1486470000,22.3316010000 114.1487080000,22.3317170000 114.1487950000,22.3318780000 114.1490650000,22.3322920000 114.1491970000,22.3324960000 114.1495100000,22.3329390000 114.1498510000,22.3333630000 114.1499700000,22.3335090000 114.1505350000,22.3341480000 114.1506940000,22.3343000000 114.1507900000,22.3343620000 114.1508510000,22.3344310000 114.1509280000,22.3345170000 114.1512670000,22.3349000000 114.1515900000,22.3352410000 114.1516110000,22.3352630000 114.1517110000,22.3353700000 114.1518010000,22.3354610000 114.1518570000,22.3355190000 114.1518850000,22.3355490000 114.1521980000,22.3358730000 114.1523480000,22.3360350000 114.1531060000,22.3368160000 114.1532010000,22.3370070000 114.1533990000,22.3372420000 114.1534300000,22.3372800000 114.1535590000,22.3374270000 114.1536360000,22.3375360000 114.1537460000,22.3374520000 114.1539090000,22.3373250000 114.1540790000,22.3371930000 114.1545640000,22.3368150000 114.1550440000,22.3364410000 114.1552120000,22.3363130000 114.1552870000,22.3362520000 114.1553360000,22.3362140000 114.1554930000,22.3360920000 114.1555360000,22.3360590000 114.1556360000,22.3359830000 114.1557320000,22.3359080000 114.1562790000,22.3354840000 114.1563120000,22.3354580000 114.1564190000,22.3353760000 114.1564430000,22.3353590000 114.1571360000,22.3348180000 114.1572200000,22.3347520000 114.1572980000,22.3347010000 114.1573990000,22.3346180000 114.1575920000,22.3344660000 114.1583380000,22.3338920000 114.1586490000,22.3336410000 114.1591120000,22.3332800000 114.1591530000,22.3332470000 114.1592260000,22.3331900000 114.1596250000,22.3328790000 114.1596780000,22.3328380000 114.1600840000,22.3325260000 114.1601470000,22.3325970000 114.1604800000,22.3329720000 114.1606420000,22.3328450000 114.1613600000,22.3322810000 114.1614310000,22.3322280000 114.1611500000,22.3319150000 114.1611180000,22.3318770000 114.1610400000,22.3317890000 114.1609570000,22.3316960000 114.1608700000,22.3315940000 114.1606100000,22.3312910000 114.1603020000,22.3309410000 114.1602620000,22.3308620000 114.1599060000,22.3304490000 114.1597670000,22.3302920000 114.1595600000,22.3300480000 114.1593530000,22.3298200000 114.1593300000,22.3297960000 114.1592070000,22.3296650000 114.1591460000,22.3295930000 114.1590600000,22.3294980000 114.1587890000,22.3291970000 114.1587550000,22.3291590000 114.1587370000,22.3291400000 114.1586540000,22.3290580000 114.1584740000,22.3288570000 114.1584260000,22.3288040000 114.1583260000,22.3286970000 114.1582490000,22.3286360000 114.1579960000,22.3283510000 114.1579640000,22.3283120000 114.1579130000,22.3282560000 114.1575830000,22.3278830000 114.1575630000,22.3278610000 114.1572980000,22.3275500000 114.1571680000,22.3274090000 114.1567690000,22.3269700000 114.1566860000,22.3268790000 114.1566370000,22.3268250000 114.1563800000,22.3265500000 114.1562680000,22.3266020000 114.1561400000,22.3267050000 114.1560690000,22.3267230000 114.1558900000,22.3267000000 114.1558200000,22.3266980000 114.1557900000,22.3267100000 114.1557600000,22.3267500000 114.1557510000,22.3268100000 114.1557810000,22.3268600000 114.1558960000,22.3269860000 114.1559730000,22.3270700000 114.1560400000,22.3270940000 114.1560900000,22.3270800000 114.1561300000,22.3270500000 114.1561410000,22.3270000000 114.1561400000,22.3268300000 114.1561500000,22.3267800000 114.1561800000,22.3267390000 114.1562000000,22.3267200000 114.1562400000,22.3267000000 114.1563220000,22.3266680000 114.1564960000,22.3268510000 114.1565510000,22.3269100000 114.1565900000,22.3269550000 114.1568510000,22.3272290000 114.1570870000,22.3274870000 114.1572060000,22.3276180000 114.1577580000,22.3282560000 114.1577920000,22.3282940000 114.1578210000,22.3283290000 114.1578970000,22.3283790000 114.1581310000,22.3286440000 114.1581740000,22.3286930000 114.1582580000,22.3287510000 114.1583540000,22.3288560000 114.1584660000,22.3289820000 114.1585610000,22.3290780000 114.1586000000,22.3291220000 114.1586570000,22.3292070000 114.1586750000,22.3292270000 114.1589530000,22.3295390000 114.1589740000,22.3295630000 114.1590430000,22.3296410000 114.1591200000,22.3297250000 114.1592170000,22.3298310000 114.1594720000,22.3301200000 114.1595080000,22.3301600000 114.1597830000,22.3304710000 114.1598850000,22.3305850000 114.1599670000,22.3306790000 114.1600990000,22.3308750000 114.1601600000,22.3309430000 114.1601740000,22.3309590000 114.1603810000,22.3311920000 114.1607530000,22.3316110000 114.1607920000,22.3316550000 114.1608800000,22.3317540000 114.1608040000,22.3318130000 114.1602330000,22.3322520000 114.1600780000,22.3323710000 114.1597500000,22.3326270000 114.1591190000,22.3331180000 114.1591050000,22.3331290000 114.1590660000,22.3331600000 114.1586680000,22.3334690000 114.1586160000,22.3335100000 114.1585460000,22.3335650000 114.1583150000,22.3337440000 114.1575840000,22.3343150000 114.1574770000,22.3343960000 114.1574310000,22.3344320000 114.1573060000,22.3345250000 114.1572090000,22.3346010000 114.1570980000,22.3346960000 114.1563230000,22.3353030000 114.1562790000,22.3353370000 114.1559960000,22.3355550000 114.1559220000,22.3356120000 114.1558520000,22.3356660000 114.1555020000,22.3359410000 114.1554360000,22.3359940000 114.1552620000,22.3361260000 114.1552040000,22.3361700000 114.1551030000,22.3362410000 114.1538210000,22.3372230000 114.1537860000,22.3372510000 114.1536520000,22.3373560000 114.1535590000,22.3374270000 114.1528600000,22.3379970000 114.1528290000,22.3380220000 114.1527240000,22.3381080000 114.1525220000,22.3382400000 114.1523220000,22.3383730000 114.1522470000,22.3383970000 114.1521140000,22.3384390000 114.1520220000,22.3384680000 114.1517540000,22.3384650000 114.1515390000,22.3384270000 114.1513250000,22.3383580000 114.1511910000,22.3383160000 114.1510690000,22.3382750000 114.1510230000,22.3382580000 114.1509150000,22.3382180000 114.1507290000,22.3381480000 114.1506190000,22.3381090000 114.1505060000,22.3380670000 114.1505020000,22.3380650000 114.1496510000,22.3377660000 114.1496120000,22.3377520000 114.1494140000,22.3376830000 114.1492940000,22.3376420000 114.1482860000,22.3372960000 114.1480540000,22.3372150000 114.1479910000,22.3371930000 114.1478230000,22.3371340000 114.1475380000,22.3370330000 114.1473700000,22.3369750000 114.1472300000,22.3369260000 114.1467030000,22.3367430000 114.1462130000,22.3365760000 114.1459240000,22.3364740000 114.1457050000,22.3364030000 114.1452750000,22.3363370000 114.1449720000,22.3363050000 114.1447420000,22.3363490000 114.1445860000,22.3364340000 114.1443400000,22.3366580000 114.1441980000,22.3367310000 114.1440730000,22.3367800000 114.1438910000,22.3368030000 114.1437330000,22.3368140000 114.1432630000,22.3368030000 114.1430230000,22.3368300000 114.1428510000,22.3368550000 114.1424310000,22.3369650000 114.1422820000,22.3370510000 114.1421420000,22.3371830000 114.1419920000,22.3374130000 114.1417810000,22.3377770000 114.1417250000,22.3378740000 114.1417140000,22.3378950000 114.1416910000,22.3379340000 114.1414400000,22.3383840000 114.1414020000,22.3384820000 114.1413810000,22.3386050000 114.1413810000,22.3387720000 114.1414190000,22.3389370000 114.1415120000,22.3391170000 114.1415660000,22.3392000000 114.1416230000,22.3392870000 114.1417910000,22.3394940000 114.1418870000,22.3396560000 114.1419410000,22.3397710000 114.1419450000,22.3399060000 114.1418970000,22.3401190000 114.1418420000,22.3402270000 114.1417320000,22.3404250000 114.1416520000,22.3405040000 114.1416120000,22.3405330000 114.1415840000,22.3405450000 114.1414920000,22.3405690000 114.1413770000,22.3405280000 114.1413090000,22.3404820000 114.1412620000,22.3404110000 114.1412540000,22.3403590000 114.1412690000,22.3402920000 114.1413420000,22.3402170000 114.1414340000,22.3401840000 114.1415420000,22.3401990000 114.1417950000,22.3403170000 114.1422470000,22.3407150000 114.1426830000,22.3410890000 114.1429160000,22.3413110000 114.1430330000,22.3414380000 114.1431130000,22.3415580000 114.1432000000,22.3417070000 114.1434040000,22.3422780000 114.1435310000,22.3426230000 114.1436780000,22.3429290000 114.1438480000,22.3431950000 114.1440010000,22.3433690000 114.1442130000,22.3435190000 114.1446410000,22.3439360000 114.1446680000,22.3439610000 114.1450020000,22.3442660000 114.1456120000,22.3448340000 114.1456970000,22.3449100000 114.1457520000,22.3449590000 114.1459200000,22.3451230000 114.1462480000,22.3454420000 114.1464890000,22.3456780000 114.1466010000,22.3457880000 114.1467590000,22.3459330000 114.1471820000,22.3463170000 114.1472160000,22.3463480000 114.1474870000,22.3465700000 114.1478600000,22.3468200000 114.1480950000,22.3469660000 114.1483600000,22.3471100000 114.1486310000,22.3472480000 114.1488980000,22.3473630000 114.1492700000,22.3475000000 114.1496380000,22.3476140000 114.1500690000,22.3477270000 114.1514100000,22.3480100000 114.1518200000,22.3481100000 114.1522400000,22.3482220000 114.1530420000,22.3484880000 114.1535900000,22.3486900000 114.1539920000,22.3488590000 114.1543900000,22.3490400000 114.1551890000,22.3494300000 114.1558680000,22.3498200000 114.1566010000,22.3503100000 114.1572490000,22.3507900000 114.1579200000,22.3513500000 114.1585400000,22.3519300000 114.1590400000,22.3524600000 114.1595110000,22.3530080000 114.1599400000,22.3535800000 114.1602900000,22.3540900000 114.1605600000,22.3545100000 114.1608500000,22.3550100000 114.1623980000,22.3579800000 114.1625870000,22.3583930000 114.1627360000,22.3588130000 114.1628590000,22.3592180000 114.1629260000,22.3594490000 114.1629340000,22.3595080000 114.1629720000,22.3596720000 114.1631730000,22.3602900000 114.1632390000,22.3604030000 114.1634310000,22.3611520000 114.1634400000,22.3611800000 114.1635500000,22.3616200000 114.1637400000,22.3621300000 114.1639800000,22.3626430000 114.1642800000,22.3631500000 114.1646150000,22.3636200000 114.1648070000,22.3638500000 114.1650150000,22.3640800000 114.1653090000,22.3643700000 114.1656400000,22.3646600000 114.1659100000,22.3648700000 114.1661810000,22.3650580000 114.1666820000,22.3653600000 114.1670970000,22.3655600000 114.1675900000,22.3657700000 114.1679900000,22.3659120000 114.1688000000,22.3661700000 114.1690800000,22.3662700000 114.1693300000,22.3663700000 114.1695600000,22.3664700000 114.1699900000,22.3666700000 114.1704540000,22.3668960000 114.1706150000,22.3669890000 114.1709500000,22.3672100000 114.1710980000,22.3673240000 114.1713030000,22.3674350000 114.1715850000,22.3676450000 114.1717410000,22.3677870000 114.1717980000,22.3678320000 114.1719980000,22.3680040000 114.1733920000,22.3695940000 114.1736900000,22.3699800000 114.1739100000,22.3702970000 114.1740480000,22.3705280000 114.1742220000,22.3708570000 114.1743380000,22.3711720000 114.1744830000,22.3716770000 114.1744980000,22.3717300000 114.1746150000,22.3720910000 114.1747560000,22.3725380000 114.1752980000,22.3736760000 114.1754220000,22.3742500000 114.1755410000,22.3746230000 114.1757350000,22.3754690000 114.1757930000,22.3757000000 114.1758790000,22.3759140000 114.1759610000,22.3760750000 114.1760240000,22.3762730000 114.1760190000,22.3763660000 114.1759940000,22.3764690000 114.1759530000,22.3765390000 114.1758990000,22.3765910000 114.1757950000,22.3766380000 114.1756610000,22.3766360000 114.1754940000,22.3766220000 114.1754260000,22.3765970000 114.1753860000,22.3765510000 114.1753450000,22.3764920000 114.1753340000,22.3764040000 114.1753400000,22.3762920000 114.1754860000,22.3760660000 114.1756640000,22.3759370000 114.1757900000,22.3758840000 114.1759680000,22.3758790000 114.1761460000,22.3759650000 114.1763260000,22.3761550000 114.1766380000,22.3764400000 114.1767560000,22.3765420000 114.1768610000,22.3766160000 114.1772280000,22.3768720000 114.1774660000,22.3769790000 114.1780280000,22.3771810000 114.1784520000,22.3772960000 114.1788510000,22.3773610000 114.1792130000,22.3774350000 114.1794670000,22.3774710000 114.1796640000,22.3774830000 114.1797740000,22.3774820000 114.1802050000,22.3774480000 114.1806070000,22.3773850000 114.1808870000,22.3773470000 114.1812620000,22.3773330000 114.1814760000,22.3773410000 114.1817410000,22.3773800000 114.1819450000,22.3774250000 114.1821170000,22.3774740000 114.1821910000,22.3774940000 114.1825720000,22.3776140000 114.1833310000,22.3778460000 114.1843020000,22.3780890000 114.1848640000,22.3782410000 114.1853460000,22.3784060000 114.1859540000,22.3785690000 114.1861340000,22.3786080000 114.1862520000,22.3786360000 114.1865910000,22.3787140000 114.1868690000,22.3787920000 114.1872760000,22.3788950000 114.1873340000,22.3789410000 114.1873560000,22.3789790000 114.1873710000,22.3790090000 114.1873820000,22.3790310000 114.1873850000,22.3790830000 114.1870590000,22.3802590000 114.1870510000,22.3803640000 114.1870680000,22.3804700000 114.1871320000,22.3806040000 114.1872380000,22.3807330000 114.1874000000,22.3808900000 114.1875670000,22.3810480000 114.1880110000,22.3815120000 114.1882850000,22.3817870000 114.1885390000,22.3820640000 114.1888060000,22.3823360000 114.1888610000,22.3823970000 114.1889120000,22.3824510000 114.1890100000,22.3825710000 114.1892470000,22.3828120000 114.1897710000,22.3833820000 114.1900210000,22.3831750000 114.1901740000,22.3830490000 114.1909940000,22.3823480000 114.1910930000,22.3823350000 114.1911400000,22.3823310000 114.1912050000,22.3823450000 114.1912530000,22.3823790000 114.1916610000,22.3827910000 114.1917580000,22.3828850000 114.1918470000,22.3829740000 114.1925980000,22.3837430000 114.1926430000,22.3837900000 114.1937530000,22.3849500000 114.1940070000,22.3852240000 114.1943740000,22.3856320000 114.1949340000,22.3862330000 114.1955890000,22.3869240000 114.1956820000,22.3870150000 114.1963740000,22.3877330000 114.1964150000,22.3877770000 114.1969050000,22.3882850000 114.1969700000,22.3883480000 114.1970250000,22.3883940000 114.1971290000,22.3884820000 114.1972790000,22.3885970000 114.1974170000,22.3886900000 114.1975640000,22.3887760000 114.1976250000,22.3888140000 114.1980670000,22.3890590000 114.1972270000,22.3904190000 114.1969840000,22.3908620000 114.1969320000,22.3910250000 114.1968440000,22.3913400000 114.1967990000,22.3915760000 114.1967800000,22.3917180000 114.1967720000,22.3918280000 114.1967610000,22.3920100000 114.1967420000,22.3923680000 114.1967380000,22.3924660000 114.1967260000,22.3926980000 114.1966940000,22.3933760000 114.1966760000,22.3937520000 114.1966130000,22.3941780000 114.1965210000,22.3945170000 114.1964250000,22.3948170000 114.1962170000,22.3952570000 114.1959090000,22.3956920000 114.1955630000,22.3960550000 114.1950440000,22.3965780000 114.1947850000,22.3967970000 114.1941370000,22.3973760000 114.1941260000,22.3973870000 114.1940020000,22.3975050000 114.1930190000,22.3983950000 114.1929100000,22.3984230000 114.1928330000,22.3984150000 114.1927400000,22.3983600000 114.1926050000,22.3983020000 114.1922440000,22.3979490000 114.1919960000,22.3976750000 114.1916830000,22.3974030000 114.1915740000,22.3972730000 114.1914770000,22.3971650000 114.1914450000,22.3971070000 114.1914240000,22.3970490000 114.1915370000,22.3969500000 114.1916740000,22.3969140000 114.1919880000,22.3968820000 114.1922690000,22.3967790000 114.1923860000,22.3967230000 114.1924780000,22.3966650000 114.1925340000,22.3965910000 114.1925960000,22.3965230000 114.1926310000,22.3964520000 114.1926960000,22.3963580000 114.1927750000,22.3962310000 114.1929650000,22.3958730000 114.1930460000,22.3956780000 114.1931240000,22.3954770000 114.1931560000,22.3953580000 114.1932640000,22.3948790000 114.1933080000,22.3946870000 114.1933120000,22.3946760000 114.1933700000,22.3945220000 114.1934800000,22.3942960000 114.1935600000,22.3940460000 114.1936330000,22.3936200000 114.1936520000,22.3935030000 114.1936790000,22.3934030000 114.1937180000,22.3933110000 114.1937890000,22.3932010000 114.1939230000,22.3930600000 114.1939800000,22.3929920000 114.1940110000,22.3929220000 114.1940430000,22.3928170000 114.1940460000,22.3927280000 114.1940290000,22.3926140000 114.1940070000,22.3925230000 114.1939590000,22.3924160000 114.1938880000,22.3923260000 114.1937920000,22.3922480000 114.1936790000,22.3921790000 114.1935530000,22.3921250000 114.1934040000,22.3920990000 114.1932730000,22.3921030000 114.1931390000,22.3921440000 114.1930170000,22.3922040000 114.1929070000,22.3922860000 114.1928270000,22.3923760000 114.1927660000,22.3924730000 114.1927450000,22.3925510000 114.1927350000,22.3926550000 114.1927430000,22.3927470000 114.1927760000,22.3928810000 114.1928650000,22.3931060000 114.1929190000,22.3932410000 114.1929500000,22.3933420000 114.1929570000,22.3934340000 114.1929450000,22.3935340000 114.1929140000,22.3936410000 114.1928750000,22.3937230000 114.1928410000,22.3937830000 114.1927940000,22.3938540000 114.1927140000,22.3939500000 114.1925130000,22.3941710000 114.1924070000,22.3942680000 114.1923660000,22.3943000000 114.1923120000,22.3943370000 114.1921990000,22.3943840000 114.1920970000,22.3943990000 114.1919370000,22.3944010000 114.1918420000,22.3943890000 114.1917070000,22.3943420000 114.1915980000,22.3942780000 114.1913530000,22.3941100000 114.1911510000,22.3940550000 114.1910220000,22.3939550000 114.1909130000,22.3938090000 114.1908310000,22.3935530000 114.1907090000,22.3931560000 114.1905620000,22.3925990000 114.1904850000,22.3923480000 114.1904100000,22.3922070000 114.1902970000,22.3920760000 114.1901350000,22.3919580000 114.1899360000,22.3919050000 114.1897870000,22.3919020000 114.1896550000,22.3919310000 114.1895180000,22.3920010000 114.1894000000,22.3921210000 114.1892910000,22.3922720000 114.1892300000,22.3924610000 114.1891340000,22.3930330000 114.1891110000,22.3931790000 114.1890510000,22.3933480000 114.1890280000,22.3933930000 114.1888780000,22.3935580000 114.1887500000,22.3936380000 114.1886240000,22.3936800000 114.1884650000,22.3936980000 114.1881520000,22.3936700000 114.1880360000,22.3936460000 114.1875530000,22.3935700000 114.1868010000,22.3934250000 114.1862840000,22.3933240000 114.1857250000,22.3933350000 114.1855260000,22.3932830000 114.1853870000,22.3931610000 114.1853170000,22.3930240000 114.1852850000,22.3928740000 114.1852910000,22.3926960000 114.1853260000,22.3925080000 114.1853940000,22.3923620000 114.1855120000,22.3921720000 114.1856370000,22.3920900000 114.1857620000,22.3920520000 114.1859390000,22.3920300000 114.1862000000,22.3920230000 114.1864500000,22.3920500000 114.1866920000,22.3920710000 114.1869210000,22.3920550000 114.1871160000,22.3920330000 114.1872660000,22.3919980000 114.1875190000,22.3919310000 114.1876970000,22.3918810000 114.1878440000,22.3917990000 114.1879500000,22.3916800000 114.1880100000,22.3915380000 114.1880070000,22.3911840000 114.1880040000,22.3909580000 114.1880130000,22.3908480000 114.1880420000,22.3907760000 114.1880760000,22.3907310000 114.1881840000,22.3907320000 114.1881830000,22.3906400000</coordinates>
                </LineString>
                <ExtendedData>
                    <Data name="duration">
                        <value>01:18:00</value>
                    </Data>
                    <Data name="length">
                        <value>33549.31149574351</value>
                    </Data>
                </ExtendedData>
            </Placemark>
        </Document>
    </Document>
</kml>