<?xml version="1.0" encoding="UTF-8"?>
<kml xmlns="http://www.opengis.net/kml/2.2" xmlns:gx="http://www.google.com/kml/ext/2.2">
    <Document>
        <name>Route</name>
        <Folder>
            <name>Route Request</name>
            <Placemark>
                <Point>
                    <coordinates>114.1688866837,22.3757474072</coordinates>
                </Point>
                <ExtendedData>
                    <Data name="routingVisited">
                        <value>false</value>
                    </Data>
                </ExtendedData>
            </Placemark>
            <Placemark>
                <Point>
                    <coordinates>114.1728752984,22.3802007452</coordinates>
                </Point>
            </Placemark>
            <Placemark>
                <Point>
                    <coordinates>114.1723286422,22.3678084808</coordinates>
                </Point>
            </Placemark>
            <Placemark>
                <address>S.K.H. Kei Fook Primary School, 555, Cheung Sha Wan Road, Cheung Sha Wan, Sham Shui Po District, Hong Kong, KIL 3348, PRC</address>
                <Point>
                    <coordinates>114.1553853902,22.3361414784</coordinates>
                </Point>
                <ExtendedData>
                    <Data name="country">
                        <value>PRC</value>
                    </Data>
                    <Data name="suburb">
                        <value>Cheung Sha Wan</value>
                    </Data>
                    <Data name="postcode">
                        <value>KIL 3348</value>
                    </Data>
                    <Data name="road">
                        <value>Cheung Sha Wan Road</value>
                    </Data>
                    <Data name="country_code">
                        <value>cn</value>
                    </Data>
                    <Data name="county">
                        <value>Sham Shui Po District</value>
                    </Data>
                    <Data name="house_number">
                        <value>555</value>
                    </Data>
                    <Data name="school">
                        <value>S.K.H. Kei Fook Primary School</value>
                    </Data>
                </ExtendedData>
            </Placemark>
            <Placemark>
                <address>134-136, Sai Yeung Choi Street South, Mong Kok, Yau Tsim Mong District, Hong Kong, KIL 3348, PRC</address>
                <Point>
                    <coordinates>114.1700341119,22.3200216586</coordinates>
                </Point>
                <ExtendedData>
                    <Data name="country">
                        <value>PRC</value>
                    </Data>
                    <Data name="suburb">
                        <value>Mong Kok</value>
                    </Data>
                    <Data name="postcode">
                        <value>KIL 3348</value>
                    </Data>
                    <Data name="road">
                        <value>Sai Yeung Choi Street South</value>
                    </Data>
                    <Data name="country_code">
                        <value>cn</value>
                    </Data>
                    <Data name="house_number">
                        <value>134-136</value>
                    </Data>
                    <Data name="county">
                        <value>Yau Tsim Mong District</value>
                    </Data>
                </ExtendedData>
            </Placemark>
            <Placemark>
                <address>Block 11, Hoi Wang Road, Yau Ma Tei, Yau Tsim Mong District, Hong Kong, KIL 3348, PRC</address>
                <Point>
                    <coordinates>114.1646087700,22.3136104265</coordinates>
                </Point>
                <ExtendedData>
                    <Data name="country">
                        <value>PRC</value>
                    </Data>
                    <Data name="suburb">
                        <value>Yau Ma Tei</value>
                    </Data>
                    <Data name="postcode">
                        <value>KIL 3348</value>
                    </Data>
                    <Data name="road">
                        <value>Hoi Wang Road</value>
                    </Data>
                    <Data name="country_code">
                        <value>cn</value>
                    </Data>
                    <Data name="building">
                        <value>Block 11</value>
                    </Data>
                    <Data name="county">
                        <value>Yau Tsim Mong District</value>
                    </Data>
                </ExtendedData>
            </Placemark>
            <Placemark>
                <address>Midland Realty, Hoi Wang Road, Yau Ma Tei, Yau Tsim Mong District, Hong Kong, KIL 3348, PRC</address>
                <Point>
                    <coordinates>114.1640501855,22.3149663634</coordinates>
                </Point>
                <ExtendedData>
                    <Data name="country">
                        <value>PRC</value>
                    </Data>
                    <Data name="address29">
                        <value>Midland Realty</value>
                    </Data>
                    <Data name="suburb">
                        <value>Yau Ma Tei</value>
                    </Data>
                    <Data name="postcode">
                        <value>KIL 3348</value>
                    </Data>
                    <Data name="road">
                        <value>Hoi Wang Road</value>
                    </Data>
                    <Data name="country_code">
                        <value>cn</value>
                    </Data>
                    <Data name="county">
                        <value>Yau Tsim Mong District</value>
                    </Data>
                </ExtendedData>
            </Placemark>
            <Placemark>
                <address>Hoi Wang Road, Mong Kok, Yau Tsim Mong District, Hong Kong, KIL 3348, PRC</address>
                <Point>
                    <coordinates>114.1635481307,22.3155400973</coordinates>
                </Point>
                <ExtendedData>
                    <Data name="country">
                        <value>PRC</value>
                    </Data>
                    <Data name="suburb">
                        <value>Mong Kok</value>
                    </Data>
                    <Data name="postcode">
                        <value>KIL 3348</value>
                    </Data>
                    <Data name="road">
                        <value>Hoi Wang Road</value>
                    </Data>
                    <Data name="country_code">
                        <value>cn</value>
                    </Data>
                    <Data name="county">
                        <value>Yau Tsim Mong District</value>
                    </Data>
                </ExtendedData>
            </Placemark>
            <Placemark>
                <address>Mayfair Centre, Anchor Street, Mong Kok, Yau Tsim Mong District, Hong Kong, KIL 3348, China</address>
                <Point>
                    <coordinates>114.1646567033,22.3204232108</coordinates>
                </Point>
                <ExtendedData>
                    <Data name="country">
                        <value>China</value>
                    </Data>
                    <Data name="suburb">
                        <value>Mong Kok</value>
                    </Data>
                    <Data name="postcode">
                        <value>KIL 3348</value>
                    </Data>
                    <Data name="road">
                        <value>Anchor Street</value>
                    </Data>
                    <Data name="country_code">
                        <value>cn</value>
                    </Data>
                    <Data name="county">
                        <value>Yau Tsim Mong District</value>
                    </Data>
                    <Data name="mall">
                        <value>Mayfair Centre</value>
                    </Data>
                </ExtendedData>
            </Placemark>
            <Placemark>
                <address>CCB, Nathan Road, Mong Kok, Yau Tsim Mong District, Hong Kong, KIL 3348, PRC</address>
                <Point>
                    <coordinates>114.1678331022,22.3261082280</coordinates>
                </Point>
                <ExtendedData>
                    <Data name="country">
                        <value>PRC</value>
                    </Data>
                    <Data name="bank">
                        <value>CCB</value>
                    </Data>
                    <Data name="suburb">
                        <value>Mong Kok</value>
                    </Data>
                    <Data name="postcode">
                        <value>KIL 3348</value>
                    </Data>
                    <Data name="road">
                        <value>Nathan Road</value>
                    </Data>
                    <Data name="country_code">
                        <value>cn</value>
                    </Data>
                    <Data name="county">
                        <value>Yau Tsim Mong District</value>
                    </Data>
                </ExtendedData>
            </Placemark>
            <Placemark>
                <address>Trade Square, 681, Cheung Sha Wan Road, Cheung Sha Wan, Sham Shui Po District, Hong Kong, KIL 3348, China</address>
                <Point>
                    <coordinates>114.1541321745,22.3367638707</coordinates>
                </Point>
                <ExtendedData>
                    <Data name="country">
                        <value>China</value>
                    </Data>
                    <Data name="suburb">
                        <value>Cheung Sha Wan</value>
                    </Data>
                    <Data name="postcode">
                        <value>KIL 3348</value>
                    </Data>
                    <Data name="road">
                        <value>Cheung Sha Wan Road</value>
                    </Data>
                    <Data name="building">
                        <value>Trade Square</value>
                    </Data>
                    <Data name="country_code">
                        <value>cn</value>
                    </Data>
                    <Data name="house_number">
                        <value>681</value>
                    </Data>
                    <Data name="county">
                        <value>Sham Shui Po District</value>
                    </Data>
                </ExtendedData>
            </Placemark>
            <Placemark>
                <address>Cheung Lai Street, Cheung Sha Wan Road, Cheung Sha Wan, Sham Shui Po District, Hong Kong, 852, China</address>
                <Point>
                    <coordinates>114.1472666405,22.3368295102</coordinates>
                </Point>
                <ExtendedData>
                    <Data name="country">
                        <value>China</value>
                    </Data>
                    <Data name="suburb">
                        <value>Cheung Sha Wan</value>
                    </Data>
                    <Data name="postcode">
                        <value>852</value>
                    </Data>
                    <Data name="road">
                        <value>Cheung Sha Wan Road</value>
                    </Data>
                    <Data name="country_code">
                        <value>cn</value>
                    </Data>
                    <Data name="bus_stop">
                        <value>Cheung Lai Street</value>
                    </Data>
                    <Data name="county">
                        <value>Sham Shui Po District</value>
                    </Data>
                </ExtendedData>
            </Placemark>
            <Placemark>
                <Point>
                    <coordinates>114.1768343394,22.3736386028</coordinates>
                </Point>
            </Placemark>
            <Placemark>
                <address>523, Mei Tin Road, Tai Wai, Tai Wai New Village, Sha Tin District, Hong Kong, DD186 487, China</address>
                <Point>
                    <coordinates>114.1728900715,22.3802144056</coordinates>
                </Point>
                <ExtendedData>
                    <Data name="country">
                        <value>China</value>
                    </Data>
                    <Data name="suburb">
                        <value>Tai Wai</value>
                    </Data>
                    <Data name="postcode">
                        <value>DD186 487</value>
                    </Data>
                    <Data name="road">
                        <value>Mei Tin Road</value>
                    </Data>
                    <Data name="post_box">
                        <value>523</value>
                    </Data>
                    <Data name="country_code">
                        <value>cn</value>
                    </Data>
                    <Data name="hamlet">
                        <value>Tai Wai New Village</value>
                    </Data>
                    <Data name="county">
                        <value>Sha Tin District</value>
                    </Data>
                </ExtendedData>
            </Placemark>
            <Placemark>
                <address>Heung Fan Liu Street, Tai Wai, Heung Fan Liu New Village, Sha Tin District, Hong Kong, DD186 487, China</address>
                <Point>
                    <coordinates>114.1689014567,22.3757337471</coordinates>
                </Point>
                <ExtendedData>
                    <Data name="country">
                        <value>China</value>
                    </Data>
                    <Data name="suburb">
                        <value>Tai Wai</value>
                    </Data>
                    <Data name="postcode">
                        <value>DD186 487</value>
                    </Data>
                    <Data name="road">
                        <value>Heung Fan Liu Street</value>
                    </Data>
                    <Data name="country_code">
                        <value>cn</value>
                    </Data>
                    <Data name="hamlet">
                        <value>Heung Fan Liu New Village</value>
                    </Data>
                    <Data name="county">
                        <value>Sha Tin District</value>
                    </Data>
                </ExtendedData>
            </Placemark>
        </Folder>
        <Document>
            <name>29.7 km; 01:42 h (OSRM)</name>
            <Placemark>
                <name>Route</name>
                <LineString>
                    <coordinates>114.1689390000,22.3756850000 114.1689050000,22.3756610000 114.1688250000,22.3756670000 114.1687640000,22.3757420000 114.1687850000,22.3758140000 114.1688410000,22.3758530000 114.1691030000,22.3759320000 114.1696400000,22.3761250000 114.1696540000,22.3761300000 114.1697570000,22.3761690000 114.1701690000,22.3763250000 114.1703630000,22.3764000000 114.1709950000,22.3766390000 114.1720800000,22.3770190000 114.1724510000,22.3771360000 114.1730330000,22.3773200000 114.1732810000,22.3774220000 114.1735390000,22.3774880000 114.1738030000,22.3775270000 114.1738090000,22.3775280000 114.1739580000,22.3775500000 114.1740410000,22.3776080000 114.1741340000,22.3776590000 114.1741810000,22.3776990000 114.1741950000,22.3777270000 114.1742190000,22.3778110000 114.1742120000,22.3778750000 114.1740440000,22.3781970000 114.1739980000,22.3783320000 114.1738520000,22.3787560000 114.1738120000,22.3788640000 114.1737390000,22.3790640000 114.1736990000,22.3792500000 114.1736510000,22.3794640000 114.1736000000,22.3794810000 114.1735850000,22.3794860000 114.1735710000,22.3794900000 114.1735360000,22.3795010000 114.1734360000,22.3795320000 114.1733680000,22.3795970000 114.1732450000,22.3797140000 114.1731350000,22.3798130000 114.1729580000,22.3799750000 114.1728100000,22.3799920000 114.1727290000,22.3800400000 114.1727060000,22.3801420000 114.1728200000,22.3801910000 114.1728750000,22.3801760000 114.1730540000,22.3804410000 114.1728870000,22.3801940000 114.1728750000,22.3801760000 114.1729290000,22.3801410000 114.1729500000,22.3800540000 114.1729580000,22.3799750000 114.1731350000,22.3798130000 114.1732450000,22.3797140000 114.1733680000,22.3795970000 114.1734360000,22.3795320000 114.1735360000,22.3795010000 114.1735710000,22.3794900000 114.1735850000,22.3794860000 114.1736000000,22.3794810000 114.1736510000,22.3794640000 114.1736990000,22.3792500000 114.1737390000,22.3790640000 114.1738120000,22.3788640000 114.1738520000,22.3787560000 114.1739980000,22.3783320000 114.1741090000,22.3782240000 114.1743270000,22.3778350000 114.1743530000,22.3778000000 114.1744330000,22.3776890000 114.1748770000,22.3770330000 114.1751430000,22.3765960000 114.1753400000,22.3762920000 114.1754860000,22.3760660000 114.1756950000,22.3757430000 114.1757070000,22.3757240000 114.1757740000,22.3756100000 114.1758640000,22.3754770000 114.1760640000,22.3751610000 114.1763750000,22.3746800000 114.1767010000,22.3742100000 114.1769690000,22.3738490000 114.1771840000,22.3735720000 114.1776510000,22.3729740000 114.1778680000,22.3726960000 114.1781960000,22.3722860000 114.1782630000,22.3721980000 114.1784190000,22.3719900000 114.1784350000,22.3719710000 114.1785270000,22.3718640000 114.1786650000,22.3717500000 114.1787270000,22.3716910000 114.1787630000,22.3716950000 114.1788110000,22.3716780000 114.1788830000,22.3716400000 114.1789420000,22.3715860000 114.1789830000,22.3715190000 114.1790240000,22.3714030000 114.1790150000,22.3713710000 114.1790030000,22.3713130000 114.1789390000,22.3712270000 114.1788730000,22.3711690000 114.1787760000,22.3711480000 114.1787240000,22.3711460000 114.1786530000,22.3711470000 114.1786030000,22.3711540000 114.1785010000,22.3711300000 114.1784100000,22.3711000000 114.1782740000,22.3710510000 114.1780780000,22.3709440000 114.1774200000,22.3704990000 114.1767860000,22.3700760000 114.1762280000,22.3696590000 114.1756300000,22.3691220000 114.1752980000,22.3688210000 114.1751700000,22.3687130000 114.1750420000,22.3686170000 114.1748430000,22.3684800000 114.1746260000,22.3683660000 114.1744600000,22.3682960000 114.1742600000,22.3682340000 114.1740280000,22.3681890000 114.1738030000,22.3681770000 114.1734660000,22.3681750000 114.1731500000,22.3681770000 114.1729480000,22.3681630000 114.1727240000,22.3681040000 114.1725260000,22.3680250000 114.1722870000,22.3678600000 114.1722300000,22.3678200000 114.1720340000,22.3676650000 114.1715910000,22.3673030000 114.1712410000,22.3671300000 114.1710830000,22.3669950000 114.1705850000,22.3666650000 114.1700580000,22.3663920000 114.1696200000,22.3661870000 114.1693700000,22.3660800000 114.1690900000,22.3659700000 114.1688000000,22.3658700000 114.1679000000,22.3655600000 114.1676500000,22.3654680000 114.1674100000,22.3653700000 114.1671510000,22.3652590000 114.1668800000,22.3651200000 114.1666000000,22.3649610000 114.1663400000,22.3648000000 114.1661110000,22.3646300000 114.1658330000,22.3644190000 114.1655700000,22.3641900000 114.1652900000,22.3639200000 114.1650400000,22.3636500000 114.1647950000,22.3633420000 114.1645700000,22.3630300000 114.1644170000,22.3627720000 114.1642800000,22.3625400000 114.1641500000,22.3622800000 114.1640460000,22.3620400000 114.1638700000,22.3615800000 114.1637210000,22.3611110000 114.1635960000,22.3604240000 114.1634800000,22.3598630000 114.1633900000,22.3593350000 114.1633360000,22.3591380000 114.1631150000,22.3585280000 114.1628900000,22.3580470000 114.1628420000,22.3579440000 114.1627680000,22.3578120000 114.1612200000,22.3548600000 114.1609300000,22.3543480000 114.1606500000,22.3538990000 114.1602900000,22.3533700000 114.1598500000,22.3527830000 114.1593800000,22.3522300000 114.1588600000,22.3516800000 114.1582120000,22.3510800000 114.1575320000,22.3505200000 114.1568480000,22.3500100000 114.1560300000,22.3495000000 114.1552990000,22.3490900000 114.1545000000,22.3487000000 114.1540510000,22.3485090000 114.1536090000,22.3483400000 114.1529600000,22.3481200000 114.1525800000,22.3480000000 114.1521900000,22.3478900000 114.1514300000,22.3477100000 114.1502620000,22.3474600000 114.1499190000,22.3473730000 114.1496100000,22.3472800000 114.1491700000,22.3471300000 114.1489200000,22.3470310000 114.1486770000,22.3469230000 114.1484300000,22.3468000000 114.1482100000,22.3466700000 114.1476800000,22.3463200000 114.1473860000,22.3460910000 114.1467400000,22.3455350000 114.1464340000,22.3452630000 114.1459140000,22.3448280000 114.1457500000,22.3446990000 114.1447490000,22.3438260000 114.1443360000,22.3434030000 114.1442250000,22.3432760000 114.1441540000,22.3431810000 114.1439890000,22.3429410000 114.1438520000,22.3426830000 114.1436710000,22.3422940000 114.1436090000,22.3420990000 114.1435690000,22.3419180000 114.1435400000,22.3417790000 114.1435050000,22.3415490000 114.1435030000,22.3412850000 114.1435090000,22.3410750000 114.1435140000,22.3409550000 114.1435280000,22.3408150000 114.1436110000,22.3405150000 114.1437240000,22.3401940000 114.1438870000,22.3398040000 114.1441110000,22.3393440000 114.1443630000,22.3388750000 114.1445450000,22.3385180000 114.1446170000,22.3383590000 114.1446950000,22.3381300000 114.1447440000,22.3379760000 114.1447900000,22.3377480000 114.1448100000,22.3375340000 114.1448210000,22.3372800000 114.1448310000,22.3370040000 114.1448220000,22.3367250000 114.1448120000,22.3366120000 114.1448290000,22.3363340000 114.1448080000,22.3359920000 114.1447950000,22.3355460000 114.1448150000,22.3350510000 114.1448470000,22.3344940000 114.1448390000,22.3339050000 114.1448330000,22.3326030000 114.1448700000,22.3321190000 114.1449140000,22.3317840000 114.1449270000,22.3316830000 114.1449700000,22.3315250000 114.1450250000,22.3313930000 114.1451020000,22.3312730000 114.1452250000,22.3311440000 114.1453490000,22.3310510000 114.1455680000,22.3309560000 114.1459050000,22.3308360000 114.1473900000,22.3302710000 114.1475820000,22.3302310000 114.1476800000,22.3302380000 114.1477990000,22.3302730000 114.1479200000,22.3303450000 114.1480280000,22.3304730000 114.1481870000,22.3307510000 114.1485050000,22.3314030000 114.1485280000,22.3314390000 114.1486220000,22.3315440000 114.1486470000,22.3316010000 114.1487080000,22.3317170000 114.1487950000,22.3318780000 114.1490650000,22.3322920000 114.1491970000,22.3324960000 114.1495100000,22.3329390000 114.1498510000,22.3333630000 114.1499700000,22.3335090000 114.1505350000,22.3341480000 114.1506940000,22.3343000000 114.1507900000,22.3343620000 114.1508510000,22.3344310000 114.1509280000,22.3345170000 114.1512670000,22.3349000000 114.1515900000,22.3352410000 114.1516110000,22.3352630000 114.1517110000,22.3353700000 114.1518010000,22.3354610000 114.1518570000,22.3355190000 114.1518850000,22.3355490000 114.1521980000,22.3358730000 114.1523480000,22.3360350000 114.1531060000,22.3368160000 114.1532010000,22.3370070000 114.1533990000,22.3372420000 114.1534300000,22.3372800000 114.1535590000,22.3374270000 114.1536360000,22.3375360000 114.1537460000,22.3374520000 114.1539090000,22.3373250000 114.1545640000,22.3368150000 114.1550440000,22.3364410000 114.1552120000,22.3363130000 114.1552870000,22.3362520000 114.1553360000,22.3362140000 114.1554040000,22.3361610000 114.1554930000,22.3360920000 114.1555360000,22.3360590000 114.1556360000,22.3359830000 114.1557320000,22.3359080000 114.1562790000,22.3354840000 114.1563120000,22.3354580000 114.1564190000,22.3353760000 114.1564430000,22.3353590000 114.1571360000,22.3348180000 114.1572200000,22.3347520000 114.1572980000,22.3347010000 114.1573990000,22.3346180000 114.1575920000,22.3344660000 114.1583380000,22.3338920000 114.1586490000,22.3336410000 114.1591120000,22.3332800000 114.1591530000,22.3332470000 114.1592260000,22.3331900000 114.1596250000,22.3328790000 114.1596780000,22.3328380000 114.1600840000,22.3325260000 114.1606830000,22.3320590000 114.1608450000,22.3319370000 114.1608740000,22.3319160000 114.1609630000,22.3318480000 114.1610050000,22.3318160000 114.1610400000,22.3317890000 114.1611900000,22.3316720000 114.1619020000,22.3311160000 114.1625100000,22.3306380000 114.1625910000,22.3305750000 114.1627640000,22.3304370000 114.1634510000,22.3299220000 114.1635040000,22.3298820000 114.1636690000,22.3297580000 114.1638020000,22.3296320000 114.1638910000,22.3295670000 114.1645560000,22.3290730000 114.1648550000,22.3288400000 114.1651240000,22.3286160000 114.1652070000,22.3285510000 114.1653000000,22.3284880000 114.1653860000,22.3284180000 114.1655050000,22.3283210000 114.1658240000,22.3281070000 114.1660600000,22.3279220000 114.1662820000,22.3277600000 114.1669350000,22.3272520000 114.1669910000,22.3272170000 114.1670180000,22.3272030000 114.1670600000,22.3271800000 114.1671390000,22.3271520000 114.1672430000,22.3271250000 114.1673030000,22.3271060000 114.1673530000,22.3270820000 114.1674040000,22.3270560000 114.1674530000,22.3270230000 114.1676480000,22.3268480000 114.1677440000,22.3267530000 114.1677660000,22.3267310000 114.1677730000,22.3267230000 114.1678470000,22.3266350000 114.1679190000,22.3264760000 114.1679560000,22.3263890000 114.1679690000,22.3263510000 114.1679810000,22.3263140000 114.1680030000,22.3262340000 114.1681560000,22.3255460000 114.1682360000,22.3251720000 114.1682480000,22.3251100000 114.1683990000,22.3243410000 114.1684400000,22.3241500000 114.1684440000,22.3241320000 114.1684600000,22.3240570000 114.1684800000,22.3239740000 114.1685080000,22.3238270000 114.1686640000,22.3230770000 114.1687120000,22.3228630000 114.1687200000,22.3228230000 114.1687320000,22.3227640000 114.1687860000,22.3224820000 114.1688740000,22.3220360000 114.1690580000,22.3210780000 114.1690630000,22.3210410000 114.1691120000,22.3208340000 114.1692930000,22.3208660000 114.1695650000,22.3209200000 114.1696760000,22.3208810000 114.1697390000,22.3205510000 114.1697660000,22.3204200000 114.1697770000,22.3203660000 114.1698170000,22.3202010000 114.1698680000,22.3199880000 114.1698770000,22.3199500000 114.1699490000,22.3196140000 114.1699570000,22.3195820000 114.1699750000,22.3195080000 114.1699550000,22.3194610000 114.1698790000,22.3193870000 114.1695810000,22.3193390000 114.1695360000,22.3193310000 114.1694290000,22.3193120000 114.1693200000,22.3192930000 114.1692430000,22.3192790000 114.1688230000,22.3192090000 114.1687900000,22.3192030000 114.1687160000,22.3191900000 114.1685700000,22.3191660000 114.1683980000,22.3191380000 114.1682790000,22.3191210000 114.1682470000,22.3191170000 114.1681320000,22.3190940000 114.1680470000,22.3190780000 114.1678410000,22.3190360000 114.1677880000,22.3190280000 114.1676800000,22.3190060000 114.1675610000,22.3189840000 114.1671990000,22.3189160000 114.1669890000,22.3188770000 114.1667760000,22.3188370000 114.1665450000,22.3187940000 114.1662740000,22.3187430000 114.1662220000,22.3187350000 114.1660490000,22.3187110000 114.1654280000,22.3186910000 114.1649530000,22.3186700000 114.1646960000,22.3186640000 114.1644420000,22.3186520000 114.1642870000,22.3186450000 114.1641230000,22.3186310000 114.1639600000,22.3186090000 114.1637720000,22.3185630000 114.1635390000,22.3184020000 114.1635070000,22.3183620000 114.1634680000,22.3183110000 114.1634420000,22.3182480000 114.1634230000,22.3180820000 114.1634960000,22.3178110000 114.1635710000,22.3175800000 114.1636510000,22.3172880000 114.1636810000,22.3171810000 114.1637080000,22.3170650000 114.1637360000,22.3169380000 114.1638790000,22.3162590000 114.1638940000,22.3161950000 114.1640170000,22.3156760000 114.1641180000,22.3152310000 114.1641850000,22.3149330000 114.1643750000,22.3141510000 114.1643960000,22.3140680000 114.1644820000,22.3137270000 114.1645130000,22.3135910000 114.1646390000,22.3130390000 114.1646540000,22.3129650000 114.1646860000,22.3128180000 114.1646990000,22.3127630000 114.1647200000,22.3126680000 114.1647370000,22.3125980000 114.1648010000,22.3122930000 114.1648190000,22.3121970000 114.1648370000,22.3121050000 114.1648620000,22.3119560000 114.1649840000,22.3119790000 114.1650150000,22.3119860000 114.1651610000,22.3120120000 114.1654100000,22.3120530000 114.1654900000,22.3120670000 114.1656300000,22.3120460000 114.1656620000,22.3120210000 114.1656820000,22.3120060000 114.1657110000,22.3119620000 114.1657230000,22.3119180000 114.1657190000,22.3118670000 114.1657030000,22.3118170000 114.1656590000,22.3117630000 114.1653980000,22.3115410000 114.1652430000,22.3113890000 114.1651390000,22.3113140000 114.1650980000,22.3112840000 114.1650350000,22.3112670000 114.1649590000,22.3112590000 114.1649160000,22.3112720000 114.1648980000,22.3112980000 114.1648710000,22.3113530000 114.1647850000,22.3118020000 114.1647640000,22.3119110000 114.1647590000,22.3119410000 114.1647310000,22.3120880000 114.1647060000,22.3122170000 114.1646580000,22.3124500000 114.1646470000,22.3125080000 114.1646220000,22.3126440000 114.1646030000,22.3127410000 114.1645910000,22.3127980000 114.1645900000,22.3128020000 114.1645610000,22.3129470000 114.1645460000,22.3130150000 114.1643040000,22.3140480000 114.1642900000,22.3141060000 114.1641010000,22.3148920000 114.1640820000,22.3149720000 114.1640260000,22.3152100000 114.1639220000,22.3156500000 114.1637860000,22.3162170000 114.1636090000,22.3169110000 114.1635800000,22.3170410000 114.1634770000,22.3170210000 114.1632940000,22.3169870000 114.1630300000,22.3169150000 114.1624720000,22.3167130000 114.1623900000,22.3166360000 114.1623040000,22.3165290000 114.1622250000,22.3164090000 114.1621860000,22.3162880000 114.1621710000,22.3161100000 114.1622410000,22.3158460000 114.1623170000,22.3156480000 114.1624040000,22.3156790000 114.1624850000,22.3157040000 114.1625400000,22.3157170000 114.1628010000,22.3157660000 114.1632300000,22.3158410000 114.1632260000,22.3158660000 114.1632300000,22.3158910000 114.1632420000,22.3159130000 114.1632610000,22.3159320000 114.1632850000,22.3159440000 114.1633150000,22.3159490000 114.1633460000,22.3159450000 114.1633730000,22.3159320000 114.1633940000,22.3159110000 114.1634060000,22.3158850000 114.1634080000,22.3158560000 114.1633990000,22.3158290000 114.1633820000,22.3158060000 114.1633570000,22.3157890000 114.1633270000,22.3157820000 114.1633920000,22.3155350000 114.1634000000,22.3155060000 114.1634480000,22.3153230000 114.1633920000,22.3155350000 114.1633270000,22.3157820000 114.1632960000,22.3157830000 114.1632670000,22.3157950000 114.1632440000,22.3158150000 114.1632300000,22.3158410000 114.1628010000,22.3157660000 114.1625400000,22.3157170000 114.1624850000,22.3157040000 114.1624040000,22.3156790000 114.1623170000,22.3156480000 114.1622410000,22.3158460000 114.1621710000,22.3161100000 114.1621860000,22.3162880000 114.1622250000,22.3164090000 114.1623040000,22.3165290000 114.1623900000,22.3166360000 114.1624720000,22.3167130000 114.1630300000,22.3169150000 114.1632940000,22.3169870000 114.1634460000,22.3171680000 114.1635170000,22.3172900000 114.1634380000,22.3175180000 114.1633560000,22.3176870000 114.1632550000,22.3178150000 114.1631180000,22.3179370000 114.1629850000,22.3180190000 114.1629530000,22.3180380000 114.1627870000,22.3181390000 114.1624900000,22.3180800000 114.1623600000,22.3180310000 114.1621560000,22.3179530000 114.1619120000,22.3178690000 114.1617770000,22.3178200000 114.1611740000,22.3176000000 114.1609760000,22.3175350000 114.1609090000,22.3175250000 114.1608490000,22.3175310000 114.1607920000,22.3175640000 114.1607800000,22.3176520000 114.1607860000,22.3177060000 114.1608100000,22.3177500000 114.1608470000,22.3177820000 114.1610060000,22.3178500000 114.1610840000,22.3179280000 114.1616590000,22.3181660000 114.1618680000,22.3182400000 114.1619100000,22.3182640000 114.1619380000,22.3182870000 114.1619660000,22.3183260000 114.1619800000,22.3183980000 114.1619810000,22.3185230000 114.1619830000,22.3186760000 114.1619830000,22.3187100000 114.1619850000,22.3189950000 114.1619830000,22.3190440000 114.1619810000,22.3190910000 114.1619790000,22.3191530000 114.1619870000,22.3194690000 114.1619850000,22.3195320000 114.1619710000,22.3199870000 114.1619580000,22.3203010000 114.1619550000,22.3203360000 114.1619510000,22.3205010000 114.1620900000,22.3204730000 114.1625360000,22.3203890000 114.1625530000,22.3203860000 114.1630440000,22.3203030000 114.1631100000,22.3203060000 114.1635640000,22.3202160000 114.1640680000,22.3201150000 114.1641580000,22.3201000000 114.1646220000,22.3200240000 114.1646900000,22.3204180000 114.1647710000,22.3208830000 114.1655910000,22.3202920000 114.1656460000,22.3202680000 114.1657420000,22.3202640000 114.1659060000,22.3202680000 114.1659660000,22.3202600000 114.1659910000,22.3202650000 114.1660560000,22.3202780000 114.1661590000,22.3202940000 114.1661980000,22.3203840000 114.1664630000,22.3204340000 114.1668600000,22.3205050000 114.1672110000,22.3205680000 114.1672540000,22.3205760000 114.1673590000,22.3205500000 114.1676930000,22.3206100000 114.1677170000,22.3206140000 114.1677990000,22.3206270000 114.1679060000,22.3206450000 114.1680890000,22.3206760000 114.1683060000,22.3207120000 114.1683450000,22.3207180000 114.1684170000,22.3207310000 114.1687180000,22.3207760000 114.1688560000,22.3207970000 114.1688960000,22.3208030000 114.1690010000,22.3208190000 114.1689990000,22.3208400000 114.1689680000,22.3209790000 114.1688970000,22.3213210000 114.1688490000,22.3215520000 114.1687620000,22.3220220000 114.1687560000,22.3220470000 114.1686870000,22.3223340000 114.1686520000,22.3225330000 114.1686120000,22.3227430000 114.1685600000,22.3230190000 114.1684510000,22.3235330000 114.1683690000,22.3238750000 114.1683510000,22.3239490000 114.1683300000,22.3240350000 114.1683130000,22.3241100000 114.1683060000,22.3241450000 114.1681200000,22.3251120000 114.1679450000,22.3259110000 114.1678950000,22.3261210000 114.1678710000,22.3262210000 114.1678470000,22.3262890000 114.1678360000,22.3263130000 114.1678120000,22.3263620000 114.1677750000,22.3264240000 114.1677440000,22.3264890000 114.1677220000,22.3264990000 114.1676580000,22.3265520000 114.1676040000,22.3265920000 114.1675290000,22.3266450000 114.1675080000,22.3266590000 114.1674060000,22.3267290000 114.1670260000,22.3270030000 114.1669910000,22.3270280000 114.1668790000,22.3271090000 114.1659740000,22.3277980000 114.1653360000,22.3282960000 114.1652950000,22.3283280000 114.1652130000,22.3283920000 114.1648050000,22.3287100000 114.1644780000,22.3289900000 114.1639060000,22.3294180000 114.1638840000,22.3294340000 114.1637360000,22.3295460000 114.1635970000,22.3296620000 114.1635020000,22.3297380000 114.1631640000,22.3300070000 114.1627800000,22.3302650000 114.1626820000,22.3303420000 114.1619330000,22.3309270000 114.1618160000,22.3310200000 114.1616860000,22.3311220000 114.1615960000,22.3311940000 114.1615040000,22.3312660000 114.1611400000,22.3315510000 114.1611060000,22.3315780000 114.1609570000,22.3316960000 114.1608800000,22.3317540000 114.1608040000,22.3318130000 114.1602330000,22.3322520000 114.1600780000,22.3323710000 114.1597500000,22.3326270000 114.1591190000,22.3331180000 114.1591050000,22.3331290000 114.1590660000,22.3331600000 114.1586680000,22.3334690000 114.1586160000,22.3335100000 114.1585460000,22.3335650000 114.1583150000,22.3337440000 114.1575840000,22.3343150000 114.1574770000,22.3343960000 114.1574310000,22.3344320000 114.1573060000,22.3345250000 114.1572090000,22.3346010000 114.1570980000,22.3346960000 114.1563230000,22.3353030000 114.1562790000,22.3353370000 114.1559960000,22.3355550000 114.1559220000,22.3356120000 114.1558520000,22.3356660000 114.1555020000,22.3359410000 114.1554360000,22.3359940000 114.1552620000,22.3361260000 114.1552040000,22.3361700000 114.1551030000,22.3362410000 114.1542490000,22.3368950000 114.1538210000,22.3372230000 114.1537860000,22.3372510000 114.1536520000,22.3373560000 114.1535590000,22.3374270000 114.1528600000,22.3379970000 114.1528290000,22.3380220000 114.1527240000,22.3381080000 114.1525220000,22.3382400000 114.1523220000,22.3383730000 114.1522470000,22.3383970000 114.1521140000,22.3384390000 114.1520220000,22.3384680000 114.1517540000,22.3384650000 114.1515390000,22.3384270000 114.1513250000,22.3383580000 114.1511910000,22.3383160000 114.1510690000,22.3382750000 114.1510230000,22.3382580000 114.1509150000,22.3382180000 114.1507290000,22.3381480000 114.1506190000,22.3381090000 114.1505060000,22.3380670000 114.1505020000,22.3380650000 114.1496510000,22.3377660000 114.1496120000,22.3377520000 114.1494140000,22.3376830000 114.1492940000,22.3376420000 114.1482860000,22.3372960000 114.1480540000,22.3372150000 114.1479910000,22.3371930000 114.1478230000,22.3371340000 114.1475380000,22.3370330000 114.1473700000,22.3369750000 114.1472300000,22.3369260000 114.1472280000,22.3369250000 114.1467030000,22.3367430000 114.1462130000,22.3365760000 114.1459240000,22.3364740000 114.1457050000,22.3364030000 114.1452750000,22.3363370000 114.1449720000,22.3363050000 114.1447420000,22.3363490000 114.1445860000,22.3364340000 114.1443400000,22.3366580000 114.1441980000,22.3367310000 114.1440730000,22.3367800000 114.1438910000,22.3368030000 114.1437330000,22.3368140000 114.1432630000,22.3368030000 114.1430230000,22.3368300000 114.1428510000,22.3368550000 114.1424310000,22.3369650000 114.1422820000,22.3370510000 114.1421420000,22.3371830000 114.1419920000,22.3374130000 114.1417810000,22.3377770000 114.1417250000,22.3378740000 114.1417140000,22.3378950000 114.1416910000,22.3379340000 114.1414400000,22.3383840000 114.1414020000,22.3384820000 114.1413810000,22.3386050000 114.1413810000,22.3387720000 114.1414190000,22.3389370000 114.1415120000,22.3391170000 114.1416230000,22.3392870000 114.1417910000,22.3394940000 114.1418870000,22.3396560000 114.1419410000,22.3397710000 114.1419450000,22.3399060000 114.1418970000,22.3401190000 114.1418420000,22.3402270000 114.1417320000,22.3404250000 114.1416520000,22.3405040000 114.1416120000,22.3405330000 114.1415840000,22.3405450000 114.1414920000,22.3405690000 114.1413770000,22.3405280000 114.1413090000,22.3404820000 114.1412620000,22.3404110000 114.1412540000,22.3403590000 114.1412690000,22.3402920000 114.1413420000,22.3402170000 114.1414340000,22.3401840000 114.1415420000,22.3401990000 114.1417950000,22.3403170000 114.1422470000,22.3407150000 114.1426830000,22.3410890000 114.1429160000,22.3413110000 114.1430330000,22.3414380000 114.1431130000,22.3415580000 114.1432000000,22.3417070000 114.1434040000,22.3422780000 114.1435310000,22.3426230000 114.1436780000,22.3429290000 114.1438480000,22.3431950000 114.1440010000,22.3433690000 114.1442130000,22.3435190000 114.1446410000,22.3439360000 114.1446680000,22.3439610000 114.1450020000,22.3442660000 114.1456120000,22.3448340000 114.1456970000,22.3449100000 114.1457520000,22.3449590000 114.1459200000,22.3451230000 114.1462480000,22.3454420000 114.1464890000,22.3456780000 114.1466010000,22.3457880000 114.1467590000,22.3459330000 114.1471820000,22.3463170000 114.1472160000,22.3463480000 114.1474870000,22.3465700000 114.1478600000,22.3468200000 114.1480950000,22.3469660000 114.1483600000,22.3471100000 114.1486310000,22.3472480000 114.1488980000,22.3473630000 114.1492700000,22.3475000000 114.1496380000,22.3476140000 114.1500690000,22.3477270000 114.1514100000,22.3480100000 114.1518200000,22.3481100000 114.1522400000,22.3482220000 114.1530420000,22.3484880000 114.1535900000,22.3486900000 114.1539920000,22.3488590000 114.1543900000,22.3490400000 114.1551890000,22.3494300000 114.1558680000,22.3498200000 114.1566010000,22.3503100000 114.1572490000,22.3507900000 114.1579200000,22.3513500000 114.1585400000,22.3519300000 114.1590400000,22.3524600000 114.1595110000,22.3530080000 114.1599400000,22.3535800000 114.1602900000,22.3540900000 114.1605600000,22.3545100000 114.1608500000,22.3550100000 114.1623980000,22.3579800000 114.1625870000,22.3583930000 114.1627360000,22.3588130000 114.1628590000,22.3592180000 114.1629260000,22.3594490000 114.1629340000,22.3595080000 114.1629720000,22.3596720000 114.1631730000,22.3602900000 114.1632390000,22.3604030000 114.1634310000,22.3611520000 114.1634400000,22.3611800000 114.1635500000,22.3616200000 114.1637400000,22.3621300000 114.1639800000,22.3626430000 114.1642800000,22.3631500000 114.1646150000,22.3636200000 114.1648070000,22.3638500000 114.1650150000,22.3640800000 114.1653090000,22.3643700000 114.1656400000,22.3646600000 114.1659100000,22.3648700000 114.1661810000,22.3650580000 114.1666820000,22.3653600000 114.1670970000,22.3655600000 114.1675900000,22.3657700000 114.1679900000,22.3659120000 114.1688000000,22.3661700000 114.1690800000,22.3662700000 114.1693300000,22.3663700000 114.1695600000,22.3664700000 114.1699900000,22.3666700000 114.1704540000,22.3668960000 114.1706150000,22.3669890000 114.1709500000,22.3672100000 114.1710980000,22.3673240000 114.1712360000,22.3674760000 114.1714590000,22.3677020000 114.1716430000,22.3679010000 114.1717280000,22.3679900000 114.1718510000,22.3681060000 114.1720130000,22.3682180000 114.1722280000,22.3683260000 114.1723470000,22.3683640000 114.1724710000,22.3683930000 114.1726390000,22.3683950000 114.1729130000,22.3683770000 114.1731390000,22.3683360000 114.1734560000,22.3682850000 114.1737890000,22.3682450000 114.1740190000,22.3682560000 114.1742420000,22.3682990000 114.1744260000,22.3683620000 114.1745730000,22.3684320000 114.1747450000,22.3685620000 114.1749280000,22.3687150000 114.1753210000,22.3691230000 114.1757640000,22.3695940000 114.1760750000,22.3698800000 114.1763310000,22.3700850000 114.1765760000,22.3702330000 114.1769090000,22.3704260000 114.1771300000,22.3705530000 114.1773800000,22.3706870000 114.1775780000,22.3707960000 114.1777620000,22.3709390000 114.1780270000,22.3711130000 114.1782670000,22.3713010000 114.1783410000,22.3713890000 114.1784090000,22.3714600000 114.1784230000,22.3715190000 114.1784530000,22.3715660000 114.1784040000,22.3717320000 114.1783630000,22.3718170000 114.1783030000,22.3719000000 114.1780820000,22.3722060000 114.1777550000,22.3726140000 114.1775330000,22.3728930000 114.1770510000,22.3734970000 114.1769040000,22.3736860000 114.1768760000,22.3737210000 114.1765610000,22.3741280000 114.1763360000,22.3744240000 114.1757510000,22.3754030000 114.1756620000,22.3755330000 114.1756200000,22.3756010000 114.1756070000,22.3756230000 114.1750100000,22.3766000000 114.1744140000,22.3775610000 114.1743490000,22.3776540000 114.1742850000,22.3777590000 114.1742120000,22.3778750000 114.1740440000,22.3781970000 114.1739980000,22.3783320000 114.1738520000,22.3787560000 114.1738120000,22.3788640000 114.1737390000,22.3790640000 114.1736990000,22.3792500000 114.1736510000,22.3794640000 114.1736000000,22.3794810000 114.1735850000,22.3794860000 114.1735710000,22.3794900000 114.1735360000,22.3795010000 114.1734360000,22.3795320000 114.1733680000,22.3795970000 114.1732450000,22.3797140000 114.1731350000,22.3798130000 114.1729580000,22.3799750000 114.1728100000,22.3799920000 114.1727290000,22.3800400000 114.1727060000,22.3801420000 114.1728200000,22.3801910000 114.1728750000,22.3801760000 114.1730540000,22.3804410000 114.1728980000,22.3802100000 114.1728750000,22.3801760000 114.1729290000,22.3801410000 114.1729500000,22.3800540000 114.1729580000,22.3799750000 114.1731350000,22.3798130000 114.1732450000,22.3797140000 114.1733680000,22.3795970000 114.1734360000,22.3795320000 114.1735360000,22.3795010000 114.1735710000,22.3794900000 114.1735850000,22.3794860000 114.1736000000,22.3794810000 114.1736510000,22.3794640000 114.1736990000,22.3792500000 114.1737390000,22.3790640000 114.1738120000,22.3788640000 114.1738520000,22.3787560000 114.1739980000,22.3783320000 114.1741090000,22.3782240000 114.1743270000,22.3778350000 114.1743530000,22.3778000000 114.1744330000,22.3776890000 114.1748770000,22.3770330000 114.1751430000,22.3765960000 114.1750100000,22.3766000000 114.1747820000,22.3766100000 114.1745040000,22.3766460000 114.1743400000,22.3767020000 114.1742260000,22.3767600000 114.1741320000,22.3768390000 114.1740570000,22.3769520000 114.1740140000,22.3770710000 114.1739820000,22.3772580000 114.1739730000,22.3772950000 114.1739680000,22.3773120000 114.1739650000,22.3773320000 114.1739150000,22.3774020000 114.1738910000,22.3774180000 114.1738160000,22.3774510000 114.1738080000,22.3774540000 114.1734860000,22.3774080000 114.1730260000,22.3773170000 114.1730330000,22.3773200000 114.1724510000,22.3771360000 114.1720800000,22.3770190000 114.1709950000,22.3766390000 114.1703630000,22.3764000000 114.1701690000,22.3763250000 114.1697570000,22.3761690000 114.1696540000,22.3761300000 114.1696400000,22.3761250000 114.1691030000,22.3759320000 114.1690340000,22.3758820000 114.1690020000,22.3758150000 114.1689750000,22.3757110000 114.1689410000,22.3756860000</coordinates>
                </LineString>
                <ExtendedData>
                    <Data name="length">
                        <value>29748.619293635908</value>
                    </Data>
                    <Data name="duration">
                        <value>01:42:23</value>
                    </Data>
                </ExtendedData>
            </Placemark>
        </Document>
    </Document>
</kml>