<?xml version="1.0" encoding="UTF-8"?>
<kml xmlns="http://www.opengis.net/kml/2.2" xmlns:gx="http://www.google.com/kml/ext/2.2">
    <Document>
        <name>Route</name>
        <Folder>
            <name>Route Request</name>
            <Placemark>
                <Point>
                    <coordinates>114.2558010810,22.4309707519</coordinates>
                </Point>
                <ExtendedData>
                    <Data name="routingVisited">
                        <value>false</value>
                    </Data>
                </ExtendedData>
            </Placemark>
            <Placemark>
                <Point>
                    <coordinates>114.2354176617,22.4222491007</coordinates>
                </Point>
                <ExtendedData>
                    <Data name="routingVisited">
                        <value>false</value>
                    </Data>
                </ExtendedData>
            </Placemark>
            <Placemark>
                <address>Tsang Pik Shan Secondary School, Hang Hong Street, Ma On Terrace, Wu Kai Sha, Ma On Shan, Sha Tin District, Hong Kong, DD176 781, PRC</address>
                <Point>
                    <coordinates>114.2289153881,22.4218666781</coordinates>
                </Point>
                <ExtendedData>
                    <Data name="country">
                        <value>PRC</value>
                    </Data>
                    <Data name="neighbourhood">
                        <value>Ma On Terrace</value>
                    </Data>
                    <Data name="suburb">
                        <value>Wu Kai Sha</value>
                    </Data>
                    <Data name="postcode">
                        <value>DD176 781</value>
                    </Data>
                    <Data name="road">
                        <value>Hang Hong Street</value>
                    </Data>
                    <Data name="country_code">
                        <value>cn</value>
                    </Data>
                    <Data name="bus_stop">
                        <value>Tsang Pik Shan Secondary School</value>
                    </Data>
                    <Data name="county">
                        <value>Sha Tin District</value>
                    </Data>
                    <Data name="town">
                        <value>Ma On Shan</value>
                    </Data>
                </ExtendedData>
            </Placemark>
            <Placemark>
                <address>Tai Chung Kiu Road, Yuen Chau Kok, Tsang Tai Uk New Village, Sha Tin District, Hong Kong, STTL 531, PRC</address>
                <Point>
                    <coordinates>114.1944536284,22.3804982029</coordinates>
                </Point>
                <ExtendedData>
                    <Data name="country">
                        <value>PRC</value>
                    </Data>
                    <Data name="suburb">
                        <value>Yuen Chau Kok</value>
                    </Data>
                    <Data name="postcode">
                        <value>STTL 531</value>
                    </Data>
                    <Data name="road">
                        <value>Tai Chung Kiu Road</value>
                    </Data>
                    <Data name="country_code">
                        <value>cn</value>
                    </Data>
                    <Data name="hamlet">
                        <value>Tsang Tai Uk New Village</value>
                    </Data>
                    <Data name="county">
                        <value>Sha Tin District</value>
                    </Data>
                </ExtendedData>
            </Placemark>
            <Placemark>
                <address>Kingsway Industrial Building Phase II, 167-175, Wo Yi Hop Road, Shek Yam Estate, Chung Kwai Chung, Kwai Tsing District, Hong Kong, DD186 487, China</address>
                <Point>
                    <coordinates>114.1356059061,22.3714829385</coordinates>
                </Point>
                <ExtendedData>
                    <Data name="country">
                        <value>China</value>
                    </Data>
                    <Data name="neighbourhood">
                        <value>Shek Yam Estate</value>
                    </Data>
                    <Data name="suburb">
                        <value>Chung Kwai Chung</value>
                    </Data>
                    <Data name="postcode">
                        <value>DD186 487</value>
                    </Data>
                    <Data name="road">
                        <value>Wo Yi Hop Road</value>
                    </Data>
                    <Data name="building">
                        <value>Kingsway Industrial Building Phase II</value>
                    </Data>
                    <Data name="country_code">
                        <value>cn</value>
                    </Data>
                    <Data name="house_number">
                        <value>167-175</value>
                    </Data>
                    <Data name="county">
                        <value>Kwai Tsing District</value>
                    </Data>
                </ExtendedData>
            </Placemark>
            <Placemark>
                <address>Kwai Shun House, Hing Fong Road, Tai Lin Pai, Kwai Fong, Kwai Chung, Kwai Tsing District, Hong Kong, 852, China</address>
                <Point>
                    <coordinates>114.1304650925,22.3612509672</coordinates>
                </Point>
                <ExtendedData>
                    <Data name="country">
                        <value>China</value>
                    </Data>
                    <Data name="neighbourhood">
                        <value>Tai Lin Pai</value>
                    </Data>
                    <Data name="suburb">
                        <value>Kwai Fong</value>
                    </Data>
                    <Data name="postcode">
                        <value>852</value>
                    </Data>
                    <Data name="road">
                        <value>Hing Fong Road</value>
                    </Data>
                    <Data name="building">
                        <value>Kwai Shun House</value>
                    </Data>
                    <Data name="country_code">
                        <value>cn</value>
                    </Data>
                    <Data name="county">
                        <value>Kwai Tsing District</value>
                    </Data>
                    <Data name="town">
                        <value>Kwai Chung</value>
                    </Data>
                </ExtendedData>
            </Placemark>
            <Placemark>
                <address>Kwai Chung Estate Phase 3, Tai Wo Hau Road, Tai Wo Hau, Kwai Chung, Kwai Tsing District, Hong Kong, China</address>
                <Point>
                    <coordinates>114.1277919510,22.3669523709</coordinates>
                </Point>
                <ExtendedData>
                    <Data name="country">
                        <value>China</value>
                    </Data>
                    <Data name="neighbourhood">
                        <value>Tai Wo Hau</value>
                    </Data>
                    <Data name="road">
                        <value>Tai Wo Hau Road</value>
                    </Data>
                    <Data name="building">
                        <value>Kwai Chung Estate Phase 3</value>
                    </Data>
                    <Data name="country_code">
                        <value>cn</value>
                    </Data>
                    <Data name="county">
                        <value>Kwai Tsing District</value>
                    </Data>
                    <Data name="town">
                        <value>Kwai Chung</value>
                    </Data>
                </ExtendedData>
            </Placemark>
            <Placemark>
                <address>Hing Fong Road Garden, Kwai Yik Road, Tai Lin Pai, Kwai Fong, Kwai Chung, Kwai Tsing District, Hong Kong, 852, China</address>
                <Point>
                    <coordinates>114.1311703885,22.3614839232</coordinates>
                </Point>
                <ExtendedData>
                    <Data name="country">
                        <value>China</value>
                    </Data>
                    <Data name="garden">
                        <value>Hing Fong Road Garden</value>
                    </Data>
                    <Data name="neighbourhood">
                        <value>Tai Lin Pai</value>
                    </Data>
                    <Data name="suburb">
                        <value>Kwai Fong</value>
                    </Data>
                    <Data name="postcode">
                        <value>852</value>
                    </Data>
                    <Data name="road">
                        <value>Kwai Yik Road</value>
                    </Data>
                    <Data name="country_code">
                        <value>cn</value>
                    </Data>
                    <Data name="county">
                        <value>Kwai Tsing District</value>
                    </Data>
                    <Data name="town">
                        <value>Kwai Chung</value>
                    </Data>
                </ExtendedData>
            </Placemark>
            <Placemark>
                <address>Ho Shun Primary School (Sponsored by Sik Sik Yuen), Wo Yi Hop Road, Cheung Shan, Lei Muk Shue, Shek Wai Kok Sun Village, Tsuen Wan District, Hong Kong, DD186 487, China</address>
                <Point>
                    <coordinates>114.1336813427,22.3802398753</coordinates>
                </Point>
                <ExtendedData>
                    <Data name="country">
                        <value>China</value>
                    </Data>
                    <Data name="neighbourhood">
                        <value>Cheung Shan</value>
                    </Data>
                    <Data name="suburb">
                        <value>Lei Muk Shue</value>
                    </Data>
                    <Data name="postcode">
                        <value>DD186 487</value>
                    </Data>
                    <Data name="road">
                        <value>Wo Yi Hop Road</value>
                    </Data>
                    <Data name="country_code">
                        <value>cn</value>
                    </Data>
                    <Data name="hamlet">
                        <value>Shek Wai Kok Sun Village</value>
                    </Data>
                    <Data name="county">
                        <value>Tsuen Wan District</value>
                    </Data>
                    <Data name="school">
                        <value>Ho Shun Primary School (Sponsored by Sik Sik Yuen)</value>
                    </Data>
                </ExtendedData>
            </Placemark>
            <Placemark>
                <address>Prince of Wales Hospital, 30-32, Ngan Shing Street, Yuen Chau Kok, Tsang Tai Uk New Village, Sha Tin District, Hong Kong, STTL 531, PRC</address>
                <Point>
                    <coordinates>114.2007888095,22.3780092724</coordinates>
                </Point>
                <ExtendedData>
                    <Data name="country">
                        <value>PRC</value>
                    </Data>
                    <Data name="suburb">
                        <value>Yuen Chau Kok</value>
                    </Data>
                    <Data name="postcode">
                        <value>STTL 531</value>
                    </Data>
                    <Data name="road">
                        <value>Ngan Shing Street</value>
                    </Data>
                    <Data name="country_code">
                        <value>cn</value>
                    </Data>
                    <Data name="hamlet">
                        <value>Tsang Tai Uk New Village</value>
                    </Data>
                    <Data name="house_number">
                        <value>30-32</value>
                    </Data>
                    <Data name="county">
                        <value>Sha Tin District</value>
                    </Data>
                    <Data name="hospital">
                        <value>Prince of Wales Hospital</value>
                    </Data>
                </ExtendedData>
            </Placemark>
            <Placemark>
                <address>Ma On Shan Sports Ground, 1, Hang Hong Street, Ma On Terrace, Wu Kai Sha, Ma On Shan, Sha Tin District, Hong Kong, DD193 1191, PRC</address>
                <Point>
                    <coordinates>114.2289745277,22.4197903186</coordinates>
                </Point>
                <ExtendedData>
                    <Data name="country">
                        <value>PRC</value>
                    </Data>
                    <Data name="neighbourhood">
                        <value>Ma On Terrace</value>
                    </Data>
                    <Data name="suburb">
                        <value>Wu Kai Sha</value>
                    </Data>
                    <Data name="postcode">
                        <value>DD193 1191</value>
                    </Data>
                    <Data name="road">
                        <value>Hang Hong Street</value>
                    </Data>
                    <Data name="country_code">
                        <value>cn</value>
                    </Data>
                    <Data name="sports_centre">
                        <value>Ma On Shan Sports Ground</value>
                    </Data>
                    <Data name="house_number">
                        <value>1</value>
                    </Data>
                    <Data name="county">
                        <value>Sha Tin District</value>
                    </Data>
                    <Data name="town">
                        <value>Ma On Shan</value>
                    </Data>
                </ExtendedData>
            </Placemark>
            <Placemark>
                <address>Ma On Shan Ling Liang Primary School, Kam Ying Road, Ma On Terrace, Wu Kai Sha, Ma On Shan, Sha Tin District, Hong Kong, DD165 1471, PRC</address>
                <Point>
                    <coordinates>114.2398986644,22.4246572074</coordinates>
                </Point>
                <ExtendedData>
                    <Data name="country">
                        <value>PRC</value>
                    </Data>
                    <Data name="neighbourhood">
                        <value>Ma On Terrace</value>
                    </Data>
                    <Data name="suburb">
                        <value>Wu Kai Sha</value>
                    </Data>
                    <Data name="postcode">
                        <value>DD165 1471</value>
                    </Data>
                    <Data name="road">
                        <value>Kam Ying Road</value>
                    </Data>
                    <Data name="country_code">
                        <value>cn</value>
                    </Data>
                    <Data name="county">
                        <value>Sha Tin District</value>
                    </Data>
                    <Data name="town">
                        <value>Ma On Shan</value>
                    </Data>
                    <Data name="school">
                        <value>Ma On Shan Ling Liang Primary School</value>
                    </Data>
                </ExtendedData>
            </Placemark>
            <Placemark>
                <address>Shap Sze Heung, Nai Chung, Tai Po District, Hong Kong, DD165 1471, PRC</address>
                <Point>
                    <coordinates>114.2557715208,22.4309161119</coordinates>
                </Point>
                <ExtendedData>
                    <Data name="country">
                        <value>PRC</value>
                    </Data>
                    <Data name="suburb">
                        <value>Shap Sze Heung</value>
                    </Data>
                    <Data name="postcode">
                        <value>DD165 1471</value>
                    </Data>
                    <Data name="country_code">
                        <value>cn</value>
                    </Data>
                    <Data name="hamlet">
                        <value>Nai Chung</value>
                    </Data>
                    <Data name="county">
                        <value>Tai Po District</value>
                    </Data>
                </ExtendedData>
            </Placemark>
        </Folder>
        <Document>
            <name>48.2 km; 01:38 h (OSRM)</name>
            <Placemark>
                <name>Route</name>
                <LineString>
                    <coordinates>114.2558030000,22.4309920000 114.2559430000,22.4309810000 114.2559750000,22.4309780000 114.2560290000,22.4309600000 114.2560560000,22.4309280000 114.2560680000,22.4309140000 114.2561050000,22.4308350000 114.2561810000,22.4306600000 114.2562140000,22.4305650000 114.2562280000,22.4305380000 114.2562600000,22.4304720000 114.2552120000,22.4305570000 114.2545540000,22.4306210000 114.2541880000,22.4306500000 114.2537910000,22.4306880000 114.2534550000,22.4306890000 114.2533430000,22.4306850000 114.2532780000,22.4306680000 114.2532120000,22.4306290000 114.2532030000,22.4306140000 114.2531650000,22.4305680000 114.2531150000,22.4305340000 114.2530560000,22.4305150000 114.2530150000,22.4305120000 114.2529740000,22.4305160000 114.2529350000,22.4305280000 114.2527970000,22.4305910000 114.2527100000,22.4306010000 114.2526160000,22.4305990000 114.2525200000,22.4305760000 114.2518500000,22.4303390000 114.2511500000,22.4300980000 114.2510330000,22.4300570000 114.2504840000,22.4298680000 114.2491390000,22.4294050000 114.2486500000,22.4292260000 114.2485510000,22.4291900000 114.2480520000,22.4290100000 114.2474570000,22.4288060000 114.2470150000,22.4286470000 114.2467540000,22.4285200000 114.2465640000,22.4284370000 114.2462270000,22.4282710000 114.2460630000,22.4281670000 114.2457390000,22.4278970000 114.2456430000,22.4277880000 114.2455680000,22.4276460000 114.2455420000,22.4275000000 114.2455570000,22.4273730000 114.2455900000,22.4272850000 114.2456290000,22.4272180000 114.2457010000,22.4271310000 114.2457490000,22.4270900000 114.2457970000,22.4270590000 114.2458790000,22.4270190000 114.2459600000,22.4269920000 114.2460500000,22.4269790000 114.2461500000,22.4269750000 114.2462400000,22.4269810000 114.2463300000,22.4270000000 114.2464000000,22.4270200000 114.2464710000,22.4270470000 114.2465420000,22.4270810000 114.2466500000,22.4271500000 114.2466900000,22.4271810000 114.2467310000,22.4272200000 114.2468070000,22.4273070000 114.2468590000,22.4273800000 114.2469350000,22.4275500000 114.2469610000,22.4277150000 114.2469630000,22.4278150000 114.2469250000,22.4280010000 114.2467900000,22.4282780000 114.2464440000,22.4286780000 114.2461730000,22.4289160000 114.2459370000,22.4290940000 114.2457840000,22.4291930000 114.2456890000,22.4292540000 114.2453800000,22.4294160000 114.2450150000,22.4295400000 114.2447260000,22.4295840000 114.2444340000,22.4296000000 114.2440920000,22.4295830000 114.2438970000,22.4295560000 114.2437750000,22.4295320000 114.2437050000,22.4295130000 114.2435090000,22.4294610000 114.2433050000,22.4293660000 114.2431840000,22.4292910000 114.2430590000,22.4291820000 114.2429160000,22.4290530000 114.2427730000,22.4289050000 114.2427330000,22.4288400000 114.2426900000,22.4287950000 114.2426390000,22.4287560000 114.2425830000,22.4287270000 114.2425210000,22.4287070000 114.2424560000,22.4286970000 114.2423910000,22.4286980000 114.2423270000,22.4287090000 114.2422800000,22.4287240000 114.2421840000,22.4286950000 114.2420900000,22.4286500000 114.2419410000,22.4285370000 114.2416740000,22.4283350000 114.2410180000,22.4277830000 114.2405890000,22.4274560000 114.2403920000,22.4273130000 114.2399840000,22.4270180000 114.2398050000,22.4268780000 114.2394020000,22.4265580000 114.2392510000,22.4264510000 114.2393050000,22.4263830000 114.2393550000,22.4263200000 114.2394850000,22.4261420000 114.2397870000,22.4257550000 114.2399290000,22.4255140000 114.2399800000,22.4253670000 114.2400290000,22.4252210000 114.2400540000,22.4249520000 114.2400290000,22.4245930000 114.2399110000,22.4242520000 114.2397390000,22.4240340000 114.2395380000,22.4238740000 114.2393170000,22.4237950000 114.2390950000,22.4237720000 114.2388190000,22.4237960000 114.2381110000,22.4239250000 114.2376820000,22.4239750000 114.2374280000,22.4239810000 114.2371660000,22.4239570000 114.2369770000,22.4238970000 114.2368230000,22.4238220000 114.2365150000,22.4236120000 114.2362350000,22.4233720000 114.2361390000,22.4232890000 114.2360280000,22.4231960000 114.2359370000,22.4231140000 114.2354870000,22.4227060000 114.2352550000,22.4224840000 114.2352080000,22.4224400000 114.2347150000,22.4219770000 114.2344650000,22.4218030000 114.2343390000,22.4217360000 114.2342350000,22.4216910000 114.2340730000,22.4216430000 114.2338560000,22.4215990000 114.2335180000,22.4216030000 114.2331950000,22.4216520000 114.2327570000,22.4217850000 114.2325980000,22.4218330000 114.2324800000,22.4218650000 114.2325800000,22.4220770000 114.2327020000,22.4222860000 114.2328210000,22.4224740000 114.2329400000,22.4226410000 114.2331900000,22.4229240000 114.2334660000,22.4232390000 114.2334120000,22.4232910000 114.2333410000,22.4233520000 114.2331850000,22.4234820000 114.2330810000,22.4235500000 114.2329950000,22.4235930000 114.2329710000,22.4235980000 114.2329500000,22.4236100000 114.2329360000,22.4236240000 114.2329260000,22.4236400000 114.2329200000,22.4236580000 114.2328920000,22.4236880000 114.2327930000,22.4237520000 114.2327180000,22.4237880000 114.2326280000,22.4238160000 114.2325230000,22.4238350000 114.2324350000,22.4238230000 114.2323110000,22.4237940000 114.2318790000,22.4236730000 114.2315160000,22.4235680000 114.2313400000,22.4235120000 114.2310930000,22.4234470000 114.2303900000,22.4232590000 114.2303150000,22.4232430000 114.2302330000,22.4232380000 114.2301220000,22.4232540000 114.2300510000,22.4232870000 114.2299820000,22.4233180000 114.2299330000,22.4233600000 114.2298800000,22.4234190000 114.2298210000,22.4235410000 114.2297830000,22.4236550000 114.2296660000,22.4238070000 114.2295810000,22.4238830000 114.2294710000,22.4239090000 114.2293600000,22.4239160000 114.2291880000,22.4238940000 114.2290980000,22.4238450000 114.2289320000,22.4237390000 114.2287260000,22.4235930000 114.2285650000,22.4234610000 114.2283550000,22.4232730000 114.2281200000,22.4229960000 114.2278290000,22.4225130000 114.2277550000,22.4224100000 114.2279350000,22.4223100000 114.2284140000,22.4220540000 114.2287170000,22.4218830000 114.2288440000,22.4217870000 114.2288810000,22.4217590000 114.2290240000,22.4216510000 114.2292170000,22.4214680000 114.2293320000,22.4213400000 114.2295260000,22.4210490000 114.2295710000,22.4209600000 114.2295970000,22.4208550000 114.2296220000,22.4207260000 114.2296320000,22.4206340000 114.2296270000,22.4204850000 114.2296120000,22.4203840000 114.2295830000,22.4202410000 114.2295440000,22.4201200000 114.2294870000,22.4199480000 114.2294280000,22.4198030000 114.2293890000,22.4196790000 114.2293520000,22.4194750000 114.2293430000,22.4193810000 114.2293500000,22.4192900000 114.2293580000,22.4192180000 114.2293770000,22.4191340000 114.2294020000,22.4190340000 114.2294430000,22.4189390000 114.2295060000,22.4188110000 114.2296090000,22.4186850000 114.2296930000,22.4185970000 114.2298130000,22.4184880000 114.2299020000,22.4184230000 114.2299870000,22.4183770000 114.2300760000,22.4183300000 114.2313850000,22.4177110000 114.2314960000,22.4176890000 114.2316410000,22.4176700000 114.2317120000,22.4176860000 114.2317720000,22.4176810000 114.2318270000,22.4176610000 114.2318750000,22.4176270000 114.2319100000,22.4175820000 114.2319180000,22.4175660000 114.2319320000,22.4175170000 114.2319320000,22.4174650000 114.2319170000,22.4174160000 114.2318890000,22.4173710000 114.2318490000,22.4173350000 114.2317930000,22.4173080000 114.2316880000,22.4172500000 114.2315440000,22.4171280000 114.2309720000,22.4166080000 114.2306140000,22.4162290000 114.2305280000,22.4161200000 114.2304430000,22.4159850000 114.2303840000,22.4158680000 114.2303500000,22.4157300000 114.2303260000,22.4155230000 114.2302990000,22.4153880000 114.2302520000,22.4152420000 114.2302070000,22.4151330000 114.2301360000,22.4150090000 114.2300580000,22.4149210000 114.2299870000,22.4148550000 114.2297700000,22.4147050000 114.2295100000,22.4145660000 114.2291930000,22.4144190000 114.2286180000,22.4141720000 114.2285150000,22.4141360000 114.2280430000,22.4139550000 114.2277310000,22.4138320000 114.2273860000,22.4137430000 114.2270030000,22.4135610000 114.2265960000,22.4133530000 114.2265000000,22.4132990000 114.2260530000,22.4130260000 114.2259100000,22.4129420000 114.2257200000,22.4128130000 114.2254740000,22.4126330000 114.2252640000,22.4124780000 114.2250900000,22.4123140000 114.2246980000,22.4119140000 114.2244630000,22.4116350000 114.2243330000,22.4114610000 114.2242330000,22.4112930000 114.2240810000,22.4110080000 114.2239600000,22.4107640000 114.2238250000,22.4104580000 114.2237460000,22.4101940000 114.2236430000,22.4098570000 114.2234520000,22.4092830000 114.2229540000,22.4083950000 114.2226980000,22.4079890000 114.2223940000,22.4075370000 114.2221860000,22.4072270000 114.2221460000,22.4071760000 114.2217680000,22.4067080000 114.2216750000,22.4065910000 114.2215310000,22.4064220000 114.2213950000,22.4062720000 114.2212080000,22.4060800000 114.2210540000,22.4059280000 114.2208620000,22.4057350000 114.2207010000,22.4055900000 114.2205110000,22.4054210000 114.2203060000,22.4052530000 114.2201880000,22.4051450000 114.2196890000,22.4047680000 114.2194540000,22.4045920000 114.2192770000,22.4044650000 114.2190010000,22.4042830000 114.2179360000,22.4035990000 114.2175730000,22.4033740000 114.2173320000,22.4032320000 114.2170910000,22.4031010000 114.2169160000,22.4030090000 114.2167510000,22.4029210000 114.2165730000,22.4028420000 114.2163480000,22.4027340000 114.2161990000,22.4026640000 114.2159130000,22.4025340000 114.2156460000,22.4023860000 114.2155150000,22.4023630000 114.2151960000,22.4021380000 114.2149990000,22.4019880000 114.2148570000,22.4018710000 114.2146710000,22.4017240000 114.2145020000,22.4015780000 114.2143300000,22.4014230000 114.2142090000,22.4013060000 114.2140240000,22.4011200000 114.2137620000,22.4008400000 114.2127810000,22.3998020000 114.2126010000,22.3995960000 114.2124720000,22.3994680000 114.2118760000,22.3987410000 114.2117210000,22.3985150000 114.2115700000,22.3982940000 114.2114550000,22.3981230000 114.2113420000,22.3979240000 114.2111970000,22.3976840000 114.2110310000,22.3973870000 114.2108630000,22.3971000000 114.2107240000,22.3968120000 114.2105710000,22.3965130000 114.2104070000,22.3961210000 114.2102840000,22.3958400000 114.2101620000,22.3955270000 114.2099900000,22.3950030000 114.2098520000,22.3945370000 114.2097560000,22.3942140000 114.2096620000,22.3938580000 114.2096370000,22.3937240000 114.2096120000,22.3935550000 114.2096000000,22.3933870000 114.2095850000,22.3932130000 114.2095880000,22.3930360000 114.2095880000,22.3928670000 114.2095980000,22.3927040000 114.2096240000,22.3923990000 114.2096510000,22.3921930000 114.2096980000,22.3919600000 114.2097490000,22.3917730000 114.2098110000,22.3915490000 114.2098750000,22.3913520000 114.2099490000,22.3911610000 114.2100360000,22.3909630000 114.2100910000,22.3908310000 114.2101480000,22.3907110000 114.2102240000,22.3905480000 114.2103460000,22.3902950000 114.2104760000,22.3900290000 114.2105550000,22.3898690000 114.2106480000,22.3896770000 114.2107760000,22.3894240000 114.2108670000,22.3892400000 114.2109560000,22.3890440000 114.2110510000,22.3887890000 114.2111330000,22.3885190000 114.2111770000,22.3882950000 114.2112240000,22.3880230000 114.2112370000,22.3878200000 114.2112210000,22.3873360000 114.2112150000,22.3871660000 114.2112320000,22.3868530000 114.2111800000,22.3865240000 114.2111050000,22.3859490000 114.2110450000,22.3854520000 114.2109920000,22.3851410000 114.2109570000,22.3849090000 114.2109430000,22.3847630000 114.2109420000,22.3844130000 114.2109710000,22.3839180000 114.2109780000,22.3837280000 114.2109800000,22.3835500000 114.2109650000,22.3833600000 114.2109390000,22.3831470000 114.2108500000,22.3828400000 114.2107400000,22.3825900000 114.2105820000,22.3823400000 114.2104600000,22.3821900000 114.2103790000,22.3820980000 114.2102990000,22.3820200000 114.2101700000,22.3819200000 114.2100200000,22.3818220000 114.2098300000,22.3817100000 114.2096200000,22.3816000000 114.2091600000,22.3813800000 114.2087700000,22.3811880000 114.2086500000,22.3811200000 114.2082900000,22.3809090000 114.2081000000,22.3807800000 114.2052590000,22.3789250000 114.2042180000,22.3782740000 114.2039270000,22.3781190000 114.2035450000,22.3779550000 114.2032950000,22.3778220000 114.2029890000,22.3777150000 114.2027590000,22.3776460000 114.2025520000,22.3775970000 114.2022810000,22.3775610000 114.2020550000,22.3775460000 114.2018300000,22.3775550000 114.2014380000,22.3776090000 114.2011580000,22.3776470000 114.2009070000,22.3777140000 114.2007460000,22.3778070000 114.2006220000,22.3778250000 114.2000460000,22.3779790000 114.2000090000,22.3779900000 114.1998430000,22.3780380000 114.1997050000,22.3780910000 114.1993980000,22.3781830000 114.1992860000,22.3781950000 114.1991400000,22.3782360000 114.1990720000,22.3782600000 114.1989440000,22.3782980000 114.1984060000,22.3784480000 114.1979380000,22.3785770000 114.1976130000,22.3786710000 114.1975570000,22.3786870000 114.1974070000,22.3787320000 114.1971620000,22.3788120000 114.1970930000,22.3788400000 114.1968150000,22.3789590000 114.1967340000,22.3789950000 114.1966470000,22.3790350000 114.1963180000,22.3792090000 114.1961980000,22.3792900000 114.1957260000,22.3796280000 114.1951930000,22.3800650000 114.1947600000,22.3804190000 114.1947240000,22.3804480000 114.1945290000,22.3805880000 114.1945030000,22.3806060000 114.1943900000,22.3807020000 114.1942760000,22.3808010000 114.1941980000,22.3808690000 114.1941220000,22.3809350000 114.1940280000,22.3810160000 114.1928020000,22.3820450000 114.1925640000,22.3822370000 114.1923480000,22.3823940000 114.1922520000,22.3824640000 114.1919690000,22.3826990000 114.1919410000,22.3827240000 114.1918590000,22.3827960000 114.1917580000,22.3828850000 114.1916590000,22.3829730000 114.1910030000,22.3835250000 114.1905580000,22.3838990000 114.1901670000,22.3841980000 114.1900010000,22.3843370000 114.1899120000,22.3844110000 114.1894990000,22.3840970000 114.1893000000,22.3839270000 114.1892280000,22.3838720000 114.1889180000,22.3836170000 114.1884460000,22.3830860000 114.1882100000,22.3828150000 114.1879840000,22.3826060000 114.1879290000,22.3825370000 114.1877310000,22.3822690000 114.1874490000,22.3819050000 114.1872230000,22.3815960000 114.1870640000,22.3813790000 114.1869230000,22.3811660000 114.1867700000,22.3809390000 114.1866090000,22.3806950000 114.1865310000,22.3805600000 114.1864450000,22.3804030000 114.1860570000,22.3798440000 114.1859730000,22.3797330000 114.1858450000,22.3795540000 114.1856900000,22.3793580000 114.1855960000,22.3792470000 114.1855230000,22.3791710000 114.1853170000,22.3789820000 114.1849910000,22.3787260000 114.1847910000,22.3785970000 114.1845800000,22.3784760000 114.1843630000,22.3783740000 114.1841990000,22.3782980000 114.1837570000,22.3781260000 114.1829650000,22.3778670000 114.1822360000,22.3776350000 114.1820640000,22.3775750000 114.1816840000,22.3774710000 114.1814980000,22.3774440000 114.1812870000,22.3774210000 114.1810520000,22.3774200000 114.1808430000,22.3774280000 114.1806100000,22.3774590000 114.1804500000,22.3774990000 114.1801290000,22.3775850000 114.1798610000,22.3777000000 114.1796600000,22.3778190000 114.1794660000,22.3779570000 114.1793090000,22.3780750000 114.1789230000,22.3784040000 114.1784760000,22.3788100000 114.1784100000,22.3788710000 114.1774310000,22.3797740000 114.1763630000,22.3807830000 114.1757910000,22.3812990000 114.1756250000,22.3814500000 114.1753740000,22.3816650000 114.1751620000,22.3818230000 114.1749450000,22.3819760000 114.1746780000,22.3821320000 114.1743500000,22.3822840000 114.1738990000,22.3824310000 114.1736290000,22.3824930000 114.1733690000,22.3825280000 114.1731010000,22.3825510000 114.1727890000,22.3825450000 114.1723730000,22.3824950000 114.1722180000,22.3824650000 114.1720970000,22.3824310000 114.1719050000,22.3823750000 114.1717170000,22.3823160000 114.1715470000,22.3822560000 114.1712950000,22.3821510000 114.1711190000,22.3820740000 114.1709400000,22.3819960000 114.1707000000,22.3818820000 114.1704200000,22.3817640000 114.1701000000,22.3816290000 114.1698070000,22.3815240000 114.1695290000,22.3814290000 114.1692690000,22.3813440000 114.1688010000,22.3812260000 114.1682450000,22.3810940000 114.1673670000,22.3808810000 114.1670930000,22.3808140000 114.1668980000,22.3807690000 114.1664100000,22.3806480000 114.1659630000,22.3805080000 114.1656210000,22.3803960000 114.1653040000,22.3802520000 114.1651070000,22.3801850000 114.1517300000,22.3764040000 114.1508650000,22.3762300000 114.1498240000,22.3761100000 114.1488660000,22.3761030000 114.1475450000,22.3762030000 114.1461600000,22.3764600000 114.1446760000,22.3768880000 114.1433660000,22.3774400000 114.1423460000,22.3779780000 114.1411700000,22.3787770000 114.1409530000,22.3789520000 114.1405850000,22.3792910000 114.1403220000,22.3795610000 114.1402590000,22.3796220000 114.1401300000,22.3797470000 114.1390980000,22.3807770000 114.1388490000,22.3809930000 114.1386210000,22.3811450000 114.1385090000,22.3812060000 114.1384700000,22.3812300000 114.1384310000,22.3812520000 114.1384070000,22.3812650000 114.1381710000,22.3813800000 114.1380640000,22.3814230000 114.1379350000,22.3814750000 114.1377070000,22.3815260000 114.1374010000,22.3815670000 114.1369550000,22.3815930000 114.1366040000,22.3815900000 114.1356080000,22.3815430000 114.1352700000,22.3815100000 114.1350330000,22.3814770000 114.1348580000,22.3814340000 114.1346870000,22.3813880000 114.1344450000,22.3813060000 114.1342370000,22.3812130000 114.1340520000,22.3811230000 114.1338670000,22.3809780000 114.1337740000,22.3808990000 114.1336890000,22.3808110000 114.1335900000,22.3806980000 114.1334880000,22.3805750000 114.1332850000,22.3803290000 114.1332090000,22.3802420000 114.1331180000,22.3801580000 114.1329890000,22.3800670000 114.1328460000,22.3799630000 114.1323650000,22.3797300000 114.1322810000,22.3797020000 114.1322170000,22.3796880000 114.1321420000,22.3796840000 114.1320580000,22.3796950000 114.1319840000,22.3797230000 114.1319410000,22.3797500000 114.1318710000,22.3798200000 114.1318010000,22.3799270000 114.1317770000,22.3800020000 114.1317630000,22.3801090000 114.1317850000,22.3801770000 114.1318140000,22.3802270000 114.1318450000,22.3802750000 114.1318890000,22.3803180000 114.1319510000,22.3803670000 114.1320150000,22.3804040000 114.1324390000,22.3806020000 114.1326100000,22.3806550000 114.1327640000,22.3807210000 114.1329020000,22.3807790000 114.1332290000,22.3809390000 114.1333240000,22.3809680000 114.1334140000,22.3809820000 114.1334950000,22.3809860000 114.1335660000,22.3809730000 114.1336210000,22.3809530000 114.1336940000,22.3809040000 114.1337470000,22.3808460000 114.1337820000,22.3807860000 114.1338010000,22.3807240000 114.1338080000,22.3806540000 114.1338260000,22.3805970000 114.1338540000,22.3805320000 114.1338950000,22.3804740000 114.1339490000,22.3804190000 114.1340160000,22.3803670000 114.1341030000,22.3803250000 114.1341900000,22.3803030000 114.1343050000,22.3802900000 114.1344290000,22.3802900000 114.1345890000,22.3802840000 114.1352260000,22.3803480000 114.1352690000,22.3803530000 114.1353140000,22.3803570000 114.1360130000,22.3804370000 114.1362840000,22.3804480000 114.1366110000,22.3803940000 114.1368220000,22.3803160000 114.1368520000,22.3803010000 114.1369450000,22.3802500000 114.1370480000,22.3801770000 114.1371420000,22.3800870000 114.1372320000,22.3799910000 114.1373570000,22.3798280000 114.1373920000,22.3797420000 114.1374210000,22.3796670000 114.1374780000,22.3795270000 114.1374950000,22.3794390000 114.1375030000,22.3793560000 114.1375000000,22.3792740000 114.1374950000,22.3791870000 114.1374820000,22.3791010000 114.1374690000,22.3790150000 114.1374430000,22.3789240000 114.1373990000,22.3787670000 114.1372670000,22.3784220000 114.1372330000,22.3783480000 114.1372000000,22.3782670000 114.1371800000,22.3782230000 114.1371210000,22.3781130000 114.1370810000,22.3780310000 114.1370330000,22.3778820000 114.1370140000,22.3778120000 114.1369270000,22.3775770000 114.1365950000,22.3766780000 114.1365570000,22.3765430000 114.1365420000,22.3764930000 114.1365180000,22.3764130000 114.1364990000,22.3762480000 114.1364900000,22.3761900000 114.1364860000,22.3761660000 114.1364450000,22.3759610000 114.1364030000,22.3757700000 114.1363930000,22.3756210000 114.1363960000,22.3751410000 114.1363970000,22.3750120000 114.1364070000,22.3744950000 114.1364090000,22.3743130000 114.1364070000,22.3742140000 114.1363870000,22.3731400000 114.1363870000,22.3730780000 114.1363670000,22.3726870000 114.1363760000,22.3725410000 114.1363590000,22.3724710000 114.1363380000,22.3723990000 114.1363010000,22.3723310000 114.1362830000,22.3722980000 114.1362130000,22.3721810000 114.1361910000,22.3721510000 114.1361300000,22.3720920000 114.1359470000,22.3719580000 114.1359010000,22.3718010000 114.1356110000,22.3715830000 114.1355550000,22.3715420000 114.1353780000,22.3714120000 114.1352300000,22.3712930000 114.1352000000,22.3712620000 114.1350590000,22.3711160000 114.1349190000,22.3710710000 114.1348320000,22.3709410000 114.1347490000,22.3707930000 114.1346980000,22.3706520000 114.1345630000,22.3702870000 114.1345080000,22.3699990000 114.1344980000,22.3699570000 114.1344430000,22.3697430000 114.1343160000,22.3689930000 114.1342770000,22.3687560000 114.1341900000,22.3684990000 114.1341620000,22.3684150000 114.1339700000,22.3679460000 114.1339070000,22.3677710000 114.1338220000,22.3675090000 114.1335820000,22.3668570000 114.1333810000,22.3662530000 114.1331750000,22.3656850000 114.1331430000,22.3655960000 114.1329600000,22.3652310000 114.1328450000,22.3648730000 114.1328160000,22.3647900000 114.1327960000,22.3647330000 114.1326400000,22.3642780000 114.1324240000,22.3635380000 114.1323860000,22.3634480000 114.1319480000,22.3621710000 114.1318500000,22.3618560000 114.1318280000,22.3617900000 114.1317270000,22.3615060000 114.1316760000,22.3613690000 114.1315800000,22.3610850000 114.1315690000,22.3610560000 114.1315360000,22.3609760000 114.1315040000,22.3608970000 114.1313290000,22.3609370000 114.1311670000,22.3609770000 114.1311380000,22.3609910000 114.1310360000,22.3610330000 114.1307550000,22.3611900000 114.1306190000,22.3612740000 114.1305210000,22.3613320000 114.1305160000,22.3613350000 114.1303850000,22.3614110000 114.1302650000,22.3615170000 114.1302140000,22.3615630000 114.1302730000,22.3616210000 114.1305270000,22.3618740000 114.1308280000,22.3621690000 114.1307360000,22.3622860000 114.1306720000,22.3624300000 114.1306140000,22.3625320000 114.1305430000,22.3627220000 114.1305310000,22.3628030000 114.1305300000,22.3628950000 114.1305500000,22.3630350000 114.1307880000,22.3640970000 114.1308650000,22.3644270000 114.1309120000,22.3645950000 114.1309490000,22.3647300000 114.1310050000,22.3649320000 114.1310170000,22.3650540000 114.1310030000,22.3651870000 114.1308880000,22.3654460000 114.1308440000,22.3655780000 114.1307630000,22.3658160000 114.1307640000,22.3658830000 114.1307890000,22.3659480000 114.1308430000,22.3660260000 114.1308980000,22.3660740000 114.1310110000,22.3661700000 114.1312060000,22.3663380000 114.1313660000,22.3664750000 114.1314480000,22.3665460000 114.1315150000,22.3666170000 114.1315720000,22.3667130000 114.1316030000,22.3668380000 114.1315860000,22.3669840000 114.1312640000,22.3674540000 114.1311680000,22.3675830000 114.1310590000,22.3677520000 114.1309900000,22.3678620000 114.1309300000,22.3679470000 114.1308480000,22.3680330000 114.1307820000,22.3680950000 114.1306950000,22.3681340000 114.1306110000,22.3681640000 114.1305360000,22.3681790000 114.1304670000,22.3681850000 114.1303730000,22.3681850000 114.1299050000,22.3681840000 114.1297080000,22.3681830000 114.1295290000,22.3681830000 114.1293490000,22.3681830000 114.1292600000,22.3681830000 114.1290030000,22.3681840000 114.1278370000,22.3681820000 114.1276460000,22.3681840000 114.1271850000,22.3681900000 114.1271540000,22.3681910000 114.1270130000,22.3681910000 114.1268220000,22.3681890000 114.1267280000,22.3681900000 114.1266630000,22.3681780000 114.1266140000,22.3681530000 114.1265690000,22.3681140000 114.1265450000,22.3680590000 114.1265130000,22.3679840000 114.1264310000,22.3677850000 114.1262900000,22.3674410000 114.1262690000,22.3673880000 114.1265560000,22.3672720000 114.1277420000,22.3668350000 114.1284030000,22.3665910000 114.1285850000,22.3665680000 114.1287010000,22.3665750000 114.1288050000,22.3666170000 114.1288920000,22.3666690000 114.1289470000,22.3667330000 114.1289860000,22.3668150000 114.1289990000,22.3669020000 114.1290010000,22.3673140000 114.1290030000,22.3681840000 114.1292600000,22.3681830000 114.1293490000,22.3681830000 114.1295290000,22.3681830000 114.1297080000,22.3681830000 114.1299050000,22.3681840000 114.1303730000,22.3681850000 114.1304670000,22.3681850000 114.1305360000,22.3681790000 114.1306110000,22.3681640000 114.1306950000,22.3681340000 114.1307820000,22.3680950000 114.1308480000,22.3680330000 114.1309300000,22.3679470000 114.1309900000,22.3678620000 114.1310590000,22.3677520000 114.1311680000,22.3675830000 114.1312640000,22.3674540000 114.1315860000,22.3669840000 114.1316030000,22.3668380000 114.1315720000,22.3667130000 114.1315150000,22.3666170000 114.1314480000,22.3665460000 114.1313660000,22.3664750000 114.1312060000,22.3663380000 114.1310110000,22.3661700000 114.1308980000,22.3660740000 114.1308430000,22.3660260000 114.1307890000,22.3659480000 114.1307640000,22.3658830000 114.1307630000,22.3658160000 114.1308440000,22.3655780000 114.1308880000,22.3654460000 114.1310030000,22.3651870000 114.1310170000,22.3650540000 114.1310050000,22.3649320000 114.1309490000,22.3647300000 114.1309120000,22.3645950000 114.1308650000,22.3644270000 114.1307880000,22.3640970000 114.1305500000,22.3630350000 114.1305300000,22.3628950000 114.1305310000,22.3628030000 114.1305430000,22.3627220000 114.1306140000,22.3625320000 114.1306720000,22.3624300000 114.1308160000,22.3623370000 114.1309110000,22.3622430000 114.1309680000,22.3621930000 114.1308880000,22.3621160000 114.1306920000,22.3619450000 114.1305750000,22.3618300000 114.1303250000,22.3615740000 114.1304710000,22.3614630000 114.1304940000,22.3614460000 114.1307320000,22.3613050000 114.1308590000,22.3612950000 114.1309500000,22.3612970000 114.1310440000,22.3613110000 114.1312260000,22.3613940000 114.1312500000,22.3614190000 114.1313430000,22.3615170000 114.1314020000,22.3616110000 114.1314760000,22.3617320000 114.1315330000,22.3618300000 114.1316620000,22.3620190000 114.1317310000,22.3621460000 114.1317510000,22.3622050000 114.1319610000,22.3627320000 114.1321070000,22.3631680000 114.1322950000,22.3635530000 114.1325220000,22.3641860000 114.1327690000,22.3648970000 114.1330740000,22.3658110000 114.1331540000,22.3660290000 114.1332310000,22.3661690000 114.1333320000,22.3664480000 114.1334250000,22.3667380000 114.1335410000,22.3670570000 114.1336290000,22.3673110000 114.1337170000,22.3675590000 114.1337950000,22.3677840000 114.1339010000,22.3680970000 114.1340360000,22.3685090000 114.1341720000,22.3690920000 114.1342240000,22.3693410000 114.1342600000,22.3695080000 114.1343190000,22.3699080000 114.1343950000,22.3702920000 114.1344490000,22.3704930000 114.1345180000,22.3706610000 114.1346110000,22.3708700000 114.1347140000,22.3710170000 114.1348740000,22.3712250000 114.1350180000,22.3713670000 114.1351700000,22.3714750000 114.1354860000,22.3717210000 114.1359120000,22.3720290000 114.1360620000,22.3721390000 114.1361220000,22.3722280000 114.1361990000,22.3723320000 114.1362580000,22.3724320000 114.1363150000,22.3725570000 114.1363670000,22.3726870000 114.1363870000,22.3730780000 114.1363870000,22.3731400000 114.1364070000,22.3742140000 114.1364090000,22.3743130000 114.1364070000,22.3744950000 114.1363970000,22.3750120000 114.1363960000,22.3751410000 114.1363930000,22.3756210000 114.1364030000,22.3757700000 114.1364450000,22.3759610000 114.1364860000,22.3761660000 114.1364900000,22.3761900000 114.1364990000,22.3762480000 114.1365180000,22.3764130000 114.1365420000,22.3764930000 114.1365570000,22.3765430000 114.1365950000,22.3766780000 114.1369270000,22.3775770000 114.1370140000,22.3778120000 114.1370330000,22.3778820000 114.1370810000,22.3780310000 114.1371210000,22.3781130000 114.1371800000,22.3782230000 114.1372000000,22.3782670000 114.1372330000,22.3783480000 114.1372670000,22.3784220000 114.1373990000,22.3787670000 114.1374430000,22.3789240000 114.1374690000,22.3790150000 114.1374820000,22.3791010000 114.1374950000,22.3791870000 114.1375000000,22.3792740000 114.1375030000,22.3793560000 114.1374950000,22.3794390000 114.1374780000,22.3795270000 114.1374210000,22.3796670000 114.1373920000,22.3797420000 114.1373570000,22.3798280000 114.1372320000,22.3799910000 114.1371420000,22.3800870000 114.1370480000,22.3801770000 114.1369450000,22.3802500000 114.1368520000,22.3803010000 114.1368220000,22.3803160000 114.1366110000,22.3803940000 114.1362840000,22.3804480000 114.1360130000,22.3804370000 114.1353140000,22.3803570000 114.1352690000,22.3803530000 114.1352260000,22.3803480000 114.1345890000,22.3802840000 114.1344700000,22.3802550000 114.1343900000,22.3802320000 114.1342850000,22.3802210000 114.1341800000,22.3802250000 114.1340920000,22.3802270000 114.1339780000,22.3802480000 114.1338620000,22.3802920000 114.1337770000,22.3803080000 114.1336870000,22.3803110000 114.1336740000,22.3803100000 114.1336060000,22.3803040000 114.1335340000,22.3802870000 114.1334560000,22.3802630000 114.1332960000,22.3801860000 114.1330120000,22.3800320000 114.1328460000,22.3799630000 114.1323650000,22.3797300000 114.1322810000,22.3797020000 114.1322170000,22.3796880000 114.1321420000,22.3796840000 114.1320580000,22.3796950000 114.1319840000,22.3797230000 114.1319410000,22.3797500000 114.1318710000,22.3798200000 114.1318010000,22.3799270000 114.1317770000,22.3800020000 114.1317630000,22.3801090000 114.1317850000,22.3801770000 114.1318140000,22.3802270000 114.1318450000,22.3802750000 114.1318890000,22.3803180000 114.1319510000,22.3803670000 114.1320150000,22.3804040000 114.1324390000,22.3806020000 114.1325940000,22.3806930000 114.1327300000,22.3807670000 114.1328630000,22.3808370000 114.1336170000,22.3812060000 114.1339320000,22.3813240000 114.1342560000,22.3814570000 114.1346090000,22.3815710000 114.1348290000,22.3816310000 114.1351690000,22.3816550000 114.1354170000,22.3816900000 114.1356530000,22.3817190000 114.1366060000,22.3817870000 114.1369270000,22.3817920000 114.1372550000,22.3817900000 114.1374830000,22.3817790000 114.1375640000,22.3817670000 114.1376790000,22.3817460000 114.1378280000,22.3817260000 114.1380740000,22.3816480000 114.1382800000,22.3815870000 114.1385670000,22.3814620000 114.1386050000,22.3814430000 114.1386490000,22.3814210000 114.1388270000,22.3813240000 114.1390060000,22.3811960000 114.1391470000,22.3810740000 114.1393030000,22.3808900000 114.1396370000,22.3805000000 114.1400060000,22.3801180000 114.1404220000,22.3797230000 114.1408050000,22.3794220000 114.1413630000,22.3789950000 114.1425200000,22.3782530000 114.1435020000,22.3777280000 114.1448220000,22.3772050000 114.1462250000,22.3767980000 114.1476000000,22.3765310000 114.1488560000,22.3764450000 114.1498230000,22.3764580000 114.1507480000,22.3765790000 114.1516260000,22.3767620000 114.1569850000,22.3782750000 114.1644570000,22.3803840000 114.1650760000,22.3805090000 114.1657450000,22.3806200000 114.1659130000,22.3806490000 114.1663390000,22.3807610000 114.1674320000,22.3810070000 114.1681910000,22.3811930000 114.1687440000,22.3813220000 114.1692270000,22.3814360000 114.1696860000,22.3815830000 114.1698960000,22.3816600000 114.1701060000,22.3817520000 114.1703460000,22.3818500000 114.1706430000,22.3819730000 114.1709120000,22.3820960000 114.1710530000,22.3821610000 114.1712620000,22.3822550000 114.1715140000,22.3823540000 114.1716860000,22.3824200000 114.1718590000,22.3824830000 114.1720410000,22.3825360000 114.1721760000,22.3825680000 114.1724710000,22.3826220000 114.1726320000,22.3826360000 114.1731030000,22.3826530000 114.1733320000,22.3826480000 114.1736200000,22.3826030000 114.1741200000,22.3824710000 114.1743780000,22.3823800000 114.1747750000,22.3821960000 114.1749430000,22.3820960000 114.1751440000,22.3819620000 114.1753690000,22.3817940000 114.1758360000,22.3814020000 114.1764370000,22.3808290000 114.1771130000,22.3802210000 114.1775180000,22.3798440000 114.1781420000,22.3792620000 114.1782400000,22.3791730000 114.1793680000,22.3781590000 114.1795370000,22.3780330000 114.1797380000,22.3778940000 114.1799040000,22.3777890000 114.1800740000,22.3777090000 114.1803420000,22.3776110000 114.1805500000,22.3775490000 114.1806630000,22.3775310000 114.1809140000,22.3774960000 114.1810990000,22.3774910000 114.1812940000,22.3774960000 114.1814360000,22.3775130000 114.1816450000,22.3775490000 114.1819550000,22.3776250000 114.1822060000,22.3777060000 114.1825270000,22.3778140000 114.1833640000,22.3780940000 114.1836370000,22.3782150000 114.1840660000,22.3783430000 114.1843300000,22.3784580000 114.1845340000,22.3785510000 114.1849310000,22.3787890000 114.1852360000,22.3790300000 114.1854000000,22.3791910000 114.1855160000,22.3793170000 114.1856050000,22.3794330000 114.1857910000,22.3796670000 114.1862480000,22.3803870000 114.1863270000,22.3805060000 114.1864540000,22.3807280000 114.1866430000,22.3810070000 114.1867900000,22.3812270000 114.1869570000,22.3814460000 114.1871060000,22.3816370000 114.1873750000,22.3819520000 114.1876600000,22.3823020000 114.1878880000,22.3826090000 114.1879440000,22.3826920000 114.1880620000,22.3829220000 114.1882180000,22.3831380000 114.1886280000,22.3837040000 114.1888900000,22.3841140000 114.1891170000,22.3844910000 114.1892950000,22.3847570000 114.1893870000,22.3848490000 114.1894550000,22.3849330000 114.1898880000,22.3845880000 114.1900020000,22.3844940000 114.1902620000,22.3842920000 114.1910910000,22.3836070000 114.1916580000,22.3831320000 114.1916820000,22.3831120000 114.1918470000,22.3829740000 114.1919620000,22.3828960000 114.1920830000,22.3827980000 114.1923580000,22.3825750000 114.1926460000,22.3823340000 114.1936360000,22.3814850000 114.1938730000,22.3812970000 114.1941020000,22.3811000000 114.1941860000,22.3810340000 114.1942000000,22.3810220000 114.1942660000,22.3809690000 114.1943680000,22.3808850000 114.1944800000,22.3807950000 114.1951120000,22.3802650000 114.1957040000,22.3797870000 114.1958150000,22.3796970000 114.1960800000,22.3794830000 114.1962690000,22.3793650000 114.1963260000,22.3793410000 114.1966160000,22.3791720000 114.1966570000,22.3791550000 114.1967050000,22.3791340000 114.1967870000,22.3790990000 114.1971620000,22.3789390000 114.1974740000,22.3788240000 114.1975890000,22.3787860000 114.1976660000,22.3787640000 114.1979650000,22.3786900000 114.1982730000,22.3786110000 114.1985130000,22.3785470000 114.1990310000,22.3784200000 114.1991400000,22.3783830000 114.1995400000,22.3782780000 114.1997500000,22.3782230000 114.1998940000,22.3781780000 114.2000230000,22.3781390000 114.2004770000,22.3780210000 114.2006590000,22.3779730000 114.2007640000,22.3779480000 114.2007760000,22.3779460000 114.2008950000,22.3779250000 114.2010520000,22.3778990000 114.2014060000,22.3778320000 114.2016230000,22.3778180000 114.2017770000,22.3778240000 114.2018630000,22.3778270000 114.2021880000,22.3778470000 114.2026070000,22.3779170000 114.2029350000,22.3780010000 114.2032790000,22.3781090000 114.2035860000,22.3782100000 114.2038100000,22.3782930000 114.2042240000,22.3784840000 114.2048720000,22.3788060000 114.2051940000,22.3790210000 114.2083500000,22.3810900000 114.2091400000,22.3816000000 114.2092800000,22.3816950000 114.2094000000,22.3817870000 114.2095500000,22.3819100000 114.2097800000,22.3821250000 114.2099400000,22.3823150000 114.2101100000,22.3825850000 114.2102260000,22.3828760000 114.2103370000,22.3831930000 114.2104060000,22.3835690000 114.2104680000,22.3838950000 114.2105440000,22.3842770000 114.2105940000,22.3845440000 114.2107190000,22.3851940000 114.2107920000,22.3853990000 114.2109760000,22.3863920000 114.2110930000,22.3873440000 114.2110970000,22.3875330000 114.2110970000,22.3877150000 114.2110510000,22.3880820000 114.2110260000,22.3882700000 114.2109820000,22.3884920000 114.2109030000,22.3887750000 114.2108270000,22.3889850000 114.2107510000,22.3891670000 114.2106300000,22.3894110000 114.2105050000,22.3896260000 114.2102590000,22.3900050000 114.2101320000,22.3902270000 114.2100130000,22.3904140000 114.2099450000,22.3905420000 114.2098700000,22.3906850000 114.2098480000,22.3907490000 114.2096910000,22.3910970000 114.2096310000,22.3912610000 114.2095650000,22.3914620000 114.2095030000,22.3916800000 114.2094540000,22.3919080000 114.2094030000,22.3921420000 114.2093790000,22.3923090000 114.2093650000,22.3925010000 114.2093420000,22.3926810000 114.2093330000,22.3928410000 114.2093380000,22.3930220000 114.2093380000,22.3932050000 114.2093450000,22.3933860000 114.2093690000,22.3935770000 114.2093890000,22.3937210000 114.2094190000,22.3938870000 114.2094580000,22.3940560000 114.2095090000,22.3942450000 114.2095850000,22.3945390000 114.2097380000,22.3950350000 114.2099260000,22.3956020000 114.2100380000,22.3959000000 114.2101640000,22.3962190000 114.2103200000,22.3965720000 114.2104900000,22.3969110000 114.2106350000,22.3971770000 114.2107910000,22.3974660000 114.2109610000,22.3977650000 114.2110390000,22.3979000000 114.2111200000,22.3980430000 114.2112350000,22.3982320000 114.2113330000,22.3983770000 114.2114900000,22.3986080000 114.2116440000,22.3988240000 114.2118450000,22.3990970000 114.2120290000,22.3993280000 114.2122000000,22.3995360000 114.2124120000,22.3997700000 114.2126170000,22.3999970000 114.2132020000,22.4006480000 114.2135430000,22.4010000000 114.2138280000,22.4012920000 114.2141330000,22.4015620000 114.2143300000,22.4017400000 114.2144840000,22.4018760000 114.2146780000,22.4020320000 114.2148270000,22.4021430000 114.2150380000,22.4023140000 114.2152070000,22.4025060000 114.2155470000,22.4028060000 114.2158970000,22.4030700000 114.2164810000,22.4034100000 114.2170000000,22.4036460000 114.2174760000,22.4038320000 114.2181560000,22.4040980000 114.2184720000,22.4042460000 114.2187930000,22.4044300000 114.2191360000,22.4046510000 114.2192840000,22.4047580000 114.2195160000,22.4049240000 114.2199690000,22.4052770000 114.2201440000,22.4054070000 114.2202980000,22.4055540000 114.2205280000,22.4057460000 114.2206630000,22.4058830000 114.2208490000,22.4060530000 114.2210100000,22.4062160000 114.2212000000,22.4063990000 114.2213120000,22.4065290000 114.2215330000,22.4067870000 114.2217190000,22.4070380000 114.2218480000,22.4072140000 114.2219220000,22.4073280000 114.2220290000,22.4075160000 114.2222160000,22.4078530000 114.2223630000,22.4081550000 114.2224730000,22.4083630000 114.2225980000,22.4085800000 114.2228680000,22.4090380000 114.2231370000,22.4095790000 114.2233490000,22.4099930000 114.2234230000,22.4101500000 114.2235430000,22.4103880000 114.2235920000,22.4104560000 114.2236440000,22.4105390000 114.2238350000,22.4109060000 114.2240550000,22.4113130000 114.2242800000,22.4116340000 114.2244770000,22.4118890000 114.2245610000,22.4119860000 114.2247930000,22.4122050000 114.2249970000,22.4123820000 114.2251820000,22.4125310000 114.2253860000,22.4126900000 114.2256300000,22.4128660000 114.2258220000,22.4130140000 114.2260500000,22.4131670000 114.2262720000,22.4133020000 114.2265150000,22.4134400000 114.2267430000,22.4135800000 114.2270230000,22.4137180000 114.2272970000,22.4138490000 114.2275520000,22.4139590000 114.2278380000,22.4140930000 114.2281460000,22.4142260000 114.2282280000,22.4142650000 114.2288470000,22.4146670000 114.2290220000,22.4147990000 114.2291460000,22.4148980000 114.2294190000,22.4151310000 114.2295890000,22.4153030000 114.2296980000,22.4154310000 114.2300060000,22.4157790000 114.2303050000,22.4160700000 114.2306590000,22.4164070000 114.2311720000,22.4168840000 114.2314400000,22.4171690000 114.2314830000,22.4172140000 114.2315280000,22.4172800000 114.2315460000,22.4173280000 114.2315500000,22.4173800000 114.2315210000,22.4174360000 114.2314660000,22.4175150000 114.2314170000,22.4175760000 114.2313270000,22.4176260000 114.2302440000,22.4181400000 114.2300770000,22.4182170000 114.2299380000,22.4182930000 114.2298550000,22.4183400000 114.2296910000,22.4184620000 114.2295970000,22.4185480000 114.2294890000,22.4186590000 114.2294140000,22.4187610000 114.2293790000,22.4188250000 114.2293400000,22.4189010000 114.2293060000,22.4189950000 114.2292810000,22.4190730000 114.2292590000,22.4191750000 114.2292420000,22.4192760000 114.2292320000,22.4193810000 114.2292420000,22.4194960000 114.2292790000,22.4197070000 114.2292790000,22.4197070000 114.2293480000,22.4199130000 114.2294410000,22.4201560000 114.2294850000,22.4202710000 114.2295310000,22.4204950000 114.2295440000,22.4206290000 114.2295140000,22.4208400000 114.2294820000,22.4209350000 114.2294360000,22.4210220000 114.2292540000,22.4212720000 114.2291640000,22.4213800000 114.2289180000,22.4215990000 114.2286700000,22.4217930000 114.2285600000,22.4218580000 114.2283000000,22.4220090000 114.2279360000,22.4221980000 114.2276910000,22.4223250000 114.2276340000,22.4223580000 114.2274610000,22.4224550000 114.2275170000,22.4225470000 114.2276380000,22.4227190000 114.2280010000,22.4232450000 114.2281640000,22.4234330000 114.2283040000,22.4235650000 114.2284140000,22.4236760000 114.2285370000,22.4237700000 114.2287530000,22.4239310000 114.2291010000,22.4241460000 114.2293610000,22.4242910000 114.2294650000,22.4243340000 114.2295700000,22.4243780000 114.2296770000,22.4244180000 114.2298150000,22.4244700000 114.2300410000,22.4245370000 114.2303300000,22.4246150000 114.2309010000,22.4247760000 114.2318300000,22.4250460000 114.2326840000,22.4252770000 114.2333020000,22.4254400000 114.2338210000,22.4255470000 114.2340170000,22.4255860000 114.2341040000,22.4256000000 114.2341580000,22.4253530000 114.2342130000,22.4251150000 114.2342430000,22.4249360000 114.2342570000,22.4248030000 114.2342570000,22.4246600000 114.2342260000,22.4243110000 114.2341750000,22.4241110000 114.2340300000,22.4237640000 114.2337650000,22.4234720000 114.2335650000,22.4232320000 114.2330030000,22.4226040000 114.2329030000,22.4224630000 114.2327790000,22.4222470000 114.2326840000,22.4220530000 114.2326510000,22.4219670000 114.2325980000,22.4218330000 114.2327570000,22.4217850000 114.2331950000,22.4216520000 114.2335180000,22.4216030000 114.2338560000,22.4215990000 114.2340730000,22.4216430000 114.2342350000,22.4216910000 114.2343390000,22.4217360000 114.2344650000,22.4218030000 114.2347150000,22.4219770000 114.2352550000,22.4224840000 114.2354870000,22.4227060000 114.2359370000,22.4231140000 114.2360280000,22.4231960000 114.2361390000,22.4232890000 114.2362350000,22.4233720000 114.2365150000,22.4236120000 114.2368230000,22.4238220000 114.2369770000,22.4238970000 114.2371660000,22.4239570000 114.2374280000,22.4239810000 114.2376820000,22.4239750000 114.2381110000,22.4239250000 114.2388190000,22.4237960000 114.2390950000,22.4237720000 114.2393170000,22.4237950000 114.2395380000,22.4238740000 114.2397390000,22.4240340000 114.2399110000,22.4242520000 114.2400290000,22.4245930000 114.2400330000,22.4246490000 114.2400540000,22.4249520000 114.2400290000,22.4252210000 114.2399800000,22.4253670000 114.2399290000,22.4255140000 114.2397870000,22.4257550000 114.2394850000,22.4261420000 114.2393550000,22.4263200000 114.2393050000,22.4263830000 114.2392510000,22.4264510000 114.2390970000,22.4266380000 114.2392190000,22.4267240000 114.2399290000,22.4272610000 114.2403960000,22.4276060000 114.2410850000,22.4281340000 114.2418100000,22.4287280000 114.2419400000,22.4288900000 114.2420550000,22.4290870000 114.2420660000,22.4291390000 114.2420870000,22.4291900000 114.2421150000,22.4292370000 114.2421510000,22.4292790000 114.2421970000,22.4293180000 114.2422490000,22.4293490000 114.2423050000,22.4293720000 114.2423650000,22.4293870000 114.2424270000,22.4293910000 114.2424890000,22.4293870000 114.2425190000,22.4293840000 114.2425610000,22.4293720000 114.2426740000,22.4293840000 114.2428220000,22.4294080000 114.2430570000,22.4294810000 114.2432210000,22.4295330000 114.2433880000,22.4295800000 114.2435220000,22.4296080000 114.2437080000,22.4296470000 114.2440480000,22.4297030000 114.2442220000,22.4297120000 114.2444170000,22.4297130000 114.2446330000,22.4296970000 114.2449420000,22.4296580000 114.2452750000,22.4295550000 114.2462600000,22.4292070000 114.2467120000,22.4290910000 114.2470740000,22.4290500000 114.2472260000,22.4290560000 114.2473930000,22.4290750000 114.2496870000,22.4296820000 114.2498170000,22.4297270000 114.2501850000,22.4298560000 114.2506460000,22.4300080000 114.2510530000,22.4301520000 114.2516700000,22.4303690000 114.2520430000,22.4305050000 114.2522270000,22.4305660000 114.2526240000,22.4306800000 114.2527460000,22.4307200000 114.2528380000,22.4308040000 114.2528760000,22.4308480000 114.2528870000,22.4308550000 114.2529250000,22.4308790000 114.2529830000,22.4308970000 114.2529980000,22.4308970000 114.2530430000,22.4308980000 114.2530910000,22.4308870000 114.2531140000,22.4308770000 114.2531350000,22.4308660000 114.2531540000,22.4308510000 114.2532670000,22.4308040000 114.2534100000,22.4307920000 114.2535080000,22.4307850000 114.2535990000,22.4307640000 114.2537910000,22.4306880000 114.2541880000,22.4306500000 114.2545540000,22.4306210000 114.2552120000,22.4305570000 114.2552500000,22.4306160000 114.2552590000,22.4306300000 114.2553300000,22.4307160000 114.2554470000,22.4309040000 114.2554850000,22.4309380000 114.2555720000,22.4309440000 114.2557730000,22.4309320000</coordinates>
                </LineString>
                <ExtendedData>
                    <Data name="length">
                        <value>48192.42086707836</value>
                    </Data>
                    <Data name="duration">
                        <value>01:38:50</value>
                    </Data>
                </ExtendedData>
            </Placemark>
        </Document>
    </Document>
</kml>