<?xml version="1.0" encoding="UTF-8"?>
<kml xmlns="http://www.opengis.net/kml/2.2" xmlns:gx="http://www.google.com/kml/ext/2.2">
    <Document>
        <name>Route</name>
        <Folder>
            <name>Route Request</name>
            <Placemark>
                <address>Mei Shek House, On Muk Street, Shek Mun, Shek Kwu Lung, Sha Tin District, Hong Kong, STTL 506, PRC</address>
                <Point>
                    <coordinates>114.2099974195,22.3860558890</coordinates>
                </Point>
                <ExtendedData>
                    <Data name="postcode">
                        <value>STTL 506</value>
                    </Data>
                    <Data name="hamlet">
                        <value>Shek Kwu Lung</value>
                    </Data>
                    <Data name="county">
                        <value>Sha Tin District</value>
                    </Data>
                    <Data name="suburb">
                        <value>Shek Mun</value>
                    </Data>
                    <Data name="country">
                        <value>PRC</value>
                    </Data>
                    <Data name="road">
                        <value>On Muk Street</value>
                    </Data>
                    <Data name="country_code">
                        <value>cn</value>
                    </Data>
                    <Data name="building">
                        <value>Mei Shek House</value>
                    </Data>
                </ExtendedData>
            </Placemark>
            <Placemark>
                <address>Stewards Pooi Kei College, 56, Siu Lek Yuen Road, Siu Lek Yuen, Shek Kwu Lung, Sha Tin District, Hong Kong, STTL 506, PRC</address>
                <Point>
                    <coordinates>114.2138680394,22.3828866203</coordinates>
                </Point>
                <ExtendedData>
                    <Data name="postcode">
                        <value>STTL 506</value>
                    </Data>
                    <Data name="hamlet">
                        <value>Shek Kwu Lung</value>
                    </Data>
                    <Data name="county">
                        <value>Sha Tin District</value>
                    </Data>
                    <Data name="house_number">
                        <value>56</value>
                    </Data>
                    <Data name="suburb">
                        <value>Siu Lek Yuen</value>
                    </Data>
                    <Data name="country">
                        <value>PRC</value>
                    </Data>
                    <Data name="road">
                        <value>Siu Lek Yuen Road</value>
                    </Data>
                    <Data name="country_code">
                        <value>cn</value>
                    </Data>
                    <Data name="school">
                        <value>Stewards Pooi Kei College</value>
                    </Data>
                </ExtendedData>
            </Placemark>
            <Placemark>
                <address>Goodyear Autocare, Choi Hung Road, San Po Kong, Lion Rock Upper Village, Wong Tai Sin District, Hong Kong, NKIL 6164, PRC</address>
                <Point>
                    <coordinates>114.2011425080,22.3381610126</coordinates>
                </Point>
                <ExtendedData>
                    <Data name="postcode">
                        <value>NKIL 6164</value>
                    </Data>
                    <Data name="hamlet">
                        <value>Lion Rock Upper Village</value>
                    </Data>
                    <Data name="county">
                        <value>Wong Tai Sin District</value>
                    </Data>
                    <Data name="suburb">
                        <value>San Po Kong</value>
                    </Data>
                    <Data name="country">
                        <value>PRC</value>
                    </Data>
                    <Data name="address29">
                        <value>Goodyear Autocare</value>
                    </Data>
                    <Data name="road">
                        <value>Choi Hung Road</value>
                    </Data>
                    <Data name="country_code">
                        <value>cn</value>
                    </Data>
                </ExtendedData>
            </Placemark>
            <Placemark>
                <address>Lung Tai House, Ching Tak Street, Lower Wong Tai Sin Estate, Wong Tai Sin, Lion Rock Upper Village, Wong Tai Sin District, Hong Kong, NKIL 6164, PRC</address>
                <Point>
                    <coordinates>114.1920321130,22.3405995089</coordinates>
                </Point>
                <ExtendedData>
                    <Data name="postcode">
                        <value>NKIL 6164</value>
                    </Data>
                    <Data name="hamlet">
                        <value>Lion Rock Upper Village</value>
                    </Data>
                    <Data name="county">
                        <value>Wong Tai Sin District</value>
                    </Data>
                    <Data name="suburb">
                        <value>Wong Tai Sin</value>
                    </Data>
                    <Data name="country">
                        <value>PRC</value>
                    </Data>
                    <Data name="road">
                        <value>Ching Tak Street</value>
                    </Data>
                    <Data name="country_code">
                        <value>cn</value>
                    </Data>
                    <Data name="building">
                        <value>Lung Tai House</value>
                    </Data>
                    <Data name="residential">
                        <value>Lower Wong Tai Sin Estate</value>
                    </Data>
                </ExtendedData>
            </Placemark>
            <Placemark>
                <address>Temple Mall South, 103, Ching Tak Street, Lower Wong Tai Sin Estate, Wong Tai Sin, Lion Rock Upper Village, Wong Tai Sin District, Hong Kong, NKIL 6164, PRC</address>
                <Point>
                    <coordinates>114.1953477373,22.3412552381</coordinates>
                </Point>
                <ExtendedData>
                    <Data name="postcode">
                        <value>NKIL 6164</value>
                    </Data>
                    <Data name="hamlet">
                        <value>Lion Rock Upper Village</value>
                    </Data>
                    <Data name="county">
                        <value>Wong Tai Sin District</value>
                    </Data>
                    <Data name="house_number">
                        <value>103</value>
                    </Data>
                    <Data name="suburb">
                        <value>Wong Tai Sin</value>
                    </Data>
                    <Data name="mall">
                        <value>Temple Mall South</value>
                    </Data>
                    <Data name="country">
                        <value>PRC</value>
                    </Data>
                    <Data name="road">
                        <value>Ching Tak Street</value>
                    </Data>
                    <Data name="country_code">
                        <value>cn</value>
                    </Data>
                    <Data name="residential">
                        <value>Lower Wong Tai Sin Estate</value>
                    </Data>
                </ExtendedData>
            </Placemark>
            <Placemark>
                <address>H&amp;M, Lung Poon Street, Fung Wong, Diamond Hill, Lion Rock Upper Village, Wong Tai Sin District, Hong Kong, NKIL 6164, PRC</address>
                <Point>
                    <coordinates>114.2011413375,22.3410942719</coordinates>
                </Point>
                <ExtendedData>
                    <Data name="clothes">
                        <value>H&amp;M</value>
                    </Data>
                    <Data name="postcode">
                        <value>NKIL 6164</value>
                    </Data>
                    <Data name="hamlet">
                        <value>Lion Rock Upper Village</value>
                    </Data>
                    <Data name="county">
                        <value>Wong Tai Sin District</value>
                    </Data>
                    <Data name="suburb">
                        <value>Diamond Hill</value>
                    </Data>
                    <Data name="neighbourhood">
                        <value>Fung Wong</value>
                    </Data>
                    <Data name="country">
                        <value>PRC</value>
                    </Data>
                    <Data name="road">
                        <value>Lung Poon Street</value>
                    </Data>
                    <Data name="country_code">
                        <value>cn</value>
                    </Data>
                </ExtendedData>
            </Placemark>
            <Placemark>
                <address>Stewards Pooi Kei College, 56, Siu Lek Yuen Road, Siu Lek Yuen, Shek Kwu Lung, Sha Tin District, Hong Kong, STTL 506, PRC</address>
                <Point>
                    <coordinates>114.2142872233,22.3828315337</coordinates>
                </Point>
                <ExtendedData>
                    <Data name="postcode">
                        <value>STTL 506</value>
                    </Data>
                    <Data name="hamlet">
                        <value>Shek Kwu Lung</value>
                    </Data>
                    <Data name="county">
                        <value>Sha Tin District</value>
                    </Data>
                    <Data name="house_number">
                        <value>56</value>
                    </Data>
                    <Data name="suburb">
                        <value>Siu Lek Yuen</value>
                    </Data>
                    <Data name="country">
                        <value>PRC</value>
                    </Data>
                    <Data name="road">
                        <value>Siu Lek Yuen Road</value>
                    </Data>
                    <Data name="country_code">
                        <value>cn</value>
                    </Data>
                    <Data name="school">
                        <value>Stewards Pooi Kei College</value>
                    </Data>
                </ExtendedData>
            </Placemark>
            <Placemark>
                <address>Siu Lek Yuen Fire Station, Yuen Shun Circuit, Yuen Chau Kok, Shek Kwu Lung, Sha Tin District, Hong Kong, STTL 506, PRC</address>
                <Point>
                    <coordinates>114.2045367738,22.3829682561</coordinates>
                </Point>
                <ExtendedData>
                    <Data name="postcode">
                        <value>STTL 506</value>
                    </Data>
                    <Data name="hamlet">
                        <value>Shek Kwu Lung</value>
                    </Data>
                    <Data name="county">
                        <value>Sha Tin District</value>
                    </Data>
                    <Data name="suburb">
                        <value>Yuen Chau Kok</value>
                    </Data>
                    <Data name="country">
                        <value>PRC</value>
                    </Data>
                    <Data name="road">
                        <value>Yuen Shun Circuit</value>
                    </Data>
                    <Data name="country_code">
                        <value>cn</value>
                    </Data>
                    <Data name="fire_station">
                        <value>Siu Lek Yuen Fire Station</value>
                    </Data>
                </ExtendedData>
            </Placemark>
            <Placemark>
                <address>Mei Shek House, On Muk Street, Shek Mun, Shek Kwu Lung, Sha Tin District, Hong Kong, STTL 506, PRC</address>
                <Point>
                    <coordinates>114.2099678720,22.3860558891</coordinates>
                </Point>
                <ExtendedData>
                    <Data name="postcode">
                        <value>STTL 506</value>
                    </Data>
                    <Data name="hamlet">
                        <value>Shek Kwu Lung</value>
                    </Data>
                    <Data name="county">
                        <value>Sha Tin District</value>
                    </Data>
                    <Data name="suburb">
                        <value>Shek Mun</value>
                    </Data>
                    <Data name="country">
                        <value>PRC</value>
                    </Data>
                    <Data name="road">
                        <value>On Muk Street</value>
                    </Data>
                    <Data name="country_code">
                        <value>cn</value>
                    </Data>
                    <Data name="building">
                        <value>Mei Shek House</value>
                    </Data>
                </ExtendedData>
            </Placemark>
        </Folder>
        <Document>
            <name>20.8 km; 00:54 h (OSRM)</name>
            <Placemark>
                <name>Route</name>
                <LineString>
                    <coordinates>114.2099760000,22.3859570000 114.2100530000,22.3859430000 114.2100820000,22.3859710000 114.2102230000,22.3860940000 114.2103170000,22.3861750000 114.2105020000,22.3860070000 114.2105680000,22.3859460000 114.2106030000,22.3860620000 114.2107800000,22.3870890000 114.2108290000,22.3874730000 114.2108250000,22.3877520000 114.2107990000,22.3879920000 114.2107610000,22.3881770000 114.2107140000,22.3883430000 114.2106730000,22.3884300000 114.2106230000,22.3884930000 114.2103830000,22.3887570000 114.2101410000,22.3888040000 114.2101170000,22.3887820000 114.2100880000,22.3887650000 114.2100560000,22.3887540000 114.2100220000,22.3887490000 114.2098870000,22.3886040000 114.2094190000,22.3881200000 114.2084380000,22.3871460000 114.2082980000,22.3870180000 114.2079520000,22.3866850000 114.2073050000,22.3860590000 114.2070450000,22.3857830000 114.2069390000,22.3856660000 114.2068510000,22.3855710000 114.2067340000,22.3854480000 114.2060070000,22.3847650000 114.2054270000,22.3842270000 114.2050990000,22.3839240000 114.2045750000,22.3834270000 114.2045640000,22.3834170000 114.2044590000,22.3833120000 114.2045900000,22.3831890000 114.2049410000,22.3828420000 114.2049920000,22.3827940000 114.2051400000,22.3826590000 114.2055070000,22.3822960000 114.2059990000,22.3818520000 114.2063520000,22.3815350000 114.2067360000,22.3812370000 114.2067710000,22.3812050000 114.2069410000,22.3810230000 114.2071660000,22.3807340000 114.2072550000,22.3806300000 114.2073270000,22.3805440000 114.2073460000,22.3804480000 114.2074040000,22.3803810000 114.2076920000,22.3800470000 114.2078450000,22.3798270000 114.2080880000,22.3796430000 114.2082220000,22.3795730000 114.2083220000,22.3795400000 114.2084010000,22.3795260000 114.2084540000,22.3795220000 114.2085200000,22.3795250000 114.2085910000,22.3795400000 114.2086800000,22.3795700000 114.2088180000,22.3796230000 114.2097130000,22.3800240000 114.2109800000,22.3806190000 114.2112910000,22.3807720000 114.2113500000,22.3807950000 114.2114100000,22.3808050000 114.2114480000,22.3808020000 114.2115370000,22.3807930000 114.2116230000,22.3807650000 114.2117180000,22.3807200000 114.2118350000,22.3806690000 114.2119740000,22.3806170000 114.2122860000,22.3805240000 114.2124560000,22.3804840000 114.2125380000,22.3804670000 114.2126270000,22.3804520000 114.2127700000,22.3804600000 114.2129000000,22.3804800000 114.2130000000,22.3805060000 114.2131000000,22.3805400000 114.2132000000,22.3805870000 114.2132900000,22.3806400000 114.2134000000,22.3807300000 114.2135000000,22.3808350000 114.2135800000,22.3809500000 114.2136900000,22.3811800000 114.2138160000,22.3816500000 114.2138490000,22.3818030000 114.2139910000,22.3823910000 114.2140630000,22.3826840000 114.2140800000,22.3828700000 114.2140910000,22.3829860000 114.2140920000,22.3830060000 114.2141320000,22.3832120000 114.2139360000,22.3832370000 114.2137690000,22.3832540000 114.2136180000,22.3832570000 114.2134630000,22.3832540000 114.2133160000,22.3832400000 114.2131580000,22.3832180000 114.2129990000,22.3831790000 114.2123890000,22.3830280000 114.2120490000,22.3829620000 114.2119180000,22.3828940000 114.2118280000,22.3828480000 114.2117500000,22.3827970000 114.2116870000,22.3827280000 114.2115840000,22.3824940000 114.2114660000,22.3822450000 114.2111600000,22.3817580000 114.2109690000,22.3814870000 114.2108110000,22.3811730000 114.2106940000,22.3809390000 114.2106170000,22.3807660000 114.2105180000,22.3804950000 114.2104450000,22.3801710000 114.2104560000,22.3796950000 114.2105030000,22.3791600000 114.2106200000,22.3789120000 114.2107540000,22.3786890000 114.2108930000,22.3784770000 114.2110350000,22.3782830000 114.2110800000,22.3782390000 114.2112720000,22.3780530000 114.2117400000,22.3776370000 114.2117800000,22.3776010000 114.2118630000,22.3775380000 114.2123110000,22.3771630000 114.2125220000,22.3769600000 114.2128340000,22.3766900000 114.2130050000,22.3764410000 114.2132730000,22.3760500000 114.2133850000,22.3758450000 114.2134900000,22.3756340000 114.2135830000,22.3754400000 114.2136620000,22.3752500000 114.2137340000,22.3750400000 114.2138090000,22.3748200000 114.2138700000,22.3746200000 114.2139200000,22.3744100000 114.2139600000,22.3742100000 114.2139900000,22.3739900000 114.2140100000,22.3738200000 114.2140300000,22.3736200000 114.2140430000,22.3734200000 114.2140470000,22.3732200000 114.2140470000,22.3730200000 114.2140390000,22.3728200000 114.2140200000,22.3725900000 114.2139900000,22.3723500000 114.2139580000,22.3721200000 114.2139100000,22.3718900000 114.2138830000,22.3717800000 114.2083200000,22.3495900000 114.2082620000,22.3493800000 114.2081850000,22.3491100000 114.2081120000,22.3488600000 114.2080360000,22.3486000000 114.2079650000,22.3483650000 114.2078860000,22.3481300000 114.2077980000,22.3478750000 114.2077160000,22.3476550000 114.2076370000,22.3474500000 114.2075600000,22.3472510000 114.2074820000,22.3470500000 114.2074320000,22.3469220000 114.2073200000,22.3466400000 114.2072320000,22.3464380000 114.2071500000,22.3462500000 114.2070620000,22.3460490000 114.2069700000,22.3458400000 114.2068550000,22.3455880000 114.2067400000,22.3453400000 114.2066200000,22.3451000000 114.2064930000,22.3448500000 114.2063600000,22.3445900000 114.2062700000,22.3444200000 114.2061700000,22.3442500000 114.2060250000,22.3439910000 114.2058840000,22.3437400000 114.2047240000,22.3418420000 114.2044970000,22.3414770000 114.2044510000,22.3414030000 114.2043560000,22.3412500000 114.2042370000,22.3410570000 114.2041840000,22.3409730000 114.2040200000,22.3406790000 114.2038510000,22.3401860000 114.2037570000,22.3399420000 114.2037000000,22.3396660000 114.2037050000,22.3393570000 114.2037490000,22.3391520000 114.2038370000,22.3389350000 114.2039620000,22.3387420000 114.2041840000,22.3385240000 114.2044330000,22.3383800000 114.2047450000,22.3383120000 114.2049350000,22.3382860000 114.2051550000,22.3382850000 114.2053950000,22.3383170000 114.2056270000,22.3384380000 114.2057400000,22.3385020000 114.2058510000,22.3385810000 114.2060470000,22.3387320000 114.2060870000,22.3388180000 114.2061110000,22.3388710000 114.2061340000,22.3389470000 114.2061560000,22.3390790000 114.2061410000,22.3391280000 114.2061520000,22.3392160000 114.2061960000,22.3392950000 114.2062690000,22.3393520000 114.2063600000,22.3393820000 114.2064270000,22.3393830000 114.2064920000,22.3393670000 114.2065610000,22.3393290000 114.2066140000,22.3392740000 114.2066460000,22.3392060000 114.2066530000,22.3391320000 114.2066230000,22.3390340000 114.2065500000,22.3389570000 114.2059270000,22.3384360000 114.2055590000,22.3381440000 114.2054100000,22.3380340000 114.2051850000,22.3378910000 114.2049060000,22.3377540000 114.2044770000,22.3375870000 114.2041290000,22.3374890000 114.2036700000,22.3374040000 114.2034940000,22.3373890000 114.2034050000,22.3373840000 114.2033040000,22.3373840000 114.2031510000,22.3374060000 114.2029030000,22.3374510000 114.2027230000,22.3375240000 114.2024640000,22.3376290000 114.2023500000,22.3376760000 114.2022920000,22.3376280000 114.2022230000,22.3375830000 114.2021830000,22.3375570000 114.2021140000,22.3374960000 114.2020700000,22.3374660000 114.2019920000,22.3374470000 114.2014750000,22.3374360000 114.2013450000,22.3374320000 114.2012510000,22.3374900000 114.2011480000,22.3375420000 114.2011730000,22.3379710000 114.2011930000,22.3381500000 114.2011940000,22.3381580000 114.2012030000,22.3382770000 114.2002940000,22.3387040000 114.1996100000,22.3390310000 114.1994980000,22.3390750000 114.1994530000,22.3390930000 114.1993040000,22.3391370000 114.1991670000,22.3391700000 114.1990390000,22.3391950000 114.1986670000,22.3392590000 114.1985680000,22.3392770000 114.1983240000,22.3392780000 114.1980840000,22.3392610000 114.1978850000,22.3392340000 114.1975850000,22.3391860000 114.1975540000,22.3391760000 114.1974720000,22.3391480000 114.1973890000,22.3391190000 114.1972680000,22.3390730000 114.1971200000,22.3390080000 114.1969800000,22.3389460000 114.1967950000,22.3388550000 114.1966320000,22.3387500000 114.1964070000,22.3385520000 114.1963030000,22.3384470000 114.1962400000,22.3385220000 114.1960680000,22.3387480000 114.1959920000,22.3388640000 114.1959150000,22.3390130000 114.1958830000,22.3391150000 114.1958680000,22.3392220000 114.1958570000,22.3394310000 114.1958460000,22.3396650000 114.1958350000,22.3398450000 114.1958110000,22.3401190000 114.1957920000,22.3402450000 114.1957600000,22.3403860000 114.1956980000,22.3406210000 114.1955340000,22.3405930000 114.1953320000,22.3405620000 114.1950860000,22.3405110000 114.1948600000,22.3404290000 114.1947280000,22.3403670000 114.1946440000,22.3403260000 114.1945410000,22.3402530000 114.1944150000,22.3401380000 114.1940200000,22.3396290000 114.1939240000,22.3395120000 114.1936060000,22.3391190000 114.1934920000,22.3389680000 114.1934110000,22.3390230000 114.1929070000,22.3392870000 114.1924700000,22.3395160000 114.1922350000,22.3396950000 114.1922250000,22.3397070000 114.1921320000,22.3398230000 114.1920630000,22.3399480000 114.1920030000,22.3401140000 114.1919760000,22.3403010000 114.1920190000,22.3406020000 114.1920200000,22.3406120000 114.1920640000,22.3407700000 114.1922460000,22.3407300000 114.1923500000,22.3407260000 114.1924570000,22.3407420000 114.1925590000,22.3407640000 114.1927210000,22.3408390000 114.1929670000,22.3410430000 114.1930650000,22.3411170000 114.1931190000,22.3411460000 114.1931930000,22.3411570000 114.1946310000,22.3411590000 114.1948610000,22.3411660000 114.1951470000,22.3412040000 114.1953510000,22.3412380000 114.1954140000,22.3412490000 114.1955420000,22.3412610000 114.1955820000,22.3412600000 114.1956210000,22.3412490000 114.1956490000,22.3412260000 114.1956540000,22.3411790000 114.1957660000,22.3407590000 114.1957940000,22.3406360000 114.1958450000,22.3404040000 114.1958900000,22.3401280000 114.1959250000,22.3398480000 114.1959370000,22.3396620000 114.1959370000,22.3396270000 114.1959490000,22.3392410000 114.1959800000,22.3390650000 114.1961160000,22.3388760000 114.1961960000,22.3387810000 114.1963330000,22.3386300000 114.1964400000,22.3387220000 114.1965520000,22.3388160000 114.1968120000,22.3389870000 114.1969970000,22.3390780000 114.1971700000,22.3391460000 114.1973870000,22.3392250000 114.1974900000,22.3392610000 114.1975960000,22.3393060000 114.1977100000,22.3393840000 114.1977880000,22.3394510000 114.1978280000,22.3394930000 114.1978950000,22.3395660000 114.1979550000,22.3396510000 114.1979800000,22.3396890000 114.1980190000,22.3397650000 114.1980430000,22.3398230000 114.1980930000,22.3399760000 114.1981320000,22.3401020000 114.1981560000,22.3402770000 114.1982160000,22.3406760000 114.1982630000,22.3409350000 114.1983050000,22.3411690000 114.1983260000,22.3412900000 114.1984650000,22.3418950000 114.1985280000,22.3422600000 114.1985420000,22.3424050000 114.1986180000,22.3429130000 114.1986630000,22.3431660000 114.1986780000,22.3432480000 114.1987770000,22.3432330000 114.1991150000,22.3432020000 114.1996680000,22.3431320000 114.2001490000,22.3430680000 114.2005430000,22.3430070000 114.2006990000,22.3429510000 114.2007740000,22.3429280000 114.2008290000,22.3429130000 114.2009470000,22.3428780000 114.2010300000,22.3428490000 114.2011480000,22.3428060000 114.2013020000,22.3427410000 114.2017130000,22.3425340000 114.2017680000,22.3425010000 114.2014190000,22.3418990000 114.2013350000,22.3417570000 114.2011630000,22.3414230000 114.2011340000,22.3413410000 114.2011240000,22.3413110000 114.2010950000,22.3412340000 114.2010630000,22.3411110000 114.2010330000,22.3409970000 114.2010100000,22.3408970000 114.2010640000,22.3407290000 114.2011210000,22.3406440000 114.2014780000,22.3404410000 114.2016200000,22.3403430000 114.2020330000,22.3400810000 114.2021660000,22.3400100000 114.2022440000,22.3399700000 114.2024420000,22.3399220000 114.2025700000,22.3399060000 114.2026850000,22.3399010000 114.2028860000,22.3399320000 114.2030910000,22.3400050000 114.2032340000,22.3400990000 114.2033800000,22.3402310000 114.2037070000,22.3407550000 114.2037530000,22.3408100000 114.2038120000,22.3408620000 114.2038340000,22.3409070000 114.2038860000,22.3409910000 114.2042960000,22.3416610000 114.2043110000,22.3416850000 114.2043790000,22.3417970000 114.2044810000,22.3419620000 114.2053200000,22.3433150000 114.2054350000,22.3435200000 114.2055500000,22.3437290000 114.2056630000,22.3439250000 114.2057790000,22.3441400000 114.2058890000,22.3443450000 114.2060000000,22.3445600000 114.2061000000,22.3447600000 114.2062070000,22.3449750000 114.2063090000,22.3451800000 114.2064100000,22.3453900000 114.2065010000,22.3455900000 114.2065900000,22.3457900000 114.2066830000,22.3460000000 114.2067680000,22.3462000000 114.2068510000,22.3464000000 114.2069320000,22.3465990000 114.2070130000,22.3468000000 114.2071030000,22.3470300000 114.2072050000,22.3473000000 114.2073180000,22.3476000000 114.2074280000,22.3479000000 114.2075260000,22.3482000000 114.2076200000,22.3484900000 114.2076880000,22.3487000000 114.2077600000,22.3489400000 114.2078440000,22.3492500000 114.2079100000,22.3495000000 114.2135960000,22.3721800000 114.2136400000,22.3723800000 114.2136800000,22.3726000000 114.2137070000,22.3728000000 114.2137270000,22.3730000000 114.2137370000,22.3732000000 114.2137370000,22.3734000000 114.2137320000,22.3736000000 114.2137200000,22.3738000000 114.2136930000,22.3740200000 114.2136600000,22.3742200000 114.2136180000,22.3744700000 114.2135700000,22.3746800000 114.2135000000,22.3749100000 114.2134300000,22.3751100000 114.2133500000,22.3753100000 114.2132580000,22.3755300000 114.2131500000,22.3757400000 114.2130380000,22.3759400000 114.2128100000,22.3762900000 114.2127220000,22.3764120000 114.2124270000,22.3767490000 114.2121920000,22.3769590000 114.2119220000,22.3771500000 114.2115880000,22.3774160000 114.2112650000,22.3777380000 114.2109840000,22.3780490000 114.2107670000,22.3783370000 114.2106640000,22.3785000000 114.2105650000,22.3786520000 114.2103800000,22.3789830000 114.2102210000,22.3793670000 114.2101600000,22.3795890000 114.2101160000,22.3797950000 114.2100620000,22.3799930000 114.2100060000,22.3801820000 114.2099240000,22.3803800000 114.2098260000,22.3805290000 114.2096970000,22.3806980000 114.2093640000,22.3810350000 114.2088040000,22.3816390000 114.2087280000,22.3817100000 114.2089240000,22.3818840000 114.2091800000,22.3821520000 114.2094340000,22.3824490000 114.2098270000,22.3829800000 114.2099460000,22.3831640000 114.2100260000,22.3832700000 114.2101170000,22.3832270000 114.2103840000,22.3831180000 114.2106810000,22.3830460000 114.2110900000,22.3829820000 114.2113330000,22.3829740000 114.2114350000,22.3829730000 114.2116080000,22.3829770000 114.2117450000,22.3829870000 114.2118680000,22.3830020000 114.2120180000,22.3830220000 114.2129780000,22.3832440000 114.2132550000,22.3833200000 114.2133930000,22.3833470000 114.2135360000,22.3833600000 114.2136760000,22.3833610000 114.2138000000,22.3833570000 114.2139230000,22.3833490000 114.2140130000,22.3833380000 114.2140550000,22.3833320000 114.2141570000,22.3833140000 114.2142650000,22.3832790000 114.2142450000,22.3831830000 114.2142150000,22.3830630000 114.2141680000,22.3828810000 114.2141680000,22.3828810000 114.2140630000,22.3826840000 114.2139910000,22.3823910000 114.2138490000,22.3818030000 114.2138160000,22.3816500000 114.2136900000,22.3811800000 114.2135800000,22.3809500000 114.2135000000,22.3808350000 114.2134000000,22.3807300000 114.2132900000,22.3806400000 114.2132000000,22.3805870000 114.2131000000,22.3805400000 114.2130000000,22.3805060000 114.2129000000,22.3804800000 114.2127700000,22.3804600000 114.2126270000,22.3804520000 114.2125380000,22.3804670000 114.2124560000,22.3804840000 114.2122860000,22.3805240000 114.2119740000,22.3806170000 114.2118350000,22.3806690000 114.2117180000,22.3807200000 114.2116230000,22.3807650000 114.2115370000,22.3807930000 114.2114480000,22.3808020000 114.2114100000,22.3808050000 114.2113500000,22.3807950000 114.2112910000,22.3807720000 114.2109800000,22.3806190000 114.2097130000,22.3800240000 114.2088180000,22.3796230000 114.2086800000,22.3795700000 114.2085910000,22.3795400000 114.2085200000,22.3795250000 114.2084540000,22.3795220000 114.2084010000,22.3795260000 114.2083220000,22.3795400000 114.2082220000,22.3795730000 114.2080880000,22.3796430000 114.2078450000,22.3798270000 114.2076920000,22.3800470000 114.2074040000,22.3803810000 114.2073460000,22.3804480000 114.2072390000,22.3804820000 114.2071670000,22.3805730000 114.2070610000,22.3807030000 114.2068680000,22.3809720000 114.2067120000,22.3811470000 114.2066740000,22.3811830000 114.2059430000,22.3818070000 114.2050910000,22.3825840000 114.2050460000,22.3826260000 114.2049300000,22.3827330000 114.2046140000,22.3830370000 114.2045160000,22.3831310000 114.2044010000,22.3832580000 114.2043470000,22.3833150000 114.2044020000,22.3833670000 114.2045090000,22.3834670000 114.2045220000,22.3834800000 114.2057200000,22.3845940000 114.2065110000,22.3853710000 114.2066610000,22.3855180000 114.2067230000,22.3855930000 114.2067660000,22.3856450000 114.2068760000,22.3857630000 114.2069230000,22.3858300000 114.2072180000,22.3861370000 114.2078660000,22.3867580000 114.2082190000,22.3870940000 114.2082980000,22.3870180000 114.2083610000,22.3869670000 114.2084130000,22.3869230000 114.2093710000,22.3860390000 114.2094860000,22.3861450000 114.2095440000,22.3861560000 114.2097110000,22.3860180000 114.2097500000,22.3860350000 114.2097930000,22.3860340000 114.2098300000,22.3860130000 114.2098520000,22.3859790000 114.2099480000,22.3859620000</coordinates>
                </LineString>
                <ExtendedData>
                    <Data name="length">
                        <value>20760.738756700484</value>
                    </Data>
                    <Data name="duration">
                        <value>00:54:29</value>
                    </Data>
                </ExtendedData>
            </Placemark>
        </Document>
    </Document>
</kml>