<?xml version="1.0" encoding="UTF-8"?>
<kml xmlns="http://www.opengis.net/kml/2.2" xmlns:gx="http://www.google.com/kml/ext/2.2">
    <Document>
        <name>Route</name>
        <Folder>
            <name>Route Request</name>
            <Placemark>
                <address>Ma On Shan Plaza, Sai Sha Road, Ma On Terrace, Wu Kai Sha, Ma On Shan, Sha Tin District, Hong Kong, DD165 1471, PRC</address>
                <Point>
                    <coordinates>114.2313566903,22.4254970273</coordinates>
                </Point>
                <ExtendedData>
                    <Data name="country">
                        <value>PRC</value>
                    </Data>
                    <Data name="country_code">
                        <value>cn</value>
                    </Data>
                    <Data name="mall">
                        <value>Ma On Shan Plaza</value>
                    </Data>
                    <Data name="county">
                        <value>Sha Tin District</value>
                    </Data>
                    <Data name="road">
                        <value>Sai Sha Road</value>
                    </Data>
                    <Data name="suburb">
                        <value>Wu Kai Sha</value>
                    </Data>
                    <Data name="neighbourhood">
                        <value>Ma On Terrace</value>
                    </Data>
                    <Data name="town">
                        <value>Ma On Shan</value>
                    </Data>
                    <Data name="postcode">
                        <value>DD165 1471</value>
                    </Data>
                </ExtendedData>
            </Placemark>
            <Placemark>
                <address>Tower 2, Ning Tai Road, Ma On Terrace, Ma Liu Shui, Tai Shui Hang, Sha Tin District, Hong Kong, DD176 781, PRC</address>
                <Point>
                    <coordinates>114.2232207998,22.4156683973</coordinates>
                </Point>
                <ExtendedData>
                    <Data name="country">
                        <value>PRC</value>
                    </Data>
                    <Data name="country_code">
                        <value>cn</value>
                    </Data>
                    <Data name="building">
                        <value>Tower 2</value>
                    </Data>
                    <Data name="county">
                        <value>Sha Tin District</value>
                    </Data>
                    <Data name="road">
                        <value>Ning Tai Road</value>
                    </Data>
                    <Data name="suburb">
                        <value>Ma Liu Shui</value>
                    </Data>
                    <Data name="neighbourhood">
                        <value>Ma On Terrace</value>
                    </Data>
                    <Data name="village">
                        <value>Tai Shui Hang</value>
                    </Data>
                    <Data name="postcode">
                        <value>DD176 781</value>
                    </Data>
                </ExtendedData>
            </Placemark>
            <Placemark>
                <address>Kam Tin House, Hang Tai Road, A Kung Kok, Tai Shui Hang, Sha Tin District, Hong Kong, DD193 1191, PRC</address>
                <Point>
                    <coordinates>114.2209157329,22.4070350251</coordinates>
                </Point>
                <ExtendedData>
                    <Data name="country">
                        <value>PRC</value>
                    </Data>
                    <Data name="country_code">
                        <value>cn</value>
                    </Data>
                    <Data name="building">
                        <value>Kam Tin House</value>
                    </Data>
                    <Data name="county">
                        <value>Sha Tin District</value>
                    </Data>
                    <Data name="road">
                        <value>Hang Tai Road</value>
                    </Data>
                    <Data name="suburb">
                        <value>A Kung Kok</value>
                    </Data>
                    <Data name="village">
                        <value>Tai Shui Hang</value>
                    </Data>
                    <Data name="postcode">
                        <value>DD193 1191</value>
                    </Data>
                </ExtendedData>
            </Placemark>
            <Placemark>
                <address>A Kung Kok Street, Shek Mun, Wo Liu Hang, Sha Tin District, Hong Kong, DD193 1132, PRC</address>
                <Point>
                    <coordinates>114.2107509051,22.3951773696</coordinates>
                </Point>
                <ExtendedData>
                    <Data name="country">
                        <value>PRC</value>
                    </Data>
                    <Data name="country_code">
                        <value>cn</value>
                    </Data>
                    <Data name="hamlet">
                        <value>Wo Liu Hang</value>
                    </Data>
                    <Data name="county">
                        <value>Sha Tin District</value>
                    </Data>
                    <Data name="road">
                        <value>A Kung Kok Street</value>
                    </Data>
                    <Data name="suburb">
                        <value>Shek Mun</value>
                    </Data>
                    <Data name="postcode">
                        <value>DD193 1132</value>
                    </Data>
                </ExtendedData>
            </Placemark>
            <Placemark>
                <address>Diamond Hill, Lung Cheung Road, Fung Wong, Wong Tai Sin, Lion Rock Upper Village, Wong Tai Sin District, Hong Kong, NKIL 6164, PRC</address>
                <Point>
                    <coordinates>114.2005235333,22.3402158197</coordinates>
                </Point>
                <ExtendedData>
                    <Data name="country">
                        <value>PRC</value>
                    </Data>
                    <Data name="country_code">
                        <value>cn</value>
                    </Data>
                    <Data name="hamlet">
                        <value>Lion Rock Upper Village</value>
                    </Data>
                    <Data name="county">
                        <value>Wong Tai Sin District</value>
                    </Data>
                    <Data name="road">
                        <value>Lung Cheung Road</value>
                    </Data>
                    <Data name="suburb">
                        <value>Wong Tai Sin</value>
                    </Data>
                    <Data name="station">
                        <value>Diamond Hill</value>
                    </Data>
                    <Data name="neighbourhood">
                        <value>Fung Wong</value>
                    </Data>
                    <Data name="postcode">
                        <value>NKIL 6164</value>
                    </Data>
                </ExtendedData>
            </Placemark>
            <Placemark>
                <address>Education Bureau Kowloon Tong Education Services Centre, Suffolk Road, Beacon Hill, Kowloon, Kowloon City District, Hong Kong, NKIL 6164, PRC</address>
                <Point>
                    <coordinates>114.1773667324,22.3362561710</coordinates>
                </Point>
                <ExtendedData>
                    <Data name="country">
                        <value>PRC</value>
                    </Data>
                    <Data name="country_code">
                        <value>cn</value>
                    </Data>
                    <Data name="building">
                        <value>Education Bureau Kowloon Tong Education Services Centre</value>
                    </Data>
                    <Data name="county">
                        <value>Kowloon City District</value>
                    </Data>
                    <Data name="road">
                        <value>Suffolk Road</value>
                    </Data>
                    <Data name="suburb">
                        <value>Beacon Hill</value>
                    </Data>
                    <Data name="city">
                        <value>Kowloon</value>
                    </Data>
                    <Data name="postcode">
                        <value>NKIL 6164</value>
                    </Data>
                </ExtendedData>
            </Placemark>
            <Placemark>
                <address>Cornwall Street, Cornwall Terrace, Beacon Hill, Kowloon, Kowloon City District, Hong Kong, NKIL 6164, PRC</address>
                <Point>
                    <coordinates>114.1787731957,22.3401507561</coordinates>
                </Point>
                <ExtendedData>
                    <Data name="country">
                        <value>PRC</value>
                    </Data>
                    <Data name="country_code">
                        <value>cn</value>
                    </Data>
                    <Data name="residential">
                        <value>Cornwall Terrace</value>
                    </Data>
                    <Data name="county">
                        <value>Kowloon City District</value>
                    </Data>
                    <Data name="road">
                        <value>Cornwall Street</value>
                    </Data>
                    <Data name="suburb">
                        <value>Beacon Hill</value>
                    </Data>
                    <Data name="city">
                        <value>Kowloon</value>
                    </Data>
                    <Data name="postcode">
                        <value>NKIL 6164</value>
                    </Data>
                </ExtendedData>
            </Placemark>
            <Placemark>
                <address>Plaza Hollywood, Tai Hom Road, Fung Wong, Diamond Hill, Lion Rock Upper Village, Wong Tai Sin District, Hong Kong, NKIL 6164, PRC</address>
                <Point>
                    <coordinates>114.2029347425,22.3399973817</coordinates>
                </Point>
                <ExtendedData>
                    <Data name="country">
                        <value>PRC</value>
                    </Data>
                    <Data name="country_code">
                        <value>cn</value>
                    </Data>
                    <Data name="hamlet">
                        <value>Lion Rock Upper Village</value>
                    </Data>
                    <Data name="mall">
                        <value>Plaza Hollywood</value>
                    </Data>
                    <Data name="county">
                        <value>Wong Tai Sin District</value>
                    </Data>
                    <Data name="road">
                        <value>Tai Hom Road</value>
                    </Data>
                    <Data name="suburb">
                        <value>Diamond Hill</value>
                    </Data>
                    <Data name="neighbourhood">
                        <value>Fung Wong</value>
                    </Data>
                    <Data name="postcode">
                        <value>NKIL 6164</value>
                    </Data>
                </ExtendedData>
            </Placemark>
            <Placemark>
                <address>Kam Pong House, Ning Tai Road, Ma On Terrace, A Kung Kok, Tai Shui Hang, Sha Tin District, Hong Kong, DD193 1191, PRC</address>
                <Point>
                    <coordinates>114.2207974855,22.4095485332</coordinates>
                </Point>
                <ExtendedData>
                    <Data name="country">
                        <value>PRC</value>
                    </Data>
                    <Data name="country_code">
                        <value>cn</value>
                    </Data>
                    <Data name="building">
                        <value>Kam Pong House</value>
                    </Data>
                    <Data name="county">
                        <value>Sha Tin District</value>
                    </Data>
                    <Data name="road">
                        <value>Ning Tai Road</value>
                    </Data>
                    <Data name="suburb">
                        <value>A Kung Kok</value>
                    </Data>
                    <Data name="neighbourhood">
                        <value>Ma On Terrace</value>
                    </Data>
                    <Data name="village">
                        <value>Tai Shui Hang</value>
                    </Data>
                    <Data name="postcode">
                        <value>DD193 1191</value>
                    </Data>
                </ExtendedData>
            </Placemark>
            <Placemark>
                <address>Ning Tai Road, Ma On Terrace, Ma Liu Shui, Tai Shui Hang, Sha Tin District, Hong Kong, DD176 781, PRC</address>
                <Point>
                    <coordinates>114.2229399759,22.4161190174</coordinates>
                </Point>
                <ExtendedData>
                    <Data name="country">
                        <value>PRC</value>
                    </Data>
                    <Data name="country_code">
                        <value>cn</value>
                    </Data>
                    <Data name="county">
                        <value>Sha Tin District</value>
                    </Data>
                    <Data name="road">
                        <value>Ning Tai Road</value>
                    </Data>
                    <Data name="suburb">
                        <value>Ma Liu Shui</value>
                    </Data>
                    <Data name="neighbourhood">
                        <value>Ma On Terrace</value>
                    </Data>
                    <Data name="village">
                        <value>Tai Shui Hang</value>
                    </Data>
                    <Data name="postcode">
                        <value>DD176 781</value>
                    </Data>
                </ExtendedData>
            </Placemark>
            <Placemark>
                <address>Hang Fai Street, Ma On Terrace, Ma Liu Shui, Ma On Shan, Sha Tin District, Hong Kong, DD176 781, PRC</address>
                <Point>
                    <coordinates>114.2238856940,22.4163922459</coordinates>
                </Point>
                <ExtendedData>
                    <Data name="country">
                        <value>PRC</value>
                    </Data>
                    <Data name="country_code">
                        <value>cn</value>
                    </Data>
                    <Data name="county">
                        <value>Sha Tin District</value>
                    </Data>
                    <Data name="road">
                        <value>Hang Fai Street</value>
                    </Data>
                    <Data name="suburb">
                        <value>Ma Liu Shui</value>
                    </Data>
                    <Data name="neighbourhood">
                        <value>Ma On Terrace</value>
                    </Data>
                    <Data name="town">
                        <value>Ma On Shan</value>
                    </Data>
                    <Data name="postcode">
                        <value>DD176 781</value>
                    </Data>
                </ExtendedData>
            </Placemark>
            <Placemark>
                <address>Ma On Shan Plaza, Sai Sha Road, Ma On Terrace, Wu Kai Sha, Ma On Shan, Sha Tin District, Hong Kong, DD165 1471, PRC</address>
                <Point>
                    <coordinates>114.2313566903,22.4254970273</coordinates>
                </Point>
                <ExtendedData>
                    <Data name="country">
                        <value>PRC</value>
                    </Data>
                    <Data name="country_code">
                        <value>cn</value>
                    </Data>
                    <Data name="mall">
                        <value>Ma On Shan Plaza</value>
                    </Data>
                    <Data name="county">
                        <value>Sha Tin District</value>
                    </Data>
                    <Data name="road">
                        <value>Sai Sha Road</value>
                    </Data>
                    <Data name="suburb">
                        <value>Wu Kai Sha</value>
                    </Data>
                    <Data name="neighbourhood">
                        <value>Ma On Terrace</value>
                    </Data>
                    <Data name="town">
                        <value>Ma On Shan</value>
                    </Data>
                    <Data name="postcode">
                        <value>DD165 1471</value>
                    </Data>
                </ExtendedData>
            </Placemark>
        </Folder>
        <Document>
            <name>33.3 km; 01:15 h (OSRM)</name>
            <Placemark>
                <name>Route</name>
                <LineString>
                    <coordinates>114.2313600000,22.4254870000 114.2311450000,22.4254280000 114.2311150000,22.4255180000 114.2310860000,22.4256070000 114.2310540000,22.4256660000 114.2309070000,22.4257820000 114.2301940000,22.4255930000 114.2298920000,22.4255100000 114.2294690000,22.4253930000 114.2293520000,22.4253600000 114.2294080000,22.4251980000 114.2296310000,22.4245490000 114.2296770000,22.4244180000 114.2297210000,22.4242430000 114.2297580000,22.4241000000 114.2296560000,22.4240680000 114.2291880000,22.4238940000 114.2290980000,22.4238450000 114.2289320000,22.4237390000 114.2287260000,22.4235930000 114.2285650000,22.4234610000 114.2283550000,22.4232730000 114.2281200000,22.4229960000 114.2278290000,22.4225130000 114.2277550000,22.4224100000 114.2276910000,22.4223250000 114.2276350000,22.4221890000 114.2275170000,22.4219140000 114.2274090000,22.4216230000 114.2273390000,22.4214320000 114.2271430000,22.4209060000 114.2267300000,22.4198250000 114.2265140000,22.4192490000 114.2263030000,22.4186500000 114.2262160000,22.4183950000 114.2257600000,22.4171250000 114.2255460000,22.4166110000 114.2254690000,22.4164230000 114.2254240000,22.4162860000 114.2253980000,22.4161660000 114.2253780000,22.4160710000 114.2253720000,22.4159630000 114.2254120000,22.4157930000 114.2254430000,22.4156350000 114.2254050000,22.4154820000 114.2253040000,22.4153540000 114.2252000000,22.4152900000 114.2250610000,22.4152550000 114.2249180000,22.4152650000 114.2247860000,22.4153180000 114.2246810000,22.4154100000 114.2246610000,22.4154240000 114.2246040000,22.4155710000 114.2244960000,22.4156880000 114.2243670000,22.4158160000 114.2243190000,22.4158570000 114.2242460000,22.4158990000 114.2241640000,22.4159350000 114.2240170000,22.4159760000 114.2237280000,22.4160640000 114.2235910000,22.4161140000 114.2235090000,22.4161240000 114.2234590000,22.4161140000 114.2234060000,22.4160870000 114.2233460000,22.4160740000 114.2232610000,22.4160540000 114.2232160000,22.4160270000 114.2231340000,22.4159680000 114.2230380000,22.4158980000 114.2230110000,22.4158620000 114.2229840000,22.4158270000 114.2229130000,22.4157370000 114.2228200000,22.4155180000 114.2227420000,22.4151680000 114.2227090000,22.4150240000 114.2226700000,22.4148670000 114.2224250000,22.4138190000 114.2223870000,22.4136540000 114.2223550000,22.4135280000 114.2221940000,22.4129060000 114.2221440000,22.4127130000 114.2221310000,22.4126560000 114.2221040000,22.4125490000 114.2218470000,22.4115010000 114.2218050000,22.4113620000 114.2217300000,22.4111490000 114.2216780000,22.4110010000 114.2213530000,22.4101250000 114.2212710000,22.4099430000 114.2212080000,22.4098180000 114.2208120000,22.4090460000 114.2207350000,22.4089070000 114.2206400000,22.4087370000 114.2201010000,22.4079220000 114.2195160000,22.4071570000 114.2194940000,22.4071190000 114.2194840000,22.4070660000 114.2194840000,22.4070120000 114.2195010000,22.4069660000 114.2195360000,22.4069200000 114.2196560000,22.4068120000 114.2197780000,22.4067020000 114.2198820000,22.4066170000 114.2200810000,22.4064520000 114.2202100000,22.4064210000 114.2203490000,22.4064220000 114.2205300000,22.4064490000 114.2206180000,22.4064880000 114.2206990000,22.4065530000 114.2210360000,22.4069480000 114.2211920000,22.4071310000 114.2212900000,22.4072530000 114.2214950000,22.4071090000 114.2221340000,22.4066560000 114.2222180000,22.4065960000 114.2223130000,22.4065300000 114.2222190000,22.4063750000 114.2220460000,22.4061040000 114.2217940000,22.4058030000 114.2215910000,22.4055400000 114.2215330000,22.4054730000 114.2211770000,22.4051340000 114.2207970000,22.4048110000 114.2206730000,22.4047200000 114.2204900000,22.4046000000 114.2199860000,22.4043200000 114.2190970000,22.4038870000 114.2186920000,22.4036610000 114.2176400000,22.4031860000 114.2167310000,22.4027280000 114.2159630000,22.4023250000 114.2159600000,22.4023230000 114.2155150000,22.4020700000 114.2154460000,22.4020300000 114.2151980000,22.4018730000 114.2150430000,22.4017670000 114.2148930000,22.4016520000 114.2146020000,22.4014010000 114.2144990000,22.4013040000 114.2140600000,22.4009170000 114.2134990000,22.4003050000 114.2130890000,22.3998360000 114.2126550000,22.3993420000 114.2125460000,22.3992080000 114.2122790000,22.3987920000 114.2121060000,22.3985530000 114.2119190000,22.3982930000 114.2115720000,22.3977070000 114.2111720000,22.3970160000 114.2110740000,22.3967130000 114.2110210000,22.3965530000 114.2109880000,22.3964310000 114.2109560000,22.3962630000 114.2108650000,22.3957880000 114.2108040000,22.3955570000 114.2107350000,22.3953400000 114.2106670000,22.3952160000 114.2105990000,22.3950910000 114.2103900000,22.3949820000 114.2103150000,22.3948390000 114.2102340000,22.3946880000 114.2102020000,22.3946210000 114.2101580000,22.3944960000 114.2101690000,22.3944010000 114.2101700000,22.3942670000 114.2101640000,22.3942120000 114.2101510000,22.3941480000 114.2101310000,22.3940690000 114.2100800000,22.3939700000 114.2100360000,22.3938970000 114.2099820000,22.3937520000 114.2099000000,22.3934920000 114.2098610000,22.3933430000 114.2098130000,22.3931440000 114.2098000000,22.3929610000 114.2097900000,22.3926860000 114.2097880000,22.3925420000 114.2098000000,22.3923760000 114.2098120000,22.3921800000 114.2098250000,22.3920680000 114.2098610000,22.3918680000 114.2099030000,22.3916790000 114.2099450000,22.3914850000 114.2099980000,22.3911860000 114.2100360000,22.3909630000 114.2100910000,22.3908310000 114.2101480000,22.3907110000 114.2102240000,22.3905480000 114.2103460000,22.3902950000 114.2104760000,22.3900290000 114.2105550000,22.3898690000 114.2106480000,22.3896770000 114.2107760000,22.3894240000 114.2108670000,22.3892400000 114.2109560000,22.3890440000 114.2110510000,22.3887890000 114.2111330000,22.3885190000 114.2111770000,22.3882950000 114.2112240000,22.3880230000 114.2112370000,22.3878200000 114.2112210000,22.3873360000 114.2112150000,22.3871660000 114.2111410000,22.3867200000 114.2110690000,22.3863140000 114.2110060000,22.3859590000 114.2109100000,22.3854200000 114.2108610000,22.3851580000 114.2107060000,22.3842910000 114.2105700000,22.3835670000 114.2105250000,22.3832700000 114.2104390000,22.3827410000 114.2103610000,22.3823120000 114.2102970000,22.3818960000 114.2102770000,22.3816230000 114.2102610000,22.3811320000 114.2102450000,22.3807760000 114.2102800000,22.3800980000 114.2103560000,22.3797280000 114.2104270000,22.3794310000 114.2105030000,22.3791600000 114.2106200000,22.3789120000 114.2107540000,22.3786890000 114.2108930000,22.3784770000 114.2110350000,22.3782830000 114.2110800000,22.3782390000 114.2112720000,22.3780530000 114.2117400000,22.3776370000 114.2117800000,22.3776010000 114.2118630000,22.3775380000 114.2123110000,22.3771630000 114.2125220000,22.3769600000 114.2128340000,22.3766900000 114.2130050000,22.3764410000 114.2132730000,22.3760500000 114.2133850000,22.3758450000 114.2134900000,22.3756340000 114.2135830000,22.3754400000 114.2136620000,22.3752500000 114.2137340000,22.3750400000 114.2138090000,22.3748200000 114.2138700000,22.3746200000 114.2139200000,22.3744100000 114.2139600000,22.3742100000 114.2139900000,22.3739900000 114.2140100000,22.3738200000 114.2140300000,22.3736200000 114.2140430000,22.3734200000 114.2140470000,22.3732200000 114.2140470000,22.3730200000 114.2140390000,22.3728200000 114.2140200000,22.3725900000 114.2139900000,22.3723500000 114.2139580000,22.3721200000 114.2139100000,22.3718900000 114.2138830000,22.3717800000 114.2083200000,22.3495900000 114.2082620000,22.3493800000 114.2081850000,22.3491100000 114.2081120000,22.3488600000 114.2080360000,22.3486000000 114.2079650000,22.3483650000 114.2078860000,22.3481300000 114.2077980000,22.3478750000 114.2077160000,22.3476550000 114.2076370000,22.3474500000 114.2075600000,22.3472510000 114.2074820000,22.3470500000 114.2074320000,22.3469220000 114.2073200000,22.3466400000 114.2072320000,22.3464380000 114.2071500000,22.3462500000 114.2070620000,22.3460490000 114.2069700000,22.3458400000 114.2068550000,22.3455880000 114.2067400000,22.3453400000 114.2066200000,22.3451000000 114.2064930000,22.3448500000 114.2063600000,22.3445900000 114.2062700000,22.3444200000 114.2061700000,22.3442500000 114.2060250000,22.3439910000 114.2058840000,22.3437400000 114.2047240000,22.3418420000 114.2044970000,22.3414770000 114.2044510000,22.3414030000 114.2043560000,22.3412500000 114.2042370000,22.3410570000 114.2041840000,22.3409730000 114.2040200000,22.3406790000 114.2038510000,22.3401860000 114.2037570000,22.3399420000 114.2037000000,22.3396660000 114.2037050000,22.3393570000 114.2037490000,22.3391520000 114.2038370000,22.3389350000 114.2039620000,22.3387420000 114.2041840000,22.3385240000 114.2044330000,22.3383800000 114.2047450000,22.3383120000 114.2049350000,22.3382860000 114.2051550000,22.3382850000 114.2053950000,22.3383170000 114.2056270000,22.3384380000 114.2057400000,22.3385020000 114.2058510000,22.3385810000 114.2060470000,22.3387320000 114.2060870000,22.3388180000 114.2061110000,22.3388710000 114.2061340000,22.3389470000 114.2061560000,22.3390790000 114.2061410000,22.3391280000 114.2061520000,22.3392160000 114.2061960000,22.3392950000 114.2062690000,22.3393520000 114.2063600000,22.3393820000 114.2064270000,22.3393830000 114.2064920000,22.3393670000 114.2065610000,22.3393290000 114.2066140000,22.3392740000 114.2066460000,22.3392060000 114.2066530000,22.3391320000 114.2066230000,22.3390340000 114.2065500000,22.3389570000 114.2059270000,22.3384360000 114.2055590000,22.3381440000 114.2054100000,22.3380340000 114.2051850000,22.3378910000 114.2049060000,22.3377540000 114.2044770000,22.3375870000 114.2041290000,22.3374890000 114.2036700000,22.3374040000 114.2034940000,22.3373890000 114.2034050000,22.3373840000 114.2033040000,22.3373840000 114.2033020000,22.3374910000 114.2033340000,22.3375640000 114.2034410000,22.3376910000 114.2036410000,22.3378270000 114.2037460000,22.3379920000 114.2037810000,22.3381350000 114.2037650000,22.3382770000 114.2037030000,22.3383970000 114.2036180000,22.3385000000 114.2033930000,22.3387210000 114.2029090000,22.3389990000 114.2028670000,22.3390220000 114.2023130000,22.3393480000 114.2022820000,22.3393660000 114.2005990000,22.3403280000 114.2004860000,22.3403930000 114.2001110000,22.3406470000 114.1996590000,22.3409170000 114.1991220000,22.3412210000 114.1989070000,22.3413350000 114.1986750000,22.3414190000 114.1984530000,22.3415150000 114.1982130000,22.3415850000 114.1978650000,22.3416190000 114.1975150000,22.3416490000 114.1966610000,22.3416600000 114.1958210000,22.3416580000 114.1956640000,22.3416580000 114.1955220000,22.3416570000 114.1924510000,22.3416280000 114.1919230000,22.3416100000 114.1916870000,22.3416060000 114.1915690000,22.3416060000 114.1914520000,22.3416050000 114.1911270000,22.3416250000 114.1908750000,22.3416730000 114.1906570000,22.3417450000 114.1904920000,22.3418110000 114.1897670000,22.3421530000 114.1893730000,22.3423270000 114.1889930000,22.3423970000 114.1886880000,22.3424180000 114.1884710000,22.3424320000 114.1875170000,22.3424300000 114.1867250000,22.3424410000 114.1863010000,22.3424730000 114.1856720000,22.3425860000 114.1854220000,22.3426580000 114.1849890000,22.3427940000 114.1846940000,22.3427710000 114.1845150000,22.3427020000 114.1843530000,22.3425730000 114.1842410000,22.3423710000 114.1840320000,22.3419050000 114.1839620000,22.3416510000 114.1837860000,22.3409650000 114.1838040000,22.3408510000 114.1837720000,22.3406660000 114.1836980000,22.3404500000 114.1836180000,22.3402460000 114.1835690000,22.3401280000 114.1834950000,22.3400170000 114.1833830000,22.3398570000 114.1833500000,22.3398090000 114.1833130000,22.3397520000 114.1832530000,22.3396830000 114.1831130000,22.3395250000 114.1830140000,22.3394450000 114.1827010000,22.3393610000 114.1825550000,22.3392930000 114.1824380000,22.3392460000 114.1823070000,22.3392060000 114.1821910000,22.3391800000 114.1820910000,22.3391580000 114.1820420000,22.3391530000 114.1818410000,22.3391340000 114.1816430000,22.3391230000 114.1815880000,22.3391230000 114.1805840000,22.3391340000 114.1804970000,22.3391340000 114.1803410000,22.3391360000 114.1797760000,22.3391430000 114.1795630000,22.3391480000 114.1794590000,22.3391500000 114.1793930000,22.3391520000 114.1793500000,22.3391530000 114.1792730000,22.3391540000 114.1790930000,22.3391670000 114.1791110000,22.3398540000 114.1791130000,22.3399370000 114.1789870000,22.3399450000 114.1786150000,22.3399680000 114.1782000000,22.3399930000 114.1780280000,22.3400020000 114.1778370000,22.3400120000 114.1772400000,22.3400480000 114.1765290000,22.3401000000 114.1761900000,22.3401250000 114.1759200000,22.3401400000 114.1765740000,22.3381090000 114.1766450000,22.3379330000 114.1766220000,22.3378170000 114.1765100000,22.3374420000 114.1764760000,22.3373380000 114.1763540000,22.3370690000 114.1763530000,22.3370250000 114.1763530000,22.3370080000 114.1763850000,22.3369340000 114.1764220000,22.3368820000 114.1764710000,22.3368810000 114.1765200000,22.3368790000 114.1768800000,22.3368650000 114.1770600000,22.3368600000 114.1772520000,22.3368510000 114.1774360000,22.3368440000 114.1776050000,22.3368380000 114.1777960000,22.3368310000 114.1779320000,22.3368260000 114.1779950000,22.3367290000 114.1780190000,22.3366390000 114.1778720000,22.3363290000 114.1777960000,22.3363070000 114.1776980000,22.3362920000 114.1773680000,22.3363000000 114.1773010000,22.3363020000 114.1776980000,22.3362920000 114.1777960000,22.3363070000 114.1778720000,22.3363290000 114.1777850000,22.3361370000 114.1777040000,22.3359750000 114.1776560000,22.3352550000 114.1773520000,22.3352710000 114.1769870000,22.3352980000 114.1768780000,22.3353030000 114.1768540000,22.3352830000 114.1768250000,22.3352700000 114.1767930000,22.3352660000 114.1767850000,22.3352290000 114.1767820000,22.3351890000 114.1767860000,22.3351390000 114.1769090000,22.3347320000 114.1769550000,22.3346280000 114.1770390000,22.3345820000 114.1773070000,22.3345670000 114.1788380000,22.3344870000 114.1788800000,22.3351670000 114.1789180000,22.3357650000 114.1789990000,22.3363560000 114.1789360000,22.3365850000 114.1789510000,22.3368850000 114.1789740000,22.3373100000 114.1789970000,22.3378030000 114.1790180000,22.3381720000 114.1790240000,22.3386100000 114.1789150000,22.3386130000 114.1788970000,22.3386140000 114.1785630000,22.3386250000 114.1784940000,22.3386290000 114.1780950000,22.3387020000 114.1777790000,22.3388470000 114.1777520000,22.3388710000 114.1775560000,22.3390470000 114.1773250000,22.3393680000 114.1772560000,22.3397050000 114.1772390000,22.3398220000 114.1772290000,22.3399370000 114.1772290000,22.3399810000 114.1772320000,22.3400100000 114.1772400000,22.3400480000 114.1772490000,22.3400790000 114.1772660000,22.3401140000 114.1772850000,22.3401460000 114.1773150000,22.3401870000 114.1775880000,22.3401730000 114.1780380000,22.3401420000 114.1787690000,22.3400980000 114.1787860000,22.3400970000 114.1789200000,22.3400890000 114.1789660000,22.3400860000 114.1790010000,22.3400840000 114.1790230000,22.3400820000 114.1791460000,22.3400840000 114.1793210000,22.3400540000 114.1793400000,22.3399210000 114.1793290000,22.3396640000 114.1792790000,22.3392130000 114.1792730000,22.3391540000 114.1793500000,22.3391530000 114.1793930000,22.3391520000 114.1794590000,22.3391500000 114.1795630000,22.3391480000 114.1797760000,22.3391430000 114.1803410000,22.3391360000 114.1804970000,22.3391340000 114.1805840000,22.3391340000 114.1815880000,22.3391230000 114.1816430000,22.3391230000 114.1818410000,22.3391340000 114.1820420000,22.3391530000 114.1820910000,22.3391580000 114.1821910000,22.3391800000 114.1823070000,22.3392060000 114.1824380000,22.3392460000 114.1825550000,22.3392930000 114.1827010000,22.3393610000 114.1828550000,22.3394620000 114.1829930000,22.3395650000 114.1830200000,22.3395930000 114.1830670000,22.3396430000 114.1831360000,22.3397300000 114.1831980000,22.3398160000 114.1833360000,22.3400060000 114.1834600000,22.3401920000 114.1835740000,22.3404590000 114.1836580000,22.3406870000 114.1837240000,22.3408660000 114.1837860000,22.3409650000 114.1839620000,22.3416510000 114.1840320000,22.3419050000 114.1840830000,22.3421040000 114.1841950000,22.3425230000 114.1842360000,22.3426580000 114.1842780000,22.3427820000 114.1843530000,22.3429440000 114.1843680000,22.3429820000 114.1844220000,22.3430710000 114.1845140000,22.3432240000 114.1846500000,22.3433600000 114.1847820000,22.3434760000 114.1846260000,22.3436480000 114.1844770000,22.3437360000 114.1843920000,22.3437330000 114.1842960000,22.3436910000 114.1842310000,22.3436390000 114.1842020000,22.3435740000 114.1841870000,22.3435130000 114.1841860000,22.3434420000 114.1842190000,22.3433690000 114.1842600000,22.3433310000 114.1843030000,22.3433040000 114.1843530000,22.3432800000 114.1846760000,22.3431320000 114.1849570000,22.3429960000 114.1850800000,22.3428960000 114.1852960000,22.3428080000 114.1855600000,22.3427320000 114.1857930000,22.3426750000 114.1860610000,22.3426220000 114.1863390000,22.3425850000 114.1864860000,22.3425670000 114.1869390000,22.3425470000 114.1875150000,22.3425370000 114.1885190000,22.3425370000 114.1887960000,22.3425240000 114.1891320000,22.3424810000 114.1894990000,22.3423920000 114.1899660000,22.3421980000 114.1903150000,22.3420380000 114.1906920000,22.3418650000 114.1909750000,22.3417600000 114.1912260000,22.3417090000 114.1914940000,22.3416970000 114.1926250000,22.3417090000 114.1956600000,22.3417580000 114.1958090000,22.3417600000 114.1963520000,22.3417620000 114.1971850000,22.3417830000 114.1976130000,22.3417830000 114.1977440000,22.3417730000 114.1979580000,22.3417480000 114.1982100000,22.3416990000 114.1985330000,22.3416090000 114.1988230000,22.3414960000 114.1992450000,22.3412810000 114.1999010000,22.3410540000 114.2003290000,22.3408770000 114.2006510000,22.3407410000 114.2006960000,22.3407230000 114.2009540000,22.3406200000 114.2012380000,22.3404880000 114.2016200000,22.3403430000 114.2020330000,22.3400810000 114.2021660000,22.3400100000 114.2022440000,22.3399700000 114.2024420000,22.3399220000 114.2025700000,22.3399060000 114.2026850000,22.3399010000 114.2028860000,22.3399320000 114.2029520000,22.3399560000 114.2030910000,22.3400050000 114.2032340000,22.3400990000 114.2033800000,22.3402310000 114.2037070000,22.3407550000 114.2037530000,22.3408100000 114.2038120000,22.3408620000 114.2038340000,22.3409070000 114.2038860000,22.3409910000 114.2042960000,22.3416610000 114.2043110000,22.3416850000 114.2043790000,22.3417970000 114.2044810000,22.3419620000 114.2053200000,22.3433150000 114.2054350000,22.3435200000 114.2055500000,22.3437290000 114.2056630000,22.3439250000 114.2057790000,22.3441400000 114.2058890000,22.3443450000 114.2060000000,22.3445600000 114.2061000000,22.3447600000 114.2062070000,22.3449750000 114.2063090000,22.3451800000 114.2064100000,22.3453900000 114.2065010000,22.3455900000 114.2065900000,22.3457900000 114.2066830000,22.3460000000 114.2067680000,22.3462000000 114.2068510000,22.3464000000 114.2069320000,22.3465990000 114.2070130000,22.3468000000 114.2071030000,22.3470300000 114.2072050000,22.3473000000 114.2073180000,22.3476000000 114.2074280000,22.3479000000 114.2075260000,22.3482000000 114.2076200000,22.3484900000 114.2076880000,22.3487000000 114.2077600000,22.3489400000 114.2078440000,22.3492500000 114.2079100000,22.3495000000 114.2135960000,22.3721800000 114.2136400000,22.3723800000 114.2136800000,22.3726000000 114.2137070000,22.3728000000 114.2137270000,22.3730000000 114.2137370000,22.3732000000 114.2137370000,22.3734000000 114.2137320000,22.3736000000 114.2137200000,22.3738000000 114.2136930000,22.3740200000 114.2136600000,22.3742200000 114.2136180000,22.3744700000 114.2135700000,22.3746800000 114.2135000000,22.3749100000 114.2134300000,22.3751100000 114.2133500000,22.3753100000 114.2132580000,22.3755300000 114.2131500000,22.3757400000 114.2130380000,22.3759400000 114.2128100000,22.3762900000 114.2127220000,22.3764120000 114.2124270000,22.3767490000 114.2121920000,22.3769590000 114.2119220000,22.3771500000 114.2115880000,22.3774160000 114.2112650000,22.3777380000 114.2109840000,22.3780490000 114.2107670000,22.3783370000 114.2106640000,22.3785000000 114.2105650000,22.3786520000 114.2104420000,22.3789940000 114.2103620000,22.3792260000 114.2103220000,22.3793520000 114.2102880000,22.3794810000 114.2102530000,22.3796580000 114.2101970000,22.3800990000 114.2101600000,22.3805130000 114.2101500000,22.3809730000 114.2101750000,22.3815010000 114.2102070000,22.3818990000 114.2102730000,22.3823180000 114.2103460000,22.3827530000 114.2104170000,22.3831650000 114.2104830000,22.3835810000 114.2105810000,22.3840880000 114.2107790000,22.3851800000 114.2107920000,22.3853990000 114.2109760000,22.3863920000 114.2110930000,22.3873440000 114.2110970000,22.3875330000 114.2110970000,22.3877150000 114.2110510000,22.3880820000 114.2110260000,22.3882700000 114.2109820000,22.3884920000 114.2109030000,22.3887750000 114.2108270000,22.3889850000 114.2107510000,22.3891670000 114.2106300000,22.3894110000 114.2105050000,22.3896260000 114.2102590000,22.3900050000 114.2101320000,22.3902270000 114.2100130000,22.3904140000 114.2099450000,22.3905420000 114.2098700000,22.3906850000 114.2098480000,22.3907490000 114.2096410000,22.3910610000 114.2095480000,22.3912520000 114.2094750000,22.3914320000 114.2094010000,22.3916540000 114.2093620000,22.3917890000 114.2093290000,22.3919080000 114.2092810000,22.3921150000 114.2092560000,22.3923030000 114.2092340000,22.3924990000 114.2092200000,22.3926740000 114.2092140000,22.3930270000 114.2092250000,22.3932890000 114.2092300000,22.3936160000 114.2092080000,22.3937770000 114.2091700000,22.3938840000 114.2091520000,22.3939120000 114.2090900000,22.3940550000 114.2090760000,22.3941480000 114.2091000000,22.3942770000 114.2091520000,22.3944190000 114.2092100000,22.3944980000 114.2093690000,22.3946840000 114.2094290000,22.3947390000 114.2095110000,22.3947840000 114.2096130000,22.3948170000 114.2097100000,22.3948290000 114.2098150000,22.3948300000 114.2099630000,22.3947750000 114.2100330000,22.3948050000 114.2101200000,22.3948430000 114.2101930000,22.3948930000 114.2102630000,22.3949580000 114.2103180000,22.3950360000 114.2103680000,22.3951410000 114.2104100000,22.3952590000 114.2104620000,22.3954490000 114.2105070000,22.3956600000 114.2105820000,22.3958870000 114.2106840000,22.3961050000 114.2107770000,22.3962770000 114.2109000000,22.3965290000 114.2110340000,22.3967620000 114.2111720000,22.3970160000 114.2115720000,22.3977070000 114.2119190000,22.3982930000 114.2121060000,22.3985530000 114.2122790000,22.3987920000 114.2125460000,22.3992080000 114.2126550000,22.3993420000 114.2130890000,22.3998360000 114.2134990000,22.4003050000 114.2140600000,22.4009170000 114.2144990000,22.4013040000 114.2146020000,22.4014010000 114.2148930000,22.4016520000 114.2150430000,22.4017670000 114.2151980000,22.4018730000 114.2154460000,22.4020300000 114.2155150000,22.4020700000 114.2159600000,22.4023230000 114.2159630000,22.4023250000 114.2167310000,22.4027280000 114.2176400000,22.4031860000 114.2186920000,22.4036610000 114.2190970000,22.4038870000 114.2199860000,22.4043200000 114.2204900000,22.4046000000 114.2206730000,22.4047200000 114.2207970000,22.4048110000 114.2211770000,22.4051340000 114.2215330000,22.4054730000 114.2215910000,22.4055400000 114.2217940000,22.4058030000 114.2219570000,22.4061070000 114.2220020000,22.4061990000 114.2221380000,22.4064650000 114.2222180000,22.4065960000 114.2221340000,22.4066560000 114.2214950000,22.4071090000 114.2212900000,22.4072530000 114.2211920000,22.4071310000 114.2206990000,22.4065530000 114.2206180000,22.4064880000 114.2205300000,22.4064490000 114.2203490000,22.4064220000 114.2202100000,22.4064210000 114.2200810000,22.4064520000 114.2198820000,22.4066170000 114.2197780000,22.4067020000 114.2196560000,22.4068120000 114.2195360000,22.4069200000 114.2195010000,22.4069660000 114.2194840000,22.4070120000 114.2194840000,22.4070660000 114.2194940000,22.4071190000 114.2195160000,22.4071570000 114.2201010000,22.4079220000 114.2206400000,22.4087370000 114.2207350000,22.4089070000 114.2208120000,22.4090460000 114.2210200000,22.4094510000 114.2212080000,22.4098180000 114.2212710000,22.4099430000 114.2213530000,22.4101250000 114.2216780000,22.4110010000 114.2217300000,22.4111490000 114.2218050000,22.4113620000 114.2218470000,22.4115010000 114.2221040000,22.4125490000 114.2221310000,22.4126560000 114.2221440000,22.4127130000 114.2221940000,22.4129060000 114.2223550000,22.4135280000 114.2223870000,22.4136540000 114.2224250000,22.4138190000 114.2226700000,22.4148670000 114.2227090000,22.4150240000 114.2227420000,22.4151680000 114.2228200000,22.4155180000 114.2229130000,22.4157370000 114.2230110000,22.4158620000 114.2230380000,22.4158980000 114.2230900000,22.4160050000 114.2231100000,22.4160680000 114.2231130000,22.4161070000 114.2231150000,22.4161300000 114.2231250000,22.4161890000 114.2231020000,22.4162730000 114.2231090000,22.4163330000 114.2231350000,22.4163890000 114.2231770000,22.4164350000 114.2232320000,22.4164680000 114.2232950000,22.4164850000 114.2233610000,22.4164850000 114.2234240000,22.4164670000 114.2234780000,22.4164320000 114.2235200000,22.4163840000 114.2235450000,22.4163240000 114.2237430000,22.4161990000 114.2237870000,22.4161710000 114.2240920000,22.4160600000 114.2243450000,22.4159810000 114.2244840000,22.4159680000 114.2246290000,22.4159650000 114.2247920000,22.4159750000 114.2248380000,22.4159990000 114.2248880000,22.4160170000 114.2249960000,22.4161210000 114.2250800000,22.4162240000 114.2251430000,22.4163460000 114.2256220000,22.4175880000 114.2258740000,22.4182590000 114.2260530000,22.4187120000 114.2262950000,22.4193300000 114.2269400000,22.4210690000 114.2271080000,22.4215270000 114.2272770000,22.4219940000 114.2273910000,22.4223160000 114.2274610000,22.4224550000 114.2275170000,22.4225470000 114.2276380000,22.4227190000 114.2280010000,22.4232450000 114.2281640000,22.4234330000 114.2283040000,22.4235650000 114.2284140000,22.4236760000 114.2285370000,22.4237700000 114.2287530000,22.4239310000 114.2291010000,22.4241460000 114.2293610000,22.4242910000 114.2294650000,22.4243340000 114.2295700000,22.4243780000 114.2296770000,22.4244180000 114.2298150000,22.4244700000 114.2300410000,22.4245370000 114.2303300000,22.4246150000 114.2309010000,22.4247760000 114.2318300000,22.4250460000 114.2326840000,22.4252770000 114.2333020000,22.4254400000 114.2338210000,22.4255470000 114.2340170000,22.4255860000 114.2339850000,22.4256960000 114.2339830000,22.4257010000 114.2337950000,22.4263420000 114.2337940000,22.4263450000 114.2337450000,22.4265270000 114.2336080000,22.4264900000 114.2327540000,22.4262610000 114.2316210000,22.4259640000 114.2315770000,22.4258060000 114.2315760000,22.4257370000 114.2316040000,22.4256560000 114.2316360000,22.4255620000 114.2313600000,22.4254870000</coordinates>
                </LineString>
                <ExtendedData>
                    <Data name="length">
                        <value>33290.08720847734</value>
                    </Data>
                    <Data name="duration">
                        <value>01:15:36</value>
                    </Data>
                </ExtendedData>
            </Placemark>
        </Document>
    </Document>
</kml>