<?xml version="1.0" encoding="UTF-8"?>
<kml xmlns="http://www.opengis.net/kml/2.2" xmlns:gx="http://www.google.com/kml/ext/2.2">
    <Document>
        <name>Route</name>
        <Folder>
            <name>Route Request</name>
            <Placemark>
                <Point>
                    <coordinates>114.2558010810,22.4309707519</coordinates>
                </Point>
                <ExtendedData>
                    <Data name="routingVisited">
                        <value>false</value>
                    </Data>
                </ExtendedData>
            </Placemark>
            <Placemark>
                <Point>
                    <coordinates>114.2354176617,22.4222491007</coordinates>
                </Point>
                <ExtendedData>
                    <Data name="routingVisited">
                        <value>false</value>
                    </Data>
                </ExtendedData>
            </Placemark>
            <Placemark>
                <Point>
                    <coordinates>114.2289153881,22.4218666781</coordinates>
                </Point>
                <ExtendedData>
                    <Data name="routingVisited">
                        <value>false</value>
                    </Data>
                </ExtendedData>
            </Placemark>
            <Placemark>
                <Point>
                    <coordinates>114.2015175819,22.3354957557</coordinates>
                </Point>
                <ExtendedData>
                    <Data name="routingVisited">
                        <value>false</value>
                    </Data>
                </ExtendedData>
            </Placemark>
            <Placemark>
                <Point>
                    <coordinates>114.2196515198,22.3151507541</coordinates>
                </Point>
                <ExtendedData>
                    <Data name="routingVisited">
                        <value>false</value>
                    </Data>
                </ExtendedData>
            </Placemark>
            <Placemark>
                <Point>
                    <coordinates>114.2262605468,22.3135617472</coordinates>
                </Point>
                <ExtendedData>
                    <Data name="routingVisited">
                        <value>false</value>
                    </Data>
                </ExtendedData>
            </Placemark>
            <Placemark>
                <Point>
                    <coordinates>114.2279881312,22.3117858761</coordinates>
                </Point>
                <ExtendedData>
                    <Data name="routingVisited">
                        <value>false</value>
                    </Data>
                </ExtendedData>
            </Placemark>
            <Placemark>
                <Point>
                    <coordinates>114.2333062107,22.3074006804</coordinates>
                </Point>
                <ExtendedData>
                    <Data name="routingVisited">
                        <value>false</value>
                    </Data>
                </ExtendedData>
            </Placemark>
            <Placemark>
                <Point>
                    <coordinates>114.2295114645,22.3099415096</coordinates>
                </Point>
                <ExtendedData>
                    <Data name="routingVisited">
                        <value>false</value>
                    </Data>
                </ExtendedData>
            </Placemark>
            <Placemark>
                <Point>
                    <coordinates>114.2249056464,22.3121478821</coordinates>
                </Point>
            </Placemark>
            <Placemark>
                <Point>
                    <coordinates>114.2167868668,22.3157654924</coordinates>
                </Point>
            </Placemark>
            <Placemark>
                <Point>
                    <coordinates>114.2071523643,22.3335796713</coordinates>
                </Point>
                <ExtendedData>
                    <Data name="routingVisited">
                        <value>false</value>
                    </Data>
                </ExtendedData>
            </Placemark>
            <Placemark>
                <Point>
                    <coordinates>114.2289745277,22.4197903186</coordinates>
                </Point>
            </Placemark>
            <Placemark>
                <Point>
                    <coordinates>114.2398986644,22.4246572074</coordinates>
                </Point>
                <ExtendedData>
                    <Data name="routingVisited">
                        <value>false</value>
                    </Data>
                </ExtendedData>
            </Placemark>
            <Placemark>
                <Point>
                    <coordinates>114.2557715208,22.4309161119</coordinates>
                </Point>
                <ExtendedData>
                    <Data name="routingVisited">
                        <value>false</value>
                    </Data>
                </ExtendedData>
            </Placemark>
        </Folder>
        <Document>
            <name>43.7 km; 01:28 h (OSRM)</name>
            <Placemark>
                <name>Route</name>
                <LineString>
                    <coordinates>114.2558030000,22.4309920000 114.2559430000,22.4309810000 114.2559750000,22.4309780000 114.2560290000,22.4309600000 114.2560680000,22.4309140000 114.2561050000,22.4308350000 114.2561810000,22.4306600000 114.2562140000,22.4305650000 114.2562600000,22.4304720000 114.2552120000,22.4305570000 114.2545540000,22.4306210000 114.2541880000,22.4306500000 114.2537910000,22.4306880000 114.2534550000,22.4306890000 114.2533430000,22.4306850000 114.2532780000,22.4306680000 114.2532120000,22.4306290000 114.2532030000,22.4306140000 114.2531650000,22.4305680000 114.2531150000,22.4305340000 114.2530560000,22.4305150000 114.2530150000,22.4305120000 114.2529740000,22.4305160000 114.2529350000,22.4305280000 114.2527970000,22.4305910000 114.2527100000,22.4306010000 114.2526160000,22.4305990000 114.2525200000,22.4305760000 114.2518500000,22.4303390000 114.2511500000,22.4300980000 114.2510330000,22.4300570000 114.2504840000,22.4298680000 114.2491390000,22.4294050000 114.2486500000,22.4292260000 114.2485510000,22.4291900000 114.2480520000,22.4290100000 114.2474570000,22.4288060000 114.2470150000,22.4286470000 114.2467540000,22.4285200000 114.2465640000,22.4284370000 114.2462270000,22.4282710000 114.2460630000,22.4281670000 114.2457390000,22.4278970000 114.2456430000,22.4277880000 114.2455680000,22.4276460000 114.2455420000,22.4275000000 114.2455570000,22.4273730000 114.2455900000,22.4272850000 114.2456290000,22.4272180000 114.2457010000,22.4271310000 114.2457490000,22.4270900000 114.2457970000,22.4270590000 114.2458790000,22.4270190000 114.2459600000,22.4269920000 114.2460500000,22.4269790000 114.2461500000,22.4269750000 114.2462400000,22.4269810000 114.2463300000,22.4270000000 114.2464000000,22.4270200000 114.2464710000,22.4270470000 114.2465420000,22.4270810000 114.2466500000,22.4271500000 114.2466900000,22.4271810000 114.2467310000,22.4272200000 114.2468070000,22.4273070000 114.2468590000,22.4273800000 114.2469350000,22.4275500000 114.2469610000,22.4277150000 114.2469630000,22.4278150000 114.2469250000,22.4280010000 114.2467900000,22.4282780000 114.2464440000,22.4286780000 114.2461730000,22.4289160000 114.2459370000,22.4290940000 114.2457840000,22.4291930000 114.2456890000,22.4292540000 114.2453800000,22.4294160000 114.2450150000,22.4295400000 114.2447260000,22.4295840000 114.2444340000,22.4296000000 114.2440920000,22.4295830000 114.2438970000,22.4295560000 114.2437750000,22.4295320000 114.2437050000,22.4295130000 114.2435090000,22.4294610000 114.2433050000,22.4293660000 114.2431840000,22.4292910000 114.2430590000,22.4291820000 114.2429160000,22.4290530000 114.2427730000,22.4289050000 114.2427330000,22.4288400000 114.2426900000,22.4287950000 114.2426390000,22.4287560000 114.2425830000,22.4287270000 114.2425210000,22.4287070000 114.2424560000,22.4286970000 114.2423910000,22.4286980000 114.2423270000,22.4287090000 114.2422800000,22.4287240000 114.2421840000,22.4286950000 114.2420900000,22.4286500000 114.2419410000,22.4285370000 114.2416740000,22.4283350000 114.2410180000,22.4277830000 114.2405890000,22.4274560000 114.2403920000,22.4273130000 114.2399840000,22.4270180000 114.2398050000,22.4268780000 114.2394020000,22.4265580000 114.2392510000,22.4264510000 114.2393050000,22.4263830000 114.2393550000,22.4263200000 114.2394850000,22.4261420000 114.2397870000,22.4257550000 114.2399290000,22.4255140000 114.2399800000,22.4253670000 114.2400290000,22.4252210000 114.2400540000,22.4249520000 114.2400290000,22.4245930000 114.2399110000,22.4242520000 114.2397390000,22.4240340000 114.2395380000,22.4238740000 114.2393170000,22.4237950000 114.2390950000,22.4237720000 114.2388190000,22.4237960000 114.2381110000,22.4239250000 114.2376820000,22.4239750000 114.2374280000,22.4239810000 114.2371660000,22.4239570000 114.2369770000,22.4238970000 114.2368230000,22.4238220000 114.2365150000,22.4236120000 114.2362350000,22.4233720000 114.2361390000,22.4232890000 114.2360280000,22.4231960000 114.2359370000,22.4231140000 114.2354870000,22.4227060000 114.2352550000,22.4224840000 114.2352080000,22.4224400000 114.2347150000,22.4219770000 114.2344650000,22.4218030000 114.2343390000,22.4217360000 114.2342350000,22.4216910000 114.2340730000,22.4216430000 114.2338560000,22.4215990000 114.2335180000,22.4216030000 114.2331950000,22.4216520000 114.2327570000,22.4217850000 114.2325980000,22.4218330000 114.2324800000,22.4218650000 114.2325800000,22.4220770000 114.2327020000,22.4222860000 114.2328210000,22.4224740000 114.2329400000,22.4226410000 114.2331900000,22.4229240000 114.2334660000,22.4232390000 114.2334120000,22.4232910000 114.2333410000,22.4233520000 114.2331850000,22.4234820000 114.2330810000,22.4235500000 114.2329950000,22.4235930000 114.2329710000,22.4235980000 114.2329500000,22.4236100000 114.2329360000,22.4236240000 114.2329260000,22.4236400000 114.2329200000,22.4236580000 114.2328920000,22.4236880000 114.2327930000,22.4237520000 114.2327180000,22.4237880000 114.2326280000,22.4238160000 114.2325230000,22.4238350000 114.2324350000,22.4238230000 114.2323110000,22.4237940000 114.2318790000,22.4236730000 114.2315160000,22.4235680000 114.2313400000,22.4235120000 114.2310930000,22.4234470000 114.2303900000,22.4232590000 114.2303150000,22.4232430000 114.2302330000,22.4232380000 114.2301220000,22.4232540000 114.2300510000,22.4232870000 114.2299820000,22.4233180000 114.2299330000,22.4233600000 114.2298800000,22.4234190000 114.2297830000,22.4236550000 114.2296610000,22.4237950000 114.2295540000,22.4238630000 114.2295080000,22.4238800000 114.2292950000,22.4239420000 114.2290980000,22.4238450000 114.2289320000,22.4237390000 114.2287260000,22.4235930000 114.2285650000,22.4234610000 114.2283550000,22.4232730000 114.2281200000,22.4229960000 114.2278290000,22.4225130000 114.2277550000,22.4224100000 114.2279350000,22.4223100000 114.2284140000,22.4220540000 114.2287170000,22.4218830000 114.2288440000,22.4217870000 114.2288810000,22.4217590000 114.2290240000,22.4216510000 114.2292170000,22.4214680000 114.2293320000,22.4213400000 114.2295260000,22.4210490000 114.2295710000,22.4209600000 114.2295970000,22.4208550000 114.2296220000,22.4207260000 114.2296320000,22.4206340000 114.2296270000,22.4204850000 114.2296120000,22.4203840000 114.2295830000,22.4202410000 114.2295440000,22.4201200000 114.2294870000,22.4199480000 114.2294280000,22.4198030000 114.2293890000,22.4196790000 114.2293520000,22.4194750000 114.2293430000,22.4193810000 114.2293500000,22.4192900000 114.2293580000,22.4192180000 114.2293770000,22.4191340000 114.2294020000,22.4190340000 114.2294430000,22.4189390000 114.2295060000,22.4188110000 114.2296090000,22.4186850000 114.2296930000,22.4185970000 114.2298130000,22.4184880000 114.2299020000,22.4184230000 114.2299870000,22.4183770000 114.2300760000,22.4183300000 114.2313850000,22.4177110000 114.2314960000,22.4176890000 114.2316410000,22.4176700000 114.2317120000,22.4176860000 114.2317720000,22.4176810000 114.2318270000,22.4176610000 114.2318750000,22.4176270000 114.2319100000,22.4175820000 114.2319180000,22.4175660000 114.2319320000,22.4175170000 114.2319320000,22.4174650000 114.2319170000,22.4174160000 114.2318890000,22.4173710000 114.2318490000,22.4173350000 114.2317930000,22.4173080000 114.2316880000,22.4172500000 114.2315440000,22.4171280000 114.2309720000,22.4166080000 114.2306140000,22.4162290000 114.2305280000,22.4161200000 114.2304430000,22.4159850000 114.2303840000,22.4158680000 114.2303500000,22.4157300000 114.2303260000,22.4155230000 114.2302990000,22.4153880000 114.2302520000,22.4152420000 114.2302070000,22.4151330000 114.2301360000,22.4150090000 114.2300580000,22.4149210000 114.2299870000,22.4148550000 114.2297700000,22.4147050000 114.2295100000,22.4145660000 114.2291930000,22.4144190000 114.2286180000,22.4141720000 114.2285150000,22.4141360000 114.2280430000,22.4139550000 114.2277310000,22.4138320000 114.2273860000,22.4137430000 114.2270030000,22.4135610000 114.2265960000,22.4133530000 114.2265000000,22.4132990000 114.2260530000,22.4130260000 114.2259100000,22.4129420000 114.2257200000,22.4128130000 114.2254740000,22.4126330000 114.2252640000,22.4124780000 114.2250900000,22.4123140000 114.2246980000,22.4119140000 114.2244630000,22.4116350000 114.2243330000,22.4114610000 114.2242330000,22.4112930000 114.2240810000,22.4110080000 114.2239600000,22.4107640000 114.2238250000,22.4104580000 114.2237460000,22.4101940000 114.2236430000,22.4098570000 114.2235130000,22.4094940000 114.2233450000,22.4091250000 114.2231100000,22.4086720000 114.2228570000,22.4082560000 114.2226980000,22.4079890000 114.2223940000,22.4075370000 114.2221860000,22.4072270000 114.2221460000,22.4071760000 114.2217680000,22.4067080000 114.2216750000,22.4065910000 114.2215310000,22.4064220000 114.2213950000,22.4062720000 114.2212080000,22.4060800000 114.2210540000,22.4059280000 114.2208620000,22.4057350000 114.2207010000,22.4055900000 114.2205110000,22.4054210000 114.2203060000,22.4052530000 114.2201880000,22.4051450000 114.2196890000,22.4047680000 114.2194540000,22.4045920000 114.2192770000,22.4044650000 114.2190010000,22.4042830000 114.2179360000,22.4035990000 114.2175730000,22.4033740000 114.2173320000,22.4032320000 114.2170910000,22.4031010000 114.2169160000,22.4030090000 114.2167510000,22.4029210000 114.2165730000,22.4028420000 114.2163480000,22.4027340000 114.2161970000,22.4026590000 114.2159140000,22.4025210000 114.2156460000,22.4023860000 114.2151960000,22.4021380000 114.2149990000,22.4019980000 114.2148590000,22.4018890000 114.2146710000,22.4017240000 114.2145020000,22.4015780000 114.2143300000,22.4014230000 114.2142090000,22.4013060000 114.2140240000,22.4011200000 114.2136550000,22.4007270000 114.2127810000,22.3998020000 114.2126010000,22.3995960000 114.2124720000,22.3994680000 114.2118760000,22.3987410000 114.2117210000,22.3985150000 114.2115700000,22.3982940000 114.2114550000,22.3981230000 114.2113420000,22.3979240000 114.2111970000,22.3976840000 114.2110310000,22.3973870000 114.2108630000,22.3971000000 114.2107240000,22.3968120000 114.2105710000,22.3965130000 114.2104070000,22.3961210000 114.2102840000,22.3958400000 114.2101620000,22.3955270000 114.2099900000,22.3950030000 114.2098520000,22.3945370000 114.2097560000,22.3942140000 114.2096620000,22.3938580000 114.2096370000,22.3937240000 114.2096120000,22.3935550000 114.2096000000,22.3933870000 114.2095850000,22.3932130000 114.2095880000,22.3930360000 114.2095880000,22.3928670000 114.2095980000,22.3927040000 114.2096240000,22.3923990000 114.2096510000,22.3921930000 114.2096980000,22.3919600000 114.2097490000,22.3917730000 114.2098110000,22.3915490000 114.2098750000,22.3913520000 114.2099490000,22.3911610000 114.2100360000,22.3909630000 114.2100910000,22.3908310000 114.2101480000,22.3907110000 114.2102240000,22.3905480000 114.2103460000,22.3902950000 114.2104760000,22.3900290000 114.2105550000,22.3898690000 114.2106480000,22.3896770000 114.2107760000,22.3894240000 114.2108670000,22.3892400000 114.2109560000,22.3890440000 114.2110510000,22.3887890000 114.2111330000,22.3885190000 114.2111770000,22.3882950000 114.2112240000,22.3880230000 114.2112370000,22.3878200000 114.2112210000,22.3873360000 114.2112150000,22.3871660000 114.2111410000,22.3867200000 114.2110690000,22.3863140000 114.2110060000,22.3859590000 114.2109100000,22.3854200000 114.2108610000,22.3851580000 114.2107060000,22.3842910000 114.2105700000,22.3835670000 114.2105250000,22.3832700000 114.2104390000,22.3827410000 114.2103610000,22.3823120000 114.2102970000,22.3818960000 114.2102770000,22.3816230000 114.2102610000,22.3811320000 114.2102450000,22.3807760000 114.2102800000,22.3800980000 114.2103560000,22.3797280000 114.2104270000,22.3794310000 114.2105030000,22.3791600000 114.2106200000,22.3789120000 114.2107540000,22.3786890000 114.2108930000,22.3784770000 114.2110350000,22.3782830000 114.2112720000,22.3780530000 114.2117400000,22.3776370000 114.2117800000,22.3776010000 114.2118630000,22.3775380000 114.2123110000,22.3771630000 114.2125220000,22.3769600000 114.2128340000,22.3766900000 114.2132730000,22.3760500000 114.2133850000,22.3758450000 114.2134900000,22.3756340000 114.2135830000,22.3754400000 114.2136620000,22.3752500000 114.2137340000,22.3750400000 114.2138090000,22.3748200000 114.2138700000,22.3746200000 114.2139200000,22.3744100000 114.2139600000,22.3742100000 114.2139900000,22.3739900000 114.2140100000,22.3738200000 114.2140300000,22.3736200000 114.2140430000,22.3734200000 114.2140470000,22.3732200000 114.2140470000,22.3730200000 114.2140390000,22.3728200000 114.2140200000,22.3725900000 114.2139900000,22.3723500000 114.2139580000,22.3721200000 114.2139100000,22.3718900000 114.2138830000,22.3717800000 114.2083200000,22.3495900000 114.2082620000,22.3493800000 114.2081850000,22.3491100000 114.2081120000,22.3488600000 114.2080360000,22.3486000000 114.2079650000,22.3483650000 114.2078860000,22.3481300000 114.2077980000,22.3478750000 114.2077160000,22.3476550000 114.2076370000,22.3474500000 114.2075600000,22.3472510000 114.2074820000,22.3470500000 114.2074320000,22.3469220000 114.2073200000,22.3466400000 114.2072320000,22.3464380000 114.2071500000,22.3462500000 114.2070620000,22.3460490000 114.2069700000,22.3458400000 114.2068550000,22.3455880000 114.2067400000,22.3453400000 114.2066200000,22.3451000000 114.2064930000,22.3448500000 114.2063600000,22.3445900000 114.2062700000,22.3444200000 114.2061700000,22.3442500000 114.2060250000,22.3439910000 114.2058840000,22.3437400000 114.2047240000,22.3418420000 114.2043560000,22.3412500000 114.2041840000,22.3409730000 114.2040200000,22.3406790000 114.2038510000,22.3401860000 114.2037570000,22.3399420000 114.2037000000,22.3396660000 114.2037050000,22.3393570000 114.2037490000,22.3391520000 114.2038370000,22.3389350000 114.2039620000,22.3387420000 114.2041840000,22.3385240000 114.2044330000,22.3383800000 114.2047450000,22.3383120000 114.2049350000,22.3382860000 114.2051550000,22.3382850000 114.2053950000,22.3383170000 114.2056270000,22.3384380000 114.2057400000,22.3385020000 114.2058510000,22.3385810000 114.2060470000,22.3387320000 114.2060870000,22.3388180000 114.2061110000,22.3388710000 114.2061340000,22.3389470000 114.2061560000,22.3390790000 114.2061410000,22.3391280000 114.2061520000,22.3392160000 114.2061960000,22.3392950000 114.2062690000,22.3393520000 114.2063600000,22.3393820000 114.2064270000,22.3393830000 114.2064920000,22.3393670000 114.2065610000,22.3393290000 114.2066140000,22.3392740000 114.2066460000,22.3392060000 114.2066530000,22.3391320000 114.2066230000,22.3390340000 114.2065500000,22.3389570000 114.2059270000,22.3384360000 114.2055590000,22.3381440000 114.2054100000,22.3380340000 114.2051850000,22.3378910000 114.2049060000,22.3377540000 114.2044770000,22.3375870000 114.2041290000,22.3374890000 114.2036700000,22.3374040000 114.2034940000,22.3373890000 114.2034050000,22.3373840000 114.2033040000,22.3373840000 114.2031510000,22.3374060000 114.2029030000,22.3374510000 114.2027230000,22.3375240000 114.2024640000,22.3376290000 114.2023500000,22.3376760000 114.2022920000,22.3376280000 114.2021830000,22.3375570000 114.2021140000,22.3374960000 114.2020700000,22.3374660000 114.2019920000,22.3374470000 114.2014750000,22.3374360000 114.2013450000,22.3374320000 114.2012430000,22.3374350000 114.2011860000,22.3374240000 114.2011350000,22.3374010000 114.2010580000,22.3373270000 114.2010360000,22.3372140000 114.2009940000,22.3367850000 114.2010010000,22.3366240000 114.2010250000,22.3364780000 114.2010240000,22.3363860000 114.2010160000,22.3363120000 114.2010220000,22.3362920000 114.2010210000,22.3362700000 114.2010150000,22.3362500000 114.2010090000,22.3362380000 114.2010240000,22.3361550000 114.2010660000,22.3359790000 114.2011570000,22.3358910000 114.2012560000,22.3357910000 114.2013970000,22.3356380000 114.2014560000,22.3355380000 114.2014710000,22.3354850000 114.2014920000,22.3354100000 114.2014920000,22.3353010000 114.2014880000,22.3352110000 114.2015240000,22.3351670000 114.2015620000,22.3351420000 114.2016390000,22.3351360000 114.2018040000,22.3351340000 114.2019180000,22.3351290000 114.2020820000,22.3351900000 114.2023430000,22.3352710000 114.2025260000,22.3353210000 114.2027310000,22.3353610000 114.2029400000,22.3353860000 114.2031080000,22.3353950000 114.2035390000,22.3353970000 114.2036210000,22.3353840000 114.2038040000,22.3353560000 114.2040400000,22.3352880000 114.2042320000,22.3352210000 114.2043530000,22.3351790000 114.2045500000,22.3350910000 114.2048960000,22.3349090000 114.2052180000,22.3346500000 114.2053450000,22.3345490000 114.2054220000,22.3344870000 114.2061180000,22.3339320000 114.2063580000,22.3337370000 114.2073070000,22.3329670000 114.2080420000,22.3324350000 114.2088340000,22.3317750000 114.2092530000,22.3313860000 114.2096250000,22.3310300000 114.2100790000,22.3306930000 114.2104900000,22.3303520000 114.2111900000,22.3296680000 114.2114570000,22.3295130000 114.2119600000,22.3291520000 114.2125680000,22.3286790000 114.2127230000,22.3285500000 114.2128560000,22.3283830000 114.2132980000,22.3277250000 114.2137260000,22.3270450000 114.2139320000,22.3267480000 114.2140770000,22.3264970000 114.2141280000,22.3264030000 114.2141850000,22.3262550000 114.2142210000,22.3261500000 114.2142560000,22.3259930000 114.2142540000,22.3253250000 114.2142650000,22.3250490000 114.2143020000,22.3244900000 114.2143480000,22.3239770000 114.2144050000,22.3233960000 114.2144340000,22.3231270000 114.2144470000,22.3230150000 114.2144910000,22.3226050000 114.2145230000,22.3223020000 114.2145410000,22.3221080000 114.2146740000,22.3211690000 114.2146910000,22.3210100000 114.2148460000,22.3194590000 114.2148780000,22.3191090000 114.2149170000,22.3186080000 114.2149450000,22.3183960000 114.2150370000,22.3180160000 114.2151450000,22.3177290000 114.2152150000,22.3175810000 114.2153140000,22.3174160000 114.2154820000,22.3171970000 114.2156590000,22.3170040000 114.2158440000,22.3168260000 114.2161390000,22.3165800000 114.2164250000,22.3163840000 114.2169700000,22.3161370000 114.2174360000,22.3159310000 114.2182030000,22.3156340000 114.2183590000,22.3155770000 114.2185000000,22.3155290000 114.2186250000,22.3154820000 114.2189080000,22.3153770000 114.2196310000,22.3151040000 114.2202010000,22.3148880000 114.2204670000,22.3147780000 114.2205550000,22.3147350000 114.2207410000,22.3146340000 114.2207980000,22.3145870000 114.2221090000,22.3140910000 114.2225480000,22.3139290000 114.2226260000,22.3139020000 114.2228740000,22.3138120000 114.2229970000,22.3137680000 114.2231470000,22.3137610000 114.2231790000,22.3137600000 114.2232780000,22.3137640000 114.2233060000,22.3137760000 114.2233610000,22.3138030000 114.2233980000,22.3138370000 114.2235380000,22.3141450000 114.2235970000,22.3142760000 114.2236200000,22.3143350000 114.2236770000,22.3144540000 114.2237170000,22.3145360000 114.2237410000,22.3146350000 114.2237340000,22.3147290000 114.2238170000,22.3148020000 114.2239110000,22.3148530000 114.2242340000,22.3149270000 114.2252300000,22.3151510000 114.2253600000,22.3151800000 114.2254760000,22.3151550000 114.2256000000,22.3151100000 114.2256800000,22.3150600000 114.2257400000,22.3150100000 114.2257330000,22.3148900000 114.2257420000,22.3147060000 114.2257870000,22.3145120000 114.2260820000,22.3138880000 114.2261830000,22.3136740000 114.2262350000,22.3135520000 114.2262810000,22.3134430000 114.2262990000,22.3133420000 114.2263660000,22.3131960000 114.2263890000,22.3131470000 114.2265020000,22.3129010000 114.2265930000,22.3127580000 114.2266600000,22.3126440000 114.2266830000,22.3125210000 114.2266920000,22.3123840000 114.2267280000,22.3123290000 114.2267500000,22.3122690000 114.2267570000,22.3122050000 114.2268250000,22.3121420000 114.2270050000,22.3120100000 114.2271500000,22.3119170000 114.2275750000,22.3116290000 114.2276150000,22.3116580000 114.2276980000,22.3116950000 114.2277460000,22.3117260000 114.2277940000,22.3117570000 114.2278410000,22.3117880000 114.2279400000,22.3118140000 114.2279790000,22.3117780000 114.2280690000,22.3116930000 114.2281150000,22.3116140000 114.2281050000,22.3115400000 114.2280710000,22.3114910000 114.2280370000,22.3114410000 114.2280030000,22.3113920000 114.2280250000,22.3113350000 114.2281200000,22.3112790000 114.2282270000,22.3112120000 114.2286090000,22.3109550000 114.2286470000,22.3108920000 114.2291210000,22.3105900000 114.2295670000,22.3103120000 114.2296600000,22.3102540000 114.2299940000,22.3100440000 114.2301770000,22.3099440000 114.2304940000,22.3097300000 114.2304960000,22.3097260000 114.2305890000,22.3096630000 114.2308120000,22.3095100000 114.2310960000,22.3093270000 114.2313660000,22.3091040000 114.2315360000,22.3089900000 114.2317150000,22.3088340000 114.2319800000,22.3085380000 114.2325960000,22.3078270000 114.2327220000,22.3076760000 114.2327600000,22.3077040000 114.2329960000,22.3078730000 114.2332590000,22.3075910000 114.2332360000,22.3075470000 114.2333050000,22.3074690000 114.2332770000,22.3074140000 114.2331910000,22.3072480000 114.2332580000,22.3071690000 114.2333250000,22.3070910000 114.2333920000,22.3070120000 114.2333660000,22.3069280000 114.2334890000,22.3067880000 114.2335770000,22.3066820000 114.2336190000,22.3066330000 114.2336590000,22.3065840000 114.2336900000,22.3065470000 114.2340050000,22.3061690000 114.2340540000,22.3061060000 114.2341350000,22.3060090000 114.2343810000,22.3057370000 114.2347980000,22.3053090000 114.2349100000,22.3051840000 114.2351560000,22.3049100000 114.2352750000,22.3047920000 114.2353490000,22.3047110000 114.2353930000,22.3046910000 114.2354560000,22.3046470000 114.2355070000,22.3045920000 114.2355430000,22.3045270000 114.2355550000,22.3044940000 114.2355620000,22.3044610000 114.2355660000,22.3044050000 114.2355590000,22.3043500000 114.2355420000,22.3042970000 114.2355150000,22.3042480000 114.2354800000,22.3042030000 114.2354370000,22.3041650000 114.2353570000,22.3041200000 114.2352670000,22.3040970000 114.2351740000,22.3040970000 114.2351060000,22.3041110000 114.2350440000,22.3041380000 114.2349810000,22.3041820000 114.2349300000,22.3042390000 114.2348950000,22.3043040000 114.2348760000,22.3043750000 114.2348760000,22.3044490000 114.2348560000,22.3046520000 114.2347940000,22.3048040000 114.2347440000,22.3048910000 114.2344320000,22.3052760000 114.2342510000,22.3054790000 114.2341860000,22.3055470000 114.2341390000,22.3056020000 114.2329220000,22.3070300000 114.2324240000,22.3076520000 114.2319310000,22.3082190000 114.2315590000,22.3086570000 114.2313770000,22.3088390000 114.2310440000,22.3090920000 114.2309450000,22.3091600000 114.2306310000,22.3093760000 114.2304650000,22.3094820000 114.2303790000,22.3095340000 114.2301940000,22.3096550000 114.2299690000,22.3097930000 114.2298340000,22.3098760000 114.2295860000,22.3100390000 114.2292410000,22.3102660000 114.2290200000,22.3104170000 114.2288430000,22.3105360000 114.2287650000,22.3105870000 114.2286110000,22.3106880000 114.2281850000,22.3109640000 114.2278660000,22.3111700000 114.2273640000,22.3115010000 114.2271220000,22.3116700000 114.2267920000,22.3118670000 114.2266690000,22.3119120000 114.2265360000,22.3119220000 114.2265020000,22.3119130000 114.2264680000,22.3119080000 114.2264330000,22.3119070000 114.2263980000,22.3119090000 114.2262990000,22.3119350000 114.2262290000,22.3119760000 114.2261730000,22.3120320000 114.2261340000,22.3121000000 114.2261150000,22.3121750000 114.2261170000,22.3122510000 114.2260970000,22.3122680000 114.2260440000,22.3122950000 114.2260050000,22.3123150000 114.2257700000,22.3124330000 114.2257100000,22.3124220000 114.2256540000,22.3123720000 114.2255550000,22.3121620000 114.2254950000,22.3120460000 114.2254570000,22.3119990000 114.2253900000,22.3119440000 114.2253310000,22.3119080000 114.2252560000,22.3118720000 114.2251860000,22.3118960000 114.2249320000,22.3121690000 114.2247500000,22.3123640000 114.2247590000,22.3124140000 114.2249270000,22.3127710000 114.2246460000,22.3128940000 114.2241830000,22.3130760000 114.2235070000,22.3133410000 114.2230510000,22.3135200000 114.2222350000,22.3138190000 114.2211840000,22.3141970000 114.2206530000,22.3144230000 114.2203170000,22.3145450000 114.2202490000,22.3145690000 114.2197390000,22.3147620000 114.2188220000,22.3151030000 114.2185410000,22.3152090000 114.2184000000,22.3152610000 114.2181410000,22.3153450000 114.2175340000,22.3155780000 114.2173450000,22.3156510000 114.2169350000,22.3157990000 114.2168350000,22.3158480000 114.2165750000,22.3159780000 114.2163120000,22.3161370000 114.2160320000,22.3163460000 114.2158000000,22.3165230000 114.2156690000,22.3166440000 114.2155020000,22.3167930000 114.2153290000,22.3169920000 114.2151940000,22.3171960000 114.2151090000,22.3173450000 114.2149810000,22.3176320000 114.2148640000,22.3179760000 114.2147770000,22.3183500000 114.2147400000,22.3185790000 114.2146790000,22.3193310000 114.2146600000,22.3195580000 114.2144550000,22.3216390000 114.2143860000,22.3223370000 114.2141670000,22.3244710000 114.2141580000,22.3245460000 114.2140790000,22.3253430000 114.2140040000,22.3257270000 114.2139600000,22.3258950000 114.2138420000,22.3261750000 114.2135700000,22.3267250000 114.2134330000,22.3270690000 114.2133830000,22.3272390000 114.2129550000,22.3279110000 114.2126050000,22.3282920000 114.2124310000,22.3284610000 114.2112230000,22.3294250000 114.2111030000,22.3295990000 114.2109560000,22.3297180000 114.2102850000,22.3303220000 114.2095940000,22.3309020000 114.2094020000,22.3310460000 114.2092870000,22.3311000000 114.2084010000,22.3318020000 114.2080150000,22.3320870000 114.2078770000,22.3321630000 114.2077030000,22.3322490000 114.2075600000,22.3323340000 114.2074550000,22.3324110000 114.2072250000,22.3326030000 114.2065530000,22.3331410000 114.2064070000,22.3332830000 114.2063070000,22.3334180000 114.2063020000,22.3335370000 114.2063640000,22.3336690000 114.2064520000,22.3337430000 114.2065360000,22.3337640000 114.2066940000,22.3337560000 114.2068690000,22.3336790000 114.2070870000,22.3335290000 114.2071330000,22.3335170000 114.2072330000,22.3334910000 114.2073620000,22.3334990000 114.2074520000,22.3335430000 114.2075470000,22.3336140000 114.2076970000,22.3337310000 114.2078880000,22.3339550000 114.2079200000,22.3340250000 114.2079600000,22.3341140000 114.2079770000,22.3341670000 114.2079950000,22.3342350000 114.2080000000,22.3343360000 114.2080050000,22.3344320000 114.2080030000,22.3345270000 114.2079940000,22.3345770000 114.2079790000,22.3346360000 114.2079570000,22.3346940000 114.2078730000,22.3348950000 114.2076510000,22.3353700000 114.2076190000,22.3354420000 114.2073780000,22.3359480000 114.2072840000,22.3361150000 114.2072180000,22.3362280000 114.2071500000,22.3363490000 114.2070330000,22.3365360000 114.2068360000,22.3366820000 114.2065980000,22.3368240000 114.2058220000,22.3372860000 114.2055510000,22.3374050000 114.2053080000,22.3375180000 114.2051750000,22.3375650000 114.2049360000,22.3375380000 114.2048620000,22.3375390000 114.2044230000,22.3373790000 114.2042840000,22.3373410000 114.2041290000,22.3373280000 114.2039810000,22.3373290000 114.2037580000,22.3373700000 114.2035340000,22.3375090000 114.2033690000,22.3376650000 114.2032610000,22.3378710000 114.2031970000,22.3380960000 114.2031760000,22.3383400000 114.2032020000,22.3386420000 114.2032610000,22.3390070000 114.2033640000,22.3394700000 114.2034330000,22.3397730000 114.2035260000,22.3401130000 114.2038120000,22.3408620000 114.2038340000,22.3409070000 114.2043110000,22.3416850000 114.2044810000,22.3419620000 114.2053200000,22.3433150000 114.2054350000,22.3435200000 114.2055500000,22.3437290000 114.2056630000,22.3439250000 114.2057790000,22.3441400000 114.2058890000,22.3443450000 114.2060000000,22.3445600000 114.2061000000,22.3447600000 114.2062070000,22.3449750000 114.2063090000,22.3451800000 114.2064100000,22.3453900000 114.2065010000,22.3455900000 114.2065900000,22.3457900000 114.2066830000,22.3460000000 114.2067680000,22.3462000000 114.2068510000,22.3464000000 114.2069320000,22.3465990000 114.2070130000,22.3468000000 114.2071030000,22.3470300000 114.2072050000,22.3473000000 114.2073180000,22.3476000000 114.2074280000,22.3479000000 114.2075260000,22.3482000000 114.2076200000,22.3484900000 114.2076880000,22.3487000000 114.2077600000,22.3489400000 114.2078440000,22.3492500000 114.2079100000,22.3495000000 114.2126670000,22.3684770000 114.2135960000,22.3721800000 114.2136400000,22.3723800000 114.2136800000,22.3726000000 114.2137070000,22.3728000000 114.2137270000,22.3730000000 114.2137370000,22.3732000000 114.2137370000,22.3734000000 114.2137320000,22.3736000000 114.2137200000,22.3738000000 114.2136930000,22.3740200000 114.2136600000,22.3742200000 114.2136180000,22.3744700000 114.2135700000,22.3746800000 114.2135000000,22.3749100000 114.2134300000,22.3751100000 114.2133500000,22.3753100000 114.2132580000,22.3755300000 114.2131500000,22.3757400000 114.2130380000,22.3759400000 114.2128100000,22.3762900000 114.2127220000,22.3764120000 114.2124270000,22.3767490000 114.2121920000,22.3769590000 114.2119220000,22.3771500000 114.2115880000,22.3774160000 114.2112650000,22.3777380000 114.2109840000,22.3780490000 114.2107670000,22.3783370000 114.2106640000,22.3785000000 114.2105650000,22.3786520000 114.2104420000,22.3789940000 114.2103620000,22.3792260000 114.2103220000,22.3793520000 114.2102880000,22.3794810000 114.2102530000,22.3796580000 114.2101970000,22.3800990000 114.2101600000,22.3805130000 114.2101500000,22.3809730000 114.2101750000,22.3815010000 114.2102070000,22.3818990000 114.2102730000,22.3823180000 114.2103460000,22.3827530000 114.2104170000,22.3831650000 114.2104830000,22.3835810000 114.2105810000,22.3840880000 114.2107790000,22.3851800000 114.2107920000,22.3853990000 114.2109760000,22.3863920000 114.2110930000,22.3873440000 114.2110970000,22.3875330000 114.2110970000,22.3877150000 114.2110510000,22.3880820000 114.2110260000,22.3882700000 114.2109820000,22.3884920000 114.2109030000,22.3887750000 114.2108270000,22.3889850000 114.2107510000,22.3891670000 114.2106300000,22.3894110000 114.2105050000,22.3896260000 114.2102590000,22.3900050000 114.2101320000,22.3902270000 114.2100130000,22.3904140000 114.2099450000,22.3905420000 114.2098700000,22.3906850000 114.2098360000,22.3907490000 114.2096910000,22.3910970000 114.2096310000,22.3912610000 114.2095650000,22.3914620000 114.2095030000,22.3916800000 114.2094540000,22.3919080000 114.2094030000,22.3921420000 114.2093790000,22.3923090000 114.2093650000,22.3925010000 114.2093420000,22.3926810000 114.2093330000,22.3928410000 114.2093380000,22.3930220000 114.2093380000,22.3932050000 114.2093450000,22.3933860000 114.2093690000,22.3935770000 114.2093890000,22.3937210000 114.2094190000,22.3938870000 114.2094580000,22.3940560000 114.2095090000,22.3942450000 114.2095850000,22.3945390000 114.2097380000,22.3950350000 114.2099260000,22.3956020000 114.2100380000,22.3959000000 114.2101640000,22.3962190000 114.2103200000,22.3965720000 114.2104900000,22.3969110000 114.2106350000,22.3971770000 114.2107910000,22.3974660000 114.2109610000,22.3977650000 114.2110390000,22.3979000000 114.2111200000,22.3980430000 114.2112350000,22.3982320000 114.2113330000,22.3983770000 114.2114900000,22.3986080000 114.2116440000,22.3988240000 114.2118450000,22.3990970000 114.2120290000,22.3993280000 114.2122000000,22.3995360000 114.2124120000,22.3997700000 114.2126170000,22.3999970000 114.2132020000,22.4006480000 114.2135430000,22.4010000000 114.2138280000,22.4012920000 114.2141330000,22.4015620000 114.2143300000,22.4017400000 114.2144840000,22.4018760000 114.2146780000,22.4020320000 114.2148270000,22.4021430000 114.2150380000,22.4023140000 114.2152070000,22.4025060000 114.2155470000,22.4028060000 114.2158970000,22.4030700000 114.2164810000,22.4034100000 114.2170000000,22.4036460000 114.2174760000,22.4038320000 114.2181560000,22.4040980000 114.2184720000,22.4042460000 114.2187930000,22.4044300000 114.2191360000,22.4046510000 114.2192840000,22.4047580000 114.2195160000,22.4049240000 114.2199690000,22.4052770000 114.2201440000,22.4054070000 114.2202980000,22.4055540000 114.2205280000,22.4057460000 114.2206630000,22.4058830000 114.2208490000,22.4060530000 114.2210100000,22.4062160000 114.2212000000,22.4063990000 114.2213120000,22.4065290000 114.2215330000,22.4067870000 114.2217190000,22.4070380000 114.2218480000,22.4072140000 114.2219220000,22.4073280000 114.2220290000,22.4075160000 114.2222160000,22.4078530000 114.2223630000,22.4081550000 114.2224730000,22.4083630000 114.2225980000,22.4085800000 114.2227410000,22.4088730000 114.2228940000,22.4092050000 114.2231090000,22.4095930000 114.2233190000,22.4100120000 114.2233890000,22.4101590000 114.2235430000,22.4103880000 114.2235920000,22.4104560000 114.2236440000,22.4105390000 114.2238350000,22.4109060000 114.2240550000,22.4113130000 114.2242800000,22.4116340000 114.2244770000,22.4118890000 114.2245610000,22.4119860000 114.2247930000,22.4122050000 114.2249970000,22.4123820000 114.2251820000,22.4125310000 114.2253860000,22.4126900000 114.2256300000,22.4128660000 114.2258220000,22.4130140000 114.2260500000,22.4131670000 114.2262720000,22.4133020000 114.2265150000,22.4134400000 114.2267430000,22.4135800000 114.2270230000,22.4137180000 114.2272970000,22.4138490000 114.2275520000,22.4139590000 114.2278380000,22.4140930000 114.2281460000,22.4142260000 114.2282280000,22.4142650000 114.2288470000,22.4146670000 114.2290220000,22.4147990000 114.2291460000,22.4148980000 114.2294190000,22.4151310000 114.2295890000,22.4153030000 114.2296980000,22.4154310000 114.2300060000,22.4157790000 114.2303050000,22.4160700000 114.2306590000,22.4164070000 114.2311720000,22.4168840000 114.2314830000,22.4172140000 114.2315280000,22.4172800000 114.2315460000,22.4173280000 114.2315500000,22.4173800000 114.2315210000,22.4174360000 114.2314660000,22.4175150000 114.2314170000,22.4175760000 114.2313270000,22.4176260000 114.2302440000,22.4181400000 114.2300770000,22.4182170000 114.2299380000,22.4182930000 114.2298550000,22.4183400000 114.2296910000,22.4184620000 114.2295970000,22.4185480000 114.2294890000,22.4186590000 114.2294140000,22.4187610000 114.2293790000,22.4188250000 114.2293400000,22.4189010000 114.2293060000,22.4189950000 114.2292810000,22.4190730000 114.2292590000,22.4191750000 114.2292420000,22.4192760000 114.2292320000,22.4193810000 114.2292420000,22.4194960000 114.2292790000,22.4197070000 114.2292790000,22.4197070000 114.2293480000,22.4199130000 114.2294410000,22.4201560000 114.2294850000,22.4202710000 114.2295310000,22.4204950000 114.2295440000,22.4206290000 114.2295140000,22.4208400000 114.2294820000,22.4209350000 114.2294360000,22.4210220000 114.2292540000,22.4212720000 114.2291640000,22.4213800000 114.2289180000,22.4215990000 114.2286700000,22.4217930000 114.2285600000,22.4218580000 114.2283000000,22.4220090000 114.2279360000,22.4221980000 114.2276910000,22.4223250000 114.2276340000,22.4223580000 114.2274610000,22.4224550000 114.2275170000,22.4225470000 114.2276380000,22.4227190000 114.2280010000,22.4232450000 114.2281640000,22.4234330000 114.2283040000,22.4235650000 114.2284140000,22.4236760000 114.2285370000,22.4237700000 114.2287530000,22.4239310000 114.2291010000,22.4241460000 114.2293610000,22.4242910000 114.2294650000,22.4243340000 114.2295700000,22.4243780000 114.2296770000,22.4244180000 114.2298150000,22.4244700000 114.2300410000,22.4245370000 114.2303300000,22.4246150000 114.2309010000,22.4247760000 114.2318300000,22.4250460000 114.2326840000,22.4252770000 114.2333020000,22.4254400000 114.2338210000,22.4255470000 114.2340170000,22.4255860000 114.2341040000,22.4256000000 114.2341580000,22.4253530000 114.2342130000,22.4251150000 114.2342430000,22.4249360000 114.2342570000,22.4248030000 114.2342570000,22.4246600000 114.2342260000,22.4243110000 114.2341750000,22.4241110000 114.2340300000,22.4237640000 114.2337650000,22.4234720000 114.2335650000,22.4232320000 114.2330030000,22.4226040000 114.2329030000,22.4224630000 114.2327790000,22.4222470000 114.2326840000,22.4220530000 114.2326510000,22.4219670000 114.2325980000,22.4218330000 114.2327570000,22.4217850000 114.2331950000,22.4216520000 114.2335180000,22.4216030000 114.2338560000,22.4215990000 114.2340730000,22.4216430000 114.2342350000,22.4216910000 114.2343390000,22.4217360000 114.2344650000,22.4218030000 114.2347150000,22.4219770000 114.2352550000,22.4224840000 114.2354870000,22.4227060000 114.2359370000,22.4231140000 114.2360280000,22.4231960000 114.2361390000,22.4232890000 114.2362350000,22.4233720000 114.2365150000,22.4236120000 114.2368230000,22.4238220000 114.2369770000,22.4238970000 114.2371660000,22.4239570000 114.2374280000,22.4239810000 114.2376820000,22.4239750000 114.2381110000,22.4239250000 114.2388190000,22.4237960000 114.2390950000,22.4237720000 114.2393170000,22.4237950000 114.2395380000,22.4238740000 114.2397390000,22.4240340000 114.2399110000,22.4242520000 114.2400290000,22.4245930000 114.2400330000,22.4246490000 114.2400540000,22.4249520000 114.2400290000,22.4252210000 114.2399800000,22.4253670000 114.2399290000,22.4255140000 114.2397870000,22.4257550000 114.2394850000,22.4261420000 114.2393550000,22.4263200000 114.2393050000,22.4263830000 114.2392510000,22.4264510000 114.2390970000,22.4266380000 114.2392190000,22.4267240000 114.2399290000,22.4272610000 114.2403960000,22.4276060000 114.2410850000,22.4281340000 114.2418100000,22.4287280000 114.2419400000,22.4288900000 114.2420550000,22.4290870000 114.2420660000,22.4291390000 114.2420870000,22.4291900000 114.2421150000,22.4292370000 114.2421510000,22.4292790000 114.2421970000,22.4293180000 114.2422490000,22.4293490000 114.2423050000,22.4293720000 114.2423650000,22.4293870000 114.2424270000,22.4293910000 114.2424890000,22.4293870000 114.2425190000,22.4293840000 114.2425610000,22.4293720000 114.2426740000,22.4293840000 114.2428220000,22.4294080000 114.2430570000,22.4294810000 114.2432210000,22.4295330000 114.2433880000,22.4295800000 114.2435220000,22.4296080000 114.2437080000,22.4296470000 114.2440480000,22.4297030000 114.2442220000,22.4297120000 114.2444170000,22.4297130000 114.2446330000,22.4296970000 114.2449420000,22.4296580000 114.2452750000,22.4295550000 114.2462600000,22.4292070000 114.2467120000,22.4290910000 114.2470740000,22.4290500000 114.2472260000,22.4290560000 114.2473930000,22.4290750000 114.2496750000,22.4297180000 114.2499080000,22.4298040000 114.2507780000,22.4301000000 114.2510520000,22.4301950000 114.2518140000,22.4304600000 114.2523070000,22.4306380000 114.2525400000,22.4307050000 114.2526610000,22.4307370000 114.2527360000,22.4307630000 114.2528380000,22.4308040000 114.2528760000,22.4308480000 114.2529250000,22.4308790000 114.2529830000,22.4308970000 114.2529980000,22.4308970000 114.2530430000,22.4308980000 114.2530910000,22.4308870000 114.2531350000,22.4308660000 114.2531540000,22.4308510000 114.2532670000,22.4308040000 114.2534100000,22.4307920000 114.2535080000,22.4307850000 114.2535990000,22.4307640000 114.2537910000,22.4306880000 114.2541880000,22.4306500000 114.2545540000,22.4306210000 114.2552120000,22.4305570000 114.2552590000,22.4306300000 114.2553300000,22.4307160000 114.2554470000,22.4309040000 114.2554850000,22.4309380000 114.2555720000,22.4309440000 114.2557730000,22.4309320000</coordinates>
                </LineString>
                <ExtendedData>
                    <Data name="length">
                        <value>43734.22580019619</value>
                    </Data>
                    <Data name="duration">
                        <value>01:28:24</value>
                    </Data>
                </ExtendedData>
            </Placemark>
        </Document>
    </Document>
</kml>