<?xml version="1.0" encoding="UTF-8"?>
<kml xmlns="http://www.opengis.net/kml/2.2" xmlns:gx="http://www.google.com/kml/ext/2.2">
    <Document>
        <name>Route</name>
        <Folder>
            <name>Route Request</name>
            <Placemark>
                <Point>
                    <coordinates>114.1203238882,22.2813529595</coordinates>
                </Point>
                <ExtendedData>
                    <Data name="postcode">
                        <value>1F</value>
                    </Data>
                    <Data name="county">
                        <value>Central and Western District</value>
                    </Data>
                    <Data name="country_code">
                        <value>cn</value>
                    </Data>
                    <Data name="neighbourhood">
                        <value>Admiralty</value>
                    </Data>
                    <Data name="police">
                        <value>Central Police District Headquarters</value>
                    </Data>
                    <Data name="suburb">
                        <value>Sheung Wan</value>
                    </Data>
                    <Data name="routingVisited">
                        <value>false</value>
                    </Data>
                    <Data name="region">
                        <value>Hong Kong Island</value>
                    </Data>
                    <Data name="country">
                        <value>China</value>
                    </Data>
                    <Data name="state">
                        <value>Hong Kong</value>
                    </Data>
                    <Data name="road">
                        <value>Chung Kong Road</value>
                    </Data>
                    <Data name="city">
                        <value>Hong Kong</value>
                    </Data>
                </ExtendedData>
            </Placemark>
            <Placemark>
                <Point>
                    <coordinates>114.1368035805,22.2869852125</coordinates>
                </Point>
                <ExtendedData>
                    <Data name="routingVisited">
                        <value>false</value>
                    </Data>
                </ExtendedData>
            </Placemark>
            <Placemark>
                <address>Sutherland Street, Des Voeux Road West, Admiralty, Sheung Wan, Hong Kong, Central and Western District, Hong Kong, 1F, PRC</address>
                <Point>
                    <coordinates>114.1464587546,22.2878597063</coordinates>
                </Point>
                <ExtendedData>
                    <Data name="postcode">
                        <value>1F</value>
                    </Data>
                    <Data name="county">
                        <value>Central and Western District</value>
                    </Data>
                    <Data name="country_code">
                        <value>cn</value>
                    </Data>
                    <Data name="neighbourhood">
                        <value>Admiralty</value>
                    </Data>
                    <Data name="suburb">
                        <value>Sheung Wan</value>
                    </Data>
                    <Data name="bus_stop">
                        <value>Sutherland Street</value>
                    </Data>
                    <Data name="country">
                        <value>PRC</value>
                    </Data>
                    <Data name="road">
                        <value>Des Voeux Road West</value>
                    </Data>
                    <Data name="city">
                        <value>Hong Kong</value>
                    </Data>
                </ExtendedData>
            </Placemark>
            <Placemark>
                <address>Le Point, Choi Ming Street, Tiu Keng Leng, Tseung Kwan O, Hong Kong, NKIL 6326, PRC</address>
                <Point>
                    <coordinates>114.2522706250,22.3047314288</coordinates>
                </Point>
                <ExtendedData>
                    <Data name="postcode">
                        <value>NKIL 6326</value>
                    </Data>
                    <Data name="country_code">
                        <value>cn</value>
                    </Data>
                    <Data name="building">
                        <value>Le Point</value>
                    </Data>
                    <Data name="suburb">
                        <value>Tiu Keng Leng</value>
                    </Data>
                    <Data name="country">
                        <value>PRC</value>
                    </Data>
                    <Data name="road">
                        <value>Choi Ming Street</value>
                    </Data>
                    <Data name="town">
                        <value>Tseung Kwan O</value>
                    </Data>
                </ExtendedData>
            </Placemark>
            <Placemark>
                <address>Tong Chun Street, Hang Hau, Tseung Kwan O, Hong Kong, DD243 1557, PRC</address>
                <Point>
                    <coordinates>114.2595745707,22.3109069669</coordinates>
                </Point>
                <ExtendedData>
                    <Data name="postcode">
                        <value>DD243 1557</value>
                    </Data>
                    <Data name="country_code">
                        <value>cn</value>
                    </Data>
                    <Data name="suburb">
                        <value>Hang Hau</value>
                    </Data>
                    <Data name="country">
                        <value>PRC</value>
                    </Data>
                    <Data name="road">
                        <value>Tong Chun Street</value>
                    </Data>
                    <Data name="town">
                        <value>Tseung Kwan O</value>
                    </Data>
                </ExtendedData>
            </Placemark>
            <Placemark>
                <address>Block 1, Tong Chun Street, Pak Shing Kok, Tseung Kwan O, Hong Kong, DD243 1557, PRC</address>
                <Point>
                    <coordinates>114.2615288380,22.3068792159</coordinates>
                </Point>
                <ExtendedData>
                    <Data name="postcode">
                        <value>DD243 1557</value>
                    </Data>
                    <Data name="country_code">
                        <value>cn</value>
                    </Data>
                    <Data name="building">
                        <value>Block 1</value>
                    </Data>
                    <Data name="suburb">
                        <value>Pak Shing Kok</value>
                    </Data>
                    <Data name="country">
                        <value>PRC</value>
                    </Data>
                    <Data name="road">
                        <value>Tong Chun Street</value>
                    </Data>
                    <Data name="town">
                        <value>Tseung Kwan O</value>
                    </Data>
                </ExtendedData>
            </Placemark>
            <Placemark>
                <address>Chun Wang Street, Fat Tong Chau, Kowloon, Hong Kong, CWIL 176, PRC</address>
                <Point>
                    <coordinates>114.2704026867,22.2831595235</coordinates>
                </Point>
                <ExtendedData>
                    <Data name="postcode">
                        <value>CWIL 176</value>
                    </Data>
                    <Data name="country_code">
                        <value>cn</value>
                    </Data>
                    <Data name="suburb">
                        <value>Fat Tong Chau</value>
                    </Data>
                    <Data name="country">
                        <value>PRC</value>
                    </Data>
                    <Data name="road">
                        <value>Chun Wang Street</value>
                    </Data>
                    <Data name="city">
                        <value>Kowloon</value>
                    </Data>
                </ExtendedData>
            </Placemark>
            <Placemark>
                <address>Tower 3, Tong Chun Street, Pak Shing Kok, Tseung Kwan O, Hong Kong, DD243 1557, PRC</address>
                <Point>
                    <coordinates>114.2613662809,22.3057932067</coordinates>
                </Point>
                <ExtendedData>
                    <Data name="postcode">
                        <value>DD243 1557</value>
                    </Data>
                    <Data name="country_code">
                        <value>cn</value>
                    </Data>
                    <Data name="building">
                        <value>Tower 3</value>
                    </Data>
                    <Data name="suburb">
                        <value>Pak Shing Kok</value>
                    </Data>
                    <Data name="country">
                        <value>PRC</value>
                    </Data>
                    <Data name="road">
                        <value>Tong Chun Street</value>
                    </Data>
                    <Data name="town">
                        <value>Tseung Kwan O</value>
                    </Data>
                </ExtendedData>
            </Placemark>
            <Placemark>
                <address>Crowne Plaza Hong Kong Kowloon East, Tong Tak Street, The Wings, Tiu Keng Leng, Tseung Kwan O, Hong Kong, NKIL 6326, PRC</address>
                <Point>
                    <coordinates>114.2604439954,22.3083545576</coordinates>
                </Point>
                <ExtendedData>
                    <Data name="postcode">
                        <value>NKIL 6326</value>
                    </Data>
                    <Data name="residential">
                        <value>The Wings</value>
                    </Data>
                    <Data name="country_code">
                        <value>cn</value>
                    </Data>
                    <Data name="suburb">
                        <value>Tiu Keng Leng</value>
                    </Data>
                    <Data name="hotel">
                        <value>Crowne Plaza Hong Kong Kowloon East</value>
                    </Data>
                    <Data name="country">
                        <value>PRC</value>
                    </Data>
                    <Data name="road">
                        <value>Tong Tak Street</value>
                    </Data>
                    <Data name="town">
                        <value>Tseung Kwan O</value>
                    </Data>
                </ExtendedData>
            </Placemark>
            <Placemark>
                <address>Tong Ming Street, Hang Hau, Tseung Kwan O, Hong Kong, NKIL 6326, PRC</address>
                <Point>
                    <coordinates>114.2588236790,22.3104087499</coordinates>
                </Point>
                <ExtendedData>
                    <Data name="postcode">
                        <value>NKIL 6326</value>
                    </Data>
                    <Data name="country_code">
                        <value>cn</value>
                    </Data>
                    <Data name="suburb">
                        <value>Hang Hau</value>
                    </Data>
                    <Data name="bus_stop">
                        <value>Tong Ming Street</value>
                    </Data>
                    <Data name="country">
                        <value>PRC</value>
                    </Data>
                    <Data name="road">
                        <value>Tong Ming Street</value>
                    </Data>
                    <Data name="town">
                        <value>Tseung Kwan O</value>
                    </Data>
                </ExtendedData>
            </Placemark>
            <Placemark>
                <address>Le Point, Choi Ming Street, Tiu Keng Leng, Tseung Kwan O, Hong Kong, NKIL 6326, PRC</address>
                <Point>
                    <coordinates>114.2522853902,22.3047177685</coordinates>
                </Point>
                <ExtendedData>
                    <Data name="postcode">
                        <value>NKIL 6326</value>
                    </Data>
                    <Data name="country_code">
                        <value>cn</value>
                    </Data>
                    <Data name="building">
                        <value>Le Point</value>
                    </Data>
                    <Data name="suburb">
                        <value>Tiu Keng Leng</value>
                    </Data>
                    <Data name="country">
                        <value>PRC</value>
                    </Data>
                    <Data name="road">
                        <value>Choi Ming Street</value>
                    </Data>
                    <Data name="town">
                        <value>Tseung Kwan O</value>
                    </Data>
                </ExtendedData>
            </Placemark>
            <Placemark>
                <address>Pedder Street underpass, Admiralty, Central District, Hong Kong, Central and Western District, Hong Kong, IL 2, PRC</address>
                <Point>
                    <coordinates>114.1579702648,22.2830690699</coordinates>
                </Point>
                <ExtendedData>
                    <Data name="postcode">
                        <value>IL 2</value>
                    </Data>
                    <Data name="county">
                        <value>Central and Western District</value>
                    </Data>
                    <Data name="country_code">
                        <value>cn</value>
                    </Data>
                    <Data name="neighbourhood">
                        <value>Admiralty</value>
                    </Data>
                    <Data name="suburb">
                        <value>Central District</value>
                    </Data>
                    <Data name="country">
                        <value>PRC</value>
                    </Data>
                    <Data name="road">
                        <value>Pedder Street underpass</value>
                    </Data>
                    <Data name="city">
                        <value>Hong Kong</value>
                    </Data>
                </ExtendedData>
            </Placemark>
            <Placemark>
                <address>Wellcome, 88, Des Voeux Road West, Admiralty, Sheung Wan, Hong Kong, Central and Western District, Hong Kong, 1F, PRC</address>
                <Point>
                    <coordinates>114.1460638607,22.2877066966</coordinates>
                </Point>
                <ExtendedData>
                    <Data name="supermarket">
                        <value>Wellcome</value>
                    </Data>
                    <Data name="postcode">
                        <value>1F</value>
                    </Data>
                    <Data name="county">
                        <value>Central and Western District</value>
                    </Data>
                    <Data name="country_code">
                        <value>cn</value>
                    </Data>
                    <Data name="house_number">
                        <value>88</value>
                    </Data>
                    <Data name="neighbourhood">
                        <value>Admiralty</value>
                    </Data>
                    <Data name="suburb">
                        <value>Sheung Wan</value>
                    </Data>
                    <Data name="country">
                        <value>PRC</value>
                    </Data>
                    <Data name="road">
                        <value>Des Voeux Road West</value>
                    </Data>
                    <Data name="city">
                        <value>Hong Kong</value>
                    </Data>
                </ExtendedData>
            </Placemark>
            <Placemark>
                <address>408C-408D, Des Voeux Road West, Shek Tong Tsui, Sai Wan, Central and Western District, Hong Kong, 1F, PRC</address>
                <Point>
                    <coordinates>114.1357997020,22.2866573067</coordinates>
                </Point>
                <ExtendedData>
                    <Data name="postcode">
                        <value>1F</value>
                    </Data>
                    <Data name="county">
                        <value>Central and Western District</value>
                    </Data>
                    <Data name="country_code">
                        <value>cn</value>
                    </Data>
                    <Data name="house_number">
                        <value>408C-408D</value>
                    </Data>
                    <Data name="suburb">
                        <value>Shek Tong Tsui</value>
                    </Data>
                    <Data name="country">
                        <value>PRC</value>
                    </Data>
                    <Data name="road">
                        <value>Des Voeux Road West</value>
                    </Data>
                    <Data name="town">
                        <value>Sai Wan</value>
                    </Data>
                </ExtendedData>
            </Placemark>
            <Placemark>
                <address>Island West Transfer Station, 88, Victoria Road, Kennedy Town, Ex-Mount Davis Cottage Area, Central and Western District, Hong Kong, 1F, PRC</address>
                <Point>
                    <coordinates>114.1203240837,22.2813256228</coordinates>
                </Point>
                <ExtendedData>
                    <Data name="postcode">
                        <value>1F</value>
                    </Data>
                    <Data name="county">
                        <value>Central and Western District</value>
                    </Data>
                    <Data name="country_code">
                        <value>cn</value>
                    </Data>
                    <Data name="house_number">
                        <value>88</value>
                    </Data>
                    <Data name="hamlet">
                        <value>Ex-Mount Davis Cottage Area</value>
                    </Data>
                    <Data name="suburb">
                        <value>Kennedy Town</value>
                    </Data>
                    <Data name="country">
                        <value>PRC</value>
                    </Data>
                    <Data name="address29">
                        <value>Island West Transfer Station</value>
                    </Data>
                    <Data name="road">
                        <value>Victoria Road</value>
                    </Data>
                </ExtendedData>
            </Placemark>
        </Folder>
        <Document>
            <name>56.1 km; 02:07 h (OSRM)</name>
            <Placemark>
                <name>Route</name>
                <LineString>
                    <coordinates>114.1203060000,22.2814080000 114.1205010000,22.2814620000 114.1221950000,22.2820160000 114.1223280000,22.2820600000 114.1229080000,22.2822540000 114.1230000000,22.2822880000 114.1230430000,22.2822970000 114.1230940000,22.2822990000 114.1231340000,22.2822910000 114.1231660000,22.2822710000 114.1231910000,22.2822440000 114.1232120000,22.2822090000 114.1232200000,22.2821800000 114.1232720000,22.2820140000 114.1233230000,22.2818510000 114.1240670000,22.2819750000 114.1247530000,22.2820890000 114.1252720000,22.2821650000 114.1254140000,22.2821880000 114.1259310000,22.2822710000 114.1260040000,22.2823340000 114.1260410000,22.2823870000 114.1260500000,22.2824220000 114.1260390000,22.2824880000 114.1259600000,22.2829120000 114.1260530000,22.2829260000 114.1266020000,22.2830130000 114.1267550000,22.2830360000 114.1279580000,22.2832430000 114.1280680000,22.2832620000 114.1281710000,22.2832800000 114.1288560000,22.2834000000 114.1289500000,22.2834170000 114.1290470000,22.2834340000 114.1291620000,22.2834570000 114.1292700000,22.2834960000 114.1293440000,22.2835380000 114.1295210000,22.2836750000 114.1296260000,22.2837670000 114.1296960000,22.2838220000 114.1298770000,22.2840020000 114.1301390000,22.2842060000 114.1302700000,22.2843090000 114.1305640000,22.2845420000 114.1306840000,22.2846360000 114.1309380000,22.2848510000 114.1313160000,22.2851690000 114.1313840000,22.2852390000 114.1314380000,22.2853000000 114.1315330000,22.2853990000 114.1316110000,22.2854880000 114.1316670000,22.2855770000 114.1318710000,22.2859360000 114.1321210000,22.2863660000 114.1322440000,22.2865890000 114.1323250000,22.2867290000 114.1323940000,22.2868440000 114.1324620000,22.2869550000 114.1325370000,22.2870630000 114.1326120000,22.2871700000 114.1326910000,22.2872350000 114.1327570000,22.2872770000 114.1328550000,22.2873220000 114.1329290000,22.2873470000 114.1330150000,22.2873640000 114.1330930000,22.2873720000 114.1331940000,22.2873750000 114.1333400000,22.2873700000 114.1336320000,22.2873130000 114.1339960000,22.2872360000 114.1341860000,22.2871940000 114.1347730000,22.2870470000 114.1350500000,22.2869780000 114.1351720000,22.2869440000 114.1352490000,22.2869220000 114.1353270000,22.2869050000 114.1354550000,22.2868740000 114.1357050000,22.2868150000 114.1359970000,22.2867550000 114.1360770000,22.2867370000 114.1361140000,22.2867360000 114.1361580000,22.2867440000 114.1365110000,22.2868510000 114.1365640000,22.2868660000 114.1368200000,22.2869380000 114.1369880000,22.2869850000 114.1374180000,22.2871050000 114.1375140000,22.2871310000 114.1376110000,22.2871570000 114.1382790000,22.2873430000 114.1384740000,22.2873970000 114.1387390000,22.2874670000 114.1388050000,22.2874850000 114.1394180000,22.2876350000 114.1404230000,22.2879110000 114.1407670000,22.2880040000 114.1408140000,22.2880090000 114.1408600000,22.2880110000 114.1409040000,22.2880110000 114.1412910000,22.2879880000 114.1415200000,22.2879830000 114.1419160000,22.2879680000 114.1423240000,22.2879490000 114.1423960000,22.2879450000 114.1427060000,22.2879360000 114.1430590000,22.2879290000 114.1434110000,22.2879260000 114.1437190000,22.2879130000 114.1438080000,22.2879090000 114.1438990000,22.2879070000 114.1441330000,22.2879000000 114.1444160000,22.2878900000 114.1448280000,22.2878810000 114.1448810000,22.2878800000 114.1453890000,22.2878540000 114.1458810000,22.2878180000 114.1460050000,22.2878000000 114.1464500000,22.2877650000 114.1466000000,22.2877530000 114.1470370000,22.2877160000 114.1471310000,22.2877090000 114.1472090000,22.2877060000 114.1472380000,22.2877060000 114.1472730000,22.2877180000 114.1475040000,22.2878610000 114.1478880000,22.2881430000 114.1479480000,22.2881860000 114.1479890000,22.2882190000 114.1480730000,22.2883040000 114.1480920000,22.2883550000 114.1481230000,22.2884670000 114.1494660000,22.2881150000 114.1500720000,22.2879630000 114.1502400000,22.2879200000 114.1505910000,22.2878290000 114.1512740000,22.2876330000 114.1516730000,22.2875220000 114.1519760000,22.2874370000 114.1523630000,22.2873270000 114.1532200000,22.2870900000 114.1534500000,22.2870450000 114.1536500000,22.2870210000 114.1536980000,22.2870310000 114.1540240000,22.2870700000 114.1541740000,22.2870920000 114.1544190000,22.2871190000 114.1549900000,22.2872600000 114.1551200000,22.2872910000 114.1552600000,22.2873190000 114.1553900000,22.2873420000 114.1555200000,22.2873550000 114.1556700000,22.2873600000 114.1557810000,22.2873570000 114.1558900000,22.2873500000 114.1562100000,22.2873300000 114.1565700000,22.2872700000 114.1570000000,22.2871900000 114.1572800000,22.2871100000 114.1576500000,22.2869800000 114.1580300000,22.2868100000 114.1582000000,22.2867000000 114.1584200000,22.2865980000 114.1586590000,22.2864510000 114.1590950000,22.2862220000 114.1631330000,22.2838940000 114.1638610000,22.2834790000 114.1645180000,22.2831880000 114.1651480000,22.2829840000 114.1656310000,22.2828690000 114.1661520000,22.2827670000 114.1666350000,22.2826760000 114.1670700000,22.2825890000 114.1688610000,22.2823690000 114.1700730000,22.2822920000 114.1707090000,22.2822780000 114.1711590000,22.2822620000 114.1718140000,22.2822540000 114.1731560000,22.2823000000 114.1740420000,22.2823610000 114.1746280000,22.2823910000 114.1749850000,22.2824210000 114.1754620000,22.2824730000 114.1809290000,22.2832320000 114.1818510000,22.2833680000 114.1822590000,22.2834450000 114.1827730000,22.2835840000 114.1832300000,22.2837190000 114.1844560000,22.2841080000 114.1848910000,22.2842950000 114.1853950000,22.2845420000 114.1858760000,22.2848500000 114.1863130000,22.2851780000 114.1866410000,22.2854140000 114.1870350000,22.2857100000 114.1874410000,22.2860740000 114.1879310000,22.2865420000 114.1885990000,22.2872120000 114.1889060000,22.2875260000 114.1907580000,22.2893580000 114.1915530000,22.2901590000 114.1919220000,22.2905300000 114.1924760000,22.2910880000 114.1926200000,22.2912330000 114.1934820000,22.2919690000 114.1939800000,22.2923650000 114.1943820000,22.2926650000 114.1946970000,22.2928220000 114.1950310000,22.2929330000 114.1953540000,22.2929900000 114.1955810000,22.2930280000 114.1974960000,22.2934010000 114.1979200000,22.2934800000 114.1981920000,22.2935260000 114.1983380000,22.2935420000 114.1987100000,22.2935630000 114.1992000000,22.2935690000 114.1995900000,22.2935850000 114.1997700000,22.2936020000 114.1999500000,22.2936270000 114.2001000000,22.2936520000 114.2015930000,22.2939620000 114.2024440000,22.2941380000 114.2030190000,22.2942370000 114.2035020000,22.2942680000 114.2039630000,22.2942450000 114.2043950000,22.2941960000 114.2046420000,22.2941520000 114.2049520000,22.2940830000 114.2062020000,22.2936700000 114.2087800000,22.2929170000 114.2089200000,22.2928580000 114.2091980000,22.2927280000 114.2095760000,22.2925290000 114.2109640000,22.2915430000 114.2110940000,22.2914520000 114.2113260000,22.2912910000 114.2117220000,22.2910340000 114.2127980000,22.2904230000 114.2131270000,22.2902740000 114.2133740000,22.2901710000 114.2137460000,22.2900270000 114.2138760000,22.2899270000 114.2139100000,22.2899030000 114.2140390000,22.2898090000 114.2141610000,22.2896960000 114.2142270000,22.2895560000 114.2142640000,22.2894590000 114.2143080000,22.2893090000 114.2143250000,22.2891400000 114.2143050000,22.2889980000 114.2142440000,22.2888240000 114.2141930000,22.2887170000 114.2140410000,22.2885210000 114.2138940000,22.2883660000 114.2137190000,22.2882520000 114.2134600000,22.2881220000 114.2132200000,22.2880630000 114.2130140000,22.2880440000 114.2128370000,22.2880510000 114.2126340000,22.2880910000 114.2123010000,22.2882490000 114.2122060000,22.2883440000 114.2121300000,22.2884460000 114.2120740000,22.2885650000 114.2120140000,22.2887040000 114.2119800000,22.2888350000 114.2119630000,22.2890450000 114.2119940000,22.2892140000 114.2120370000,22.2893590000 114.2121060000,22.2895190000 114.2122160000,22.2896630000 114.2123560000,22.2897930000 114.2124630000,22.2898660000 114.2126220000,22.2899550000 114.2127730000,22.2900300000 114.2129420000,22.2901140000 114.2305570000,22.2992700000 114.2310350000,22.2995250000 114.2314120000,22.2997630000 114.2318030000,22.3000300000 114.2327330000,22.3005560000 114.2335540000,22.3010200000 114.2335880000,22.3010390000 114.2339000000,22.3012080000 114.2343000000,22.3014850000 114.2345970000,22.3016810000 114.2346690000,22.3017470000 114.2347790000,22.3018510000 114.2349190000,22.3020060000 114.2349990000,22.3021140000 114.2350630000,22.3022130000 114.2351340000,22.3023350000 114.2352060000,22.3024830000 114.2352660000,22.3026150000 114.2352990000,22.3027010000 114.2353830000,22.3029780000 114.2354000000,22.3031230000 114.2354190000,22.3032740000 114.2354250000,22.3035080000 114.2354130000,22.3036500000 114.2353850000,22.3038350000 114.2353220000,22.3040810000 114.2352910000,22.3041700000 114.2352070000,22.3043540000 114.2350940000,22.3045860000 114.2349470000,22.3048070000 114.2347590000,22.3050420000 114.2345360000,22.3053020000 114.2342150000,22.3056530000 114.2332040000,22.3068180000 114.2329220000,22.3070300000 114.2324240000,22.3076520000 114.2319310000,22.3082190000 114.2315590000,22.3086570000 114.2313770000,22.3088390000 114.2311230000,22.3091340000 114.2309570000,22.3092570000 114.2307520000,22.3094190000 114.2306870000,22.3094810000 114.2306460000,22.3095480000 114.2305890000,22.3096630000 114.2305680000,22.3097270000 114.2305660000,22.3097920000 114.2305770000,22.3098610000 114.2306090000,22.3099280000 114.2309750000,22.3104390000 114.2312000000,22.3106870000 114.2312290000,22.3107130000 114.2313700000,22.3108370000 114.2315250000,22.3109630000 114.2317560000,22.3111140000 114.2319760000,22.3112370000 114.2322560000,22.3113530000 114.2325510000,22.3114560000 114.2329210000,22.3115750000 114.2332440000,22.3116880000 114.2336110000,22.3118310000 114.2338830000,22.3119190000 114.2344900000,22.3121040000 114.2349170000,22.3122580000 114.2354360000,22.3124650000 114.2367560000,22.3130380000 114.2369630000,22.3131340000 114.2374850000,22.3133750000 114.2378950000,22.3135750000 114.2384370000,22.3138400000 114.2387190000,22.3140380000 114.2390200000,22.3142720000 114.2393870000,22.3145990000 114.2397070000,22.3149090000 114.2404440000,22.3156850000 114.2409450000,22.3161590000 114.2415480000,22.3166610000 114.2418220000,22.3168610000 114.2420540000,22.3170160000 114.2425440000,22.3173100000 114.2476410000,22.3201620000 114.2482710000,22.3204930000 114.2487660000,22.3207460000 114.2492130000,22.3209330000 114.2495760000,22.3210540000 114.2500220000,22.3211440000 114.2502300000,22.3211740000 114.2504770000,22.3212110000 114.2508460000,22.3212610000 114.2511760000,22.3212870000 114.2515440000,22.3213280000 114.2518740000,22.3213540000 114.2523450000,22.3213910000 114.2527550000,22.3214000000 114.2531250000,22.3213820000 114.2534790000,22.3213020000 114.2537370000,22.3212280000 114.2539910000,22.3211320000 114.2542530000,22.3210200000 114.2545400000,22.3208550000 114.2547740000,22.3206880000 114.2550410000,22.3204710000 114.2553460000,22.3201510000 114.2557970000,22.3196350000 114.2559400000,22.3194730000 114.2562260000,22.3191490000 114.2567520000,22.3185530000 114.2569270000,22.3183790000 114.2571810000,22.3181260000 114.2575860000,22.3177550000 114.2579760000,22.3174730000 114.2584440000,22.3171230000 114.2587570000,22.3169080000 114.2589690000,22.3167630000 114.2595440000,22.3163880000 114.2607210000,22.3156930000 114.2609170000,22.3156280000 114.2611080000,22.3156090000 114.2612870000,22.3156580000 114.2614350000,22.3157540000 114.2615510000,22.3159450000 114.2615580000,22.3161270000 114.2615250000,22.3162530000 114.2614670000,22.3163690000 114.2614090000,22.3164190000 114.2613020000,22.3164880000 114.2610810000,22.3165360000 114.2609690000,22.3165390000 114.2608220000,22.3164920000 114.2607120000,22.3164420000 114.2603270000,22.3161560000 114.2599740000,22.3157860000 114.2592240000,22.3149800000 114.2590270000,22.3147910000 114.2583870000,22.3141670000 114.2577040000,22.3134910000 114.2573220000,22.3130660000 114.2569180000,22.3125420000 114.2564860000,22.3118400000 114.2562750000,22.3113390000 114.2561240000,22.3109070000 114.2560350000,22.3104580000 114.2559580000,22.3101360000 114.2559500000,22.3099230000 114.2559640000,22.3097390000 114.2559890000,22.3097150000 114.2560580000,22.3096400000 114.2560920000,22.3095670000 114.2561060000,22.3094890000 114.2561010000,22.3094090000 114.2560830000,22.3093520000 114.2560550000,22.3092980000 114.2559770000,22.3090760000 114.2559510000,22.3090020000 114.2559470000,22.3089900000 114.2558750000,22.3087870000 114.2558510000,22.3086990000 114.2558400000,22.3085900000 114.2558160000,22.3080270000 114.2558090000,22.3071750000 114.2557540000,22.3067830000 114.2557550000,22.3065340000 114.2557520000,22.3061970000 114.2557770000,22.3059980000 114.2557920000,22.3059180000 114.2558200000,22.3058520000 114.2558880000,22.3057480000 114.2559090000,22.3057060000 114.2559100000,22.3056600000 114.2558900000,22.3056170000 114.2558500000,22.3055840000 114.2557990000,22.3055700000 114.2557400000,22.3055650000 114.2554370000,22.3054930000 114.2551160000,22.3053830000 114.2547570000,22.3052530000 114.2544670000,22.3051350000 114.2540200000,22.3049310000 114.2535740000,22.3046580000 114.2535630000,22.3046510000 114.2534130000,22.3045240000 114.2533300000,22.3044540000 114.2532660000,22.3045410000 114.2531690000,22.3047100000 114.2530650000,22.3049010000 114.2528530000,22.3051800000 114.2527610000,22.3051330000 114.2527610000,22.3051330000 114.2527380000,22.3051130000 114.2526240000,22.3050190000 114.2525560000,22.3049620000 114.2524870000,22.3049040000 114.2524190000,22.3048470000 114.2523510000,22.3047890000 114.2522830000,22.3047310000 114.2522150000,22.3046740000 114.2521470000,22.3046160000 114.2521000000,22.3045730000 114.2520520000,22.3045840000 114.2516760000,22.3049900000 114.2516730000,22.3050410000 114.2517160000,22.3050760000 114.2517800000,22.3051320000 114.2518440000,22.3051880000 114.2519070000,22.3052440000 114.2519710000,22.3053000000 114.2520340000,22.3053560000 114.2520980000,22.3054120000 114.2521620000,22.3054680000 114.2522720000,22.3055120000 114.2526180000,22.3051730000 114.2526970000,22.3051830000 114.2527150000,22.3051980000 114.2527640000,22.3052890000 114.2525080000,22.3056230000 114.2523860000,22.3057710000 114.2523290000,22.3058470000 114.2522650000,22.3059470000 114.2522180000,22.3060200000 114.2521720000,22.3060940000 114.2519560000,22.3065000000 114.2519100000,22.3066510000 114.2519070000,22.3066880000 114.2518910000,22.3068620000 114.2519150000,22.3070910000 114.2519860000,22.3073230000 114.2520680000,22.3074820000 114.2521210000,22.3075640000 114.2521900000,22.3076460000 114.2523260000,22.3077820000 114.2525660000,22.3079650000 114.2529170000,22.3081840000 114.2539920000,22.3087760000 114.2543580000,22.3089640000 114.2549520000,22.3092600000 114.2551340000,22.3093510000 114.2551960000,22.3093860000 114.2552750000,22.3094560000 114.2554010000,22.3095690000 114.2554220000,22.3096270000 114.2554990000,22.3097190000 114.2556050000,22.3097820000 114.2557270000,22.3098070000 114.2558520000,22.3097920000 114.2559640000,22.3097390000 114.2559890000,22.3097150000 114.2561140000,22.3097140000 114.2562460000,22.3097180000 114.2563450000,22.3097350000 114.2563630000,22.3097390000 114.2563740000,22.3097420000 114.2565750000,22.3098110000 114.2572390000,22.3100310000 114.2576490000,22.3101750000 114.2579840000,22.3102930000 114.2582130000,22.3103700000 114.2591550000,22.3106950000 114.2592150000,22.3107150000 114.2596000000,22.3108440000 114.2597880000,22.3109070000 114.2600070000,22.3109770000 114.2600990000,22.3110060000 114.2601380000,22.3109060000 114.2601870000,22.3107850000 114.2602040000,22.3107410000 114.2605280000,22.3099250000 114.2607580000,22.3093490000 114.2608310000,22.3091700000 114.2609270000,22.3089250000 114.2611140000,22.3084400000 114.2613580000,22.3077560000 114.2613960000,22.3076360000 114.2614170000,22.3075230000 114.2614490000,22.3073480000 114.2615130000,22.3070480000 114.2615340000,22.3068800000 114.2615590000,22.3066850000 114.2615570000,22.3063780000 114.2615540000,22.3061770000 114.2615450000,22.3056450000 114.2615310000,22.3049380000 114.2615340000,22.3047890000 114.2616810000,22.3047910000 114.2628020000,22.3047910000 114.2630200000,22.3048170000 114.2631840000,22.3048770000 114.2633280000,22.3049660000 114.2634190000,22.3050700000 114.2635000000,22.3051910000 114.2635530000,22.3053160000 114.2635670000,22.3053620000 114.2635900000,22.3054340000 114.2636230000,22.3055460000 114.2636310000,22.3055720000 114.2636930000,22.3057770000 114.2637220000,22.3058820000 114.2639990000,22.3070510000 114.2640530000,22.3073860000 114.2640490000,22.3076310000 114.2639710000,22.3077940000 114.2638690000,22.3079480000 114.2637230000,22.3081210000 114.2636450000,22.3081440000 114.2635760000,22.3081830000 114.2635300000,22.3082230000 114.2634940000,22.3082710000 114.2634680000,22.3083250000 114.2634540000,22.3083820000 114.2634530000,22.3084400000 114.2634610000,22.3084920000 114.2634800000,22.3085420000 114.2635070000,22.3085890000 114.2635670000,22.3086510000 114.2636420000,22.3086960000 114.2637280000,22.3087200000 114.2638180000,22.3087220000 114.2638750000,22.3087110000 114.2639290000,22.3086900000 114.2640410000,22.3087400000 114.2641470000,22.3088090000 114.2642200000,22.3088770000 114.2642780000,22.3089490000 114.2644400000,22.3091700000 114.2645270000,22.3094740000 114.2645010000,22.3098780000 114.2644720000,22.3102220000 114.2644840000,22.3104200000 114.2644960000,22.3105290000 114.2645140000,22.3106710000 114.2645760000,22.3108290000 114.2646500000,22.3109750000 114.2647030000,22.3110720000 114.2648110000,22.3112050000 114.2649140000,22.3113200000 114.2650580000,22.3114670000 114.2651540000,22.3116110000 114.2651940000,22.3117320000 114.2651880000,22.3117520000 114.2651830000,22.3118850000 114.2652360000,22.3120080000 114.2653370000,22.3121020000 114.2654710000,22.3121500000 114.2656140000,22.3121440000 114.2657110000,22.3121060000 114.2657910000,22.3120430000 114.2658480000,22.3119610000 114.2658750000,22.3118680000 114.2658760000,22.3117980000 114.2659880000,22.3114940000 114.2662060000,22.3109860000 114.2662640000,22.3108500000 114.2663560000,22.3106160000 114.2665180000,22.3102160000 114.2666240000,22.3099520000 114.2667620000,22.3097040000 114.2668860000,22.3094920000 114.2671510000,22.3092380000 114.2674490000,22.3089340000 114.2676790000,22.3086740000 114.2678790000,22.3084000000 114.2679210000,22.3083180000 114.2679940000,22.3081730000 114.2680930000,22.3079180000 114.2682820000,22.3074160000 114.2684050000,22.3072000000 114.2685200000,22.3069980000 114.2686660000,22.3068090000 114.2688170000,22.3066480000 114.2691640000,22.3063060000 114.2696180000,22.3059260000 114.2699740000,22.3056120000 114.2701370000,22.3054570000 114.2703160000,22.3052100000 114.2708130000,22.3043130000 114.2709630000,22.3040770000 114.2712430000,22.3037820000 114.2714990000,22.3035580000 114.2716810000,22.3034110000 114.2719300000,22.3032140000 114.2721120000,22.3030140000 114.2721890000,22.3029010000 114.2722370000,22.3028180000 114.2722750000,22.3027460000 114.2723930000,22.3024720000 114.2724150000,22.3023680000 114.2724260000,22.3022140000 114.2724180000,22.3019670000 114.2723880000,22.3017870000 114.2723580000,22.3016910000 114.2723170000,22.3015580000 114.2722060000,22.3013290000 114.2719460000,22.3010390000 114.2717790000,22.3008700000 114.2716630000,22.3007300000 114.2715430000,22.3005580000 114.2714480000,22.3003350000 114.2713660000,22.2998170000 114.2714190000,22.2994100000 114.2715990000,22.2989870000 114.2721270000,22.2980860000 114.2724880000,22.2974650000 114.2725360000,22.2973810000 114.2728110000,22.2969030000 114.2731050000,22.2963860000 114.2732790000,22.2960300000 114.2734260000,22.2956450000 114.2734550000,22.2955340000 114.2734830000,22.2954320000 114.2735640000,22.2949720000 114.2736020000,22.2944950000 114.2736020000,22.2944680000 114.2736030000,22.2943940000 114.2736040000,22.2943240000 114.2736070000,22.2940200000 114.2736060000,22.2934970000 114.2736030000,22.2923780000 114.2736020000,22.2920440000 114.2736100000,22.2915030000 114.2736530000,22.2910120000 114.2737160000,22.2906790000 114.2738360000,22.2902910000 114.2739870000,22.2899510000 114.2740420000,22.2898430000 114.2738620000,22.2897640000 114.2737220000,22.2897080000 114.2736190000,22.2896720000 114.2732140000,22.2895100000 114.2730350000,22.2894300000 114.2728810000,22.2893380000 114.2727420000,22.2892270000 114.2726030000,22.2891040000 114.2724420000,22.2889090000 114.2723210000,22.2887110000 114.2721740000,22.2884150000 114.2720970000,22.2882350000 114.2719790000,22.2880010000 114.2718700000,22.2878840000 114.2718160000,22.2877690000 114.2716120000,22.2873660000 114.2716010000,22.2873440000 114.2715850000,22.2873050000 114.2714050000,22.2869070000 114.2711160000,22.2862670000 114.2707460000,22.2854460000 114.2702770000,22.2844050000 114.2699730000,22.2837400000 114.2700670000,22.2836160000 114.2701250000,22.2835720000 114.2705440000,22.2834040000 114.2705790000,22.2833820000 114.2706270000,22.2832860000 114.2706230000,22.2832650000 114.2705840000,22.2831600000 114.2705600000,22.2831030000 114.2705240000,22.2830190000 114.2705260000,22.2828220000 114.2710120000,22.2826260000 114.2713320000,22.2825050000 114.2715280000,22.2824790000 114.2724040000,22.2821370000 114.2730770000,22.2818670000 114.2741990000,22.2814270000 114.2744190000,22.2813410000 114.2747470000,22.2819840000 114.2752120000,22.2830020000 114.2753570000,22.2833950000 114.2754530000,22.2837290000 114.2754990000,22.2840470000 114.2754700000,22.2845710000 114.2754560000,22.2851640000 114.2754420000,22.2858710000 114.2753650000,22.2865400000 114.2751800000,22.2873630000 114.2749470000,22.2880050000 114.2747570000,22.2883650000 114.2746060000,22.2886520000 114.2738620000,22.2897640000 114.2738090000,22.2898720000 114.2736440000,22.2902290000 114.2735480000,22.2906240000 114.2734870000,22.2909720000 114.2734530000,22.2912710000 114.2734370000,22.2915930000 114.2734310000,22.2920210000 114.2734320000,22.2921250000 114.2734920000,22.2924110000 114.2734920000,22.2925910000 114.2734820000,22.2934260000 114.2734940000,22.2939530000 114.2734910000,22.2942390000 114.2734940000,22.2944080000 114.2734690000,22.2947600000 114.2734260000,22.2951940000 114.2733750000,22.2954410000 114.2733640000,22.2955190000 114.2733450000,22.2956260000 114.2731610000,22.2959850000 114.2730070000,22.2963350000 114.2727070000,22.2968530000 114.2723840000,22.2974220000 114.2720860000,22.2979460000 114.2720270000,22.2980410000 114.2715510000,22.2988610000 114.2713640000,22.2992970000 114.2712780000,22.2997340000 114.2713850000,22.3004020000 114.2715100000,22.3006620000 114.2717030000,22.3009070000 114.2720540000,22.3012740000 114.2721790000,22.3014490000 114.2722720000,22.3016430000 114.2723110000,22.3017990000 114.2723250000,22.3019520000 114.2723180000,22.3022290000 114.2723010000,22.3023760000 114.2722420000,22.3025510000 114.2721790000,22.3027040000 114.2721490000,22.3027700000 114.2721010000,22.3028500000 114.2720350000,22.3029370000 114.2719420000,22.3030490000 114.2717980000,22.3031980000 114.2716130000,22.3033440000 114.2714320000,22.3034970000 114.2711810000,22.3037340000 114.2709060000,22.3040270000 114.2707350000,22.3042800000 114.2704230000,22.3048300000 114.2703260000,22.3050170000 114.2702170000,22.3051850000 114.2700370000,22.3054180000 114.2698560000,22.3055990000 114.2697310000,22.3057090000 114.2695980000,22.3058270000 114.2695010000,22.3059050000 114.2691430000,22.3061930000 114.2686870000,22.3066060000 114.2684530000,22.3068920000 114.2682840000,22.3071410000 114.2681050000,22.3075740000 114.2679880000,22.3078740000 114.2679130000,22.3080670000 114.2678200000,22.3082850000 114.2676980000,22.3084950000 114.2675350000,22.3086960000 114.2673660000,22.3088840000 114.2671190000,22.3091180000 114.2668960000,22.3093540000 114.2666870000,22.3095870000 114.2665010000,22.3097790000 114.2663870000,22.3099280000 114.2663500000,22.3099940000 114.2661500000,22.3103550000 114.2660450000,22.3106050000 114.2658780000,22.3110140000 114.2658360000,22.3111190000 114.2657870000,22.3112220000 114.2656940000,22.3113680000 114.2655130000,22.3115070000 114.2654790000,22.3115100000 114.2654450000,22.3115160000 114.2652830000,22.3114580000 114.2651650000,22.3113890000 114.2650590000,22.3112940000 114.2648770000,22.3111140000 114.2647820000,22.3109910000 114.2646970000,22.3108590000 114.2646460000,22.3107550000 114.2646090000,22.3106310000 114.2645800000,22.3104890000 114.2645610000,22.3103270000 114.2645960000,22.3097760000 114.2646080000,22.3094550000 114.2645750000,22.3092710000 114.2644660000,22.3090100000 114.2643690000,22.3088690000 114.2642620000,22.3087120000 114.2641780000,22.3085810000 114.2641070000,22.3084450000 114.2641050000,22.3083830000 114.2640900000,22.3083230000 114.2640630000,22.3082670000 114.2641090000,22.3079880000 114.2640880000,22.3078010000 114.2640490000,22.3076310000 114.2640530000,22.3073860000 114.2639990000,22.3070510000 114.2637220000,22.3058820000 114.2636930000,22.3057770000 114.2636310000,22.3055720000 114.2636230000,22.3055460000 114.2635900000,22.3054340000 114.2635670000,22.3053620000 114.2635530000,22.3053160000 114.2635000000,22.3051910000 114.2634190000,22.3050700000 114.2633280000,22.3049660000 114.2631840000,22.3048770000 114.2630200000,22.3048170000 114.2628020000,22.3047910000 114.2616810000,22.3047910000 114.2615340000,22.3047890000 114.2614260000,22.3047910000 114.2614360000,22.3049380000 114.2614380000,22.3053010000 114.2614390000,22.3055220000 114.2614410000,22.3057810000 114.2614410000,22.3057940000 114.2614330000,22.3063120000 114.2614390000,22.3064670000 114.2614070000,22.3067580000 114.2613690000,22.3070180000 114.2613300000,22.3073180000 114.2612970000,22.3074860000 114.2612750000,22.3075970000 114.2612530000,22.3077070000 114.2612030000,22.3078770000 114.2610210000,22.3084100000 114.2609510000,22.3083890000 114.2608630000,22.3083610000 114.2608220000,22.3084730000 114.2606860000,22.3088480000 114.2606050000,22.3088210000 114.2605350000,22.3087970000 114.2604600000,22.3087720000 114.2603850000,22.3087480000 114.2603180000,22.3087260000 114.2602520000,22.3087050000 114.2601780000,22.3086820000 114.2601050000,22.3086600000 114.2600760000,22.3087320000 114.2600240000,22.3088910000 114.2604150000,22.3090260000 114.2605490000,22.3090730000 114.2606740000,22.3091160000 114.2607360000,22.3091370000 114.2606620000,22.3093200000 114.2602560000,22.3103130000 114.2601050000,22.3107150000 114.2600890000,22.3107570000 114.2600450000,22.3108780000 114.2599580000,22.3108500000 114.2598400000,22.3108120000 114.2597290000,22.3107750000 114.2590760000,22.3105660000 114.2590270000,22.3105480000 114.2589380000,22.3105190000 114.2587990000,22.3104730000 114.2577300000,22.3101170000 114.2574460000,22.3100150000 114.2570960000,22.3098960000 114.2567990000,22.3098010000 114.2565180000,22.3097020000 114.2564000000,22.3096520000 114.2563830000,22.3096450000 114.2563720000,22.3096380000 114.2562840000,22.3095830000 114.2561780000,22.3094960000 114.2561010000,22.3094090000 114.2560830000,22.3093520000 114.2560550000,22.3092980000 114.2559770000,22.3090760000 114.2559510000,22.3090020000 114.2559470000,22.3089900000 114.2558750000,22.3087870000 114.2558510000,22.3086990000 114.2558400000,22.3085900000 114.2558160000,22.3080270000 114.2558090000,22.3071750000 114.2557540000,22.3067830000 114.2557550000,22.3065340000 114.2557520000,22.3061970000 114.2557770000,22.3059980000 114.2557920000,22.3059180000 114.2558200000,22.3058520000 114.2558880000,22.3057480000 114.2559090000,22.3057060000 114.2559100000,22.3056600000 114.2558900000,22.3056170000 114.2558500000,22.3055840000 114.2557990000,22.3055700000 114.2557400000,22.3055650000 114.2554370000,22.3054930000 114.2551160000,22.3053830000 114.2547570000,22.3052530000 114.2544670000,22.3051350000 114.2540200000,22.3049310000 114.2535740000,22.3046580000 114.2535630000,22.3046510000 114.2534130000,22.3045240000 114.2533300000,22.3044540000 114.2532660000,22.3045410000 114.2531690000,22.3047100000 114.2530650000,22.3049010000 114.2528530000,22.3051800000 114.2527610000,22.3051330000 114.2527610000,22.3051330000 114.2527380000,22.3051130000 114.2526240000,22.3050190000 114.2525560000,22.3049620000 114.2524870000,22.3049040000 114.2524190000,22.3048470000 114.2523510000,22.3047890000 114.2522830000,22.3047310000 114.2522150000,22.3046740000 114.2521470000,22.3046160000 114.2521000000,22.3045730000 114.2520520000,22.3045840000 114.2516760000,22.3049900000 114.2516730000,22.3050410000 114.2517160000,22.3050760000 114.2517800000,22.3051320000 114.2518440000,22.3051880000 114.2519070000,22.3052440000 114.2519710000,22.3053000000 114.2520340000,22.3053560000 114.2520980000,22.3054120000 114.2521620000,22.3054680000 114.2522720000,22.3055120000 114.2526180000,22.3051730000 114.2526970000,22.3051830000 114.2527150000,22.3051980000 114.2527640000,22.3052890000 114.2525080000,22.3056230000 114.2523860000,22.3057710000 114.2523290000,22.3058470000 114.2522650000,22.3059470000 114.2522180000,22.3060200000 114.2521720000,22.3060940000 114.2519560000,22.3065000000 114.2519100000,22.3066510000 114.2519070000,22.3066880000 114.2518910000,22.3068620000 114.2519150000,22.3070910000 114.2519860000,22.3073230000 114.2520680000,22.3074820000 114.2521210000,22.3075640000 114.2521900000,22.3076460000 114.2523260000,22.3077820000 114.2525660000,22.3079650000 114.2529170000,22.3081840000 114.2539920000,22.3087760000 114.2543580000,22.3089640000 114.2549520000,22.3092600000 114.2551340000,22.3093510000 114.2551960000,22.3093860000 114.2552750000,22.3094560000 114.2554010000,22.3095690000 114.2554220000,22.3096270000 114.2556450000,22.3102980000 114.2556800000,22.3103960000 114.2559430000,22.3110270000 114.2561340000,22.3114610000 114.2563550000,22.3118980000 114.2567390000,22.3125020000 114.2571020000,22.3130440000 114.2574330000,22.3134260000 114.2576230000,22.3136140000 114.2577920000,22.3137870000 114.2581980000,22.3141550000 114.2583810000,22.3144210000 114.2585840000,22.3146670000 114.2587540000,22.3148740000 114.2591200000,22.3152360000 114.2592750000,22.3153920000 114.2594010000,22.3155510000 114.2594360000,22.3157290000 114.2594350000,22.3159040000 114.2594070000,22.3160080000 114.2593260000,22.3161360000 114.2592670000,22.3162030000 114.2591630000,22.3162880000 114.2588330000,22.3165480000 114.2585580000,22.3167630000 114.2582470000,22.3170070000 114.2576290000,22.3174960000 114.2571880000,22.3179420000 114.2569280000,22.3182130000 114.2567840000,22.3183750000 114.2564080000,22.3187810000 114.2561510000,22.3190590000 114.2559180000,22.3193280000 114.2552920000,22.3200520000 114.2550350000,22.3203100000 114.2547560000,22.3205580000 114.2544450000,22.3207570000 114.2541340000,22.3209350000 114.2538440000,22.3210640000 114.2535330000,22.3211730000 114.2532110000,22.3212490000 114.2529560000,22.3212810000 114.2527190000,22.3212800000 114.2524300000,22.3212720000 114.2521630000,22.3212430000 114.2518740000,22.3212120000 114.2514590000,22.3211670000 114.2508720000,22.3210870000 114.2505150000,22.3210100000 114.2501480000,22.3209090000 114.2500490000,22.3208820000 114.2495710000,22.3207460000 114.2491810000,22.3206100000 114.2487480000,22.3204260000 114.2427430000,22.3169550000 114.2420440000,22.3165910000 114.2417360000,22.3164260000 114.2415200000,22.3162760000 114.2411240000,22.3159720000 114.2404100000,22.3153820000 114.2398890000,22.3148750000 114.2395180000,22.3145450000 114.2389850000,22.3140830000 114.2387130000,22.3138600000 114.2385500000,22.3137530000 114.2382780000,22.3135990000 114.2378940000,22.3134200000 114.2375240000,22.3132570000 114.2368820000,22.3129700000 114.2365910000,22.3128370000 114.2361920000,22.3126560000 114.2358190000,22.3124960000 114.2355560000,22.3123870000 114.2354250000,22.3123320000 114.2351180000,22.3122130000 114.2349080000,22.3121320000 114.2344030000,22.3119370000 114.2339150000,22.3117920000 114.2334280000,22.3116030000 114.2331190000,22.3114900000 114.2327380000,22.3113520000 114.2325020000,22.3112580000 114.2322970000,22.3111680000 114.2320960000,22.3110780000 114.2318690000,22.3109440000 114.2316630000,22.3107900000 114.2314390000,22.3105960000 114.2312980000,22.3104390000 114.2311180000,22.3102040000 114.2307730000,22.3097140000 114.2307550000,22.3096540000 114.2307670000,22.3095940000 114.2308120000,22.3095100000 114.2310960000,22.3093270000 114.2313660000,22.3091040000 114.2316100000,22.3087830000 114.2318980000,22.3084540000 114.2325370000,22.3077610000 114.2332850000,22.3068610000 114.2338010000,22.3062650000 114.2340260000,22.3060180000 114.2343200000,22.3056940000 114.2347450000,22.3052000000 114.2350110000,22.3048740000 114.2351820000,22.3046280000 114.2352960000,22.3044050000 114.2353850000,22.3041950000 114.2354160000,22.3041010000 114.2354830000,22.3038640000 114.2355170000,22.3036710000 114.2355290000,22.3035190000 114.2355210000,22.3032590000 114.2354980000,22.3031120000 114.2354750000,22.3029590000 114.2353920000,22.3026740000 114.2353630000,22.3026020000 114.2352930000,22.3024550000 114.2352150000,22.3023030000 114.2351490000,22.3021690000 114.2349990000,22.3019600000 114.2348450000,22.3017840000 114.2343870000,22.3013330000 114.2342250000,22.3012280000 114.2339520000,22.3010590000 114.2339070000,22.3010320000 114.2328620000,22.3004000000 114.2321320000,22.2999590000 114.2314790000,22.2996620000 114.2310720000,22.2994350000 114.2306190000,22.2991810000 114.2130560000,22.2900030000 114.2128440000,22.2899070000 114.2127060000,22.2898440000 114.2125860000,22.2897730000 114.2124740000,22.2897070000 114.2123600000,22.2896000000 114.2122670000,22.2894860000 114.2122090000,22.2893950000 114.2121680000,22.2892920000 114.2121400000,22.2891850000 114.2121200000,22.2890270000 114.2121470000,22.2888410000 114.2122100000,22.2886710000 114.2122970000,22.2885530000 114.2123720000,22.2884540000 114.2125920000,22.2883350000 114.2127050000,22.2882850000 114.2128370000,22.2882520000 114.2129310000,22.2882380000 114.2130360000,22.2882330000 114.2131290000,22.2882440000 114.2132290000,22.2882680000 114.2133810000,22.2883260000 114.2135580000,22.2884230000 114.2137140000,22.2885590000 114.2137880000,22.2886670000 114.2138470000,22.2887930000 114.2138980000,22.2889250000 114.2139110000,22.2890290000 114.2139090000,22.2891500000 114.2138910000,22.2892930000 114.2138620000,22.2894010000 114.2138170000,22.2894870000 114.2137510000,22.2895840000 114.2136610000,22.2896970000 114.2135260000,22.2898360000 114.2134440000,22.2899090000 114.2132930000,22.2900340000 114.2130020000,22.2901740000 114.2112110000,22.2912520000 114.2110520000,22.2913550000 114.2102020000,22.2919430000 114.2096630000,22.2923130000 114.2094140000,22.2924730000 114.2091510000,22.2926110000 114.2088090000,22.2927710000 114.2086260000,22.2928390000 114.2066660000,22.2934180000 114.2048450000,22.2939720000 114.2044740000,22.2940720000 114.2040710000,22.2941290000 114.2036420000,22.2941610000 114.2031550000,22.2941450000 114.2025710000,22.2940510000 114.2021610000,22.2939730000 114.1999680000,22.2935100000 114.1996280000,22.2934690000 114.1992060000,22.2934470000 114.1987250000,22.2934460000 114.1983660000,22.2934260000 114.1979580000,22.2933590000 114.1975110000,22.2932730000 114.1959400000,22.2929700000 114.1956750000,22.2929240000 114.1954150000,22.2928670000 114.1952160000,22.2928310000 114.1950220000,22.2927680000 114.1948140000,22.2926860000 114.1946450000,22.2926110000 114.1944520000,22.2925320000 114.1942080000,22.2923860000 114.1937870000,22.2920820000 114.1932690000,22.2916340000 114.1925710000,22.2910210000 114.1916280000,22.2900800000 114.1908310000,22.2892850000 114.1896270000,22.2880510000 114.1890070000,22.2874240000 114.1887100000,22.2871190000 114.1880630000,22.2864400000 114.1875550000,22.2859550000 114.1871420000,22.2855720000 114.1866620000,22.2851510000 114.1862310000,22.2848250000 114.1857820000,22.2845010000 114.1853990000,22.2842880000 114.1849510000,22.2840740000 114.1845390000,22.2839000000 114.1831910000,22.2834360000 114.1826270000,22.2832920000 114.1823140000,22.2832240000 114.1819090000,22.2831690000 114.1810050000,22.2830450000 114.1754920000,22.2822970000 114.1750470000,22.2822520000 114.1746750000,22.2822160000 114.1739920000,22.2821710000 114.1717570000,22.2820450000 114.1714910000,22.2820020000 114.1714100000,22.2819910000 114.1702700000,22.2820430000 114.1701430000,22.2819890000 114.1700770000,22.2819410000 114.1700270000,22.2818740000 114.1699830000,22.2818090000 114.1699520000,22.2817460000 114.1699280000,22.2816380000 114.1699260000,22.2815370000 114.1699410000,22.2814100000 114.1699980000,22.2808680000 114.1698200000,22.2808530000 114.1695710000,22.2808320000 114.1693680000,22.2807780000 114.1690580000,22.2807330000 114.1687700000,22.2806980000 114.1685560000,22.2806330000 114.1684440000,22.2805710000 114.1683500000,22.2804700000 114.1683000000,22.2803680000 114.1682200000,22.2800200000 114.1681800000,22.2799200000 114.1681400000,22.2798500000 114.1680800000,22.2797700000 114.1679900000,22.2796900000 114.1678870000,22.2796300000 114.1677700000,22.2795900000 114.1676500000,22.2795700000 114.1670590000,22.2794910000 114.1665540000,22.2794390000 114.1661830000,22.2794620000 114.1659240000,22.2794830000 114.1657070000,22.2795330000 114.1655280000,22.2795920000 114.1653450000,22.2796690000 114.1649120000,22.2799240000 114.1642610000,22.2803460000 114.1639590000,22.2805550000 114.1633860000,22.2809860000 114.1631250000,22.2811370000 114.1629830000,22.2812030000 114.1627940000,22.2812940000 114.1624180000,22.2814300000 114.1621600000,22.2815060000 114.1619220000,22.2815780000 114.1617620000,22.2816260000 114.1614070000,22.2817270000 114.1612190000,22.2817730000 114.1610120000,22.2818360000 114.1606730000,22.2819250000 114.1604510000,22.2819800000 114.1590190000,22.2824470000 114.1587620000,22.2825410000 114.1585160000,22.2826490000 114.1583130000,22.2827810000 114.1581260000,22.2829270000 114.1579750000,22.2830730000 114.1579190000,22.2831270000 114.1577180000,22.2833390000 114.1575190000,22.2835720000 114.1571080000,22.2840700000 114.1566900000,22.2845970000 114.1565330000,22.2848090000 114.1563280000,22.2849810000 114.1562790000,22.2850330000 114.1562110000,22.2851110000 114.1561260000,22.2852120000 114.1560170000,22.2853340000 114.1559320000,22.2854240000 114.1557630000,22.2855460000 114.1551560000,22.2859080000 114.1550160000,22.2860100000 114.1544060000,22.2863470000 114.1541800000,22.2864760000 114.1538660000,22.2866500000 114.1537000000,22.2867220000 114.1536180000,22.2867580000 114.1534870000,22.2868010000 114.1531360000,22.2868940000 114.1526930000,22.2870120000 114.1522300000,22.2871200000 114.1514970000,22.2873210000 114.1506320000,22.2875640000 114.1503020000,22.2876310000 114.1500800000,22.2876730000 114.1495910000,22.2877900000 114.1487790000,22.2879980000 114.1481470000,22.2881600000 114.1481130000,22.2881610000 114.1480780000,22.2881490000 114.1480480000,22.2881320000 114.1479480000,22.2880620000 114.1475620000,22.2878060000 114.1472790000,22.2876130000 114.1472300000,22.2875980000 114.1468880000,22.2876330000 114.1460650000,22.2877150000 114.1458760000,22.2877340000 114.1453900000,22.2877730000 114.1448780000,22.2878020000 114.1444120000,22.2878120000 114.1441290000,22.2878200000 114.1438010000,22.2878300000 114.1434090000,22.2878370000 114.1430590000,22.2878460000 114.1427020000,22.2878590000 114.1423930000,22.2878690000 114.1419120000,22.2878880000 114.1415150000,22.2879050000 114.1412880000,22.2879130000 114.1408560000,22.2879360000 114.1407870000,22.2879290000 114.1403010000,22.2877970000 114.1394410000,22.2875640000 114.1388310000,22.2874000000 114.1387760000,22.2873850000 114.1385040000,22.2873090000 114.1376370000,22.2870760000 114.1375640000,22.2870560000 114.1375370000,22.2870480000 114.1374510000,22.2870250000 114.1370100000,22.2869070000 114.1365890000,22.2867940000 114.1365330000,22.2867810000 114.1361680000,22.2866860000 114.1361170000,22.2866790000 114.1360640000,22.2866830000 114.1359830000,22.2867000000 114.1358180000,22.2867340000 114.1357240000,22.2867530000 114.1356140000,22.2867770000 114.1354460000,22.2868140000 114.1353320000,22.2868380000 114.1341000000,22.2871100000 114.1333310000,22.2873020000 114.1331980000,22.2873140000 114.1331010000,22.2873090000 114.1330370000,22.2872990000 114.1329650000,22.2872800000 114.1328960000,22.2872540000 114.1328100000,22.2872120000 114.1327520000,22.2871790000 114.1326820000,22.2871270000 114.1326090000,22.2870430000 114.1325470000,22.2869340000 114.1324280000,22.2867010000 114.1319920000,22.2858790000 114.1320820000,22.2858390000 114.1324220000,22.2856880000 114.1324860000,22.2856570000 114.1322580000,22.2851140000 114.1321200000,22.2849070000 114.1320310000,22.2848010000 114.1319760000,22.2847460000 114.1314610000,22.2843270000 114.1312440000,22.2841480000 114.1311790000,22.2840990000 114.1308910000,22.2838650000 114.1302350000,22.2833310000 114.1301260000,22.2832420000 114.1300100000,22.2831550000 114.1297400000,22.2829520000 114.1295960000,22.2828700000 114.1294460000,22.2828230000 114.1292150000,22.2827640000 114.1290990000,22.2827440000 114.1290100000,22.2827280000 114.1283010000,22.2826040000 114.1282140000,22.2825900000 114.1281260000,22.2825760000 114.1280280000,22.2825600000 114.1272510000,22.2824370000 114.1270210000,22.2824000000 114.1269070000,22.2823810000 114.1268900000,22.2823790000 114.1266380000,22.2823420000 114.1262940000,22.2822910000 114.1261840000,22.2822740000 114.1260980000,22.2822720000 114.1260710000,22.2822750000 114.1260240000,22.2822740000 114.1259310000,22.2822710000 114.1254140000,22.2821880000 114.1252720000,22.2821650000 114.1247530000,22.2820890000 114.1240670000,22.2819750000 114.1233230000,22.2818510000 114.1232720000,22.2820140000 114.1232200000,22.2821800000 114.1232120000,22.2822090000 114.1231910000,22.2822440000 114.1231660000,22.2822710000 114.1231340000,22.2822910000 114.1230940000,22.2822990000 114.1230430000,22.2822970000 114.1230000000,22.2822880000 114.1229080000,22.2822540000 114.1223280000,22.2820600000 114.1221950000,22.2820160000 114.1205010000,22.2814620000 114.1202980000,22.2814060000</coordinates>
                </LineString>
                <ExtendedData>
                    <Data name="length">
                        <value>56059.67187205056</value>
                    </Data>
                    <Data name="duration">
                        <value>02:07:56</value>
                    </Data>
                </ExtendedData>
            </Placemark>
        </Document>
    </Document>
</kml>