<?xml version="1.0" encoding="UTF-8"?>
<kml xmlns="http://www.opengis.net/kml/2.2" xmlns:gx="http://www.google.com/kml/ext/2.2">
    <Document>
        <name>Route</name>
        <Folder>
            <name>Route Request</name>
            <Placemark>
                <address>E-Charge, 8, Hong Kong Station PTI, International Finance Centre, Central District, Hong Kong, Central and Western District, Hong Kong, ML 445, PRC</address>
                <Point>
                    <coordinates>114.1201401511,22.2813852676</coordinates>
                </Point>
                <ExtendedData>
                    <Data name="country_code">
                        <value>cn</value>
                    </Data>
                    <Data name="country">
                        <value>PRC</value>
                    </Data>
                    <Data name="address29">
                        <value>E-Charge</value>
                    </Data>
                    <Data name="suburb">
                        <value>Central District</value>
                    </Data>
                    <Data name="postcode">
                        <value>ML 445</value>
                    </Data>
                    <Data name="county">
                        <value>Central and Western District</value>
                    </Data>
                    <Data name="commercial">
                        <value>International Finance Centre</value>
                    </Data>
                    <Data name="road">
                        <value>Hong Kong Station PTI</value>
                    </Data>
                    <Data name="routingVisited">
                        <value>false</value>
                    </Data>
                    <Data name="house_number">
                        <value>8</value>
                    </Data>
                    <Data name="city">
                        <value>Hong Kong</value>
                    </Data>
                </ExtendedData>
            </Placemark>
            <Placemark>
                <Point>
                    <coordinates>114.1366220010,22.2869392697</coordinates>
                </Point>
            </Placemark>
            <Placemark>
                <Point>
                    <coordinates>114.1469379317,22.2878256411</coordinates>
                </Point>
            </Placemark>
            <Placemark>
                <address>Agricultural Bank of China Building, 50, Connaught Road Central, Admiralty, Sheung Wan, Hong Kong, Central and Western District, Hong Kong Island, Hong Kong, 999077, China</address>
                <Point>
                    <coordinates>114.1556591636,22.2849247124</coordinates>
                </Point>
                <ExtendedData>
                    <Data name="region">
                        <value>Hong Kong Island</value>
                    </Data>
                    <Data name="building">
                        <value>Agricultural Bank of China Building</value>
                    </Data>
                    <Data name="country_code">
                        <value>cn</value>
                    </Data>
                    <Data name="country">
                        <value>China</value>
                    </Data>
                    <Data name="neighbourhood">
                        <value>Admiralty</value>
                    </Data>
                    <Data name="suburb">
                        <value>Sheung Wan</value>
                    </Data>
                    <Data name="county">
                        <value>Central and Western District</value>
                    </Data>
                    <Data name="postcode">
                        <value>999077</value>
                    </Data>
                    <Data name="road">
                        <value>Connaught Road Central</value>
                    </Data>
                    <Data name="house_number">
                        <value>50</value>
                    </Data>
                    <Data name="city">
                        <value>Hong Kong</value>
                    </Data>
                </ExtendedData>
            </Placemark>
            <Placemark>
                <address>171-173, Hennessy Road, Morrison Hill, Wan Chai, Wan Chai District, Hong Kong Island, Hong Kong, CHUEN FUNG 6F, China</address>
                <Point>
                    <coordinates>114.1741562482,22.2778724807</coordinates>
                </Point>
                <ExtendedData>
                    <Data name="region">
                        <value>Hong Kong Island</value>
                    </Data>
                    <Data name="country_code">
                        <value>cn</value>
                    </Data>
                    <Data name="country">
                        <value>China</value>
                    </Data>
                    <Data name="neighbourhood">
                        <value>Morrison Hill</value>
                    </Data>
                    <Data name="suburb">
                        <value>Wan Chai</value>
                    </Data>
                    <Data name="county">
                        <value>Wan Chai District</value>
                    </Data>
                    <Data name="postcode">
                        <value>CHUEN FUNG 6F</value>
                    </Data>
                    <Data name="road">
                        <value>Hennessy Road</value>
                    </Data>
                    <Data name="house_number">
                        <value>171-173</value>
                    </Data>
                    <Data name="city">
                        <value>Hong Kong</value>
                    </Data>
                </ExtendedData>
            </Placemark>
            <Placemark>
                <address>Victoria Park Swimming Pool, Hing Fat Street, Caroline Hill, Tai Hang, Wan Chai District, Hong Kong Island, Hong Kong, 999077, China</address>
                <Point>
                    <coordinates>114.1911111499,22.2837035252</coordinates>
                </Point>
                <ExtendedData>
                    <Data name="region">
                        <value>Hong Kong Island</value>
                    </Data>
                    <Data name="country_code">
                        <value>cn</value>
                    </Data>
                    <Data name="country">
                        <value>China</value>
                    </Data>
                    <Data name="neighbourhood">
                        <value>Caroline Hill</value>
                    </Data>
                    <Data name="suburb">
                        <value>Tai Hang</value>
                    </Data>
                    <Data name="county">
                        <value>Wan Chai District</value>
                    </Data>
                    <Data name="postcode">
                        <value>999077</value>
                    </Data>
                    <Data name="road">
                        <value>Hing Fat Street</value>
                    </Data>
                    <Data name="city">
                        <value>Hong Kong</value>
                    </Data>
                    <Data name="sports_centre">
                        <value>Victoria Park Swimming Pool</value>
                    </Data>
                </ExtendedData>
            </Placemark>
            <Placemark>
                <address>Ko Ching House, Ko Chiu Road, Yau Tong, On Li Sai Tsuen, Kwun Tong District, Hong Kong, NKIL 6326, PRC</address>
                <Point>
                    <coordinates>114.2404885698,22.2979010995</coordinates>
                </Point>
                <ExtendedData>
                    <Data name="building">
                        <value>Ko Ching House</value>
                    </Data>
                    <Data name="country_code">
                        <value>cn</value>
                    </Data>
                    <Data name="country">
                        <value>PRC</value>
                    </Data>
                    <Data name="hamlet">
                        <value>On Li Sai Tsuen</value>
                    </Data>
                    <Data name="suburb">
                        <value>Yau Tong</value>
                    </Data>
                    <Data name="postcode">
                        <value>NKIL 6326</value>
                    </Data>
                    <Data name="county">
                        <value>Kwun Tong District</value>
                    </Data>
                    <Data name="address27">
                        <value>Ko Chiu Road</value>
                    </Data>
                </ExtendedData>
            </Placemark>
            <Placemark>
                <address>Lam Tin Service Reservoir Playground, Tak Tin Street, Cheung Lung Tin, Lam Tin, Kwun Tong District, Kowloon, Hong Kong, China</address>
                <Point>
                    <coordinates>114.2372607911,22.3093621599</coordinates>
                </Point>
                <ExtendedData>
                    <Data name="region">
                        <value>Kowloon</value>
                    </Data>
                    <Data name="country_code">
                        <value>cn</value>
                    </Data>
                    <Data name="country">
                        <value>China</value>
                    </Data>
                    <Data name="neighbourhood">
                        <value>Cheung Lung Tin</value>
                    </Data>
                    <Data name="playground">
                        <value>Lam Tin Service Reservoir Playground</value>
                    </Data>
                    <Data name="suburb">
                        <value>Lam Tin</value>
                    </Data>
                    <Data name="county">
                        <value>Kwun Tong District</value>
                    </Data>
                    <Data name="road">
                        <value>Tak Tin Street</value>
                    </Data>
                    <Data name="city">
                        <value>Hong Kong</value>
                    </Data>
                </ExtendedData>
            </Placemark>
            <Placemark>
                <address>Yau Tong Service Reservoir Playground, Pik Wan Road, Yau Tong, On Li Sai Tsuen, Kwun Tong District, Hong Kong, NKIL 6326, PRC</address>
                <Point>
                    <coordinates>114.2414689615,22.2994515355</coordinates>
                </Point>
                <ExtendedData>
                    <Data name="country_code">
                        <value>cn</value>
                    </Data>
                    <Data name="country">
                        <value>PRC</value>
                    </Data>
                    <Data name="hamlet">
                        <value>On Li Sai Tsuen</value>
                    </Data>
                    <Data name="suburb">
                        <value>Yau Tong</value>
                    </Data>
                    <Data name="postcode">
                        <value>NKIL 6326</value>
                    </Data>
                    <Data name="playground">
                        <value>Yau Tong Service Reservoir Playground</value>
                    </Data>
                    <Data name="county">
                        <value>Kwun Tong District</value>
                    </Data>
                    <Data name="road">
                        <value>Pik Wan Road</value>
                    </Data>
                </ExtendedData>
            </Placemark>
            <Placemark>
                <address>Yeung Mei House, Lei Yue Mun Road, Cheung Lung Tin, Yau Tong, On Li Sai Tsuen, Kwun Tong District, Kowloon, Hong Kong, China</address>
                <Point>
                    <coordinates>114.2383625452,22.3002985932</coordinates>
                </Point>
                <ExtendedData>
                    <Data name="region">
                        <value>Kowloon</value>
                    </Data>
                    <Data name="building">
                        <value>Yeung Mei House</value>
                    </Data>
                    <Data name="country_code">
                        <value>cn</value>
                    </Data>
                    <Data name="hamlet">
                        <value>On Li Sai Tsuen</value>
                    </Data>
                    <Data name="country">
                        <value>China</value>
                    </Data>
                    <Data name="neighbourhood">
                        <value>Cheung Lung Tin</value>
                    </Data>
                    <Data name="suburb">
                        <value>Yau Tong</value>
                    </Data>
                    <Data name="county">
                        <value>Kwun Tong District</value>
                    </Data>
                    <Data name="road">
                        <value>Lei Yue Mun Road</value>
                    </Data>
                    <Data name="city">
                        <value>Hong Kong</value>
                    </Data>
                </ExtendedData>
            </Placemark>
            <Placemark>
                <address>Hong Kong Central Library, Causeway Road, Caroline Hill, Causeway Bay, Wan Chai District, Hong Kong Island, Hong Kong, 999077, China</address>
                <Point>
                    <coordinates>114.1892322427,22.2802459184</coordinates>
                </Point>
                <ExtendedData>
                    <Data name="region">
                        <value>Hong Kong Island</value>
                    </Data>
                    <Data name="country_code">
                        <value>cn</value>
                    </Data>
                    <Data name="country">
                        <value>China</value>
                    </Data>
                    <Data name="neighbourhood">
                        <value>Caroline Hill</value>
                    </Data>
                    <Data name="bus_stop">
                        <value>Hong Kong Central Library</value>
                    </Data>
                    <Data name="suburb">
                        <value>Causeway Bay</value>
                    </Data>
                    <Data name="county">
                        <value>Wan Chai District</value>
                    </Data>
                    <Data name="postcode">
                        <value>999077</value>
                    </Data>
                    <Data name="road">
                        <value>Causeway Road</value>
                    </Data>
                    <Data name="city">
                        <value>Hong Kong</value>
                    </Data>
                </ExtendedData>
            </Placemark>
            <Placemark>
                <address>218 Apartment, 216-218, Hennessy Road, Morrison Hill, Wan Chai, Wan Chai District, Hong Kong Island, Hong Kong, 999077, China</address>
                <Point>
                    <coordinates>114.1753372338,22.2776812519</coordinates>
                </Point>
                <ExtendedData>
                    <Data name="region">
                        <value>Hong Kong Island</value>
                    </Data>
                    <Data name="country_code">
                        <value>cn</value>
                    </Data>
                    <Data name="country">
                        <value>China</value>
                    </Data>
                    <Data name="neighbourhood">
                        <value>Morrison Hill</value>
                    </Data>
                    <Data name="suburb">
                        <value>Wan Chai</value>
                    </Data>
                    <Data name="county">
                        <value>Wan Chai District</value>
                    </Data>
                    <Data name="postcode">
                        <value>999077</value>
                    </Data>
                    <Data name="road">
                        <value>Hennessy Road</value>
                    </Data>
                    <Data name="hotel">
                        <value>218 Apartment</value>
                    </Data>
                    <Data name="house_number">
                        <value>216-218</value>
                    </Data>
                    <Data name="city">
                        <value>Hong Kong</value>
                    </Data>
                </ExtendedData>
            </Placemark>
            <Placemark>
                <Point>
                    <coordinates>114.1557191555,22.2827117382</coordinates>
                </Point>
            </Placemark>
            <Placemark>
                <address>The Mixing Bowl, Mercer Street, Admiralty, Sheung Wan, Hong Kong, Central and Western District, Hong Kong Island, Hong Kong, 999077, China</address>
                <Point>
                    <coordinates>114.1523817978,22.2855119509</coordinates>
                </Point>
                <ExtendedData>
                    <Data name="region">
                        <value>Hong Kong Island</value>
                    </Data>
                    <Data name="country_code">
                        <value>cn</value>
                    </Data>
                    <Data name="country">
                        <value>China</value>
                    </Data>
                    <Data name="neighbourhood">
                        <value>Admiralty</value>
                    </Data>
                    <Data name="suburb">
                        <value>Sheung Wan</value>
                    </Data>
                    <Data name="county">
                        <value>Central and Western District</value>
                    </Data>
                    <Data name="postcode">
                        <value>999077</value>
                    </Data>
                    <Data name="road">
                        <value>Mercer Street</value>
                    </Data>
                    <Data name="school">
                        <value>The Mixing Bowl</value>
                    </Data>
                    <Data name="city">
                        <value>Hong Kong</value>
                    </Data>
                </ExtendedData>
            </Placemark>
            <Placemark>
                <address>408C-408D, Des Voeux Road West, Shek Tong Tsui, Hong Kong, Central and Western District, Hong Kong Island, Hong Kong, 852, China</address>
                <Point>
                    <coordinates>114.1357542542,22.2867286813</coordinates>
                </Point>
                <ExtendedData>
                    <Data name="region">
                        <value>Hong Kong Island</value>
                    </Data>
                    <Data name="country_code">
                        <value>cn</value>
                    </Data>
                    <Data name="country">
                        <value>China</value>
                    </Data>
                    <Data name="suburb">
                        <value>Shek Tong Tsui</value>
                    </Data>
                    <Data name="county">
                        <value>Central and Western District</value>
                    </Data>
                    <Data name="postcode">
                        <value>852</value>
                    </Data>
                    <Data name="road">
                        <value>Des Voeux Road West</value>
                    </Data>
                    <Data name="routingVisited">
                        <value>false</value>
                    </Data>
                    <Data name="house_number">
                        <value>408C-408D</value>
                    </Data>
                    <Data name="city">
                        <value>Hong Kong</value>
                    </Data>
                </ExtendedData>
            </Placemark>
            <Placemark>
                <address>Island West Transfer Station, 88, Victoria Road, Mount Davis, Ex-Mount Davis Cottage Area, Central and Western District, Hong Kong Island, Hong Kong, 852, China</address>
                <Point>
                    <coordinates>114.1201992018,22.2813852762</coordinates>
                </Point>
                <ExtendedData>
                    <Data name="region">
                        <value>Hong Kong Island</value>
                    </Data>
                    <Data name="country_code">
                        <value>cn</value>
                    </Data>
                    <Data name="hamlet">
                        <value>Ex-Mount Davis Cottage Area</value>
                    </Data>
                    <Data name="country">
                        <value>China</value>
                    </Data>
                    <Data name="address29">
                        <value>Island West Transfer Station</value>
                    </Data>
                    <Data name="suburb">
                        <value>Mount Davis</value>
                    </Data>
                    <Data name="county">
                        <value>Central and Western District</value>
                    </Data>
                    <Data name="postcode">
                        <value>852</value>
                    </Data>
                    <Data name="road">
                        <value>Victoria Road</value>
                    </Data>
                    <Data name="house_number">
                        <value>88</value>
                    </Data>
                    <Data name="city">
                        <value>Hong Kong</value>
                    </Data>
                </ExtendedData>
            </Placemark>
        </Folder>
        <Document>
            <name>39.6 km; 01:46 h (OSRM)</name>
            <Placemark>
                <name>Route</name>
                <LineString>
                    <coordinates>114.1201460000,22.2813650000 114.1202070000,22.2813800000 114.1202380000,22.2813890000 114.1205010000,22.2814620000 114.1221950000,22.2820160000 114.1223280000,22.2820600000 114.1229080000,22.2822540000 114.1230000000,22.2822880000 114.1230430000,22.2822970000 114.1230940000,22.2822990000 114.1231340000,22.2822910000 114.1231660000,22.2822710000 114.1231910000,22.2822440000 114.1232120000,22.2822090000 114.1232200000,22.2821800000 114.1232720000,22.2820140000 114.1233230000,22.2818510000 114.1240670000,22.2819750000 114.1247530000,22.2820890000 114.1252720000,22.2821650000 114.1254140000,22.2821880000 114.1259310000,22.2822710000 114.1260040000,22.2823340000 114.1260410000,22.2823870000 114.1260500000,22.2824220000 114.1260350000,22.2825220000 114.1259600000,22.2829120000 114.1259530000,22.2829520000 114.1258450000,22.2835250000 114.1258460000,22.2835560000 114.1258580000,22.2835830000 114.1258800000,22.2836100000 114.1259130000,22.2836300000 114.1259580000,22.2836480000 114.1260080000,22.2836570000 114.1266150000,22.2837580000 114.1275610000,22.2839190000 114.1277100000,22.2839480000 114.1278560000,22.2839790000 114.1279630000,22.2841030000 114.1280470000,22.2841520000 114.1281100000,22.2841730000 114.1281730000,22.2841900000 114.1282740000,22.2842170000 114.1284920000,22.2842720000 114.1285810000,22.2842990000 114.1286660000,22.2843290000 114.1287950000,22.2843860000 114.1288870000,22.2844330000 114.1289820000,22.2844880000 114.1290830000,22.2845550000 114.1291770000,22.2846220000 114.1294390000,22.2848550000 114.1297200000,22.2851050000 114.1305270000,22.2858220000 114.1306330000,22.2859210000 114.1307220000,22.2860070000 114.1307840000,22.2859470000 114.1308470000,22.2858830000 114.1308910000,22.2858370000 114.1313190000,22.2854150000 114.1313810000,22.2853520000 114.1314050000,22.2853300000 114.1314380000,22.2853000000 114.1315330000,22.2853990000 114.1316110000,22.2854880000 114.1316670000,22.2855770000 114.1318710000,22.2859360000 114.1321210000,22.2863660000 114.1322440000,22.2865890000 114.1323250000,22.2867290000 114.1323940000,22.2868440000 114.1324620000,22.2869550000 114.1325370000,22.2870630000 114.1326120000,22.2871700000 114.1326910000,22.2872350000 114.1327570000,22.2872770000 114.1328550000,22.2873220000 114.1329290000,22.2873470000 114.1330150000,22.2873640000 114.1330930000,22.2873720000 114.1331940000,22.2873750000 114.1333400000,22.2873700000 114.1336320000,22.2873130000 114.1337240000,22.2872940000 114.1337840000,22.2872810000 114.1338190000,22.2872730000 114.1338680000,22.2872630000 114.1340010000,22.2872520000 114.1341900000,22.2872140000 114.1347130000,22.2871000000 114.1347660000,22.2870880000 114.1349660000,22.2870170000 114.1349890000,22.2870090000 114.1351720000,22.2869440000 114.1352490000,22.2869220000 114.1352760000,22.2869170000 114.1354500000,22.2868780000 114.1354950000,22.2868670000 114.1357450000,22.2868100000 114.1357790000,22.2868020000 114.1359970000,22.2867550000 114.1360770000,22.2867370000 114.1361140000,22.2867360000 114.1361580000,22.2867440000 114.1365110000,22.2868510000 114.1365640000,22.2868660000 114.1366390000,22.2868870000 114.1369880000,22.2869850000 114.1374180000,22.2871050000 114.1375140000,22.2871310000 114.1376110000,22.2871570000 114.1382790000,22.2873430000 114.1384740000,22.2873970000 114.1387390000,22.2874670000 114.1388050000,22.2874850000 114.1394180000,22.2876350000 114.1394490000,22.2876430000 114.1404230000,22.2879110000 114.1407670000,22.2880040000 114.1408140000,22.2880090000 114.1408380000,22.2880100000 114.1409040000,22.2880110000 114.1412910000,22.2879880000 114.1415200000,22.2879830000 114.1419160000,22.2879680000 114.1423240000,22.2879490000 114.1423630000,22.2879470000 114.1427060000,22.2879360000 114.1430590000,22.2879290000 114.1434110000,22.2879260000 114.1437190000,22.2879130000 114.1437970000,22.2879110000 114.1438990000,22.2879070000 114.1441330000,22.2879000000 114.1444160000,22.2878900000 114.1448280000,22.2878810000 114.1448810000,22.2878800000 114.1453890000,22.2878540000 114.1458810000,22.2878180000 114.1460050000,22.2878000000 114.1466000000,22.2877530000 114.1469280000,22.2877250000 114.1470370000,22.2877160000 114.1471310000,22.2877090000 114.1472090000,22.2877060000 114.1472380000,22.2877060000 114.1472730000,22.2877180000 114.1475040000,22.2878610000 114.1477960000,22.2880760000 114.1478880000,22.2881430000 114.1479510000,22.2881880000 114.1479890000,22.2882190000 114.1480730000,22.2883040000 114.1481130000,22.2883090000 114.1491290000,22.2880440000 114.1502600000,22.2877480000 114.1504870000,22.2876880000 114.1506280000,22.2876460000 114.1515090000,22.2873890000 114.1514970000,22.2873210000 114.1514870000,22.2872850000 114.1513530000,22.2868290000 114.1513410000,22.2867850000 114.1513980000,22.2867710000 114.1519950000,22.2866220000 114.1520930000,22.2865970000 114.1525300000,22.2864880000 114.1530190000,22.2863670000 114.1531530000,22.2863280000 114.1532370000,22.2862990000 114.1532920000,22.2862760000 114.1533880000,22.2862270000 114.1534120000,22.2862140000 114.1534300000,22.2862030000 114.1536040000,22.2861120000 114.1537690000,22.2860190000 114.1540540000,22.2858580000 114.1540720000,22.2858480000 114.1542960000,22.2857230000 114.1547410000,22.2854620000 114.1548190000,22.2854160000 114.1551070000,22.2852450000 114.1552710000,22.2851460000 114.1553440000,22.2850950000 114.1554140000,22.2850390000 114.1554490000,22.2850040000 114.1555660000,22.2848600000 114.1557210000,22.2846710000 114.1557800000,22.2846000000 114.1558770000,22.2844830000 114.1558890000,22.2844680000 114.1559300000,22.2844190000 114.1559920000,22.2843430000 114.1560960000,22.2842140000 114.1561130000,22.2841940000 114.1562840000,22.2839810000 114.1565030000,22.2837100000 114.1565300000,22.2836750000 114.1565540000,22.2836440000 114.1568590000,22.2832570000 114.1570290000,22.2830420000 114.1574890000,22.2824530000 114.1576590000,22.2822430000 114.1578280000,22.2820330000 114.1578690000,22.2819790000 114.1579320000,22.2819650000 114.1587590000,22.2817440000 114.1589750000,22.2816880000 114.1590730000,22.2816860000 114.1595440000,22.2815590000 114.1596500000,22.2815310000 114.1597490000,22.2815060000 114.1598080000,22.2815050000 114.1599740000,22.2814610000 114.1601270000,22.2814200000 114.1602600000,22.2813880000 114.1602980000,22.2813790000 114.1603590000,22.2813630000 114.1604530000,22.2813530000 114.1605890000,22.2813180000 114.1606850000,22.2812890000 114.1607320000,22.2812510000 114.1608520000,22.2812180000 114.1609520000,22.2811900000 114.1612150000,22.2811180000 114.1613660000,22.2810790000 114.1615750000,22.2810230000 114.1619060000,22.2809410000 114.1619460000,22.2809280000 114.1620010000,22.2808790000 114.1620420000,22.2807810000 114.1617730000,22.2800710000 114.1617540000,22.2799960000 114.1617510000,22.2799460000 114.1617670000,22.2798980000 114.1618210000,22.2798220000 114.1619180000,22.2797670000 114.1622910000,22.2796350000 114.1625660000,22.2795200000 114.1627940000,22.2794240000 114.1630800000,22.2792270000 114.1632720000,22.2790910000 114.1634180000,22.2789860000 114.1637830000,22.2787610000 114.1638870000,22.2787080000 114.1641010000,22.2785860000 114.1642450000,22.2785260000 114.1642840000,22.2785100000 114.1644630000,22.2784390000 114.1645500000,22.2784100000 114.1646820000,22.2783710000 114.1648080000,22.2783380000 114.1648740000,22.2783200000 114.1650010000,22.2782960000 114.1650590000,22.2782850000 114.1650790000,22.2782820000 114.1654120000,22.2782340000 114.1656050000,22.2782090000 114.1659390000,22.2781650000 114.1663180000,22.2781070000 114.1669630000,22.2780500000 114.1671340000,22.2780250000 114.1672900000,22.2779990000 114.1676920000,22.2779590000 114.1679990000,22.2779280000 114.1684570000,22.2778830000 114.1685890000,22.2778690000 114.1687860000,22.2778500000 114.1689320000,22.2778360000 114.1691810000,22.2778110000 114.1693720000,22.2777930000 114.1701790000,22.2777130000 114.1702710000,22.2777040000 114.1703510000,22.2777000000 114.1714640000,22.2776030000 114.1716220000,22.2775890000 114.1718330000,22.2775710000 114.1721200000,22.2775530000 114.1721550000,22.2775530000 114.1729740000,22.2776400000 114.1733680000,22.2776830000 114.1737500000,22.2777240000 114.1741630000,22.2777680000 114.1741690000,22.2777690000 114.1746240000,22.2778180000 114.1747140000,22.2778260000 114.1747610000,22.2778310000 114.1760850000,22.2779650000 114.1768130000,22.2780390000 114.1770770000,22.2781010000 114.1778680000,22.2783390000 114.1780270000,22.2783840000 114.1787880000,22.2785990000 114.1789170000,22.2786380000 114.1794800000,22.2788040000 114.1795100000,22.2788140000 114.1796990000,22.2788750000 114.1798290000,22.2789260000 114.1804030000,22.2791380000 114.1806000000,22.2792100000 114.1810590000,22.2793860000 114.1811380000,22.2794150000 114.1813180000,22.2794790000 114.1821430000,22.2797800000 114.1824900000,22.2799070000 114.1826760000,22.2799770000 114.1827180000,22.2799930000 114.1830170000,22.2801060000 114.1830290000,22.2801110000 114.1831080000,22.2801390000 114.1831670000,22.2801490000 114.1832310000,22.2801550000 114.1832730000,22.2801560000 114.1842570000,22.2801810000 114.1843190000,22.2801820000 114.1845770000,22.2801860000 114.1845980000,22.2801860000 114.1846230000,22.2801840000 114.1846840000,22.2801740000 114.1847820000,22.2801540000 114.1848040000,22.2801520000 114.1848330000,22.2801460000 114.1849070000,22.2801240000 114.1849770000,22.2801000000 114.1858170000,22.2798480000 114.1860330000,22.2797770000 114.1861760000,22.2797330000 114.1861930000,22.2797280000 114.1863660000,22.2796810000 114.1869210000,22.2795140000 114.1869570000,22.2795040000 114.1871390000,22.2794510000 114.1872990000,22.2794630000 114.1874440000,22.2794810000 114.1876100000,22.2795380000 114.1878280000,22.2796260000 114.1880330000,22.2797400000 114.1883320000,22.2799260000 114.1886080000,22.2801090000 114.1888300000,22.2802620000 114.1893740000,22.2806350000 114.1894070000,22.2806570000 114.1896180000,22.2808030000 114.1907410000,22.2815470000 114.1908220000,22.2816040000 114.1909590000,22.2817120000 114.1912010000,22.2818720000 114.1912300000,22.2818930000 114.1912890000,22.2819310000 114.1912600000,22.2819980000 114.1912580000,22.2820770000 114.1912380000,22.2825130000 114.1912340000,22.2826040000 114.1912320000,22.2826720000 114.1911100000,22.2826690000 114.1910210000,22.2826640000 114.1909770000,22.2837050000 114.1909920000,22.2837250000 114.1910160000,22.2837380000 114.1910570000,22.2837460000 114.1911080000,22.2837490000 114.1911780000,22.2837530000 114.1911770000,22.2838100000 114.1911730000,22.2839760000 114.1911610000,22.2841510000 114.1911100000,22.2844320000 114.1910580000,22.2846940000 114.1910490000,22.2847270000 114.1910130000,22.2848320000 114.1909610000,22.2849540000 114.1908750000,22.2851120000 114.1908600000,22.2851410000 114.1908150000,22.2852210000 114.1907830000,22.2852790000 114.1907500000,22.2853410000 114.1907410000,22.2853550000 114.1906650000,22.2854110000 114.1906230000,22.2854630000 114.1904910000,22.2856070000 114.1904200000,22.2856750000 114.1903570000,22.2857350000 114.1902910000,22.2857840000 114.1902360000,22.2858210000 114.1901890000,22.2858560000 114.1895060000,22.2862750000 114.1892900000,22.2864100000 114.1892140000,22.2864700000 114.1891900000,22.2864960000 114.1891460000,22.2865500000 114.1891100000,22.2865990000 114.1890880000,22.2866330000 114.1890700000,22.2866660000 114.1890500000,22.2867100000 114.1890300000,22.2867600000 114.1890200000,22.2868000000 114.1890050000,22.2868700000 114.1890000000,22.2869400000 114.1890100000,22.2870500000 114.1890400000,22.2871600000 114.1890800000,22.2872500000 114.1891200000,22.2873200000 114.1892100000,22.2874600000 114.1893700000,22.2876400000 114.1895600000,22.2878400000 114.1897200000,22.2880400000 114.1898300000,22.2882200000 114.1899600000,22.2884400000 114.1902500000,22.2889500000 114.1904500000,22.2892800000 114.1905900000,22.2894800000 114.1907500000,22.2896800000 114.1910500000,22.2900000000 114.1913500000,22.2902800000 114.1921570000,22.2909910000 114.1925530000,22.2913100000 114.1930300000,22.2917050000 114.1934810000,22.2920410000 114.1939680000,22.2923540000 114.1942060000,22.2924870000 114.1945320000,22.2926440000 114.1947500000,22.2927460000 114.1950570000,22.2928690000 114.1953540000,22.2929670000 114.1955810000,22.2930280000 114.1974960000,22.2934010000 114.1979200000,22.2934800000 114.1981920000,22.2935260000 114.1983380000,22.2935420000 114.1987100000,22.2935630000 114.1992000000,22.2935690000 114.1995900000,22.2935850000 114.1997700000,22.2936020000 114.1999500000,22.2936270000 114.2001000000,22.2936520000 114.2015930000,22.2939620000 114.2024440000,22.2941380000 114.2030190000,22.2942370000 114.2035020000,22.2942680000 114.2039630000,22.2942450000 114.2043950000,22.2941960000 114.2046420000,22.2941520000 114.2049520000,22.2940830000 114.2062020000,22.2936700000 114.2087800000,22.2929170000 114.2089200000,22.2928580000 114.2091980000,22.2927280000 114.2095760000,22.2925290000 114.2109640000,22.2915430000 114.2110940000,22.2914520000 114.2113260000,22.2912910000 114.2117220000,22.2910340000 114.2127980000,22.2904230000 114.2131270000,22.2902740000 114.2133740000,22.2901710000 114.2137460000,22.2900270000 114.2138760000,22.2899270000 114.2139100000,22.2899030000 114.2140390000,22.2898090000 114.2141610000,22.2896960000 114.2142270000,22.2895560000 114.2142640000,22.2894590000 114.2143080000,22.2893090000 114.2143250000,22.2891400000 114.2143050000,22.2889980000 114.2142910000,22.2889580000 114.2142440000,22.2888240000 114.2141930000,22.2887170000 114.2140410000,22.2885210000 114.2138940000,22.2883660000 114.2137190000,22.2882520000 114.2134430000,22.2881320000 114.2132170000,22.2880760000 114.2130260000,22.2880630000 114.2128020000,22.2880860000 114.2125800000,22.2881630000 114.2123010000,22.2883200000 114.2122220000,22.2883870000 114.2121390000,22.2884860000 114.2120780000,22.2885770000 114.2120140000,22.2887040000 114.2119800000,22.2888350000 114.2119630000,22.2890450000 114.2119940000,22.2892140000 114.2120370000,22.2893590000 114.2121060000,22.2895190000 114.2122160000,22.2896630000 114.2123560000,22.2897930000 114.2124630000,22.2898660000 114.2126220000,22.2899550000 114.2127730000,22.2900300000 114.2129420000,22.2901140000 114.2305570000,22.2992700000 114.2310350000,22.2995250000 114.2312230000,22.2996440000 114.2313170000,22.2997030000 114.2314120000,22.2997630000 114.2318030000,22.3000300000 114.2327330000,22.3005560000 114.2335540000,22.3010200000 114.2335880000,22.3010390000 114.2339000000,22.3012080000 114.2343000000,22.3014850000 114.2344290000,22.3016270000 114.2346370000,22.3018290000 114.2347090000,22.3019090000 114.2347510000,22.3019700000 114.2347590000,22.3019780000 114.2348430000,22.3020890000 114.2348800000,22.3021530000 114.2350300000,22.3024000000 114.2351410000,22.3026440000 114.2352150000,22.3028960000 114.2352510000,22.3030720000 114.2352610000,22.3033160000 114.2352540000,22.3035470000 114.2352270000,22.3036890000 114.2351910000,22.3038310000 114.2351530000,22.3039340000 114.2350900000,22.3040520000 114.2350440000,22.3041380000 114.2349810000,22.3041820000 114.2349300000,22.3042390000 114.2348950000,22.3043040000 114.2348760000,22.3043750000 114.2348760000,22.3044490000 114.2348870000,22.3045010000 114.2349070000,22.3045500000 114.2349850000,22.3046490000 114.2350970000,22.3047130000 114.2352170000,22.3047180000 114.2352790000,22.3047110000 114.2353200000,22.3047000000 114.2353800000,22.3046760000 114.2354440000,22.3046320000 114.2354950000,22.3045770000 114.2355540000,22.3044720000 114.2355570000,22.3044330000 114.2356290000,22.3043270000 114.2357710000,22.3041650000 114.2359520000,22.3039580000 114.2361220000,22.3037530000 114.2362390000,22.3036180000 114.2363470000,22.3034750000 114.2363960000,22.3034120000 114.2364990000,22.3032960000 114.2365300000,22.3032570000 114.2366600000,22.3030720000 114.2370080000,22.3025820000 114.2370740000,22.3025010000 114.2373460000,22.3021380000 114.2381180000,22.3010240000 114.2382880000,22.3007600000 114.2383160000,22.3007060000 114.2383710000,22.3005900000 114.2384670000,22.3003340000 114.2385530000,22.3001310000 114.2386310000,22.2999070000 114.2386670000,22.2998140000 114.2387800000,22.2994690000 114.2392390000,22.2981440000 114.2394760000,22.2974580000 114.2395860000,22.2971390000 114.2400540000,22.2957570000 114.2400860000,22.2955930000 114.2400970000,22.2955220000 114.2401070000,22.2954800000 114.2401530000,22.2954610000 114.2401610000,22.2954310000 114.2401620000,22.2954010000 114.2401530000,22.2953710000 114.2402690000,22.2952940000 114.2404090000,22.2952570000 114.2405410000,22.2952480000 114.2406560000,22.2952530000 114.2407700000,22.2952900000 114.2408600000,22.2953480000 114.2408850000,22.2953760000 114.2409950000,22.2954990000 114.2416280000,22.2962620000 114.2417210000,22.2963710000 114.2418510000,22.2965310000 114.2419510000,22.2966440000 114.2420270000,22.2967280000 114.2421500000,22.2968680000 114.2422930000,22.2970650000 114.2423440000,22.2971730000 114.2423680000,22.2972750000 114.2423570000,22.2974310000 114.2423270000,22.2975520000 114.2422450000,22.2976900000 114.2421250000,22.2977950000 114.2419430000,22.2978710000 114.2415180000,22.2979470000 114.2414060000,22.2979590000 114.2412370000,22.2979680000 114.2411250000,22.2979650000 114.2410290000,22.2979570000 114.2409540000,22.2979420000 114.2407940000,22.2979070000 114.2406450000,22.2978910000 114.2405800000,22.2979040000 114.2405210000,22.2979270000 114.2405160000,22.2979310000 114.2404400000,22.2979900000 114.2405690000,22.2981440000 114.2405970000,22.2981850000 114.2407100000,22.2983480000 114.2415770000,22.2995600000 114.2417000000,22.2997770000 114.2417770000,22.2999780000 114.2418230000,22.3003230000 114.2418190000,22.3004610000 114.2418080000,22.3006300000 114.2417850000,22.3007960000 114.2417380000,22.3010420000 114.2416850000,22.3012630000 114.2415970000,22.3014440000 114.2415060000,22.3016270000 114.2414060000,22.3017670000 114.2412270000,22.3019470000 114.2409630000,22.3021210000 114.2407510000,22.3022290000 114.2406680000,22.3022570000 114.2403410000,22.3023690000 114.2400620000,22.3024530000 114.2396780000,22.3025690000 114.2395150000,22.3026360000 114.2392870000,22.3027290000 114.2391510000,22.3027930000 114.2389940000,22.3029090000 114.2388790000,22.3030040000 114.2387710000,22.3031130000 114.2386130000,22.3033230000 114.2385980000,22.3033520000 114.2385160000,22.3035070000 114.2385050000,22.3035280000 114.2383810000,22.3037820000 114.2383220000,22.3039390000 114.2383000000,22.3040300000 114.2382870000,22.3041020000 114.2382780000,22.3041560000 114.2382690000,22.3042110000 114.2382610000,22.3043130000 114.2382620000,22.3044170000 114.2382660000,22.3045070000 114.2382760000,22.3046100000 114.2382870000,22.3046950000 114.2383050000,22.3047850000 114.2383280000,22.3048700000 114.2383480000,22.3049390000 114.2383670000,22.3049870000 114.2383810000,22.3050260000 114.2384530000,22.3051940000 114.2386790000,22.3056740000 114.2390230000,22.3063540000 114.2391190000,22.3065590000 114.2391850000,22.3066900000 114.2392500000,22.3069080000 114.2392890000,22.3071030000 114.2393110000,22.3072610000 114.2393490000,22.3076170000 114.2393610000,22.3078000000 114.2393540000,22.3080220000 114.2393380000,22.3081610000 114.2393040000,22.3084400000 114.2392900000,22.3085290000 114.2392200000,22.3087900000 114.2391420000,22.3090140000 114.2390460000,22.3092610000 114.2390070000,22.3093580000 114.2389740000,22.3094420000 114.2387060000,22.3100640000 114.2386430000,22.3102070000 114.2385320000,22.3104780000 114.2384830000,22.3106030000 114.2383960000,22.3108060000 114.2383390000,22.3109270000 114.2383150000,22.3109880000 114.2381020000,22.3114410000 114.2379580000,22.3117650000 114.2378730000,22.3119550000 114.2378530000,22.3119460000 114.2378310000,22.3119450000 114.2378100000,22.3119500000 114.2377920000,22.3119620000 114.2377790000,22.3119790000 114.2377720000,22.3119980000 114.2377740000,22.3120190000 114.2375010000,22.3120800000 114.2373350000,22.3121180000 114.2372490000,22.3120820000 114.2371990000,22.3120400000 114.2371500000,22.3119620000 114.2371150000,22.3118810000 114.2371130000,22.3118090000 114.2371270000,22.3115720000 114.2371280000,22.3114020000 114.2371510000,22.3113930000 114.2371700000,22.3113790000 114.2371840000,22.3113610000 114.2371920000,22.3113400000 114.2371930000,22.3113180000 114.2371880000,22.3112960000 114.2372400000,22.3111940000 114.2373430000,22.3110020000 114.2374890000,22.3107470000 114.2376330000,22.3104730000 114.2377390000,22.3102090000 114.2377490000,22.3101530000 114.2377540000,22.3100970000 114.2377310000,22.3098950000 114.2377130000,22.3097650000 114.2377100000,22.3096290000 114.2377060000,22.3095060000 114.2376960000,22.3091310000 114.2376130000,22.3091640000 114.2375890000,22.3092040000 114.2375730000,22.3092480000 114.2375660000,22.3092930000 114.2375530000,22.3095390000 114.2375380000,22.3095650000 114.2374850000,22.3096020000 114.2374380000,22.3096030000 114.2373910000,22.3096020000 114.2373440000,22.3096020000 114.2372970000,22.3096020000 114.2372970000,22.3096020000 114.2372470000,22.3096110000 114.2371950000,22.3096370000 114.2371900000,22.3097150000 114.2371840000,22.3097980000 114.2367380000,22.3098240000 114.2356460000,22.3098890000 114.2352790000,22.3099070000 114.2352820000,22.3100550000 114.2353530000,22.3107070000 114.2353670000,22.3107930000 114.2353580000,22.3108560000 114.2354400000,22.3111360000 114.2356150000,22.3114620000 114.2358050000,22.3117580000 114.2359470000,22.3119630000 114.2360630000,22.3121000000 114.2361890000,22.3121980000 114.2363210000,22.3122670000 114.2364700000,22.3123070000 114.2365910000,22.3123150000 114.2367430000,22.3123060000 114.2370740000,22.3122180000 114.2371290000,22.3121710000 114.2373350000,22.3121180000 114.2375010000,22.3120800000 114.2377740000,22.3120190000 114.2377810000,22.3120360000 114.2377950000,22.3120510000 114.2378120000,22.3120610000 114.2378320000,22.3120650000 114.2378530000,22.3120640000 114.2378720000,22.3120560000 114.2378870000,22.3120440000 114.2378980000,22.3120280000 114.2379030000,22.3120080000 114.2379000000,22.3119870000 114.2378900000,22.3119690000 114.2378730000,22.3119550000 114.2379580000,22.3117650000 114.2381020000,22.3114410000 114.2383150000,22.3109880000 114.2383390000,22.3109270000 114.2383960000,22.3108060000 114.2384830000,22.3106030000 114.2385320000,22.3104780000 114.2386430000,22.3102070000 114.2387060000,22.3100640000 114.2389740000,22.3094420000 114.2390070000,22.3093580000 114.2390460000,22.3092610000 114.2391420000,22.3090140000 114.2392200000,22.3087900000 114.2392900000,22.3085290000 114.2393040000,22.3084400000 114.2393380000,22.3081610000 114.2393540000,22.3080220000 114.2393610000,22.3078000000 114.2393490000,22.3076170000 114.2393110000,22.3072610000 114.2392890000,22.3071030000 114.2392500000,22.3069080000 114.2391850000,22.3066900000 114.2391190000,22.3065590000 114.2390230000,22.3063540000 114.2386790000,22.3056740000 114.2384530000,22.3051940000 114.2383810000,22.3050260000 114.2383670000,22.3049870000 114.2383480000,22.3049390000 114.2383280000,22.3048700000 114.2383050000,22.3047850000 114.2382870000,22.3046950000 114.2382760000,22.3046100000 114.2382660000,22.3045070000 114.2382620000,22.3044170000 114.2382610000,22.3043130000 114.2382690000,22.3042110000 114.2382780000,22.3041560000 114.2382870000,22.3041020000 114.2383000000,22.3040300000 114.2383220000,22.3039390000 114.2383810000,22.3037820000 114.2385050000,22.3035280000 114.2385160000,22.3035070000 114.2385980000,22.3033520000 114.2386130000,22.3033230000 114.2387710000,22.3031130000 114.2388790000,22.3030040000 114.2389940000,22.3029090000 114.2391510000,22.3027930000 114.2392870000,22.3027290000 114.2395150000,22.3026360000 114.2396780000,22.3025690000 114.2400620000,22.3024530000 114.2403410000,22.3023690000 114.2406680000,22.3022570000 114.2407510000,22.3022290000 114.2409630000,22.3021210000 114.2412270000,22.3019470000 114.2414060000,22.3017670000 114.2415060000,22.3016270000 114.2415970000,22.3014440000 114.2416850000,22.3012630000 114.2417380000,22.3010420000 114.2417850000,22.3007960000 114.2418080000,22.3006300000 114.2418190000,22.3004610000 114.2418230000,22.3003230000 114.2417770000,22.2999780000 114.2417000000,22.2997770000 114.2415770000,22.2995600000 114.2414900000,22.2994390000 114.2407100000,22.2983480000 114.2405970000,22.2981850000 114.2405690000,22.2981440000 114.2406190000,22.2980420000 114.2406560000,22.2979860000 114.2407940000,22.2979070000 114.2409540000,22.2979420000 114.2410290000,22.2979570000 114.2411250000,22.2979650000 114.2412370000,22.2979680000 114.2414060000,22.2979590000 114.2415180000,22.2979470000 114.2419430000,22.2978710000 114.2421250000,22.2977950000 114.2422450000,22.2976900000 114.2423270000,22.2975520000 114.2423570000,22.2974310000 114.2423680000,22.2972750000 114.2423440000,22.2971730000 114.2422930000,22.2970650000 114.2421500000,22.2968680000 114.2420270000,22.2967280000 114.2419510000,22.2966440000 114.2418510000,22.2965310000 114.2417210000,22.2963710000 114.2416280000,22.2962620000 114.2409950000,22.2954990000 114.2408850000,22.2953760000 114.2408600000,22.2953480000 114.2407700000,22.2952900000 114.2406560000,22.2952530000 114.2405410000,22.2952480000 114.2404090000,22.2952570000 114.2402690000,22.2952940000 114.2401530000,22.2953710000 114.2401310000,22.2953380000 114.2400990000,22.2953130000 114.2400600000,22.2952990000 114.2400180000,22.2952970000 114.2399770000,22.2953080000 114.2399640000,22.2953170000 114.2399430000,22.2953300000 114.2399180000,22.2953620000 114.2399060000,22.2953990000 114.2399060000,22.2954310000 114.2399150000,22.2954620000 114.2399330000,22.2954900000 114.2399280000,22.2955050000 114.2399410000,22.2955940000 114.2399470000,22.2956440000 114.2399440000,22.2956820000 114.2399350000,22.2957370000 114.2397140000,22.2964490000 114.2395400000,22.2969730000 114.2394930000,22.2971090000 114.2389610000,22.2986560000 114.2387540000,22.2992650000 114.2386410000,22.2995980000 114.2383700000,22.3003010000 114.2383600000,22.3003260000 114.2383520000,22.3003470000 114.2382740000,22.3005580000 114.2382370000,22.3006420000 114.2380540000,22.3009580000 114.2378670000,22.3012200000 114.2375760000,22.3016290000 114.2371010000,22.3022950000 114.2370880000,22.3023130000 114.2369890000,22.3024500000 114.2369310000,22.3025290000 114.2368000000,22.3027030000 114.2365590000,22.3030250000 114.2364900000,22.3030750000 114.2364150000,22.3031050000 114.2363770000,22.3031050000 114.2362780000,22.3031040000 114.2362030000,22.3030780000 114.2360980000,22.3030080000 114.2356490000,22.3024520000 114.2352890000,22.3020610000 114.2350730000,22.3018400000 114.2347040000,22.3015370000 114.2345690000,22.3014400000 114.2343870000,22.3013330000 114.2342050000,22.3012230000 114.2339520000,22.3010590000 114.2339070000,22.3010320000 114.2328620000,22.3004000000 114.2320970000,22.2999830000 114.2314960000,22.2996710000 114.2314790000,22.2996620000 114.2313780000,22.2996060000 114.2312930000,22.2995590000 114.2310720000,22.2994350000 114.2306190000,22.2991810000 114.2130560000,22.2900030000 114.2128440000,22.2899070000 114.2127060000,22.2898440000 114.2125860000,22.2897730000 114.2124740000,22.2897070000 114.2123600000,22.2896000000 114.2122670000,22.2894860000 114.2122090000,22.2893950000 114.2121680000,22.2892920000 114.2121400000,22.2891850000 114.2121200000,22.2890270000 114.2121470000,22.2888410000 114.2122100000,22.2886710000 114.2122970000,22.2885530000 114.2123720000,22.2884540000 114.2125920000,22.2883350000 114.2127050000,22.2882850000 114.2128370000,22.2882520000 114.2129310000,22.2882380000 114.2130360000,22.2882330000 114.2131290000,22.2882440000 114.2132290000,22.2882680000 114.2133810000,22.2883260000 114.2135580000,22.2884230000 114.2137140000,22.2885590000 114.2137880000,22.2886670000 114.2138470000,22.2887930000 114.2138980000,22.2889250000 114.2139040000,22.2889730000 114.2139110000,22.2890290000 114.2139090000,22.2891500000 114.2138910000,22.2892930000 114.2138620000,22.2894010000 114.2138170000,22.2894870000 114.2137510000,22.2895840000 114.2136610000,22.2896970000 114.2135260000,22.2898360000 114.2134440000,22.2899090000 114.2132930000,22.2900340000 114.2130020000,22.2901740000 114.2112110000,22.2912520000 114.2110520000,22.2913550000 114.2102020000,22.2919430000 114.2096630000,22.2923130000 114.2094140000,22.2924730000 114.2091510000,22.2926110000 114.2088090000,22.2927710000 114.2086260000,22.2928390000 114.2066660000,22.2934180000 114.2048450000,22.2939720000 114.2044740000,22.2940720000 114.2040710000,22.2941290000 114.2036420000,22.2941610000 114.2031550000,22.2941450000 114.2025710000,22.2940510000 114.2021610000,22.2939730000 114.1999680000,22.2935100000 114.1996280000,22.2934690000 114.1992060000,22.2934470000 114.1987250000,22.2934460000 114.1983660000,22.2934260000 114.1979580000,22.2933590000 114.1975110000,22.2932730000 114.1959400000,22.2929700000 114.1958270000,22.2929420000 114.1954170000,22.2928260000 114.1952010000,22.2927610000 114.1949910000,22.2926820000 114.1948430000,22.2926160000 114.1945340000,22.2924340000 114.1942910000,22.2922790000 114.1940140000,22.2920940000 114.1938200000,22.2919420000 114.1936310000,22.2917620000 114.1934360000,22.2915500000 114.1913760000,22.2893230000 114.1906780000,22.2885800000 114.1900380000,22.2879220000 114.1899950000,22.2878760000 114.1899340000,22.2877300000 114.1898030000,22.2875420000 114.1897230000,22.2874170000 114.1896420000,22.2872440000 114.1896050000,22.2871200000 114.1895680000,22.2869730000 114.1895480000,22.2868290000 114.1895440000,22.2867480000 114.1895460000,22.2866670000 114.1895560000,22.2865690000 114.1895830000,22.2864960000 114.1896360000,22.2863800000 114.1896790000,22.2863080000 114.1897500000,22.2862100000 114.1898400000,22.2861400000 114.1902300000,22.2859020000 114.1904650000,22.2857300000 114.1905820000,22.2856180000 114.1906380000,22.2855580000 114.1906900000,22.2855040000 114.1907260000,22.2854480000 114.1907410000,22.2853550000 114.1907500000,22.2853410000 114.1907830000,22.2852790000 114.1908150000,22.2852210000 114.1908990000,22.2852250000 114.1910840000,22.2852330000 114.1915350000,22.2852540000 114.1916240000,22.2852530000 114.1917740000,22.2852650000 114.1919230000,22.2852730000 114.1927790000,22.2853240000 114.1928590000,22.2853260000 114.1928950000,22.2853210000 114.1929180000,22.2853190000 114.1929770000,22.2853080000 114.1928810000,22.2847740000 114.1928040000,22.2843680000 114.1927660000,22.2841910000 114.1926440000,22.2836020000 114.1926200000,22.2835040000 114.1925970000,22.2834320000 114.1925410000,22.2832850000 114.1924650000,22.2831050000 114.1923930000,22.2829500000 114.1923570000,22.2828710000 114.1922150000,22.2825790000 114.1921440000,22.2824650000 114.1920560000,22.2823530000 114.1920140000,22.2823010000 114.1919750000,22.2822570000 114.1919140000,22.2821900000 114.1918890000,22.2821650000 114.1918560000,22.2821370000 114.1917750000,22.2820740000 114.1917060000,22.2820260000 114.1914710000,22.2818590000 114.1914570000,22.2818500000 114.1913320000,22.2817650000 114.1912640000,22.2817210000 114.1909050000,22.2814850000 114.1908200000,22.2814290000 114.1903820000,22.2811300000 114.1896450000,22.2806250000 114.1895030000,22.2805270000 114.1894440000,22.2804870000 114.1892150000,22.2803310000 114.1891820000,22.2803080000 114.1889360000,22.2801400000 114.1886970000,22.2799780000 114.1881330000,22.2796030000 114.1879860000,22.2795050000 114.1876680000,22.2792970000 114.1874460000,22.2792250000 114.1872960000,22.2791620000 114.1871790000,22.2790800000 114.1870900000,22.2789780000 114.1870800000,22.2789670000 114.1870450000,22.2789320000 114.1870060000,22.2789070000 114.1869460000,22.2788910000 114.1868830000,22.2788930000 114.1861070000,22.2790250000 114.1860490000,22.2790430000 114.1859260000,22.2791050000 114.1856680000,22.2792560000 114.1852120000,22.2795350000 114.1851230000,22.2795890000 114.1845530000,22.2799520000 114.1845240000,22.2799710000 114.1843960000,22.2800340000 114.1843470000,22.2800580000 114.1839810000,22.2800420000 114.1837640000,22.2800350000 114.1832760000,22.2800250000 114.1832390000,22.2800200000 114.1831920000,22.2800150000 114.1831290000,22.2799950000 114.1827680000,22.2798690000 114.1827590000,22.2798650000 114.1827320000,22.2798540000 114.1826860000,22.2798370000 114.1825440000,22.2797820000 114.1824730000,22.2797550000 114.1817970000,22.2795210000 114.1814820000,22.2794010000 114.1813620000,22.2793540000 114.1810330000,22.2792200000 114.1810170000,22.2792150000 114.1806970000,22.2790960000 114.1802340000,22.2789270000 114.1798540000,22.2787900000 114.1798050000,22.2787730000 114.1796440000,22.2787190000 114.1796170000,22.2787090000 114.1795370000,22.2786870000 114.1795030000,22.2786770000 114.1794280000,22.2786550000 114.1785530000,22.2783790000 114.1781550000,22.2782560000 114.1774830000,22.2780630000 114.1771600000,22.2779710000 114.1770250000,22.2779450000 114.1769650000,22.2779390000 114.1767940000,22.2779240000 114.1766400000,22.2779070000 114.1764980000,22.2778920000 114.1754740000,22.2777860000 114.1753270000,22.2777720000 114.1748870000,22.2777290000 114.1747750000,22.2777180000 114.1745480000,22.2776960000 114.1742060000,22.2776600000 114.1740320000,22.2776430000 114.1738680000,22.2776250000 114.1733630000,22.2775710000 114.1732660000,22.2775590000 114.1726580000,22.2774930000 114.1726160000,22.2774890000 114.1721470000,22.2774340000 114.1717310000,22.2774690000 114.1716670000,22.2774760000 114.1716020000,22.2774820000 114.1714550000,22.2774930000 114.1711990000,22.2775120000 114.1708780000,22.2775360000 114.1703370000,22.2775710000 114.1700670000,22.2775950000 114.1697600000,22.2776220000 114.1694230000,22.2776510000 114.1693980000,22.2776540000 114.1693450000,22.2776590000 114.1692610000,22.2776680000 114.1689470000,22.2776930000 114.1685170000,22.2777300000 114.1679670000,22.2777780000 114.1679210000,22.2777820000 114.1674650000,22.2778220000 114.1673240000,22.2778430000 114.1663690000,22.2779390000 114.1661220000,22.2779690000 114.1659210000,22.2779930000 114.1657880000,22.2780080000 114.1654950000,22.2780460000 114.1654670000,22.2780500000 114.1654250000,22.2780560000 114.1649730000,22.2781170000 114.1648760000,22.2781360000 114.1646860000,22.2781740000 114.1644950000,22.2782280000 114.1643070000,22.2782990000 114.1640380000,22.2784180000 114.1638230000,22.2785170000 114.1637050000,22.2785840000 114.1634530000,22.2787390000 114.1633770000,22.2787880000 114.1630190000,22.2790660000 114.1628030000,22.2792020000 114.1627540000,22.2792320000 114.1625970000,22.2793340000 114.1625700000,22.2793420000 114.1624630000,22.2793960000 114.1624150000,22.2794190000 114.1622890000,22.2794780000 114.1620130000,22.2795920000 114.1618520000,22.2796470000 114.1615670000,22.2797490000 114.1615240000,22.2797580000 114.1613930000,22.2797870000 114.1613130000,22.2798000000 114.1610710000,22.2798410000 114.1608870000,22.2798740000 114.1607940000,22.2799100000 114.1607310000,22.2799330000 114.1606710000,22.2799490000 114.1604820000,22.2799670000 114.1603650000,22.2799660000 114.1602120000,22.2799520000 114.1598660000,22.2799050000 114.1597630000,22.2798900000 114.1596450000,22.2798730000 114.1595200000,22.2798580000 114.1594570000,22.2798600000 114.1593770000,22.2798690000 114.1592960000,22.2798860000 114.1591330000,22.2799230000 114.1582220000,22.2801520000 114.1581400000,22.2801730000 114.1580420000,22.2802080000 114.1579420000,22.2802500000 114.1578840000,22.2802860000 114.1578160000,22.2803390000 114.1577610000,22.2803840000 114.1575890000,22.2805640000 114.1572560000,22.2809390000 114.1569470000,22.2813040000 114.1568840000,22.2813790000 114.1567690000,22.2815040000 114.1565830000,22.2817090000 114.1565180000,22.2817800000 114.1564730000,22.2818380000 114.1561480000,22.2822450000 114.1560410000,22.2823710000 114.1559330000,22.2825010000 114.1557480000,22.2827320000 114.1556900000,22.2828040000 114.1555480000,22.2829700000 114.1554840000,22.2830640000 114.1553510000,22.2832530000 114.1552360000,22.2833860000 114.1552170000,22.2834090000 114.1551630000,22.2834710000 114.1551300000,22.2835100000 114.1550840000,22.2835440000 114.1549400000,22.2836500000 114.1548960000,22.2836820000 114.1548360000,22.2837280000 114.1548060000,22.2837510000 114.1547300000,22.2838090000 114.1546650000,22.2838550000 114.1545130000,22.2839720000 114.1541970000,22.2841820000 114.1540630000,22.2842790000 114.1540250000,22.2843050000 114.1538510000,22.2844390000 114.1536380000,22.2846230000 114.1533510000,22.2848580000 114.1530930000,22.2850640000 114.1528410000,22.2852620000 114.1528190000,22.2852710000 114.1526290000,22.2853880000 114.1523930000,22.2855070000 114.1523830000,22.2855130000 114.1522760000,22.2855830000 114.1521270000,22.2856720000 114.1518740000,22.2857590000 114.1518510000,22.2857670000 114.1518050000,22.2857790000 114.1511300000,22.2859580000 114.1508220000,22.2860520000 114.1506650000,22.2861120000 114.1502810000,22.2863050000 114.1500430000,22.2864310000 114.1496500000,22.2866230000 114.1492270000,22.2864590000 114.1475620000,22.2878060000 114.1472790000,22.2876130000 114.1472300000,22.2875980000 114.1468880000,22.2876330000 114.1458760000,22.2877340000 114.1453900000,22.2877730000 114.1448780000,22.2878020000 114.1444120000,22.2878120000 114.1442320000,22.2878170000 114.1441290000,22.2878200000 114.1439050000,22.2878270000 114.1438010000,22.2878300000 114.1437110000,22.2878310000 114.1434090000,22.2878370000 114.1430590000,22.2878460000 114.1427020000,22.2878590000 114.1424180000,22.2878690000 114.1423580000,22.2878690000 114.1423200000,22.2878720000 114.1419120000,22.2878880000 114.1415150000,22.2879050000 114.1412880000,22.2879130000 114.1409040000,22.2879340000 114.1408320000,22.2879360000 114.1407870000,22.2879290000 114.1406920000,22.2879030000 114.1406290000,22.2878860000 114.1402550000,22.2877840000 114.1394410000,22.2875640000 114.1388310000,22.2874000000 114.1387760000,22.2873850000 114.1385040000,22.2873090000 114.1376370000,22.2870760000 114.1375640000,22.2870560000 114.1375370000,22.2870480000 114.1374510000,22.2870250000 114.1370100000,22.2869070000 114.1365890000,22.2867940000 114.1365330000,22.2867810000 114.1361680000,22.2866860000 114.1361170000,22.2866790000 114.1360640000,22.2866830000 114.1359830000,22.2867000000 114.1357580000,22.2867460000 114.1356710000,22.2867640000 114.1356510000,22.2867690000 114.1356140000,22.2867770000 114.1354320000,22.2868170000 114.1349900000,22.2869130000 114.1349610000,22.2869190000 114.1341000000,22.2871100000 114.1333310000,22.2873020000 114.1331980000,22.2873140000 114.1331010000,22.2873090000 114.1330370000,22.2872990000 114.1329650000,22.2872800000 114.1328960000,22.2872540000 114.1328100000,22.2872120000 114.1327520000,22.2871790000 114.1326820000,22.2871270000 114.1326090000,22.2870430000 114.1325470000,22.2869340000 114.1324280000,22.2867010000 114.1319920000,22.2858790000 114.1320820000,22.2858390000 114.1324220000,22.2856880000 114.1324860000,22.2856570000 114.1322580000,22.2851140000 114.1321200000,22.2849070000 114.1320310000,22.2848010000 114.1319760000,22.2847460000 114.1314610000,22.2843270000 114.1312440000,22.2841480000 114.1311790000,22.2840990000 114.1308910000,22.2838650000 114.1302350000,22.2833310000 114.1301260000,22.2832420000 114.1300100000,22.2831550000 114.1297400000,22.2829520000 114.1295960000,22.2828700000 114.1294460000,22.2828230000 114.1292150000,22.2827640000 114.1290990000,22.2827440000 114.1290100000,22.2827280000 114.1283010000,22.2826040000 114.1282140000,22.2825900000 114.1281260000,22.2825760000 114.1280280000,22.2825600000 114.1272510000,22.2824370000 114.1270280000,22.2824010000 114.1269850000,22.2823940000 114.1268850000,22.2823800000 114.1268900000,22.2823790000 114.1266380000,22.2823420000 114.1262940000,22.2822910000 114.1261840000,22.2822740000 114.1260980000,22.2822720000 114.1260710000,22.2822750000 114.1260240000,22.2822740000 114.1259310000,22.2822710000 114.1254140000,22.2821880000 114.1252720000,22.2821650000 114.1247530000,22.2820890000 114.1240670000,22.2819750000 114.1233230000,22.2818510000 114.1232720000,22.2820140000 114.1232200000,22.2821800000 114.1232120000,22.2822090000 114.1231910000,22.2822440000 114.1231660000,22.2822710000 114.1231340000,22.2822910000 114.1230940000,22.2822990000 114.1230430000,22.2822970000 114.1230000000,22.2822880000 114.1229080000,22.2822540000 114.1223280000,22.2820600000 114.1221950000,22.2820160000 114.1205010000,22.2814620000 114.1202380000,22.2813890000 114.1202070000,22.2813800000 114.1202010000,22.2813780000</coordinates>
                </LineString>
                <ExtendedData>
                    <Data name="length">
                        <value>39550.01452405069</value>
                    </Data>
                    <Data name="duration">
                        <value>01:46:15</value>
                    </Data>
                </ExtendedData>
            </Placemark>
        </Document>
    </Document>
</kml>