<?xml version="1.0" encoding="UTF-8"?>
<kml xmlns="http://www.opengis.net/kml/2.2" xmlns:gx="http://www.google.com/kml/ext/2.2">
    <Document>
        <name>Route</name>
        <Folder>
            <name>Route Request</name>
            <Placemark>
                <address>Block 15, Lung Chak Road, Yeung Siu Hang, Castle Peak Bay, Tsing Shan Tsuen, New Territories, Hong Kong, DD132 586, PRC</address>
                <Point>
                    <coordinates>114.0614290774,22.3672923940</coordinates>
                </Point>
                <ExtendedData>
                    <Data name="country_code">
                        <value>cn</value>
                    </Data>
                    <Data name="routingVisited">
                        <value>false</value>
                    </Data>
                    <Data name="building">
                        <value>Block 15</value>
                    </Data>
                    <Data name="postcode">
                        <value>DD132 586</value>
                    </Data>
                    <Data name="region">
                        <value>New Territories</value>
                    </Data>
                    <Data name="state">
                        <value>Hong Kong</value>
                    </Data>
                    <Data name="neighbourhood">
                        <value>Yeung Siu Hang</value>
                    </Data>
                    <Data name="suburb">
                        <value>Castle Peak Bay</value>
                    </Data>
                    <Data name="hamlet">
                        <value>Tsing Shan Tsuen</value>
                    </Data>
                    <Data name="road">
                        <value>Lung Chak Road</value>
                    </Data>
                    <Data name="country">
                        <value>PRC</value>
                    </Data>
                </ExtendedData>
            </Placemark>
            <Placemark>
                <Point>
                    <coordinates>114.0168122630,22.3632877260</coordinates>
                </Point>
            </Placemark>
            <Placemark>
                <address>Wu Boon House, 4, Wu Poon Street, Wu King Estate, Tuen Mun South, Tuen Mun, Tuen Mun District, New Territories, Hong Kong, China</address>
                <Point>
                    <coordinates>113.9654752203,22.3735725131</coordinates>
                </Point>
                <ExtendedData>
                    <Data name="country_code">
                        <value>cn</value>
                    </Data>
                    <Data name="building">
                        <value>Wu Boon House</value>
                    </Data>
                    <Data name="ISO3166-2-lvl3">
                        <value>CN-HK</value>
                    </Data>
                    <Data name="municipality">
                        <value>New Territories</value>
                    </Data>
                    <Data name="state">
                        <value>Hong Kong</value>
                    </Data>
                    <Data name="city">
                        <value>Tuen Mun District</value>
                    </Data>
                    <Data name="suburb">
                        <value>Tuen Mun South</value>
                    </Data>
                    <Data name="town">
                        <value>Tuen Mun</value>
                    </Data>
                    <Data name="house_number">
                        <value>4</value>
                    </Data>
                    <Data name="road">
                        <value>Wu Poon Street</value>
                    </Data>
                    <Data name="residential">
                        <value>Wu King Estate</value>
                    </Data>
                    <Data name="country">
                        <value>China</value>
                    </Data>
                </ExtendedData>
            </Placemark>
            <Placemark>
                <address>Wu Shan Road, Tuen Mun Pier Head, Tuen Mun South, Tsing Shan Tsuen, Tuen Mun District, New Territories, Hong Kong, China</address>
                <Point>
                    <coordinates>113.9671447826,22.3775202702</coordinates>
                </Point>
                <ExtendedData>
                    <Data name="country_code">
                        <value>cn</value>
                    </Data>
                    <Data name="village">
                        <value>Tsing Shan Tsuen</value>
                    </Data>
                    <Data name="ISO3166-2-lvl3">
                        <value>CN-HK</value>
                    </Data>
                    <Data name="municipality">
                        <value>New Territories</value>
                    </Data>
                    <Data name="state">
                        <value>Hong Kong</value>
                    </Data>
                    <Data name="quarter">
                        <value>Tuen Mun Pier Head</value>
                    </Data>
                    <Data name="city">
                        <value>Tuen Mun District</value>
                    </Data>
                    <Data name="suburb">
                        <value>Tuen Mun South</value>
                    </Data>
                    <Data name="road">
                        <value>Wu Shan Road</value>
                    </Data>
                    <Data name="country">
                        <value>China</value>
                    </Data>
                </ExtendedData>
            </Placemark>
            <Placemark>
                <address>Airport Road, Tung Chung Town Centre, Tung Chung, Islands District, New Territories, Hong Kong, China</address>
                <Point>
                    <coordinates>113.9335819255,22.2992850304</coordinates>
                </Point>
                <ExtendedData>
                    <Data name="country_code">
                        <value>cn</value>
                    </Data>
                    <Data name="ISO3166-2-lvl3">
                        <value>CN-HK</value>
                    </Data>
                    <Data name="municipality">
                        <value>New Territories</value>
                    </Data>
                    <Data name="state">
                        <value>Hong Kong</value>
                    </Data>
                    <Data name="city">
                        <value>Islands District</value>
                    </Data>
                    <Data name="suburb">
                        <value>Tung Chung Town Centre</value>
                    </Data>
                    <Data name="town">
                        <value>Tung Chung</value>
                    </Data>
                    <Data name="road">
                        <value>Airport Road</value>
                    </Data>
                    <Data name="country">
                        <value>China</value>
                    </Data>
                </ExtendedData>
            </Placemark>
            <Placemark>
                <Point>
                    <coordinates>113.9356891219,22.3173392872</coordinates>
                </Point>
                <ExtendedData>
                    <Data name="routingVisited">
                        <value>false</value>
                    </Data>
                </ExtendedData>
            </Placemark>
            <Placemark>
                <address>Expo Road West, Tung Chung, Islands District, New Territories, Hong Kong, PRC</address>
                <Point>
                    <coordinates>113.9406684664,22.3209751378</coordinates>
                </Point>
                <ExtendedData>
                    <Data name="country_code">
                        <value>cn</value>
                    </Data>
                    <Data name="county">
                        <value>Islands District</value>
                    </Data>
                    <Data name="region">
                        <value>New Territories</value>
                    </Data>
                    <Data name="state">
                        <value>Hong Kong</value>
                    </Data>
                    <Data name="town">
                        <value>Tung Chung</value>
                    </Data>
                    <Data name="road">
                        <value>Expo Road West</value>
                    </Data>
                    <Data name="country">
                        <value>PRC</value>
                    </Data>
                </ExtendedData>
            </Placemark>
            <Placemark>
                <address>Terminal 2, Sky Plaza Drive, Tung Chung, Islands District, New Territories, Hong Kong, PRC</address>
                <Point>
                    <coordinates>113.9356595889,22.3173392861</coordinates>
                </Point>
                <ExtendedData>
                    <Data name="country_code">
                        <value>cn</value>
                    </Data>
                    <Data name="county">
                        <value>Islands District</value>
                    </Data>
                    <Data name="routingVisited">
                        <value>false</value>
                    </Data>
                    <Data name="address29">
                        <value>Terminal 2</value>
                    </Data>
                    <Data name="region">
                        <value>New Territories</value>
                    </Data>
                    <Data name="state">
                        <value>Hong Kong</value>
                    </Data>
                    <Data name="town">
                        <value>Tung Chung</value>
                    </Data>
                    <Data name="road">
                        <value>Sky Plaza Drive</value>
                    </Data>
                    <Data name="country">
                        <value>PRC</value>
                    </Data>
                </ExtendedData>
            </Placemark>
            <Placemark>
                <address>East Coast Road, Tung Chung Town Centre, Tung Chung, Islands District, New Territories, Hong Kong, China</address>
                <Point>
                    <coordinates>113.9357965972,22.2983561165</coordinates>
                </Point>
                <ExtendedData>
                    <Data name="country_code">
                        <value>cn</value>
                    </Data>
                    <Data name="ISO3166-2-lvl3">
                        <value>CN-HK</value>
                    </Data>
                    <Data name="municipality">
                        <value>New Territories</value>
                    </Data>
                    <Data name="state">
                        <value>Hong Kong</value>
                    </Data>
                    <Data name="city">
                        <value>Islands District</value>
                    </Data>
                    <Data name="suburb">
                        <value>Tung Chung Town Centre</value>
                    </Data>
                    <Data name="town">
                        <value>Tung Chung</value>
                    </Data>
                    <Data name="road">
                        <value>East Coast Road</value>
                    </Data>
                    <Data name="country">
                        <value>China</value>
                    </Data>
                </ExtendedData>
            </Placemark>
            <Placemark>
                <address>Wu Shan Road, Tuen Mun Pier Head, Tuen Mun South, Tsing Shan Tsuen, Tuen Mun District, New Territories, Hong Kong, China</address>
                <Point>
                    <coordinates>113.9678095501,22.3773836249</coordinates>
                </Point>
                <ExtendedData>
                    <Data name="country_code">
                        <value>cn</value>
                    </Data>
                    <Data name="village">
                        <value>Tsing Shan Tsuen</value>
                    </Data>
                    <Data name="ISO3166-2-lvl3">
                        <value>CN-HK</value>
                    </Data>
                    <Data name="municipality">
                        <value>New Territories</value>
                    </Data>
                    <Data name="state">
                        <value>Hong Kong</value>
                    </Data>
                    <Data name="quarter">
                        <value>Tuen Mun Pier Head</value>
                    </Data>
                    <Data name="city">
                        <value>Tuen Mun District</value>
                    </Data>
                    <Data name="suburb">
                        <value>Tuen Mun South</value>
                    </Data>
                    <Data name="road">
                        <value>Wu Shan Road</value>
                    </Data>
                    <Data name="country">
                        <value>China</value>
                    </Data>
                </ExtendedData>
            </Placemark>
            <Placemark>
                <address>Wu Shan Road, Tuen Mun Pier Head, Tuen Mun South, Tsing Shan Tsuen, Tuen Mun District, New Territories, Hong Kong, China</address>
                <Point>
                    <coordinates>113.9666572761,22.3774793178</coordinates>
                </Point>
                <ExtendedData>
                    <Data name="country_code">
                        <value>cn</value>
                    </Data>
                    <Data name="village">
                        <value>Tsing Shan Tsuen</value>
                    </Data>
                    <Data name="ISO3166-2-lvl3">
                        <value>CN-HK</value>
                    </Data>
                    <Data name="municipality">
                        <value>New Territories</value>
                    </Data>
                    <Data name="state">
                        <value>Hong Kong</value>
                    </Data>
                    <Data name="quarter">
                        <value>Tuen Mun Pier Head</value>
                    </Data>
                    <Data name="city">
                        <value>Tuen Mun District</value>
                    </Data>
                    <Data name="suburb">
                        <value>Tuen Mun South</value>
                    </Data>
                    <Data name="road">
                        <value>Wu Shan Road</value>
                    </Data>
                    <Data name="country">
                        <value>China</value>
                    </Data>
                </ExtendedData>
            </Placemark>
            <Placemark>
                <Point>
                    <coordinates>114.0077425014,22.3667300220</coordinates>
                </Point>
            </Placemark>
            <Placemark>
                <Point>
                    <coordinates>114.0194104004,22.3593537655</coordinates>
                </Point>
            </Placemark>
            <Placemark>
                <address>Block 15, Lung Chak Road, Yeung Siu Hang, Castle Peak Bay, Tsing Shan Tsuen, New Territories, Hong Kong, DD132 586, PRC</address>
                <Point>
                    <coordinates>114.0614216916,22.3672855638</coordinates>
                </Point>
                <ExtendedData>
                    <Data name="country_code">
                        <value>cn</value>
                    </Data>
                    <Data name="routingVisited">
                        <value>false</value>
                    </Data>
                    <Data name="building">
                        <value>Block 15</value>
                    </Data>
                    <Data name="postcode">
                        <value>DD132 586</value>
                    </Data>
                    <Data name="region">
                        <value>New Territories</value>
                    </Data>
                    <Data name="state">
                        <value>Hong Kong</value>
                    </Data>
                    <Data name="neighbourhood">
                        <value>Yeung Siu Hang</value>
                    </Data>
                    <Data name="suburb">
                        <value>Castle Peak Bay</value>
                    </Data>
                    <Data name="hamlet">
                        <value>Tsing Shan Tsuen</value>
                    </Data>
                    <Data name="road">
                        <value>Lung Chak Road</value>
                    </Data>
                    <Data name="country">
                        <value>PRC</value>
                    </Data>
                </ExtendedData>
            </Placemark>
        </Folder>
        <Document>
            <name>71.9 km; 01:19 h (OSRM)</name>
            <Placemark>
                <name>Route</name>
                <LineString>
                    <coordinates>114.0614280000,22.3672790000 114.0615460000,22.3672680000 114.0615880000,22.3672800000 114.0616180000,22.3672750000 114.0616370000,22.3672650000 114.0616530000,22.3672350000 114.0616500000,22.3671990000 114.0616290000,22.3671640000 114.0615600000,22.3671440000 114.0610300000,22.3671880000 114.0610360000,22.3672460000 114.0610420000,22.3673060000 114.0610580000,22.3674670000 114.0610720000,22.3676220000 114.0608800000,22.3676390000 114.0605230000,22.3676710000 114.0604110000,22.3676730000 114.0603220000,22.3676650000 114.0602350000,22.3676520000 114.0601370000,22.3676250000 114.0600560000,22.3675970000 114.0599640000,22.3675530000 114.0598860000,22.3675090000 114.0597950000,22.3674440000 114.0594020000,22.3671160000 114.0591610000,22.3669130000 114.0589380000,22.3667290000 114.0585120000,22.3663670000 114.0584010000,22.3662790000 114.0582140000,22.3661360000 114.0580460000,22.3660160000 114.0577800000,22.3658350000 114.0575550000,22.3657040000 114.0572970000,22.3655780000 114.0567270000,22.3653450000 114.0566930000,22.3653310000 114.0564070000,22.3652120000 114.0561990000,22.3651410000 114.0559430000,22.3650380000 114.0558650000,22.3650040000 114.0558040000,22.3649750000 114.0556780000,22.3649080000 114.0555850000,22.3648540000 114.0555480000,22.3648290000 114.0555120000,22.3648030000 114.0554640000,22.3647640000 114.0554220000,22.3647230000 114.0553930000,22.3646830000 114.0553730000,22.3646420000 114.0553550000,22.3646070000 114.0553260000,22.3645480000 114.0553240000,22.3645020000 114.0553110000,22.3644680000 114.0552780000,22.3644190000 114.0552310000,22.3643820000 114.0551730000,22.3643600000 114.0551110000,22.3643560000 114.0550430000,22.3643310000 114.0550010000,22.3642970000 114.0549760000,22.3642720000 114.0549080000,22.3642000000 114.0548720000,22.3641660000 114.0548330000,22.3641290000 114.0546450000,22.3639630000 114.0545120000,22.3638510000 114.0544220000,22.3637800000 114.0543370000,22.3637200000 114.0542320000,22.3636490000 114.0541460000,22.3636010000 114.0540230000,22.3635380000 114.0538470000,22.3634670000 114.0537490000,22.3634300000 114.0536090000,22.3633900000 114.0533250000,22.3633260000 114.0530810000,22.3632890000 114.0526290000,22.3632010000 114.0524140000,22.3631440000 114.0522610000,22.3630920000 114.0520260000,22.3629990000 114.0517730000,22.3628650000 114.0515750000,22.3627410000 114.0513610000,22.3625850000 114.0512270000,22.3624870000 114.0507370000,22.3621530000 114.0504020000,22.3619460000 114.0501270000,22.3617900000 114.0491910000,22.3613410000 114.0489110000,22.3612290000 114.0486330000,22.3611440000 114.0483640000,22.3610810000 114.0481040000,22.3610380000 114.0477180000,22.3610150000 114.0474900000,22.3610210000 114.0471140000,22.3610590000 114.0469320000,22.3610920000 114.0466430000,22.3611640000 114.0463590000,22.3612510000 114.0459810000,22.3613790000 114.0458570000,22.3613880000 114.0457390000,22.3613820000 114.0456900000,22.3613570000 114.0456340000,22.3613450000 114.0455770000,22.3613500000 114.0455440000,22.3613620000 114.0455240000,22.3613690000 114.0454800000,22.3614020000 114.0453880000,22.3614520000 114.0452790000,22.3614860000 114.0451150000,22.3615000000 114.0449200000,22.3614990000 114.0447550000,22.3614830000 114.0445860000,22.3614650000 114.0444230000,22.3614320000 114.0443040000,22.3614050000 114.0437790000,22.3612200000 114.0435340000,22.3611290000 114.0430350000,22.3609250000 114.0424390000,22.3606820000 114.0418800000,22.3604350000 114.0416090000,22.3603190000 114.0412680000,22.3601410000 114.0409760000,22.3599760000 114.0406930000,22.3598040000 114.0404950000,22.3596380000 114.0401800000,22.3593780000 114.0398240000,22.3590860000 114.0396230000,22.3589240000 114.0394010000,22.3587720000 114.0392240000,22.3586550000 114.0391560000,22.3586170000 114.0389130000,22.3585010000 114.0385230000,22.3583290000 114.0384840000,22.3583160000 114.0383130000,22.3582610000 114.0379990000,22.3581870000 114.0377830000,22.3581480000 114.0376040000,22.3581210000 114.0372430000,22.3580760000 114.0369910000,22.3580440000 114.0368540000,22.3580200000 114.0367250000,22.3579890000 114.0362630000,22.3578690000 114.0357620000,22.3577240000 114.0354600000,22.3576220000 114.0352120000,22.3575320000 114.0342400000,22.3571350000 114.0340600000,22.3570430000 114.0340220000,22.3570130000 114.0339760000,22.3569970000 114.0339260000,22.3569970000 114.0337030000,22.3568430000 114.0336300000,22.3567950000 114.0333380000,22.3566680000 114.0330680000,22.3565550000 114.0329020000,22.3564880000 114.0324740000,22.3563230000 114.0319860000,22.3561700000 114.0314430000,22.3560220000 114.0304150000,22.3558150000 114.0301520000,22.3557690000 114.0295720000,22.3557030000 114.0292610000,22.3556730000 114.0283940000,22.3555960000 114.0276810000,22.3555360000 114.0270900000,22.3555130000 114.0263750000,22.3554930000 114.0256410000,22.3555320000 114.0248410000,22.3555930000 114.0240480000,22.3557140000 114.0231650000,22.3558800000 114.0221190000,22.3561530000 114.0210470000,22.3564490000 114.0200410000,22.3568120000 114.0196390000,22.3569790000 114.0193410000,22.3571750000 114.0191920000,22.3572770000 114.0190650000,22.3573570000 114.0187720000,22.3574680000 114.0187130000,22.3575050000 114.0186700000,22.3575560000 114.0186470000,22.3576180000 114.0186440000,22.3576660000 114.0186530000,22.3577130000 114.0186740000,22.3577570000 114.0187050000,22.3577950000 114.0187450000,22.3578260000 114.0187910000,22.3578470000 114.0188160000,22.3578540000 114.0188410000,22.3578590000 114.0188850000,22.3578560000 114.0189390000,22.3578980000 114.0190120000,22.3579680000 114.0190990000,22.3580460000 114.0191000000,22.3580880000 114.0191040000,22.3581520000 114.0191070000,22.3582510000 114.0191130000,22.3584150000 114.0191130000,22.3584790000 114.0191090000,22.3587210000 114.0191130000,22.3589580000 114.0191160000,22.3590720000 114.0191290000,22.3595230000 114.0191470000,22.3601420000 114.0191480000,22.3601670000 114.0191530000,22.3603160000 114.0191650000,22.3604050000 114.0192250000,22.3608620000 114.0192990000,22.3614720000 114.0193290000,22.3617630000 114.0193330000,22.3619120000 114.0193290000,22.3620660000 114.0193220000,22.3621790000 114.0193090000,22.3622770000 114.0192740000,22.3623920000 114.0192060000,22.3625540000 114.0191310000,22.3626820000 114.0189930000,22.3628570000 114.0187830000,22.3630250000 114.0185740000,22.3631160000 114.0183340000,22.3631860000 114.0182130000,22.3632070000 114.0180670000,22.3632170000 114.0178260000,22.3632290000 114.0177840000,22.3632300000 114.0176930000,22.3632170000 114.0175880000,22.3632030000 114.0174860000,22.3632030000 114.0174110000,22.3631960000 114.0173000000,22.3631800000 114.0172000000,22.3631800000 114.0171630000,22.3631850000 114.0171360000,22.3631910000 114.0170000000,22.3632700000 114.0169660000,22.3633130000 114.0168880000,22.3633490000 114.0168510000,22.3633650000 114.0168460000,22.3633670000 114.0167900000,22.3633890000 114.0167240000,22.3633920000 114.0166460000,22.3633980000 114.0163880000,22.3635170000 114.0163350000,22.3635410000 114.0162750000,22.3635660000 114.0162490000,22.3635780000 114.0161300000,22.3636240000 114.0160410000,22.3636650000 114.0158810000,22.3637580000 114.0156700000,22.3638790000 114.0156140000,22.3639110000 114.0155380000,22.3639650000 114.0153990000,22.3640330000 114.0150400000,22.3641920000 114.0148980000,22.3642430000 114.0148150000,22.3642690000 114.0147550000,22.3642870000 114.0146930000,22.3643030000 114.0145250000,22.3643250000 114.0144130000,22.3643360000 114.0139480000,22.3643470000 114.0139150000,22.3643110000 114.0138960000,22.3642920000 114.0138330000,22.3642540000 114.0137770000,22.3642260000 114.0137600000,22.3641810000 114.0137260000,22.3641300000 114.0136800000,22.3640910000 114.0136160000,22.3640660000 114.0135600000,22.3640580000 114.0134940000,22.3640670000 114.0134390000,22.3640940000 114.0133940000,22.3641340000 114.0133610000,22.3641890000 114.0133460000,22.3642480000 114.0133440000,22.3642770000 114.0133460000,22.3643060000 114.0133560000,22.3643460000 114.0133740000,22.3643830000 114.0134010000,22.3644160000 114.0133890000,22.3645730000 114.0133560000,22.3646830000 114.0133100000,22.3647730000 114.0131640000,22.3650330000 114.0130490000,22.3651830000 114.0130430000,22.3651890000 114.0129450000,22.3653000000 114.0127680000,22.3654720000 114.0125950000,22.3656150000 114.0125340000,22.3656670000 114.0123390000,22.3657990000 114.0120210000,22.3659610000 114.0120130000,22.3659640000 114.0117650000,22.3660470000 114.0115310000,22.3661290000 114.0113920000,22.3661560000 114.0112340000,22.3661700000 114.0108180000,22.3662160000 114.0106810000,22.3662310000 114.0094720000,22.3663510000 114.0089990000,22.3664010000 114.0087960000,22.3664210000 114.0082360000,22.3664600000 114.0079270000,22.3664600000 114.0076440000,22.3664420000 114.0075170000,22.3664280000 114.0073270000,22.3664060000 114.0070170000,22.3663530000 114.0059740000,22.3661630000 114.0055380000,22.3660920000 114.0052380000,22.3660580000 114.0049560000,22.3660450000 114.0031600000,22.3661020000 114.0030550000,22.3661050000 114.0030320000,22.3661060000 114.0030180000,22.3661060000 114.0029940000,22.3661090000 114.0029760000,22.3661110000 114.0029520000,22.3661140000 114.0029270000,22.3661170000 114.0027730000,22.3661360000 114.0026470000,22.3661510000 114.0024620000,22.3661830000 114.0024300000,22.3661660000 114.0023930000,22.3661590000 114.0023570000,22.3661620000 114.0023220000,22.3661740000 114.0022900000,22.3662000000 114.0022680000,22.3662350000 114.0020900000,22.3663510000 114.0018700000,22.3664710000 114.0017000000,22.3665730000 114.0010080000,22.3671700000 114.0005800000,22.3675080000 114.0003070000,22.3676700000 114.0000530000,22.3677860000 113.9996260000,22.3679200000 113.9995690000,22.3679330000 113.9994150000,22.3679660000 113.9992090000,22.3679910000 113.9990930000,22.3679970000 113.9987140000,22.3680140000 113.9984620000,22.3679880000 113.9976760000,22.3678260000 113.9975330000,22.3677970000 113.9975090000,22.3677940000 113.9973460000,22.3677790000 113.9971860000,22.3677830000 113.9969740000,22.3678000000 113.9969070000,22.3678050000 113.9968100000,22.3678160000 113.9967740000,22.3678000000 113.9967350000,22.3677970000 113.9966810000,22.3678170000 113.9966460000,22.3678600000 113.9966030000,22.3679050000 113.9965550000,22.3679370000 113.9964300000,22.3680010000 113.9962930000,22.3680900000 113.9962090000,22.3681520000 113.9960900000,22.3682590000 113.9959140000,22.3684630000 113.9957790000,22.3686430000 113.9956290000,22.3688570000 113.9955150000,22.3690230000 113.9954130000,22.3691760000 113.9950330000,22.3697240000 113.9946920000,22.3702150000 113.9941920000,22.3709230000 113.9940840000,22.3710690000 113.9938930000,22.3713420000 113.9936060000,22.3717510000 113.9931210000,22.3724630000 113.9929130000,22.3727680000 113.9928000000,22.3729430000 113.9927080000,22.3730700000 113.9925790000,22.3732150000 113.9924080000,22.3733530000 113.9923140000,22.3734040000 113.9922260000,22.3734390000 113.9920760000,22.3734890000 113.9919330000,22.3735230000 113.9916520000,22.3735790000 113.9912820000,22.3736220000 113.9910240000,22.3736560000 113.9902760000,22.3737420000 113.9901860000,22.3737810000 113.9898000000,22.3738140000 113.9894270000,22.3738520000 113.9885830000,22.3739130000 113.9884070000,22.3739260000 113.9880410000,22.3739610000 113.9878340000,22.3740050000 113.9876820000,22.3740880000 113.9876190000,22.3741230000 113.9874230000,22.3742780000 113.9873890000,22.3743100000 113.9871310000,22.3745520000 113.9868500000,22.3748150000 113.9866020000,22.3750480000 113.9864850000,22.3751580000 113.9863120000,22.3753200000 113.9861540000,22.3754690000 113.9860790000,22.3755540000 113.9860360000,22.3756020000 113.9858200000,22.3757940000 113.9848060000,22.3767750000 113.9847350000,22.3768410000 113.9846720000,22.3769010000 113.9844390000,22.3771100000 113.9836580000,22.3777270000 113.9835910000,22.3777710000 113.9833690000,22.3778740000 113.9832610000,22.3779110000 113.9829590000,22.3779900000 113.9829230000,22.3779960000 113.9827420000,22.3780240000 113.9823960000,22.3780780000 113.9822150000,22.3781100000 113.9817760000,22.3782150000 113.9813770000,22.3783710000 113.9811140000,22.3785140000 113.9808210000,22.3787420000 113.9805200000,22.3791700000 113.9804160000,22.3793170000 113.9801910000,22.3796850000 113.9800440000,22.3799010000 113.9794370000,22.3807850000 113.9791980000,22.3811460000 113.9790460000,22.3813650000 113.9788390000,22.3816800000 113.9788130000,22.3817200000 113.9787940000,22.3817480000 113.9783800000,22.3823700000 113.9783440000,22.3824320000 113.9782940000,22.3825390000 113.9782690000,22.3826290000 113.9781820000,22.3828300000 113.9780600000,22.3832050000 113.9780240000,22.3832570000 113.9779940000,22.3832990000 113.9779410000,22.3833480000 113.9778810000,22.3833700000 113.9777870000,22.3834010000 113.9776270000,22.3833300000 113.9773860000,22.3832230000 113.9771330000,22.3831100000 113.9762740000,22.3827270000 113.9756680000,22.3824570000 113.9756210000,22.3824350000 113.9755250000,22.3823930000 113.9754550000,22.3823620000 113.9753980000,22.3823380000 113.9753470000,22.3823150000 113.9753210000,22.3823050000 113.9751930000,22.3822520000 113.9735770000,22.3815690000 113.9734550000,22.3815170000 113.9732260000,22.3814190000 113.9725320000,22.3811190000 113.9719650000,22.3808700000 113.9716950000,22.3807620000 113.9715560000,22.3807080000 113.9713640000,22.3806230000 113.9710800000,22.3805140000 113.9709310000,22.3804840000 113.9707830000,22.3804730000 113.9705530000,22.3804750000 113.9704150000,22.3804800000 113.9703930000,22.3804810000 113.9703290000,22.3804860000 113.9702880000,22.3804890000 113.9702040000,22.3805000000 113.9701730000,22.3804170000 113.9701290000,22.3803300000 113.9700210000,22.3801270000 113.9699350000,22.3799960000 113.9698350000,22.3798830000 113.9696470000,22.3797400000 113.9690120000,22.3793760000 113.9678730000,22.3787100000 113.9675320000,22.3785060000 113.9673270000,22.3783550000 113.9671650000,22.3782060000 113.9669870000,22.3779410000 113.9669190000,22.3777980000 113.9668730000,22.3776960000 113.9668350000,22.3776070000 113.9665990000,22.3770540000 113.9664110000,22.3765040000 113.9663900000,22.3764340000 113.9658200000,22.3745750000 113.9657910000,22.3744830000 113.9655100000,22.3735640000 113.9654650000,22.3734180000 113.9654320000,22.3733160000 113.9657480000,22.3732410000 113.9659950000,22.3731770000 113.9661410000,22.3731390000 113.9662630000,22.3731070000 113.9666440000,22.3730090000 113.9668550000,22.3729520000 113.9673070000,22.3728510000 113.9673880000,22.3728340000 113.9679080000,22.3727240000 113.9679910000,22.3727150000 113.9680890000,22.3727150000 113.9681670000,22.3727030000 113.9682130000,22.3726970000 113.9683040000,22.3726910000 113.9683390000,22.3726890000 113.9683660000,22.3726880000 113.9684180000,22.3726470000 113.9684850000,22.3726530000 113.9685850000,22.3726560000 113.9687230000,22.3726620000 113.9691700000,22.3726850000 113.9697810000,22.3727560000 113.9700390000,22.3727820000 113.9704300000,22.3728460000 113.9704520000,22.3728660000 113.9704640000,22.3728890000 113.9704700000,22.3729210000 113.9704710000,22.3729510000 113.9704590000,22.3729910000 113.9704430000,22.3730260000 113.9702590000,22.3733510000 113.9700400000,22.3737390000 113.9698780000,22.3740240000 113.9697740000,22.3742080000 113.9695230000,22.3746520000 113.9692890000,22.3750660000 113.9687780000,22.3759690000 113.9686320000,22.3762270000 113.9685310000,22.3764050000 113.9682380000,22.3769230000 113.9682100000,22.3769680000 113.9681790000,22.3770130000 113.9681430000,22.3770570000 113.9681060000,22.3771000000 113.9680590000,22.3771470000 113.9680090000,22.3771890000 113.9679510000,22.3772290000 113.9678870000,22.3772670000 113.9675780000,22.3773550000 113.9671390000,22.3775040000 113.9670550000,22.3775320000 113.9669790000,22.3775580000 113.9669420000,22.3775700000 113.9668350000,22.3776070000 113.9666880000,22.3776520000 113.9660990000,22.3778560000 113.9641850000,22.3784520000 113.9637140000,22.3785970000 113.9629000000,22.3788600000 113.9626360000,22.3789640000 113.9623580000,22.3785950000 113.9622840000,22.3785030000 113.9615430000,22.3775830000 113.9614230000,22.3774260000 113.9605800000,22.3763820000 113.9604030000,22.3762000000 113.9603300000,22.3761310000 113.9602940000,22.3761000000 113.9602230000,22.3760380000 113.9599510000,22.3758090000 113.9598260000,22.3757240000 113.9596720000,22.3756440000 113.9594900000,22.3755600000 113.9593390000,22.3754910000 113.9592270000,22.3754490000 113.9582230000,22.3750760000 113.9581430000,22.3750450000 113.9570740000,22.3746400000 113.9566340000,22.3744650000 113.9563380000,22.3743300000 113.9561930000,22.3742540000 113.9560510000,22.3741690000 113.9559150000,22.3740810000 113.9557710000,22.3739790000 113.9556550000,22.3738910000 113.9555170000,22.3737800000 113.9553410000,22.3736170000 113.9551440000,22.3734090000 113.9550060000,22.3732540000 113.9549050000,22.3731250000 113.9548390000,22.3730290000 113.9547730000,22.3729330000 113.9547180000,22.3728450000 113.9546910000,22.3728010000 113.9544070000,22.3723130000 113.9541900000,22.3719870000 113.9541380000,22.3719150000 113.9540920000,22.3718600000 113.9540510000,22.3718170000 113.9540100000,22.3717790000 113.9539640000,22.3717430000 113.9539110000,22.3717080000 113.9538640000,22.3716830000 113.9538140000,22.3716610000 113.9537610000,22.3716440000 113.9536860000,22.3716260000 113.9535590000,22.3716020000 113.9534880000,22.3715820000 113.9534140000,22.3715560000 113.9533610000,22.3715240000 113.9533030000,22.3715020000 113.9532410000,22.3714910000 113.9531780000,22.3714910000 113.9531160000,22.3715020000 113.9530570000,22.3715240000 113.9530040000,22.3715550000 113.9529580000,22.3715960000 113.9529210000,22.3716430000 113.9528950000,22.3716960000 113.9528800000,22.3717530000 113.9528770000,22.3718110000 113.9528860000,22.3718690000 113.9528450000,22.3719560000 113.9528180000,22.3720010000 113.9527910000,22.3720360000 113.9527600000,22.3720650000 113.9527260000,22.3720890000 113.9526800000,22.3721110000 113.9526270000,22.3721260000 113.9525690000,22.3721370000 113.9525180000,22.3721390000 113.9524710000,22.3721360000 113.9524240000,22.3721270000 113.9523710000,22.3721100000 113.9523130000,22.3720860000 113.9522560000,22.3720550000 113.9521130000,22.3719690000 113.9520140000,22.3719070000 113.9519260000,22.3718440000 113.9518190000,22.3717630000 113.9516670000,22.3716370000 113.9516280000,22.3716040000 113.9515810000,22.3715620000 113.9514370000,22.3714250000 113.9513400000,22.3713330000 113.9510880000,22.3710970000 113.9509280000,22.3709540000 113.9507100000,22.3707740000 113.9504860000,22.3706090000 113.9500970000,22.3703380000 113.9498100000,22.3701390000 113.9497050000,22.3700590000 113.9495940000,22.3699720000 113.9494060000,22.3698110000 113.9492320000,22.3696440000 113.9491400000,22.3695480000 113.9490390000,22.3694350000 113.9488100000,22.3691580000 113.9486610000,22.3689650000 113.9485240000,22.3687730000 113.9483610000,22.3685310000 113.9483140000,22.3684550000 113.9482060000,22.3682750000 113.9480690000,22.3680280000 113.9479820000,22.3678630000 113.9478850000,22.3676620000 113.9478050000,22.3674840000 113.9477370000,22.3673090000 113.9476590000,22.3670430000 113.9476370000,22.3669470000 113.9476090000,22.3668080000 113.9475900000,22.3666680000 113.9475770000,22.3665320000 113.9475700000,22.3663990000 113.9475670000,22.3662180000 113.9475710000,22.3659880000 113.9475850000,22.3657900000 113.9476000000,22.3656560000 113.9476160000,22.3655220000 113.9476380000,22.3653870000 113.9476820000,22.3651650000 113.9477590000,22.3648960000 113.9478320000,22.3646520000 113.9479580000,22.3643440000 113.9481000000,22.3640520000 113.9482620000,22.3637790000 113.9483000000,22.3637230000 113.9486770000,22.3631580000 113.9487290000,22.3630800000 113.9561000000,22.3523800000 113.9562900000,22.3520800000 113.9569300000,22.3509900000 113.9571900000,22.3504100000 113.9574100000,22.3498100000 113.9576800000,22.3488900000 113.9578600000,22.3479500000 113.9613030000,22.3240300000 113.9614150000,22.3231920000 113.9614300000,22.3230530000 113.9615030000,22.3223660000 113.9615250000,22.3220080000 113.9615380000,22.3217330000 113.9615380000,22.3217030000 113.9615380000,22.3214600000 113.9615360000,22.3214240000 113.9615270000,22.3212120000 113.9615220000,22.3211560000 113.9615040000,22.3209630000 113.9614960000,22.3209020000 113.9614670000,22.3206800000 113.9614600000,22.3206400000 113.9614210000,22.3204250000 113.9614140000,22.3203880000 113.9613660000,22.3201350000 113.9613380000,22.3200120000 113.9613000000,22.3198480000 113.9612490000,22.3196560000 113.9612280000,22.3195740000 113.9611540000,22.3192900000 113.9610060000,22.3188050000 113.9609240000,22.3185370000 113.9607660000,22.3180280000 113.9606520000,22.3176620000 113.9603240000,22.3166050000 113.9602120000,22.3162360000 113.9599980000,22.3155690000 113.9598390000,22.3150370000 113.9596480000,22.3143880000 113.9596330000,22.3143370000 113.9595450000,22.3140390000 113.9595330000,22.3140010000 113.9594790000,22.3137720000 113.9594330000,22.3135760000 113.9593160000,22.3130800000 113.9591650000,22.3124940000 113.9590840000,22.3120760000 113.9590580000,22.3119220000 113.9590400000,22.3117740000 113.9590360000,22.3116820000 113.9590380000,22.3115320000 113.9590490000,22.3113890000 113.9590700000,22.3112300000 113.9591010000,22.3110560000 113.9591490000,22.3108710000 113.9592060000,22.3106980000 113.9592680000,22.3105490000 113.9593450000,22.3103890000 113.9594360000,22.3102270000 113.9595320000,22.3100780000 113.9596380000,22.3099310000 113.9597310000,22.3098180000 113.9598440000,22.3096940000 113.9599570000,22.3095850000 113.9600510000,22.3095000000 113.9601450000,22.3094200000 113.9602560000,22.3093370000 113.9604000000,22.3092380000 113.9605530000,22.3091420000 113.9622950000,22.3081040000 113.9676430000,22.3049180000 113.9683740000,22.3045840000 113.9687580000,22.3044010000 113.9695860000,22.3040390000 113.9697490000,22.3039590000 113.9698600000,22.3038980000 113.9699760000,22.3038310000 113.9700880000,22.3037570000 113.9701780000,22.3036930000 113.9702660000,22.3036260000 113.9703540000,22.3035530000 113.9704360000,22.3034810000 113.9705690000,22.3033500000 113.9706810000,22.3032260000 113.9708040000,22.3030750000 113.9709280000,22.3028900000 113.9710340000,22.3027020000 113.9711210000,22.3025200000 113.9711670000,22.3024080000 113.9712220000,22.3022480000 113.9712770000,22.3020480000 113.9713100000,22.3018860000 113.9713430000,22.3016540000 113.9713570000,22.3015150000 113.9713640000,22.3013730000 113.9713670000,22.3012320000 113.9713640000,22.3010870000 113.9713560000,22.3009510000 113.9713430000,22.3008080000 113.9713240000,22.3006620000 113.9712980000,22.3005170000 113.9712680000,22.3003760000 113.9712370000,22.3002510000 113.9711970000,22.3001150000 113.9711550000,22.2999960000 113.9711100000,22.2998870000 113.9710640000,22.2997940000 113.9710120000,22.2997000000 113.9709630000,22.2996250000 113.9709020000,22.2995380000 113.9708290000,22.2994480000 113.9707540000,22.2993670000 113.9706630000,22.2992800000 113.9705800000,22.2992090000 113.9704990000,22.2991480000 113.9704160000,22.2990910000 113.9703450000,22.2990480000 113.9702660000,22.2990050000 113.9701740000,22.2989590000 113.9700640000,22.2989120000 113.9699570000,22.2988720000 113.9698260000,22.2988290000 113.9697030000,22.2987940000 113.9695400000,22.2987520000 113.9679330000,22.2983680000 113.9677900000,22.2983390000 113.9676000000,22.2983050000 113.9673950000,22.2982790000 113.9671780000,22.2982580000 113.9668070000,22.2982330000 113.9666220000,22.2982170000 113.9664760000,22.2982010000 113.9663280000,22.2981790000 113.9661300000,22.2981430000 113.9659440000,22.2981050000 113.9636340000,22.2975860000 113.9633770000,22.2975320000 113.9631730000,22.2974930000 113.9624160000,22.2973750000 113.9617660000,22.2973000000 113.9607320000,22.2970690000 113.9604070000,22.2969920000 113.9601340000,22.2969210000 113.9598210000,22.2968340000 113.9595620000,22.2967560000 113.9591520000,22.2966210000 113.9587870000,22.2964900000 113.9583360000,22.2963120000 113.9578120000,22.2960840000 113.9572880000,22.2958300000 113.9567450000,22.2955430000 113.9561030000,22.2951590000 113.9557700000,22.2949390000 113.9553550000,22.2946500000 113.9550840000,22.2944500000 113.9548820000,22.2942940000 113.9545540000,22.2940310000 113.9542330000,22.2937510000 113.9538700000,22.2934090000 113.9535270000,22.2930740000 113.9532730000,22.2927990000 113.9528750000,22.2923800000 113.9523830000,22.2918530000 113.9521350000,22.2916130000 113.9518830000,22.2913840000 113.9515220000,22.2910870000 113.9512400000,22.2908870000 113.9510840000,22.2907630000 113.9504990000,22.2904060000 113.9500840000,22.2901790000 113.9496380000,22.2899900000 113.9491880000,22.2898330000 113.9487170000,22.2896800000 113.9483130000,22.2895790000 113.9478750000,22.2894950000 113.9474000000,22.2894160000 113.9468720000,22.2893630000 113.9463440000,22.2893450000 113.9459210000,22.2893440000 113.9454980000,22.2893540000 113.9448930000,22.2894100000 113.9445070000,22.2894660000 113.9439680000,22.2895710000 113.9434870000,22.2896900000 113.9431440000,22.2897990000 113.9427810000,22.2899170000 113.9422880000,22.2901140000 113.9418790000,22.2903000000 113.9417000000,22.2903820000 113.9413010000,22.2906010000 113.9409940000,22.2907830000 113.9406600000,22.2910100000 113.9403680000,22.2912140000 113.9400220000,22.2914810000 113.9396740000,22.2917880000 113.9396060000,22.2918480000 113.9395580000,22.2918910000 113.9393630000,22.2920630000 113.9387640000,22.2926780000 113.9384520000,22.2930200000 113.9381460000,22.2933970000 113.9378070000,22.2938530000 113.9374290000,22.2944040000 113.9371020000,22.2949530000 113.9370700000,22.2950050000 113.9370460000,22.2950450000 113.9368940000,22.2953000000 113.9368460000,22.2953830000 113.9367820000,22.2954940000 113.9364110000,22.2961470000 113.9361290000,22.2966590000 113.9357700000,22.2971250000 113.9355660000,22.2974950000 113.9354230000,22.2977910000 113.9353890000,22.2978720000 113.9352530000,22.2982470000 113.9351900000,22.2984760000 113.9351310000,22.2987160000 113.9351020000,22.2988070000 113.9350740000,22.2988840000 113.9350440000,22.2989480000 113.9350140000,22.2990000000 113.9349810000,22.2990480000 113.9349290000,22.2991140000 113.9348730000,22.2991720000 113.9348050000,22.2992300000 113.9347330000,22.2992790000 113.9346700000,22.2993160000 113.9346070000,22.2993450000 113.9345300000,22.2993760000 113.9344540000,22.2994000000 113.9343670000,22.2994180000 113.9342910000,22.2994290000 113.9342180000,22.2994340000 113.9341280000,22.2994340000 113.9340490000,22.2994280000 113.9339910000,22.2994170000 113.9339110000,22.2993970000 113.9338320000,22.2993690000 113.9337570000,22.2993350000 113.9336260000,22.2992640000 113.9336050000,22.2992520000 113.9335160000,22.2991980000 113.9333940000,22.2991150000 113.9332290000,22.2989910000 113.9331910000,22.2989560000 113.9331580000,22.2989130000 113.9331420000,22.2988700000 113.9331310000,22.2988150000 113.9331210000,22.2987450000 113.9330970000,22.2985940000 113.9330940000,22.2985180000 113.9330950000,22.2984560000 113.9331020000,22.2983810000 113.9331150000,22.2983200000 113.9332080000,22.2979840000 113.9332450000,22.2978110000 113.9332520000,22.2977730000 113.9332680000,22.2976640000 113.9332850000,22.2975520000 113.9333050000,22.2973730000 113.9333130000,22.2972370000 113.9333190000,22.2970820000 113.9333190000,22.2968710000 113.9333250000,22.2968150000 113.9333400000,22.2967700000 113.9333640000,22.2967180000 113.9334370000,22.2966460000 113.9335100000,22.2966180000 113.9335560000,22.2965880000 113.9336040000,22.2965870000 113.9337540000,22.2965780000 113.9339230000,22.2966070000 113.9341190000,22.2966710000 113.9343820000,22.2967670000 113.9345950000,22.2968870000 113.9347410000,22.2970010000 113.9348440000,22.2971220000 113.9349300000,22.2972900000 113.9349720000,22.2974370000 113.9349960000,22.2976060000 113.9349860000,22.2978080000 113.9349390000,22.2980020000 113.9348850000,22.2982040000 113.9348330000,22.2983940000 113.9348180000,22.2984470000 113.9347870000,22.2985580000 113.9347350000,22.2987830000 113.9347130000,22.2988980000 113.9347010000,22.2989680000 113.9346670000,22.2992420000 113.9346570000,22.2994040000 113.9346550000,22.2996860000 113.9346770000,22.2999930000 113.9346960000,22.3001930000 113.9346860000,22.3002810000 113.9346840000,22.3003610000 113.9347090000,22.3004910000 113.9347270000,22.3005850000 113.9348150000,22.3009360000 113.9349950000,22.3014760000 113.9350070000,22.3015120000 113.9350160000,22.3015370000 113.9351180000,22.3018350000 113.9353510000,22.3024350000 113.9355410000,22.3031180000 113.9358500000,22.3039490000 113.9359950000,22.3043030000 113.9360580000,22.3044510000 113.9361760000,22.3047410000 113.9364430000,22.3053550000 113.9367060000,22.3060100000 113.9367830000,22.3062100000 113.9368540000,22.3063950000 113.9369210000,22.3066690000 113.9371410000,22.3075690000 113.9372170000,22.3079370000 113.9372420000,22.3080590000 113.9372920000,22.3083330000 113.9373460000,22.3086430000 113.9375030000,22.3095700000 113.9375910000,22.3100450000 113.9376080000,22.3101430000 113.9376570000,22.3104090000 113.9376690000,22.3106270000 113.9376770000,22.3108530000 113.9376780000,22.3109870000 113.9376700000,22.3111840000 113.9376310000,22.3115150000 113.9376180000,22.3115900000 113.9375920000,22.3117390000 113.9374480000,22.3123440000 113.9372790000,22.3128400000 113.9371660000,22.3131370000 113.9369440000,22.3138210000 113.9368690000,22.3140740000 113.9364820000,22.3151120000 113.9362310000,22.3157880000 113.9360600000,22.3162470000 113.9356570000,22.3173290000 113.9355280000,22.3176750000 113.9353140000,22.3182230000 113.9351790000,22.3185650000 113.9351630000,22.3186910000 113.9351560000,22.3187980000 113.9351750000,22.3189650000 113.9351950000,22.3191140000 113.9352530000,22.3192830000 113.9353230000,22.3194140000 113.9354030000,22.3195300000 113.9356000000,22.3197410000 113.9357970000,22.3198700000 113.9360020000,22.3199710000 113.9363100000,22.3200970000 113.9364720000,22.3201460000 113.9367070000,22.3202210000 113.9369250000,22.3202910000 113.9370390000,22.3203270000 113.9371570000,22.3203500000 113.9372760000,22.3203650000 113.9373960000,22.3203710000 113.9375160000,22.3203690000 113.9376350000,22.3203570000 113.9377530000,22.3203380000 113.9378690000,22.3203090000 113.9379820000,22.3202730000 113.9380920000,22.3202280000 113.9381880000,22.3201810000 113.9382800000,22.3201260000 113.9383670000,22.3200660000 113.9384500000,22.3200000000 113.9385270000,22.3199290000 113.9385980000,22.3198530000 113.9389440000,22.3194280000 113.9389850000,22.3193740000 113.9390920000,22.3191970000 113.9391260000,22.3191460000 113.9391640000,22.3190990000 113.9392130000,22.3190540000 113.9393460000,22.3189580000 113.9393870000,22.3189250000 113.9394260000,22.3188870000 113.9394570000,22.3188490000 113.9394800000,22.3188120000 113.9395130000,22.3187470000 113.9399410000,22.3177580000 113.9401360000,22.3172700000 113.9402670000,22.3169460000 113.9403390000,22.3167980000 113.9404670000,22.3164600000 113.9405140000,22.3158620000 113.9405340000,22.3156240000 113.9405570000,22.3153590000 113.9405670000,22.3152080000 113.9405580000,22.3150380000 113.9405280000,22.3148740000 113.9404810000,22.3146820000 113.9404500000,22.3145710000 113.9404340000,22.3145010000 113.9404220000,22.3144400000 113.9404180000,22.3143880000 113.9404180000,22.3143470000 113.9404130000,22.3141240000 113.9404270000,22.3141100000 113.9405030000,22.3141090000 113.9405740000,22.3141150000 113.9406350000,22.3141310000 113.9408890000,22.3142270000 113.9409690000,22.3142480000 113.9410560000,22.3142580000 113.9411390000,22.3142600000 113.9413280000,22.3142510000 113.9414150000,22.3142580000 113.9414910000,22.3142830000 113.9415260000,22.3143470000 113.9415260000,22.3144000000 113.9415210000,22.3144520000 113.9415090000,22.3145040000 113.9414860000,22.3145680000 113.9414530000,22.3146290000 113.9413990000,22.3146900000 113.9413070000,22.3147480000 113.9412090000,22.3147950000 113.9411080000,22.3148380000 113.9408910000,22.3149410000 113.9408570000,22.3149610000 113.9408330000,22.3149760000 113.9407890000,22.3150110000 113.9407510000,22.3150520000 113.9407180000,22.3150960000 113.9406920000,22.3151440000 113.9406720000,22.3151950000 113.9406590000,22.3152470000 113.9406510000,22.3154360000 113.9406580000,22.3155050000 113.9406720000,22.3155730000 113.9406940000,22.3156390000 113.9407080000,22.3156980000 113.9407090000,22.3157130000 113.9407140000,22.3157570000 113.9407130000,22.3158170000 113.9407050000,22.3158760000 113.9406590000,22.3160800000 113.9406100000,22.3162830000 113.9405570000,22.3164860000 113.9404950000,22.3166500000 113.9402890000,22.3171350000 113.9399360000,22.3179660000 113.9394710000,22.3190830000 113.9395170000,22.3190890000 113.9395780000,22.3191100000 113.9396410000,22.3191290000 113.9397030000,22.3191480000 113.9404570000,22.3193070000 113.9408180000,22.3193840000 113.9408710000,22.3194540000 113.9409080000,22.3195190000 113.9409350000,22.3195840000 113.9409540000,22.3196460000 113.9409450000,22.3196920000 113.9409120000,22.3198110000 113.9406220000,22.3209650000 113.9405320000,22.3213230000 113.9403490000,22.3212860000 113.9402560000,22.3212670000 113.9403490000,22.3212860000 113.9405320000,22.3213230000 113.9409120000,22.3198110000 113.9409450000,22.3196920000 113.9409540000,22.3196460000 113.9409890000,22.3195840000 113.9410220000,22.3195400000 113.9410570000,22.3195020000 113.9411300000,22.3194420000 113.9412050000,22.3194510000 113.9413100000,22.3194650000 113.9414910000,22.3194910000 113.9416830000,22.3195150000 113.9417780000,22.3195250000 113.9420650000,22.3195530000 113.9422610000,22.3195940000 113.9423880000,22.3196420000 113.9424650000,22.3196910000 113.9425010000,22.3197360000 113.9425500000,22.3197700000 113.9426070000,22.3197890000 113.9426670000,22.3197930000 113.9427150000,22.3197850000 113.9427590000,22.3197670000 113.9427980000,22.3197410000 113.9428290000,22.3197060000 113.9428510000,22.3196670000 113.9428630000,22.3196230000 113.9428640000,22.3195790000 113.9428540000,22.3195350000 113.9428330000,22.3194940000 113.9428210000,22.3194480000 113.9428120000,22.3194020000 113.9428080000,22.3193550000 113.9428090000,22.3193080000 113.9428140000,22.3192610000 113.9430450000,22.3186420000 113.9430520000,22.3186220000 113.9430870000,22.3185280000 113.9431290000,22.3184190000 113.9431370000,22.3183950000 113.9431640000,22.3183090000 113.9431780000,22.3182510000 113.9431920000,22.3181960000 113.9432130000,22.3180720000 113.9432240000,22.3179670000 113.9432280000,22.3178510000 113.9432250000,22.3177350000 113.9432140000,22.3176200000 113.9431960000,22.3175060000 113.9431700000,22.3173920000 113.9429840000,22.3167500000 113.9428440000,22.3162690000 113.9427050000,22.3157430000 113.9426210000,22.3155380000 113.9425440000,22.3153460000 113.9425120000,22.3152690000 113.9424770000,22.3151730000 113.9424380000,22.3150730000 113.9423810000,22.3149450000 113.9423200000,22.3148280000 113.9421700000,22.3145530000 113.9421300000,22.3144920000 113.9421020000,22.3144450000 113.9420780000,22.3143920000 113.9420640000,22.3143350000 113.9420580000,22.3142590000 113.9420700000,22.3141960000 113.9420620000,22.3141390000 113.9420270000,22.3140470000 113.9419680000,22.3139800000 113.9418890000,22.3139330000 113.9418230000,22.3139160000 113.9417290000,22.3139120000 113.9416510000,22.3139320000 113.9415810000,22.3139710000 113.9415250000,22.3140270000 113.9414870000,22.3140960000 113.9413450000,22.3141470000 113.9412650000,22.3141610000 113.9411780000,22.3141690000 113.9410590000,22.3141620000 113.9408560000,22.3141310000 113.9407340000,22.3140820000 113.9406270000,22.3140270000 113.9405470000,22.3139710000 113.9404890000,22.3139010000 113.9404650000,22.3138040000 113.9404220000,22.3137210000 113.9403660000,22.3136600000 113.9403140000,22.3136170000 113.9402500000,22.3135840000 113.9401590000,22.3135530000 113.9400640000,22.3135380000 113.9399550000,22.3135300000 113.9398400000,22.3135440000 113.9397750000,22.3135680000 113.9397200000,22.3135990000 113.9396670000,22.3136390000 113.9396180000,22.3137010000 113.9395750000,22.3137750000 113.9394430000,22.3138230000 113.9393490000,22.3138380000 113.9392360000,22.3138190000 113.9391170000,22.3137660000 113.9389610000,22.3137010000 113.9388070000,22.3136320000 113.9386440000,22.3135480000 113.9384830000,22.3134870000 113.9383780000,22.3134110000 113.9383170000,22.3133270000 113.9382840000,22.3132530000 113.9382660000,22.3131800000 113.9382410000,22.3130210000 113.9382580000,22.3128680000 113.9383510000,22.3125960000 113.9384560000,22.3123640000 113.9384770000,22.3123000000 113.9384640000,22.3122460000 113.9383990000,22.3121300000 113.9382720000,22.3120110000 113.9382240000,22.3119610000 113.9382030000,22.3119200000 113.9381780000,22.3118780000 113.9381900000,22.3118210000 113.9381840000,22.3117630000 113.9381610000,22.3117100000 113.9381230000,22.3116640000 113.9380740000,22.3116290000 113.9380160000,22.3116080000 113.9379530000,22.3116030000 113.9378920000,22.3116130000 113.9378360000,22.3116390000 113.9377550000,22.3116540000 113.9376910000,22.3116580000 113.9376280000,22.3116530000 113.9375420000,22.3116400000 113.9369770000,22.3115590000 113.9369020000,22.3115470000 113.9368270000,22.3115300000 113.9367760000,22.3115050000 113.9367350000,22.3114700000 113.9366900000,22.3114160000 113.9366750000,22.3113850000 113.9366540000,22.3113570000 113.9366820000,22.3112180000 113.9367030000,22.3111400000 113.9367240000,22.3110890000 113.9367490000,22.3110450000 113.9367790000,22.3110050000 113.9368160000,22.3109670000 113.9368550000,22.3109360000 113.9368920000,22.3109130000 113.9369350000,22.3108910000 113.9369810000,22.3108730000 113.9370250000,22.3108600000 113.9370780000,22.3108510000 113.9371310000,22.3108480000 113.9371820000,22.3108530000 113.9372290000,22.3108610000 113.9372740000,22.3108730000 113.9373170000,22.3108900000 113.9373600000,22.3109120000 113.9373970000,22.3109350000 113.9374360000,22.3109670000 113.9374700000,22.3110020000 113.9374980000,22.3110410000 113.9375230000,22.3110800000 113.9375420000,22.3111260000 113.9375550000,22.3111580000 113.9375630000,22.3111850000 113.9375880000,22.3115130000 113.9375900000,22.3115830000 113.9375920000,22.3117390000 113.9374480000,22.3123440000 113.9372790000,22.3128400000 113.9371660000,22.3131370000 113.9369440000,22.3138210000 113.9368690000,22.3140740000 113.9364820000,22.3151120000 113.9362310000,22.3157880000 113.9360600000,22.3162470000 113.9356540000,22.3173370000 113.9355280000,22.3176750000 113.9353140000,22.3182230000 113.9351790000,22.3185650000 113.9351630000,22.3186910000 113.9351560000,22.3187980000 113.9351750000,22.3189650000 113.9351950000,22.3191140000 113.9352530000,22.3192830000 113.9353230000,22.3194140000 113.9354030000,22.3195300000 113.9356000000,22.3197410000 113.9357970000,22.3198700000 113.9360020000,22.3199710000 113.9363100000,22.3200970000 113.9364720000,22.3201460000 113.9367070000,22.3202210000 113.9369250000,22.3202910000 113.9370390000,22.3203270000 113.9371570000,22.3203500000 113.9372760000,22.3203650000 113.9373960000,22.3203710000 113.9375160000,22.3203690000 113.9376350000,22.3203570000 113.9377530000,22.3203380000 113.9378690000,22.3203090000 113.9379820000,22.3202730000 113.9380920000,22.3202280000 113.9381880000,22.3201810000 113.9382800000,22.3201260000 113.9383670000,22.3200660000 113.9384500000,22.3200000000 113.9385270000,22.3199290000 113.9385980000,22.3198530000 113.9389440000,22.3194280000 113.9389850000,22.3193740000 113.9390920000,22.3191970000 113.9391260000,22.3191460000 113.9391640000,22.3190990000 113.9392130000,22.3190540000 113.9393460000,22.3189580000 113.9393870000,22.3189250000 113.9394260000,22.3188870000 113.9394570000,22.3188490000 113.9394800000,22.3188120000 113.9395130000,22.3187470000 113.9399410000,22.3177580000 113.9401360000,22.3172700000 113.9402670000,22.3169460000 113.9403390000,22.3167980000 113.9404670000,22.3164600000 113.9405140000,22.3158620000 113.9405340000,22.3156240000 113.9405570000,22.3153590000 113.9405670000,22.3152080000 113.9405580000,22.3150380000 113.9405280000,22.3148740000 113.9404810000,22.3146820000 113.9404500000,22.3145710000 113.9404340000,22.3145010000 113.9404220000,22.3144400000 113.9404180000,22.3143880000 113.9404180000,22.3143470000 113.9404130000,22.3141240000 113.9404270000,22.3141100000 113.9404590000,22.3140490000 113.9404820000,22.3139750000 113.9404890000,22.3139010000 113.9404650000,22.3138040000 113.9404220000,22.3137210000 113.9403660000,22.3136600000 113.9403140000,22.3136170000 113.9402500000,22.3135840000 113.9399350000,22.3132890000 113.9398220000,22.3131550000 113.9393650000,22.3123720000 113.9392980000,22.3122210000 113.9392390000,22.3120560000 113.9392050000,22.3118630000 113.9391430000,22.3116480000 113.9390540000,22.3115070000 113.9389860000,22.3114040000 113.9388360000,22.3112310000 113.9386120000,22.3109950000 113.9383870000,22.3107600000 113.9382140000,22.3105130000 113.9380890000,22.3103880000 113.9380290000,22.3103070000 113.9379620000,22.3100810000 113.9378760000,22.3095350000 113.9378090000,22.3089490000 113.9377530000,22.3083740000 113.9376770000,22.3078150000 113.9375460000,22.3071650000 113.9373850000,22.3065230000 113.9370190000,22.3054330000 113.9368030000,22.3048500000 113.9364970000,22.3040530000 113.9361530000,22.3029100000 113.9360870000,22.3026620000 113.9360520000,22.3024890000 113.9360300000,22.3023030000 113.9360180000,22.3020750000 113.9360100000,22.3017530000 113.9359640000,22.3012900000 113.9358500000,22.3006070000 113.9358210000,22.3004250000 113.9358130000,22.3002460000 113.9358050000,22.2999520000 113.9358000000,22.2998440000 113.9358210000,22.2996990000 113.9358920000,22.2993320000 113.9359680000,22.2990050000 113.9361000000,22.2985340000 113.9361520000,22.2983040000 113.9361690000,22.2980660000 113.9361460000,22.2978740000 113.9361100000,22.2977650000 113.9360730000,22.2976690000 113.9360340000,22.2975870000 113.9359860000,22.2975040000 113.9359330000,22.2974310000 113.9358760000,22.2973610000 113.9358130000,22.2972920000 113.9357390000,22.2972240000 113.9356590000,22.2971640000 113.9355750000,22.2971080000 113.9354740000,22.2970490000 113.9353410000,22.2969780000 113.9348940000,22.2968100000 113.9342240000,22.2965760000 113.9340900000,22.2965250000 113.9339790000,22.2965310000 113.9339400000,22.2965190000 113.9338060000,22.2964480000 113.9337240000,22.2963800000 113.9336730000,22.2963410000 113.9336530000,22.2962500000 113.9336090000,22.2961300000 113.9335580000,22.2961010000 113.9335090000,22.2960780000 113.9334640000,22.2960570000 113.9334110000,22.2960430000 113.9333410000,22.2960320000 113.9332740000,22.2960350000 113.9331760000,22.2960700000 113.9331480000,22.2960870000 113.9331210000,22.2961050000 113.9330690000,22.2961580000 113.9330140000,22.2962380000 113.9329890000,22.2963220000 113.9329980000,22.2964160000 113.9330320000,22.2965060000 113.9331150000,22.2965950000 113.9331380000,22.2966960000 113.9331450000,22.2967280000 113.9331630000,22.2967960000 113.9331780000,22.2968740000 113.9331940000,22.2970350000 113.9332010000,22.2972500000 113.9331960000,22.2974210000 113.9331780000,22.2975570000 113.9331500000,22.2977370000 113.9331060000,22.2979310000 113.9330700000,22.2980890000 113.9330340000,22.2982360000 113.9330100000,22.2982900000 113.9329820000,22.2983260000 113.9329330000,22.2983720000 113.9328890000,22.2984040000 113.9328130000,22.2984400000 113.9327510000,22.2984290000 113.9326920000,22.2984240000 113.9326230000,22.2984330000 113.9325600000,22.2984490000 113.9324930000,22.2984760000 113.9324410000,22.2985070000 113.9323890000,22.2985490000 113.9323320000,22.2986040000 113.9322780000,22.2986630000 113.9322280000,22.2987260000 113.9321820000,22.2987950000 113.9321430000,22.2988620000 113.9321100000,22.2989310000 113.9320770000,22.2990170000 113.9320540000,22.2990910000 113.9320450000,22.2991350000 113.9320430000,22.2991860000 113.9320530000,22.2992750000 113.9320710000,22.2993370000 113.9320930000,22.2993840000 113.9321210000,22.2994250000 113.9321510000,22.2994600000 113.9321820000,22.2994910000 113.9322250000,22.2995250000 113.9322720000,22.2995510000 113.9323190000,22.2995710000 113.9324140000,22.2995900000 113.9324730000,22.2995950000 113.9325170000,22.2995940000 113.9325660000,22.2995870000 113.9326120000,22.2995740000 113.9326640000,22.2995540000 113.9327080000,22.2995310000 113.9327550000,22.2994990000 113.9328110000,22.2994550000 113.9329060000,22.2994460000 113.9329710000,22.2994430000 113.9330890000,22.2994540000 113.9332200000,22.2994950000 113.9334780000,22.2995640000 113.9337510000,22.2996450000 113.9339990000,22.2996860000 113.9342460000,22.2996860000 113.9344940000,22.2996680000 113.9345880000,22.2996540000 113.9346760000,22.2996350000 113.9347770000,22.2996100000 113.9348860000,22.2995750000 113.9349900000,22.2995350000 113.9350910000,22.2994890000 113.9351920000,22.2994300000 113.9352820000,22.2993680000 113.9353530000,22.2993120000 113.9354210000,22.2992460000 113.9355010000,22.2991560000 113.9355560000,22.2990800000 113.9356050000,22.2989970000 113.9356440000,22.2989200000 113.9356730000,22.2988510000 113.9356990000,22.2987750000 113.9357170000,22.2987060000 113.9357310000,22.2986320000 113.9357400000,22.2985610000 113.9357570000,22.2983530000 113.9357650000,22.2982640000 113.9357770000,22.2981820000 113.9358010000,22.2980770000 113.9358650000,22.2978560000 113.9359160000,22.2977000000 113.9361710000,22.2968800000 113.9362960000,22.2966480000 113.9367580000,22.2958170000 113.9369810000,22.2954240000 113.9372200000,22.2949960000 113.9373660000,22.2947480000 113.9375440000,22.2944630000 113.9379380000,22.2939420000 113.9382750000,22.2934720000 113.9385740000,22.2931120000 113.9388760000,22.2927800000 113.9394730000,22.2921620000 113.9396570000,22.2920020000 113.9397140000,22.2919530000 113.9397810000,22.2918940000 113.9401570000,22.2915970000 113.9404820000,22.2913300000 113.9407840000,22.2911200000 113.9410860000,22.2909230000 113.9413870000,22.2907440000 113.9417410000,22.2905350000 113.9420120000,22.2904060000 113.9424260000,22.2902200000 113.9428150000,22.2900690000 113.9431540000,22.2899500000 113.9435630000,22.2898200000 113.9437980000,22.2897610000 113.9440050000,22.2897220000 113.9445240000,22.2896210000 113.9449220000,22.2895610000 113.9455030000,22.2895030000 113.9461970000,22.2894740000 113.9465070000,22.2894790000 113.9469100000,22.2895000000 113.9474230000,22.2895510000 113.9478890000,22.2896190000 113.9484250000,22.2897320000 113.9487890000,22.2898340000 113.9491530000,22.2899500000 113.9495130000,22.2900840000 113.9498630000,22.2902340000 113.9501750000,22.2903860000 113.9504590000,22.2905370000 113.9507690000,22.2907200000 113.9510680000,22.2909150000 113.9513440000,22.2911130000 113.9516150000,22.2913280000 113.9519070000,22.2915810000 113.9521230000,22.2917860000 113.9522980000,22.2919630000 113.9532990000,22.2930220000 113.9535510000,22.2932850000 113.9537890000,22.2935190000 113.9540690000,22.2937800000 113.9543930000,22.2940630000 113.9547280000,22.2943400000 113.9550820000,22.2946160000 113.9554270000,22.2948660000 113.9557820000,22.2951070000 113.9561190000,22.2953240000 113.9565090000,22.2955580000 113.9569560000,22.2958070000 113.9574080000,22.2960370000 113.9578580000,22.2962480000 113.9582880000,22.2964330000 113.9587710000,22.2966220000 113.9591740000,22.2967660000 113.9595700000,22.2968940000 113.9599140000,22.2969950000 113.9603080000,22.2971000000 113.9607200000,22.2971990000 113.9645290000,22.2980500000 113.9650360000,22.2982350000 113.9657710000,22.2984500000 113.9666950000,22.2986710000 113.9669470000,22.2987280000 113.9671640000,22.2987760000 113.9674910000,22.2988390000 113.9676330000,22.2988710000 113.9677620000,22.2989030000 113.9678830000,22.2989380000 113.9679940000,22.2989750000 113.9680940000,22.2990140000 113.9681910000,22.2990560000 113.9682810000,22.2991020000 113.9683630000,22.2991480000 113.9684410000,22.2991970000 113.9685200000,22.2992520000 113.9686080000,22.2993180000 113.9686860000,22.2993850000 113.9687580000,22.2994530000 113.9688380000,22.2995320000 113.9689590000,22.2996620000 113.9694920000,22.3002580000 113.9695670000,22.3003470000 113.9696400000,22.3004390000 113.9697080000,22.3005330000 113.9697640000,22.3006160000 113.9698260000,22.3007160000 113.9698890000,22.3008350000 113.9699540000,22.3009700000 113.9700060000,22.3011060000 113.9700500000,22.3012390000 113.9700850000,22.3013720000 113.9701110000,22.3015030000 113.9701290000,22.3016310000 113.9701400000,22.3017770000 113.9701420000,22.3019320000 113.9701330000,22.3020960000 113.9701150000,22.3022510000 113.9700860000,22.3024020000 113.9700450000,22.3025570000 113.9699990000,22.3026950000 113.9699460000,22.3028250000 113.9698920000,22.3029420000 113.9698340000,22.3030490000 113.9697670000,22.3031600000 113.9696970000,22.3032640000 113.9696000000,22.3033910000 113.9695060000,22.3034990000 113.9694060000,22.3036030000 113.9692820000,22.3037140000 113.9691740000,22.3038030000 113.9690660000,22.3038820000 113.9689320000,22.3039750000 113.9679790000,22.3046060000 113.9611550000,22.3086680000 113.9606830000,22.3089530000 113.9599180000,22.3094070000 113.9588370000,22.3100510000 113.9587420000,22.3101120000 113.9586560000,22.3101720000 113.9585590000,22.3102450000 113.9584630000,22.3103240000 113.9583700000,22.3104160000 113.9582990000,22.3104950000 113.9582280000,22.3105820000 113.9581600000,22.3106820000 113.9580940000,22.3107910000 113.9580480000,22.3108810000 113.9580070000,22.3109790000 113.9579710000,22.3110790000 113.9579370000,22.3111930000 113.9579110000,22.3113240000 113.9579010000,22.3114000000 113.9578940000,22.3114770000 113.9578900000,22.3116090000 113.9578940000,22.3117130000 113.9579020000,22.3117900000 113.9579160000,22.3118890000 113.9579390000,22.3119920000 113.9579600000,22.3120700000 113.9579850000,22.3121530000 113.9580140000,22.3122270000 113.9580500000,22.3123030000 113.9581140000,22.3124290000 113.9582020000,22.3125660000 113.9582700000,22.3126620000 113.9583650000,22.3127810000 113.9588340000,22.3133070000 113.9591330000,22.3136800000 113.9593460000,22.3139830000 113.9593890000,22.3141010000 113.9595290000,22.3145550000 113.9596840000,22.3150750000 113.9598470000,22.3156130000 113.9600520000,22.3162850000 113.9601600000,22.3166390000 113.9604870000,22.3176950000 113.9606000000,22.3180610000 113.9607570000,22.3185760000 113.9608400000,22.3188450000 113.9609760000,22.3193300000 113.9610500000,22.3196070000 113.9610730000,22.3196940000 113.9611100000,22.3198580000 113.9611540000,22.3200520000 113.9611720000,22.3201600000 113.9612150000,22.3204140000 113.9612230000,22.3204620000 113.9612560000,22.3206710000 113.9612600000,22.3207050000 113.9612900000,22.3209230000 113.9612960000,22.3209830000 113.9613140000,22.3211620000 113.9613170000,22.3212160000 113.9613290000,22.3214250000 113.9613290000,22.3214640000 113.9613260000,22.3217050000 113.9613250000,22.3217350000 113.9613110000,22.3219940000 113.9612860000,22.3223590000 113.9612230000,22.3230460000 113.9612120000,22.3231700000 113.9611110000,22.3240130000 113.9576800000,22.3479200000 113.9574900000,22.3488700000 113.9571900000,22.3498800000 113.9570100000,22.3503700000 113.9567600000,22.3509000000 113.9562300000,22.3518400000 113.9559900000,22.3522000000 113.9485780000,22.3630010000 113.9484630000,22.3631870000 113.9481840000,22.3636410000 113.9481380000,22.3637160000 113.9479110000,22.3641550000 113.9478420000,22.3643080000 113.9477790000,22.3644500000 113.9477510000,22.3645250000 113.9477210000,22.3646090000 113.9475950000,22.3650070000 113.9475270000,22.3652910000 113.9474890000,22.3655100000 113.9474650000,22.3656600000 113.9474320000,22.3659590000 113.9474200000,22.3661940000 113.9474170000,22.3664920000 113.9474260000,22.3666930000 113.9474400000,22.3668910000 113.9474680000,22.3671140000 113.9474990000,22.3673170000 113.9475550000,22.3675880000 113.9475920000,22.3677450000 113.9476390000,22.3679170000 113.9476890000,22.3680750000 113.9477720000,22.3682960000 113.9479060000,22.3686160000 113.9479810000,22.3687760000 113.9481740000,22.3691240000 113.9483840000,22.3694390000 113.9485410000,22.3696610000 113.9487280000,22.3699110000 113.9488260000,22.3700310000 113.9490850000,22.3703350000 113.9491670000,22.3704380000 113.9492690000,22.3705760000 113.9493350000,22.3706700000 113.9494940000,22.3709140000 113.9498490000,22.3714590000 113.9499110000,22.3715510000 113.9500000000,22.3716740000 113.9500820000,22.3717790000 113.9501840000,22.3719010000 113.9502670000,22.3719900000 113.9504380000,22.3721520000 113.9506010000,22.3722950000 113.9507440000,22.3724140000 113.9508700000,22.3725010000 113.9509580000,22.3725520000 113.9510440000,22.3725960000 113.9512030000,22.3726560000 113.9513300000,22.3726910000 113.9514500000,22.3727130000 113.9515370000,22.3727220000 113.9516540000,22.3727280000 113.9517920000,22.3727210000 113.9519110000,22.3727050000 113.9520340000,22.3726780000 113.9521080000,22.3726560000 113.9521840000,22.3726290000 113.9522660000,22.3725960000 113.9523480000,22.3725550000 113.9524150000,22.3725110000 113.9524830000,22.3724620000 113.9528570000,22.3721760000 113.9529030000,22.3721450000 113.9529520000,22.3721180000 113.9530280000,22.3720890000 113.9530850000,22.3720820000 113.9531450000,22.3720990000 113.9532080000,22.3721040000 113.9532710000,22.3720990000 113.9533320000,22.3720820000 113.9533880000,22.3720560000 113.9534380000,22.3720200000 113.9534790000,22.3719760000 113.9535110000,22.3719250000 113.9535310000,22.3718700000 113.9536050000,22.3718170000 113.9536600000,22.3717870000 113.9537010000,22.3717740000 113.9537430000,22.3717680000 113.9537830000,22.3717680000 113.9538220000,22.3717750000 113.9538590000,22.3717870000 113.9538920000,22.3718040000 113.9539280000,22.3718270000 113.9539650000,22.3718560000 113.9540010000,22.3718890000 113.9540440000,22.3719340000 113.9541050000,22.3720090000 113.9541430000,22.3720670000 113.9545430000,22.3727520000 113.9546290000,22.3728910000 113.9546880000,22.3729860000 113.9547860000,22.3731270000 113.9550210000,22.3734210000 113.9552400000,22.3736790000 113.9553520000,22.3737920000 113.9556050000,22.3739930000 113.9558700000,22.3741830000 113.9562700000,22.3744040000 113.9567530000,22.3746170000 113.9570210000,22.3747250000 113.9572820000,22.3748300000 113.9581040000,22.3751210000 113.9581820000,22.3751520000 113.9591050000,22.3755190000 113.9594100000,22.3756400000 113.9595860000,22.3757190000 113.9597040000,22.3757780000 113.9597750000,22.3758240000 113.9598790000,22.3758940000 113.9600130000,22.3759940000 113.9601960000,22.3761320000 113.9602790000,22.3761970000 113.9602990000,22.3762140000 113.9603210000,22.3762340000 113.9604230000,22.3763480000 113.9609840000,22.3770450000 113.9618720000,22.3781650000 113.9620010000,22.3783290000 113.9621790000,22.3785600000 113.9622490000,22.3786500000 113.9625300000,22.3790130000 113.9626030000,22.3791080000 113.9626970000,22.3790640000 113.9629890000,22.3789350000 113.9640320000,22.3785940000 113.9642260000,22.3785340000 113.9651100000,22.3782590000 113.9659350000,22.3780030000 113.9663180000,22.3778800000 113.9667350000,22.3777480000 113.9668730000,22.3776960000 113.9669750000,22.3776600000 113.9670120000,22.3776480000 113.9670890000,22.3776210000 113.9671250000,22.3776070000 113.9673010000,22.3775470000 113.9676130000,22.3774440000 113.9677990000,22.3773620000 113.9678080000,22.3773580000 113.9678870000,22.3772670000 113.9679510000,22.3772290000 113.9680090000,22.3771890000 113.9680590000,22.3771470000 113.9681060000,22.3771000000 113.9681430000,22.3770570000 113.9681790000,22.3770130000 113.9682100000,22.3769680000 113.9682380000,22.3769230000 113.9685310000,22.3764050000 113.9686320000,22.3762270000 113.9687780000,22.3759690000 113.9692890000,22.3750660000 113.9695230000,22.3746520000 113.9697740000,22.3742080000 113.9698780000,22.3740240000 113.9700400000,22.3737390000 113.9702590000,22.3733510000 113.9704430000,22.3730260000 113.9704590000,22.3729910000 113.9704710000,22.3729510000 113.9704700000,22.3729210000 113.9704640000,22.3728890000 113.9704520000,22.3728660000 113.9704300000,22.3728460000 113.9700390000,22.3727820000 113.9697810000,22.3727560000 113.9691700000,22.3726850000 113.9687230000,22.3726620000 113.9685850000,22.3726560000 113.9684850000,22.3726530000 113.9684180000,22.3726470000 113.9683810000,22.3726180000 113.9683420000,22.3726100000 113.9683090000,22.3726060000 113.9682200000,22.3726120000 113.9681770000,22.3726150000 113.9681190000,22.3726230000 113.9679750000,22.3726560000 113.9677660000,22.3726740000 113.9674750000,22.3727390000 113.9673300000,22.3727810000 113.9671640000,22.3728200000 113.9670340000,22.3728470000 113.9668370000,22.3728960000 113.9666450000,22.3729420000 113.9657290000,22.3731800000 113.9654160000,22.3732640000 113.9653110000,22.3732900000 113.9653260000,22.3733410000 113.9653530000,22.3734390000 113.9655330000,22.3740270000 113.9656610000,22.3744440000 113.9656830000,22.3745160000 113.9657990000,22.3748940000 113.9660070000,22.3756000000 113.9660520000,22.3757210000 113.9662910000,22.3765120000 113.9663370000,22.3766530000 113.9663620000,22.3767310000 113.9664750000,22.3770750000 113.9666270000,22.3774880000 113.9666420000,22.3775280000 113.9666880000,22.3776520000 113.9667350000,22.3777480000 113.9667970000,22.3778590000 113.9669140000,22.3780660000 113.9670690000,22.3782710000 113.9672470000,22.3784330000 113.9674540000,22.3785760000 113.9678070000,22.3787850000 113.9689560000,22.3794660000 113.9695520000,22.3798190000 113.9697570000,22.3799820000 113.9698230000,22.3800620000 113.9699170000,22.3802010000 113.9700080000,22.3803640000 113.9700730000,22.3805320000 113.9700850000,22.3805710000 113.9701070000,22.3806600000 113.9702250000,22.3806430000 113.9703080000,22.3806370000 113.9703450000,22.3806360000 113.9703990000,22.3806340000 113.9704260000,22.3806340000 113.9707950000,22.3806300000 113.9709200000,22.3806390000 113.9710430000,22.3806560000 113.9711650000,22.3806980000 113.9713050000,22.3807470000 113.9714650000,22.3808100000 113.9722650000,22.3811460000 113.9724120000,22.3812050000 113.9732270000,22.3815380000 113.9732850000,22.3815610000 113.9734040000,22.3816150000 113.9746010000,22.3821410000 113.9750690000,22.3823470000 113.9751300000,22.3823730000 113.9751880000,22.3824000000 113.9752440000,22.3824250000 113.9752760000,22.3824370000 113.9753860000,22.3824860000 113.9755580000,22.3825590000 113.9756230000,22.3825840000 113.9762360000,22.3828450000 113.9763460000,22.3828920000 113.9771690000,22.3832390000 113.9778590000,22.3835310000 113.9778820000,22.3835410000 113.9779470000,22.3835650000 113.9780840000,22.3836020000 113.9781040000,22.3835200000 113.9781360000,22.3833960000 113.9781470000,22.3833510000 113.9781860000,22.3832010000 113.9782260000,22.3830170000 113.9782530000,22.3828350000 113.9782570000,22.3827860000 113.9782690000,22.3826290000 113.9782940000,22.3825390000 113.9783440000,22.3824320000 113.9783800000,22.3823700000 113.9787940000,22.3817480000 113.9788130000,22.3817200000 113.9788390000,22.3816800000 113.9790460000,22.3813650000 113.9791980000,22.3811460000 113.9794370000,22.3807850000 113.9800440000,22.3799010000 113.9801910000,22.3796850000 113.9804160000,22.3793170000 113.9805200000,22.3791700000 113.9808210000,22.3787420000 113.9811140000,22.3785140000 113.9813770000,22.3783710000 113.9817760000,22.3782150000 113.9822150000,22.3781100000 113.9823960000,22.3780780000 113.9827420000,22.3780240000 113.9829230000,22.3779960000 113.9829590000,22.3779900000 113.9832610000,22.3779110000 113.9833690000,22.3778740000 113.9835910000,22.3777710000 113.9836580000,22.3777270000 113.9844390000,22.3771100000 113.9846720000,22.3769010000 113.9847350000,22.3768410000 113.9848060000,22.3767750000 113.9858200000,22.3757940000 113.9860360000,22.3756020000 113.9860790000,22.3755540000 113.9861540000,22.3754690000 113.9863120000,22.3753200000 113.9864850000,22.3751580000 113.9866020000,22.3750480000 113.9868500000,22.3748150000 113.9871310000,22.3745520000 113.9873890000,22.3743100000 113.9874230000,22.3742780000 113.9876190000,22.3741230000 113.9876820000,22.3740880000 113.9878340000,22.3740050000 113.9880410000,22.3739610000 113.9884070000,22.3739260000 113.9885830000,22.3739130000 113.9894270000,22.3738520000 113.9898000000,22.3738140000 113.9901860000,22.3737810000 113.9902800000,22.3738070000 113.9907490000,22.3737590000 113.9910330000,22.3737260000 113.9912650000,22.3736990000 113.9916580000,22.3736490000 113.9919260000,22.3736120000 113.9921110000,22.3735610000 113.9924270000,22.3734340000 113.9925680000,22.3733420000 113.9926860000,22.3732350000 113.9928030000,22.3730930000 113.9928810000,22.3729920000 113.9929910000,22.3728330000 113.9931800000,22.3725500000 113.9935090000,22.3720560000 113.9936940000,22.3718000000 113.9941470000,22.3712050000 113.9941680000,22.3711770000 113.9942930000,22.3709840000 113.9944650000,22.3707250000 113.9947410000,22.3703070000 113.9947690000,22.3702630000 113.9951290000,22.3697690000 113.9953600000,22.3694410000 113.9955200000,22.3692370000 113.9955980000,22.3691030000 113.9957280000,22.3689060000 113.9958620000,22.3686990000 113.9960000000,22.3685070000 113.9960610000,22.3684390000 113.9961760000,22.3683090000 113.9963730000,22.3681480000 113.9964820000,22.3680850000 113.9966920000,22.3679820000 113.9967430000,22.3679950000 113.9967940000,22.3679850000 113.9968340000,22.3679530000 113.9968530000,22.3679080000 113.9969440000,22.3679020000 113.9970970000,22.3678790000 113.9972860000,22.3678760000 113.9974760000,22.3678890000 113.9974880000,22.3678900000 113.9976240000,22.3679190000 113.9981460000,22.3680370000 113.9982100000,22.3680480000 113.9984080000,22.3680830000 113.9984770000,22.3680900000 113.9986910000,22.3681100000 113.9988930000,22.3681180000 113.9992090000,22.3681080000 113.9993430000,22.3680950000 113.9995800000,22.3680410000 113.9996010000,22.3680350000 113.9998290000,22.3679710000 114.0000780000,22.3678860000 114.0004030000,22.3677350000 114.0005370000,22.3676590000 114.0006460000,22.3675850000 114.0016980000,22.3667000000 114.0018830000,22.3665730000 114.0020740000,22.3664640000 114.0023370000,22.3663780000 114.0023680000,22.3663860000 114.0024010000,22.3663860000 114.0024320000,22.3663780000 114.0024600000,22.3663630000 114.0024830000,22.3663410000 114.0026350000,22.3662780000 114.0027090000,22.3662580000 114.0027920000,22.3662360000 114.0029380000,22.3662240000 114.0029650000,22.3662210000 114.0029860000,22.3662190000 114.0030000000,22.3662190000 114.0030310000,22.3662170000 114.0030700000,22.3662150000 114.0031660000,22.3662090000 114.0033890000,22.3662030000 114.0037530000,22.3661920000 114.0041780000,22.3661680000 114.0046190000,22.3661530000 114.0049360000,22.3661420000 114.0051530000,22.3661520000 114.0052030000,22.3661540000 114.0054160000,22.3661690000 114.0060190000,22.3662670000 114.0064780000,22.3663480000 114.0069950000,22.3664550000 114.0076190000,22.3665490000 114.0077540000,22.3665570000 114.0079250000,22.3665660000 114.0082470000,22.3665670000 114.0085080000,22.3665640000 114.0088250000,22.3665380000 114.0089440000,22.3665200000 114.0095490000,22.3664390000 114.0106850000,22.3663280000 114.0108930000,22.3663050000 114.0112590000,22.3662710000 114.0115190000,22.3662300000 114.0118070000,22.3661440000 114.0120070000,22.3660680000 114.0120220000,22.3660620000 114.0122220000,22.3659720000 114.0123990000,22.3658760000 114.0126450000,22.3657120000 114.0128480000,22.3655450000 114.0130470000,22.3653580000 114.0131160000,22.3652800000 114.0131250000,22.3652700000 114.0132430000,22.3651090000 114.0133150000,22.3649880000 114.0134330000,22.3647410000 114.0135480000,22.3645510000 114.0136330000,22.3644740000 114.0136920000,22.3644470000 114.0138010000,22.3644160000 114.0138830000,22.3643800000 114.0139480000,22.3643470000 114.0144130000,22.3643360000 114.0145250000,22.3643250000 114.0146930000,22.3643030000 114.0147550000,22.3642870000 114.0148150000,22.3642690000 114.0148980000,22.3642430000 114.0150400000,22.3641920000 114.0153990000,22.3640330000 114.0155380000,22.3639650000 114.0156140000,22.3639110000 114.0156700000,22.3638790000 114.0158950000,22.3637970000 114.0160690000,22.3637330000 114.0161480000,22.3636970000 114.0162740000,22.3636410000 114.0163040000,22.3636280000 114.0163960000,22.3635930000 114.0166710000,22.3634620000 114.0167350000,22.3634220000 114.0167900000,22.3633890000 114.0168460000,22.3633670000 114.0168880000,22.3633490000 114.0169660000,22.3633130000 114.0170500000,22.3632840000 114.0171080000,22.3633050000 114.0171620000,22.3633180000 114.0171950000,22.3633150000 114.0172160000,22.3633120000 114.0173480000,22.3632970000 114.0175660000,22.3632720000 114.0176840000,22.3632460000 114.0177840000,22.3632300000 114.0178260000,22.3632290000 114.0180670000,22.3632170000 114.0182130000,22.3632070000 114.0183340000,22.3631860000 114.0185740000,22.3631160000 114.0187830000,22.3630250000 114.0189930000,22.3628570000 114.0191310000,22.3626820000 114.0192060000,22.3625540000 114.0192740000,22.3623920000 114.0193090000,22.3622770000 114.0193220000,22.3621790000 114.0193290000,22.3620660000 114.0193330000,22.3619120000 114.0193290000,22.3617630000 114.0192990000,22.3614720000 114.0192250000,22.3608620000 114.0191650000,22.3604050000 114.0191530000,22.3603160000 114.0191480000,22.3601670000 114.0191470000,22.3601420000 114.0191290000,22.3595230000 114.0191240000,22.3593610000 114.0191160000,22.3590720000 114.0191130000,22.3589580000 114.0191090000,22.3587210000 114.0191130000,22.3584790000 114.0191130000,22.3584150000 114.0191070000,22.3582510000 114.0191040000,22.3581520000 114.0191000000,22.3580880000 114.0190990000,22.3580460000 114.0191000000,22.3579720000 114.0190940000,22.3578280000 114.0190910000,22.3577500000 114.0190870000,22.3576710000 114.0190820000,22.3576100000 114.0191750000,22.3574800000 114.0192470000,22.3573720000 114.0193510000,22.3572800000 114.0195460000,22.3571480000 114.0198050000,22.3570110000 114.0204690000,22.3567540000 114.0210690000,22.3565460000 114.0221580000,22.3562410000 114.0231740000,22.3559800000 114.0240620000,22.3557960000 114.0248430000,22.3556850000 114.0255860000,22.3556220000 114.0263700000,22.3555880000 114.0270500000,22.3555910000 114.0284030000,22.3556820000 114.0292460000,22.3557580000 114.0295190000,22.3557740000 114.0301770000,22.3558570000 114.0307300000,22.3559570000 114.0313790000,22.3560980000 114.0314900000,22.3561290000 114.0317440000,22.3562050000 114.0323440000,22.3564100000 114.0329540000,22.3566450000 114.0333010000,22.3567870000 114.0334790000,22.3568610000 114.0335920000,22.3569400000 114.0337050000,22.3570410000 114.0338220000,22.3571660000 114.0338460000,22.3572040000 114.0338820000,22.3572330000 114.0339250000,22.3572480000 114.0339440000,22.3572480000 114.0339700000,22.3572490000 114.0340140000,22.3572370000 114.0342000000,22.3572620000 114.0342500000,22.3572750000 114.0346890000,22.3574520000 114.0349170000,22.3575320000 114.0351620000,22.3576220000 114.0354220000,22.3577140000 114.0355850000,22.3577660000 114.0359020000,22.3578670000 114.0362360000,22.3579550000 114.0367100000,22.3580810000 114.0370230000,22.3581440000 114.0374400000,22.3581930000 114.0380320000,22.3582920000 114.0382720000,22.3583520000 114.0384660000,22.3584170000 114.0388180000,22.3585590000 114.0390920000,22.3586960000 114.0393250000,22.3588340000 114.0395390000,22.3589820000 114.0397420000,22.3591450000 114.0401050000,22.3594570000 114.0404080000,22.3597110000 114.0405650000,22.3598390000 114.0410250000,22.3601490000 114.0410870000,22.3601870000 114.0415270000,22.3604080000 114.0418500000,22.3605610000 114.0423790000,22.3607890000 114.0425900000,22.3608730000 114.0427830000,22.3609490000 114.0434170000,22.3612050000 114.0436700000,22.3613130000 114.0436770000,22.3613170000 114.0437690000,22.3613510000 114.0438910000,22.3613980000 114.0439850000,22.3614290000 114.0440800000,22.3614600000 114.0441650000,22.3614850000 114.0442710000,22.3615110000 114.0443540000,22.3615320000 114.0444410000,22.3615510000 114.0445260000,22.3615690000 114.0446030000,22.3615810000 114.0446850000,22.3615910000 114.0447630000,22.3616000000 114.0448440000,22.3616070000 114.0449290000,22.3616090000 114.0450070000,22.3616090000 114.0450870000,22.3616060000 114.0451770000,22.3616000000 114.0452670000,22.3615920000 114.0453350000,22.3615890000 114.0453970000,22.3615890000 114.0454480000,22.3615930000 114.0454510000,22.3616030000 114.0454850000,22.3616500000 114.0455400000,22.3616850000 114.0456050000,22.3617010000 114.0456710000,22.3616960000 114.0457260000,22.3616730000 114.0457710000,22.3616360000 114.0458010000,22.3615880000 114.0460380000,22.3614700000 114.0461130000,22.3614420000 114.0463060000,22.3613690000 114.0465620000,22.3612900000 114.0468040000,22.3612260000 114.0471250000,22.3611620000 114.0473970000,22.3611290000 114.0475600000,22.3611220000 114.0477220000,22.3611230000 114.0480800000,22.3611440000 114.0483560000,22.3611840000 114.0486030000,22.3612320000 114.0488990000,22.3613170000 114.0491520000,22.3614170000 114.0496710000,22.3616640000 114.0500680000,22.3618680000 114.0503510000,22.3620120000 114.0505230000,22.3621270000 114.0507030000,22.3622380000 114.0510000000,22.3624370000 114.0516860000,22.3629420000 114.0519610000,22.3631050000 114.0523080000,22.3632390000 114.0526620000,22.3633290000 114.0533540000,22.3634470000 114.0535810000,22.3634890000 114.0537980000,22.3635520000 114.0539800000,22.3636240000 114.0541590000,22.3637110000 114.0544310000,22.3639080000 114.0547850000,22.3642150000 114.0548230000,22.3642600000 114.0548570000,22.3643050000 114.0548860000,22.3643500000 114.0549180000,22.3644120000 114.0549350000,22.3644850000 114.0549260000,22.3645380000 114.0549340000,22.3645910000 114.0549550000,22.3646360000 114.0549880000,22.3646740000 114.0550300000,22.3647030000 114.0550790000,22.3647210000 114.0551320000,22.3647260000 114.0552780000,22.3647890000 114.0553250000,22.3648120000 114.0553860000,22.3648470000 114.0554610000,22.3648940000 114.0556090000,22.3649920000 114.0558180000,22.3650910000 114.0561550000,22.3652260000 114.0563970000,22.3653190000 114.0567150000,22.3654430000 114.0567610000,22.3654610000 114.0569760000,22.3655440000 114.0570370000,22.3655720000 114.0571430000,22.3656200000 114.0574860000,22.3657760000 114.0577730000,22.3659210000 114.0581190000,22.3661440000 114.0583740000,22.3663480000 114.0588580000,22.3667740000 114.0590040000,22.3668930000 114.0590720000,22.3669470000 114.0593470000,22.3671760000 114.0595430000,22.3673510000 114.0597990000,22.3675460000 114.0598590000,22.3675860000 114.0599370000,22.3676270000 114.0600450000,22.3676750000 114.0601310000,22.3677080000 114.0602160000,22.3677320000 114.0603160000,22.3677460000 114.0604140000,22.3677510000 114.0606500000,22.3677490000 114.0609040000,22.3677260000 114.0609300000,22.3677230000 114.0610030000,22.3676940000 114.0610300000,22.3676800000 114.0610440000,22.3676670000 114.0610470000,22.3676620000 114.0610720000,22.3676220000 114.0610580000,22.3674670000 114.0610420000,22.3673060000 114.0612020000,22.3672900000 114.0612370000,22.3672970000 114.0612770000,22.3672940000 114.0614210000,22.3672800000</coordinates>
                </LineString>
                <ExtendedData>
                    <Data name="length">
                        <value>71897.27198617884</value>
                    </Data>
                    <Data name="duration">
                        <value>01:19:27</value>
                    </Data>
                </ExtendedData>
            </Placemark>
        </Document>
    </Document>
</kml>