<?xml version="1.0" encoding="UTF-8"?>
<kml xmlns="http://www.opengis.net/kml/2.2" xmlns:gx="http://www.google.com/kml/ext/2.2">
    <Document>
        <name>Route</name>
        <Folder>
            <name>Route Request</name>
            <Placemark>
                <address>Tsuen Wan Trade Association Primary School, Fung Shue Wo Road, Ha Kwai Chung, Tsing Yu New Village, Kwai Tsing District, Hong Kong, 852, PRC</address>
                <Point>
                    <coordinates>114.1032281321,22.3537953251</coordinates>
                </Point>
                <ExtendedData>
                    <Data name="school">
                        <value>Tsuen Wan Trade Association Primary School</value>
                    </Data>
                    <Data name="country_code">
                        <value>cn</value>
                    </Data>
                    <Data name="county">
                        <value>Kwai Tsing District</value>
                    </Data>
                    <Data name="road">
                        <value>Fung Shue Wo Road</value>
                    </Data>
                    <Data name="hamlet">
                        <value>Tsing Yu New Village</value>
                    </Data>
                    <Data name="suburb">
                        <value>Ha Kwai Chung</value>
                    </Data>
                    <Data name="country">
                        <value>PRC</value>
                    </Data>
                    <Data name="postcode">
                        <value>852</value>
                    </Data>
                </ExtendedData>
            </Placemark>
            <Placemark>
                <address>Tsing Luk Street, Ha Kwai Chung, Tsing Yu New Village, Kwai Tsing District, Hong Kong, 852, PRC</address>
                <Point>
                    <coordinates>114.1066619296,22.3546702571</coordinates>
                </Point>
                <ExtendedData>
                    <Data name="country_code">
                        <value>cn</value>
                    </Data>
                    <Data name="county">
                        <value>Kwai Tsing District</value>
                    </Data>
                    <Data name="road">
                        <value>Tsing Luk Street</value>
                    </Data>
                    <Data name="hamlet">
                        <value>Tsing Yu New Village</value>
                    </Data>
                    <Data name="suburb">
                        <value>Ha Kwai Chung</value>
                    </Data>
                    <Data name="country">
                        <value>PRC</value>
                    </Data>
                    <Data name="postcode">
                        <value>852</value>
                    </Data>
                </ExtendedData>
            </Placemark>
            <Placemark>
                <address>Tsing King Road, Tsing Yu New Village, Kwai Tsing District, Hong Kong, PRC</address>
                <Point>
                    <coordinates>114.1056357062,22.3598640920</coordinates>
                </Point>
                <ExtendedData>
                    <Data name="country_code">
                        <value>cn</value>
                    </Data>
                    <Data name="county">
                        <value>Kwai Tsing District</value>
                    </Data>
                    <Data name="road">
                        <value>Tsing King Road</value>
                    </Data>
                    <Data name="hamlet">
                        <value>Tsing Yu New Village</value>
                    </Data>
                    <Data name="country">
                        <value>PRC</value>
                    </Data>
                </ExtendedData>
            </Placemark>
            <Placemark>
                <address>On Ching House, Tam Kon Shan Road, Tsing Yi Hui, Kwai Tsing District, Hong Kong, PRC</address>
                <Point>
                    <coordinates>114.1028873635,22.3612461836</coordinates>
                </Point>
                <ExtendedData>
                    <Data name="country_code">
                        <value>cn</value>
                    </Data>
                    <Data name="county">
                        <value>Kwai Tsing District</value>
                    </Data>
                    <Data name="road">
                        <value>Tam Kon Shan Road</value>
                    </Data>
                    <Data name="hamlet">
                        <value>Tsing Yi Hui</value>
                    </Data>
                    <Data name="building">
                        <value>On Ching House</value>
                    </Data>
                    <Data name="country">
                        <value>PRC</value>
                    </Data>
                </ExtendedData>
            </Placemark>
            <Placemark>
                <address>Tower 6, Hoi Fai Road, Tai Kok Tsui, Yau Tsim Mong District, Hong Kong, KIL 3348, PRC</address>
                <Point>
                    <coordinates>114.1568636777,22.3185322606</coordinates>
                </Point>
                <ExtendedData>
                    <Data name="country_code">
                        <value>cn</value>
                    </Data>
                    <Data name="county">
                        <value>Yau Tsim Mong District</value>
                    </Data>
                    <Data name="road">
                        <value>Hoi Fai Road</value>
                    </Data>
                    <Data name="building">
                        <value>Tower 6</value>
                    </Data>
                    <Data name="suburb">
                        <value>Tai Kok Tsui</value>
                    </Data>
                    <Data name="country">
                        <value>PRC</value>
                    </Data>
                    <Data name="postcode">
                        <value>KIL 3348</value>
                    </Data>
                </ExtendedData>
            </Placemark>
            <Placemark>
                <address>Block 11, Hoi Wang Road, Yau Ma Tei, Yau Tsim Mong District, Hong Kong, KIL 3348, PRC</address>
                <Point>
                    <coordinates>114.1646786805,22.3134684115</coordinates>
                </Point>
                <ExtendedData>
                    <Data name="country_code">
                        <value>cn</value>
                    </Data>
                    <Data name="county">
                        <value>Yau Tsim Mong District</value>
                    </Data>
                    <Data name="road">
                        <value>Hoi Wang Road</value>
                    </Data>
                    <Data name="building">
                        <value>Block 11</value>
                    </Data>
                    <Data name="suburb">
                        <value>Yau Ma Tei</value>
                    </Data>
                    <Data name="country">
                        <value>PRC</value>
                    </Data>
                    <Data name="postcode">
                        <value>KIL 3348</value>
                    </Data>
                </ExtendedData>
            </Placemark>
            <Placemark>
                <address>Ultima, Ho Man Tin, Kowloon, Kowloon City District, Hong Kong, KIL 3348, PRC</address>
                <Point>
                    <coordinates>114.1824290489,22.3124433310</coordinates>
                </Point>
                <ExtendedData>
                    <Data name="country_code">
                        <value>cn</value>
                    </Data>
                    <Data name="county">
                        <value>Kowloon City District</value>
                    </Data>
                    <Data name="residential">
                        <value>Ultima</value>
                    </Data>
                    <Data name="city">
                        <value>Kowloon</value>
                    </Data>
                    <Data name="suburb">
                        <value>Ho Man Tin</value>
                    </Data>
                    <Data name="country">
                        <value>PRC</value>
                    </Data>
                    <Data name="postcode">
                        <value>KIL 3348</value>
                    </Data>
                </ExtendedData>
            </Placemark>
            <Placemark>
                <address>Whampoa Plaza, Tak Ting Street, Hung Hom, Kowloon, Kowloon City District, Hong Kong, KINGSFIELD MANSION LEVEL B, PRC</address>
                <Point>
                    <coordinates>114.1909783444,22.3047161651</coordinates>
                </Point>
                <ExtendedData>
                    <Data name="country_code">
                        <value>cn</value>
                    </Data>
                    <Data name="county">
                        <value>Kowloon City District</value>
                    </Data>
                    <Data name="mall">
                        <value>Whampoa Plaza</value>
                    </Data>
                    <Data name="road">
                        <value>Tak Ting Street</value>
                    </Data>
                    <Data name="city">
                        <value>Kowloon</value>
                    </Data>
                    <Data name="suburb">
                        <value>Hung Hom</value>
                    </Data>
                    <Data name="country">
                        <value>PRC</value>
                    </Data>
                    <Data name="postcode">
                        <value>KINGSFIELD MANSION LEVEL B</value>
                    </Data>
                </ExtendedData>
            </Placemark>
            <Placemark>
                <address>Tower 2, Bailey Street, To Kwa Wan, Kowloon, Kowloon City District, Hong Kong, KIL 3348, PRC</address>
                <Point>
                    <coordinates>114.1881060123,22.3122578715</coordinates>
                </Point>
                <ExtendedData>
                    <Data name="country_code">
                        <value>cn</value>
                    </Data>
                    <Data name="county">
                        <value>Kowloon City District</value>
                    </Data>
                    <Data name="road">
                        <value>Bailey Street</value>
                    </Data>
                    <Data name="building">
                        <value>Tower 2</value>
                    </Data>
                    <Data name="city">
                        <value>Kowloon</value>
                    </Data>
                    <Data name="suburb">
                        <value>To Kwa Wan</value>
                    </Data>
                    <Data name="country">
                        <value>PRC</value>
                    </Data>
                    <Data name="postcode">
                        <value>KIL 3348</value>
                    </Data>
                </ExtendedData>
            </Placemark>
            <Placemark>
                <address>Kowloon City Ferry, San Ma Tau Street, Ma Tau Kok, Kowloon, Kowloon City District, Hong Kong, KIL 3348, PRC</address>
                <Point>
                    <coordinates>114.1941896955,22.3182684457</coordinates>
                </Point>
                <ExtendedData>
                    <Data name="country_code">
                        <value>cn</value>
                    </Data>
                    <Data name="county">
                        <value>Kowloon City District</value>
                    </Data>
                    <Data name="road">
                        <value>San Ma Tau Street</value>
                    </Data>
                    <Data name="city">
                        <value>Kowloon</value>
                    </Data>
                    <Data name="bus_station">
                        <value>Kowloon City Ferry</value>
                    </Data>
                    <Data name="suburb">
                        <value>Ma Tau Kok</value>
                    </Data>
                    <Data name="country">
                        <value>PRC</value>
                    </Data>
                    <Data name="postcode">
                        <value>KIL 3348</value>
                    </Data>
                </ExtendedData>
            </Placemark>
            <Placemark>
                <address>Station Lane, Hung Hom, Kowloon, Kowloon City District, Hong Kong, KIL 3348, PRC</address>
                <Point>
                    <coordinates>114.1869003561,22.3070549427</coordinates>
                </Point>
                <ExtendedData>
                    <Data name="country_code">
                        <value>cn</value>
                    </Data>
                    <Data name="county">
                        <value>Kowloon City District</value>
                    </Data>
                    <Data name="road">
                        <value>Station Lane</value>
                    </Data>
                    <Data name="city">
                        <value>Kowloon</value>
                    </Data>
                    <Data name="suburb">
                        <value>Hung Hom</value>
                    </Data>
                    <Data name="country">
                        <value>PRC</value>
                    </Data>
                    <Data name="postcode">
                        <value>KIL 3348</value>
                    </Data>
                </ExtendedData>
            </Placemark>
            <Placemark>
                <address>Whampoa Plaza, Tak Ting Street, Hung Hom, Kowloon, Kowloon City District, Hong Kong, KINGSFIELD MANSION LEVEL B, PRC</address>
                <Point>
                    <coordinates>114.1909733976,22.3047200142</coordinates>
                </Point>
                <ExtendedData>
                    <Data name="country_code">
                        <value>cn</value>
                    </Data>
                    <Data name="county">
                        <value>Kowloon City District</value>
                    </Data>
                    <Data name="mall">
                        <value>Whampoa Plaza</value>
                    </Data>
                    <Data name="road">
                        <value>Tak Ting Street</value>
                    </Data>
                    <Data name="city">
                        <value>Kowloon</value>
                    </Data>
                    <Data name="suburb">
                        <value>Hung Hom</value>
                    </Data>
                    <Data name="country">
                        <value>PRC</value>
                    </Data>
                    <Data name="postcode">
                        <value>KINGSFIELD MANSION LEVEL B</value>
                    </Data>
                </ExtendedData>
            </Placemark>
            <Placemark>
                <address>Hung Yiu House, Fat Kwong Street Flyover, Hung Hom, Kowloon, Kowloon City District, Hong Kong, KIL 3348, PRC</address>
                <Point>
                    <coordinates>114.1895419681,22.3088088372</coordinates>
                </Point>
                <ExtendedData>
                    <Data name="country_code">
                        <value>cn</value>
                    </Data>
                    <Data name="county">
                        <value>Kowloon City District</value>
                    </Data>
                    <Data name="road">
                        <value>Fat Kwong Street Flyover</value>
                    </Data>
                    <Data name="building">
                        <value>Hung Yiu House</value>
                    </Data>
                    <Data name="city">
                        <value>Kowloon</value>
                    </Data>
                    <Data name="suburb">
                        <value>Hung Hom</value>
                    </Data>
                    <Data name="country">
                        <value>PRC</value>
                    </Data>
                    <Data name="postcode">
                        <value>KIL 3348</value>
                    </Data>
                </ExtendedData>
            </Placemark>
            <Placemark>
                <address>Pui Ching Primary School, 80, Waterloo Road, King's Park, Yau Tsim Mong District, Hong Kong, KIL 3348, PRC</address>
                <Point>
                    <coordinates>114.1759956323,22.3181332092</coordinates>
                </Point>
                <ExtendedData>
                    <Data name="school">
                        <value>Pui Ching Primary School</value>
                    </Data>
                    <Data name="country_code">
                        <value>cn</value>
                    </Data>
                    <Data name="county">
                        <value>Yau Tsim Mong District</value>
                    </Data>
                    <Data name="road">
                        <value>Waterloo Road</value>
                    </Data>
                    <Data name="house_number">
                        <value>80</value>
                    </Data>
                    <Data name="suburb">
                        <value>King's Park</value>
                    </Data>
                    <Data name="country">
                        <value>PRC</value>
                    </Data>
                    <Data name="postcode">
                        <value>KIL 3348</value>
                    </Data>
                </ExtendedData>
            </Placemark>
            <Placemark>
                <address>Hoi Lam House, Hoi Ting Road, Mong Kok, Yau Tsim Mong District, Hong Kong, KIL 3348, PRC</address>
                <Point>
                    <coordinates>114.1635640012,22.3166124819</coordinates>
                </Point>
                <ExtendedData>
                    <Data name="country_code">
                        <value>cn</value>
                    </Data>
                    <Data name="county">
                        <value>Yau Tsim Mong District</value>
                    </Data>
                    <Data name="road">
                        <value>Hoi Ting Road</value>
                    </Data>
                    <Data name="building">
                        <value>Hoi Lam House</value>
                    </Data>
                    <Data name="suburb">
                        <value>Mong Kok</value>
                    </Data>
                    <Data name="country">
                        <value>PRC</value>
                    </Data>
                    <Data name="postcode">
                        <value>KIL 3348</value>
                    </Data>
                </ExtendedData>
            </Placemark>
            <Placemark>
                <address>The Long Beach, Hoi Fai Road, Tai Kok Tsui, Yau Tsim Mong District, Hong Kong, KIL 3348, PRC</address>
                <Point>
                    <coordinates>114.1563320372,22.3196250738</coordinates>
                </Point>
                <ExtendedData>
                    <Data name="country_code">
                        <value>cn</value>
                    </Data>
                    <Data name="county">
                        <value>Yau Tsim Mong District</value>
                    </Data>
                    <Data name="bus_stop">
                        <value>The Long Beach</value>
                    </Data>
                    <Data name="road">
                        <value>Hoi Fai Road</value>
                    </Data>
                    <Data name="suburb">
                        <value>Tai Kok Tsui</value>
                    </Data>
                    <Data name="country">
                        <value>PRC</value>
                    </Data>
                    <Data name="postcode">
                        <value>KIL 3348</value>
                    </Data>
                </ExtendedData>
            </Placemark>
            <Placemark>
                <address>On Ching House, Tam Kon Shan Road, Tsing Yi Hui, Kwai Tsing District, Hong Kong, PRC</address>
                <Point>
                    <coordinates>114.1028791200,22.3612615747</coordinates>
                </Point>
                <ExtendedData>
                    <Data name="country_code">
                        <value>cn</value>
                    </Data>
                    <Data name="county">
                        <value>Kwai Tsing District</value>
                    </Data>
                    <Data name="road">
                        <value>Tam Kon Shan Road</value>
                    </Data>
                    <Data name="hamlet">
                        <value>Tsing Yi Hui</value>
                    </Data>
                    <Data name="building">
                        <value>On Ching House</value>
                    </Data>
                    <Data name="country">
                        <value>PRC</value>
                    </Data>
                </ExtendedData>
            </Placemark>
            <Placemark>
                <address>7-Eleven, Tsing King Road, Ha Kwai Chung, Tsing Yu New Village, Kwai Tsing District, Hong Kong, 852, PRC</address>
                <Point>
                    <coordinates>114.1070239557,22.3549064869</coordinates>
                </Point>
                <ExtendedData>
                    <Data name="country_code">
                        <value>cn</value>
                    </Data>
                    <Data name="county">
                        <value>Kwai Tsing District</value>
                    </Data>
                    <Data name="road">
                        <value>Tsing King Road</value>
                    </Data>
                    <Data name="hamlet">
                        <value>Tsing Yu New Village</value>
                    </Data>
                    <Data name="convenience">
                        <value>7-Eleven</value>
                    </Data>
                    <Data name="suburb">
                        <value>Ha Kwai Chung</value>
                    </Data>
                    <Data name="country">
                        <value>PRC</value>
                    </Data>
                    <Data name="postcode">
                        <value>852</value>
                    </Data>
                </ExtendedData>
            </Placemark>
            <Placemark>
                <address>Tsing Yi Public Pier, 青衣海濱長廊, Tsing Yi Hui, Kwai Tsing District, Hong Kong, 852, PRC</address>
                <Point>
                    <coordinates>114.1095144917,22.3538668268</coordinates>
                </Point>
                <ExtendedData>
                    <Data name="address29">
                        <value>Tsing Yi Public Pier</value>
                    </Data>
                    <Data name="country_code">
                        <value>cn</value>
                    </Data>
                    <Data name="county">
                        <value>Kwai Tsing District</value>
                    </Data>
                    <Data name="footway">
                        <value>青衣海濱長廊</value>
                    </Data>
                    <Data name="hamlet">
                        <value>Tsing Yi Hui</value>
                    </Data>
                    <Data name="country">
                        <value>PRC</value>
                    </Data>
                    <Data name="postcode">
                        <value>852</value>
                    </Data>
                </ExtendedData>
            </Placemark>
            <Placemark>
                <address>Tsuen Wan Trade Association Primary School, Fung Shue Wo Road, Ha Kwai Chung, Tsing Yu New Village, Kwai Tsing District, Hong Kong, 852, PRC</address>
                <Point>
                    <coordinates>114.1032337195,22.3537875769</coordinates>
                </Point>
                <ExtendedData>
                    <Data name="school">
                        <value>Tsuen Wan Trade Association Primary School</value>
                    </Data>
                    <Data name="country_code">
                        <value>cn</value>
                    </Data>
                    <Data name="county">
                        <value>Kwai Tsing District</value>
                    </Data>
                    <Data name="road">
                        <value>Fung Shue Wo Road</value>
                    </Data>
                    <Data name="hamlet">
                        <value>Tsing Yu New Village</value>
                    </Data>
                    <Data name="suburb">
                        <value>Ha Kwai Chung</value>
                    </Data>
                    <Data name="country">
                        <value>PRC</value>
                    </Data>
                    <Data name="postcode">
                        <value>852</value>
                    </Data>
                </ExtendedData>
            </Placemark>
        </Folder>
        <Document>
            <name>39.3 km; 01:47 h (OSRM)</name>
            <Placemark>
                <name>Route</name>
                <LineString>
                    <coordinates>114.1032280000,22.3537750000 114.1032030000,22.3537750000 114.1031490000,22.3537870000 114.1031160000,22.3538310000 114.1031160000,22.3541980000 114.1031430000,22.3542210000 114.1035970000,22.3542150000 114.1036580000,22.3542140000 114.1037010000,22.3542140000 114.1037400000,22.3542120000 114.1037810000,22.3542130000 114.1039230000,22.3543000000 114.1039340000,22.3538820000 114.1039510000,22.3537870000 114.1039720000,22.3536720000 114.1040160000,22.3535170000 114.1040840000,22.3533780000 114.1041840000,22.3532670000 114.1043090000,22.3531750000 114.1044450000,22.3531160000 114.1046300000,22.3530690000 114.1048350000,22.3530560000 114.1049920000,22.3530630000 114.1050320000,22.3530640000 114.1051610000,22.3530800000 114.1052800000,22.3530940000 114.1055380000,22.3531320000 114.1057270000,22.3532250000 114.1058610000,22.3533540000 114.1060040000,22.3535350000 114.1060700000,22.3537060000 114.1060930000,22.3539160000 114.1060940000,22.3543320000 114.1061230000,22.3544640000 114.1062030000,22.3545690000 114.1063530000,22.3546590000 114.1065540000,22.3546890000 114.1066620000,22.3546890000 114.1068150000,22.3546900000 114.1068750000,22.3546900000 114.1068600000,22.3548760000 114.1068340000,22.3552030000 114.1068080000,22.3556320000 114.1067920000,22.3558680000 114.1067760000,22.3560960000 114.1067750000,22.3561650000 114.1067560000,22.3563100000 114.1067020000,22.3565330000 114.1065980000,22.3567790000 114.1064570000,22.3570480000 114.1062380000,22.3573830000 114.1059830000,22.3577650000 114.1059480000,22.3578220000 114.1057770000,22.3580670000 114.1056690000,22.3582290000 114.1055510000,22.3584100000 114.1054540000,22.3585450000 114.1053750000,22.3587020000 114.1053450000,22.3588090000 114.1053490000,22.3588920000 114.1053490000,22.3589880000 114.1053930000,22.3592240000 114.1054700000,22.3594370000 114.1057160000,22.3598200000 114.1057630000,22.3598920000 114.1058040000,22.3599490000 114.1058540000,22.3600220000 114.1059270000,22.3600820000 114.1059550000,22.3602010000 114.1059690000,22.3603300000 114.1059520000,22.3605130000 114.1058920000,22.3607250000 114.1057820000,22.3609020000 114.1056170000,22.3610650000 114.1054490000,22.3611740000 114.1054140000,22.3611820000 114.1051520000,22.3612420000 114.1048930000,22.3612700000 114.1045180000,22.3612740000 114.1042320000,22.3612570000 114.1041830000,22.3612430000 114.1039580000,22.3611780000 114.1038630000,22.3610910000 114.1038470000,22.3611430000 114.1036690000,22.3614130000 114.1036350000,22.3614650000 114.1036170000,22.3614930000 114.1035700000,22.3615230000 114.1034140000,22.3615260000 114.1033850000,22.3615150000 114.1033530000,22.3614930000 114.1033370000,22.3614700000 114.1033040000,22.3614230000 114.1032410000,22.3613320000 114.1031960000,22.3613000000 114.1028930000,22.3612260000 114.1027340000,22.3611870000 114.1026360000,22.3611590000 114.1026780000,22.3610460000 114.1027060000,22.3608490000 114.1027100000,22.3607730000 114.1027430000,22.3606650000 114.1027540000,22.3604710000 114.1027830000,22.3603670000 114.1028410000,22.3602570000 114.1029010000,22.3601970000 114.1029540000,22.3601840000 114.1030050000,22.3601650000 114.1030550000,22.3601400000 114.1031010000,22.3601110000 114.1031430000,22.3600770000 114.1031850000,22.3600420000 114.1032210000,22.3599960000 114.1032580000,22.3599350000 114.1032880000,22.3598140000 114.1033840000,22.3596870000 114.1035180000,22.3596100000 114.1037050000,22.3595660000 114.1039580000,22.3595000000 114.1045390000,22.3594220000 114.1049370000,22.3593860000 114.1053190000,22.3593770000 114.1056830000,22.3593990000 114.1063050000,22.3594590000 114.1068380000,22.3595320000 114.1071510000,22.3595500000 114.1079300000,22.3596870000 114.1085510000,22.3598040000 114.1090070000,22.3598870000 114.1094630000,22.3599650000 114.1106260000,22.3601650000 114.1110070000,22.3602300000 114.1116950000,22.3603480000 114.1118840000,22.3603800000 114.1125670000,22.3604980000 114.1129240000,22.3605550000 114.1132470000,22.3606260000 114.1134850000,22.3606870000 114.1137060000,22.3607870000 114.1139830000,22.3609440000 114.1143070000,22.3611360000 114.1144760000,22.3612690000 114.1146670000,22.3614900000 114.1148080000,22.3616100000 114.1152220000,22.3619330000 114.1154560000,22.3621100000 114.1156460000,22.3622340000 114.1157820000,22.3623110000 114.1165080000,22.3626690000 114.1166980000,22.3627580000 114.1168370000,22.3628430000 114.1168940000,22.3628990000 114.1169370000,22.3629420000 114.1169380000,22.3629880000 114.1169390000,22.3630310000 114.1169560000,22.3631030000 114.1169950000,22.3631960000 114.1170560000,22.3632750000 114.1171330000,22.3633500000 114.1172270000,22.3634080000 114.1173190000,22.3634420000 114.1174320000,22.3634700000 114.1175630000,22.3634880000 114.1177090000,22.3634920000 114.1178080000,22.3634870000 114.1178760000,22.3634790000 114.1179620000,22.3634480000 114.1180330000,22.3634070000 114.1180980000,22.3633580000 114.1181630000,22.3632910000 114.1181920000,22.3632240000 114.1182000000,22.3631220000 114.1181900000,22.3630760000 114.1181710000,22.3630090000 114.1181440000,22.3629370000 114.1182330000,22.3628180000 114.1183270000,22.3626940000 114.1185400000,22.3624730000 114.1186780000,22.3622840000 114.1188100000,22.3620660000 114.1189380000,22.3618260000 114.1190810000,22.3614660000 114.1192360000,22.3610650000 114.1196410000,22.3598800000 114.1198320000,22.3594730000 114.1199770000,22.3591760000 114.1201150000,22.3589430000 114.1203390000,22.3585730000 114.1205520000,22.3582890000 114.1207090000,22.3581150000 114.1210420000,22.3577670000 114.1213110000,22.3575050000 114.1214920000,22.3573370000 114.1219310000,22.3569640000 114.1222020000,22.3567080000 114.1224780000,22.3564550000 114.1231350000,22.3558540000 114.1237890000,22.3552050000 114.1244990000,22.3545360000 114.1251680000,22.3539510000 114.1258860000,22.3532540000 114.1260530000,22.3530360000 114.1261830000,22.3527950000 114.1262590000,22.3526270000 114.1262840000,22.3524340000 114.1262980000,22.3522310000 114.1262760000,22.3520290000 114.1262420000,22.3518280000 114.1261320000,22.3514400000 114.1258160000,22.3505290000 114.1257640000,22.3503510000 114.1257020000,22.3500920000 114.1255930000,22.3495410000 114.1255350000,22.3492900000 114.1254530000,22.3485590000 114.1253360000,22.3478500000 114.1252440000,22.3471030000 114.1252490000,22.3468340000 114.1252450000,22.3466180000 114.1252690000,22.3463930000 114.1253010000,22.3461290000 114.1253570000,22.3458820000 114.1254670000,22.3455570000 114.1255670000,22.3453830000 114.1256660000,22.3452260000 114.1258230000,22.3450210000 114.1261710000,22.3446220000 114.1265330000,22.3442760000 114.1269240000,22.3440300000 114.1272820000,22.3438400000 114.1276470000,22.3436840000 114.1281270000,22.3434690000 114.1283770000,22.3433460000 114.1286560000,22.3432050000 114.1289710000,22.3430190000 114.1291870000,22.3428750000 114.1294020000,22.3427320000 114.1295670000,22.3426040000 114.1297310000,22.3424680000 114.1298900000,22.3423150000 114.1301370000,22.3420730000 114.1303630000,22.3417950000 114.1306770000,22.3413100000 114.1308700000,22.3409770000 114.1310190000,22.3406270000 114.1311910000,22.3402610000 114.1313730000,22.3398820000 114.1316710000,22.3392680000 114.1318380000,22.3388800000 114.1320290000,22.3384520000 114.1321900000,22.3381270000 114.1323810000,22.3378010000 114.1326340000,22.3374160000 114.1328490000,22.3371110000 114.1330810000,22.3368060000 114.1333360000,22.3365110000 114.1336020000,22.3362270000 114.1338900000,22.3359480000 114.1339530000,22.3358950000 114.1348240000,22.3351680000 114.1351300000,22.3349590000 114.1354160000,22.3347750000 114.1357060000,22.3346060000 114.1360310000,22.3344250000 114.1363260000,22.3342690000 114.1366140000,22.3341310000 114.1369430000,22.3339880000 114.1373830000,22.3338160000 114.1378110000,22.3336600000 114.1386610000,22.3333430000 114.1391380000,22.3332380000 114.1395480000,22.3331000000 114.1399080000,22.3329850000 114.1403610000,22.3328440000 114.1407700000,22.3327200000 114.1410000000,22.3326530000 114.1415590000,22.3324200000 114.1418070000,22.3322940000 114.1420600000,22.3321900000 114.1421160000,22.3321670000 114.1424750000,22.3320140000 114.1441310000,22.3314010000 114.1444610000,22.3312770000 114.1445550000,22.3312370000 114.1452410000,22.3309720000 114.1463780000,22.3305080000 114.1469190000,22.3303140000 114.1473950000,22.3301400000 114.1478570000,22.3299480000 114.1485500000,22.3297040000 114.1490120000,22.3295020000 114.1497570000,22.3291370000 114.1501000000,22.3289550000 114.1503960000,22.3287860000 114.1507410000,22.3285760000 114.1520550000,22.3277150000 114.1526590000,22.3272860000 114.1531820000,22.3269000000 114.1537150000,22.3264900000 114.1539540000,22.3262910000 114.1542690000,22.3260350000 114.1546560000,22.3256860000 114.1549900000,22.3253550000 114.1552240000,22.3251220000 114.1557270000,22.3246280000 114.1560650000,22.3242700000 114.1564410000,22.3238480000 114.1567550000,22.3235280000 114.1572650000,22.3229790000 114.1574240000,22.3228010000 114.1580160000,22.3220670000 114.1581700000,22.3219480000 114.1582400000,22.3219440000 114.1583060000,22.3219270000 114.1583690000,22.3218940000 114.1584140000,22.3218570000 114.1584550000,22.3217980000 114.1584850000,22.3217300000 114.1584900000,22.3216640000 114.1584870000,22.3215990000 114.1584730000,22.3215400000 114.1584450000,22.3214840000 114.1583710000,22.3213830000 114.1582890000,22.3213040000 114.1581330000,22.3212140000 114.1579870000,22.3211600000 114.1578660000,22.3211430000 114.1577810000,22.3211420000 114.1576940000,22.3211500000 114.1575210000,22.3211460000 114.1574230000,22.3211420000 114.1573210000,22.3211060000 114.1572090000,22.3210340000 114.1570940000,22.3209220000 114.1569690000,22.3207790000 114.1568580000,22.3206500000 114.1567450000,22.3204290000 114.1566950000,22.3203330000 114.1566500000,22.3201960000 114.1566010000,22.3200100000 114.1565880000,22.3199060000 114.1565880000,22.3198580000 114.1565930000,22.3197090000 114.1566130000,22.3195830000 114.1566440000,22.3194280000 114.1567160000,22.3191610000 114.1567510000,22.3190020000 114.1567850000,22.3187920000 114.1568000000,22.3185440000 114.1568000000,22.3185310000 114.1568060000,22.3183010000 114.1568030000,22.3181780000 114.1567980000,22.3177600000 114.1567990000,22.3177020000 114.1568050000,22.3176480000 114.1568180000,22.3175930000 114.1568430000,22.3175270000 114.1568900000,22.3175100000 114.1569300000,22.3174830000 114.1570690000,22.3174430000 114.1571390000,22.3174440000 114.1579100000,22.3174380000 114.1594300000,22.3174310000 114.1598620000,22.3174440000 114.1602980000,22.3175160000 114.1605780000,22.3176170000 114.1609100000,22.3177170000 114.1615040000,22.3179400000 114.1618970000,22.3180710000 114.1619690000,22.3181200000 114.1620620000,22.3181970000 114.1621140000,22.3182630000 114.1621480000,22.3183170000 114.1621740000,22.3183570000 114.1622480000,22.3184730000 114.1622920000,22.3186690000 114.1623770000,22.3187990000 114.1624400000,22.3188680000 114.1625340000,22.3189300000 114.1626160000,22.3189680000 114.1627050000,22.3189880000 114.1627270000,22.3189900000 114.1628250000,22.3189960000 114.1629290000,22.3188950000 114.1630570000,22.3188130000 114.1631350000,22.3187180000 114.1631750000,22.3186640000 114.1632100000,22.3186170000 114.1632770000,22.3185030000 114.1632830000,22.3184890000 114.1633210000,22.3184080000 114.1633530000,22.3183070000 114.1634230000,22.3180820000 114.1634960000,22.3178110000 114.1635710000,22.3175800000 114.1636510000,22.3172880000 114.1636810000,22.3171810000 114.1637080000,22.3170650000 114.1637360000,22.3169380000 114.1638790000,22.3162590000 114.1638940000,22.3161950000 114.1640170000,22.3156760000 114.1641180000,22.3152310000 114.1641850000,22.3149330000 114.1643750000,22.3141510000 114.1643960000,22.3140680000 114.1644820000,22.3137270000 114.1645540000,22.3134410000 114.1646550000,22.3130420000 114.1646730000,22.3129680000 114.1647060000,22.3128180000 114.1647180000,22.3127630000 114.1647390000,22.3126650000 114.1647990000,22.3124050000 114.1648780000,22.3123240000 114.1648780000,22.3123240000 114.1649490000,22.3122690000 114.1650250000,22.3122300000 114.1651180000,22.3122040000 114.1654340000,22.3122020000 114.1658900000,22.3122760000 114.1665030000,22.3123820000 114.1666550000,22.3124020000 114.1667710000,22.3124140000 114.1669460000,22.3124410000 114.1670050000,22.3124500000 114.1674820000,22.3125180000 114.1675660000,22.3125290000 114.1684230000,22.3126780000 114.1684500000,22.3126830000 114.1685170000,22.3126950000 114.1688760000,22.3127570000 114.1689750000,22.3127740000 114.1690650000,22.3127890000 114.1693390000,22.3128300000 114.1694280000,22.3128440000 114.1695570000,22.3128650000 114.1700260000,22.3129430000 114.1704670000,22.3130310000 114.1705080000,22.3130390000 114.1705980000,22.3130570000 114.1706980000,22.3130740000 114.1708320000,22.3130950000 114.1712530000,22.3131580000 114.1713190000,22.3131700000 114.1713600000,22.3131800000 114.1713980000,22.3131920000 114.1714430000,22.3132110000 114.1714750000,22.3132350000 114.1715020000,22.3132660000 114.1717420000,22.3136150000 114.1719640000,22.3139250000 114.1719860000,22.3139550000 114.1720280000,22.3140180000 114.1721480000,22.3141940000 114.1723710000,22.3144890000 114.1726850000,22.3148940000 114.1727230000,22.3149440000 114.1728290000,22.3150850000 114.1734430000,22.3159060000 114.1737940000,22.3163730000 114.1738080000,22.3163920000 114.1738360000,22.3164300000 114.1739920000,22.3166440000 114.1741950000,22.3169270000 114.1743700000,22.3171700000 114.1748900000,22.3178800000 114.1751200000,22.3181900000 114.1753000000,22.3184310000 114.1753210000,22.3184600000 114.1754010000,22.3185600000 114.1754380000,22.3186090000 114.1755480000,22.3185400000 114.1756480000,22.3184890000 114.1762830000,22.3181630000 114.1765440000,22.3180460000 114.1767720000,22.3180160000 114.1769930000,22.3180040000 114.1772270000,22.3179980000 114.1775060000,22.3179230000 114.1776150000,22.3178800000 114.1778320000,22.3177930000 114.1779300000,22.3177520000 114.1780950000,22.3176850000 114.1782430000,22.3176240000 114.1788210000,22.3173730000 114.1789440000,22.3173210000 114.1790270000,22.3172880000 114.1791490000,22.3172400000 114.1793640000,22.3171600000 114.1798070000,22.3170080000 114.1799610000,22.3169450000 114.1803060000,22.3167850000 114.1807310000,22.3165330000 114.1811170000,22.3161940000 114.1811570000,22.3161570000 114.1811960000,22.3161150000 114.1812810000,22.3160110000 114.1813590000,22.3158810000 114.1814180000,22.3157250000 114.1815210000,22.3152410000 114.1816630000,22.3146020000 114.1816770000,22.3145490000 114.1817360000,22.3143430000 114.1819190000,22.3136320000 114.1819580000,22.3134430000 114.1819500000,22.3132540000 114.1820730000,22.3127500000 114.1821250000,22.3126070000 114.1821960000,22.3124720000 114.1822690000,22.3123560000 114.1822800000,22.3123390000 114.1824180000,22.3121890000 114.1828380000,22.3117890000 114.1828790000,22.3117500000 114.1829540000,22.3116800000 114.1840480000,22.3106540000 114.1841950000,22.3105170000 114.1842840000,22.3104340000 114.1843040000,22.3104160000 114.1844600000,22.3102730000 114.1849180000,22.3098440000 114.1853320000,22.3094530000 114.1856900000,22.3091140000 114.1858650000,22.3089800000 114.1859580000,22.3089350000 114.1860420000,22.3089070000 114.1861170000,22.3088920000 114.1862140000,22.3088860000 114.1863200000,22.3088760000 114.1864430000,22.3088740000 114.1866470000,22.3088730000 114.1872930000,22.3088780000 114.1875110000,22.3088860000 114.1877720000,22.3089030000 114.1879550000,22.3089090000 114.1884080000,22.3089130000 114.1892820000,22.3089030000 114.1899070000,22.3088920000 114.1901170000,22.3088860000 114.1901500000,22.3088860000 114.1901820000,22.3088850000 114.1902790000,22.3088820000 114.1903910000,22.3088790000 114.1903840000,22.3086620000 114.1903440000,22.3082700000 114.1903030000,22.3080750000 114.1902720000,22.3079490000 114.1902340000,22.3078180000 114.1901280000,22.3075100000 114.1900900000,22.3074200000 114.1900370000,22.3073040000 114.1899930000,22.3072160000 114.1899180000,22.3070900000 114.1897130000,22.3067680000 114.1896920000,22.3067350000 114.1896280000,22.3066360000 114.1892300000,22.3060690000 114.1889240000,22.3056320000 114.1888980000,22.3055940000 114.1888610000,22.3055410000 114.1888450000,22.3055190000 114.1888230000,22.3054860000 114.1888490000,22.3054680000 114.1889300000,22.3054110000 114.1890100000,22.3053550000 114.1900620000,22.3046950000 114.1903830000,22.3045060000 114.1905140000,22.3044210000 114.1907440000,22.3042730000 114.1910380000,22.3046790000 114.1910710000,22.3047250000 114.1911230000,22.3047980000 114.1913360000,22.3050910000 114.1910840000,22.3052620000 114.1910160000,22.3053080000 114.1908160000,22.3054380000 114.1907360000,22.3055850000 114.1907050000,22.3056920000 114.1906860000,22.3058080000 114.1906660000,22.3058750000 114.1906050000,22.3059690000 114.1905470000,22.3060370000 114.1897930000,22.3065280000 114.1897430000,22.3065610000 114.1896280000,22.3066360000 114.1895370000,22.3066910000 114.1896000000,22.3067820000 114.1896860000,22.3069040000 114.1897820000,22.3070580000 114.1898250000,22.3071380000 114.1900140000,22.3074900000 114.1900790000,22.3076650000 114.1901470000,22.3078870000 114.1902010000,22.3080990000 114.1902280000,22.3082090000 114.1902480000,22.3083570000 114.1902570000,22.3084330000 114.1902720000,22.3087270000 114.1902790000,22.3088820000 114.1903010000,22.3101990000 114.1903050000,22.3104240000 114.1903060000,22.3104730000 114.1903090000,22.3106050000 114.1903140000,22.3106930000 114.1903990000,22.3120250000 114.1904010000,22.3120650000 114.1904110000,22.3122220000 114.1902790000,22.3122540000 114.1902440000,22.3122580000 114.1899480000,22.3122870000 114.1894660000,22.3123030000 114.1888230000,22.3123040000 114.1886900000,22.3123070000 114.1886580000,22.3123070000 114.1885780000,22.3123100000 114.1883840000,22.3123070000 114.1881060000,22.3123070000 114.1879440000,22.3123070000 114.1878220000,22.3123100000 114.1877000000,22.3123120000 114.1876200000,22.3122700000 114.1876180000,22.3123420000 114.1875770000,22.3126670000 114.1875760000,22.3134250000 114.1875850000,22.3140270000 114.1875930000,22.3140940000 114.1876000000,22.3141400000 114.1876250000,22.3142330000 114.1876770000,22.3143120000 114.1878870000,22.3145280000 114.1882410000,22.3148980000 114.1886580000,22.3153440000 114.1896760000,22.3164130000 114.1908860000,22.3176930000 114.1910960000,22.3179020000 114.1916750000,22.3185420000 114.1919020000,22.3187660000 114.1919210000,22.3187850000 114.1920100000,22.3188730000 114.1922790000,22.3191710000 114.1922990000,22.3191930000 114.1923750000,22.3192760000 114.1924400000,22.3193450000 114.1925540000,22.3192860000 114.1926680000,22.3192340000 114.1936700000,22.3187690000 114.1939780000,22.3186350000 114.1940270000,22.3186110000 114.1940750000,22.3185870000 114.1941240000,22.3185630000 114.1941720000,22.3185400000 114.1942020000,22.3184990000 114.1942120000,22.3184650000 114.1941980000,22.3183960000 114.1941460000,22.3182860000 114.1940540000,22.3180930000 114.1939310000,22.3180390000 114.1938770000,22.3180530000 114.1938350000,22.3180740000 114.1937890000,22.3181040000 114.1937460000,22.3181380000 114.1934960000,22.3183610000 114.1931070000,22.3187080000 114.1930390000,22.3187740000 114.1929240000,22.3188850000 114.1927800000,22.3190080000 114.1926200000,22.3191190000 114.1925830000,22.3191450000 114.1924790000,22.3192180000 114.1923960000,22.3191340000 114.1921520000,22.3188880000 114.1920790000,22.3188140000 114.1919930000,22.3187290000 114.1917520000,22.3184940000 114.1911590000,22.3178510000 114.1909560000,22.3176390000 114.1897460000,22.3163500000 114.1887510000,22.3152970000 114.1883320000,22.3148610000 114.1879850000,22.3144900000 114.1877600000,22.3142740000 114.1877180000,22.3142110000 114.1876980000,22.3141600000 114.1876790000,22.3140970000 114.1876700000,22.3140260000 114.1876680000,22.3134270000 114.1876630000,22.3126710000 114.1876880000,22.3124690000 114.1876990000,22.3123870000 114.1877000000,22.3123120000 114.1876940000,22.3120490000 114.1876750000,22.3111390000 114.1876750000,22.3106570000 114.1876750000,22.3106180000 114.1876580000,22.3098020000 114.1876490000,22.3089780000 114.1876490000,22.3089570000 114.1876490000,22.3089360000 114.1876440000,22.3088220000 114.1876360000,22.3086570000 114.1876310000,22.3085540000 114.1876180000,22.3083170000 114.1875900000,22.3081240000 114.1875510000,22.3080570000 114.1875380000,22.3080350000 114.1875190000,22.3080010000 114.1869390000,22.3071720000 114.1868690000,22.3070740000 114.1867870000,22.3069580000 114.1867800000,22.3069470000 114.1866970000,22.3068150000 114.1871810000,22.3065180000 114.1877030000,22.3061920000 114.1880610000,22.3059660000 114.1882260000,22.3058620000 114.1882400000,22.3058530000 114.1886070000,22.3056220000 114.1886160000,22.3056160000 114.1886580000,22.3055880000 114.1887260000,22.3055500000 114.1888230000,22.3054860000 114.1888490000,22.3054680000 114.1889300000,22.3054110000 114.1890100000,22.3053550000 114.1900620000,22.3046950000 114.1903830000,22.3045060000 114.1905140000,22.3044210000 114.1907440000,22.3042730000 114.1910380000,22.3046800000 114.1910710000,22.3047250000 114.1911230000,22.3047980000 114.1913360000,22.3050910000 114.1910840000,22.3052620000 114.1910160000,22.3053080000 114.1908160000,22.3054380000 114.1907360000,22.3055850000 114.1907050000,22.3056920000 114.1906860000,22.3058080000 114.1906660000,22.3058750000 114.1906050000,22.3059690000 114.1905470000,22.3060370000 114.1897930000,22.3065280000 114.1897430000,22.3065610000 114.1896280000,22.3066360000 114.1895370000,22.3066910000 114.1896000000,22.3067820000 114.1896860000,22.3069040000 114.1897820000,22.3070580000 114.1898250000,22.3071380000 114.1900140000,22.3074900000 114.1900790000,22.3076650000 114.1901470000,22.3078870000 114.1902010000,22.3080990000 114.1902280000,22.3082090000 114.1902480000,22.3083570000 114.1902570000,22.3084330000 114.1902720000,22.3087270000 114.1902790000,22.3088820000 114.1901820000,22.3088850000 114.1901500000,22.3088860000 114.1901170000,22.3088860000 114.1899070000,22.3088920000 114.1895440000,22.3088980000 114.1892820000,22.3089030000 114.1884080000,22.3089130000 114.1879550000,22.3089090000 114.1877720000,22.3089030000 114.1875110000,22.3088860000 114.1872930000,22.3088780000 114.1866470000,22.3088730000 114.1864430000,22.3088740000 114.1863200000,22.3088760000 114.1862140000,22.3088860000 114.1861170000,22.3088920000 114.1860420000,22.3089070000 114.1859580000,22.3089350000 114.1858650000,22.3089800000 114.1856900000,22.3091140000 114.1853320000,22.3094530000 114.1849180000,22.3098440000 114.1844600000,22.3102730000 114.1843040000,22.3104160000 114.1842840000,22.3104340000 114.1841950000,22.3105170000 114.1840480000,22.3106540000 114.1829540000,22.3116800000 114.1828790000,22.3117500000 114.1828380000,22.3117890000 114.1824180000,22.3121890000 114.1822800000,22.3123390000 114.1821960000,22.3124720000 114.1821250000,22.3126070000 114.1820730000,22.3127500000 114.1819500000,22.3132540000 114.1818660000,22.3133450000 114.1818220000,22.3135010000 114.1817950000,22.3136030000 114.1817540000,22.3138030000 114.1816270000,22.3143040000 114.1815620000,22.3145250000 114.1815500000,22.3145800000 114.1814110000,22.3152210000 114.1812880000,22.3156890000 114.1812100000,22.3158690000 114.1811160000,22.3160520000 114.1810980000,22.3160790000 114.1810850000,22.3160970000 114.1810690000,22.3161150000 114.1810530000,22.3161350000 114.1809810000,22.3162050000 114.1808100000,22.3163580000 114.1806880000,22.3164710000 114.1805080000,22.3165750000 114.1802680000,22.3167080000 114.1798970000,22.3168560000 114.1797650000,22.3169060000 114.1791590000,22.3171410000 114.1791130000,22.3171590000 114.1788020000,22.3172860000 114.1781920000,22.3175370000 114.1780630000,22.3175940000 114.1779570000,22.3176420000 114.1778920000,22.3176700000 114.1777960000,22.3177110000 114.1774640000,22.3178480000 114.1772040000,22.3179080000 114.1769940000,22.3179170000 114.1767660000,22.3179270000 114.1764790000,22.3179840000 114.1760360000,22.3182030000 114.1756570000,22.3183900000 114.1756080000,22.3184140000 114.1754950000,22.3184700000 114.1753600000,22.3182900000 114.1750390000,22.3178610000 114.1746720000,22.3173700000 114.1741420000,22.3166570000 114.1740330000,22.3165100000 114.1738890000,22.3163200000 114.1734910000,22.3157970000 114.1732970000,22.3155320000 114.1728740000,22.3149550000 114.1728560000,22.3149300000 114.1728080000,22.3148650000 114.1725490000,22.3145170000 114.1722080000,22.3140620000 114.1721410000,22.3139740000 114.1721180000,22.3139430000 114.1720620000,22.3138710000 114.1718370000,22.3135680000 114.1715950000,22.3132320000 114.1715440000,22.3131770000 114.1715000000,22.3131430000 114.1714640000,22.3131190000 114.1714120000,22.3131010000 114.1713660000,22.3130870000 114.1709000000,22.3130080000 114.1708510000,22.3129990000 114.1707170000,22.3129770000 114.1706170000,22.3129600000 114.1705210000,22.3129410000 114.1701050000,22.3128580000 114.1696250000,22.3127710000 114.1695820000,22.3127630000 114.1694490000,22.3127390000 114.1691230000,22.3126920000 114.1690870000,22.3126870000 114.1689950000,22.3126750000 114.1685010000,22.3125840000 114.1684750000,22.3125790000 114.1682360000,22.3125350000 114.1675250000,22.3124150000 114.1673660000,22.3123740000 114.1673150000,22.3123610000 114.1672710000,22.3123500000 114.1672500000,22.3123420000 114.1670340000,22.3122560000 114.1668410000,22.3122250000 114.1664750000,22.3121650000 114.1663310000,22.3121360000 114.1662520000,22.3121150000 114.1661950000,22.3120870000 114.1659300000,22.3119480000 114.1657710000,22.3118450000 114.1656590000,22.3117630000 114.1653980000,22.3115410000 114.1652430000,22.3113890000 114.1651390000,22.3113140000 114.1651000000,22.3112860000 114.1650980000,22.3112840000 114.1650350000,22.3112670000 114.1649590000,22.3112590000 114.1649160000,22.3112720000 114.1648980000,22.3112980000 114.1648710000,22.3113530000 114.1647850000,22.3118020000 114.1647640000,22.3119110000 114.1647590000,22.3119410000 114.1647310000,22.3120880000 114.1647060000,22.3122170000 114.1646580000,22.3124500000 114.1646470000,22.3125080000 114.1646220000,22.3126440000 114.1646030000,22.3127410000 114.1645910000,22.3127980000 114.1645900000,22.3128020000 114.1645610000,22.3129470000 114.1645460000,22.3130150000 114.1643040000,22.3140480000 114.1642900000,22.3141060000 114.1641010000,22.3148920000 114.1640260000,22.3152100000 114.1639220000,22.3156500000 114.1637860000,22.3162170000 114.1636790000,22.3166370000 114.1636090000,22.3169110000 114.1635800000,22.3170410000 114.1635450000,22.3171880000 114.1635170000,22.3172900000 114.1634380000,22.3175180000 114.1633560000,22.3176870000 114.1632550000,22.3178150000 114.1631180000,22.3179370000 114.1629850000,22.3180190000 114.1629530000,22.3180380000 114.1627870000,22.3181390000 114.1624900000,22.3180800000 114.1622920000,22.3180820000 114.1621530000,22.3180450000 114.1609450000,22.3176380000 114.1606000000,22.3175150000 114.1603830000,22.3174330000 114.1598760000,22.3173460000 114.1594480000,22.3173210000 114.1581900000,22.3173120000 114.1571410000,22.3173320000 114.1570750000,22.3173130000 114.1569920000,22.3172830000 114.1569780000,22.3172490000 114.1569570000,22.3172180000 114.1569100000,22.3171760000 114.1568510000,22.3171490000 114.1567850000,22.3171400000 114.1567210000,22.3171500000 114.1566540000,22.3171840000 114.1566040000,22.3172370000 114.1565780000,22.3173040000 114.1565790000,22.3173740000 114.1566060000,22.3174400000 114.1566570000,22.3174920000 114.1566890000,22.3175850000 114.1567020000,22.3176500000 114.1567060000,22.3177460000 114.1567260000,22.3181890000 114.1567260000,22.3185230000 114.1567110000,22.3187810000 114.1566780000,22.3189670000 114.1566330000,22.3191450000 114.1565680000,22.3193640000 114.1565240000,22.3195560000 114.1565130000,22.3196440000 114.1565050000,22.3197080000 114.1565050000,22.3198570000 114.1565090000,22.3199400000 114.1565180000,22.3200140000 114.1565550000,22.3201970000 114.1565780000,22.3202850000 114.1566100000,22.3203630000 114.1566570000,22.3204570000 114.1567900000,22.3206860000 114.1568780000,22.3208170000 114.1569980000,22.3209680000 114.1571230000,22.3210860000 114.1572140000,22.3211860000 114.1572770000,22.3212460000 114.1573510000,22.3213450000 114.1574530000,22.3214810000 114.1573690000,22.3216580000 114.1570450000,22.3221300000 114.1563390000,22.3231640000 114.1560050000,22.3236420000 114.1555090000,22.3242060000 114.1551290000,22.3246030000 114.1547720000,22.3249070000 114.1545800000,22.3250590000 114.1543480000,22.3252160000 114.1534280000,22.3259320000 114.1530330000,22.3262600000 114.1527240000,22.3265660000 114.1522310000,22.3270260000 114.1519620000,22.3272490000 114.1514500000,22.3276420000 114.1499690000,22.3284660000 114.1495610000,22.3286740000 114.1493470000,22.3287790000 114.1489480000,22.3289760000 114.1486200000,22.3291300000 114.1483290000,22.3292640000 114.1476850000,22.3295300000 114.1471200000,22.3297390000 114.1466370000,22.3299120000 114.1463240000,22.3300390000 114.1453670000,22.3304340000 114.1449050000,22.3306190000 114.1440650000,22.3309030000 114.1422410000,22.3316350000 114.1419400000,22.3317580000 114.1416450000,22.3318640000 114.1415840000,22.3318910000 114.1409270000,22.3321250000 114.1406060000,22.3322590000 114.1401940000,22.3324580000 114.1396920000,22.3327020000 114.1394230000,22.3328760000 114.1377460000,22.3335210000 114.1373110000,22.3336840000 114.1368720000,22.3338520000 114.1365480000,22.3339950000 114.1362520000,22.3341350000 114.1359540000,22.3342920000 114.1356170000,22.3344760000 114.1353230000,22.3346500000 114.1350280000,22.3348370000 114.1347180000,22.3350490000 114.1345310000,22.3351930000 114.1342810000,22.3353920000 114.1340320000,22.3356040000 114.1337680000,22.3358450000 114.1334860000,22.3361240000 114.1332150000,22.3364170000 114.1329590000,22.3367180000 114.1327150000,22.3370340000 114.1325000000,22.3373380000 114.1322550000,22.3377220000 114.1320490000,22.3380880000 114.1318960000,22.3384030000 114.1317130000,22.3388030000 114.1313580000,22.3395440000 114.1310790000,22.3401370000 114.1310470000,22.3402070000 114.1308880000,22.3405740000 114.1307190000,22.3409130000 114.1305230000,22.3412450000 114.1302290000,22.3416960000 114.1300150000,22.3419730000 114.1297900000,22.3422150000 114.1296350000,22.3423570000 114.1294840000,22.3425000000 114.1293200000,22.3426370000 114.1291160000,22.3427790000 114.1288580000,22.3429320000 114.1285800000,22.3430670000 114.1282990000,22.3432080000 114.1280790000,22.3433120000 114.1275730000,22.3435180000 114.1272420000,22.3436620000 114.1269010000,22.3438300000 114.1265480000,22.3440350000 114.1261970000,22.3442850000 114.1259420000,22.3444920000 114.1256990000,22.3447270000 114.1254680000,22.3449730000 114.1252700000,22.3452380000 114.1250080000,22.3455860000 114.1248240000,22.3458870000 114.1246410000,22.3461660000 114.1245230000,22.3464250000 114.1243880000,22.3467480000 114.1242650000,22.3471450000 114.1241560000,22.3476070000 114.1240880000,22.3480250000 114.1240530000,22.3484440000 114.1240590000,22.3488230000 114.1240890000,22.3491480000 114.1241480000,22.3494100000 114.1242260000,22.3496420000 114.1244160000,22.3500540000 114.1244470000,22.3501050000 114.1252100000,22.3513680000 114.1254090000,22.3517590000 114.1254910000,22.3519890000 114.1255360000,22.3521800000 114.1255560000,22.3524030000 114.1255390000,22.3526970000 114.1254870000,22.3529710000 114.1253600000,22.3532810000 114.1252470000,22.3535140000 114.1251560000,22.3536590000 114.1250540000,22.3537960000 114.1249090000,22.3539550000 114.1248150000,22.3540520000 114.1246770000,22.3541940000 114.1243400000,22.3545640000 114.1230560000,22.3557780000 114.1224090000,22.3563940000 114.1221360000,22.3566400000 114.1218560000,22.3568840000 114.1214350000,22.3572740000 114.1212460000,22.3574610000 114.1209920000,22.3577110000 114.1206480000,22.3580690000 114.1204770000,22.3582440000 114.1202580000,22.3585300000 114.1200110000,22.3588980000 114.1198730000,22.3591260000 114.1197100000,22.3594960000 114.1194650000,22.3598850000 114.1192190000,22.3604020000 114.1188830000,22.3610970000 114.1187340000,22.3613920000 114.1186040000,22.3616310000 114.1184210000,22.3619380000 114.1182550000,22.3621640000 114.1180670000,22.3623710000 114.1179350000,22.3624830000 114.1178060000,22.3625640000 114.1177170000,22.3626020000 114.1176450000,22.3626330000 114.1175370000,22.3626050000 114.1174190000,22.3625970000 114.1172750000,22.3626140000 114.1171540000,22.3626440000 114.1169010000,22.3625540000 114.1164190000,22.3623220000 114.1158470000,22.3620390000 114.1153920000,22.3617420000 114.1152310000,22.3616390000 114.1149700000,22.3614480000 114.1146370000,22.3612360000 114.1143640000,22.3610400000 114.1140670000,22.3608600000 114.1137150000,22.3606830000 114.1135070000,22.3605900000 114.1132610000,22.3605190000 114.1129490000,22.3604540000 114.1125860000,22.3603910000 114.1119050000,22.3602750000 114.1117190000,22.3602450000 114.1110260000,22.3601300000 114.1106630000,22.3600640000 114.1094860000,22.3598560000 114.1085730000,22.3596970000 114.1077130000,22.3595340000 114.1072640000,22.3594480000 114.1062160000,22.3592180000 114.1057190000,22.3591170000 114.1053590000,22.3590830000 114.1050380000,22.3590830000 114.1046930000,22.3591060000 114.1041760000,22.3591980000 114.1034770000,22.3593240000 114.1032920000,22.3593510000 114.1031470000,22.3593500000 114.1030200000,22.3593340000 114.1029420000,22.3593050000 114.1029010000,22.3592920000 114.1028510000,22.3592840000 114.1028030000,22.3592830000 114.1027100000,22.3592910000 114.1026170000,22.3593140000 114.1025460000,22.3593450000 114.1024810000,22.3593860000 114.1024230000,22.3594360000 114.1023750000,22.3594950000 114.1023330000,22.3595680000 114.1022990000,22.3596850000 114.1022990000,22.3598050000 114.1023320000,22.3599220000 114.1023970000,22.3600260000 114.1024380000,22.3600760000 114.1025580000,22.3601530000 114.1026670000,22.3601930000 114.1027840000,22.3602080000 114.1029010000,22.3601970000 114.1029540000,22.3601840000 114.1030050000,22.3601650000 114.1031080000,22.3601830000 114.1031830000,22.3602200000 114.1032530000,22.3602720000 114.1032900000,22.3603150000 114.1033920000,22.3604140000 114.1034270000,22.3604680000 114.1034900000,22.3605730000 114.1036220000,22.3608030000 114.1037290000,22.3609620000 114.1037740000,22.3610100000 114.1038630000,22.3610910000 114.1038470000,22.3611430000 114.1036690000,22.3614130000 114.1036350000,22.3614650000 114.1036170000,22.3614930000 114.1035700000,22.3615230000 114.1034140000,22.3615260000 114.1033850000,22.3615150000 114.1033530000,22.3614930000 114.1033370000,22.3614700000 114.1033040000,22.3614230000 114.1032410000,22.3613320000 114.1031960000,22.3613000000 114.1028900000,22.3612250000 114.1027340000,22.3611870000 114.1026360000,22.3611590000 114.1026780000,22.3610460000 114.1027060000,22.3608490000 114.1027100000,22.3607730000 114.1027430000,22.3606650000 114.1027540000,22.3604710000 114.1027830000,22.3603670000 114.1028410000,22.3602570000 114.1029010000,22.3601970000 114.1029540000,22.3601840000 114.1030050000,22.3601650000 114.1031080000,22.3601830000 114.1031830000,22.3602200000 114.1032530000,22.3602720000 114.1032900000,22.3603150000 114.1033920000,22.3604140000 114.1034270000,22.3604680000 114.1034900000,22.3605730000 114.1036220000,22.3608030000 114.1037290000,22.3609620000 114.1037740000,22.3610100000 114.1038630000,22.3610910000 114.1039580000,22.3611780000 114.1041830000,22.3612430000 114.1042320000,22.3612570000 114.1045180000,22.3612740000 114.1048930000,22.3612700000 114.1051520000,22.3612420000 114.1054140000,22.3611820000 114.1054490000,22.3611740000 114.1056170000,22.3610650000 114.1057820000,22.3609020000 114.1058920000,22.3607250000 114.1059520000,22.3605130000 114.1059690000,22.3603300000 114.1059550000,22.3602010000 114.1059270000,22.3600820000 114.1059240000,22.3599830000 114.1058780000,22.3599060000 114.1058430000,22.3598510000 114.1055410000,22.3594190000 114.1054670000,22.3592150000 114.1054270000,22.3589790000 114.1054300000,22.3588130000 114.1054590000,22.3587210000 114.1055370000,22.3585720000 114.1056300000,22.3584360000 114.1057430000,22.3582700000 114.1062680000,22.3575270000 114.1063340000,22.3574370000 114.1064620000,22.3572540000 114.1065210000,22.3571700000 114.1067270000,22.3568380000 114.1068450000,22.3565700000 114.1069040000,22.3563830000 114.1069170000,22.3562570000 114.1069240000,22.3561810000 114.1070170000,22.3549060000 114.1070190000,22.3548820000 114.1070330000,22.3546910000 114.1070400000,22.3545760000 114.1070510000,22.3542900000 114.1070750000,22.3537930000 114.1070880000,22.3535040000 114.1071080000,22.3534430000 114.1071300000,22.3533750000 114.1072340000,22.3532770000 114.1072800000,22.3532280000 114.1073620000,22.3531970000 114.1074370000,22.3531520000 114.1075020000,22.3530950000 114.1076620000,22.3530650000 114.1078130000,22.3530810000 114.1079590000,22.3531110000 114.1081050000,22.3531640000 114.1082470000,22.3532280000 114.1083720000,22.3533010000 114.1084260000,22.3534200000 114.1084470000,22.3535040000 114.1084620000,22.3535870000 114.1084820000,22.3537620000 114.1084750000,22.3538870000 114.1085110000,22.3539580000 114.1085820000,22.3540440000 114.1086160000,22.3540600000 114.1088570000,22.3541340000 114.1090910000,22.3542000000 114.1091340000,22.3542090000 114.1091780000,22.3542000000 114.1092220000,22.3541860000 114.1092790000,22.3541570000 114.1093680000,22.3540680000 114.1094520000,22.3538470000 114.1095210000,22.3536670000 114.1095010000,22.3536010000 114.1094690000,22.3535540000 114.1093760000,22.3535190000 114.1092280000,22.3534620000 114.1086680000,22.3532710000 114.1081390000,22.3530810000 114.1080040000,22.3530350000 114.1078680000,22.3529610000 114.1077710000,22.3528920000 114.1076890000,22.3528340000 114.1076190000,22.3527590000 114.1075970000,22.3526630000 114.1075530000,22.3525740000 114.1074890000,22.3524950000 114.1073960000,22.3524250000 114.1072880000,22.3523780000 114.1071700000,22.3523580000 114.1070510000,22.3523650000 114.1069630000,22.3523880000 114.1068810000,22.3524270000 114.1068080000,22.3524790000 114.1067370000,22.3525580000 114.1066870000,22.3526510000 114.1066610000,22.3527520000 114.1066620000,22.3528550000 114.1066880000,22.3529560000 114.1067280000,22.3530330000 114.1067840000,22.3531020000 114.1068660000,22.3532010000 114.1069490000,22.3533480000 114.1069600000,22.3534900000 114.1069390000,22.3537850000 114.1068950000,22.3544160000 114.1068750000,22.3546900000 114.1068150000,22.3546900000 114.1065540000,22.3546890000 114.1063530000,22.3546590000 114.1062030000,22.3545690000 114.1061230000,22.3544640000 114.1060940000,22.3543320000 114.1060930000,22.3539160000 114.1060700000,22.3537060000 114.1060040000,22.3535350000 114.1058610000,22.3533540000 114.1057270000,22.3532250000 114.1055380000,22.3531320000 114.1052800000,22.3530940000 114.1051610000,22.3530800000 114.1050320000,22.3530640000 114.1049920000,22.3530630000 114.1048350000,22.3530560000 114.1046300000,22.3530690000 114.1044450000,22.3531160000 114.1043090000,22.3531750000 114.1041840000,22.3532670000 114.1040840000,22.3533780000 114.1040160000,22.3535170000 114.1039720000,22.3536720000 114.1039510000,22.3537870000 114.1037730000,22.3537840000 114.1037460000,22.3537830000 114.1036980000,22.3537840000 114.1036550000,22.3537820000 114.1036360000,22.3537820000 114.1035020000,22.3537800000 114.1032660000,22.3537760000 114.1032340000,22.3537750000</coordinates>
                </LineString>
                <ExtendedData>
                    <Data name="duration">
                        <value>01:47:16</value>
                    </Data>
                    <Data name="length">
                        <value>39261.550216795695</value>
                    </Data>
                </ExtendedData>
            </Placemark>
        </Document>
    </Document>
</kml>