<?xml version="1.0" encoding="UTF-8"?>
<kml xmlns="http://www.opengis.net/kml/2.2" xmlns:gx="http://www.google.com/kml/ext/2.2">
    <Document>
        <name>Route</name>
        <Folder>
            <name>Route Request</name>
            <Placemark>
                <address>Cheung Wang Estate Car Park, Liu To Road, Tsing Chau, Tsing Yi Hui, Kwai Tsing District, Hong Kong, PRC</address>
                <Point>
                    <coordinates>114.0938997629,22.3568921297</coordinates>
                </Point>
                <ExtendedData>
                    <Data name="country_code">
                        <value>cn</value>
                    </Data>
                    <Data name="hamlet">
                        <value>Tsing Yi Hui</value>
                    </Data>
                    <Data name="suburb">
                        <value>Tsing Chau</value>
                    </Data>
                    <Data name="parking">
                        <value>Cheung Wang Estate Car Park</value>
                    </Data>
                    <Data name="road">
                        <value>Liu To Road</value>
                    </Data>
                    <Data name="county">
                        <value>Kwai Tsing District</value>
                    </Data>
                    <Data name="country">
                        <value>PRC</value>
                    </Data>
                </ExtendedData>
            </Placemark>
            <Placemark>
                <address>PCCW Tsing Yi Telephone Exchange, 12, Chung Mei Road, Ha Kwai Chung, Tsing Fai San Tsuen, Kwai Tsing District, Hong Kong, 852, PRC</address>
                <Point>
                    <coordinates>114.1081205767,22.3502548320</coordinates>
                </Point>
                <ExtendedData>
                    <Data name="country_code">
                        <value>cn</value>
                    </Data>
                    <Data name="suburb">
                        <value>Ha Kwai Chung</value>
                    </Data>
                    <Data name="building">
                        <value>PCCW Tsing Yi Telephone Exchange</value>
                    </Data>
                    <Data name="road">
                        <value>Chung Mei Road</value>
                    </Data>
                    <Data name="postcode">
                        <value>852</value>
                    </Data>
                    <Data name="village">
                        <value>Tsing Fai San Tsuen</value>
                    </Data>
                    <Data name="county">
                        <value>Kwai Tsing District</value>
                    </Data>
                    <Data name="country">
                        <value>PRC</value>
                    </Data>
                    <Data name="house_number">
                        <value>12</value>
                    </Data>
                </ExtendedData>
            </Placemark>
            <Placemark>
                <address>Lai Ning House, Ching Cheung Road, Lai Chi Kok, Sham Shui Po District, Hong Kong, 852, PRC</address>
                <Point>
                    <coordinates>114.1351932078,22.3386373207</coordinates>
                </Point>
                <ExtendedData>
                    <Data name="country_code">
                        <value>cn</value>
                    </Data>
                    <Data name="suburb">
                        <value>Lai Chi Kok</value>
                    </Data>
                    <Data name="building">
                        <value>Lai Ning House</value>
                    </Data>
                    <Data name="road">
                        <value>Ching Cheung Road</value>
                    </Data>
                    <Data name="postcode">
                        <value>852</value>
                    </Data>
                    <Data name="county">
                        <value>Sham Shui Po District</value>
                    </Data>
                    <Data name="country">
                        <value>PRC</value>
                    </Data>
                </ExtendedData>
            </Placemark>
            <Placemark>
                <address>Diamond Hill Station, Tai Hom Road, Fung Wong, Diamond Hill, Lion Rock Upper Village, Wong Tai Sin District, Hong Kong, NKIL 6164, PRC</address>
                <Point>
                    <coordinates>114.2031142512,22.3392783311</coordinates>
                </Point>
                <ExtendedData>
                    <Data name="bus_stop">
                        <value>Diamond Hill Station</value>
                    </Data>
                    <Data name="hamlet">
                        <value>Lion Rock Upper Village</value>
                    </Data>
                    <Data name="country_code">
                        <value>cn</value>
                    </Data>
                    <Data name="suburb">
                        <value>Diamond Hill</value>
                    </Data>
                    <Data name="neighbourhood">
                        <value>Fung Wong</value>
                    </Data>
                    <Data name="road">
                        <value>Tai Hom Road</value>
                    </Data>
                    <Data name="postcode">
                        <value>NKIL 6164</value>
                    </Data>
                    <Data name="county">
                        <value>Wong Tai Sin District</value>
                    </Data>
                    <Data name="country">
                        <value>PRC</value>
                    </Data>
                </ExtendedData>
            </Placemark>
            <Placemark>
                <address>Kai Fai House, New Clear Water Bay Road, Lion Rock Upper Village, Wong Tai Sin District, Hong Kong, 350, PRC</address>
                <Point>
                    <coordinates>114.2179369698,22.3330800167</coordinates>
                </Point>
                <ExtendedData>
                    <Data name="hamlet">
                        <value>Lion Rock Upper Village</value>
                    </Data>
                    <Data name="country_code">
                        <value>cn</value>
                    </Data>
                    <Data name="building">
                        <value>Kai Fai House</value>
                    </Data>
                    <Data name="road">
                        <value>New Clear Water Bay Road</value>
                    </Data>
                    <Data name="postcode">
                        <value>350</value>
                    </Data>
                    <Data name="county">
                        <value>Wong Tai Sin District</value>
                    </Data>
                    <Data name="country">
                        <value>PRC</value>
                    </Data>
                </ExtendedData>
            </Placemark>
            <Placemark>
                <address>Kam Tai House, On Sau Road, Sau Mau Ping, Kwun Tong District, Hong Kong, HONG KONG, PRC</address>
                <Point>
                    <coordinates>114.2311811290,22.3240395629</coordinates>
                </Point>
                <ExtendedData>
                    <Data name="bus_stop">
                        <value>Kam Tai House</value>
                    </Data>
                    <Data name="country_code">
                        <value>cn</value>
                    </Data>
                    <Data name="suburb">
                        <value>Sau Mau Ping</value>
                    </Data>
                    <Data name="road">
                        <value>On Sau Road</value>
                    </Data>
                    <Data name="postcode">
                        <value>HONG KONG</value>
                    </Data>
                    <Data name="county">
                        <value>Kwun Tong District</value>
                    </Data>
                    <Data name="country">
                        <value>PRC</value>
                    </Data>
                </ExtendedData>
            </Placemark>
            <Placemark>
                <address>Lam Tin Service Reservoir Playground, Tak Tin Street, Lam Tin, Kwun Tong District, Hong Kong, NKIL 6326, PRC</address>
                <Point>
                    <coordinates>114.2373176736,22.3092515364</coordinates>
                </Point>
                <ExtendedData>
                    <Data name="playground">
                        <value>Lam Tin Service Reservoir Playground</value>
                    </Data>
                    <Data name="country_code">
                        <value>cn</value>
                    </Data>
                    <Data name="suburb">
                        <value>Lam Tin</value>
                    </Data>
                    <Data name="road">
                        <value>Tak Tin Street</value>
                    </Data>
                    <Data name="postcode">
                        <value>NKIL 6326</value>
                    </Data>
                    <Data name="county">
                        <value>Kwun Tong District</value>
                    </Data>
                    <Data name="country">
                        <value>PRC</value>
                    </Data>
                </ExtendedData>
            </Placemark>
            <Placemark>
                <address>On Tai Estate, On Sau Road, Sau Mau Ping, Kwun Tong District, Hong Kong, HONG KONG, PRC</address>
                <Point>
                    <coordinates>114.2305017710,22.3270721553</coordinates>
                </Point>
                <ExtendedData>
                    <Data name="bus_stop">
                        <value>On Tai Estate</value>
                    </Data>
                    <Data name="country_code">
                        <value>cn</value>
                    </Data>
                    <Data name="suburb">
                        <value>Sau Mau Ping</value>
                    </Data>
                    <Data name="road">
                        <value>On Sau Road</value>
                    </Data>
                    <Data name="postcode">
                        <value>HONG KONG</value>
                    </Data>
                    <Data name="county">
                        <value>Kwun Tong District</value>
                    </Data>
                    <Data name="country">
                        <value>PRC</value>
                    </Data>
                </ExtendedData>
            </Placemark>
            <Placemark>
                <address>New Clear Water Bay Road, Sze Shun, Kwun Tong District, Hong Kong, NKIL 6318, PRC</address>
                <Point>
                    <coordinates>114.2194433174,22.3330253475</coordinates>
                </Point>
                <ExtendedData>
                    <Data name="country_code">
                        <value>cn</value>
                    </Data>
                    <Data name="suburb">
                        <value>Sze Shun</value>
                    </Data>
                    <Data name="road">
                        <value>New Clear Water Bay Road</value>
                    </Data>
                    <Data name="postcode">
                        <value>NKIL 6318</value>
                    </Data>
                    <Data name="county">
                        <value>Kwun Tong District</value>
                    </Data>
                    <Data name="country">
                        <value>PRC</value>
                    </Data>
                </ExtendedData>
            </Placemark>
            <Placemark>
                <address>Kwai Chung Road, Kau Wa Keng, Kau Wa Keng San Tsuen, Kwai Tsing District, Hong Kong, 852, PRC</address>
                <Point>
                    <coordinates>114.1336720839,22.3381319105</coordinates>
                </Point>
                <ExtendedData>
                    <Data name="hamlet">
                        <value>Kau Wa Keng San Tsuen</value>
                    </Data>
                    <Data name="country_code">
                        <value>cn</value>
                    </Data>
                    <Data name="neighbourhood">
                        <value>Kau Wa Keng</value>
                    </Data>
                    <Data name="road">
                        <value>Kwai Chung Road</value>
                    </Data>
                    <Data name="postcode">
                        <value>852</value>
                    </Data>
                    <Data name="county">
                        <value>Kwai Tsing District</value>
                    </Data>
                    <Data name="country">
                        <value>PRC</value>
                    </Data>
                </ExtendedData>
            </Placemark>
            <Placemark>
                <address>Hong Fung House, Chung Mei Road, Ha Kwai Chung, Lam Tin Resite Village, Kwai Tsing District, Hong Kong, 852, PRC</address>
                <Point>
                    <coordinates>114.1010309737,22.3505275742</coordinates>
                </Point>
                <ExtendedData>
                    <Data name="country_code">
                        <value>cn</value>
                    </Data>
                    <Data name="suburb">
                        <value>Ha Kwai Chung</value>
                    </Data>
                    <Data name="building">
                        <value>Hong Fung House</value>
                    </Data>
                    <Data name="road">
                        <value>Chung Mei Road</value>
                    </Data>
                    <Data name="postcode">
                        <value>852</value>
                    </Data>
                    <Data name="village">
                        <value>Lam Tin Resite Village</value>
                    </Data>
                    <Data name="county">
                        <value>Kwai Tsing District</value>
                    </Data>
                    <Data name="country">
                        <value>PRC</value>
                    </Data>
                </ExtendedData>
            </Placemark>
            <Placemark>
                <address>Cheung Wang Estate Car Park, Liu To Road, Tsing Yi Hui, Kwai Tsing District, Hong Kong, PRC</address>
                <Point>
                    <coordinates>114.0938406859,22.3568374830</coordinates>
                </Point>
                <ExtendedData>
                    <Data name="hamlet">
                        <value>Tsing Yi Hui</value>
                    </Data>
                    <Data name="country_code">
                        <value>cn</value>
                    </Data>
                    <Data name="parking">
                        <value>Cheung Wang Estate Car Park</value>
                    </Data>
                    <Data name="road">
                        <value>Liu To Road</value>
                    </Data>
                    <Data name="county">
                        <value>Kwai Tsing District</value>
                    </Data>
                    <Data name="country">
                        <value>PRC</value>
                    </Data>
                </ExtendedData>
            </Placemark>
        </Folder>
        <Document>
            <name>47.8 km; 01:36 h (OSRM)</name>
            <Placemark>
                <name>Route</name>
                <LineString>
                    <coordinates>114.0938370000,22.3568850000 114.0938330000,22.3569160000 114.0938650000,22.3571440000 114.0939400000,22.3573430000 114.0941240000,22.3575140000 114.0943570000,22.3576600000 114.0945790000,22.3577350000 114.0948430000,22.3577610000 114.0950600000,22.3577450000 114.0955000000,22.3576720000 114.0960770000,22.3575700000 114.0961720000,22.3575530000 114.0963260000,22.3575240000 114.0965790000,22.3574780000 114.0967550000,22.3574400000 114.0968210000,22.3574210000 114.0968430000,22.3574360000 114.0968690000,22.3574440000 114.0968960000,22.3574440000 114.0969220000,22.3574370000 114.0969420000,22.3574250000 114.0969590000,22.3574080000 114.0969690000,22.3573880000 114.0969730000,22.3573650000 114.0969710000,22.3573430000 114.0969620000,22.3573220000 114.0970810000,22.3572460000 114.0972170000,22.3571050000 114.0972900000,22.3570030000 114.0973570000,22.3568790000 114.0974410000,22.3566670000 114.0974710000,22.3564270000 114.0974830000,22.3561640000 114.0974640000,22.3558960000 114.0974520000,22.3558110000 114.0974350000,22.3556850000 114.0974250000,22.3556160000 114.0974100000,22.3555380000 114.0974050000,22.3555070000 114.0974010000,22.3554680000 114.0973570000,22.3551930000 114.0973420000,22.3550340000 114.0973490000,22.3548630000 114.0974430000,22.3543450000 114.0974770000,22.3541390000 114.0975630000,22.3537360000 114.0975880000,22.3536430000 114.0976190000,22.3535270000 114.0977600000,22.3530680000 114.0977760000,22.3530210000 114.0977980000,22.3529760000 114.0978240000,22.3529210000 114.0978910000,22.3527790000 114.0980570000,22.3526060000 114.0982560000,22.3524770000 114.0984130000,22.3523980000 114.0983480000,22.3522520000 114.0982840000,22.3521060000 114.0980540000,22.3515810000 114.0977250000,22.3508350000 114.0976890000,22.3507560000 114.0976550000,22.3506830000 114.0975680000,22.3504950000 114.0973610000,22.3500570000 114.0972710000,22.3498320000 114.0972080000,22.3496170000 114.0973950000,22.3495900000 114.0981280000,22.3495410000 114.0983280000,22.3495340000 114.0987100000,22.3495290000 114.0989370000,22.3495250000 114.0993080000,22.3495200000 114.0998120000,22.3495050000 114.1000710000,22.3494920000 114.1001640000,22.3495290000 114.1004550000,22.3495190000 114.1005760000,22.3495160000 114.1005830000,22.3496140000 114.1005910000,22.3497110000 114.1006130000,22.3498480000 114.1006450000,22.3500620000 114.1006920000,22.3502300000 114.1007550000,22.3503660000 114.1008250000,22.3504330000 114.1009090000,22.3505040000 114.1009870000,22.3506040000 114.1011330000,22.3507240000 114.1012840000,22.3508180000 114.1014810000,22.3509000000 114.1017890000,22.3509530000 114.1020390000,22.3509550000 114.1023990000,22.3509300000 114.1025480000,22.3509130000 114.1027980000,22.3508930000 114.1030770000,22.3508970000 114.1033250000,22.3508840000 114.1037440000,22.3508210000 114.1042620000,22.3507910000 114.1047920000,22.3507320000 114.1053510000,22.3506430000 114.1055920000,22.3505810000 114.1057100000,22.3505460000 114.1060620000,22.3504760000 114.1061110000,22.3504610000 114.1062680000,22.3503840000 114.1065940000,22.3502760000 114.1069090000,22.3501970000 114.1073530000,22.3500690000 114.1077510000,22.3500370000 114.1079250000,22.3500580000 114.1080680000,22.3500980000 114.1081670000,22.3501280000 114.1083180000,22.3501750000 114.1083530000,22.3501890000 114.1084280000,22.3502380000 114.1086120000,22.3503560000 114.1086870000,22.3504050000 114.1087860000,22.3504670000 114.1091770000,22.3499710000 114.1094100000,22.3496920000 114.1098740000,22.3491030000 114.1100630000,22.3488660000 114.1101350000,22.3487670000 114.1102000000,22.3486700000 114.1102570000,22.3485840000 114.1103040000,22.3485380000 114.1104510000,22.3482780000 114.1105430000,22.3481570000 114.1106080000,22.3480860000 114.1106600000,22.3480350000 114.1107250000,22.3479830000 114.1108260000,22.3479020000 114.1108500000,22.3479080000 114.1126300000,22.3483660000 114.1165920000,22.3494010000 114.1170740000,22.3495370000 114.1172130000,22.3495880000 114.1174240000,22.3496680000 114.1175300000,22.3497190000 114.1176180000,22.3497710000 114.1177360000,22.3498510000 114.1179190000,22.3499940000 114.1180960000,22.3501480000 114.1182500000,22.3502940000 114.1187290000,22.3507930000 114.1187700000,22.3508370000 114.1195260000,22.3515930000 114.1196130000,22.3516800000 114.1197490000,22.3519060000 114.1199830000,22.3521720000 114.1206070000,22.3528580000 114.1210630000,22.3534010000 114.1213350000,22.3537160000 114.1215010000,22.3538910000 114.1218900000,22.3542980000 114.1219860000,22.3544030000 114.1220870000,22.3545480000 114.1222420000,22.3547150000 114.1223480000,22.3548240000 114.1226260000,22.3550870000 114.1230110000,22.3553860000 114.1231710000,22.3554950000 114.1232320000,22.3555280000 114.1233540000,22.3555540000 114.1234090000,22.3555630000 114.1235040000,22.3555480000 114.1236060000,22.3554990000 114.1237620000,22.3553490000 114.1238310000,22.3552770000 114.1242920000,22.3548440000 114.1248000000,22.3543690000 114.1251680000,22.3539510000 114.1258860000,22.3532540000 114.1260530000,22.3530360000 114.1261830000,22.3527950000 114.1262590000,22.3526270000 114.1262840000,22.3524340000 114.1262980000,22.3522310000 114.1262760000,22.3520290000 114.1262420000,22.3518280000 114.1261320000,22.3514400000 114.1258160000,22.3505290000 114.1257640000,22.3503510000 114.1257020000,22.3500920000 114.1255930000,22.3495410000 114.1255350000,22.3492900000 114.1254150000,22.3487370000 114.1253320000,22.3483780000 114.1252480000,22.3480190000 114.1251100000,22.3473300000 114.1250710000,22.3464870000 114.1251290000,22.3462360000 114.1252260000,22.3459350000 114.1253260000,22.3457350000 114.1254360000,22.3455410000 114.1256270000,22.3452840000 114.1258900000,22.3450110000 114.1262220000,22.3447270000 114.1265390000,22.3445090000 114.1270900000,22.3442370000 114.1278020000,22.3439570000 114.1282590000,22.3438120000 114.1285370000,22.3437050000 114.1287930000,22.3436230000 114.1289050000,22.3435830000 114.1290830000,22.3435240000 114.1294630000,22.3433900000 114.1299240000,22.3432390000 114.1301880000,22.3431240000 114.1304480000,22.3429730000 114.1306300000,22.3428440000 114.1307890000,22.3427050000 114.1311240000,22.3423340000 114.1314500000,22.3417810000 114.1320080000,22.3408480000 114.1321990000,22.3405040000 114.1323610000,22.3402430000 114.1329690000,22.3393310000 114.1332360000,22.3390190000 114.1336230000,22.3387070000 114.1338570000,22.3385780000 114.1340880000,22.3384770000 114.1343410000,22.3384140000 114.1345960000,22.3383990000 114.1348740000,22.3384320000 114.1351480000,22.3385310000 114.1352320000,22.3385860000 114.1354340000,22.3387170000 114.1356330000,22.3389480000 114.1357470000,22.3391660000 114.1358270000,22.3393970000 114.1359790000,22.3398440000 114.1361140000,22.3402590000 114.1362150000,22.3404640000 114.1362940000,22.3406170000 114.1363760000,22.3407570000 114.1364990000,22.3409230000 114.1366610000,22.3410740000 114.1368110000,22.3411900000 114.1369940000,22.3412930000 114.1371900000,22.3413630000 114.1374620000,22.3414190000 114.1376640000,22.3414410000 114.1378490000,22.3414330000 114.1380060000,22.3414150000 114.1381830000,22.3413640000 114.1383630000,22.3412890000 114.1388120000,22.3411060000 114.1391810000,22.3408970000 114.1399880000,22.3403290000 114.1404400000,22.3400810000 114.1406460000,22.3400140000 114.1408740000,22.3399450000 114.1411450000,22.3399420000 114.1413540000,22.3399530000 114.1415920000,22.3400400000 114.1416690000,22.3400870000 114.1419010000,22.3402690000 114.1424680000,22.3407800000 114.1427240000,22.3409890000 114.1428620000,22.3410740000 114.1429790000,22.3411210000 114.1430690000,22.3411540000 114.1431830000,22.3411830000 114.1432930000,22.3412000000 114.1433840000,22.3412070000 114.1435080000,22.3412080000 114.1436040000,22.3412070000 114.1437140000,22.3411960000 114.1438040000,22.3411670000 114.1440800000,22.3410180000 114.1441700000,22.3409530000 114.1443000000,22.3408260000 114.1445620000,22.3404730000 114.1446690000,22.3403370000 114.1447360000,22.3402750000 114.1448380000,22.3401920000 114.1449640000,22.3401250000 114.1451290000,22.3400430000 114.1453170000,22.3400070000 114.1455790000,22.3399850000 114.1459450000,22.3399910000 114.1463270000,22.3400010000 114.1466450000,22.3400310000 114.1468840000,22.3400680000 114.1471390000,22.3401190000 114.1487060000,22.3405890000 114.1492740000,22.3407430000 114.1495080000,22.3408140000 114.1497260000,22.3408970000 114.1499710000,22.3409990000 114.1508180000,22.3413740000 114.1511960000,22.3415390000 114.1518730000,22.3417970000 114.1525490000,22.3420820000 114.1541150000,22.3427540000 114.1543950000,22.3428430000 114.1545670000,22.3428850000 114.1547130000,22.3429090000 114.1549220000,22.3429240000 114.1550660000,22.3429210000 114.1556260000,22.3428670000 114.1558500000,22.3428530000 114.1561130000,22.3428480000 114.1563590000,22.3428530000 114.1565660000,22.3428640000 114.1567280000,22.3428790000 114.1572840000,22.3429300000 114.1574470000,22.3429440000 114.1577650000,22.3429550000 114.1580790000,22.3429460000 114.1583150000,22.3429170000 114.1585570000,22.3428850000 114.1587690000,22.3428390000 114.1589890000,22.3427510000 114.1591710000,22.3426510000 114.1593500000,22.3425280000 114.1595230000,22.3423810000 114.1596600000,22.3422470000 114.1600020000,22.3418720000 114.1601140000,22.3417510000 114.1602440000,22.3416500000 114.1604010000,22.3415500000 114.1605630000,22.3414580000 114.1607840000,22.3413600000 114.1610040000,22.3412730000 114.1612190000,22.3412160000 114.1614630000,22.3411820000 114.1617170000,22.3411700000 114.1619800000,22.3411870000 114.1622220000,22.3412230000 114.1624510000,22.3412880000 114.1626770000,22.3413690000 114.1630340000,22.3415330000 114.1633980000,22.3416990000 114.1636130000,22.3417920000 114.1638110000,22.3418610000 114.1639940000,22.3419180000 114.1641760000,22.3419600000 114.1643620000,22.3419930000 114.1645670000,22.3420130000 114.1652690000,22.3420550000 114.1657260000,22.3420680000 114.1659870000,22.3420560000 114.1661760000,22.3420320000 114.1663590000,22.3419980000 114.1664830000,22.3419640000 114.1666240000,22.3419110000 114.1668090000,22.3418300000 114.1670540000,22.3417130000 114.1672620000,22.3416100000 114.1677620000,22.3413500000 114.1678860000,22.3412990000 114.1680630000,22.3412360000 114.1682040000,22.3412070000 114.1683200000,22.3411960000 114.1684150000,22.3411970000 114.1685310000,22.3412110000 114.1686940000,22.3412510000 114.1688600000,22.3413160000 114.1690070000,22.3413980000 114.1691580000,22.3414950000 114.1693140000,22.3416270000 114.1703680000,22.3426990000 114.1707810000,22.3430890000 114.1709550000,22.3432250000 114.1711220000,22.3433320000 114.1712720000,22.3433900000 114.1714350000,22.3434350000 114.1715730000,22.3434540000 114.1716880000,22.3434620000 114.1717860000,22.3434610000 114.1719340000,22.3434470000 114.1720840000,22.3434130000 114.1722060000,22.3433610000 114.1723150000,22.3433130000 114.1724150000,22.3432550000 114.1730510000,22.3428430000 114.1731770000,22.3427730000 114.1732980000,22.3427270000 114.1734420000,22.3426910000 114.1736090000,22.3426710000 114.1737600000,22.3426710000 114.1739410000,22.3426990000 114.1740970000,22.3427570000 114.1742630000,22.3428280000 114.1744130000,22.3429470000 114.1745310000,22.3430660000 114.1746600000,22.3432650000 114.1750140000,22.3438700000 114.1751110000,22.3440190000 114.1752390000,22.3441580000 114.1753680000,22.3442670000 114.1755500000,22.3443760000 114.1757970000,22.3444750000 114.1768200000,22.3447950000 114.1769530000,22.3448320000 114.1771320000,22.3448710000 114.1772760000,22.3448890000 114.1774380000,22.3448930000 114.1776070000,22.3448820000 114.1777460000,22.3448560000 114.1779150000,22.3448050000 114.1788360000,22.3444410000 114.1790330000,22.3443750000 114.1792240000,22.3443110000 114.1794940000,22.3442450000 114.1797780000,22.3442070000 114.1800880000,22.3441810000 114.1806240000,22.3441690000 114.1807950000,22.3441710000 114.1819600000,22.3442420000 114.1821420000,22.3442500000 114.1822800000,22.3442460000 114.1823870000,22.3442340000 114.1825060000,22.3442080000 114.1826210000,22.3441710000 114.1827300000,22.3441250000 114.1828560000,22.3440650000 114.1830220000,22.3439750000 114.1836130000,22.3435700000 114.1838680000,22.3434000000 114.1841430000,22.3432740000 114.1846130000,22.3430880000 114.1850800000,22.3428960000 114.1852960000,22.3428080000 114.1855600000,22.3427320000 114.1857930000,22.3426750000 114.1860610000,22.3426220000 114.1863390000,22.3425850000 114.1864860000,22.3425670000 114.1869390000,22.3425470000 114.1875150000,22.3425370000 114.1885190000,22.3425370000 114.1887960000,22.3425240000 114.1891320000,22.3424810000 114.1894990000,22.3423920000 114.1899660000,22.3421980000 114.1903150000,22.3420380000 114.1906920000,22.3418650000 114.1909750000,22.3417600000 114.1912260000,22.3417090000 114.1914940000,22.3416970000 114.1926250000,22.3417090000 114.1956600000,22.3417580000 114.1958090000,22.3417600000 114.1963520000,22.3417620000 114.1971850000,22.3417830000 114.1976130000,22.3417830000 114.1977440000,22.3417730000 114.1979580000,22.3417480000 114.1982100000,22.3416990000 114.1985330000,22.3416090000 114.1988230000,22.3414960000 114.1992450000,22.3412810000 114.1999010000,22.3410540000 114.2003290000,22.3408770000 114.2006510000,22.3407410000 114.2006960000,22.3407230000 114.2009540000,22.3406200000 114.2012380000,22.3404880000 114.2021360000,22.3398970000 114.2028260000,22.3395160000 114.2031130000,22.3392770000 114.2035020000,22.3389530000 114.2039810000,22.3385010000 114.2049800000,22.3379780000 114.2062600000,22.3372110000 114.2066750000,22.3369490000 114.2069740000,22.3367550000 114.2071370000,22.3366460000 114.2072450000,22.3365730000 114.2073260000,22.3364900000 114.2073830000,22.3364180000 114.2074380000,22.3363360000 114.2075020000,22.3362170000 114.2076490000,22.3359230000 114.2077040000,22.3358010000 114.2077900000,22.3356060000 114.2078180000,22.3355480000 114.2079780000,22.3352200000 114.2081740000,22.3347810000 114.2082070000,22.3347140000 114.2082470000,22.3346510000 114.2082660000,22.3346300000 114.2082820000,22.3346100000 114.2083250000,22.3345640000 114.2083730000,22.3345240000 114.2085880000,22.3343370000 114.2087820000,22.3342060000 114.2088890000,22.3341860000 114.2090470000,22.3341770000 114.2091850000,22.3341950000 114.2097100000,22.3343080000 114.2100200000,22.3343750000 114.2103280000,22.3344290000 114.2105890000,22.3344770000 114.2106820000,22.3344920000 114.2107950000,22.3345010000 114.2108930000,22.3345010000 114.2109970000,22.3344950000 114.2111800000,22.3344770000 114.2112270000,22.3344670000 114.2113680000,22.3344280000 114.2115080000,22.3343830000 114.2116950000,22.3342990000 114.2118800000,22.3342110000 114.2119940000,22.3341360000 114.2120590000,22.3340880000 114.2122120000,22.3339300000 114.2124120000,22.3336750000 114.2125230000,22.3335320000 114.2129630000,22.3329650000 114.2130680000,22.3328510000 114.2131870000,22.3327420000 114.2133110000,22.3326480000 114.2134220000,22.3325730000 114.2135330000,22.3325040000 114.2136590000,22.3324520000 114.2139280000,22.3323870000 114.2142170000,22.3323670000 114.2143550000,22.3323650000 114.2143700000,22.3323650000 114.2144640000,22.3323660000 114.2147240000,22.3323950000 114.2151660000,22.3324730000 114.2152890000,22.3324980000 114.2154820000,22.3325380000 114.2155590000,22.3325540000 114.2156310000,22.3325690000 114.2167370000,22.3327960000 114.2179480000,22.3330320000 114.2181240000,22.3330660000 114.2189210000,22.3332130000 114.2191710000,22.3332340000 114.2195260000,22.3332410000 114.2200800000,22.3332060000 114.2208490000,22.3331670000 114.2212450000,22.3331360000 114.2218240000,22.3330910000 114.2221700000,22.3330020000 114.2225170000,22.3328750000 114.2229490000,22.3326910000 114.2234430000,22.3324800000 114.2236620000,22.3323730000 114.2238080000,22.3322960000 114.2239620000,22.3321890000 114.2240980000,22.3320320000 114.2242050000,22.3319050000 114.2243370000,22.3317310000 114.2244420000,22.3315550000 114.2244620000,22.3314240000 114.2244830000,22.3312490000 114.2244250000,22.3310040000 114.2243610000,22.3308330000 114.2242150000,22.3306190000 114.2240790000,22.3304860000 114.2239260000,22.3303450000 114.2237780000,22.3302270000 114.2235450000,22.3300880000 114.2233260000,22.3299930000 114.2231490000,22.3299420000 114.2229940000,22.3299340000 114.2227920000,22.3299390000 114.2226140000,22.3299870000 114.2224650000,22.3300330000 114.2223740000,22.3300820000 114.2222440000,22.3301630000 114.2218420000,22.3304850000 114.2217680000,22.3305540000 114.2217370000,22.3305840000 114.2216640000,22.3306530000 114.2215590000,22.3307500000 114.2212120000,22.3310880000 114.2210820000,22.3312400000 114.2209600000,22.3313960000 114.2208620000,22.3315710000 114.2208140000,22.3317070000 114.2207960000,22.3318200000 114.2207880000,22.3319760000 114.2207920000,22.3321070000 114.2208370000,22.3323030000 114.2209360000,22.3325160000 114.2210080000,22.3326200000 114.2210910000,22.3327250000 114.2215030000,22.3332240000 114.2217030000,22.3334480000 114.2218890000,22.3336270000 114.2221500000,22.3337860000 114.2224170000,22.3338850000 114.2225060000,22.3339140000 114.2225950000,22.3339380000 114.2230070000,22.3340480000 114.2232650000,22.3340850000 114.2235720000,22.3341120000 114.2237320000,22.3341200000 114.2239230000,22.3341080000 114.2244280000,22.3340450000 114.2248760000,22.3339830000 114.2251990000,22.3339530000 114.2255180000,22.3339600000 114.2258310000,22.3339950000 114.2261870000,22.3340720000 114.2269760000,22.3342990000 114.2270220000,22.3343130000 114.2271940000,22.3343620000 114.2275800000,22.3343990000 114.2277470000,22.3343940000 114.2279800000,22.3343310000 114.2281680000,22.3343170000 114.2282410000,22.3343160000 114.2283690000,22.3343150000 114.2284500000,22.3343150000 114.2284530000,22.3342300000 114.2284540000,22.3341210000 114.2284540000,22.3340140000 114.2284540000,22.3338440000 114.2284800000,22.3332480000 114.2284870000,22.3331530000 114.2284950000,22.3330350000 114.2285000000,22.3329620000 114.2285120000,22.3328830000 114.2285340000,22.3328050000 114.2286050000,22.3326160000 114.2286340000,22.3325500000 114.2287830000,22.3322450000 114.2288220000,22.3320840000 114.2288330000,22.3319350000 114.2288130000,22.3317430000 114.2287430000,22.3315340000 114.2286340000,22.3313310000 114.2284860000,22.3310780000 114.2283550000,22.3307960000 114.2283140000,22.3305680000 114.2283290000,22.3303180000 114.2283820000,22.3301090000 114.2285020000,22.3298750000 114.2286400000,22.3296970000 114.2288500000,22.3295340000 114.2291520000,22.3293420000 114.2294380000,22.3291070000 114.2296130000,22.3289310000 114.2297780000,22.3287650000 114.2300110000,22.3284680000 114.2302550000,22.3280910000 114.2303090000,22.3280050000 114.2303590000,22.3279260000 114.2304250000,22.3278300000 114.2304630000,22.3278230000 114.2304980000,22.3278070000 114.2305270000,22.3277850000 114.2305500000,22.3277560000 114.2305640000,22.3277230000 114.2305690000,22.3276880000 114.2305650000,22.3276530000 114.2305520000,22.3276190000 114.2305300000,22.3275900000 114.2305510000,22.3274830000 114.2305700000,22.3273780000 114.2306150000,22.3272230000 114.2306690000,22.3270190000 114.2306950000,22.3268400000 114.2307050000,22.3266980000 114.2307090000,22.3265730000 114.2307110000,22.3264690000 114.2307120000,22.3264240000 114.2307160000,22.3262030000 114.2307030000,22.3260240000 114.2306750000,22.3256290000 114.2306570000,22.3253680000 114.2306590000,22.3251120000 114.2306830000,22.3248940000 114.2307360000,22.3246690000 114.2308260000,22.3244540000 114.2309150000,22.3242820000 114.2311100000,22.3239980000 114.2312980000,22.3237240000 114.2315400000,22.3234090000 114.2317630000,22.3231230000 114.2326300000,22.3220670000 114.2329910000,22.3216280000 114.2333520000,22.3211700000 114.2333720000,22.3211450000 114.2334800000,22.3210080000 114.2335670000,22.3208800000 114.2337310000,22.3206830000 114.2338240000,22.3205720000 114.2352270000,22.3192080000 114.2353720000,22.3190790000 114.2355380000,22.3190240000 114.2357700000,22.3190110000 114.2359880000,22.3190600000 114.2363430000,22.3191450000 114.2364080000,22.3191700000 114.2365200000,22.3192370000 114.2366090000,22.3192990000 114.2366090000,22.3193230000 114.2366140000,22.3193470000 114.2366310000,22.3193830000 114.2366580000,22.3194140000 114.2366930000,22.3194370000 114.2367360000,22.3194490000 114.2367610000,22.3194520000 114.2367880000,22.3194490000 114.2368280000,22.3194370000 114.2368640000,22.3194150000 114.2368910000,22.3193850000 114.2369080000,22.3193500000 114.2369140000,22.3193170000 114.2369120000,22.3192850000 114.2369430000,22.3192190000 114.2369750000,22.3191690000 114.2370420000,22.3190850000 114.2371680000,22.3189490000 114.2372640000,22.3188400000 114.2373730000,22.3187540000 114.2375060000,22.3186910000 114.2376440000,22.3186550000 114.2377730000,22.3186330000 114.2380100000,22.3186530000 114.2381830000,22.3186920000 114.2383540000,22.3188130000 114.2385030000,22.3189710000 114.2386270000,22.3191410000 114.2387890000,22.3192230000 114.2389370000,22.3192210000 114.2390530000,22.3191700000 114.2391540000,22.3191000000 114.2392430000,22.3189680000 114.2392610000,22.3189170000 114.2393240000,22.3187390000 114.2391710000,22.3186820000 114.2388370000,22.3185710000 114.2387640000,22.3185500000 114.2382890000,22.3184100000 114.2381040000,22.3183540000 114.2379340000,22.3183160000 114.2377660000,22.3183020000 114.2376230000,22.3183000000 114.2374910000,22.3183130000 114.2373630000,22.3183350000 114.2370770000,22.3183970000 114.2368680000,22.3184250000 114.2368400000,22.3184290000 114.2367830000,22.3184320000 114.2366550000,22.3184460000 114.2365590000,22.3184450000 114.2364460000,22.3184410000 114.2363600000,22.3184350000 114.2361670000,22.3183950000 114.2359490000,22.3182510000 114.2358640000,22.3181750000 114.2358040000,22.3181060000 114.2357220000,22.3179900000 114.2356630000,22.3178400000 114.2356220000,22.3174720000 114.2359230000,22.3169240000 114.2360220000,22.3167230000 114.2361500000,22.3164720000 114.2363290000,22.3161430000 114.2365830000,22.3157780000 114.2365970000,22.3157880000 114.2366200000,22.3157980000 114.2366460000,22.3158030000 114.2366640000,22.3158030000 114.2366830000,22.3158000000 114.2367030000,22.3157920000 114.2367220000,22.3157810000 114.2367410000,22.3157610000 114.2367530000,22.3157380000 114.2367590000,22.3157160000 114.2367590000,22.3156970000 114.2367560000,22.3156830000 114.2367520000,22.3156720000 114.2370090000,22.3155680000 114.2371640000,22.3155190000 114.2373650000,22.3154920000 114.2374670000,22.3154900000 114.2378720000,22.3155720000 114.2381400000,22.3156770000 114.2382640000,22.3157320000 114.2383960000,22.3157780000 114.2385170000,22.3158090000 114.2386520000,22.3158300000 114.2387870000,22.3158350000 114.2389300000,22.3158190000 114.2390520000,22.3157940000 114.2391740000,22.3157540000 114.2393190000,22.3156900000 114.2394440000,22.3156180000 114.2395620000,22.3155320000 114.2396730000,22.3154350000 114.2398040000,22.3153140000 114.2400870000,22.3149930000 114.2401910000,22.3148860000 114.2402790000,22.3147830000 114.2404900000,22.3145320000 114.2405910000,22.3143680000 114.2406300000,22.3142220000 114.2406410000,22.3140640000 114.2406200000,22.3138770000 114.2405940000,22.3137230000 114.2405410000,22.3136120000 114.2404660000,22.3135040000 114.2403300000,22.3133900000 114.2400500000,22.3132400000 114.2397820000,22.3131100000 114.2395010000,22.3129770000 114.2393800000,22.3129150000 114.2392300000,22.3128200000 114.2387100000,22.3124330000 114.2386000000,22.3123500000 114.2385180000,22.3122980000 114.2384350000,22.3122510000 114.2382800000,22.3121780000 114.2378980000,22.3120280000 114.2379020000,22.3120080000 114.2379000000,22.3119870000 114.2378900000,22.3119690000 114.2378730000,22.3119550000 114.2378440000,22.3119450000 114.2378140000,22.3119480000 114.2377880000,22.3119650000 114.2377740000,22.3119900000 114.2377730000,22.3120190000 114.2375010000,22.3120800000 114.2373350000,22.3121180000 114.2372490000,22.3120820000 114.2371990000,22.3120400000 114.2371500000,22.3119620000 114.2371150000,22.3118810000 114.2371130000,22.3118090000 114.2371270000,22.3115720000 114.2371280000,22.3114020000 114.2371510000,22.3113930000 114.2371700000,22.3113790000 114.2371840000,22.3113610000 114.2371920000,22.3113400000 114.2371930000,22.3113180000 114.2371880000,22.3112960000 114.2372400000,22.3111940000 114.2373430000,22.3110020000 114.2374890000,22.3107470000 114.2376330000,22.3104730000 114.2377390000,22.3102090000 114.2377490000,22.3101530000 114.2377540000,22.3100970000 114.2377590000,22.3098900000 114.2377600000,22.3097930000 114.2377680000,22.3094770000 114.2377600000,22.3091290000 114.2377500000,22.3091320000 114.2376910000,22.3091670000 114.2376420000,22.3092270000 114.2376270000,22.3092960000 114.2376270000,22.3092960000 114.2376010000,22.3095400000 114.2375860000,22.3095660000 114.2375330000,22.3096010000 114.2374870000,22.3096020000 114.2374440000,22.3096030000 114.2373930000,22.3096040000 114.2373450000,22.3096050000 114.2373180000,22.3096060000 114.2372960000,22.3096160000 114.2372470000,22.3096390000 114.2372160000,22.3096950000 114.2372130000,22.3097170000 114.2372010000,22.3098110000 114.2367670000,22.3098340000 114.2356460000,22.3098910000 114.2352790000,22.3099140000 114.2352820000,22.3100550000 114.2353530000,22.3107060000 114.2353670000,22.3107930000 114.2353580000,22.3108560000 114.2354400000,22.3111360000 114.2356150000,22.3114620000 114.2358050000,22.3117580000 114.2359470000,22.3119630000 114.2360630000,22.3121000000 114.2361890000,22.3121980000 114.2363210000,22.3122670000 114.2364700000,22.3123070000 114.2365910000,22.3123150000 114.2367430000,22.3123060000 114.2370740000,22.3122180000 114.2371290000,22.3121710000 114.2373350000,22.3121180000 114.2375010000,22.3120800000 114.2377730000,22.3120190000 114.2377850000,22.3120420000 114.2378060000,22.3120580000 114.2378320000,22.3120650000 114.2378590000,22.3120620000 114.2378820000,22.3120490000 114.2378980000,22.3120280000 114.2382800000,22.3121780000 114.2384350000,22.3122510000 114.2385180000,22.3122980000 114.2386000000,22.3123500000 114.2387100000,22.3124330000 114.2392300000,22.3128200000 114.2393800000,22.3129150000 114.2395010000,22.3129770000 114.2397820000,22.3131100000 114.2400500000,22.3132400000 114.2403300000,22.3133900000 114.2404660000,22.3135040000 114.2405410000,22.3136120000 114.2405940000,22.3137230000 114.2406200000,22.3138770000 114.2406410000,22.3140640000 114.2406300000,22.3142220000 114.2405910000,22.3143680000 114.2404900000,22.3145320000 114.2402790000,22.3147830000 114.2401910000,22.3148860000 114.2400870000,22.3149930000 114.2398040000,22.3153140000 114.2396730000,22.3154350000 114.2395620000,22.3155320000 114.2394440000,22.3156180000 114.2393190000,22.3156900000 114.2391740000,22.3157540000 114.2390520000,22.3157940000 114.2389300000,22.3158190000 114.2387870000,22.3158350000 114.2386520000,22.3158300000 114.2385170000,22.3158090000 114.2383960000,22.3157780000 114.2382640000,22.3157320000 114.2381400000,22.3156770000 114.2378720000,22.3155720000 114.2374670000,22.3154900000 114.2373650000,22.3154920000 114.2371640000,22.3155190000 114.2370090000,22.3155680000 114.2367520000,22.3156720000 114.2367410000,22.3156520000 114.2367240000,22.3156340000 114.2367040000,22.3156210000 114.2366790000,22.3156120000 114.2366460000,22.3156090000 114.2366140000,22.3156160000 114.2365980000,22.3156240000 114.2365850000,22.3156330000 114.2365710000,22.3156470000 114.2365600000,22.3156620000 114.2365520000,22.3156830000 114.2365490000,22.3157080000 114.2365530000,22.3157330000 114.2365630000,22.3157540000 114.2365830000,22.3157780000 114.2363290000,22.3161430000 114.2361500000,22.3164720000 114.2360220000,22.3167230000 114.2359230000,22.3169240000 114.2356220000,22.3174720000 114.2355860000,22.3175310000 114.2354990000,22.3175880000 114.2353230000,22.3178770000 114.2353080000,22.3179620000 114.2353130000,22.3179980000 114.2353190000,22.3180150000 114.2353300000,22.3180440000 114.2353630000,22.3180910000 114.2354700000,22.3181830000 114.2358330000,22.3184050000 114.2360320000,22.3184950000 114.2361490000,22.3185360000 114.2363840000,22.3185730000 114.2365100000,22.3185510000 114.2365920000,22.3185180000 114.2366760000,22.3185850000 114.2367870000,22.3185890000 114.2370340000,22.3185390000 114.2375090000,22.3184310000 114.2376020000,22.3184150000 114.2377350000,22.3183990000 114.2378700000,22.3183920000 114.2382890000,22.3184100000 114.2387640000,22.3185500000 114.2388370000,22.3185710000 114.2390100000,22.3186960000 114.2390610000,22.3187550000 114.2390780000,22.3188090000 114.2390730000,22.3189220000 114.2390600000,22.3189720000 114.2390210000,22.3190270000 114.2389350000,22.3190790000 114.2388140000,22.3190890000 114.2387080000,22.3190270000 114.2386100000,22.3189250000 114.2384950000,22.3188030000 114.2383880000,22.3187310000 114.2382290000,22.3186450000 114.2380570000,22.3185830000 114.2378530000,22.3185630000 114.2376470000,22.3185730000 114.2374810000,22.3186190000 114.2373370000,22.3186810000 114.2371800000,22.3188010000 114.2369900000,22.3189990000 114.2369610000,22.3190280000 114.2368980000,22.3190890000 114.2368420000,22.3191270000 114.2367680000,22.3191690000 114.2367420000,22.3191700000 114.2367170000,22.3191750000 114.2366290000,22.3191570000 114.2365610000,22.3191360000 114.2364420000,22.3190930000 114.2360280000,22.3189690000 114.2357670000,22.3189340000 114.2355210000,22.3189470000 114.2353460000,22.3189990000 114.2351880000,22.3191210000 114.2339080000,22.3203670000 114.2337660000,22.3205290000 114.2335330000,22.3208160000 114.2335200000,22.3208330000 114.2335080000,22.3208480000 114.2334210000,22.3209660000 114.2333130000,22.3211060000 114.2329370000,22.3215930000 114.2328660000,22.3216770000 114.2325850000,22.3220100000 114.2317000000,22.3230870000 114.2312570000,22.3236950000 114.2309520000,22.3241020000 114.2308540000,22.3242570000 114.2307590000,22.3244350000 114.2306730000,22.3246510000 114.2306180000,22.3248830000 114.2305920000,22.3251070000 114.2305950000,22.3253660000 114.2306170000,22.3259390000 114.2306170000,22.3259630000 114.2306270000,22.3262110000 114.2306260000,22.3264260000 114.2306260000,22.3264970000 114.2305560000,22.3265760000 114.2305440000,22.3266020000 114.2305240000,22.3267750000 114.2304860000,22.3269640000 114.2304570000,22.3270600000 114.2304320000,22.3271420000 114.2305320000,22.3272120000 114.2304890000,22.3273540000 114.2304390000,22.3274620000 114.2303800000,22.3275440000 114.2303460000,22.3275550000 114.2303150000,22.3275730000 114.2302890000,22.3275970000 114.2302710000,22.3276260000 114.2302600000,22.3276550000 114.2302570000,22.3276860000 114.2302600000,22.3277170000 114.2302710000,22.3277470000 114.2302420000,22.3278890000 114.2302140000,22.3279590000 114.2301760000,22.3280530000 114.2299290000,22.3284380000 114.2297020000,22.3287150000 114.2295560000,22.3288640000 114.2293630000,22.3290490000 114.2290920000,22.3292730000 114.2287980000,22.3294690000 114.2285680000,22.3296520000 114.2284090000,22.3298450000 114.2283050000,22.3300530000 114.2282300000,22.3303180000 114.2282190000,22.3305410000 114.2282530000,22.3307740000 114.2283090000,22.3309540000 114.2284160000,22.3311480000 114.2285600000,22.3313930000 114.2286600000,22.3315800000 114.2287060000,22.3317330000 114.2287250000,22.3319060000 114.2287110000,22.3320800000 114.2286870000,22.3322160000 114.2285360000,22.3325110000 114.2284950000,22.3325930000 114.2284280000,22.3327850000 114.2284030000,22.3328660000 114.2283900000,22.3329500000 114.2283820000,22.3330320000 114.2283750000,22.3331470000 114.2283700000,22.3332420000 114.2283540000,22.3338460000 114.2282710000,22.3340660000 114.2282490000,22.3340920000 114.2282230000,22.3341220000 114.2282060000,22.3341420000 114.2281110000,22.3341910000 114.2279590000,22.3342370000 114.2275110000,22.3342370000 114.2274470000,22.3342370000 114.2271050000,22.3341910000 114.2270870000,22.3341890000 114.2270610000,22.3341860000 114.2267500000,22.3341470000 114.2264970000,22.3340990000 114.2261810000,22.3340170000 114.2258640000,22.3339440000 114.2255850000,22.3339040000 114.2252950000,22.3338920000 114.2251090000,22.3338990000 114.2247170000,22.3339380000 114.2242410000,22.3340170000 114.2238690000,22.3340590000 114.2235930000,22.3340530000 114.2232610000,22.3340190000 114.2229770000,22.3339710000 114.2226100000,22.3338770000 114.2224520000,22.3338360000 114.2221840000,22.3337360000 114.2219360000,22.3335690000 114.2217580000,22.3334040000 114.2216170000,22.3332500000 114.2213610000,22.3329370000 114.2211370000,22.3326760000 114.2209770000,22.3324580000 114.2208960000,22.3322690000 114.2208500000,22.3321020000 114.2208370000,22.3319800000 114.2208460000,22.3318300000 114.2209020000,22.3316060000 114.2209410000,22.3315310000 114.2210710000,22.3313460000 114.2212380000,22.3311820000 114.2215470000,22.3309170000 114.2216330000,22.3308280000 114.2217320000,22.3307250000 114.2218070000,22.3306490000 114.2219400000,22.3305150000 114.2222850000,22.3302320000 114.2224220000,22.3301440000 114.2226070000,22.3300630000 114.2228360000,22.3300110000 114.2230490000,22.3300050000 114.2232600000,22.3300430000 114.2234760000,22.3301290000 114.2236400000,22.3302130000 114.2238250000,22.3303460000 114.2241550000,22.3306300000 114.2242980000,22.3308500000 114.2243630000,22.3310200000 114.2244130000,22.3311850000 114.2244070000,22.3313290000 114.2243780000,22.3315300000 114.2242760000,22.3317330000 114.2241630000,22.3318650000 114.2240100000,22.3320320000 114.2238420000,22.3321670000 114.2235240000,22.3323380000 114.2228700000,22.3326070000 114.2224240000,22.3327990000 114.2221310000,22.3329060000 114.2218260000,22.3329810000 114.2214880000,22.3330050000 114.2208810000,22.3330400000 114.2200380000,22.3330780000 114.2194470000,22.3331040000 114.2190940000,22.3331200000 114.2188320000,22.3330820000 114.2181580000,22.3329530000 114.2167870000,22.3326760000 114.2152590000,22.3323660000 114.2151760000,22.3323480000 114.2150510000,22.3323210000 114.2144810000,22.3322210000 114.2141700000,22.3322200000 114.2139600000,22.3322330000 114.2137320000,22.3322770000 114.2135290000,22.3323540000 114.2133600000,22.3324510000 114.2131140000,22.3326350000 114.2130300000,22.3327060000 114.2129460000,22.3328000000 114.2128680000,22.3328880000 114.2125410000,22.3333170000 114.2124270000,22.3334660000 114.2122090000,22.3337590000 114.2120330000,22.3339410000 114.2119130000,22.3340510000 114.2116710000,22.3341680000 114.2115170000,22.3342360000 114.2113300000,22.3343000000 114.2111070000,22.3343500000 114.2110110000,22.3343640000 114.2107130000,22.3343670000 114.2104910000,22.3343270000 114.2099080000,22.3342220000 114.2092610000,22.3340930000 114.2090730000,22.3340630000 114.2087050000,22.3340720000 114.2084750000,22.3341430000 114.2082580000,22.3342250000 114.2081090000,22.3342900000 114.2080000000,22.3343360000 114.2080050000,22.3344320000 114.2080030000,22.3345270000 114.2079940000,22.3345770000 114.2079790000,22.3346360000 114.2079570000,22.3346940000 114.2078730000,22.3348950000 114.2076510000,22.3353700000 114.2076190000,22.3354420000 114.2073780000,22.3359480000 114.2073350000,22.3360250000 114.2073030000,22.3360810000 114.2072840000,22.3361150000 114.2072180000,22.3362280000 114.2071500000,22.3363490000 114.2070330000,22.3365360000 114.2068360000,22.3366820000 114.2065980000,22.3368240000 114.2058220000,22.3372860000 114.2048450000,22.3378630000 114.2033930000,22.3387210000 114.2029090000,22.3389990000 114.2028670000,22.3390220000 114.2023130000,22.3393480000 114.2022820000,22.3393660000 114.2019440000,22.3395080000 114.2015980000,22.3396600000 114.2013390000,22.3397800000 114.2012010000,22.3398550000 114.2010780000,22.3399330000 114.2009950000,22.3399900000 114.2009100000,22.3400510000 114.2007820000,22.3401520000 114.2005820000,22.3403130000 114.2004860000,22.3403930000 114.2001110000,22.3406470000 114.1996590000,22.3409170000 114.1991220000,22.3412210000 114.1989070000,22.3413350000 114.1986750000,22.3414190000 114.1984530000,22.3415150000 114.1982130000,22.3415850000 114.1978650000,22.3416190000 114.1975150000,22.3416490000 114.1966610000,22.3416600000 114.1958210000,22.3416580000 114.1956640000,22.3416580000 114.1955220000,22.3416570000 114.1924510000,22.3416280000 114.1919230000,22.3416100000 114.1916870000,22.3416060000 114.1915690000,22.3416060000 114.1914520000,22.3416050000 114.1911270000,22.3416250000 114.1908750000,22.3416730000 114.1906570000,22.3417450000 114.1904920000,22.3418110000 114.1897670000,22.3421530000 114.1893730000,22.3423270000 114.1889930000,22.3423970000 114.1886880000,22.3424180000 114.1884710000,22.3424320000 114.1875170000,22.3424300000 114.1867250000,22.3424410000 114.1863010000,22.3424730000 114.1856720000,22.3425860000 114.1854220000,22.3426580000 114.1849890000,22.3427940000 114.1841130000,22.3431610000 114.1837920000,22.3433060000 114.1833190000,22.3435730000 114.1829600000,22.3438240000 114.1828630000,22.3438840000 114.1827840000,22.3439320000 114.1827380000,22.3439590000 114.1826570000,22.3439950000 114.1825750000,22.3440270000 114.1824900000,22.3440530000 114.1823910000,22.3440740000 114.1822850000,22.3440830000 114.1821470000,22.3440880000 114.1819010000,22.3440850000 114.1809550000,22.3440150000 114.1800600000,22.3440080000 114.1797930000,22.3440320000 114.1795670000,22.3440680000 114.1793300000,22.3441200000 114.1790560000,22.3441910000 114.1787900000,22.3442810000 114.1779280000,22.3446190000 114.1777690000,22.3446690000 114.1775780000,22.3447070000 114.1773820000,22.3447200000 114.1771540000,22.3447010000 114.1768970000,22.3446330000 114.1759000000,22.3443210000 114.1757270000,22.3442560000 114.1755780000,22.3441760000 114.1754120000,22.3440510000 114.1752930000,22.3439240000 114.1752030000,22.3437750000 114.1748210000,22.3431390000 114.1747360000,22.3430290000 114.1746100000,22.3428770000 114.1744690000,22.3427530000 114.1743100000,22.3426510000 114.1741510000,22.3425770000 114.1739850000,22.3425200000 114.1738440000,22.3425030000 114.1736660000,22.3424940000 114.1734200000,22.3425380000 114.1732640000,22.3425750000 114.1731250000,22.3426170000 114.1729430000,22.3427050000 114.1723510000,22.3430880000 114.1722070000,22.3431590000 114.1720780000,22.3432030000 114.1719320000,22.3432500000 114.1718040000,22.3432690000 114.1716860000,22.3432780000 114.1715690000,22.3432770000 114.1714350000,22.3432600000 114.1713070000,22.3432270000 114.1711970000,22.3431840000 114.1711020000,22.3431310000 114.1710120000,22.3430720000 114.1708890000,22.3429780000 114.1706260000,22.3427190000 114.1704220000,22.3425010000 114.1699620000,22.3420690000 114.1694490000,22.3415410000 114.1693270000,22.3414250000 114.1692030000,22.3413310000 114.1690860000,22.3412520000 114.1689330000,22.3411650000 114.1687640000,22.3410980000 114.1686140000,22.3410550000 114.1684660000,22.3410370000 114.1683150000,22.3410300000 114.1681540000,22.3410490000 114.1680280000,22.3410740000 114.1678650000,22.3411220000 114.1676980000,22.3411910000 114.1668350000,22.3416210000 114.1667110000,22.3416850000 114.1665720000,22.3417560000 114.1664070000,22.3418190000 114.1662880000,22.3418540000 114.1661510000,22.3418790000 114.1659600000,22.3419030000 114.1657280000,22.3419140000 114.1652790000,22.3419070000 114.1646000000,22.3418750000 114.1644170000,22.3418560000 114.1642460000,22.3418310000 114.1640610000,22.3417900000 114.1638820000,22.3417390000 114.1636810000,22.3416680000 114.1634660000,22.3415750000 114.1631320000,22.3414180000 114.1627710000,22.3412590000 114.1625530000,22.3411730000 114.1622960000,22.3411020000 114.1620110000,22.3410440000 114.1617160000,22.3410250000 114.1614370000,22.3410310000 114.1612000000,22.3410610000 114.1609450000,22.3411290000 114.1606890000,22.3412190000 114.1605040000,22.3413080000 114.1603610000,22.3414020000 114.1602270000,22.3415030000 114.1600600000,22.3416480000 114.1599200000,22.3417840000 114.1595910000,22.3421560000 114.1594570000,22.3422990000 114.1593490000,22.3424050000 114.1592300000,22.3425000000 114.1590960000,22.3425810000 114.1589260000,22.3426640000 114.1587340000,22.3427320000 114.1585780000,22.3427760000 114.1583820000,22.3428150000 114.1581200000,22.3428430000 114.1578230000,22.3428530000 114.1574960000,22.3428360000 114.1572960000,22.3428180000 114.1567660000,22.3427710000 114.1565860000,22.3427520000 114.1564280000,22.3427340000 114.1561290000,22.3427140000 114.1558810000,22.3427140000 114.1556090000,22.3427320000 114.1551680000,22.3427880000 114.1549500000,22.3427930000 114.1547950000,22.3427870000 114.1546030000,22.3427550000 114.1544320000,22.3427110000 114.1540050000,22.3425310000 114.1536980000,22.3424250000 114.1509610000,22.3412580000 114.1505520000,22.3410870000 114.1500930000,22.3408870000 114.1498310000,22.3407830000 114.1496330000,22.3407010000 114.1492640000,22.3405710000 114.1487650000,22.3404020000 114.1472160000,22.3399700000 114.1469300000,22.3398970000 114.1466690000,22.3398570000 114.1463180000,22.3398320000 114.1455850000,22.3398140000 114.1453110000,22.3398360000 114.1450780000,22.3398850000 114.1448680000,22.3399770000 114.1447450000,22.3400500000 114.1446390000,22.3401350000 114.1445300000,22.3402420000 114.1441970000,22.3406980000 114.1441110000,22.3408110000 114.1440340000,22.3408970000 114.1439820000,22.3409430000 114.1439060000,22.3410000000 114.1437720000,22.3410560000 114.1436270000,22.3410950000 114.1435470000,22.3411080000 114.1434300000,22.3411090000 114.1433470000,22.3410990000 114.1432000000,22.3410730000 114.1429990000,22.3410070000 114.1427900000,22.3408930000 114.1425460000,22.3407080000 114.1418420000,22.3400970000 114.1417020000,22.3400050000 114.1413940000,22.3398740000 114.1412340000,22.3398470000 114.1410360000,22.3398390000 114.1408280000,22.3398550000 114.1406170000,22.3399190000 114.1403200000,22.3400310000 114.1399660000,22.3402170000 114.1390790000,22.3408220000 114.1387950000,22.3409890000 114.1384860000,22.3411350000 114.1381500000,22.3412550000 114.1379970000,22.3412930000 114.1378480000,22.3413160000 114.1376760000,22.3413210000 114.1374900000,22.3413090000 114.1372610000,22.3412580000 114.1370550000,22.3411850000 114.1369150000,22.3411080000 114.1367940000,22.3410270000 114.1365860000,22.3408270000 114.1364670000,22.3406650000 114.1363620000,22.3404680000 114.1363000000,22.3403080000 114.1362170000,22.3400260000 114.1360660000,22.3394700000 114.1359330000,22.3390830000 114.1357340000,22.3386790000 114.1354670000,22.3382740000 114.1353720000,22.3381900000 114.1352870000,22.3381130000 114.1350770000,22.3379810000 114.1349680000,22.3379290000 114.1348420000,22.3378910000 114.1347120000,22.3378630000 114.1345800000,22.3378490000 114.1344350000,22.3378510000 114.1342950000,22.3378730000 114.1341620000,22.3379090000 114.1340500000,22.3379500000 114.1337370000,22.3381100000 114.1336790000,22.3381430000 114.1335230000,22.3382330000 114.1332760000,22.3383930000 114.1332270000,22.3384330000 114.1329690000,22.3386490000 114.1328030000,22.3388050000 114.1326620000,22.3389630000 114.1323840000,22.3393630000 114.1321620000,22.3397110000 114.1319830000,22.3400050000 114.1317720000,22.3403520000 114.1310030000,22.3416020000 114.1306170000,22.3421040000 114.1303860000,22.3423360000 114.1301210000,22.3425520000 114.1298470000,22.3427490000 114.1293030000,22.3430490000 114.1288350000,22.3432820000 114.1284390000,22.3434550000 114.1281400000,22.3436410000 114.1273430000,22.3439600000 114.1268190000,22.3441900000 114.1263350000,22.3443760000 114.1258600000,22.3446000000 114.1254910000,22.3449910000 114.1251070000,22.3455570000 114.1249360000,22.3459990000 114.1248340000,22.3466010000 114.1248350000,22.3470460000 114.1248200000,22.3475160000 114.1248360000,22.3478940000 114.1249770000,22.3485900000 114.1250240000,22.3487870000 114.1251170000,22.3494070000 114.1252550000,22.3500090000 114.1254190000,22.3505440000 114.1254570000,22.3508080000 114.1254890000,22.3510300000 114.1255120000,22.3512900000 114.1255180000,22.3514930000 114.1255220000,22.3518260000 114.1254900000,22.3522010000 114.1254390000,22.3524460000 114.1253410000,22.3528430000 114.1252140000,22.3532430000 114.1251130000,22.3534530000 114.1250040000,22.3536430000 114.1248700000,22.3538290000 114.1246270000,22.3541000000 114.1243860000,22.3543590000 114.1237480000,22.3549120000 114.1236200000,22.3550060000 114.1235830000,22.3550180000 114.1234910000,22.3550660000 114.1233490000,22.3551280000 114.1232170000,22.3551530000 114.1231210000,22.3551550000 114.1230430000,22.3551420000 114.1229490000,22.3551200000 114.1227040000,22.3549940000 114.1224400000,22.3547380000 114.1221760000,22.3544520000 114.1219530000,22.3542100000 114.1214940000,22.3536620000 114.1213390000,22.3534960000 114.1211830000,22.3533190000 114.1211520000,22.3532840000 114.1209330000,22.3530110000 114.1207810000,22.3528070000 114.1207300000,22.3526660000 114.1206310000,22.3525350000 114.1204060000,22.3523140000 114.1202460000,22.3521550000 114.1196470000,22.3515350000 114.1191890000,22.3510850000 114.1184840000,22.3503480000 114.1183600000,22.3502290000 114.1180720000,22.3499220000 114.1178600000,22.3497350000 114.1177490000,22.3496500000 114.1176420000,22.3495570000 114.1174810000,22.3494370000 114.1173320000,22.3493750000 114.1171940000,22.3492980000 114.1170050000,22.3492400000 114.1168280000,22.3491740000 114.1166770000,22.3491260000 114.1165100000,22.3490740000 114.1136600000,22.3483270000 114.1121360000,22.3479460000 114.1119700000,22.3479320000 114.1117210000,22.3478570000 114.1115680000,22.3478350000 114.1113970000,22.3478160000 114.1112620000,22.3478100000 114.1111150000,22.3478170000 114.1109830000,22.3478310000 114.1108330000,22.3478730000 114.1106850000,22.3479350000 114.1105170000,22.3480380000 114.1104160000,22.3481160000 114.1103690000,22.3481670000 114.1102810000,22.3482560000 114.1102000000,22.3483550000 114.1099490000,22.3486740000 114.1097170000,22.3489790000 114.1094650000,22.3493370000 114.1092740000,22.3495870000 114.1090010000,22.3499690000 114.1089390000,22.3500980000 114.1088370000,22.3502220000 114.1087750000,22.3502960000 114.1086870000,22.3504050000 114.1086120000,22.3503560000 114.1084280000,22.3502380000 114.1083530000,22.3501890000 114.1083180000,22.3501750000 114.1080680000,22.3500980000 114.1079250000,22.3500580000 114.1077510000,22.3500370000 114.1073530000,22.3500690000 114.1069090000,22.3501970000 114.1065940000,22.3502760000 114.1062680000,22.3503840000 114.1061110000,22.3504610000 114.1060620000,22.3504760000 114.1057100000,22.3505460000 114.1055920000,22.3505810000 114.1053510000,22.3506430000 114.1047920000,22.3507320000 114.1042620000,22.3507910000 114.1037440000,22.3508210000 114.1033250000,22.3508840000 114.1030770000,22.3508970000 114.1027980000,22.3508930000 114.1025480000,22.3509130000 114.1023990000,22.3509300000 114.1020390000,22.3509550000 114.1017890000,22.3509530000 114.1014810000,22.3509000000 114.1012840000,22.3508180000 114.1011330000,22.3507240000 114.1009870000,22.3506040000 114.1009630000,22.3505730000 114.1009090000,22.3505040000 114.1008710000,22.3504150000 114.1007780000,22.3502820000 114.1007520000,22.3502190000 114.1007100000,22.3500550000 114.1006760000,22.3498430000 114.1006470000,22.3497350000 114.1006540000,22.3496120000 114.1006480000,22.3495150000 114.1006450000,22.3494310000 114.1005680000,22.3494320000 114.1004730000,22.3494250000 114.1001810000,22.3494410000 114.1000710000,22.3494920000 114.0998120000,22.3495050000 114.0993080000,22.3495200000 114.0989370000,22.3495250000 114.0987100000,22.3495290000 114.0983280000,22.3495340000 114.0981280000,22.3495410000 114.0973950000,22.3495900000 114.0972080000,22.3496170000 114.0972710000,22.3498320000 114.0973610000,22.3500570000 114.0975680000,22.3504950000 114.0976550000,22.3506830000 114.0976890000,22.3507560000 114.0977250000,22.3508350000 114.0980540000,22.3515810000 114.0982840000,22.3521060000 114.0983480000,22.3522520000 114.0984130000,22.3523980000 114.0982560000,22.3524770000 114.0980570000,22.3526060000 114.0978910000,22.3527790000 114.0978240000,22.3529210000 114.0977980000,22.3529760000 114.0977760000,22.3530210000 114.0977600000,22.3530680000 114.0976190000,22.3535270000 114.0975880000,22.3536430000 114.0975630000,22.3537360000 114.0974770000,22.3541390000 114.0974430000,22.3543450000 114.0973490000,22.3548630000 114.0973420000,22.3550340000 114.0973570000,22.3551930000 114.0974010000,22.3554680000 114.0974050000,22.3555070000 114.0974100000,22.3555380000 114.0974250000,22.3556160000 114.0974350000,22.3556850000 114.0974520000,22.3558110000 114.0974640000,22.3558960000 114.0974830000,22.3561640000 114.0974710000,22.3564270000 114.0974410000,22.3566670000 114.0973570000,22.3568790000 114.0972900000,22.3570030000 114.0972170000,22.3571050000 114.0970810000,22.3572460000 114.0969620000,22.3573220000 114.0969470000,22.3573030000 114.0969260000,22.3572890000 114.0969020000,22.3572810000 114.0968770000,22.3572800000 114.0968520000,22.3572850000 114.0968290000,22.3572960000 114.0968100000,22.3573150000 114.0967980000,22.3573380000 114.0967940000,22.3573630000 114.0968020000,22.3573950000 114.0968210000,22.3574210000 114.0967550000,22.3574400000 114.0965790000,22.3574780000 114.0963260000,22.3575240000 114.0961720000,22.3575530000 114.0960770000,22.3575700000 114.0955000000,22.3576720000 114.0950600000,22.3577450000 114.0948430000,22.3577610000 114.0945790000,22.3577350000 114.0943570000,22.3576600000 114.0941240000,22.3575140000 114.0939400000,22.3573430000 114.0938650000,22.3571440000 114.0938330000,22.3569160000 114.0938420000,22.3568370000</coordinates>
                </LineString>
                <ExtendedData>
                    <Data name="length">
                        <value>47769.075801453786</value>
                    </Data>
                    <Data name="duration">
                        <value>01:36:55</value>
                    </Data>
                </ExtendedData>
            </Placemark>
        </Document>
    </Document>
</kml>