<?xml version="1.0" encoding="UTF-8"?>
<kml xmlns="http://www.opengis.net/kml/2.2" xmlns:gx="http://www.google.com/kml/ext/2.2">
    <Document>
        <name>Route</name>
        <Folder>
            <name>Route Request</name>
            <Placemark>
                <address>Caltex Container Port Road Station, 108, Container Port Road, Kau Wa Keng, Ha Kwai Chung, Kwai Chung, Kwai Tsing District, Hong Kong, 852, PRC</address>
                <Point>
                    <coordinates>114.1269570642,22.3545740496</coordinates>
                </Point>
                <ExtendedData>
                    <Data name="county">
                        <value>Kwai Tsing District</value>
                    </Data>
                    <Data name="road">
                        <value>Container Port Road</value>
                    </Data>
                    <Data name="routingVisited">
                        <value>false</value>
                    </Data>
                    <Data name="house_number">
                        <value>108</value>
                    </Data>
                    <Data name="town">
                        <value>Kwai Chung</value>
                    </Data>
                    <Data name="postcode">
                        <value>852</value>
                    </Data>
                    <Data name="suburb">
                        <value>Ha Kwai Chung</value>
                    </Data>
                    <Data name="country_code">
                        <value>cn</value>
                    </Data>
                    <Data name="neighbourhood">
                        <value>Kau Wa Keng</value>
                    </Data>
                    <Data name="fuel">
                        <value>Caltex Container Port Road Station</value>
                    </Data>
                    <Data name="country">
                        <value>PRC</value>
                    </Data>
                </ExtendedData>
            </Placemark>
            <Placemark>
                <address>78, Lai King Hill Road, Lai Chi Kok, Sham Shui Po District, Hong Kong, 852, PRC</address>
                <Point>
                    <coordinates>114.1382524114,22.3421118102</coordinates>
                </Point>
                <ExtendedData>
                    <Data name="county">
                        <value>Sham Shui Po District</value>
                    </Data>
                    <Data name="road">
                        <value>Lai King Hill Road</value>
                    </Data>
                    <Data name="postcode">
                        <value>852</value>
                    </Data>
                    <Data name="post_box">
                        <value>78</value>
                    </Data>
                    <Data name="suburb">
                        <value>Lai Chi Kok</value>
                    </Data>
                    <Data name="country_code">
                        <value>cn</value>
                    </Data>
                    <Data name="country">
                        <value>PRC</value>
                    </Data>
                </ExtendedData>
            </Placemark>
            <Placemark>
                <address>McDonald's, Nathan Road, Sham Shui Po District, Hong Kong, KIL 3348, PRC</address>
                <Point>
                    <coordinates>114.1675775564,22.3248388482</coordinates>
                </Point>
                <ExtendedData>
                    <Data name="county">
                        <value>Sham Shui Po District</value>
                    </Data>
                    <Data name="road">
                        <value>Nathan Road</value>
                    </Data>
                    <Data name="postcode">
                        <value>KIL 3348</value>
                    </Data>
                    <Data name="country_code">
                        <value>cn</value>
                    </Data>
                    <Data name="fast_food">
                        <value>McDonald's</value>
                    </Data>
                    <Data name="country">
                        <value>PRC</value>
                    </Data>
                </ExtendedData>
            </Placemark>
            <Placemark>
                <address>Block 9, Boundary Street, Ma Tau Wai, Kowloon, Kowloon City District, Hong Kong, KIL 3348, PRC</address>
                <Point>
                    <coordinates>114.1830096574,22.3272685431</coordinates>
                </Point>
                <ExtendedData>
                    <Data name="county">
                        <value>Kowloon City District</value>
                    </Data>
                    <Data name="road">
                        <value>Boundary Street</value>
                    </Data>
                    <Data name="postcode">
                        <value>KIL 3348</value>
                    </Data>
                    <Data name="suburb">
                        <value>Ma Tau Wai</value>
                    </Data>
                    <Data name="country_code">
                        <value>cn</value>
                    </Data>
                    <Data name="building">
                        <value>Block 9</value>
                    </Data>
                    <Data name="city">
                        <value>Kowloon</value>
                    </Data>
                    <Data name="country">
                        <value>PRC</value>
                    </Data>
                </ExtendedData>
            </Placemark>
            <Placemark>
                <address>Tak Tai House, On Yan Street, On Tai Estate, Sze Shun, Kwun Tong District, Hong Kong, HONG KONG, PRC</address>
                <Point>
                    <coordinates>114.2289728513,22.3272971022</coordinates>
                </Point>
                <ExtendedData>
                    <Data name="county">
                        <value>Kwun Tong District</value>
                    </Data>
                    <Data name="road">
                        <value>On Yan Street</value>
                    </Data>
                    <Data name="postcode">
                        <value>HONG KONG</value>
                    </Data>
                    <Data name="residential">
                        <value>On Tai Estate</value>
                    </Data>
                    <Data name="suburb">
                        <value>Sze Shun</value>
                    </Data>
                    <Data name="country_code">
                        <value>cn</value>
                    </Data>
                    <Data name="building">
                        <value>Tak Tai House</value>
                    </Data>
                    <Data name="country">
                        <value>PRC</value>
                    </Data>
                </ExtendedData>
            </Placemark>
            <Placemark>
                <address>Katherine Building, Argyle Street, Ma Tau Wai, Kowloon, Kowloon City District, Hong Kong, KIL 3348, PRC</address>
                <Point>
                    <coordinates>114.1885492061,22.3272694691</coordinates>
                </Point>
                <ExtendedData>
                    <Data name="county">
                        <value>Kowloon City District</value>
                    </Data>
                    <Data name="road">
                        <value>Argyle Street</value>
                    </Data>
                    <Data name="postcode">
                        <value>KIL 3348</value>
                    </Data>
                    <Data name="suburb">
                        <value>Ma Tau Wai</value>
                    </Data>
                    <Data name="country_code">
                        <value>cn</value>
                    </Data>
                    <Data name="building">
                        <value>Katherine Building</value>
                    </Data>
                    <Data name="city">
                        <value>Kowloon</value>
                    </Data>
                    <Data name="country">
                        <value>PRC</value>
                    </Data>
                </ExtendedData>
            </Placemark>
            <Placemark>
                <Point>
                    <coordinates>114.1637961326,22.3219227192</coordinates>
                </Point>
                <ExtendedData>
                    <Data name="routingVisited">
                        <value>false</value>
                    </Data>
                </ExtendedData>
            </Placemark>
            <Placemark>
                <address>132, Sai Yeung Choi Street South, Mong Kok, Yau Tsim Mong District, Hong Kong, KIL 3348, PRC</address>
                <Point>
                    <coordinates>114.1621556601,22.3202590226</coordinates>
                </Point>
                <ExtendedData>
                    <Data name="county">
                        <value>Yau Tsim Mong District</value>
                    </Data>
                    <Data name="road">
                        <value>Sai Yeung Choi Street South</value>
                    </Data>
                    <Data name="routingVisited">
                        <value>false</value>
                    </Data>
                    <Data name="house_number">
                        <value>132</value>
                    </Data>
                    <Data name="postcode">
                        <value>KIL 3348</value>
                    </Data>
                    <Data name="suburb">
                        <value>Mong Kok</value>
                    </Data>
                    <Data name="country_code">
                        <value>cn</value>
                    </Data>
                    <Data name="country">
                        <value>PRC</value>
                    </Data>
                </ExtendedData>
            </Placemark>
            <Placemark>
                <address>Princess Margaret Hospital School of General Nursing &amp; Quarters, 232, Lai King Hill Road, Lai Chi Kok, Sham Shui Po District, Hong Kong, 852, PRC</address>
                <Point>
                    <coordinates>114.1329772328,22.3408394831</coordinates>
                </Point>
                <ExtendedData>
                    <Data name="county">
                        <value>Sham Shui Po District</value>
                    </Data>
                    <Data name="road">
                        <value>Lai King Hill Road</value>
                    </Data>
                    <Data name="house_number">
                        <value>232</value>
                    </Data>
                    <Data name="postcode">
                        <value>852</value>
                    </Data>
                    <Data name="suburb">
                        <value>Lai Chi Kok</value>
                    </Data>
                    <Data name="country_code">
                        <value>cn</value>
                    </Data>
                    <Data name="building">
                        <value>Princess Margaret Hospital School of General Nursing &amp; Quarters</value>
                    </Data>
                    <Data name="country">
                        <value>PRC</value>
                    </Data>
                </ExtendedData>
            </Placemark>
            <Placemark>
                <address>Kau Wa Keng, Ha Kwai Chung, Kwai Chung, Kwai Tsing District, Hong Kong, 852, PRC</address>
                <Point>
                    <coordinates>114.1269422938,22.3545740496</coordinates>
                </Point>
                <ExtendedData>
                    <Data name="county">
                        <value>Kwai Tsing District</value>
                    </Data>
                    <Data name="town">
                        <value>Kwai Chung</value>
                    </Data>
                    <Data name="postcode">
                        <value>852</value>
                    </Data>
                    <Data name="suburb">
                        <value>Ha Kwai Chung</value>
                    </Data>
                    <Data name="country_code">
                        <value>cn</value>
                    </Data>
                    <Data name="neighbourhood">
                        <value>Kau Wa Keng</value>
                    </Data>
                    <Data name="country">
                        <value>PRC</value>
                    </Data>
                </ExtendedData>
            </Placemark>
        </Folder>
        <Document>
            <name>36.0 km; 01:31 h (OSRM)</name>
            <Placemark>
                <name>Route</name>
                <LineString>
                    <coordinates>114.1269520000,22.3546280000 114.1262580000,22.3545690000 114.1261930000,22.3545840000 114.1261340000,22.3546240000 114.1260090000,22.3547230000 114.1259650000,22.3547700000 114.1259360000,22.3548200000 114.1259200000,22.3548770000 114.1259170000,22.3549490000 114.1259840000,22.3550090000 114.1261130000,22.3551660000 114.1262350000,22.3552840000 114.1262600000,22.3553260000 114.1262730000,22.3553720000 114.1262780000,22.3554300000 114.1262810000,22.3554880000 114.1262940000,22.3555500000 114.1263150000,22.3556050000 114.1263440000,22.3556580000 114.1263850000,22.3557090000 114.1264350000,22.3557520000 114.1264970000,22.3557840000 114.1265730000,22.3557950000 114.1266450000,22.3557930000 114.1267080000,22.3557790000 114.1267700000,22.3557420000 114.1268140000,22.3556970000 114.1268430000,22.3556470000 114.1268770000,22.3555780000 114.1269080000,22.3554880000 114.1269340000,22.3553960000 114.1269520000,22.3553510000 114.1269900000,22.3553010000 114.1270370000,22.3552600000 114.1270980000,22.3552220000 114.1272040000,22.3551720000 114.1272310000,22.3551610000 114.1273640000,22.3551060000 114.1276430000,22.3550130000 114.1278000000,22.3549440000 114.1279400000,22.3548660000 114.1280600000,22.3547780000 114.1281530000,22.3546920000 114.1282270000,22.3546000000 114.1282880000,22.3545080000 114.1283370000,22.3544140000 114.1283760000,22.3543170000 114.1284060000,22.3542180000 114.1284260000,22.3540990000 114.1284340000,22.3539720000 114.1284250000,22.3538590000 114.1283990000,22.3537390000 114.1283610000,22.3536370000 114.1282940000,22.3535000000 114.1275680000,22.3519570000 114.1275110000,22.3518410000 114.1274790000,22.3517790000 114.1274560000,22.3517330000 114.1273030000,22.3514270000 114.1272480000,22.3513080000 114.1271740000,22.3510640000 114.1271310000,22.3508790000 114.1270210000,22.3499480000 114.1269600000,22.3494100000 114.1269300000,22.3491900000 114.1268540000,22.3486310000 114.1267600000,22.3479400000 114.1266910000,22.3472600000 114.1266770000,22.3471440000 114.1266380000,22.3468240000 114.1266150000,22.3466550000 114.1266050000,22.3465080000 114.1266080000,22.3463380000 114.1266330000,22.3461520000 114.1266680000,22.3460270000 114.1267560000,22.3458300000 114.1269160000,22.3456220000 114.1270720000,22.3454730000 114.1272520000,22.3453510000 114.1272990000,22.3453190000 114.1275790000,22.3451890000 114.1281270000,22.3449530000 114.1292150000,22.3444530000 114.1310710000,22.3436210000 114.1313320000,22.3434970000 114.1316090000,22.3433420000 114.1317930000,22.3432080000 114.1319240000,22.3430940000 114.1319650000,22.3430460000 114.1320230000,22.3429740000 114.1321050000,22.3428680000 114.1321560000,22.3427960000 114.1322210000,22.3426600000 114.1322850000,22.3424940000 114.1324480000,22.3419520000 114.1325440000,22.3415620000 114.1326400000,22.3413460000 114.1327490000,22.3411650000 114.1329970000,22.3408820000 114.1334990000,22.3402780000 114.1337840000,22.3399490000 114.1339700000,22.3397820000 114.1341510000,22.3396760000 114.1343490000,22.3396090000 114.1345180000,22.3395800000 114.1347030000,22.3395770000 114.1349700000,22.3395980000 114.1352250000,22.3396790000 114.1355590000,22.3399070000 114.1357080000,22.3401070000 114.1357530000,22.3401750000 114.1358220000,22.3402850000 114.1358820000,22.3404430000 114.1359330000,22.3406490000 114.1359720000,22.3408310000 114.1359860000,22.3410670000 114.1359830000,22.3412080000 114.1359630000,22.3415400000 114.1359420000,22.3418150000 114.1358100000,22.3422550000 114.1356770000,22.3427460000 114.1356580000,22.3429590000 114.1356780000,22.3431040000 114.1357210000,22.3432280000 114.1357870000,22.3433600000 114.1358680000,22.3434630000 114.1358940000,22.3434910000 114.1359630000,22.3435530000 114.1360650000,22.3436160000 114.1362090000,22.3436790000 114.1363960000,22.3437530000 114.1365110000,22.3437860000 114.1366240000,22.3437950000 114.1368240000,22.3438050000 114.1370050000,22.3438070000 114.1372550000,22.3437800000 114.1375140000,22.3436930000 114.1376980000,22.3436010000 114.1378470000,22.3434710000 114.1379750000,22.3432680000 114.1380300000,22.3430850000 114.1381600000,22.3421020000 114.1381650000,22.3420640000 114.1382310000,22.3414940000 114.1382710000,22.3412900000 114.1382820000,22.3412500000 114.1383080000,22.3411790000 114.1384250000,22.3409750000 114.1386480000,22.3406520000 114.1387080000,22.3405660000 114.1388120000,22.3404000000 114.1388710000,22.3403040000 114.1389570000,22.3401860000 114.1390360000,22.3401140000 114.1391490000,22.3400580000 114.1399170000,22.3397260000 114.1401090000,22.3396260000 114.1402450000,22.3395130000 114.1403250000,22.3393640000 114.1404580000,22.3390190000 114.1408050000,22.3380760000 114.1408390000,22.3379880000 114.1408640000,22.3379160000 114.1409300000,22.3378270000 114.1409440000,22.3377930000 114.1409310000,22.3377150000 114.1409010000,22.3376130000 114.1408770000,22.3374900000 114.1408860000,22.3374250000 114.1409210000,22.3373490000 114.1409620000,22.3372880000 114.1410210000,22.3372320000 114.1410890000,22.3371810000 114.1412120000,22.3371380000 114.1412750000,22.3371210000 114.1415820000,22.3370530000 114.1421030000,22.3368700000 114.1426010000,22.3367550000 114.1439120000,22.3365630000 114.1441880000,22.3365240000 114.1447300000,22.3364650000 114.1450430000,22.3364620000 114.1451050000,22.3360540000 114.1451360000,22.3359430000 114.1451980000,22.3358250000 114.1453370000,22.3356290000 114.1457070000,22.3351600000 114.1459790000,22.3350530000 114.1463150000,22.3349940000 114.1466460000,22.3350160000 114.1469250000,22.3351050000 114.1473310000,22.3352570000 114.1476630000,22.3353720000 114.1485150000,22.3357120000 114.1489030000,22.3358110000 114.1492220000,22.3358310000 114.1494430000,22.3358100000 114.1496530000,22.3357170000 114.1498680000,22.3356140000 114.1500600000,22.3354660000 114.1502430000,22.3352520000 114.1503770000,22.3349950000 114.1504790000,22.3347380000 114.1506920000,22.3340660000 114.1507470000,22.3339400000 114.1508500000,22.3337510000 114.1509450000,22.3336090000 114.1510780000,22.3334550000 114.1512190000,22.3333310000 114.1514050000,22.3331810000 114.1541270000,22.3310600000 114.1542890000,22.3309340000 114.1550420000,22.3303630000 114.1554890000,22.3300180000 114.1560960000,22.3295250000 114.1573520000,22.3284960000 114.1589980000,22.3272940000 114.1601390000,22.3264560000 114.1614770000,22.3254450000 114.1623080000,22.3248870000 114.1627130000,22.3246850000 114.1633070000,22.3242150000 114.1640870000,22.3236090000 114.1641760000,22.3235640000 114.1642540000,22.3235380000 114.1643480000,22.3235130000 114.1644310000,22.3234980000 114.1645090000,22.3234870000 114.1646030000,22.3234820000 114.1647170000,22.3234810000 114.1648380000,22.3234850000 114.1649080000,22.3234930000 114.1649650000,22.3234990000 114.1650780000,22.3235110000 114.1651900000,22.3235220000 114.1662180000,22.3236610000 114.1664240000,22.3236890000 114.1666640000,22.3237210000 114.1667030000,22.3237280000 114.1668070000,22.3237480000 114.1674350000,22.3238500000 114.1677470000,22.3239100000 114.1677570000,22.3239140000 114.1677650000,22.3239220000 114.1677730000,22.3239410000 114.1676660000,22.3244340000 114.1675860000,22.3248400000 114.1675520000,22.3250140000 114.1674920000,22.3252620000 114.1673690000,22.3253670000 114.1670390000,22.3256400000 114.1662300000,22.3262570000 114.1661590000,22.3263110000 114.1662820000,22.3264500000 114.1665330000,22.3264680000 114.1668190000,22.3264830000 114.1671710000,22.3264900000 114.1672630000,22.3264910000 114.1677360000,22.3264840000 114.1679190000,22.3264760000 114.1680340000,22.3264700000 114.1681600000,22.3264670000 114.1685300000,22.3264850000 114.1689430000,22.3265140000 114.1690770000,22.3265210000 114.1696440000,22.3265440000 114.1702260000,22.3265680000 114.1707490000,22.3265830000 114.1708670000,22.3265950000 114.1709660000,22.3266100000 114.1710420000,22.3266270000 114.1711650000,22.3266650000 114.1714920000,22.3266810000 114.1716200000,22.3266820000 114.1719090000,22.3266940000 114.1721420000,22.3267120000 114.1723840000,22.3267240000 114.1728090000,22.3267450000 114.1733200000,22.3267700000 114.1735590000,22.3267820000 114.1737510000,22.3267920000 114.1737710000,22.3267930000 114.1739310000,22.3267940000 114.1740870000,22.3267860000 114.1741660000,22.3267760000 114.1742480000,22.3267540000 114.1743020000,22.3267350000 114.1744290000,22.3266860000 114.1744820000,22.3266650000 114.1745570000,22.3266370000 114.1746170000,22.3266260000 114.1746660000,22.3266250000 114.1747130000,22.3266330000 114.1747620000,22.3266540000 114.1749860000,22.3267560000 114.1750480000,22.3267840000 114.1751180000,22.3268090000 114.1751750000,22.3268250000 114.1752510000,22.3268420000 114.1753710000,22.3268570000 114.1760350000,22.3268730000 114.1761280000,22.3268760000 114.1762610000,22.3268820000 114.1765210000,22.3268860000 114.1779350000,22.3269460000 114.1781160000,22.3269600000 114.1786620000,22.3269880000 114.1788460000,22.3269960000 114.1793460000,22.3270040000 114.1797540000,22.3270190000 114.1803110000,22.3270390000 114.1819170000,22.3271320000 114.1830150000,22.3271820000 114.1832680000,22.3271940000 114.1838000000,22.3272120000 114.1842530000,22.3271910000 114.1843630000,22.3271890000 114.1851820000,22.3271880000 114.1861450000,22.3272160000 114.1864190000,22.3272430000 114.1868420000,22.3273000000 114.1869560000,22.3273160000 114.1875800000,22.3274200000 114.1886920000,22.3276150000 114.1893160000,22.3277110000 114.1895950000,22.3277450000 114.1901680000,22.3277980000 114.1903740000,22.3278240000 114.1905450000,22.3278440000 114.1907430000,22.3278810000 114.1909710000,22.3279310000 114.1912050000,22.3280080000 114.1913230000,22.3280690000 114.1914290000,22.3281260000 114.1915660000,22.3282340000 114.1916820000,22.3283070000 114.1917770000,22.3283810000 114.1924420000,22.3289760000 114.1927210000,22.3292170000 114.1942640000,22.3306620000 114.1943650000,22.3307640000 114.1953040000,22.3317040000 114.1954070000,22.3318070000 114.1955660000,22.3319550000 114.1957650000,22.3321480000 114.1962140000,22.3325700000 114.1962650000,22.3326140000 114.1964650000,22.3327710000 114.1966590000,22.3329120000 114.1968410000,22.3330360000 114.1970970000,22.3332020000 114.1972750000,22.3333190000 114.1974910000,22.3334590000 114.1976980000,22.3335680000 114.1980250000,22.3337230000 114.1982400000,22.3338040000 114.1982780000,22.3338170000 114.1987280000,22.3339780000 114.1994520000,22.3342210000 114.2002410000,22.3345180000 114.2013210000,22.3349070000 114.2019180000,22.3351290000 114.2020820000,22.3351900000 114.2023430000,22.3352710000 114.2025260000,22.3353210000 114.2027310000,22.3353610000 114.2029400000,22.3353860000 114.2031080000,22.3353950000 114.2035390000,22.3353970000 114.2036210000,22.3353840000 114.2038040000,22.3353560000 114.2040400000,22.3352880000 114.2042320000,22.3352210000 114.2043530000,22.3351790000 114.2045500000,22.3350910000 114.2048960000,22.3349090000 114.2052180000,22.3346500000 114.2053450000,22.3345490000 114.2054220000,22.3344870000 114.2061180000,22.3339320000 114.2065950000,22.3336270000 114.2068040000,22.3334720000 114.2069650000,22.3333800000 114.2071440000,22.3333550000 114.2072900000,22.3333710000 114.2073810000,22.3334110000 114.2074780000,22.3334750000 114.2075510000,22.3335320000 114.2076070000,22.3335840000 114.2076970000,22.3337310000 114.2078880000,22.3339550000 114.2079200000,22.3340250000 114.2079600000,22.3341140000 114.2079770000,22.3341670000 114.2079950000,22.3342350000 114.2080000000,22.3343360000 114.2080050000,22.3344320000 114.2080940000,22.3345080000 114.2081480000,22.3345410000 114.2082220000,22.3345670000 114.2083250000,22.3345640000 114.2083730000,22.3345240000 114.2085880000,22.3343370000 114.2087820000,22.3342060000 114.2088890000,22.3341860000 114.2090470000,22.3341770000 114.2091850000,22.3341950000 114.2097100000,22.3343080000 114.2100200000,22.3343750000 114.2103280000,22.3344290000 114.2105890000,22.3344770000 114.2106820000,22.3344920000 114.2107950000,22.3345010000 114.2108930000,22.3345010000 114.2109970000,22.3344950000 114.2111800000,22.3344770000 114.2112270000,22.3344670000 114.2113680000,22.3344280000 114.2115080000,22.3343830000 114.2116950000,22.3342990000 114.2118800000,22.3342110000 114.2119940000,22.3341360000 114.2120590000,22.3340880000 114.2122120000,22.3339300000 114.2124120000,22.3336750000 114.2125230000,22.3335320000 114.2129630000,22.3329650000 114.2130680000,22.3328510000 114.2131870000,22.3327420000 114.2133110000,22.3326480000 114.2134220000,22.3325730000 114.2135330000,22.3325040000 114.2136590000,22.3324520000 114.2139280000,22.3323870000 114.2142170000,22.3323670000 114.2143550000,22.3323650000 114.2143700000,22.3323650000 114.2144640000,22.3323660000 114.2147240000,22.3323950000 114.2151660000,22.3324730000 114.2152890000,22.3324980000 114.2154820000,22.3325380000 114.2155590000,22.3325540000 114.2156310000,22.3325690000 114.2167370000,22.3327960000 114.2181240000,22.3330660000 114.2189210000,22.3332130000 114.2191710000,22.3332340000 114.2195260000,22.3332410000 114.2200800000,22.3332060000 114.2208490000,22.3331670000 114.2212450000,22.3331360000 114.2218240000,22.3330910000 114.2221700000,22.3330020000 114.2225170000,22.3328750000 114.2229490000,22.3326910000 114.2234430000,22.3324800000 114.2236620000,22.3323730000 114.2238080000,22.3322960000 114.2239620000,22.3321890000 114.2240980000,22.3320320000 114.2242050000,22.3319050000 114.2243370000,22.3317310000 114.2244420000,22.3315550000 114.2244620000,22.3314240000 114.2244830000,22.3312490000 114.2244250000,22.3310040000 114.2243610000,22.3308330000 114.2242150000,22.3306190000 114.2240790000,22.3304860000 114.2239260000,22.3303450000 114.2237780000,22.3302270000 114.2235450000,22.3300880000 114.2233260000,22.3299930000 114.2231490000,22.3299420000 114.2229940000,22.3299340000 114.2227920000,22.3299390000 114.2226140000,22.3299870000 114.2224650000,22.3300330000 114.2223740000,22.3300820000 114.2222440000,22.3301630000 114.2218420000,22.3304850000 114.2217680000,22.3305540000 114.2217370000,22.3305840000 114.2216640000,22.3306530000 114.2215590000,22.3307500000 114.2212120000,22.3310880000 114.2210820000,22.3312400000 114.2209600000,22.3313960000 114.2208620000,22.3315710000 114.2208140000,22.3317070000 114.2207960000,22.3318200000 114.2207880000,22.3319760000 114.2207920000,22.3321070000 114.2208370000,22.3323030000 114.2209360000,22.3325160000 114.2210080000,22.3326200000 114.2210910000,22.3327250000 114.2215030000,22.3332240000 114.2217030000,22.3334480000 114.2218890000,22.3336270000 114.2221500000,22.3337860000 114.2224170000,22.3338850000 114.2225060000,22.3339140000 114.2225950000,22.3339380000 114.2230070000,22.3340480000 114.2232650000,22.3340850000 114.2235720000,22.3341120000 114.2237320000,22.3341200000 114.2239230000,22.3341080000 114.2244280000,22.3340450000 114.2248760000,22.3339830000 114.2251990000,22.3339530000 114.2255180000,22.3339600000 114.2258310000,22.3339950000 114.2261870000,22.3340720000 114.2269760000,22.3342990000 114.2270220000,22.3343130000 114.2271940000,22.3343620000 114.2275800000,22.3343990000 114.2277470000,22.3343940000 114.2279800000,22.3343310000 114.2281680000,22.3343170000 114.2282410000,22.3343160000 114.2283690000,22.3343150000 114.2284500000,22.3343150000 114.2284530000,22.3342300000 114.2284540000,22.3341210000 114.2284540000,22.3340140000 114.2284540000,22.3338440000 114.2284800000,22.3332480000 114.2284870000,22.3331530000 114.2284950000,22.3330350000 114.2285000000,22.3329620000 114.2285120000,22.3328830000 114.2285340000,22.3328050000 114.2286050000,22.3326160000 114.2286340000,22.3325500000 114.2287830000,22.3322450000 114.2288220000,22.3320840000 114.2288330000,22.3319350000 114.2288130000,22.3317430000 114.2287430000,22.3315340000 114.2286340000,22.3313310000 114.2284860000,22.3310780000 114.2283550000,22.3307960000 114.2283140000,22.3305680000 114.2283290000,22.3303180000 114.2283820000,22.3301090000 114.2285020000,22.3298750000 114.2286400000,22.3296970000 114.2288500000,22.3295340000 114.2291520000,22.3293420000 114.2294380000,22.3291070000 114.2296130000,22.3289310000 114.2297780000,22.3287650000 114.2300110000,22.3284680000 114.2302550000,22.3280910000 114.2303090000,22.3280050000 114.2303590000,22.3279260000 114.2304250000,22.3278300000 114.2304630000,22.3278230000 114.2304980000,22.3278070000 114.2305270000,22.3277850000 114.2305500000,22.3277560000 114.2305640000,22.3277230000 114.2305690000,22.3276880000 114.2305650000,22.3276530000 114.2305520000,22.3276190000 114.2305300000,22.3275900000 114.2304990000,22.3275650000 114.2304620000,22.3275480000 114.2304210000,22.3275410000 114.2303800000,22.3275440000 114.2303460000,22.3275550000 114.2303150000,22.3275730000 114.2302890000,22.3275970000 114.2302710000,22.3276260000 114.2301430000,22.3275660000 114.2299760000,22.3275160000 114.2297870000,22.3275070000 114.2296120000,22.3275330000 114.2294570000,22.3276080000 114.2293390000,22.3277000000 114.2293040000,22.3277270000 114.2291920000,22.3278810000 114.2291360000,22.3280130000 114.2290500000,22.3282720000 114.2290030000,22.3283650000 114.2289520000,22.3284400000 114.2288720000,22.3285060000 114.2287930000,22.3285560000 114.2286530000,22.3286190000 114.2286040000,22.3286280000 114.2284390000,22.3286470000 114.2282890000,22.3286370000 114.2281590000,22.3285900000 114.2280240000,22.3285220000 114.2279310000,22.3284460000 114.2278780000,22.3283700000 114.2278010000,22.3282140000 114.2276110000,22.3275720000 114.2276000000,22.3274740000 114.2275930000,22.3273820000 114.2276240000,22.3272630000 114.2277080000,22.3271500000 114.2278060000,22.3270690000 114.2279200000,22.3269910000 114.2291470000,22.3265050000 114.2292400000,22.3264660000 114.2296340000,22.3263050000 114.2297640000,22.3262720000 114.2299150000,22.3262530000 114.2303000000,22.3262320000 114.2304040000,22.3262260000 114.2305110000,22.3262210000 114.2306270000,22.3262110000 114.2306260000,22.3264260000 114.2306260000,22.3264970000 114.2306240000,22.3265780000 114.2306160000,22.3266940000 114.2306030000,22.3268420000 114.2305790000,22.3270050000 114.2305320000,22.3272120000 114.2304890000,22.3273540000 114.2304390000,22.3274620000 114.2303800000,22.3275440000 114.2303460000,22.3275550000 114.2303150000,22.3275730000 114.2302890000,22.3275970000 114.2302710000,22.3276260000 114.2302600000,22.3276550000 114.2302570000,22.3276860000 114.2302600000,22.3277170000 114.2302710000,22.3277470000 114.2302420000,22.3278890000 114.2302140000,22.3279590000 114.2301760000,22.3280530000 114.2299290000,22.3284380000 114.2297020000,22.3287150000 114.2295560000,22.3288640000 114.2293630000,22.3290490000 114.2290920000,22.3292730000 114.2287980000,22.3294690000 114.2285680000,22.3296520000 114.2284090000,22.3298450000 114.2283050000,22.3300530000 114.2282300000,22.3303180000 114.2282190000,22.3305410000 114.2282530000,22.3307740000 114.2283090000,22.3309540000 114.2284160000,22.3311480000 114.2285600000,22.3313930000 114.2286600000,22.3315800000 114.2287060000,22.3317330000 114.2287250000,22.3319060000 114.2287110000,22.3320800000 114.2286870000,22.3322160000 114.2285360000,22.3325110000 114.2284950000,22.3325930000 114.2284280000,22.3327850000 114.2284030000,22.3328660000 114.2283900000,22.3329500000 114.2283820000,22.3330320000 114.2283750000,22.3331470000 114.2283700000,22.3332420000 114.2283540000,22.3338460000 114.2282710000,22.3340660000 114.2282490000,22.3340920000 114.2282230000,22.3341220000 114.2282060000,22.3341420000 114.2281110000,22.3341910000 114.2279590000,22.3342370000 114.2275110000,22.3342370000 114.2274470000,22.3342370000 114.2271050000,22.3341910000 114.2270870000,22.3341890000 114.2270610000,22.3341860000 114.2267500000,22.3341470000 114.2264970000,22.3340990000 114.2261810000,22.3340170000 114.2258640000,22.3339440000 114.2255850000,22.3339040000 114.2252950000,22.3338920000 114.2251090000,22.3338990000 114.2247170000,22.3339380000 114.2242410000,22.3340170000 114.2238690000,22.3340590000 114.2235930000,22.3340530000 114.2232610000,22.3340190000 114.2229770000,22.3339710000 114.2226100000,22.3338770000 114.2224520000,22.3338360000 114.2221840000,22.3337360000 114.2219360000,22.3335690000 114.2217580000,22.3334040000 114.2216170000,22.3332500000 114.2213610000,22.3329370000 114.2211370000,22.3326760000 114.2209770000,22.3324580000 114.2208960000,22.3322690000 114.2208500000,22.3321020000 114.2208370000,22.3319800000 114.2208460000,22.3318300000 114.2209020000,22.3316060000 114.2209410000,22.3315310000 114.2210710000,22.3313460000 114.2212380000,22.3311820000 114.2215470000,22.3309170000 114.2216330000,22.3308280000 114.2217320000,22.3307250000 114.2218070000,22.3306490000 114.2219400000,22.3305150000 114.2222850000,22.3302320000 114.2224220000,22.3301440000 114.2226070000,22.3300630000 114.2228360000,22.3300110000 114.2230490000,22.3300050000 114.2232600000,22.3300430000 114.2234760000,22.3301290000 114.2236400000,22.3302130000 114.2238250000,22.3303460000 114.2241550000,22.3306300000 114.2242980000,22.3308500000 114.2243630000,22.3310200000 114.2244130000,22.3311850000 114.2244070000,22.3313290000 114.2243780000,22.3315300000 114.2242760000,22.3317330000 114.2241630000,22.3318650000 114.2240100000,22.3320320000 114.2238420000,22.3321670000 114.2235240000,22.3323380000 114.2228700000,22.3326070000 114.2224240000,22.3327990000 114.2221310000,22.3329060000 114.2218260000,22.3329810000 114.2214880000,22.3330050000 114.2208810000,22.3330400000 114.2200380000,22.3330780000 114.2190940000,22.3331200000 114.2188320000,22.3330820000 114.2181580000,22.3329530000 114.2167870000,22.3326760000 114.2152590000,22.3323660000 114.2151760000,22.3323480000 114.2150510000,22.3323210000 114.2144810000,22.3322210000 114.2141700000,22.3322200000 114.2139600000,22.3322330000 114.2137320000,22.3322770000 114.2135290000,22.3323540000 114.2133600000,22.3324510000 114.2131140000,22.3326350000 114.2130300000,22.3327060000 114.2129460000,22.3328000000 114.2128680000,22.3328880000 114.2125410000,22.3333170000 114.2124270000,22.3334660000 114.2122090000,22.3337590000 114.2120330000,22.3339410000 114.2119130000,22.3340510000 114.2116710000,22.3341680000 114.2115170000,22.3342360000 114.2113300000,22.3343000000 114.2111070000,22.3343500000 114.2110110000,22.3343640000 114.2107130000,22.3343670000 114.2104910000,22.3343270000 114.2099080000,22.3342220000 114.2092610000,22.3340930000 114.2090730000,22.3340630000 114.2087050000,22.3340720000 114.2084300000,22.3340280000 114.2082740000,22.3339900000 114.2081870000,22.3339690000 114.2079890000,22.3338530000 114.2077990000,22.3336740000 114.2076360000,22.3334700000 114.2075430000,22.3333220000 114.2073700000,22.3330350000 114.2072680000,22.3329500000 114.2071930000,22.3329140000 114.2071180000,22.3329010000 114.2070390000,22.3329050000 114.2069500000,22.3329370000 114.2068110000,22.3330260000 114.2064190000,22.3333920000 114.2053490000,22.3341590000 114.2052060000,22.3342850000 114.2045840000,22.3348090000 114.2042460000,22.3349920000 114.2039030000,22.3351250000 114.2034800000,22.3352090000 114.2032930000,22.3352270000 114.2030850000,22.3352320000 114.2028130000,22.3352210000 114.2024320000,22.3351620000 114.2020590000,22.3350440000 114.2019210000,22.3350010000 114.2011550000,22.3347070000 114.2005450000,22.3344730000 114.1994180000,22.3340620000 114.1984820000,22.3337320000 114.1979190000,22.3334470000 114.1976990000,22.3332830000 114.1975410000,22.3331540000 114.1974150000,22.3329960000 114.1972680000,22.3327310000 114.1971620000,22.3325330000 114.1970110000,22.3323150000 114.1969550000,22.3322550000 114.1969030000,22.3322100000 114.1967850000,22.3321220000 114.1967220000,22.3320860000 114.1965880000,22.3320380000 114.1961480000,22.3319140000 114.1959780000,22.3318570000 114.1957720000,22.3317670000 114.1956350000,22.3316390000 114.1948560000,22.3308760000 114.1947900000,22.3308060000 114.1944840000,22.3303150000 114.1939700000,22.3297920000 114.1935610000,22.3296050000 114.1925230000,22.3285870000 114.1920260000,22.3281690000 114.1919170000,22.3280850000 114.1915810000,22.3277990000 114.1914380000,22.3277000000 114.1913130000,22.3276320000 114.1911340000,22.3275500000 114.1907380000,22.3273520000 114.1906410000,22.3272830000 114.1905770000,22.3272410000 114.1905080000,22.3271910000 114.1903560000,22.3270590000 114.1903230000,22.3270310000 114.1901800000,22.3268900000 114.1900980000,22.3267800000 114.1900380000,22.3266850000 114.1899760000,22.3266650000 114.1898910000,22.3266690000 114.1898130000,22.3266890000 114.1897460000,22.3267240000 114.1896950000,22.3267580000 114.1896370000,22.3268000000 114.1896130000,22.3268230000 114.1894790000,22.3269440000 114.1894210000,22.3270160000 114.1893870000,22.3270740000 114.1893600000,22.3271470000 114.1893380000,22.3272180000 114.1893230000,22.3272980000 114.1893210000,22.3273710000 114.1892920000,22.3274070000 114.1892620000,22.3274370000 114.1892280000,22.3274640000 114.1891900000,22.3274840000 114.1891430000,22.3274990000 114.1890880000,22.3275050000 114.1890250000,22.3275040000 114.1885190000,22.3274110000 114.1884330000,22.3273950000 114.1882450000,22.3273740000 114.1880900000,22.3273640000 114.1879590000,22.3273600000 114.1877540000,22.3273530000 114.1872480000,22.3272520000 114.1870360000,22.3272170000 114.1869490000,22.3272030000 114.1867790000,22.3271740000 114.1867670000,22.3271720000 114.1866000000,22.3271440000 114.1862860000,22.3270920000 114.1862110000,22.3270790000 114.1852680000,22.3269230000 114.1852250000,22.3269160000 114.1850990000,22.3268940000 114.1843480000,22.3267610000 114.1836220000,22.3266250000 114.1832570000,22.3265730000 114.1829540000,22.3265490000 114.1819850000,22.3263800000 114.1803680000,22.3260620000 114.1800760000,22.3260290000 114.1797600000,22.3259970000 114.1795780000,22.3259680000 114.1787560000,22.3258210000 114.1784170000,22.3257660000 114.1781890000,22.3257220000 114.1778510000,22.3256580000 114.1768910000,22.3254810000 114.1763360000,22.3253800000 114.1759010000,22.3253010000 114.1751860000,22.3251760000 114.1750510000,22.3251520000 114.1746570000,22.3251030000 114.1745230000,22.3250750000 114.1744110000,22.3250360000 114.1739820000,22.3249500000 114.1739200000,22.3249380000 114.1734480000,22.3248300000 114.1730220000,22.3247690000 114.1728840000,22.3247270000 114.1723910000,22.3246370000 114.1722350000,22.3246140000 114.1720890000,22.3245840000 114.1718070000,22.3245270000 114.1708790000,22.3243940000 114.1707430000,22.3243750000 114.1706650000,22.3243650000 114.1701530000,22.3242900000 114.1697100000,22.3242120000 114.1695710000,22.3241870000 114.1690280000,22.3240940000 114.1688550000,22.3240630000 114.1684740000,22.3239910000 114.1683460000,22.3239670000 114.1679650000,22.3238830000 114.1677870000,22.3238450000 114.1677490000,22.3238360000 114.1670660000,22.3237060000 114.1669950000,22.3236930000 114.1668960000,22.3236720000 114.1667670000,22.3236460000 114.1662370000,22.3235550000 114.1653690000,22.3234280000 114.1652200000,22.3234060000 114.1651030000,22.3233880000 114.1649770000,22.3233790000 114.1645310000,22.3233500000 114.1643030000,22.3233490000 114.1642970000,22.3232460000 114.1646230000,22.3229880000 114.1646420000,22.3229710000 114.1643310000,22.3226050000 114.1639850000,22.3221770000 114.1637770000,22.3219370000 114.1636100000,22.3217450000 114.1634460000,22.3218780000 114.1633860000,22.3218960000 114.1631470000,22.3220910000 114.1626940000,22.3224480000 114.1622410000,22.3227940000 114.1621940000,22.3228190000 114.1621340000,22.3228260000 114.1620620000,22.3228290000 114.1620200000,22.3228370000 114.1620200000,22.3228050000 114.1620250000,22.3226960000 114.1620330000,22.3225010000 114.1620380000,22.3223120000 114.1620490000,22.3219260000 114.1620520000,22.3217900000 114.1620560000,22.3214270000 114.1620760000,22.3208140000 114.1620900000,22.3204730000 114.1621010000,22.3203090000 114.1621080000,22.3202540000 114.1621150000,22.3202040000 114.1621240000,22.3201540000 114.1621760000,22.3198670000 114.1622260000,22.3196920000 114.1623170000,22.3195060000 114.1623440000,22.3194760000 114.1626080000,22.3191840000 114.1628020000,22.3189860000 114.1629290000,22.3188950000 114.1630570000,22.3188130000 114.1631350000,22.3187180000 114.1631750000,22.3186640000 114.1632100000,22.3186170000 114.1632020000,22.3185020000 114.1631930000,22.3184440000 114.1631690000,22.3183810000 114.1631370000,22.3183250000 114.1630390000,22.3182800000 114.1628980000,22.3182330000 114.1628230000,22.3182170000 114.1626950000,22.3182020000 114.1626330000,22.3182060000 114.1625710000,22.3182240000 114.1624870000,22.3182610000 114.1624180000,22.3182960000 114.1623470000,22.3183510000 114.1622480000,22.3184730000 114.1621440000,22.3187090000 114.1620900000,22.3190850000 114.1620240000,22.3196880000 114.1620040000,22.3198440000 114.1619800000,22.3201600000 114.1619910000,22.3203170000 114.1619130000,22.3244900000 114.1618640000,22.3246770000 114.1618080000,22.3248410000 114.1617500000,22.3249580000 114.1616410000,22.3251020000 114.1615390000,22.3252100000 114.1614110000,22.3253180000 114.1586260000,22.3274180000 114.1568560000,22.3287710000 114.1553720000,22.3299960000 114.1550930000,22.3302140000 114.1513430000,22.3331210000 114.1511790000,22.3332470000 114.1510160000,22.3333830000 114.1508720000,22.3335510000 114.1507740000,22.3337030000 114.1506700000,22.3338670000 114.1506030000,22.3340420000 114.1503820000,22.3347000000 114.1503020000,22.3349100000 114.1502370000,22.3350450000 114.1501730000,22.3351690000 114.1501430000,22.3352120000 114.1500940000,22.3352770000 114.1500090000,22.3353740000 114.1499270000,22.3354610000 114.1498270000,22.3355390000 114.1496490000,22.3356300000 114.1495010000,22.3356950000 114.1493930000,22.3357300000 114.1492750000,22.3357500000 114.1490860000,22.3357520000 114.1489210000,22.3357460000 114.1487700000,22.3357110000 114.1485580000,22.3356410000 114.1477080000,22.3352790000 114.1471170000,22.3350360000 114.1465850000,22.3348620000 114.1463020000,22.3348410000 114.1460570000,22.3348890000 114.1458530000,22.3349470000 114.1455580000,22.3350970000 114.1454200000,22.3352280000 114.1450040000,22.3356630000 114.1448690000,22.3357710000 114.1447130000,22.3358680000 114.1445860000,22.3359260000 114.1442550000,22.3360460000 114.1434850000,22.3363000000 114.1429970000,22.3364090000 114.1424270000,22.3365020000 114.1422030000,22.3365370000 114.1420170000,22.3365530000 114.1418910000,22.3365620000 114.1417120000,22.3365530000 114.1414680000,22.3365370000 114.1413260000,22.3365390000 114.1412600000,22.3365370000 114.1411600000,22.3365420000 114.1410430000,22.3365590000 114.1409290000,22.3365820000 114.1408760000,22.3365930000 114.1407560000,22.3366960000 114.1407070000,22.3367480000 114.1406730000,22.3367890000 114.1406340000,22.3368370000 114.1406300000,22.3369310000 114.1406500000,22.3370370000 114.1407270000,22.3373450000 114.1407490000,22.3374300000 114.1408090000,22.3376000000 114.1408620000,22.3377790000 114.1408640000,22.3379160000 114.1408390000,22.3379880000 114.1408050000,22.3380760000 114.1404580000,22.3390190000 114.1403250000,22.3393640000 114.1402450000,22.3395130000 114.1401090000,22.3396260000 114.1399170000,22.3397260000 114.1391490000,22.3400580000 114.1390360000,22.3401140000 114.1389570000,22.3401860000 114.1388710000,22.3403040000 114.1388120000,22.3404000000 114.1387080000,22.3405660000 114.1386480000,22.3406520000 114.1384250000,22.3409750000 114.1383080000,22.3411790000 114.1382820000,22.3412500000 114.1382710000,22.3412900000 114.1382310000,22.3414940000 114.1381650000,22.3420640000 114.1380300000,22.3430850000 114.1379750000,22.3432680000 114.1378470000,22.3434710000 114.1376980000,22.3436010000 114.1375140000,22.3436930000 114.1372550000,22.3437800000 114.1370050000,22.3438070000 114.1368240000,22.3438050000 114.1366240000,22.3437950000 114.1365110000,22.3437860000 114.1363960000,22.3437530000 114.1362090000,22.3436790000 114.1360650000,22.3436160000 114.1359630000,22.3435530000 114.1358940000,22.3434910000 114.1358680000,22.3434630000 114.1357870000,22.3433600000 114.1357210000,22.3432280000 114.1356780000,22.3431040000 114.1356580000,22.3429590000 114.1356770000,22.3427460000 114.1358100000,22.3422550000 114.1359420000,22.3418150000 114.1359630000,22.3415400000 114.1359830000,22.3412080000 114.1359860000,22.3410670000 114.1359720000,22.3408310000 114.1359330000,22.3406490000 114.1358820000,22.3404430000 114.1358220000,22.3402850000 114.1357530000,22.3401750000 114.1357080000,22.3401070000 114.1355590000,22.3399070000 114.1352250000,22.3396790000 114.1349700000,22.3395980000 114.1347030000,22.3395770000 114.1345180000,22.3395800000 114.1343490000,22.3396090000 114.1341510000,22.3396760000 114.1339700000,22.3397820000 114.1337840000,22.3399490000 114.1334990000,22.3402780000 114.1330120000,22.3408640000 114.1329970000,22.3408820000 114.1327490000,22.3411650000 114.1326400000,22.3413460000 114.1325440000,22.3415620000 114.1324480000,22.3419520000 114.1322850000,22.3424940000 114.1322210000,22.3426600000 114.1321560000,22.3427960000 114.1321050000,22.3428680000 114.1320230000,22.3429740000 114.1319650000,22.3430460000 114.1319240000,22.3430940000 114.1317930000,22.3432080000 114.1316090000,22.3433420000 114.1313320000,22.3434970000 114.1310710000,22.3436210000 114.1292150000,22.3444530000 114.1281270000,22.3449530000 114.1275790000,22.3451890000 114.1272990000,22.3453190000 114.1272520000,22.3453510000 114.1270720000,22.3454730000 114.1269160000,22.3456220000 114.1267560000,22.3458300000 114.1266680000,22.3460270000 114.1266330000,22.3461520000 114.1266080000,22.3463380000 114.1266050000,22.3465080000 114.1266150000,22.3466550000 114.1266380000,22.3468240000 114.1266770000,22.3471440000 114.1266910000,22.3472600000 114.1267600000,22.3479400000 114.1268540000,22.3486310000 114.1269300000,22.3491900000 114.1269600000,22.3494100000 114.1270210000,22.3499480000 114.1271310000,22.3508790000 114.1271740000,22.3510640000 114.1272480000,22.3513080000 114.1273030000,22.3514270000 114.1274560000,22.3517330000 114.1274790000,22.3517790000 114.1275110000,22.3518410000 114.1275680000,22.3519570000 114.1282940000,22.3535000000 114.1283610000,22.3536370000 114.1283990000,22.3537390000 114.1284250000,22.3538590000 114.1284340000,22.3539720000 114.1284260000,22.3540990000 114.1284060000,22.3542180000 114.1283760000,22.3543170000 114.1283370000,22.3544140000 114.1282880000,22.3545080000 114.1282270000,22.3546000000 114.1281530000,22.3546920000 114.1280600000,22.3547780000 114.1279400000,22.3548660000 114.1278000000,22.3549440000 114.1276430000,22.3550130000 114.1273640000,22.3551060000 114.1272450000,22.3551300000 114.1271490000,22.3551400000 114.1270450000,22.3551410000 114.1269610000,22.3551330000 114.1268300000,22.3551180000 114.1266910000,22.3550920000 114.1266320000,22.3550870000 114.1265640000,22.3550920000 114.1265040000,22.3551110000 114.1264010000,22.3551430000 114.1263320000,22.3551570000 114.1262720000,22.3551560000 114.1262080000,22.3551370000 114.1261340000,22.3551020000 114.1260670000,22.3550650000 114.1259840000,22.3550090000 114.1259770000,22.3549300000 114.1259900000,22.3548670000 114.1260210000,22.3548330000 114.1260750000,22.3548000000 114.1261340000,22.3547960000 114.1261880000,22.3548140000 114.1262440000,22.3548330000 114.1267300000,22.3548790000 114.1267970000,22.3548960000 114.1268640000,22.3549230000 114.1269340000,22.3549510000 114.1270060000,22.3549780000 114.1270760000,22.3549930000 114.1271660000,22.3549890000 114.1272430000,22.3549620000 114.1272870000,22.3549110000 114.1273000000,22.3548570000 114.1273020000,22.3548470000 114.1272850000,22.3547850000 114.1272370000,22.3547320000 114.1271820000,22.3546920000 114.1271520000,22.3546770000 114.1270990000,22.3546510000 114.1270570000,22.3546370000 114.1269370000,22.3546270000</coordinates>
                </LineString>
                <ExtendedData>
                    <Data name="duration">
                        <value>01:31:49</value>
                    </Data>
                    <Data name="length">
                        <value>35980.031420086896</value>
                    </Data>
                </ExtendedData>
            </Placemark>
        </Document>
    </Document>
</kml>