<?xml version="1.0" encoding="UTF-8"?>
<kml xmlns="http://www.opengis.net/kml/2.2" xmlns:gx="http://www.google.com/kml/ext/2.2">
    <Document>
        <name>Route</name>
        <Folder>
            <name>Route Request</name>
            <Placemark>
                <address>Pik Kwai House, Tai Wo Hau Road, Kwai Chung Estate, Kwai Chung, Kwai Tsing District, Hong Kong, PRC</address>
                <Point>
                    <coordinates>114.1276784569,22.3673399686</coordinates>
                </Point>
                <ExtendedData>
                    <Data name="building">
                        <value>Pik Kwai House</value>
                    </Data>
                    <Data name="town">
                        <value>Kwai Chung</value>
                    </Data>
                    <Data name="residential">
                        <value>Kwai Chung Estate</value>
                    </Data>
                    <Data name="road">
                        <value>Tai Wo Hau Road</value>
                    </Data>
                    <Data name="county">
                        <value>Kwai Tsing District</value>
                    </Data>
                    <Data name="country">
                        <value>PRC</value>
                    </Data>
                    <Data name="country_code">
                        <value>cn</value>
                    </Data>
                </ExtendedData>
            </Placemark>
            <Placemark>
                <address>Kwai Kin House, Hing Fong Road, Kau Wa Keng, Ha Kwai Chung, Kwai Chung, Kwai Tsing District, Hong Kong, 852, PRC</address>
                <Point>
                    <coordinates>114.1289622242,22.3598694346</coordinates>
                </Point>
                <ExtendedData>
                    <Data name="building">
                        <value>Kwai Kin House</value>
                    </Data>
                    <Data name="neighbourhood">
                        <value>Kau Wa Keng</value>
                    </Data>
                    <Data name="town">
                        <value>Kwai Chung</value>
                    </Data>
                    <Data name="road">
                        <value>Hing Fong Road</value>
                    </Data>
                    <Data name="suburb">
                        <value>Ha Kwai Chung</value>
                    </Data>
                    <Data name="county">
                        <value>Kwai Tsing District</value>
                    </Data>
                    <Data name="country">
                        <value>PRC</value>
                    </Data>
                    <Data name="postcode">
                        <value>852</value>
                    </Data>
                    <Data name="country_code">
                        <value>cn</value>
                    </Data>
                </ExtendedData>
            </Placemark>
            <Placemark>
                <address>Tower 6, Hoi Fai Road, Tai Kok Tsui, Yau Tsim Mong District, Hong Kong, KIL 3348, PRC</address>
                <Point>
                    <coordinates>114.1568949498,22.3183610788</coordinates>
                </Point>
                <ExtendedData>
                    <Data name="building">
                        <value>Tower 6</value>
                    </Data>
                    <Data name="road">
                        <value>Hoi Fai Road</value>
                    </Data>
                    <Data name="suburb">
                        <value>Tai Kok Tsui</value>
                    </Data>
                    <Data name="county">
                        <value>Yau Tsim Mong District</value>
                    </Data>
                    <Data name="country">
                        <value>PRC</value>
                    </Data>
                    <Data name="postcode">
                        <value>KIL 3348</value>
                    </Data>
                    <Data name="country_code">
                        <value>cn</value>
                    </Data>
                </ExtendedData>
            </Placemark>
            <Placemark>
                <address>Wellcome, Tong Mi Road, Mong Kok, Yau Tsim Mong District, Hong Kong, KIL 3348, PRC</address>
                <Point>
                    <coordinates>114.1665459021,22.3205183229</coordinates>
                </Point>
                <ExtendedData>
                    <Data name="routingVisited">
                        <value>false</value>
                    </Data>
                    <Data name="supermarket">
                        <value>Wellcome</value>
                    </Data>
                    <Data name="road">
                        <value>Tong Mi Road</value>
                    </Data>
                    <Data name="suburb">
                        <value>Mong Kok</value>
                    </Data>
                    <Data name="county">
                        <value>Yau Tsim Mong District</value>
                    </Data>
                    <Data name="country">
                        <value>PRC</value>
                    </Data>
                    <Data name="postcode">
                        <value>KIL 3348</value>
                    </Data>
                    <Data name="country_code">
                        <value>cn</value>
                    </Data>
                </ExtendedData>
            </Placemark>
            <Placemark>
                <address>K11, 18, Hanoi Road, Tsim Sha Tsui, Yau Tsim Mong District, Hong Kong, 00000, PRC</address>
                <Point>
                    <coordinates>114.1742510710,22.2972358962</coordinates>
                </Point>
                <ExtendedData>
                    <Data name="building">
                        <value>K11</value>
                    </Data>
                    <Data name="house_number">
                        <value>18</value>
                    </Data>
                    <Data name="road">
                        <value>Hanoi Road</value>
                    </Data>
                    <Data name="suburb">
                        <value>Tsim Sha Tsui</value>
                    </Data>
                    <Data name="county">
                        <value>Yau Tsim Mong District</value>
                    </Data>
                    <Data name="country">
                        <value>PRC</value>
                    </Data>
                    <Data name="postcode">
                        <value>00000</value>
                    </Data>
                    <Data name="country_code">
                        <value>cn</value>
                    </Data>
                </ExtendedData>
            </Placemark>
            <Placemark>
                <address>Centenary Garden, Chatham Road South, Tsim Sha Tsui, Yau Tsim Mong District, Hong Kong, 00000, PRC</address>
                <Point>
                    <coordinates>114.1758055038,22.2997093744</coordinates>
                </Point>
                <ExtendedData>
                    <Data name="garden">
                        <value>Centenary Garden</value>
                    </Data>
                    <Data name="road">
                        <value>Chatham Road South</value>
                    </Data>
                    <Data name="suburb">
                        <value>Tsim Sha Tsui</value>
                    </Data>
                    <Data name="county">
                        <value>Yau Tsim Mong District</value>
                    </Data>
                    <Data name="country">
                        <value>PRC</value>
                    </Data>
                    <Data name="postcode">
                        <value>00000</value>
                    </Data>
                    <Data name="country_code">
                        <value>cn</value>
                    </Data>
                </ExtendedData>
            </Placemark>
            <Placemark>
                <address>Concordia Plaza, Hong Tat Path, Tsim Sha Tsui, Yau Tsim Mong District, Hong Kong, 00000, PRC</address>
                <Point>
                    <coordinates>114.1785034776,22.3018803299</coordinates>
                </Point>
                <ExtendedData>
                    <Data name="parking">
                        <value>Concordia Plaza</value>
                    </Data>
                    <Data name="road">
                        <value>Hong Tat Path</value>
                    </Data>
                    <Data name="suburb">
                        <value>Tsim Sha Tsui</value>
                    </Data>
                    <Data name="county">
                        <value>Yau Tsim Mong District</value>
                    </Data>
                    <Data name="country">
                        <value>PRC</value>
                    </Data>
                    <Data name="postcode">
                        <value>00000</value>
                    </Data>
                    <Data name="country_code">
                        <value>cn</value>
                    </Data>
                </ExtendedData>
            </Placemark>
            <Placemark>
                <address>Tsim Sha Tsui East Waterfront Podium Garden, Salisbury Road, Tsim Sha Tsui, Yau Tsim Mong District, Hong Kong, 00000, PRC</address>
                <Point>
                    <coordinates>114.1755101595,22.2964035671</coordinates>
                </Point>
                <ExtendedData>
                    <Data name="building">
                        <value>Tsim Sha Tsui East Waterfront Podium Garden</value>
                    </Data>
                    <Data name="road">
                        <value>Salisbury Road</value>
                    </Data>
                    <Data name="suburb">
                        <value>Tsim Sha Tsui</value>
                    </Data>
                    <Data name="county">
                        <value>Yau Tsim Mong District</value>
                    </Data>
                    <Data name="country">
                        <value>PRC</value>
                    </Data>
                    <Data name="postcode">
                        <value>00000</value>
                    </Data>
                    <Data name="country_code">
                        <value>cn</value>
                    </Data>
                </ExtendedData>
            </Placemark>
            <Placemark>
                <address>7-Eleven, 11-12, Tak Hing Street, Tsim Sha Tsui, Yau Tsim Mong District, Hong Kong, 00000, PRC</address>
                <Point>
                    <coordinates>114.1716125590,22.3048727756</coordinates>
                </Point>
                <ExtendedData>
                    <Data name="house_number">
                        <value>11-12</value>
                    </Data>
                    <Data name="convenience">
                        <value>7-Eleven</value>
                    </Data>
                    <Data name="road">
                        <value>Tak Hing Street</value>
                    </Data>
                    <Data name="suburb">
                        <value>Tsim Sha Tsui</value>
                    </Data>
                    <Data name="county">
                        <value>Yau Tsim Mong District</value>
                    </Data>
                    <Data name="country">
                        <value>PRC</value>
                    </Data>
                    <Data name="postcode">
                        <value>00000</value>
                    </Data>
                    <Data name="country_code">
                        <value>cn</value>
                    </Data>
                </ExtendedData>
            </Placemark>
            <Placemark>
                <address>Tsui Wah Restaurant, Portland Street, Mong Kok, Yau Tsim Mong District, Hong Kong, KIL 3348, PRC</address>
                <Point>
                    <coordinates>114.1693325855,22.3188812173</coordinates>
                </Point>
                <ExtendedData>
                    <Data name="road">
                        <value>Portland Street</value>
                    </Data>
                    <Data name="restaurant">
                        <value>Tsui Wah Restaurant</value>
                    </Data>
                    <Data name="suburb">
                        <value>Mong Kok</value>
                    </Data>
                    <Data name="county">
                        <value>Yau Tsim Mong District</value>
                    </Data>
                    <Data name="country">
                        <value>PRC</value>
                    </Data>
                    <Data name="postcode">
                        <value>KIL 3348</value>
                    </Data>
                    <Data name="country_code">
                        <value>cn</value>
                    </Data>
                </ExtendedData>
            </Placemark>
            <Placemark>
                <address>Hoi Fai Road, Tai Kok Tsui, Yau Tsim Mong District, Hong Kong, KIL 3348, PRC</address>
                <Point>
                    <coordinates>114.1566644682,22.3206655652</coordinates>
                </Point>
                <ExtendedData>
                    <Data name="road">
                        <value>Hoi Fai Road</value>
                    </Data>
                    <Data name="suburb">
                        <value>Tai Kok Tsui</value>
                    </Data>
                    <Data name="county">
                        <value>Yau Tsim Mong District</value>
                    </Data>
                    <Data name="country">
                        <value>PRC</value>
                    </Data>
                    <Data name="postcode">
                        <value>KIL 3348</value>
                    </Data>
                    <Data name="country_code">
                        <value>cn</value>
                    </Data>
                </ExtendedData>
            </Placemark>
            <Placemark>
                <address>Buddhist Sin Tak College, 5, Hing Shing Road, Ha Kwai Chung, Kwai Chung, Kwai Tsing District, Hong Kong, 852, PRC</address>
                <Point>
                    <coordinates>114.1295530629,22.3615633226</coordinates>
                </Point>
                <ExtendedData>
                    <Data name="town">
                        <value>Kwai Chung</value>
                    </Data>
                    <Data name="house_number">
                        <value>5</value>
                    </Data>
                    <Data name="road">
                        <value>Hing Shing Road</value>
                    </Data>
                    <Data name="suburb">
                        <value>Ha Kwai Chung</value>
                    </Data>
                    <Data name="county">
                        <value>Kwai Tsing District</value>
                    </Data>
                    <Data name="school">
                        <value>Buddhist Sin Tak College</value>
                    </Data>
                    <Data name="country">
                        <value>PRC</value>
                    </Data>
                    <Data name="postcode">
                        <value>852</value>
                    </Data>
                    <Data name="country_code">
                        <value>cn</value>
                    </Data>
                </ExtendedData>
            </Placemark>
            <Placemark>
                <address>Pik Kwai House, Tai Wo Hau Road, Kwai Chung Estate, Kwai Chung, Kwai Tsing District, Hong Kong, PRC</address>
                <Point>
                    <coordinates>114.1276710711,22.3673331384</coordinates>
                </Point>
                <ExtendedData>
                    <Data name="building">
                        <value>Pik Kwai House</value>
                    </Data>
                    <Data name="town">
                        <value>Kwai Chung</value>
                    </Data>
                    <Data name="residential">
                        <value>Kwai Chung Estate</value>
                    </Data>
                    <Data name="road">
                        <value>Tai Wo Hau Road</value>
                    </Data>
                    <Data name="county">
                        <value>Kwai Tsing District</value>
                    </Data>
                    <Data name="country">
                        <value>PRC</value>
                    </Data>
                    <Data name="country_code">
                        <value>cn</value>
                    </Data>
                </ExtendedData>
            </Placemark>
        </Folder>
        <Document>
            <name>28.3 km; 01:19 h (OSRM)</name>
            <Placemark>
                <name>Route</name>
                <LineString>
                    <coordinates>114.1279930000,22.3667420000 114.1284030000,22.3665910000 114.1285850000,22.3665680000 114.1287010000,22.3665750000 114.1288050000,22.3666170000 114.1288920000,22.3666690000 114.1289470000,22.3667330000 114.1289860000,22.3668150000 114.1289990000,22.3669020000 114.1290010000,22.3673140000 114.1290030000,22.3681840000 114.1292600000,22.3681830000 114.1293490000,22.3681830000 114.1295290000,22.3681830000 114.1297080000,22.3681830000 114.1299050000,22.3681840000 114.1303730000,22.3681850000 114.1304670000,22.3681850000 114.1305360000,22.3681790000 114.1306110000,22.3681640000 114.1306950000,22.3681340000 114.1307820000,22.3680950000 114.1308480000,22.3680330000 114.1309300000,22.3679470000 114.1309900000,22.3678620000 114.1310590000,22.3677520000 114.1311680000,22.3675830000 114.1312640000,22.3674540000 114.1315860000,22.3669840000 114.1316030000,22.3668380000 114.1315720000,22.3667130000 114.1315150000,22.3666170000 114.1314480000,22.3665460000 114.1313660000,22.3664750000 114.1312060000,22.3663380000 114.1310110000,22.3661700000 114.1308980000,22.3660740000 114.1308430000,22.3660260000 114.1307890000,22.3659480000 114.1307640000,22.3658830000 114.1307630000,22.3658160000 114.1308440000,22.3655780000 114.1308880000,22.3654460000 114.1310030000,22.3651870000 114.1310170000,22.3650540000 114.1310050000,22.3649320000 114.1309490000,22.3647300000 114.1308650000,22.3644270000 114.1307880000,22.3640970000 114.1305500000,22.3630350000 114.1305300000,22.3628950000 114.1305310000,22.3628030000 114.1305430000,22.3627220000 114.1306140000,22.3625320000 114.1306720000,22.3624300000 114.1308160000,22.3623370000 114.1309110000,22.3622430000 114.1309680000,22.3621930000 114.1308880000,22.3621160000 114.1306920000,22.3619450000 114.1305750000,22.3618300000 114.1303250000,22.3615740000 114.1302650000,22.3615170000 114.1301320000,22.3613930000 114.1297230000,22.3610250000 114.1292820000,22.3606180000 114.1288210000,22.3601640000 114.1287230000,22.3600590000 114.1287150000,22.3600500000 114.1286440000,22.3599670000 114.1283930000,22.3597300000 114.1279710000,22.3593010000 114.1279230000,22.3592510000 114.1276810000,22.3590020000 114.1275720000,22.3588970000 114.1274910000,22.3588150000 114.1274230000,22.3587540000 114.1273390000,22.3586850000 114.1272560000,22.3586300000 114.1271830000,22.3585860000 114.1271140000,22.3585390000 114.1268920000,22.3583870000 114.1266770000,22.3582350000 114.1263880000,22.3580260000 114.1260570000,22.3577820000 114.1257110000,22.3575330000 114.1254440000,22.3573270000 114.1251150000,22.3570700000 114.1250090000,22.3569810000 114.1248730000,22.3568650000 114.1241130000,22.3562560000 114.1238750000,22.3560230000 114.1237280000,22.3558470000 114.1236920000,22.3557780000 114.1236800000,22.3556380000 114.1236970000,22.3555380000 114.1237620000,22.3553490000 114.1238310000,22.3552770000 114.1242920000,22.3548440000 114.1248000000,22.3543690000 114.1251680000,22.3539510000 114.1258860000,22.3532540000 114.1260530000,22.3530360000 114.1261830000,22.3527950000 114.1262590000,22.3526270000 114.1262840000,22.3524340000 114.1262980000,22.3522310000 114.1262760000,22.3520290000 114.1262420000,22.3518280000 114.1261320000,22.3514400000 114.1258160000,22.3505290000 114.1257640000,22.3503510000 114.1257020000,22.3500920000 114.1255930000,22.3495410000 114.1255350000,22.3492900000 114.1254530000,22.3485590000 114.1253360000,22.3478500000 114.1252440000,22.3471030000 114.1252490000,22.3468340000 114.1252450000,22.3466180000 114.1252690000,22.3463930000 114.1253010000,22.3461290000 114.1253570000,22.3458820000 114.1254670000,22.3455570000 114.1255670000,22.3453830000 114.1256660000,22.3452260000 114.1258230000,22.3450210000 114.1261710000,22.3446220000 114.1265330000,22.3442760000 114.1269240000,22.3440300000 114.1272820000,22.3438400000 114.1276470000,22.3436840000 114.1281270000,22.3434690000 114.1283770000,22.3433460000 114.1286560000,22.3432050000 114.1289710000,22.3430190000 114.1291870000,22.3428750000 114.1294020000,22.3427320000 114.1295670000,22.3426040000 114.1297310000,22.3424680000 114.1298900000,22.3423150000 114.1301370000,22.3420730000 114.1303630000,22.3417950000 114.1306770000,22.3413100000 114.1308700000,22.3409770000 114.1310190000,22.3406270000 114.1311910000,22.3402610000 114.1313730000,22.3398820000 114.1316710000,22.3392680000 114.1318380000,22.3388800000 114.1320290000,22.3384520000 114.1321900000,22.3381270000 114.1323810000,22.3378010000 114.1326340000,22.3374160000 114.1328490000,22.3371110000 114.1330810000,22.3368060000 114.1333360000,22.3365110000 114.1336020000,22.3362270000 114.1338900000,22.3359480000 114.1339530000,22.3358950000 114.1348240000,22.3351680000 114.1351300000,22.3349590000 114.1354160000,22.3347750000 114.1357060000,22.3346060000 114.1360310000,22.3344250000 114.1363260000,22.3342690000 114.1366140000,22.3341310000 114.1369430000,22.3339880000 114.1373830000,22.3338160000 114.1378110000,22.3336600000 114.1386610000,22.3333430000 114.1391380000,22.3332380000 114.1395480000,22.3331000000 114.1399080000,22.3329850000 114.1403610000,22.3328440000 114.1407700000,22.3327200000 114.1410000000,22.3326530000 114.1415590000,22.3324200000 114.1418070000,22.3322940000 114.1420600000,22.3321900000 114.1421160000,22.3321670000 114.1424750000,22.3320140000 114.1441310000,22.3314010000 114.1444610000,22.3312770000 114.1445550000,22.3312370000 114.1452410000,22.3309720000 114.1463780000,22.3305080000 114.1469190000,22.3303140000 114.1473950000,22.3301400000 114.1478570000,22.3299480000 114.1485500000,22.3297040000 114.1490120000,22.3295020000 114.1497570000,22.3291370000 114.1501000000,22.3289550000 114.1503960000,22.3287860000 114.1507410000,22.3285760000 114.1520550000,22.3277150000 114.1526590000,22.3272860000 114.1531820000,22.3269000000 114.1537150000,22.3264900000 114.1539540000,22.3262910000 114.1542690000,22.3260350000 114.1546560000,22.3256860000 114.1549900000,22.3253550000 114.1552240000,22.3251220000 114.1557270000,22.3246280000 114.1560650000,22.3242700000 114.1564410000,22.3238480000 114.1567550000,22.3235280000 114.1572650000,22.3229790000 114.1574240000,22.3228010000 114.1580160000,22.3220670000 114.1581700000,22.3219480000 114.1582400000,22.3219440000 114.1583060000,22.3219270000 114.1583690000,22.3218940000 114.1584140000,22.3218570000 114.1584550000,22.3217980000 114.1584850000,22.3217300000 114.1584900000,22.3216640000 114.1584870000,22.3215990000 114.1584730000,22.3215400000 114.1584450000,22.3214840000 114.1583710000,22.3213830000 114.1582890000,22.3213040000 114.1581330000,22.3212140000 114.1579870000,22.3211600000 114.1578660000,22.3211430000 114.1577810000,22.3211420000 114.1576940000,22.3211500000 114.1575210000,22.3211460000 114.1574230000,22.3211420000 114.1573210000,22.3211060000 114.1572090000,22.3210340000 114.1570940000,22.3209220000 114.1569690000,22.3207790000 114.1568580000,22.3206500000 114.1567450000,22.3204290000 114.1566950000,22.3203330000 114.1566500000,22.3201960000 114.1566010000,22.3200100000 114.1565880000,22.3199060000 114.1565880000,22.3198580000 114.1565930000,22.3197090000 114.1566130000,22.3195830000 114.1566440000,22.3194280000 114.1567160000,22.3191610000 114.1567510000,22.3190020000 114.1567850000,22.3187920000 114.1568000000,22.3185440000 114.1568050000,22.3183590000 114.1568060000,22.3183010000 114.1568030000,22.3181780000 114.1567980000,22.3177600000 114.1567990000,22.3177020000 114.1568050000,22.3176480000 114.1568180000,22.3175930000 114.1568430000,22.3175270000 114.1568900000,22.3175100000 114.1569300000,22.3174830000 114.1570690000,22.3174430000 114.1571390000,22.3174440000 114.1579100000,22.3174380000 114.1594300000,22.3174310000 114.1598620000,22.3174440000 114.1602980000,22.3175160000 114.1605780000,22.3176170000 114.1609100000,22.3177170000 114.1615040000,22.3179400000 114.1618970000,22.3180710000 114.1619690000,22.3181200000 114.1620620000,22.3181970000 114.1621140000,22.3182630000 114.1621480000,22.3183170000 114.1622480000,22.3184730000 114.1622920000,22.3186690000 114.1623770000,22.3187990000 114.1624400000,22.3188680000 114.1625340000,22.3189300000 114.1626160000,22.3189680000 114.1627050000,22.3189880000 114.1628020000,22.3189860000 114.1629290000,22.3188950000 114.1630570000,22.3188130000 114.1632460000,22.3187440000 114.1633650000,22.3187070000 114.1634970000,22.3186990000 114.1638430000,22.3187120000 114.1644770000,22.3187360000 114.1654370000,22.3187610000 114.1652330000,22.3200960000 114.1656100000,22.3201580000 114.1656670000,22.3201650000 114.1657600000,22.3201830000 114.1659130000,22.3202250000 114.1659830000,22.3202630000 114.1660560000,22.3202780000 114.1661590000,22.3202940000 114.1661980000,22.3203840000 114.1664630000,22.3204340000 114.1665600000,22.3204510000 114.1668600000,22.3205050000 114.1672110000,22.3205680000 114.1672540000,22.3205760000 114.1673590000,22.3205500000 114.1676930000,22.3206100000 114.1677170000,22.3206140000 114.1677990000,22.3206270000 114.1679060000,22.3206450000 114.1680890000,22.3206760000 114.1683060000,22.3207120000 114.1683450000,22.3207180000 114.1684170000,22.3207310000 114.1687180000,22.3207760000 114.1688560000,22.3207970000 114.1688960000,22.3208030000 114.1690010000,22.3208190000 114.1691120000,22.3208340000 114.1691710000,22.3205520000 114.1692280000,22.3202610000 114.1693170000,22.3198470000 114.1693890000,22.3194980000 114.1694180000,22.3193590000 114.1694290000,22.3193120000 114.1694680000,22.3191260000 114.1694830000,22.3190570000 114.1695380000,22.3187820000 114.1696280000,22.3183450000 114.1696600000,22.3181870000 114.1697870000,22.3175640000 114.1697990000,22.3175010000 114.1699580000,22.3167360000 114.1699920000,22.3165510000 114.1702310000,22.3154080000 114.1702360000,22.3153740000 114.1703270000,22.3149370000 114.1703380000,22.3148880000 114.1703990000,22.3145700000 114.1704180000,22.3144740000 114.1704350000,22.3143890000 114.1704660000,22.3142320000 114.1705300000,22.3139010000 114.1706980000,22.3130740000 114.1707170000,22.3129770000 114.1708160000,22.3125020000 114.1708200000,22.3124780000 114.1709270000,22.3119420000 114.1711040000,22.3109890000 114.1711200000,22.3109100000 114.1712230000,22.3103170000 114.1712290000,22.3102590000 114.1712300000,22.3101390000 114.1712520000,22.3096750000 114.1713030000,22.3091940000 114.1713190000,22.3090320000 114.1713840000,22.3084990000 114.1713890000,22.3084130000 114.1714240000,22.3078700000 114.1714890000,22.3070430000 114.1715310000,22.3065590000 114.1715670000,22.3061210000 114.1715830000,22.3059440000 114.1716850000,22.3053910000 114.1717000000,22.3052850000 114.1717760000,22.3044440000 114.1718060000,22.3039660000 114.1718370000,22.3032770000 114.1718410000,22.3032030000 114.1718860000,22.3026370000 114.1719080000,22.3023190000 114.1719430000,22.3017180000 114.1719850000,22.3012240000 114.1720470000,22.3004490000 114.1720530000,22.3003670000 114.1720570000,22.3003170000 114.1720580000,22.3002990000 114.1721260000,22.2995330000 114.1721640000,22.2987190000 114.1721880000,22.2981630000 114.1722150000,22.2976370000 114.1722680000,22.2969500000 114.1723240000,22.2969580000 114.1730230000,22.2970530000 114.1735670000,22.2971150000 114.1736840000,22.2971260000 114.1742570000,22.2971900000 114.1746080000,22.2972290000 114.1754110000,22.2973090000 114.1754600000,22.2973040000 114.1755700000,22.2978340000 114.1756140000,22.2981310000 114.1757140000,22.2987740000 114.1758130000,22.2993340000 114.1758250000,22.2994040000 114.1758570000,22.2995700000 114.1758910000,22.2996880000 114.1759340000,22.2998330000 114.1761220000,22.3005240000 114.1762230000,22.3008190000 114.1762780000,22.3009730000 114.1763470000,22.3011610000 114.1764810000,22.3015570000 114.1766200000,22.3019540000 114.1768430000,22.3025400000 114.1770660000,22.3027870000 114.1771560000,22.3029200000 114.1771740000,22.3029460000 114.1771940000,22.3029630000 114.1772150000,22.3029750000 114.1772340000,22.3029800000 114.1772520000,22.3029840000 114.1772570000,22.3029820000 114.1774100000,22.3029110000 114.1775410000,22.3028530000 114.1780480000,22.3026310000 114.1782860000,22.3025270000 114.1783480000,22.3024990000 114.1787780000,22.3024050000 114.1790960000,22.3023920000 114.1792600000,22.3024010000 114.1794330000,22.3023700000 114.1795310000,22.3023190000 114.1796130000,22.3022060000 114.1796260000,22.3020890000 114.1796270000,22.3019600000 114.1796260000,22.3018770000 114.1796180000,22.3018160000 114.1796020000,22.3017520000 114.1795820000,22.3016900000 114.1795620000,22.3016500000 114.1795310000,22.3016150000 114.1788710000,22.3010340000 114.1785670000,22.3013470000 114.1785020000,22.3014140000 114.1783990000,22.3015200000 114.1782890000,22.3016340000 114.1782530000,22.3016710000 114.1780660000,22.3018620000 114.1780400000,22.3019210000 114.1780350000,22.3019900000 114.1780540000,22.3020830000 114.1781840000,22.3024580000 114.1776360000,22.3026960000 114.1775250000,22.3027470000 114.1773340000,22.3027550000 114.1773010000,22.3027430000 114.1772480000,22.3027230000 114.1770240000,22.3026010000 114.1769630000,22.3024940000 114.1767330000,22.3019130000 114.1765970000,22.3015200000 114.1764460000,22.3010740000 114.1763410000,22.3007860000 114.1762520000,22.3005230000 114.1759960000,22.2996640000 114.1759630000,22.2995540000 114.1759280000,22.2993880000 114.1759280000,22.2993850000 114.1758680000,22.2989950000 114.1758190000,22.2986710000 114.1757330000,22.2981050000 114.1755820000,22.2972560000 114.1755250000,22.2970180000 114.1754230000,22.2964170000 114.1753120000,22.2957560000 114.1752980000,22.2954300000 114.1753220000,22.2951710000 114.1752130000,22.2951200000 114.1751020000,22.2950780000 114.1747670000,22.2949600000 114.1746590000,22.2949150000 114.1742890000,22.2948160000 114.1739770000,22.2947460000 114.1736740000,22.2946890000 114.1735480000,22.2946750000 114.1733350000,22.2946720000 114.1732200000,22.2946690000 114.1730150000,22.2946670000 114.1725320000,22.2946820000 114.1724890000,22.2946800000 114.1724500000,22.2946810000 114.1724240000,22.2946860000 114.1723990000,22.2946980000 114.1723690000,22.2947120000 114.1723390000,22.2947420000 114.1723210000,22.2947800000 114.1722640000,22.2956150000 114.1722390000,22.2959540000 114.1722000000,22.2964850000 114.1721280000,22.2975570000 114.1720930000,22.2981590000 114.1720810000,22.2983370000 114.1720360000,22.2989300000 114.1720070000,22.2995080000 114.1719480000,22.3003360000 114.1718720000,22.3013390000 114.1718390000,22.3016970000 114.1717980000,22.3022690000 114.1717450000,22.3031930000 114.1717400000,22.3032700000 114.1717190000,22.3039150000 114.1716840000,22.3043850000 114.1716430000,22.3048750000 114.1716090000,22.3052720000 114.1716010000,22.3053650000 114.1715100000,22.3059380000 114.1714700000,22.3065360000 114.1714610000,22.3066150000 114.1714140000,22.3070950000 114.1713450000,22.3077040000 114.1712780000,22.3084120000 114.1712710000,22.3084970000 114.1711910000,22.3092030000 114.1711830000,22.3092980000 114.1711430000,22.3096650000 114.1711010000,22.3102040000 114.1710930000,22.3102910000 114.1710200000,22.3109160000 114.1708380000,22.3119030000 114.1706170000,22.3129600000 114.1705980000,22.3130570000 114.1704300000,22.3138660000 114.1704060000,22.3139780000 114.1703870000,22.3140810000 114.1702980000,22.3145550000 114.1702850000,22.3146150000 114.1702220000,22.3149060000 114.1701980000,22.3150140000 114.1701270000,22.3153490000 114.1701180000,22.3153940000 114.1699740000,22.3160650000 114.1699470000,22.3162200000 114.1698800000,22.3165370000 114.1698450000,22.3167110000 114.1697770000,22.3170440000 114.1696740000,22.3175180000 114.1696010000,22.3179070000 114.1695180000,22.3183090000 114.1694820000,22.3184960000 114.1694000000,22.3188930000 114.1693710000,22.3190360000 114.1693570000,22.3191060000 114.1693200000,22.3192930000 114.1692430000,22.3192790000 114.1688070000,22.3192060000 114.1687900000,22.3192030000 114.1687160000,22.3191900000 114.1685700000,22.3191660000 114.1683980000,22.3191380000 114.1681920000,22.3191040000 114.1681320000,22.3190940000 114.1680470000,22.3190780000 114.1678150000,22.3190330000 114.1677620000,22.3190220000 114.1676800000,22.3190060000 114.1675610000,22.3189840000 114.1671990000,22.3189160000 114.1669890000,22.3188770000 114.1667760000,22.3188370000 114.1665450000,22.3187940000 114.1662740000,22.3187430000 114.1662220000,22.3187350000 114.1660490000,22.3187110000 114.1654280000,22.3186910000 114.1649530000,22.3186700000 114.1646960000,22.3186640000 114.1644420000,22.3186520000 114.1642870000,22.3186450000 114.1641230000,22.3186310000 114.1639600000,22.3186090000 114.1637720000,22.3185630000 114.1636480000,22.3185360000 114.1635180000,22.3184940000 114.1634290000,22.3184570000 114.1633210000,22.3184080000 114.1631370000,22.3183250000 114.1630390000,22.3182800000 114.1629510000,22.3182060000 114.1627870000,22.3181390000 114.1624900000,22.3180800000 114.1622920000,22.3180820000 114.1621530000,22.3180450000 114.1609450000,22.3176380000 114.1606000000,22.3175150000 114.1603830000,22.3174330000 114.1598760000,22.3173460000 114.1594480000,22.3173210000 114.1581900000,22.3173120000 114.1571410000,22.3173320000 114.1570750000,22.3173130000 114.1569920000,22.3172830000 114.1569780000,22.3172490000 114.1569570000,22.3172180000 114.1569100000,22.3171760000 114.1568510000,22.3171490000 114.1567850000,22.3171400000 114.1567210000,22.3171500000 114.1566540000,22.3171840000 114.1566040000,22.3172370000 114.1565780000,22.3173040000 114.1565790000,22.3173740000 114.1566060000,22.3174400000 114.1566570000,22.3174920000 114.1566890000,22.3175850000 114.1567020000,22.3176500000 114.1567060000,22.3177460000 114.1567260000,22.3181890000 114.1567260000,22.3185230000 114.1567110000,22.3187810000 114.1566780000,22.3189670000 114.1566330000,22.3191450000 114.1565680000,22.3193640000 114.1565240000,22.3195560000 114.1565050000,22.3197080000 114.1565050000,22.3198570000 114.1565090000,22.3199400000 114.1565180000,22.3200140000 114.1565550000,22.3201970000 114.1565780000,22.3202850000 114.1566100000,22.3203630000 114.1566570000,22.3204570000 114.1567530000,22.3206220000 114.1567900000,22.3206860000 114.1568780000,22.3208170000 114.1569980000,22.3209680000 114.1571230000,22.3210860000 114.1572140000,22.3211860000 114.1572770000,22.3212460000 114.1573510000,22.3213450000 114.1574530000,22.3214810000 114.1573690000,22.3216580000 114.1570450000,22.3221300000 114.1563390000,22.3231640000 114.1560050000,22.3236420000 114.1555090000,22.3242060000 114.1551290000,22.3246030000 114.1547720000,22.3249070000 114.1545800000,22.3250590000 114.1543480000,22.3252160000 114.1534280000,22.3259320000 114.1530330000,22.3262600000 114.1527240000,22.3265660000 114.1522310000,22.3270260000 114.1519620000,22.3272490000 114.1514500000,22.3276420000 114.1499690000,22.3284660000 114.1495610000,22.3286740000 114.1493470000,22.3287790000 114.1489480000,22.3289760000 114.1486200000,22.3291300000 114.1483290000,22.3292640000 114.1476850000,22.3295300000 114.1471200000,22.3297390000 114.1466370000,22.3299120000 114.1463240000,22.3300390000 114.1453670000,22.3304340000 114.1449050000,22.3306190000 114.1440650000,22.3309030000 114.1422410000,22.3316350000 114.1419400000,22.3317580000 114.1416450000,22.3318640000 114.1415840000,22.3318910000 114.1409270000,22.3321250000 114.1406060000,22.3322590000 114.1401940000,22.3324580000 114.1396920000,22.3327020000 114.1394230000,22.3328760000 114.1377460000,22.3335210000 114.1373110000,22.3336840000 114.1368720000,22.3338520000 114.1365480000,22.3339950000 114.1362520000,22.3341350000 114.1359540000,22.3342920000 114.1356170000,22.3344760000 114.1353230000,22.3346500000 114.1350280000,22.3348370000 114.1347180000,22.3350490000 114.1345310000,22.3351930000 114.1342810000,22.3353920000 114.1340320000,22.3356040000 114.1337680000,22.3358450000 114.1334860000,22.3361240000 114.1332150000,22.3364170000 114.1329590000,22.3367180000 114.1327150000,22.3370340000 114.1325000000,22.3373380000 114.1322550000,22.3377220000 114.1320490000,22.3380880000 114.1318960000,22.3384030000 114.1317130000,22.3388030000 114.1313580000,22.3395440000 114.1310790000,22.3401370000 114.1310470000,22.3402070000 114.1308880000,22.3405740000 114.1307190000,22.3409130000 114.1305230000,22.3412450000 114.1302290000,22.3416960000 114.1300150000,22.3419730000 114.1297900000,22.3422150000 114.1296350000,22.3423570000 114.1294840000,22.3425000000 114.1293200000,22.3426370000 114.1291160000,22.3427790000 114.1288580000,22.3429320000 114.1285800000,22.3430670000 114.1282990000,22.3432080000 114.1280790000,22.3433120000 114.1275730000,22.3435180000 114.1272420000,22.3436620000 114.1269010000,22.3438300000 114.1265480000,22.3440350000 114.1261970000,22.3442850000 114.1259420000,22.3444920000 114.1256990000,22.3447270000 114.1254680000,22.3449730000 114.1252700000,22.3452380000 114.1250080000,22.3455860000 114.1248240000,22.3458870000 114.1246410000,22.3461660000 114.1245230000,22.3464250000 114.1243880000,22.3467480000 114.1242650000,22.3471450000 114.1241560000,22.3476070000 114.1240880000,22.3480250000 114.1240530000,22.3484440000 114.1240590000,22.3488230000 114.1240890000,22.3491480000 114.1241480000,22.3494100000 114.1242260000,22.3496420000 114.1244160000,22.3500540000 114.1244470000,22.3501050000 114.1252100000,22.3513680000 114.1254090000,22.3517590000 114.1254910000,22.3519890000 114.1255360000,22.3521800000 114.1255560000,22.3524030000 114.1255390000,22.3526970000 114.1254870000,22.3529710000 114.1253600000,22.3532810000 114.1252470000,22.3535140000 114.1250530000,22.3537240000 114.1247390000,22.3540430000 114.1243860000,22.3543590000 114.1237480000,22.3549120000 114.1236200000,22.3550060000 114.1234860000,22.3551850000 114.1234000000,22.3552960000 114.1233640000,22.3553980000 114.1233530000,22.3554480000 114.1233540000,22.3555010000 114.1233540000,22.3555540000 114.1233600000,22.3556070000 114.1233680000,22.3556830000 114.1233860000,22.3557350000 114.1234520000,22.3558920000 114.1238900000,22.3562940000 114.1247980000,22.3570040000 114.1249110000,22.3570860000 114.1250200000,22.3571670000 114.1253320000,22.3573770000 114.1258590000,22.3577530000 114.1269090000,22.3585210000 114.1271480000,22.3586920000 114.1274160000,22.3588830000 114.1275020000,22.3589610000 114.1278500000,22.3593000000 114.1280060000,22.3594840000 114.1281170000,22.3595810000 114.1283320000,22.3597780000 114.1285970000,22.3600150000 114.1286720000,22.3601020000 114.1287720000,22.3602050000 114.1292400000,22.3606600000 114.1293780000,22.3607880000 114.1295440000,22.3609410000 114.1295780000,22.3609710000 114.1296430000,22.3610330000 114.1298840000,22.3612550000 114.1300750000,22.3614310000 114.1302140000,22.3615630000 114.1302730000,22.3616210000 114.1305270000,22.3618740000 114.1308280000,22.3621690000 114.1307360000,22.3622860000 114.1306720000,22.3624300000 114.1306140000,22.3625320000 114.1305430000,22.3627220000 114.1305310000,22.3628030000 114.1305300000,22.3628950000 114.1305500000,22.3630350000 114.1307880000,22.3640970000 114.1308650000,22.3644270000 114.1309490000,22.3647300000 114.1310050000,22.3649320000 114.1310170000,22.3650540000 114.1310030000,22.3651870000 114.1308880000,22.3654460000 114.1308440000,22.3655780000 114.1307630000,22.3658160000 114.1307640000,22.3658830000 114.1307890000,22.3659480000 114.1308430000,22.3660260000 114.1308980000,22.3660740000 114.1310110000,22.3661700000 114.1312060000,22.3663380000 114.1313660000,22.3664750000 114.1314480000,22.3665460000 114.1315150000,22.3666170000 114.1315720000,22.3667130000 114.1316030000,22.3668380000 114.1315860000,22.3669840000 114.1312640000,22.3674540000 114.1311680000,22.3675830000 114.1310590000,22.3677520000 114.1309900000,22.3678620000 114.1309300000,22.3679470000 114.1308480000,22.3680330000 114.1307820000,22.3680950000 114.1306950000,22.3681340000 114.1306110000,22.3681640000 114.1305360000,22.3681790000 114.1304670000,22.3681850000 114.1303730000,22.3681850000 114.1299050000,22.3681840000 114.1297080000,22.3681830000 114.1295290000,22.3681830000 114.1293490000,22.3681830000 114.1292600000,22.3681830000 114.1290030000,22.3681840000 114.1290010000,22.3673140000 114.1289990000,22.3669020000 114.1289860000,22.3668150000 114.1289470000,22.3667330000 114.1288920000,22.3666690000 114.1288050000,22.3666170000 114.1287010000,22.3665750000 114.1285850000,22.3665680000 114.1284030000,22.3665910000 114.1274950000,22.3669260000</coordinates>
                </LineString>
                <ExtendedData>
                    <Data name="length">
                        <value>28278.8115687824</value>
                    </Data>
                    <Data name="duration">
                        <value>01:19:10</value>
                    </Data>
                </ExtendedData>
            </Placemark>
        </Document>
    </Document>
</kml>