<?xml version="1.0" encoding="UTF-8"?>
<kml xmlns="http://www.opengis.net/kml/2.2" xmlns:gx="http://www.google.com/kml/ext/2.2">
    <Document>
        <name>Route</name>
        <Folder>
            <name>Route Request</name>
            <Placemark>
                <Point>
                    <coordinates>114.1534537520,22.2376375384</coordinates>
                </Point>
                <ExtendedData>
                    <Data name="country_code">
                        <value>cn</value>
                    </Data>
                    <Data name="city">
                        <value>Hong Kong</value>
                    </Data>
                    <Data name="country">
                        <value>China</value>
                    </Data>
                    <Data name="suburb">
                        <value>Sheung Wan</value>
                    </Data>
                    <Data name="routingVisited">
                        <value>false</value>
                    </Data>
                    <Data name="region">
                        <value>Hong Kong Island</value>
                    </Data>
                    <Data name="county">
                        <value>Central and Western District</value>
                    </Data>
                    <Data name="postcode">
                        <value>1F</value>
                    </Data>
                    <Data name="neighbourhood">
                        <value>Admiralty</value>
                    </Data>
                    <Data name="police">
                        <value>Central Police District Headquarters</value>
                    </Data>
                    <Data name="state">
                        <value>Hong Kong</value>
                    </Data>
                    <Data name="road">
                        <value>Chung Kong Road</value>
                    </Data>
                </ExtendedData>
            </Placemark>
            <Placemark>
                <address>Lei Tim House, Ap Lei Chau Bridge Road, Ap Lei Chau, Shui Choi Tin Village, Southern District, Hong Kong, AIL 83, PRC</address>
                <Point>
                    <coordinates>114.1507291201,22.2444738277</coordinates>
                </Point>
                <ExtendedData>
                    <Data name="country_code">
                        <value>cn</value>
                    </Data>
                    <Data name="country">
                        <value>PRC</value>
                    </Data>
                    <Data name="building">
                        <value>Lei Tim House</value>
                    </Data>
                    <Data name="suburb">
                        <value>Ap Lei Chau</value>
                    </Data>
                    <Data name="county">
                        <value>Southern District</value>
                    </Data>
                    <Data name="postcode">
                        <value>AIL 83</value>
                    </Data>
                    <Data name="hamlet">
                        <value>Shui Choi Tin Village</value>
                    </Data>
                    <Data name="road">
                        <value>Ap Lei Chau Bridge Road</value>
                    </Data>
                </ExtendedData>
            </Placemark>
            <Placemark>
                <address>Tung Hing House, Lei Tung Estate Road, Lei Tung Estate, Ap Lei Chau, Southern District, Hong Kong Island, Hong Kong, DD3LM 1969, China</address>
                <Point>
                    <coordinates>114.1554325472,22.2404835772</coordinates>
                </Point>
                <ExtendedData>
                    <Data name="country_code">
                        <value>cn</value>
                    </Data>
                    <Data name="city">
                        <value>Hong Kong</value>
                    </Data>
                    <Data name="country">
                        <value>China</value>
                    </Data>
                    <Data name="building">
                        <value>Tung Hing House</value>
                    </Data>
                    <Data name="suburb">
                        <value>Ap Lei Chau</value>
                    </Data>
                    <Data name="county">
                        <value>Southern District</value>
                    </Data>
                    <Data name="region">
                        <value>Hong Kong Island</value>
                    </Data>
                    <Data name="postcode">
                        <value>DD3LM 1969</value>
                    </Data>
                    <Data name="residential">
                        <value>Lei Tung Estate</value>
                    </Data>
                    <Data name="road">
                        <value>Lei Tung Estate Road</value>
                    </Data>
                </ExtendedData>
            </Placemark>
            <Placemark>
                <address>89, Pok Fu Lam Road, Sai Wan, Hong Kong, Central and Western District, Hong Kong Island, Hong Kong, 852, China</address>
                <Point>
                    <coordinates>114.1336694170,22.2843379693</coordinates>
                </Point>
                <ExtendedData>
                    <Data name="country_code">
                        <value>cn</value>
                    </Data>
                    <Data name="city">
                        <value>Hong Kong</value>
                    </Data>
                    <Data name="country">
                        <value>China</value>
                    </Data>
                    <Data name="suburb">
                        <value>Sai Wan</value>
                    </Data>
                    <Data name="county">
                        <value>Central and Western District</value>
                    </Data>
                    <Data name="region">
                        <value>Hong Kong Island</value>
                    </Data>
                    <Data name="postcode">
                        <value>852</value>
                    </Data>
                    <Data name="house_number">
                        <value>89</value>
                    </Data>
                    <Data name="road">
                        <value>Pok Fu Lam Road</value>
                    </Data>
                </ExtendedData>
            </Placemark>
            <Placemark>
                <address>Tseung Kwan O Hospital, 2, Po Ning Lane, Yau Yue Wan, Hang Hau, Tseung Kwan O, Sai Kung District, New Territories, Hong Kong, China</address>
                <Point>
                    <coordinates>114.2685752091,22.3184783934</coordinates>
                </Point>
                <ExtendedData>
                    <Data name="country_code">
                        <value>cn</value>
                    </Data>
                    <Data name="city">
                        <value>Hong Kong</value>
                    </Data>
                    <Data name="country">
                        <value>China</value>
                    </Data>
                    <Data name="hospital">
                        <value>Tseung Kwan O Hospital</value>
                    </Data>
                    <Data name="suburb">
                        <value>Hang Hau</value>
                    </Data>
                    <Data name="town">
                        <value>Tseung Kwan O</value>
                    </Data>
                    <Data name="county">
                        <value>Sai Kung District</value>
                    </Data>
                    <Data name="region">
                        <value>New Territories</value>
                    </Data>
                    <Data name="house_number">
                        <value>2</value>
                    </Data>
                    <Data name="neighbourhood">
                        <value>Yau Yue Wan</value>
                    </Data>
                    <Data name="road">
                        <value>Po Ning Lane</value>
                    </Data>
                </ExtendedData>
            </Placemark>
            <Placemark>
                <address>Tseung Kwan O Salt Water Pumping Station, Lohas Park Road, Siu Chik Sha, Tseung Kwan O, Sai Kung District, New Territories, Hong Kong, China</address>
                <Point>
                    <coordinates>114.2674147915,22.2947582965</coordinates>
                </Point>
                <ExtendedData>
                    <Data name="country_code">
                        <value>cn</value>
                    </Data>
                    <Data name="city">
                        <value>Hong Kong</value>
                    </Data>
                    <Data name="country">
                        <value>China</value>
                    </Data>
                    <Data name="building">
                        <value>Tseung Kwan O Salt Water Pumping Station</value>
                    </Data>
                    <Data name="suburb">
                        <value>Siu Chik Sha</value>
                    </Data>
                    <Data name="town">
                        <value>Tseung Kwan O</value>
                    </Data>
                    <Data name="county">
                        <value>Sai Kung District</value>
                    </Data>
                    <Data name="region">
                        <value>New Territories</value>
                    </Data>
                    <Data name="road">
                        <value>Lohas Park Road</value>
                    </Data>
                </ExtendedData>
            </Placemark>
            <Placemark>
                <address>安寧花園 On Ning Garden, Sheung Ning Road, Yau Yue Wan, Hang Hau, Tseung Kwan O, Sai Kung District, New Territories, Hong Kong, China</address>
                <Point>
                    <coordinates>114.2640728634,22.3162408432</coordinates>
                </Point>
                <ExtendedData>
                    <Data name="country_code">
                        <value>cn</value>
                    </Data>
                    <Data name="city">
                        <value>Hong Kong</value>
                    </Data>
                    <Data name="country">
                        <value>China</value>
                    </Data>
                    <Data name="suburb">
                        <value>Hang Hau</value>
                    </Data>
                    <Data name="town">
                        <value>Tseung Kwan O</value>
                    </Data>
                    <Data name="county">
                        <value>Sai Kung District</value>
                    </Data>
                    <Data name="region">
                        <value>New Territories</value>
                    </Data>
                    <Data name="subway_entrance">
                        <value>安寧花園 On Ning Garden</value>
                    </Data>
                    <Data name="neighbourhood">
                        <value>Yau Yue Wan</value>
                    </Data>
                    <Data name="road">
                        <value>Sheung Ning Road</value>
                    </Data>
                </ExtendedData>
            </Placemark>
            <Placemark>
                <address>Centennial Campus, 76-78, Pok Fu Lam Road, Sai Wan, Hong Kong, Central and Western District, Hong Kong Island, Hong Kong, 852, China</address>
                <Point>
                    <coordinates>114.1326416156,22.2826071187</coordinates>
                </Point>
                <ExtendedData>
                    <Data name="country_code">
                        <value>cn</value>
                    </Data>
                    <Data name="city">
                        <value>Hong Kong</value>
                    </Data>
                    <Data name="country">
                        <value>China</value>
                    </Data>
                    <Data name="suburb">
                        <value>Sai Wan</value>
                    </Data>
                    <Data name="county">
                        <value>Central and Western District</value>
                    </Data>
                    <Data name="region">
                        <value>Hong Kong Island</value>
                    </Data>
                    <Data name="postcode">
                        <value>852</value>
                    </Data>
                    <Data name="house_number">
                        <value>76-78</value>
                    </Data>
                    <Data name="university">
                        <value>Centennial Campus</value>
                    </Data>
                    <Data name="road">
                        <value>Pok Fu Lam Road</value>
                    </Data>
                </ExtendedData>
            </Placemark>
            <Placemark>
                <address>7-Eleven, Tin Wan Street, Tin Wan Estate, Tin Wan, Southern District, Hong Kong Island, Hong Kong, DD3LM 1969, China</address>
                <Point>
                    <coordinates>114.1487216696,22.2492141565</coordinates>
                </Point>
                <ExtendedData>
                    <Data name="country_code">
                        <value>cn</value>
                    </Data>
                    <Data name="city">
                        <value>Hong Kong</value>
                    </Data>
                    <Data name="country">
                        <value>China</value>
                    </Data>
                    <Data name="suburb">
                        <value>Tin Wan</value>
                    </Data>
                    <Data name="county">
                        <value>Southern District</value>
                    </Data>
                    <Data name="region">
                        <value>Hong Kong Island</value>
                    </Data>
                    <Data name="postcode">
                        <value>DD3LM 1969</value>
                    </Data>
                    <Data name="residential">
                        <value>Tin Wan Estate</value>
                    </Data>
                    <Data name="convenience">
                        <value>7-Eleven</value>
                    </Data>
                    <Data name="road">
                        <value>Tin Wan Street</value>
                    </Data>
                </ExtendedData>
            </Placemark>
            <Placemark>
                <address>Wu Nam Street Public Toilet, Aberdeen Praya Road, Aberdeen, Southern District, Hong Kong Island, Hong Kong, DD3LM 1969, China</address>
                <Point>
                    <coordinates>114.1554989771,22.2474962422</coordinates>
                </Point>
                <ExtendedData>
                    <Data name="country_code">
                        <value>cn</value>
                    </Data>
                    <Data name="city">
                        <value>Hong Kong</value>
                    </Data>
                    <Data name="country">
                        <value>China</value>
                    </Data>
                    <Data name="suburb">
                        <value>Aberdeen</value>
                    </Data>
                    <Data name="county">
                        <value>Southern District</value>
                    </Data>
                    <Data name="region">
                        <value>Hong Kong Island</value>
                    </Data>
                    <Data name="postcode">
                        <value>DD3LM 1969</value>
                    </Data>
                    <Data name="toilets">
                        <value>Wu Nam Street Public Toilet</value>
                    </Data>
                    <Data name="road">
                        <value>Aberdeen Praya Road</value>
                    </Data>
                </ExtendedData>
            </Placemark>
            <Placemark>
                <address>Tung Hing House, Lei Tung Estate Road, Lei Tung Estate, Ap Lei Chau, Southern District, Hong Kong Island, Hong Kong, DD3LM 1969, China</address>
                <Point>
                    <coordinates>114.1554384241,22.2404890170</coordinates>
                </Point>
                <ExtendedData>
                    <Data name="country_code">
                        <value>cn</value>
                    </Data>
                    <Data name="city">
                        <value>Hong Kong</value>
                    </Data>
                    <Data name="country">
                        <value>China</value>
                    </Data>
                    <Data name="building">
                        <value>Tung Hing House</value>
                    </Data>
                    <Data name="suburb">
                        <value>Ap Lei Chau</value>
                    </Data>
                    <Data name="county">
                        <value>Southern District</value>
                    </Data>
                    <Data name="region">
                        <value>Hong Kong Island</value>
                    </Data>
                    <Data name="postcode">
                        <value>DD3LM 1969</value>
                    </Data>
                    <Data name="residential">
                        <value>Lei Tung Estate</value>
                    </Data>
                    <Data name="road">
                        <value>Lei Tung Estate Road</value>
                    </Data>
                </ExtendedData>
            </Placemark>
            <Placemark>
                <address>Lei Tim House, Ap Lei Chau Bridge Road, Ap Lei Chau, Southern District, Hong Kong Island, Hong Kong, DD3LM 1969, China</address>
                <Point>
                    <coordinates>114.1507364994,22.2444806579</coordinates>
                </Point>
                <ExtendedData>
                    <Data name="country_code">
                        <value>cn</value>
                    </Data>
                    <Data name="address29">
                        <value>Lei Tim House</value>
                    </Data>
                    <Data name="city">
                        <value>Hong Kong</value>
                    </Data>
                    <Data name="country">
                        <value>China</value>
                    </Data>
                    <Data name="suburb">
                        <value>Ap Lei Chau</value>
                    </Data>
                    <Data name="county">
                        <value>Southern District</value>
                    </Data>
                    <Data name="region">
                        <value>Hong Kong Island</value>
                    </Data>
                    <Data name="postcode">
                        <value>DD3LM 1969</value>
                    </Data>
                    <Data name="road">
                        <value>Ap Lei Chau Bridge Road</value>
                    </Data>
                </ExtendedData>
            </Placemark>
            <Placemark>
                <address>HK Island Road Safety Centre, 69, Lee Nam Road, Ap Lei Chau, Southern District, Hong Kong Island, Hong Kong, DD3LM 1969, China</address>
                <Point>
                    <coordinates>114.1534463729,22.2376375384</coordinates>
                </Point>
                <ExtendedData>
                    <Data name="country_code">
                        <value>cn</value>
                    </Data>
                    <Data name="address29">
                        <value>HK Island Road Safety Centre</value>
                    </Data>
                    <Data name="city">
                        <value>Hong Kong</value>
                    </Data>
                    <Data name="country">
                        <value>China</value>
                    </Data>
                    <Data name="suburb">
                        <value>Ap Lei Chau</value>
                    </Data>
                    <Data name="county">
                        <value>Southern District</value>
                    </Data>
                    <Data name="region">
                        <value>Hong Kong Island</value>
                    </Data>
                    <Data name="postcode">
                        <value>DD3LM 1969</value>
                    </Data>
                    <Data name="house_number">
                        <value>69</value>
                    </Data>
                    <Data name="road">
                        <value>Lee Nam Road</value>
                    </Data>
                </ExtendedData>
            </Placemark>
        </Folder>
        <Document>
            <name>66.2 km; 02:03 h (OSRM)</name>
            <Placemark>
                <name>Route</name>
                <LineString>
                    <coordinates>114.1534520000,22.2376410000 114.1533480000,22.2375740000 114.1533260000,22.2375090000 114.1533130000,22.2374710000 114.1532790000,22.2374520000 114.1532440000,22.2374320000 114.1532090000,22.2374120000 114.1528570000,22.2378790000 114.1527350000,22.2380310000 114.1524180000,22.2384290000 114.1523010000,22.2385750000 114.1522240000,22.2386780000 114.1521190000,22.2388180000 114.1519900000,22.2389900000 114.1518480000,22.2391080000 114.1515150000,22.2392710000 114.1511970000,22.2393770000 114.1509400000,22.2394530000 114.1506530000,22.2395110000 114.1503890000,22.2395580000 114.1500920000,22.2396130000 114.1497790000,22.2396720000 114.1495190000,22.2397310000 114.1492660000,22.2398020000 114.1489530000,22.2399050000 114.1488630000,22.2399390000 114.1487400000,22.2399970000 114.1486840000,22.2400270000 114.1486070000,22.2400750000 114.1485200000,22.2401530000 114.1484730000,22.2402130000 114.1484380000,22.2402630000 114.1484000000,22.2403240000 114.1483660000,22.2403860000 114.1483380000,22.2404450000 114.1483190000,22.2405070000 114.1482910000,22.2406070000 114.1482790000,22.2406750000 114.1482700000,22.2407440000 114.1482740000,22.2408190000 114.1482800000,22.2408920000 114.1482900000,22.2409470000 114.1483020000,22.2410050000 114.1483160000,22.2410500000 114.1483510000,22.2411360000 114.1483840000,22.2412020000 114.1484210000,22.2412680000 114.1484700000,22.2413390000 114.1485720000,22.2414650000 114.1487190000,22.2415830000 114.1488880000,22.2417040000 114.1492480000,22.2419620000 114.1493560000,22.2421150000 114.1507230000,22.2430510000 114.1508990000,22.2431700000 114.1510780000,22.2432900000 114.1511100000,22.2433490000 114.1511300000,22.2434070000 114.1511440000,22.2434730000 114.1511300000,22.2435370000 114.1510900000,22.2436000000 114.1510190000,22.2436870000 114.1508080000,22.2438150000 114.1506470000,22.2439460000 114.1504810000,22.2440220000 114.1503720000,22.2441290000 114.1504020000,22.2442550000 114.1504240000,22.2443500000 114.1504370000,22.2443870000 114.1505310000,22.2443580000 114.1506030000,22.2443260000 114.1506150000,22.2443190000 114.1506680000,22.2442850000 114.1507730000,22.2442050000 114.1508370000,22.2441460000 114.1508980000,22.2440890000 114.1508690000,22.2440590000 114.1508580000,22.2439900000 114.1508580000,22.2439550000 114.1508620000,22.2438980000 114.1512820000,22.2436320000 114.1513160000,22.2436110000 114.1514280000,22.2435370000 114.1514980000,22.2434950000 114.1518810000,22.2433100000 114.1519930000,22.2432670000 114.1520610000,22.2432470000 114.1522640000,22.2431950000 114.1524320000,22.2431530000 114.1527090000,22.2430650000 114.1529070000,22.2429940000 114.1531790000,22.2428860000 114.1535630000,22.2427510000 114.1536940000,22.2427260000 114.1539130000,22.2427010000 114.1541050000,22.2427120000 114.1543400000,22.2427970000 114.1545170000,22.2428960000 114.1546470000,22.2429640000 114.1548760000,22.2430840000 114.1550590000,22.2431650000 114.1552760000,22.2432770000 114.1554810000,22.2433680000 114.1557370000,22.2434810000 114.1560710000,22.2435610000 114.1563140000,22.2435760000 114.1565280000,22.2435750000 114.1567570000,22.2435640000 114.1569160000,22.2435610000 114.1569560000,22.2435610000 114.1570980000,22.2435820000 114.1571610000,22.2436040000 114.1572650000,22.2436410000 114.1573360000,22.2436920000 114.1573970000,22.2436290000 114.1574870000,22.2435620000 114.1576150000,22.2434810000 114.1576550000,22.2434660000 114.1577120000,22.2434510000 114.1577740000,22.2434430000 114.1579010000,22.2434410000 114.1579020000,22.2433790000 114.1579000000,22.2430280000 114.1579000000,22.2429900000 114.1579070000,22.2427160000 114.1579190000,22.2423810000 114.1579010000,22.2418780000 114.1579000000,22.2418480000 114.1578980000,22.2417920000 114.1578960000,22.2416750000 114.1578900000,22.2413210000 114.1578570000,22.2411870000 114.1577860000,22.2410670000 114.1576620000,22.2409610000 114.1574950000,22.2409130000 114.1572900000,22.2409200000 114.1571480000,22.2409900000 114.1571230000,22.2410200000 114.1570140000,22.2411520000 114.1569720000,22.2413610000 114.1569720000,22.2416970000 114.1569350000,22.2418390000 114.1568730000,22.2419240000 114.1568030000,22.2419810000 114.1566810000,22.2420160000 114.1563570000,22.2420090000 114.1562870000,22.2419440000 114.1562190000,22.2418710000 114.1561740000,22.2417870000 114.1562110000,22.2412030000 114.1562240000,22.2411490000 114.1562430000,22.2411080000 114.1562720000,22.2410730000 114.1563660000,22.2409630000 114.1563720000,22.2407620000 114.1562030000,22.2406930000 114.1560940000,22.2406650000 114.1560080000,22.2406560000 114.1559120000,22.2406410000 114.1556660000,22.2406340000 114.1554350000,22.2406370000 114.1551370000,22.2406400000 114.1550660000,22.2406590000 114.1549800000,22.2406990000 114.1549490000,22.2407290000 114.1549250000,22.2407840000 114.1548980000,22.2410030000 114.1548970000,22.2412130000 114.1548960000,22.2413420000 114.1548950000,22.2414040000 114.1548810000,22.2417730000 114.1549720000,22.2418970000 114.1550850000,22.2420070000 114.1559140000,22.2420180000 114.1561410000,22.2420100000 114.1563570000,22.2420090000 114.1566810000,22.2420160000 114.1568030000,22.2419810000 114.1568730000,22.2419240000 114.1569350000,22.2418390000 114.1569720000,22.2416970000 114.1569720000,22.2413610000 114.1570140000,22.2411520000 114.1571230000,22.2410200000 114.1571480000,22.2409900000 114.1572900000,22.2409200000 114.1574950000,22.2409130000 114.1576620000,22.2409610000 114.1577860000,22.2410670000 114.1578570000,22.2411870000 114.1578900000,22.2413210000 114.1578960000,22.2416750000 114.1578980000,22.2417920000 114.1579000000,22.2418480000 114.1579010000,22.2418780000 114.1579190000,22.2423810000 114.1579070000,22.2427160000 114.1579000000,22.2429900000 114.1579000000,22.2430280000 114.1579020000,22.2433790000 114.1577730000,22.2433810000 114.1576890000,22.2433880000 114.1575920000,22.2434050000 114.1575250000,22.2434290000 114.1574230000,22.2434900000 114.1573920000,22.2435170000 114.1573220000,22.2435780000 114.1572650000,22.2436410000 114.1573360000,22.2436920000 114.1574710000,22.2438570000 114.1574940000,22.2438860000 114.1575520000,22.2439590000 114.1576940000,22.2441480000 114.1577800000,22.2442430000 114.1578860000,22.2443300000 114.1580560000,22.2444470000 114.1583320000,22.2445710000 114.1585940000,22.2446790000 114.1588390000,22.2448080000 114.1589010000,22.2448560000 114.1603470000,22.2462090000 114.1607350000,22.2465660000 114.1607970000,22.2466350000 114.1608470000,22.2466970000 114.1608920000,22.2467650000 114.1609300000,22.2468370000 114.1609650000,22.2469210000 114.1609910000,22.2470020000 114.1610080000,22.2470640000 114.1610170000,22.2471360000 114.1610210000,22.2472310000 114.1609300000,22.2475190000 114.1608690000,22.2476330000 114.1608000000,22.2477200000 114.1606960000,22.2478000000 114.1605830000,22.2478620000 114.1604810000,22.2479080000 114.1604070000,22.2479180000 114.1603610000,22.2479200000 114.1603110000,22.2479150000 114.1602120000,22.2478940000 114.1599590000,22.2478500000 114.1595500000,22.2477080000 114.1595210000,22.2476980000 114.1591600000,22.2475730000 114.1586620000,22.2474000000 114.1582370000,22.2472400000 114.1573450000,22.2469330000 114.1571350000,22.2468780000 114.1569170000,22.2468590000 114.1566960000,22.2468610000 114.1565530000,22.2468810000 114.1564380000,22.2469000000 114.1562220000,22.2469640000 114.1559470000,22.2470450000 114.1559100000,22.2470560000 114.1556580000,22.2471300000 114.1552920000,22.2472380000 114.1544870000,22.2474770000 114.1538060000,22.2476890000 114.1536280000,22.2477440000 114.1534900000,22.2477860000 114.1532020000,22.2478780000 114.1530860000,22.2479060000 114.1526650000,22.2479860000 114.1526020000,22.2479980000 114.1524230000,22.2480350000 114.1514710000,22.2481930000 114.1512320000,22.2482430000 114.1502850000,22.2484460000 114.1501730000,22.2484690000 114.1500380000,22.2484870000 114.1499360000,22.2484920000 114.1498240000,22.2484910000 114.1493910000,22.2484690000 114.1492530000,22.2484660000 114.1491510000,22.2484680000 114.1489890000,22.2484800000 114.1488270000,22.2485030000 114.1485200000,22.2485680000 114.1481420000,22.2486580000 114.1473940000,22.2488350000 114.1472300000,22.2488730000 114.1460640000,22.2491370000 114.1457420000,22.2492110000 114.1453920000,22.2492530000 114.1451540000,22.2492660000 114.1449430000,22.2492580000 114.1448070000,22.2492440000 114.1442880000,22.2491720000 114.1436800000,22.2490800000 114.1434190000,22.2490690000 114.1432790000,22.2490720000 114.1431620000,22.2490830000 114.1429500000,22.2491300000 114.1423490000,22.2493480000 114.1421500000,22.2494300000 114.1419400000,22.2495400000 114.1417900000,22.2496500000 114.1416490000,22.2497870000 114.1415500000,22.2499040000 114.1414730000,22.2500130000 114.1413970000,22.2501580000 114.1413400000,22.2502900000 114.1412800000,22.2504700000 114.1411220000,22.2510960000 114.1409450000,22.2517180000 114.1409010000,22.2518280000 114.1408410000,22.2519610000 114.1407260000,22.2521720000 114.1404940000,22.2524210000 114.1399600000,22.2529070000 114.1395700000,22.2532410000 114.1393690000,22.2534040000 114.1392320000,22.2535150000 114.1392030000,22.2535390000 114.1391130000,22.2536210000 114.1390370000,22.2537080000 114.1385770000,22.2542820000 114.1382960000,22.2546590000 114.1380840000,22.2550520000 114.1379370000,22.2553770000 114.1375690000,22.2562290000 114.1375040000,22.2564050000 114.1372980000,22.2568220000 114.1371850000,22.2569780000 114.1367120000,22.2574990000 114.1366380000,22.2576510000 114.1365720000,22.2578110000 114.1365530000,22.2580230000 114.1365680000,22.2597220000 114.1365460000,22.2598910000 114.1365050000,22.2601000000 114.1364760000,22.2602390000 114.1364700000,22.2602670000 114.1364610000,22.2603010000 114.1362910000,22.2608870000 114.1362300000,22.2610760000 114.1361330000,22.2614540000 114.1360650000,22.2616210000 114.1358560000,22.2619970000 114.1356240000,22.2623430000 114.1355430000,22.2624590000 114.1354390000,22.2625480000 114.1353370000,22.2626260000 114.1351430000,22.2627350000 114.1348260000,22.2629520000 114.1346990000,22.2630730000 114.1342890000,22.2635430000 114.1340160000,22.2638640000 114.1339000000,22.2640070000 114.1335300000,22.2644180000 114.1334280000,22.2645570000 114.1333500000,22.2646830000 114.1333080000,22.2648240000 114.1332570000,22.2657950000 114.1332340000,22.2658950000 114.1331920000,22.2660050000 114.1331520000,22.2661020000 114.1330980000,22.2661930000 114.1328710000,22.2664500000 114.1327700000,22.2665510000 114.1323870000,22.2668890000 114.1322790000,22.2669850000 114.1319910000,22.2673090000 114.1318370000,22.2675790000 114.1317420000,22.2677380000 114.1316860000,22.2678120000 114.1315150000,22.2680410000 114.1311100000,22.2685260000 114.1308200000,22.2689380000 114.1307780000,22.2689980000 114.1305080000,22.2694620000 114.1301860000,22.2700180000 114.1301470000,22.2700930000 114.1301180000,22.2701590000 114.1300930000,22.2702390000 114.1300710000,22.2703270000 114.1300610000,22.2704020000 114.1300580000,22.2704890000 114.1300590000,22.2705880000 114.1300670000,22.2706950000 114.1300880000,22.2708020000 114.1301280000,22.2709230000 114.1301570000,22.2710000000 114.1302030000,22.2711000000 114.1304040000,22.2714400000 114.1304650000,22.2715620000 114.1305390000,22.2717130000 114.1306070000,22.2718290000 114.1306470000,22.2719110000 114.1306790000,22.2719940000 114.1306990000,22.2720670000 114.1307090000,22.2721550000 114.1307090000,22.2722240000 114.1307020000,22.2723190000 114.1306880000,22.2723890000 114.1306630000,22.2724790000 114.1306200000,22.2725930000 114.1305770000,22.2726810000 114.1300490000,22.2736490000 114.1299890000,22.2738970000 114.1299660000,22.2742240000 114.1299620000,22.2743800000 114.1299160000,22.2747970000 114.1297110000,22.2753890000 114.1296660000,22.2756560000 114.1296670000,22.2758460000 114.1297070000,22.2760300000 114.1297750000,22.2762700000 114.1298700000,22.2764800000 114.1300530000,22.2767940000 114.1302590000,22.2770640000 114.1304100000,22.2772630000 114.1304970000,22.2773780000 114.1305630000,22.2774570000 114.1306420000,22.2775700000 114.1306940000,22.2776000000 114.1307710000,22.2776450000 114.1309020000,22.2778280000 114.1309920000,22.2780220000 114.1310580000,22.2782230000 114.1310880000,22.2784100000 114.1311110000,22.2785870000 114.1311530000,22.2789080000 114.1312030000,22.2792580000 114.1312710000,22.2795350000 114.1314170000,22.2800300000 114.1315170000,22.2804100000 114.1315610000,22.2805610000 114.1315730000,22.2805990000 114.1315960000,22.2806940000 114.1316660000,22.2809490000 114.1317510000,22.2811270000 114.1318980000,22.2813190000 114.1319720000,22.2814360000 114.1320840000,22.2815980000 114.1321430000,22.2816880000 114.1321920000,22.2817630000 114.1323430000,22.2820080000 114.1323680000,22.2820930000 114.1323910000,22.2822440000 114.1324200000,22.2823860000 114.1324810000,22.2826210000 114.1326300000,22.2830040000 114.1327260000,22.2831900000 114.1328430000,22.2833370000 114.1333180000,22.2838100000 114.1334820000,22.2839810000 114.1335140000,22.2840150000 114.1335390000,22.2840400000 114.1336060000,22.2841040000 114.1337040000,22.2841900000 114.1337250000,22.2842100000 114.1337440000,22.2842270000 114.1337770000,22.2842760000 114.1338100000,22.2843260000 114.1338850000,22.2843720000 114.1339120000,22.2843890000 114.1339980000,22.2844410000 114.1341870000,22.2845350000 114.1342310000,22.2845610000 114.1342520000,22.2845680000 114.1342740000,22.2845580000 114.1343010000,22.2845430000 114.1343200000,22.2845310000 114.1343580000,22.2845110000 114.1343810000,22.2844980000 114.1343840000,22.2844780000 114.1343900000,22.2844580000 114.1344010000,22.2844290000 114.1344160000,22.2844050000 114.1344420000,22.2843850000 114.1344700000,22.2843640000 114.1345760000,22.2843490000 114.1346680000,22.2843290000 114.1347660000,22.2843050000 114.1348840000,22.2842660000 114.1350400000,22.2842040000 114.1351910000,22.2841070000 114.1352540000,22.2840600000 114.1354150000,22.2839120000 114.1354800000,22.2838960000 114.1355520000,22.2838950000 114.1356520000,22.2839060000 114.1356990000,22.2839180000 114.1357300000,22.2839320000 114.1357580000,22.2839520000 114.1357890000,22.2839810000 114.1358130000,22.2840090000 114.1358310000,22.2840390000 114.1358430000,22.2840710000 114.1358510000,22.2841020000 114.1358580000,22.2841360000 114.1358630000,22.2841740000 114.1358690000,22.2842350000 114.1358700000,22.2842650000 114.1358990000,22.2849600000 114.1359010000,22.2850270000 114.1358990000,22.2850910000 114.1358920000,22.2851490000 114.1358820000,22.2851940000 114.1358640000,22.2852340000 114.1358350000,22.2852780000 114.1358010000,22.2853160000 114.1357580000,22.2853540000 114.1357150000,22.2853820000 114.1356600000,22.2854110000 114.1356030000,22.2854350000 114.1354200000,22.2855000000 114.1353710000,22.2855220000 114.1353290000,22.2855440000 114.1353020000,22.2855640000 114.1352710000,22.2855930000 114.1352380000,22.2856250000 114.1352100000,22.2856590000 114.1351860000,22.2856970000 114.1351680000,22.2857380000 114.1351560000,22.2857860000 114.1351510000,22.2858240000 114.1351520000,22.2858560000 114.1351570000,22.2858860000 114.1353010000,22.2864250000 114.1353150000,22.2864860000 114.1353270000,22.2865470000 114.1354390000,22.2872260000 114.1354590000,22.2873160000 114.1354890000,22.2874260000 114.1355600000,22.2875400000 114.1356400000,22.2876210000 114.1356980000,22.2876620000 114.1357500000,22.2876900000 114.1358000000,22.2877100000 114.1359000000,22.2877300000 114.1366750000,22.2878020000 114.1368680000,22.2878200000 114.1370610000,22.2878680000 114.1383600000,22.2882160000 114.1394400000,22.2887500000 114.1397000000,22.2888500000 114.1399800000,22.2889500000 114.1401000000,22.2889900000 114.1402400000,22.2890290000 114.1405000000,22.2890840000 114.1406800000,22.2891130000 114.1408800000,22.2891390000 114.1410700000,22.2891560000 114.1412700000,22.2891670000 114.1414400000,22.2891690000 114.1416000000,22.2891620000 114.1418010000,22.2891470000 114.1419500000,22.2891340000 114.1436380000,22.2889660000 114.1446390000,22.2888790000 114.1448220000,22.2888730000 114.1450060000,22.2888760000 114.1451880000,22.2888780000 114.1456780000,22.2889150000 114.1462600000,22.2889950000 114.1465430000,22.2890000000 114.1467390000,22.2889870000 114.1469680000,22.2889480000 114.1472330000,22.2888840000 114.1474670000,22.2888000000 114.1486240000,22.2883850000 114.1488300000,22.2883290000 114.1499140000,22.2880400000 114.1501420000,22.2879790000 114.1504980000,22.2878820000 114.1507790000,22.2878060000 114.1510020000,22.2877460000 114.1523540000,22.2873400000 114.1526930000,22.2872720000 114.1529490000,22.2871970000 114.1532590000,22.2871120000 114.1535440000,22.2870580000 114.1537620000,22.2870270000 114.1539430000,22.2870220000 114.1542390000,22.2870290000 114.1545900000,22.2870690000 114.1547690000,22.2870860000 114.1551710000,22.2871270000 114.1553840000,22.2871480000 114.1555850000,22.2871670000 114.1558900000,22.2871870000 114.1560600000,22.2871930000 114.1561800000,22.2871900000 114.1564400000,22.2871770000 114.1566200000,22.2871560000 114.1568030000,22.2871290000 114.1569880000,22.2870970000 114.1571800000,22.2870520000 114.1574500000,22.2869730000 114.1577600000,22.2868700000 114.1582000000,22.2867000000 114.1584200000,22.2865980000 114.1585550000,22.2865150000 114.1586590000,22.2864510000 114.1603830000,22.2853670000 114.1631300000,22.2838110000 114.1638350000,22.2834740000 114.1641470000,22.2833390000 114.1644930000,22.2832060000 114.1651340000,22.2829870000 114.1656200000,22.2828430000 114.1661460000,22.2827110000 114.1665970000,22.2826160000 114.1670640000,22.2825310000 114.1677350000,22.2824530000 114.1680670000,22.2824220000 114.1684300000,22.2823990000 114.1690810000,22.2823640000 114.1704260000,22.2822970000 114.1711440000,22.2822770000 114.1723810000,22.2822790000 114.1733180000,22.2823150000 114.1742830000,22.2823780000 114.1747660000,22.2824220000 114.1751810000,22.2824690000 114.1755770000,22.2825230000 114.1768630000,22.2827100000 114.1809240000,22.2832540000 114.1818280000,22.2833910000 114.1822460000,22.2834740000 114.1827630000,22.2835930000 114.1832380000,22.2837310000 114.1844020000,22.2841550000 114.1848440000,22.2843550000 114.1853820000,22.2846360000 114.1858920000,22.2849320000 114.1862730000,22.2851750000 114.1866220000,22.2854130000 114.1870320000,22.2857280000 114.1874410000,22.2860740000 114.1879160000,22.2865160000 114.1885910000,22.2872130000 114.1888910000,22.2875400000 114.1906150000,22.2893660000 114.1915190000,22.2901840000 114.1915700000,22.2902320000 114.1918520000,22.2904860000 114.1921150000,22.2907240000 114.1925020000,22.2910700000 114.1930740000,22.2915820000 114.1935390000,22.2919940000 114.1940790000,22.2923780000 114.1945320000,22.2926440000 114.1947500000,22.2927460000 114.1950570000,22.2928690000 114.1953540000,22.2929670000 114.1955810000,22.2930280000 114.1974960000,22.2934010000 114.1979200000,22.2934800000 114.1981920000,22.2935260000 114.1983380000,22.2935420000 114.1987100000,22.2935630000 114.1992000000,22.2935690000 114.1995900000,22.2935850000 114.1997700000,22.2936020000 114.1999500000,22.2936270000 114.2001000000,22.2936520000 114.2015930000,22.2939620000 114.2024440000,22.2941380000 114.2030190000,22.2942370000 114.2035020000,22.2942680000 114.2039630000,22.2942450000 114.2043950000,22.2941960000 114.2046420000,22.2941520000 114.2049520000,22.2940830000 114.2062020000,22.2936700000 114.2087800000,22.2929170000 114.2089200000,22.2928580000 114.2091980000,22.2927280000 114.2095760000,22.2925290000 114.2109640000,22.2915430000 114.2110940000,22.2914520000 114.2113260000,22.2912910000 114.2117220000,22.2910340000 114.2127980000,22.2904230000 114.2131270000,22.2902740000 114.2133740000,22.2901710000 114.2137460000,22.2900270000 114.2138760000,22.2899270000 114.2139100000,22.2899030000 114.2140390000,22.2898090000 114.2141610000,22.2896960000 114.2142270000,22.2895560000 114.2142640000,22.2894590000 114.2143080000,22.2893090000 114.2143250000,22.2891400000 114.2143050000,22.2889980000 114.2142910000,22.2889580000 114.2142440000,22.2888240000 114.2141930000,22.2887170000 114.2140410000,22.2885210000 114.2138940000,22.2883660000 114.2137190000,22.2882520000 114.2134430000,22.2881320000 114.2132170000,22.2880760000 114.2130260000,22.2880630000 114.2128020000,22.2880860000 114.2125800000,22.2881630000 114.2123010000,22.2883200000 114.2122220000,22.2883870000 114.2121390000,22.2884860000 114.2120780000,22.2885770000 114.2120140000,22.2887040000 114.2119800000,22.2888350000 114.2119630000,22.2890450000 114.2119940000,22.2892140000 114.2120370000,22.2893590000 114.2121060000,22.2895190000 114.2122160000,22.2896630000 114.2123560000,22.2897930000 114.2124630000,22.2898660000 114.2126220000,22.2899550000 114.2127730000,22.2900300000 114.2129420000,22.2901140000 114.2305570000,22.2992700000 114.2310350000,22.2995250000 114.2312230000,22.2996440000 114.2313170000,22.2997030000 114.2314120000,22.2997630000 114.2318030000,22.3000300000 114.2327330000,22.3005560000 114.2335540000,22.3010200000 114.2335880000,22.3010390000 114.2339000000,22.3012080000 114.2343000000,22.3014850000 114.2345970000,22.3016810000 114.2346690000,22.3017470000 114.2347790000,22.3018510000 114.2349190000,22.3020060000 114.2349990000,22.3021140000 114.2350630000,22.3022130000 114.2351340000,22.3023350000 114.2352060000,22.3024830000 114.2352660000,22.3026150000 114.2352990000,22.3027010000 114.2353830000,22.3029780000 114.2354000000,22.3031230000 114.2354190000,22.3032740000 114.2354250000,22.3035080000 114.2354130000,22.3036500000 114.2353850000,22.3038350000 114.2353220000,22.3040810000 114.2352910000,22.3041700000 114.2352070000,22.3043540000 114.2350940000,22.3045860000 114.2349470000,22.3048070000 114.2348410000,22.3049440000 114.2346900000,22.3051210000 114.2346510000,22.3051670000 114.2345360000,22.3053020000 114.2341540000,22.3057150000 114.2339520000,22.3059500000 114.2332040000,22.3068180000 114.2329220000,22.3070300000 114.2324240000,22.3076520000 114.2319310000,22.3082190000 114.2315590000,22.3086570000 114.2313770000,22.3088390000 114.2311230000,22.3091340000 114.2309570000,22.3092570000 114.2307520000,22.3094190000 114.2306870000,22.3094810000 114.2306460000,22.3095480000 114.2305800000,22.3096490000 114.2305680000,22.3097270000 114.2305660000,22.3097920000 114.2305770000,22.3098610000 114.2306090000,22.3099280000 114.2309750000,22.3104390000 114.2312000000,22.3106870000 114.2312290000,22.3107130000 114.2313700000,22.3108370000 114.2315250000,22.3109630000 114.2317560000,22.3111140000 114.2319760000,22.3112370000 114.2322560000,22.3113530000 114.2325510000,22.3114560000 114.2329210000,22.3115750000 114.2332440000,22.3116880000 114.2336110000,22.3118310000 114.2338830000,22.3119190000 114.2344900000,22.3121040000 114.2349170000,22.3122580000 114.2354200000,22.3124590000 114.2367560000,22.3130380000 114.2369630000,22.3131340000 114.2374850000,22.3133750000 114.2378950000,22.3135750000 114.2384370000,22.3138400000 114.2387190000,22.3140380000 114.2390200000,22.3142720000 114.2393870000,22.3145990000 114.2397070000,22.3149090000 114.2404440000,22.3156850000 114.2409450000,22.3161590000 114.2415480000,22.3166610000 114.2417400000,22.3168530000 114.2417870000,22.3169000000 114.2420030000,22.3170850000 114.2424630000,22.3174140000 114.2476410000,22.3201620000 114.2482710000,22.3204930000 114.2487660000,22.3207460000 114.2492130000,22.3209330000 114.2495760000,22.3210540000 114.2500220000,22.3211440000 114.2502300000,22.3211740000 114.2504770000,22.3212110000 114.2508460000,22.3212610000 114.2511760000,22.3212870000 114.2515440000,22.3213280000 114.2518740000,22.3213540000 114.2523450000,22.3213910000 114.2527550000,22.3214000000 114.2531250000,22.3213820000 114.2534790000,22.3213020000 114.2537370000,22.3212280000 114.2539910000,22.3211320000 114.2542530000,22.3210200000 114.2545400000,22.3208550000 114.2547740000,22.3206880000 114.2550410000,22.3204710000 114.2553460000,22.3201510000 114.2557970000,22.3196350000 114.2559400000,22.3194730000 114.2562260000,22.3191490000 114.2567520000,22.3185530000 114.2569270000,22.3183790000 114.2571810000,22.3181260000 114.2575860000,22.3177550000 114.2579760000,22.3174730000 114.2585270000,22.3171700000 114.2588110000,22.3169850000 114.2589750000,22.3169010000 114.2592310000,22.3167800000 114.2594370000,22.3166990000 114.2596840000,22.3166380000 114.2599610000,22.3166080000 114.2602010000,22.3166310000 114.2604250000,22.3167190000 114.2606660000,22.3168750000 114.2608510000,22.3170070000 114.2610060000,22.3171610000 114.2611280000,22.3173020000 114.2614920000,22.3177020000 114.2616170000,22.3178400000 114.2617870000,22.3179760000 114.2620760000,22.3184080000 114.2622420000,22.3186560000 114.2624560000,22.3190660000 114.2625090000,22.3192140000 114.2625400000,22.3193700000 114.2625310000,22.3194030000 114.2625290000,22.3194370000 114.2625340000,22.3194710000 114.2625620000,22.3195350000 114.2626120000,22.3195860000 114.2626790000,22.3196160000 114.2627530000,22.3196230000 114.2628260000,22.3196060000 114.2628540000,22.3195910000 114.2628790000,22.3195730000 114.2629010000,22.3195510000 114.2631840000,22.3194790000 114.2636560000,22.3194110000 114.2637670000,22.3193970000 114.2642380000,22.3193350000 114.2643620000,22.3193190000 114.2644470000,22.3193080000 114.2650110000,22.3192490000 114.2652560000,22.3192340000 114.2654400000,22.3192450000 114.2654920000,22.3192810000 114.2655530000,22.3192990000 114.2656180000,22.3192990000 114.2656880000,22.3192750000 114.2657450000,22.3192300000 114.2657800000,22.3191690000 114.2660200000,22.3191530000 114.2663690000,22.3190800000 114.2668200000,22.3189790000 114.2671070000,22.3188910000 114.2673220000,22.3188000000 114.2675590000,22.3186860000 114.2676310000,22.3186410000 114.2679120000,22.3184530000 114.2682420000,22.3181920000 114.2683720000,22.3183380000 114.2685210000,22.3185170000 114.2686610000,22.3186850000 114.2687120000,22.3187230000 114.2687720000,22.3187450000 114.2688360000,22.3187500000 114.2688990000,22.3187380000 114.2689150000,22.3187700000 114.2689420000,22.3187930000 114.2689850000,22.3188040000 114.2690280000,22.3187940000 114.2690600000,22.3187660000 114.2690730000,22.3187270000 114.2690650000,22.3186870000 114.2690360000,22.3186570000 114.2689980000,22.3186430000 114.2689560000,22.3186460000 114.2689220000,22.3186670000 114.2689010000,22.3187010000 114.2688990000,22.3187380000 114.2688360000,22.3187500000 114.2687720000,22.3187450000 114.2687120000,22.3187230000 114.2686610000,22.3186850000 114.2683720000,22.3183380000 114.2682420000,22.3181920000 114.2684570000,22.3180540000 114.2685600000,22.3179720000 114.2686130000,22.3179300000 114.2689980000,22.3176230000 114.2691190000,22.3175270000 114.2691800000,22.3174780000 114.2693300000,22.3173310000 114.2695180000,22.3171770000 114.2698270000,22.3169250000 114.2700320000,22.3167910000 114.2701440000,22.3167440000 114.2702650000,22.3167130000 114.2703360000,22.3167090000 114.2704010000,22.3166850000 114.2704550000,22.3166420000 114.2704910000,22.3165860000 114.2705060000,22.3165220000 114.2704980000,22.3164590000 114.2704690000,22.3164020000 114.2704230000,22.3163550000 114.2703630000,22.3163240000 114.2703130000,22.3163130000 114.2702070000,22.3162800000 114.2701000000,22.3162090000 114.2699780000,22.3161130000 114.2698650000,22.3160180000 114.2689060000,22.3150240000 114.2687840000,22.3148980000 114.2685750000,22.3146810000 114.2684950000,22.3145990000 114.2677730000,22.3139230000 114.2675890000,22.3137590000 114.2675100000,22.3136930000 114.2673900000,22.3135930000 114.2669550000,22.3132320000 114.2666700000,22.3129820000 114.2664280000,22.3127150000 114.2662910000,22.3125590000 114.2661970000,22.3124560000 114.2661150000,22.3122950000 114.2660560000,22.3121840000 114.2660130000,22.3120840000 114.2659990000,22.3119840000 114.2659960000,22.3118400000 114.2660050000,22.3117180000 114.2660360000,22.3115990000 114.2660760000,22.3114650000 114.2661480000,22.3112160000 114.2662060000,22.3109860000 114.2662640000,22.3108500000 114.2663560000,22.3106160000 114.2665180000,22.3102160000 114.2666240000,22.3099520000 114.2667620000,22.3097040000 114.2668860000,22.3094920000 114.2671510000,22.3092380000 114.2674490000,22.3089340000 114.2676790000,22.3086740000 114.2678790000,22.3084000000 114.2679210000,22.3083180000 114.2679940000,22.3081730000 114.2680930000,22.3079180000 114.2682820000,22.3074160000 114.2684050000,22.3072000000 114.2685200000,22.3069980000 114.2686660000,22.3068090000 114.2688170000,22.3066480000 114.2691640000,22.3063060000 114.2696180000,22.3059260000 114.2699740000,22.3056120000 114.2701370000,22.3054570000 114.2703160000,22.3052100000 114.2708130000,22.3043130000 114.2709630000,22.3040770000 114.2712430000,22.3037820000 114.2714990000,22.3035580000 114.2716810000,22.3034110000 114.2719300000,22.3032140000 114.2721120000,22.3030140000 114.2721890000,22.3029010000 114.2722370000,22.3028180000 114.2722750000,22.3027460000 114.2723930000,22.3024720000 114.2724150000,22.3023680000 114.2724260000,22.3022140000 114.2724180000,22.3019670000 114.2723880000,22.3017870000 114.2723580000,22.3016910000 114.2723170000,22.3015580000 114.2722060000,22.3013290000 114.2719460000,22.3010390000 114.2717790000,22.3008700000 114.2716630000,22.3007300000 114.2715430000,22.3005580000 114.2714480000,22.3003350000 114.2713660000,22.2998170000 114.2714190000,22.2994100000 114.2715990000,22.2989870000 114.2721270000,22.2980860000 114.2720050000,22.2980310000 114.2715290000,22.2978770000 114.2707240000,22.2975740000 114.2705550000,22.2974860000 114.2699500000,22.2972370000 114.2694300000,22.2970240000 114.2690190000,22.2968570000 114.2680240000,22.2965540000 114.2673650000,22.2963360000 114.2673520000,22.2963050000 114.2673300000,22.2962780000 114.2673000000,22.2962600000 114.2672850000,22.2962180000 114.2672770000,22.2961530000 114.2672920000,22.2960900000 114.2673400000,22.2960420000 114.2673990000,22.2960100000 114.2674550000,22.2959620000 114.2675070000,22.2959000000 114.2675290000,22.2958440000 114.2674920000,22.2956870000 114.2674650000,22.2955570000 114.2674570000,22.2954200000 114.2674790000,22.2951000000 114.2674800000,22.2950040000 114.2674490000,22.2949270000 114.2674160000,22.2948990000 114.2673660000,22.2948820000 114.2673600000,22.2948800000 114.2673060000,22.2948900000 114.2672740000,22.2949230000 114.2672610000,22.2949700000 114.2672590000,22.2950810000 114.2672710000,22.2952040000 114.2672920000,22.2953380000 114.2673220000,22.2954450000 114.2674010000,22.2957030000 114.2674210000,22.2957680000 114.2674230000,22.2958460000 114.2673920000,22.2959150000 114.2672450000,22.2960390000 114.2671940000,22.2961270000 114.2671700000,22.2962010000 114.2671690000,22.2962220000 114.2671680000,22.2962850000 114.2671430000,22.2963240000 114.2671380000,22.2963610000 114.2671460000,22.2963970000 114.2671680000,22.2964280000 114.2671990000,22.2964500000 114.2672370000,22.2964620000 114.2672770000,22.2964600000 114.2673560000,22.2965100000 114.2676430000,22.2966180000 114.2678940000,22.2966980000 114.2679590000,22.2967170000 114.2687260000,22.2969670000 114.2699000000,22.2973600000 114.2705330000,22.2975470000 114.2707240000,22.2975740000 114.2715290000,22.2978770000 114.2716830000,22.2981060000 114.2717470000,22.2982570000 114.2717330000,22.2984240000 114.2715510000,22.2988610000 114.2713640000,22.2992970000 114.2712780000,22.2997340000 114.2713850000,22.3004020000 114.2715100000,22.3006620000 114.2717030000,22.3009070000 114.2720540000,22.3012740000 114.2721790000,22.3014490000 114.2722720000,22.3016430000 114.2723110000,22.3017990000 114.2723250000,22.3019520000 114.2723180000,22.3022290000 114.2723010000,22.3023760000 114.2722420000,22.3025510000 114.2721790000,22.3027040000 114.2721490000,22.3027700000 114.2721010000,22.3028500000 114.2720350000,22.3029370000 114.2719420000,22.3030490000 114.2717980000,22.3031980000 114.2716130000,22.3033440000 114.2714320000,22.3034970000 114.2711810000,22.3037340000 114.2709060000,22.3040270000 114.2707350000,22.3042800000 114.2704230000,22.3048300000 114.2703260000,22.3050170000 114.2702170000,22.3051850000 114.2700370000,22.3054180000 114.2698560000,22.3055990000 114.2697310000,22.3057090000 114.2696050000,22.3058190000 114.2695010000,22.3059050000 114.2691430000,22.3061930000 114.2686870000,22.3066060000 114.2684530000,22.3068920000 114.2682840000,22.3071410000 114.2681050000,22.3075740000 114.2679880000,22.3078740000 114.2679130000,22.3080670000 114.2678200000,22.3082850000 114.2676980000,22.3084950000 114.2675350000,22.3086960000 114.2673660000,22.3088840000 114.2671190000,22.3091180000 114.2668960000,22.3093540000 114.2666870000,22.3095870000 114.2665010000,22.3097790000 114.2663870000,22.3099280000 114.2663500000,22.3099940000 114.2661500000,22.3103550000 114.2660450000,22.3106050000 114.2658780000,22.3110140000 114.2658360000,22.3111190000 114.2657870000,22.3112220000 114.2656940000,22.3113680000 114.2655130000,22.3115070000 114.2654790000,22.3115100000 114.2654450000,22.3115160000 114.2653620000,22.3115460000 114.2652890000,22.3115940000 114.2652320000,22.3116580000 114.2651940000,22.3117320000 114.2651880000,22.3117520000 114.2651830000,22.3118850000 114.2652360000,22.3120080000 114.2653370000,22.3121020000 114.2654710000,22.3121500000 114.2656140000,22.3121440000 114.2657640000,22.3121770000 114.2659030000,22.3122790000 114.2661850000,22.3126150000 114.2665850000,22.3130460000 114.2668790000,22.3133200000 114.2674390000,22.3137600000 114.2672430000,22.3139400000 114.2666360000,22.3144450000 114.2664000000,22.3146550000 114.2662710000,22.3147740000 114.2659380000,22.3150800000 114.2658690000,22.3151330000 114.2657860000,22.3151580000 114.2656780000,22.3151490000 114.2656080000,22.3151240000 114.2655270000,22.3150880000 114.2654420000,22.3150100000 114.2652790000,22.3148410000 114.2651280000,22.3147210000 114.2650400000,22.3146920000 114.2649830000,22.3146870000 114.2649240000,22.3146790000 114.2648810000,22.3146770000 114.2648210000,22.3146740000 114.2647180000,22.3147460000 114.2646200000,22.3148180000 114.2641530000,22.3152030000 114.2639700000,22.3153660000 114.2638640000,22.3154370000 114.2637780000,22.3155070000 114.2636780000,22.3155870000 114.2636650000,22.3156610000 114.2636600000,22.3157080000 114.2636590000,22.3157690000 114.2636680000,22.3158640000 114.2637250000,22.3159250000 114.2637900000,22.3159980000 114.2638690000,22.3161060000 114.2639200000,22.3161630000 114.2640260000,22.3162780000 114.2642940000,22.3165690000 114.2645540000,22.3168370000 114.2650340000,22.3172980000 114.2652310000,22.3175320000 114.2653170000,22.3176940000 114.2653740000,22.3178660000 114.2654260000,22.3182180000 114.2655000000,22.3187140000 114.2654990000,22.3188180000 114.2654980000,22.3188390000 114.2654980000,22.3188730000 114.2654880000,22.3189470000 114.2654390000,22.3189810000 114.2654040000,22.3190260000 114.2652420000,22.3190960000 114.2641750000,22.3192240000 114.2638280000,22.3192620000 114.2637520000,22.3192710000 114.2634930000,22.3192990000 114.2631390000,22.3193120000 114.2628910000,22.3193010000 114.2628440000,22.3192660000 114.2627880000,22.3192440000 114.2626660000,22.3190520000 114.2624050000,22.3185560000 114.2621050000,22.3181590000 114.2620660000,22.3181060000 114.2619490000,22.3178870000 114.2618000000,22.3176730000 114.2617040000,22.3175430000 114.2615890000,22.3173460000 114.2614940000,22.3171720000 114.2614090000,22.3169910000 114.2611550000,22.3163980000 114.2610660000,22.3162470000 114.2609020000,22.3160420000 114.2607360000,22.3159080000 114.2605510000,22.3158310000 114.2602530000,22.3158060000 114.2601250000,22.3158210000 114.2599930000,22.3158590000 114.2597930000,22.3159530000 114.2595880000,22.3160930000 114.2594010000,22.3162490000 114.2586260000,22.3168180000 114.2583220000,22.3170540000 114.2580940000,22.3172470000 114.2571880000,22.3179420000 114.2569280000,22.3182130000 114.2567840000,22.3183750000 114.2564080000,22.3187810000 114.2561510000,22.3190590000 114.2559180000,22.3193280000 114.2552920000,22.3200520000 114.2550350000,22.3203100000 114.2547560000,22.3205580000 114.2544450000,22.3207570000 114.2541340000,22.3209350000 114.2538440000,22.3210640000 114.2535330000,22.3211730000 114.2532110000,22.3212490000 114.2529560000,22.3212810000 114.2527190000,22.3212800000 114.2524300000,22.3212720000 114.2521630000,22.3212430000 114.2518740000,22.3212120000 114.2514590000,22.3211670000 114.2508720000,22.3210870000 114.2505150000,22.3210100000 114.2501480000,22.3209090000 114.2500490000,22.3208820000 114.2495710000,22.3207460000 114.2491810000,22.3206100000 114.2487480000,22.3204260000 114.2426560000,22.3170550000 114.2422160000,22.3167640000 114.2420150000,22.3166350000 114.2417360000,22.3164260000 114.2413210000,22.3161260000 114.2411240000,22.3159720000 114.2398890000,22.3148750000 114.2387130000,22.3138600000 114.2385500000,22.3137530000 114.2382780000,22.3135990000 114.2378940000,22.3134200000 114.2375240000,22.3132570000 114.2368820000,22.3129700000 114.2365910000,22.3128370000 114.2361920000,22.3126560000 114.2358190000,22.3124960000 114.2355560000,22.3123870000 114.2354080000,22.3123280000 114.2351180000,22.3122130000 114.2349080000,22.3121320000 114.2343820000,22.3119500000 114.2339150000,22.3117920000 114.2334280000,22.3116030000 114.2331190000,22.3114900000 114.2327380000,22.3113520000 114.2325020000,22.3112580000 114.2322970000,22.3111680000 114.2320960000,22.3110780000 114.2318690000,22.3109440000 114.2316630000,22.3107900000 114.2314390000,22.3105960000 114.2312980000,22.3104390000 114.2311140000,22.3102000000 114.2307730000,22.3097140000 114.2307550000,22.3096540000 114.2307670000,22.3095940000 114.2308000000,22.3094900000 114.2310830000,22.3093070000 114.2313660000,22.3091040000 114.2316100000,22.3087830000 114.2318980000,22.3084540000 114.2325370000,22.3077610000 114.2332850000,22.3068610000 114.2338010000,22.3062650000 114.2340100000,22.3060080000 114.2342190000,22.3057620000 114.2342890000,22.3056790000 114.2346060000,22.3053460000 114.2347410000,22.3052050000 114.2348130000,22.3051160000 114.2349460000,22.3049530000 114.2350110000,22.3048740000 114.2351820000,22.3046280000 114.2352960000,22.3044050000 114.2353850000,22.3041950000 114.2354160000,22.3041010000 114.2354830000,22.3038640000 114.2355170000,22.3036710000 114.2355290000,22.3035190000 114.2355210000,22.3032590000 114.2354980000,22.3031120000 114.2354750000,22.3029590000 114.2353920000,22.3026740000 114.2353630000,22.3026020000 114.2352930000,22.3024550000 114.2352150000,22.3023030000 114.2351490000,22.3021690000 114.2349990000,22.3019600000 114.2348450000,22.3017840000 114.2343870000,22.3013330000 114.2342050000,22.3012230000 114.2339520000,22.3010590000 114.2339070000,22.3010320000 114.2328620000,22.3004000000 114.2320970000,22.2999830000 114.2314960000,22.2996710000 114.2314790000,22.2996620000 114.2313780000,22.2996060000 114.2312930000,22.2995590000 114.2310720000,22.2994350000 114.2306190000,22.2991810000 114.2130560000,22.2900030000 114.2128440000,22.2899070000 114.2127060000,22.2898440000 114.2125860000,22.2897730000 114.2124740000,22.2897070000 114.2123600000,22.2896000000 114.2122670000,22.2894860000 114.2122090000,22.2893950000 114.2121680000,22.2892920000 114.2121400000,22.2891850000 114.2121200000,22.2890270000 114.2121470000,22.2888410000 114.2122100000,22.2886710000 114.2122970000,22.2885530000 114.2123720000,22.2884540000 114.2125920000,22.2883350000 114.2127050000,22.2882850000 114.2128370000,22.2882520000 114.2129310000,22.2882380000 114.2130360000,22.2882330000 114.2131290000,22.2882440000 114.2132290000,22.2882680000 114.2133810000,22.2883260000 114.2135580000,22.2884230000 114.2137140000,22.2885590000 114.2137880000,22.2886670000 114.2138470000,22.2887930000 114.2138980000,22.2889250000 114.2139040000,22.2889730000 114.2139110000,22.2890290000 114.2139090000,22.2891500000 114.2138910000,22.2892930000 114.2138620000,22.2894010000 114.2138170000,22.2894870000 114.2137510000,22.2895840000 114.2136610000,22.2896970000 114.2135260000,22.2898360000 114.2134440000,22.2899090000 114.2132930000,22.2900340000 114.2130020000,22.2901740000 114.2112110000,22.2912520000 114.2110520000,22.2913550000 114.2102020000,22.2919430000 114.2096630000,22.2923130000 114.2094140000,22.2924730000 114.2091510000,22.2926110000 114.2088090000,22.2927710000 114.2086260000,22.2928390000 114.2066660000,22.2934180000 114.2048450000,22.2939720000 114.2044740000,22.2940720000 114.2040710000,22.2941290000 114.2036420000,22.2941610000 114.2031550000,22.2941450000 114.2025710000,22.2940510000 114.2021610000,22.2939730000 114.1999680000,22.2935100000 114.1996280000,22.2934690000 114.1992060000,22.2934470000 114.1987250000,22.2934460000 114.1983660000,22.2934260000 114.1979580000,22.2933590000 114.1975110000,22.2932730000 114.1959400000,22.2929700000 114.1958270000,22.2929420000 114.1954170000,22.2928260000 114.1952010000,22.2927610000 114.1949910000,22.2926820000 114.1948430000,22.2926160000 114.1946800000,22.2925410000 114.1944850000,22.2924430000 114.1942840000,22.2923330000 114.1938170000,22.2920510000 114.1933170000,22.2916070000 114.1926140000,22.2909620000 114.1923350000,22.2907120000 114.1916930000,22.2901350000 114.1916300000,22.2900770000 114.1907350000,22.2892620000 114.1890040000,22.2874280000 114.1887130000,22.2871150000 114.1877600000,22.2861030000 114.1875000000,22.2858440000 114.1871900000,22.2855490000 114.1866920000,22.2851350000 114.1862560000,22.2848200000 114.1858130000,22.2845320000 114.1853940000,22.2842860000 114.1849350000,22.2840530000 114.1845170000,22.2838640000 114.1838630000,22.2836200000 114.1835310000,22.2835070000 114.1832050000,22.2834080000 114.1828380000,22.2833140000 114.1826180000,22.2832650000 114.1820210000,22.2831600000 114.1814710000,22.2830920000 114.1805170000,22.2830320000 114.1768450000,22.2825330000 114.1755490000,22.2823780000 114.1749950000,22.2823150000 114.1743800000,22.2822580000 114.1728910000,22.2821650000 114.1715990000,22.2821360000 114.1711640000,22.2821470000 114.1704020000,22.2821530000 114.1698050000,22.2821850000 114.1683210000,22.2822580000 114.1678140000,22.2822960000 114.1672620000,22.2823610000 114.1666010000,22.2824650000 114.1661110000,22.2825700000 114.1655820000,22.2826990000 114.1650590000,22.2828520000 114.1644680000,22.2830590000 114.1640640000,22.2832160000 114.1636710000,22.2833830000 114.1630590000,22.2836830000 114.1603510000,22.2852150000 114.1600340000,22.2854100000 114.1585600000,22.2863200000 114.1584600000,22.2863770000 114.1581200000,22.2865700000 114.1577110000,22.2867570000 114.1574130000,22.2868680000 114.1571610000,22.2869520000 114.1567900000,22.2870380000 114.1564330000,22.2870900000 114.1561800000,22.2871040000 114.1558400000,22.2870920000 114.1553100000,22.2870400000 114.1546200000,22.2869530000 114.1542500000,22.2869200000 114.1537860000,22.2869110000 114.1536660000,22.2869140000 114.1535400000,22.2869180000 114.1533310000,22.2869370000 114.1531920000,22.2869840000 114.1510010000,22.2876360000 114.1507380000,22.2877100000 114.1504730000,22.2877840000 114.1501090000,22.2878870000 114.1498740000,22.2879470000 114.1485800000,22.2882650000 114.1479400000,22.2883200000 114.1464590000,22.2884390000 114.1463280000,22.2884460000 114.1459560000,22.2884620000 114.1456480000,22.2885470000 114.1446540000,22.2886050000 114.1444220000,22.2886320000 114.1441210000,22.2886520000 114.1440470000,22.2886090000 114.1439090000,22.2886130000 114.1437680000,22.2886170000 114.1426260000,22.2886480000 114.1422640000,22.2886610000 114.1419560000,22.2886450000 114.1417840000,22.2886470000 114.1416680000,22.2886500000 114.1416140000,22.2886510000 114.1415330000,22.2886540000 114.1411980000,22.2886580000 114.1411490000,22.2886570000 114.1409640000,22.2886140000 114.1408850000,22.2885800000 114.1408660000,22.2885250000 114.1408440000,22.2881260000 114.1408420000,22.2880850000 114.1408380000,22.2880100000 114.1408360000,22.2879880000 114.1408340000,22.2879650000 114.1408320000,22.2879360000 114.1408200000,22.2878290000 114.1408050000,22.2874290000 114.1408020000,22.2873620000 114.1407960000,22.2872170000 114.1407950000,22.2871920000 114.1407290000,22.2871210000 114.1406750000,22.2870690000 114.1405250000,22.2870140000 114.1403730000,22.2867500000 114.1403620000,22.2867320000 114.1402740000,22.2865910000 114.1401730000,22.2864220000 114.1400660000,22.2862160000 114.1400160000,22.2860550000 114.1400060000,22.2857850000 114.1400010000,22.2857270000 114.1399940000,22.2856650000 114.1399820000,22.2855550000 114.1399690000,22.2855240000 114.1399540000,22.2855090000 114.1399350000,22.2855000000 114.1398910000,22.2854830000 114.1398160000,22.2854620000 114.1397200000,22.2854450000 114.1395890000,22.2854180000 114.1394970000,22.2853870000 114.1394210000,22.2853370000 114.1393670000,22.2852870000 114.1393100000,22.2851810000 114.1392770000,22.2850800000 114.1392500000,22.2850190000 114.1392340000,22.2850000000 114.1392100000,22.2849880000 114.1391870000,22.2849810000 114.1390900000,22.2849580000 114.1390190000,22.2849570000 114.1389530000,22.2849690000 114.1388480000,22.2850110000 114.1387220000,22.2850630000 114.1386540000,22.2850980000 114.1385950000,22.2851360000 114.1384830000,22.2852110000 114.1384170000,22.2852480000 114.1383590000,22.2852730000 114.1382600000,22.2852860000 114.1381090000,22.2852740000 114.1379370000,22.2852500000 114.1377720000,22.2852190000 114.1376740000,22.2851870000 114.1375820000,22.2851470000 114.1374380000,22.2850840000 114.1373920000,22.2850080000 114.1373520000,22.2849250000 114.1373200000,22.2848490000 114.1373120000,22.2848170000 114.1373100000,22.2847630000 114.1373050000,22.2846550000 114.1372950000,22.2846200000 114.1372680000,22.2845690000 114.1371930000,22.2844850000 114.1369970000,22.2842670000 114.1368230000,22.2840530000 114.1367250000,22.2838980000 114.1366770000,22.2838150000 114.1366000000,22.2836790000 114.1365740000,22.2836380000 114.1365520000,22.2836020000 114.1365290000,22.2835740000 114.1365010000,22.2835480000 114.1364620000,22.2835270000 114.1364200000,22.2835110000 114.1363740000,22.2835030000 114.1363210000,22.2835000000 114.1362640000,22.2835000000 114.1362000000,22.2835060000 114.1361210000,22.2835180000 114.1360400000,22.2835380000 114.1359570000,22.2835650000 114.1358860000,22.2835920000 114.1358040000,22.2836320000 114.1357320000,22.2836720000 114.1356530000,22.2837220000 114.1355630000,22.2837870000 114.1354150000,22.2839120000 114.1352540000,22.2840600000 114.1351910000,22.2841070000 114.1350400000,22.2842040000 114.1348840000,22.2842660000 114.1347660000,22.2843050000 114.1346680000,22.2843290000 114.1345760000,22.2843490000 114.1344700000,22.2843640000 114.1343640000,22.2843650000 114.1342550000,22.2843630000 114.1341590000,22.2843560000 114.1340620000,22.2843410000 114.1339870000,22.2843230000 114.1339160000,22.2843030000 114.1337440000,22.2842270000 114.1337250000,22.2842100000 114.1337040000,22.2841900000 114.1336060000,22.2841040000 114.1335390000,22.2840400000 114.1335140000,22.2840150000 114.1334820000,22.2839810000 114.1333180000,22.2838100000 114.1328430000,22.2833370000 114.1327260000,22.2831900000 114.1326300000,22.2830040000 114.1324950000,22.2826560000 114.1324810000,22.2826210000 114.1324200000,22.2823860000 114.1323910000,22.2822440000 114.1323680000,22.2820930000 114.1323430000,22.2820080000 114.1321920000,22.2817630000 114.1321430000,22.2816880000 114.1320840000,22.2815980000 114.1319720000,22.2814360000 114.1318980000,22.2813190000 114.1317510000,22.2811270000 114.1316660000,22.2809490000 114.1315960000,22.2806940000 114.1315730000,22.2805990000 114.1315610000,22.2805610000 114.1315170000,22.2804100000 114.1314170000,22.2800300000 114.1312710000,22.2795350000 114.1312030000,22.2792580000 114.1311530000,22.2789080000 114.1311110000,22.2785870000 114.1310880000,22.2784100000 114.1310580000,22.2782230000 114.1309920000,22.2780220000 114.1309020000,22.2778280000 114.1307710000,22.2776450000 114.1307680000,22.2775500000 114.1306710000,22.2774020000 114.1306090000,22.2773270000 114.1303210000,22.2769360000 114.1301510000,22.2767390000 114.1299710000,22.2764520000 114.1298690000,22.2762400000 114.1298050000,22.2760080000 114.1297700000,22.2756970000 114.1298050000,22.2754350000 114.1298750000,22.2751120000 114.1299670000,22.2748450000 114.1299970000,22.2747230000 114.1300550000,22.2741830000 114.1300860000,22.2739150000 114.1301540000,22.2736860000 114.1304600000,22.2730840000 114.1307160000,22.2725510000 114.1307510000,22.2724590000 114.1307790000,22.2723560000 114.1307920000,22.2722630000 114.1307920000,22.2721890000 114.1307880000,22.2721080000 114.1307780000,22.2720490000 114.1307680000,22.2720000000 114.1307520000,22.2719420000 114.1307210000,22.2718520000 114.1306700000,22.2717290000 114.1306170000,22.2716250000 114.1303330000,22.2710900000 114.1302930000,22.2710030000 114.1302490000,22.2708950000 114.1302170000,22.2708040000 114.1301940000,22.2707100000 114.1301790000,22.2706130000 114.1301720000,22.2705190000 114.1301740000,22.2704470000 114.1301820000,22.2703780000 114.1301960000,22.2703100000 114.1302220000,22.2702250000 114.1302650000,22.2701170000 114.1303100000,22.2700170000 114.1303700000,22.2698990000 114.1308100000,22.2691410000 114.1309110000,22.2689680000 114.1310160000,22.2688080000 114.1311590000,22.2686080000 114.1317720000,22.2678620000 114.1319710000,22.2675000000 114.1321160000,22.2672820000 114.1323600000,22.2670340000 114.1324520000,22.2669490000 114.1329510000,22.2664880000 114.1331810000,22.2662420000 114.1332720000,22.2660400000 114.1333330000,22.2658410000 114.1333530000,22.2656800000 114.1333810000,22.2649680000 114.1334240000,22.2647210000 114.1334640000,22.2646340000 114.1335880000,22.2644580000 114.1339710000,22.2640550000 114.1340820000,22.2639080000 114.1343530000,22.2636030000 114.1347210000,22.2631680000 114.1348670000,22.2630370000 114.1350850000,22.2628910000 114.1353840000,22.2627310000 114.1355090000,22.2626540000 114.1355860000,22.2625890000 114.1356500000,22.2625320000 114.1357260000,22.2624450000 114.1357930000,22.2623370000 114.1359860000,22.2620260000 114.1360940000,22.2618540000 114.1361040000,22.2618380000 114.1361650000,22.2617200000 114.1362680000,22.2615190000 114.1363790000,22.2610800000 114.1364230000,22.2608510000 114.1365500000,22.2603620000 114.1365630000,22.2603190000 114.1365730000,22.2602770000 114.1365860000,22.2602070000 114.1366090000,22.2600140000 114.1366430000,22.2597670000 114.1366560000,22.2595880000 114.1366410000,22.2581510000 114.1366340000,22.2579970000 114.1366630000,22.2578200000 114.1367570000,22.2576010000 114.1368770000,22.2574330000 114.1372370000,22.2570540000 114.1373800000,22.2568510000 114.1376310000,22.2562970000 114.1378020000,22.2559310000 114.1378550000,22.2558020000 114.1379940000,22.2554620000 114.1383080000,22.2547780000 114.1384640000,22.2545670000 114.1386250000,22.2543480000 114.1391580000,22.2537680000 114.1392300000,22.2536890000 114.1393380000,22.2535910000 114.1396530000,22.2533110000 114.1400430000,22.2529830000 114.1402400000,22.2528110000 114.1405480000,22.2524800000 114.1407350000,22.2522920000 114.1408840000,22.2520880000 114.1410440000,22.2517900000 114.1413920000,22.2504710000 114.1414440000,22.2502830000 114.1414880000,22.2501790000 114.1415670000,22.2500510000 114.1416520000,22.2499310000 114.1417310000,22.2498360000 114.1418250000,22.2497380000 114.1419420000,22.2496530000 114.1420400000,22.2496020000 114.1421550000,22.2495370000 114.1422650000,22.2494890000 114.1424270000,22.2494220000 114.1429730000,22.2492300000 114.1431470000,22.2491830000 114.1433020000,22.2491690000 114.1434930000,22.2491630000 114.1436400000,22.2491740000 114.1443210000,22.2492800000 114.1447420000,22.2493510000 114.1449210000,22.2493680000 114.1450920000,22.2493800000 114.1453760000,22.2493830000 114.1458060000,22.2493990000 114.1459550000,22.2494130000 114.1460870000,22.2494340000 114.1463340000,22.2495010000 114.1464290000,22.2495350000 114.1465380000,22.2495860000 114.1468360000,22.2497380000 114.1469420000,22.2497790000 114.1470190000,22.2498030000 114.1471450000,22.2498280000 114.1472380000,22.2498300000 114.1473150000,22.2498220000 114.1474010000,22.2498060000 114.1477940000,22.2497060000 114.1479930000,22.2496350000 114.1481620000,22.2495580000 114.1482520000,22.2495140000 114.1483340000,22.2494670000 114.1487120000,22.2492020000 114.1488120000,22.2491320000 114.1492360000,22.2488340000 114.1493440000,22.2487750000 114.1494320000,22.2487450000 114.1495000000,22.2487300000 114.1496300000,22.2487100000 114.1497470000,22.2486930000 114.1498620000,22.2486710000 114.1500430000,22.2486260000 114.1501580000,22.2486100000 114.1502780000,22.2485880000 114.1512630000,22.2483410000 114.1518000000,22.2482190000 114.1520690000,22.2481720000 114.1524340000,22.2481190000 114.1527310000,22.2480660000 114.1531230000,22.2479890000 114.1532210000,22.2479660000 114.1535120000,22.2478780000 114.1539580000,22.2477480000 114.1544280000,22.2476060000 114.1548440000,22.2476750000 114.1550160000,22.2476000000 114.1551850000,22.2476060000 114.1554850000,22.2474690000 114.1555160000,22.2474550000 114.1555390000,22.2474370000 114.1555540000,22.2474260000 114.1556280000,22.2473650000 114.1557130000,22.2473410000 114.1558180000,22.2473150000 114.1560200000,22.2473010000 114.1561170000,22.2472190000 114.1561840000,22.2471660000 114.1562420000,22.2471390000 114.1564830000,22.2470530000 114.1568670000,22.2469820000 114.1569980000,22.2469890000 114.1574090000,22.2470710000 114.1576060000,22.2471360000 114.1583710000,22.2474200000 114.1592070000,22.2477240000 114.1593200000,22.2477620000 114.1593670000,22.2477790000 114.1593940000,22.2477930000 114.1596710000,22.2479320000 114.1597430000,22.2479840000 114.1597490000,22.2479900000 114.1598170000,22.2480560000 114.1598680000,22.2481350000 114.1599070000,22.2482080000 114.1599350000,22.2482770000 114.1599660000,22.2483930000 114.1600150000,22.2485300000 114.1600540000,22.2485880000 114.1601120000,22.2486370000 114.1601770000,22.2486700000 114.1602520000,22.2486880000 114.1603360000,22.2486860000 114.1604050000,22.2486700000 114.1604620000,22.2486450000 114.1605060000,22.2486110000 114.1605450000,22.2485650000 114.1606210000,22.2484370000 114.1610720000,22.2474520000 114.1610950000,22.2473570000 114.1611120000,22.2472300000 114.1611110000,22.2471330000 114.1611070000,22.2470660000 114.1610900000,22.2469810000 114.1610620000,22.2468930000 114.1610230000,22.2468010000 114.1609780000,22.2467160000 114.1609320000,22.2466470000 114.1608800000,22.2465890000 114.1608070000,22.2465140000 114.1604110000,22.2461510000 114.1589530000,22.2447870000 114.1588810000,22.2447330000 114.1586370000,22.2446010000 114.1583740000,22.2444940000 114.1581010000,22.2443670000 114.1579380000,22.2442630000 114.1578490000,22.2441890000 114.1577490000,22.2440860000 114.1576190000,22.2439220000 114.1575690000,22.2438520000 114.1575380000,22.2438100000 114.1575640000,22.2437040000 114.1575580000,22.2436360000 114.1575750000,22.2435590000 114.1576150000,22.2434810000 114.1576550000,22.2434660000 114.1577120000,22.2434510000 114.1577740000,22.2434430000 114.1579010000,22.2434410000 114.1579020000,22.2433790000 114.1579000000,22.2430280000 114.1579000000,22.2429900000 114.1579070000,22.2427160000 114.1579190000,22.2423810000 114.1579010000,22.2418780000 114.1579000000,22.2418480000 114.1578980000,22.2417920000 114.1578960000,22.2416750000 114.1578900000,22.2413210000 114.1578570000,22.2411870000 114.1577860000,22.2410670000 114.1576620000,22.2409610000 114.1574950000,22.2409130000 114.1572900000,22.2409200000 114.1571480000,22.2409900000 114.1571230000,22.2410200000 114.1570140000,22.2411520000 114.1569720000,22.2413610000 114.1569720000,22.2416970000 114.1569350000,22.2418390000 114.1568730000,22.2419240000 114.1568030000,22.2419810000 114.1566810000,22.2420160000 114.1563570000,22.2420090000 114.1562870000,22.2419440000 114.1562190000,22.2418710000 114.1561740000,22.2417870000 114.1562110000,22.2412030000 114.1562240000,22.2411490000 114.1562430000,22.2411080000 114.1562720000,22.2410730000 114.1563660000,22.2409630000 114.1563720000,22.2407620000 114.1562030000,22.2406930000 114.1560940000,22.2406650000 114.1560080000,22.2406560000 114.1559120000,22.2406410000 114.1556660000,22.2406340000 114.1554400000,22.2406370000 114.1551370000,22.2406400000 114.1550660000,22.2406590000 114.1549800000,22.2406990000 114.1549490000,22.2407290000 114.1549250000,22.2407840000 114.1548980000,22.2410030000 114.1548970000,22.2412130000 114.1548960000,22.2413420000 114.1548950000,22.2414040000 114.1548810000,22.2417730000 114.1549720000,22.2418970000 114.1550850000,22.2420070000 114.1559140000,22.2420180000 114.1561410000,22.2420100000 114.1563570000,22.2420090000 114.1566810000,22.2420160000 114.1568030000,22.2419810000 114.1568730000,22.2419240000 114.1569350000,22.2418390000 114.1569720000,22.2416970000 114.1569720000,22.2413610000 114.1570140000,22.2411520000 114.1571230000,22.2410200000 114.1571480000,22.2409900000 114.1572900000,22.2409200000 114.1574950000,22.2409130000 114.1576620000,22.2409610000 114.1577860000,22.2410670000 114.1578570000,22.2411870000 114.1578900000,22.2413210000 114.1578960000,22.2416750000 114.1578980000,22.2417920000 114.1579000000,22.2418480000 114.1579010000,22.2418780000 114.1579190000,22.2423810000 114.1579070000,22.2427160000 114.1579000000,22.2429900000 114.1579000000,22.2430280000 114.1579020000,22.2433790000 114.1577730000,22.2433810000 114.1576890000,22.2433880000 114.1575920000,22.2434050000 114.1575250000,22.2434290000 114.1574230000,22.2434900000 114.1573920000,22.2435170000 114.1573220000,22.2435780000 114.1571210000,22.2435020000 114.1569630000,22.2434800000 114.1569160000,22.2434820000 114.1567660000,22.2434880000 114.1565170000,22.2434990000 114.1563160000,22.2435030000 114.1560940000,22.2434850000 114.1557940000,22.2434160000 114.1556010000,22.2433340000 114.1553110000,22.2431750000 114.1550510000,22.2430660000 114.1549070000,22.2429920000 114.1548650000,22.2429700000 114.1547670000,22.2429120000 114.1547040000,22.2428750000 114.1544320000,22.2427280000 114.1543090000,22.2426810000 114.1541260000,22.2426340000 114.1539540000,22.2426170000 114.1538230000,22.2426190000 114.1537050000,22.2426240000 114.1535440000,22.2426510000 114.1531980000,22.2427680000 114.1529110000,22.2428850000 114.1526840000,22.2429730000 114.1525100000,22.2430310000 114.1524080000,22.2430640000 114.1523290000,22.2430870000 114.1522440000,22.2431090000 114.1519750000,22.2431790000 114.1518100000,22.2432400000 114.1516260000,22.2433320000 114.1514950000,22.2434030000 114.1514330000,22.2434320000 114.1513500000,22.2434860000 114.1512660000,22.2435410000 114.1510190000,22.2436870000 114.1508080000,22.2438150000 114.1506470000,22.2439460000 114.1504810000,22.2440220000 114.1503720000,22.2441290000 114.1504020000,22.2442550000 114.1504240000,22.2443500000 114.1504370000,22.2443870000 114.1505310000,22.2443580000 114.1506030000,22.2443260000 114.1506160000,22.2443180000 114.1506680000,22.2442850000 114.1507730000,22.2442050000 114.1508370000,22.2441460000 114.1508980000,22.2440890000 114.1508690000,22.2440590000 114.1508580000,22.2439900000 114.1508580000,22.2439550000 114.1508620000,22.2438980000 114.1512820000,22.2436320000 114.1513160000,22.2436110000 114.1514280000,22.2435370000 114.1514980000,22.2434950000 114.1514330000,22.2434320000 114.1513280000,22.2433630000 114.1511500000,22.2432480000 114.1507670000,22.2429990000 114.1496470000,22.2422110000 114.1494050000,22.2420550000 114.1492480000,22.2419620000 114.1488880000,22.2417040000 114.1487190000,22.2415830000 114.1485720000,22.2414650000 114.1484700000,22.2413390000 114.1484210000,22.2412680000 114.1483840000,22.2412020000 114.1483510000,22.2411360000 114.1483160000,22.2410500000 114.1483020000,22.2410050000 114.1482900000,22.2409470000 114.1482800000,22.2408920000 114.1482740000,22.2408190000 114.1482700000,22.2407440000 114.1482790000,22.2406750000 114.1482910000,22.2406070000 114.1483190000,22.2405070000 114.1483380000,22.2404450000 114.1483660000,22.2403860000 114.1484000000,22.2403240000 114.1484380000,22.2402630000 114.1484730000,22.2402130000 114.1485200000,22.2401530000 114.1486070000,22.2400750000 114.1486840000,22.2400270000 114.1487400000,22.2399970000 114.1488630000,22.2399390000 114.1489530000,22.2399050000 114.1492660000,22.2398020000 114.1495190000,22.2397310000 114.1497790000,22.2396720000 114.1500920000,22.2396130000 114.1503890000,22.2395580000 114.1506530000,22.2395110000 114.1509400000,22.2394530000 114.1511970000,22.2393770000 114.1515150000,22.2392710000 114.1518480000,22.2391080000 114.1520380000,22.2392260000 114.1520910000,22.2392490000 114.1521590000,22.2392620000 114.1534720000,22.2393150000 114.1535750000,22.2393140000 114.1537160000,22.2392720000 114.1538020000,22.2392060000 114.1538730000,22.2391100000 114.1542420000,22.2386110000 114.1542700000,22.2385650000 114.1542790000,22.2385130000 114.1542520000,22.2380920000 114.1542420000,22.2380750000 114.1542280000,22.2380610000 114.1540430000,22.2379420000 114.1538600000,22.2378170000 114.1537350000,22.2378220000 114.1534470000,22.2376370000</coordinates>
                </LineString>
                <ExtendedData>
                    <Data name="length">
                        <value>66219.11106219902</value>
                    </Data>
                    <Data name="duration">
                        <value>02:03:55</value>
                    </Data>
                </ExtendedData>
            </Placemark>
        </Document>
    </Document>
</kml>