<?xml version="1.0" encoding="UTF-8"?>
<kml xmlns="http://www.opengis.net/kml/2.2" xmlns:gx="http://www.google.com/kml/ext/2.2">
    <Document>
        <name>Route</name>
        <Folder>
            <name>Route Request</name>
            <Placemark>
                <Point>
                    <coordinates>114.1577352404,22.3185289278</coordinates>
                </Point>
                <ExtendedData>
                    <Data name="routingVisited">
                        <value>false</value>
                    </Data>
                </ExtendedData>
            </Placemark>
            <Placemark>
                <Point>
                    <coordinates>114.1703302455,22.3196285570</coordinates>
                </Point>
                <ExtendedData>
                    <Data name="routingVisited">
                        <value>false</value>
                    </Data>
                </ExtendedData>
            </Placemark>
            <Placemark>
                <Point>
                    <coordinates>114.2128739792,22.3290885652</coordinates>
                </Point>
                <ExtendedData>
                    <Data name="routingVisited">
                        <value>false</value>
                    </Data>
                </ExtendedData>
            </Placemark>
            <Placemark>
                <Point>
                    <coordinates>114.2314027047,22.3187667555</coordinates>
                </Point>
                <ExtendedData>
                    <Data name="routingVisited">
                        <value>false</value>
                    </Data>
                </ExtendedData>
            </Placemark>
            <Placemark>
                <Point>
                    <coordinates>114.2222619754,22.3204362451</coordinates>
                </Point>
            </Placemark>
            <Placemark>
                <Point>
                    <coordinates>114.2132136738,22.3286616583</coordinates>
                </Point>
                <ExtendedData>
                    <Data name="routingVisited">
                        <value>false</value>
                    </Data>
                </ExtendedData>
            </Placemark>
            <Placemark>
                <Point>
                    <coordinates>114.1697395862,22.3192597021</coordinates>
                </Point>
                <ExtendedData>
                    <Data name="routingVisited">
                        <value>false</value>
                    </Data>
                </ExtendedData>
            </Placemark>
            <Placemark>
                <Point>
                    <coordinates>114.1577057072,22.3185289272</coordinates>
                </Point>
                <ExtendedData>
                    <Data name="routingVisited">
                        <value>false</value>
                    </Data>
                </ExtendedData>
            </Placemark>
        </Folder>
        <Document>
            <name>22.6 km; 00:55 h (OSRM)</name>
            <Placemark>
                <name>Route</name>
                <LineString>
                    <coordinates>114.1582020000,22.3187330000 114.1575240000,22.3200580000 114.1574470000,22.3201720000 114.1573470000,22.3202450000 114.1572260000,22.3202910000 114.1570560000,22.3203010000 114.1568120000,22.3203090000 114.1566950000,22.3203330000 114.1566500000,22.3201960000 114.1566010000,22.3200100000 114.1565880000,22.3199060000 114.1565880000,22.3198580000 114.1565930000,22.3197090000 114.1566130000,22.3195830000 114.1566440000,22.3194280000 114.1567160000,22.3191610000 114.1567510000,22.3190020000 114.1567850000,22.3187920000 114.1568000000,22.3185440000 114.1568060000,22.3183010000 114.1568030000,22.3181780000 114.1567980000,22.3177600000 114.1567990000,22.3177020000 114.1568050000,22.3176480000 114.1568180000,22.3175930000 114.1568430000,22.3175270000 114.1568900000,22.3175100000 114.1569300000,22.3174830000 114.1570690000,22.3174430000 114.1571390000,22.3174440000 114.1579100000,22.3174380000 114.1594300000,22.3174310000 114.1598620000,22.3174440000 114.1602980000,22.3175160000 114.1605780000,22.3176170000 114.1609100000,22.3177170000 114.1615040000,22.3179400000 114.1618970000,22.3180710000 114.1619910000,22.3181070000 114.1620790000,22.3181630000 114.1621420000,22.3182510000 114.1621900000,22.3183440000 114.1622510000,22.3184690000 114.1622960000,22.3186650000 114.1623810000,22.3187950000 114.1624430000,22.3188640000 114.1625380000,22.3189260000 114.1626200000,22.3189640000 114.1627080000,22.3189850000 114.1628060000,22.3189820000 114.1629290000,22.3188950000 114.1630570000,22.3188130000 114.1632460000,22.3187440000 114.1633650000,22.3187070000 114.1634970000,22.3186990000 114.1638430000,22.3187120000 114.1644770000,22.3187360000 114.1655110000,22.3187710000 114.1654890000,22.3188810000 114.1652760000,22.3198650000 114.1652330000,22.3200960000 114.1656100000,22.3201580000 114.1656670000,22.3201650000 114.1657600000,22.3201830000 114.1659130000,22.3202250000 114.1659830000,22.3202630000 114.1660560000,22.3202780000 114.1662850000,22.3203430000 114.1664830000,22.3203410000 114.1665510000,22.3203540000 114.1667040000,22.3203830000 114.1669000000,22.3204200000 114.1672280000,22.3204820000 114.1672690000,22.3204890000 114.1673590000,22.3205500000 114.1676930000,22.3206100000 114.1677170000,22.3206140000 114.1677990000,22.3206270000 114.1679060000,22.3206450000 114.1680890000,22.3206760000 114.1683060000,22.3207120000 114.1683450000,22.3207180000 114.1684170000,22.3207310000 114.1687180000,22.3207760000 114.1688560000,22.3207970000 114.1688960000,22.3208030000 114.1690010000,22.3208190000 114.1691120000,22.3208340000 114.1692930000,22.3208660000 114.1695650000,22.3209200000 114.1696760000,22.3208810000 114.1697390000,22.3205510000 114.1697660000,22.3204200000 114.1697770000,22.3203660000 114.1698170000,22.3202010000 114.1698770000,22.3199500000 114.1699690000,22.3195410000 114.1699750000,22.3195080000 114.1700600000,22.3194960000 114.1701780000,22.3195100000 114.1703500000,22.3195440000 114.1705470000,22.3195840000 114.1710810000,22.3196890000 114.1714640000,22.3197620000 114.1715000000,22.3197680000 114.1715990000,22.3197880000 114.1716880000,22.3198050000 114.1724730000,22.3199590000 114.1726420000,22.3199930000 114.1732990000,22.3200840000 114.1736340000,22.3201460000 114.1738780000,22.3201890000 114.1743330000,22.3202760000 114.1746660000,22.3203390000 114.1746920000,22.3203440000 114.1752490000,22.3204490000 114.1755350000,22.3204690000 114.1758450000,22.3205500000 114.1767440000,22.3208990000 114.1770230000,22.3210170000 114.1773110000,22.3211530000 114.1775310000,22.3212680000 114.1781180000,22.3215580000 114.1783690000,22.3216800000 114.1792790000,22.3220890000 114.1802220000,22.3225230000 114.1805320000,22.3227030000 114.1814490000,22.3231200000 114.1831930000,22.3239240000 114.1834000000,22.3240170000 114.1835870000,22.3241020000 114.1836860000,22.3241480000 114.1837600000,22.3241790000 114.1843190000,22.3244430000 114.1849890000,22.3247390000 114.1854590000,22.3249530000 114.1856420000,22.3250400000 114.1857620000,22.3251100000 114.1859170000,22.3252030000 114.1861270000,22.3253300000 114.1868100000,22.3257400000 114.1868930000,22.3257860000 114.1874550000,22.3261160000 114.1876590000,22.3262350000 114.1877700000,22.3263000000 114.1882680000,22.3264990000 114.1883780000,22.3265610000 114.1889360000,22.3268790000 114.1892550000,22.3270540000 114.1894740000,22.3271670000 114.1896410000,22.3272440000 114.1898560000,22.3273410000 114.1901640000,22.3274580000 114.1909600000,22.3277570000 114.1911940000,22.3278860000 114.1913320000,22.3279760000 114.1914350000,22.3280580000 114.1915160000,22.3281370000 114.1915940000,22.3282140000 114.1916820000,22.3283070000 114.1917770000,22.3283810000 114.1924420000,22.3289760000 114.1927210000,22.3292170000 114.1942640000,22.3306620000 114.1943650000,22.3307640000 114.1953040000,22.3317040000 114.1954070000,22.3318070000 114.1955660000,22.3319550000 114.1957650000,22.3321480000 114.1962140000,22.3325700000 114.1962650000,22.3326140000 114.1964650000,22.3327710000 114.1966590000,22.3329120000 114.1968410000,22.3330360000 114.1970970000,22.3332020000 114.1972750000,22.3333190000 114.1974910000,22.3334590000 114.1976980000,22.3335680000 114.1980250000,22.3337230000 114.1982400000,22.3338040000 114.1982780000,22.3338170000 114.1987280000,22.3339780000 114.1994520000,22.3342210000 114.2002410000,22.3345180000 114.2013210000,22.3349070000 114.2019180000,22.3351290000 114.2020820000,22.3351900000 114.2023430000,22.3352710000 114.2025260000,22.3353210000 114.2027310000,22.3353610000 114.2029400000,22.3353860000 114.2031080000,22.3353950000 114.2035390000,22.3353970000 114.2036210000,22.3353840000 114.2038040000,22.3353560000 114.2040400000,22.3352880000 114.2042320000,22.3352210000 114.2043530000,22.3351790000 114.2045500000,22.3350910000 114.2048960000,22.3349090000 114.2052180000,22.3346500000 114.2053450000,22.3345490000 114.2054220000,22.3344870000 114.2061180000,22.3339320000 114.2063580000,22.3337370000 114.2073070000,22.3329670000 114.2080420000,22.3324350000 114.2088340000,22.3317750000 114.2092420000,22.3314590000 114.2094940000,22.3312600000 114.2096870000,22.3311130000 114.2101370000,22.3307590000 114.2105620000,22.3304130000 114.2106230000,22.3304730000 114.2108310000,22.3306780000 114.2109700000,22.3308120000 114.2110360000,22.3308560000 114.2111070000,22.3308940000 114.2112260000,22.3309310000 114.2113940000,22.3309260000 114.2115850000,22.3309220000 114.2117220000,22.3309370000 114.2119160000,22.3309700000 114.2121490000,22.3310670000 114.2123630000,22.3311590000 114.2125810000,22.3312220000 114.2128410000,22.3312250000 114.2128090000,22.3310810000 114.2127280000,22.3309430000 114.2125700000,22.3309150000 114.2124530000,22.3308980000 114.2122360000,22.3308450000 114.2120240000,22.3307600000 114.2118130000,22.3306060000 114.2117690000,22.3305550000 114.2117480000,22.3305120000 114.2117160000,22.3304450000 114.2117040000,22.3303510000 114.2117060000,22.3302380000 114.2117270000,22.3301640000 114.2117530000,22.3301170000 114.2118370000,22.3299850000 114.2119920000,22.3298740000 114.2120600000,22.3298270000 114.2121140000,22.3297980000 114.2120760000,22.3297150000 114.2120310000,22.3296030000 114.2120270000,22.3295460000 114.2120300000,22.3295030000 114.2120520000,22.3294620000 114.2120820000,22.3294200000 114.2121290000,22.3293790000 114.2124070000,22.3292530000 114.2127270000,22.3290950000 114.2128550000,22.3290470000 114.2130740000,22.3289640000 114.2131190000,22.3289560000 114.2133030000,22.3289250000 114.2134420000,22.3288900000 114.2135040000,22.3288520000 114.2135380000,22.3288060000 114.2135640000,22.3287560000 114.2135900000,22.3286680000 114.2136030000,22.3285720000 114.2136370000,22.3284970000 114.2136870000,22.3284350000 114.2137460000,22.3283900000 114.2138110000,22.3283600000 114.2139210000,22.3283390000 114.2140650000,22.3283790000 114.2144510000,22.3286020000 114.2148570000,22.3288720000 114.2151170000,22.3290450000 114.2152410000,22.3291130000 114.2153530000,22.3291540000 114.2154500000,22.3291590000 114.2155390000,22.3291430000 114.2156070000,22.3291190000 114.2156770000,22.3290750000 114.2159060000,22.3287500000 114.2159270000,22.3286670000 114.2159100000,22.3285740000 114.2158730000,22.3284960000 114.2158130000,22.3284470000 114.2157430000,22.3283940000 114.2152540000,22.3280910000 114.2151000000,22.3279660000 114.2150230000,22.3279010000 114.2149890000,22.3278530000 114.2149940000,22.3278340000 114.2149930000,22.3278140000 114.2149890000,22.3277960000 114.2149800000,22.3277780000 114.2149670000,22.3277630000 114.2149510000,22.3277510000 114.2149330000,22.3277420000 114.2149960000,22.3276020000 114.2150090000,22.3273260000 114.2150510000,22.3271210000 114.2151450000,22.3269180000 114.2152750000,22.3267290000 114.2154360000,22.3265190000 114.2156430000,22.3263310000 114.2158450000,22.3262010000 114.2160650000,22.3260650000 114.2163300000,22.3259750000 114.2165340000,22.3259020000 114.2166890000,22.3258120000 114.2166990000,22.3258010000 114.2168030000,22.3256930000 114.2168990000,22.3255330000 114.2169110000,22.3255030000 114.2169830000,22.3253410000 114.2170760000,22.3251490000 114.2172320000,22.3248840000 114.2175070000,22.3244650000 114.2175530000,22.3243910000 114.2175810000,22.3243410000 114.2176090000,22.3242930000 114.2176520000,22.3241710000 114.2177140000,22.3239440000 114.2177170000,22.3239300000 114.2177220000,22.3239030000 114.2177320000,22.3238560000 114.2177430000,22.3237960000 114.2177760000,22.3235070000 114.2177740000,22.3234890000 114.2177680000,22.3233850000 114.2177420000,22.3232130000 114.2176890000,22.3230390000 114.2176550000,22.3229280000 114.2177210000,22.3229350000 114.2177840000,22.3229280000 114.2178620000,22.3229030000 114.2179230000,22.3228570000 114.2179780000,22.3227990000 114.2180110000,22.3227650000 114.2182420000,22.3224730000 114.2183180000,22.3224100000 114.2184190000,22.3223660000 114.2184780000,22.3223530000 114.2185860000,22.3223300000 114.2187370000,22.3223420000 114.2188940000,22.3223910000 114.2190290000,22.3224620000 114.2191190000,22.3225500000 114.2191870000,22.3226380000 114.2192280000,22.3227250000 114.2192440000,22.3228110000 114.2192850000,22.3230530000 114.2193440000,22.3232890000 114.2193820000,22.3233800000 114.2194280000,22.3234450000 114.2194860000,22.3235120000 114.2195680000,22.3235840000 114.2196640000,22.3236490000 114.2199090000,22.3237410000 114.2200740000,22.3237590000 114.2202490000,22.3237450000 114.2204050000,22.3236980000 114.2205580000,22.3235930000 114.2206530000,22.3234920000 114.2207330000,22.3233720000 114.2207680000,22.3232910000 114.2208010000,22.3232100000 114.2208530000,22.3230190000 114.2208810000,22.3226970000 114.2208970000,22.3224530000 114.2209070000,22.3222750000 114.2209380000,22.3219890000 114.2209810000,22.3218030000 114.2210580000,22.3216410000 114.2211120000,22.3215450000 114.2212540000,22.3214040000 114.2214040000,22.3212770000 114.2216030000,22.3211800000 114.2220060000,22.3210700000 114.2222990000,22.3209790000 114.2224460000,22.3209280000 114.2225570000,22.3208900000 114.2227890000,22.3207930000 114.2230810000,22.3206450000 114.2232590000,22.3205520000 114.2236540000,22.3203580000 114.2237890000,22.3202920000 114.2241160000,22.3209080000 114.2241780000,22.3210240000 114.2246340000,22.3218730000 114.2248180000,22.3221000000 114.2249980000,22.3222420000 114.2251870000,22.3223600000 114.2253730000,22.3224380000 114.2255500000,22.3225580000 114.2256170000,22.3226640000 114.2256440000,22.3227250000 114.2256580000,22.3228050000 114.2256690000,22.3228990000 114.2256760000,22.3229940000 114.2256720000,22.3231410000 114.2256750000,22.3232280000 114.2256970000,22.3233130000 114.2257490000,22.3234170000 114.2259520000,22.3238680000 114.2259760000,22.3239210000 114.2260100000,22.3240020000 114.2260490000,22.3240960000 114.2262330000,22.3240370000 114.2266570000,22.3239760000 114.2271700000,22.3239350000 114.2274550000,22.3238850000 114.2279010000,22.3239150000 114.2282770000,22.3239650000 114.2288910000,22.3240420000 114.2291520000,22.3240500000 114.2293110000,22.3240440000 114.2294680000,22.3240280000 114.2295850000,22.3240070000 114.2297030000,22.3239710000 114.2297880000,22.3239350000 114.2298680000,22.3238890000 114.2299680000,22.3238140000 114.2300690000,22.3237330000 114.2302030000,22.3235770000 114.2301190000,22.3235010000 114.2297300000,22.3232170000 114.2296940000,22.3231880000 114.2296050000,22.3231170000 114.2295720000,22.3230330000 114.2295700000,22.3229470000 114.2296020000,22.3228570000 114.2300300000,22.3223410000 114.2305430000,22.3217110000 114.2305980000,22.3216460000 114.2311330000,22.3210170000 114.2311940000,22.3209430000 114.2312520000,22.3208300000 114.2313200000,22.3206040000 114.2313560000,22.3204840000 114.2313870000,22.3204150000 114.2314410000,22.3203550000 114.2314650000,22.3203670000 114.2314910000,22.3203720000 114.2315180000,22.3203720000 114.2315440000,22.3203650000 114.2315670000,22.3203520000 114.2315870000,22.3203350000 114.2316010000,22.3203140000 114.2316090000,22.3202900000 114.2316100000,22.3202660000 114.2316060000,22.3202430000 114.2315950000,22.3202210000 114.2315800000,22.3202020000 114.2315600000,22.3201870000 114.2315370000,22.3201770000 114.2313860000,22.3200210000 114.2313280000,22.3199370000 114.2312550000,22.3198330000 114.2312050000,22.3197560000 114.2311740000,22.3196680000 114.2311530000,22.3195710000 114.2311510000,22.3194930000 114.2311580000,22.3194200000 114.2311750000,22.3193730000 114.2311990000,22.3193330000 114.2313080000,22.3192190000 114.2314010000,22.3191520000 114.2315330000,22.3190720000 114.2318350000,22.3189410000 114.2318620000,22.3189100000 114.2319030000,22.3186650000 114.2318890000,22.3186260000 114.2318330000,22.3185990000 114.2317580000,22.3185900000 114.2317200000,22.3185890000 114.2316500000,22.3186170000 114.2313930000,22.3187500000 114.2312880000,22.3188050000 114.2312410000,22.3188570000 114.2311980000,22.3189860000 114.2311750000,22.3190760000 114.2311720000,22.3191590000 114.2311990000,22.3193330000 114.2311750000,22.3193730000 114.2311580000,22.3194200000 114.2311510000,22.3194930000 114.2311530000,22.3195710000 114.2311740000,22.3196680000 114.2312050000,22.3197560000 114.2312550000,22.3198330000 114.2313280000,22.3199370000 114.2313860000,22.3200210000 114.2314190000,22.3202070000 114.2314050000,22.3202270000 114.2313960000,22.3202490000 114.2313930000,22.3202730000 114.2313960000,22.3202970000 114.2314060000,22.3203200000 114.2314210000,22.3203390000 114.2314410000,22.3203550000 114.2313870000,22.3204150000 114.2313560000,22.3204840000 114.2313200000,22.3206040000 114.2312520000,22.3208300000 114.2311940000,22.3209430000 114.2311330000,22.3210170000 114.2305980000,22.3216460000 114.2305430000,22.3217110000 114.2300300000,22.3223410000 114.2296020000,22.3228570000 114.2295700000,22.3229470000 114.2295720000,22.3230330000 114.2296050000,22.3231170000 114.2296940000,22.3231880000 114.2297300000,22.3232170000 114.2301190000,22.3235010000 114.2302030000,22.3235770000 114.2300690000,22.3237330000 114.2299680000,22.3238140000 114.2298680000,22.3238890000 114.2297880000,22.3239350000 114.2297030000,22.3239710000 114.2295850000,22.3240070000 114.2294680000,22.3240280000 114.2293110000,22.3240440000 114.2291520000,22.3240500000 114.2288910000,22.3240420000 114.2282770000,22.3239650000 114.2279010000,22.3239150000 114.2274550000,22.3238850000 114.2271550000,22.3238440000 114.2267320000,22.3238720000 114.2263800000,22.3238340000 114.2262130000,22.3237850000 114.2261350000,22.3237510000 114.2260650000,22.3237070000 114.2259690000,22.3236320000 114.2257490000,22.3234170000 114.2256970000,22.3233130000 114.2256750000,22.3232280000 114.2256720000,22.3231410000 114.2256760000,22.3229940000 114.2257520000,22.3229110000 114.2258600000,22.3226720000 114.2258950000,22.3226030000 114.2258090000,22.3225670000 114.2255760000,22.3224790000 114.2253730000,22.3224380000 114.2251870000,22.3223600000 114.2249980000,22.3222420000 114.2248180000,22.3221000000 114.2246340000,22.3218730000 114.2241780000,22.3210240000 114.2241160000,22.3209080000 114.2237890000,22.3202920000 114.2236540000,22.3203580000 114.2232590000,22.3205520000 114.2230810000,22.3206450000 114.2227890000,22.3207930000 114.2225570000,22.3208900000 114.2224570000,22.3209240000 114.2224460000,22.3209280000 114.2222990000,22.3209790000 114.2220060000,22.3210700000 114.2216030000,22.3211800000 114.2214040000,22.3212770000 114.2212540000,22.3214040000 114.2211120000,22.3215450000 114.2210580000,22.3216410000 114.2209810000,22.3218030000 114.2209380000,22.3219890000 114.2209070000,22.3222750000 114.2208970000,22.3224530000 114.2208810000,22.3226970000 114.2208530000,22.3230190000 114.2208010000,22.3232100000 114.2207680000,22.3232910000 114.2207330000,22.3233720000 114.2206530000,22.3234920000 114.2205580000,22.3235930000 114.2204050000,22.3236980000 114.2202490000,22.3237450000 114.2200740000,22.3237590000 114.2199090000,22.3237410000 114.2196640000,22.3236490000 114.2195680000,22.3235840000 114.2194860000,22.3235120000 114.2194280000,22.3234450000 114.2193820000,22.3233800000 114.2193440000,22.3232890000 114.2192850000,22.3230530000 114.2192440000,22.3228110000 114.2192280000,22.3227250000 114.2191870000,22.3226380000 114.2191190000,22.3225500000 114.2190290000,22.3224620000 114.2188940000,22.3223910000 114.2187370000,22.3223420000 114.2185860000,22.3223300000 114.2184780000,22.3223530000 114.2184190000,22.3223660000 114.2183180000,22.3224100000 114.2182420000,22.3224730000 114.2180110000,22.3227650000 114.2179780000,22.3227990000 114.2179230000,22.3228570000 114.2178620000,22.3229030000 114.2177840000,22.3229280000 114.2177210000,22.3229350000 114.2176550000,22.3229280000 114.2176890000,22.3230390000 114.2177420000,22.3232130000 114.2177680000,22.3233850000 114.2177740000,22.3234890000 114.2177760000,22.3235070000 114.2177430000,22.3237960000 114.2177320000,22.3238560000 114.2177220000,22.3239030000 114.2177170000,22.3239300000 114.2177140000,22.3239440000 114.2176520000,22.3241710000 114.2176090000,22.3242930000 114.2175810000,22.3243410000 114.2175530000,22.3243910000 114.2175070000,22.3244650000 114.2172320000,22.3248840000 114.2170760000,22.3251490000 114.2169830000,22.3253410000 114.2169110000,22.3255030000 114.2168990000,22.3255330000 114.2168030000,22.3256930000 114.2166990000,22.3258010000 114.2166890000,22.3258120000 114.2165340000,22.3259020000 114.2163300000,22.3259750000 114.2160650000,22.3260650000 114.2158450000,22.3262010000 114.2156430000,22.3263310000 114.2154360000,22.3265190000 114.2152750000,22.3267290000 114.2151450000,22.3269180000 114.2150510000,22.3271210000 114.2150090000,22.3273260000 114.2149960000,22.3276020000 114.2149330000,22.3277420000 114.2149080000,22.3277360000 114.2148830000,22.3277360000 114.2148590000,22.3277430000 114.2148380000,22.3277540000 114.2148200000,22.3277710000 114.2148080000,22.3277910000 114.2148020000,22.3278100000 114.2148000000,22.3278290000 114.2148040000,22.3278490000 114.2148150000,22.3278720000 114.2148320000,22.3278920000 114.2148550000,22.3279060000 114.2148810000,22.3279140000 114.2149090000,22.3279140000 114.2149350000,22.3279080000 114.2149590000,22.3278940000 114.2149770000,22.3278760000 114.2149890000,22.3278530000 114.2150230000,22.3279010000 114.2151000000,22.3279660000 114.2152540000,22.3280910000 114.2157430000,22.3283940000 114.2158130000,22.3284470000 114.2158730000,22.3284960000 114.2159100000,22.3285740000 114.2159270000,22.3286670000 114.2159060000,22.3287500000 114.2156770000,22.3290750000 114.2156070000,22.3291190000 114.2155390000,22.3291430000 114.2154500000,22.3291590000 114.2153530000,22.3291540000 114.2152410000,22.3291130000 114.2151170000,22.3290450000 114.2148570000,22.3288720000 114.2144510000,22.3286020000 114.2140650000,22.3283790000 114.2139330000,22.3282920000 114.2138320000,22.3282920000 114.2135520000,22.3283660000 114.2134250000,22.3284560000 114.2133660000,22.3284980000 114.2132330000,22.3286060000 114.2131920000,22.3286310000 114.2130100000,22.3287430000 114.2127790000,22.3288510000 114.2125780000,22.3289040000 114.2124360000,22.3289220000 114.2122800000,22.3289250000 114.2117810000,22.3289250000 114.2116950000,22.3289380000 114.2115960000,22.3289700000 114.2115240000,22.3290090000 114.2113480000,22.3291200000 114.2111650000,22.3292780000 114.2109260000,22.3295100000 114.2107800000,22.3297750000 114.2104330000,22.3301050000 114.2102850000,22.3303220000 114.2095940000,22.3309020000 114.2094020000,22.3310460000 114.2092870000,22.3311000000 114.2090430000,22.3311870000 114.2085990000,22.3315190000 114.2085360000,22.3315610000 114.2079800000,22.3319580000 114.2076260000,22.3321740000 114.2073640000,22.3323490000 114.2070670000,22.3325740000 114.2059920000,22.3334770000 114.2055430000,22.3339420000 114.2053490000,22.3341590000 114.2052060000,22.3342850000 114.2045840000,22.3348090000 114.2042460000,22.3349920000 114.2039030000,22.3351250000 114.2034800000,22.3352090000 114.2032930000,22.3352270000 114.2030850000,22.3352320000 114.2028130000,22.3352210000 114.2024320000,22.3351620000 114.2020590000,22.3350440000 114.2019210000,22.3350010000 114.2011550000,22.3347070000 114.2005450000,22.3344730000 114.1994180000,22.3340620000 114.1984820000,22.3337320000 114.1979190000,22.3334470000 114.1976990000,22.3332830000 114.1975410000,22.3331540000 114.1974150000,22.3329960000 114.1972680000,22.3327310000 114.1971620000,22.3325330000 114.1970110000,22.3323150000 114.1969550000,22.3322550000 114.1969030000,22.3322100000 114.1967850000,22.3321220000 114.1967220000,22.3320860000 114.1965880000,22.3320380000 114.1961480000,22.3319140000 114.1959780000,22.3318570000 114.1957720000,22.3317670000 114.1956350000,22.3316390000 114.1948560000,22.3308760000 114.1947900000,22.3308060000 114.1944840000,22.3303150000 114.1939700000,22.3297920000 114.1935610000,22.3296050000 114.1925230000,22.3285870000 114.1920260000,22.3281690000 114.1918290000,22.3281020000 114.1916780000,22.3280460000 114.1914620000,22.3279620000 114.1912730000,22.3278860000 114.1909600000,22.3277570000 114.1901640000,22.3274580000 114.1898560000,22.3273410000 114.1896410000,22.3272440000 114.1894740000,22.3271670000 114.1892550000,22.3270540000 114.1889360000,22.3268790000 114.1883780000,22.3265610000 114.1882680000,22.3264990000 114.1878620000,22.3261910000 114.1869740000,22.3256620000 114.1868760000,22.3256130000 114.1858250000,22.3249790000 114.1856710000,22.3248940000 114.1855990000,22.3248580000 114.1855060000,22.3248120000 114.1838340000,22.3240350000 114.1837600000,22.3240020000 114.1823360000,22.3233350000 114.1820900000,22.3232210000 114.1815330000,22.3229680000 114.1814260000,22.3229160000 114.1806330000,22.3225870000 114.1802530000,22.3224760000 114.1793020000,22.3220480000 114.1783940000,22.3216360000 114.1781460000,22.3215170000 114.1775490000,22.3212230000 114.1773340000,22.3211060000 114.1770470000,22.3209760000 114.1767540000,22.3208570000 114.1758630000,22.3205070000 114.1755530000,22.3204260000 114.1752580000,22.3203700000 114.1746990000,22.3202530000 114.1742320000,22.3201570000 114.1740730000,22.3201280000 114.1736170000,22.3200400000 114.1732070000,22.3199770000 114.1728400000,22.3199240000 114.1726650000,22.3198990000 114.1722060000,22.3198160000 114.1718370000,22.3197540000 114.1717060000,22.3197310000 114.1716370000,22.3197180000 114.1715080000,22.3196940000 114.1710810000,22.3196140000 114.1708980000,22.3195790000 114.1706690000,22.3195360000 114.1705230000,22.3195090000 114.1703470000,22.3194760000 114.1702230000,22.3194520000 114.1701930000,22.3194470000 114.1699760000,22.3194060000 114.1698790000,22.3193870000 114.1697210000,22.3193620000 114.1695810000,22.3193390000 114.1695360000,22.3193310000 114.1694290000,22.3193120000 114.1693200000,22.3192930000 114.1692430000,22.3192790000 114.1688070000,22.3192060000 114.1687900000,22.3192030000 114.1687160000,22.3191900000 114.1685700000,22.3191660000 114.1683980000,22.3191380000 114.1681920000,22.3191040000 114.1681320000,22.3190940000 114.1680470000,22.3190780000 114.1678150000,22.3190330000 114.1677620000,22.3190220000 114.1676800000,22.3190060000 114.1675610000,22.3189840000 114.1671990000,22.3189160000 114.1669890000,22.3188770000 114.1667760000,22.3188370000 114.1665450000,22.3187940000 114.1662740000,22.3187430000 114.1662220000,22.3187350000 114.1660490000,22.3187110000 114.1654280000,22.3186910000 114.1649530000,22.3186700000 114.1646960000,22.3186640000 114.1644420000,22.3186520000 114.1642870000,22.3186450000 114.1641230000,22.3186310000 114.1639600000,22.3186090000 114.1637720000,22.3185630000 114.1636480000,22.3185360000 114.1635180000,22.3184940000 114.1634290000,22.3184570000 114.1633210000,22.3184080000 114.1631370000,22.3183250000 114.1630390000,22.3182800000 114.1629510000,22.3182060000 114.1627870000,22.3181390000 114.1624900000,22.3180800000 114.1622920000,22.3180820000 114.1621530000,22.3180450000 114.1609450000,22.3176380000 114.1606000000,22.3175150000 114.1603830000,22.3174330000 114.1598760000,22.3173460000 114.1594480000,22.3173210000 114.1581900000,22.3173120000 114.1571410000,22.3173320000 114.1570750000,22.3173130000 114.1569920000,22.3172830000 114.1569780000,22.3172490000 114.1569570000,22.3172180000 114.1569100000,22.3171760000 114.1568510000,22.3171490000 114.1567850000,22.3171400000 114.1567210000,22.3171500000 114.1566540000,22.3171840000 114.1566040000,22.3172370000 114.1565780000,22.3173040000 114.1565790000,22.3173740000 114.1566060000,22.3174400000 114.1566570000,22.3174920000 114.1566990000,22.3175160000 114.1567460000,22.3175300000 114.1567950000,22.3175340000 114.1568430000,22.3175270000 114.1568900000,22.3175100000 114.1569300000,22.3174830000 114.1570690000,22.3174430000 114.1571390000,22.3174440000 114.1579100000,22.3174380000 114.1580250000,22.3174740000 114.1582530000,22.3174870000 114.1585070000,22.3175030000 114.1585400000,22.3178190000 114.1585330000,22.3180210000 114.1584890000,22.3181710000 114.1581960000,22.3187440000</coordinates>
                </LineString>
                <ExtendedData>
                    <Data name="length">
                        <value>22557.0037099675</value>
                    </Data>
                    <Data name="duration">
                        <value>00:55:34</value>
                    </Data>
                </ExtendedData>
            </Placemark>
        </Document>
    </Document>
</kml>