<?xml version="1.0" encoding="UTF-8"?>
<kml xmlns="http://www.opengis.net/kml/2.2" xmlns:gx="http://www.google.com/kml/ext/2.2">
    <Document>
        <name>Route</name>
        <Folder>
            <name>Route Request</name>
            <Placemark>
                <address>Block 10, Tak Fung Street, Hung Hom, Kowloon City District, Kowloon, Hong Kong, KINGSFIELD MANSION LEVEL B, China</address>
                <Point>
                    <coordinates>114.1906001324,22.3019421453</coordinates>
                </Point>
                <ExtendedData>
                    <Data name="road">
                        <value>Tak Fung Street</value>
                    </Data>
                    <Data name="country_code">
                        <value>cn</value>
                    </Data>
                    <Data name="postcode">
                        <value>KINGSFIELD MANSION LEVEL B</value>
                    </Data>
                    <Data name="county">
                        <value>Kowloon City District</value>
                    </Data>
                    <Data name="region">
                        <value>Kowloon</value>
                    </Data>
                    <Data name="building">
                        <value>Block 10</value>
                    </Data>
                    <Data name="state">
                        <value>Hong Kong</value>
                    </Data>
                    <Data name="country">
                        <value>China</value>
                    </Data>
                    <Data name="suburb">
                        <value>Hung Hom</value>
                    </Data>
                </ExtendedData>
            </Placemark>
            <Placemark>
                <address>Club House, Yan Yung Street, Hung Hom, Kowloon City District, Kowloon, Hong Kong, KIL 3348, PRC</address>
                <Point>
                    <coordinates>114.1871303611,22.3038746642</coordinates>
                </Point>
                <ExtendedData>
                    <Data name="road">
                        <value>Yan Yung Street</value>
                    </Data>
                    <Data name="country_code">
                        <value>cn</value>
                    </Data>
                    <Data name="postcode">
                        <value>KIL 3348</value>
                    </Data>
                    <Data name="county">
                        <value>Kowloon City District</value>
                    </Data>
                    <Data name="region">
                        <value>Kowloon</value>
                    </Data>
                    <Data name="building">
                        <value>Club House</value>
                    </Data>
                    <Data name="state">
                        <value>Hong Kong</value>
                    </Data>
                    <Data name="country">
                        <value>PRC</value>
                    </Data>
                    <Data name="suburb">
                        <value>Hung Hom</value>
                    </Data>
                </ExtendedData>
            </Placemark>
            <Placemark>
                <address>Hung Hom Fire Station, 30, Fat Kwong Street, Hung Hom, Kowloon City District, Kowloon, Hong Kong, KIL 3348, PRC</address>
                <Point>
                    <coordinates>114.1874683481,22.3095288092</coordinates>
                </Point>
                <ExtendedData>
                    <Data name="fire_station">
                        <value>Hung Hom Fire Station</value>
                    </Data>
                    <Data name="road">
                        <value>Fat Kwong Street</value>
                    </Data>
                    <Data name="house_number">
                        <value>30</value>
                    </Data>
                    <Data name="country_code">
                        <value>cn</value>
                    </Data>
                    <Data name="postcode">
                        <value>KIL 3348</value>
                    </Data>
                    <Data name="county">
                        <value>Kowloon City District</value>
                    </Data>
                    <Data name="region">
                        <value>Kowloon</value>
                    </Data>
                    <Data name="state">
                        <value>Hong Kong</value>
                    </Data>
                    <Data name="country">
                        <value>PRC</value>
                    </Data>
                    <Data name="suburb">
                        <value>Hung Hom</value>
                    </Data>
                </ExtendedData>
            </Placemark>
            <Placemark>
                <address>7, Ma Tau Wai Road, To Kwa Wan, Kowloon City District, Kowloon, Hong Kong, KIL 3348, PRC</address>
                <Point>
                    <coordinates>114.1874226106,22.3171654937</coordinates>
                </Point>
                <ExtendedData>
                    <Data name="road">
                        <value>Ma Tau Wai Road</value>
                    </Data>
                    <Data name="post_box">
                        <value>7</value>
                    </Data>
                    <Data name="country_code">
                        <value>cn</value>
                    </Data>
                    <Data name="postcode">
                        <value>KIL 3348</value>
                    </Data>
                    <Data name="county">
                        <value>Kowloon City District</value>
                    </Data>
                    <Data name="region">
                        <value>Kowloon</value>
                    </Data>
                    <Data name="state">
                        <value>Hong Kong</value>
                    </Data>
                    <Data name="country">
                        <value>PRC</value>
                    </Data>
                    <Data name="suburb">
                        <value>To Kwa Wan</value>
                    </Data>
                </ExtendedData>
            </Placemark>
            <Placemark>
                <address>Tak Hong House, Pik Wan Road, Tak Tin Estate, Yau Tong, On Li San Tsuen, Kwun Tong District, Kowloon, Hong Kong, HONG KONG, PRC</address>
                <Point>
                    <coordinates>114.2396322089,22.3074674102</coordinates>
                </Point>
                <ExtendedData>
                    <Data name="road">
                        <value>Pik Wan Road</value>
                    </Data>
                    <Data name="country_code">
                        <value>cn</value>
                    </Data>
                    <Data name="postcode">
                        <value>HONG KONG</value>
                    </Data>
                    <Data name="county">
                        <value>Kwun Tong District</value>
                    </Data>
                    <Data name="bus_stop">
                        <value>Tak Hong House</value>
                    </Data>
                    <Data name="hamlet">
                        <value>On Li San Tsuen</value>
                    </Data>
                    <Data name="region">
                        <value>Kowloon</value>
                    </Data>
                    <Data name="state">
                        <value>Hong Kong</value>
                    </Data>
                    <Data name="residential">
                        <value>Tak Tin Estate</value>
                    </Data>
                    <Data name="country">
                        <value>PRC</value>
                    </Data>
                    <Data name="suburb">
                        <value>Yau Tong</value>
                    </Data>
                </ExtendedData>
            </Placemark>
            <Placemark>
                <address>Lei Yue Mun Municipal Services Building, Lei Yue Mun Praya Road, Yau Tong, On Li San Tsuen, Kwun Tong District, Kowloon, Hong Kong, SIL 739, PRC</address>
                <Point>
                    <coordinates>114.2385249491,22.2923799776</coordinates>
                </Point>
                <ExtendedData>
                    <Data name="road">
                        <value>Lei Yue Mun Praya Road</value>
                    </Data>
                    <Data name="country_code">
                        <value>cn</value>
                    </Data>
                    <Data name="postcode">
                        <value>SIL 739</value>
                    </Data>
                    <Data name="county">
                        <value>Kwun Tong District</value>
                    </Data>
                    <Data name="hamlet">
                        <value>On Li San Tsuen</value>
                    </Data>
                    <Data name="region">
                        <value>Kowloon</value>
                    </Data>
                    <Data name="building">
                        <value>Lei Yue Mun Municipal Services Building</value>
                    </Data>
                    <Data name="state">
                        <value>Hong Kong</value>
                    </Data>
                    <Data name="country">
                        <value>PRC</value>
                    </Data>
                    <Data name="suburb">
                        <value>Yau Tong</value>
                    </Data>
                </ExtendedData>
            </Placemark>
            <Placemark>
                <address>Tak Lung House, Pik Wan Road, Tak Tin Estate, Yau Tong, On Li San Tsuen, Kwun Tong District, Kowloon, Hong Kong, HONG KONG, PRC</address>
                <Point>
                    <coordinates>114.2389234091,22.3065385450</coordinates>
                </Point>
                <ExtendedData>
                    <Data name="road">
                        <value>Pik Wan Road</value>
                    </Data>
                    <Data name="country_code">
                        <value>cn</value>
                    </Data>
                    <Data name="postcode">
                        <value>HONG KONG</value>
                    </Data>
                    <Data name="county">
                        <value>Kwun Tong District</value>
                    </Data>
                    <Data name="bus_stop">
                        <value>Tak Lung House</value>
                    </Data>
                    <Data name="hamlet">
                        <value>On Li San Tsuen</value>
                    </Data>
                    <Data name="region">
                        <value>Kowloon</value>
                    </Data>
                    <Data name="state">
                        <value>Hong Kong</value>
                    </Data>
                    <Data name="residential">
                        <value>Tak Tin Estate</value>
                    </Data>
                    <Data name="country">
                        <value>PRC</value>
                    </Data>
                    <Data name="suburb">
                        <value>Yau Tong</value>
                    </Data>
                </ExtendedData>
            </Placemark>
            <Placemark>
                <address>Kowloon City Ferry, San Ma Tau Street, Ma Tau Kok, Kowloon City District, Kowloon, Hong Kong, KIL 3348, China</address>
                <Point>
                    <coordinates>114.1933116245,22.3183509950</coordinates>
                </Point>
                <ExtendedData>
                    <Data name="road">
                        <value>San Ma Tau Street</value>
                    </Data>
                    <Data name="country_code">
                        <value>cn</value>
                    </Data>
                    <Data name="bus_station">
                        <value>Kowloon City Ferry</value>
                    </Data>
                    <Data name="postcode">
                        <value>KIL 3348</value>
                    </Data>
                    <Data name="county">
                        <value>Kowloon City District</value>
                    </Data>
                    <Data name="region">
                        <value>Kowloon</value>
                    </Data>
                    <Data name="state">
                        <value>Hong Kong</value>
                    </Data>
                    <Data name="country">
                        <value>China</value>
                    </Data>
                    <Data name="suburb">
                        <value>Ma Tau Kok</value>
                    </Data>
                </ExtendedData>
            </Placemark>
            <Placemark>
                <address>Sung Lai Building, 36, Sung Kit Street, To Kwa Wan, Kowloon City District, Kowloon, Hong Kong, KIL 3348, PRC</address>
                <Point>
                    <coordinates>114.1877892604,22.3111655105</coordinates>
                </Point>
                <ExtendedData>
                    <Data name="house_number">
                        <value>36</value>
                    </Data>
                    <Data name="country_code">
                        <value>cn</value>
                    </Data>
                    <Data name="postcode">
                        <value>KIL 3348</value>
                    </Data>
                    <Data name="county">
                        <value>Kowloon City District</value>
                    </Data>
                    <Data name="region">
                        <value>Kowloon</value>
                    </Data>
                    <Data name="building">
                        <value>Sung Lai Building</value>
                    </Data>
                    <Data name="state">
                        <value>Hong Kong</value>
                    </Data>
                    <Data name="country">
                        <value>PRC</value>
                    </Data>
                    <Data name="footway">
                        <value>Sung Kit Street</value>
                    </Data>
                    <Data name="suburb">
                        <value>To Kwa Wan</value>
                    </Data>
                </ExtendedData>
            </Placemark>
            <Placemark>
                <address>Block 10, Tak Fung Street, Hung Hom, Kowloon City District, Kowloon, Hong Kong, KINGSFIELD MANSION LEVEL B, PRC</address>
                <Point>
                    <coordinates>114.1906333759,22.3019424160</coordinates>
                </Point>
                <ExtendedData>
                    <Data name="road">
                        <value>Tak Fung Street</value>
                    </Data>
                    <Data name="country_code">
                        <value>cn</value>
                    </Data>
                    <Data name="postcode">
                        <value>KINGSFIELD MANSION LEVEL B</value>
                    </Data>
                    <Data name="county">
                        <value>Kowloon City District</value>
                    </Data>
                    <Data name="region">
                        <value>Kowloon</value>
                    </Data>
                    <Data name="building">
                        <value>Block 10</value>
                    </Data>
                    <Data name="state">
                        <value>Hong Kong</value>
                    </Data>
                    <Data name="country">
                        <value>PRC</value>
                    </Data>
                    <Data name="suburb">
                        <value>Hung Hom</value>
                    </Data>
                </ExtendedData>
            </Placemark>
        </Folder>
        <Document>
            <name>29.6 km; 01:01 h (OSRM)</name>
            <Placemark>
                <name>Route</name>
                <LineString>
                    <coordinates>114.1905180000,22.3019030000 114.1906520000,22.3016630000 114.1906090000,22.3015600000 114.1904610000,22.3014910000 114.1903960000,22.3014880000 114.1903140000,22.3014870000 114.1902710000,22.3015560000 114.1902310000,22.3016280000 114.1900300000,22.3020120000 114.1899270000,22.3022420000 114.1898700000,22.3022780000 114.1898040000,22.3023010000 114.1897140000,22.3023010000 114.1895990000,22.3022670000 114.1894560000,22.3021580000 114.1893080000,22.3020690000 114.1891550000,22.3020480000 114.1890080000,22.3021020000 114.1888290000,22.3022310000 114.1887210000,22.3022590000 114.1886070000,22.3022700000 114.1886270000,22.3023570000 114.1886390000,22.3024750000 114.1886380000,22.3025700000 114.1886180000,22.3026490000 114.1885900000,22.3027410000 114.1885590000,22.3028090000 114.1885390000,22.3028400000 114.1883880000,22.3030490000 114.1876200000,22.3035540000 114.1872170000,22.3038220000 114.1871350000,22.3038800000 114.1863290000,22.3044520000 114.1859770000,22.3046870000 114.1858710000,22.3047700000 114.1856810000,22.3049040000 114.1855270000,22.3050070000 114.1851290000,22.3052130000 114.1848340000,22.3053650000 114.1843940000,22.3055710000 114.1841680000,22.3056840000 114.1840180000,22.3054700000 114.1837410000,22.3050750000 114.1836540000,22.3049990000 114.1834460000,22.3049300000 114.1832650000,22.3048950000 114.1831020000,22.3049210000 114.1828810000,22.3050530000 114.1828360000,22.3051660000 114.1828460000,22.3052870000 114.1828890000,22.3055180000 114.1829600000,22.3055910000 114.1830730000,22.3056910000 114.1832870000,22.3058270000 114.1833720000,22.3058910000 114.1835660000,22.3060350000 114.1838310000,22.3062700000 114.1839190000,22.3063670000 114.1842310000,22.3067900000 114.1842590000,22.3068330000 114.1842910000,22.3068780000 114.1843940000,22.3070210000 114.1844580000,22.3071100000 114.1847210000,22.3074740000 114.1850190000,22.3078840000 114.1850900000,22.3078410000 114.1854620000,22.3076090000 114.1858770000,22.3073350000 114.1859030000,22.3073180000 114.1864610000,22.3069640000 114.1865830000,22.3069410000 114.1866170000,22.3069410000 114.1866520000,22.3069470000 114.1866760000,22.3069610000 114.1867020000,22.3069850000 114.1868760000,22.3072000000 114.1874440000,22.3080410000 114.1875050000,22.3081370000 114.1875330000,22.3083070000 114.1875510000,22.3085740000 114.1875630000,22.3088220000 114.1875580000,22.3089320000 114.1875700000,22.3095270000 114.1875760000,22.3098030000 114.1876020000,22.3106180000 114.1875950000,22.3111360000 114.1876200000,22.3122700000 114.1875270000,22.3122520000 114.1873560000,22.3122200000 114.1872930000,22.3121540000 114.1865650000,22.3125200000 114.1864030000,22.3125980000 114.1868790000,22.3133080000 114.1870720000,22.3136520000 114.1872500000,22.3139890000 114.1873530000,22.3142530000 114.1873740000,22.3143560000 114.1874650000,22.3147430000 114.1874970000,22.3149690000 114.1875400000,22.3154840000 114.1875190000,22.3155760000 114.1875080000,22.3158580000 114.1875200000,22.3163190000 114.1875200000,22.3171650000 114.1875200000,22.3179850000 114.1875110000,22.3180370000 114.1875050000,22.3190750000 114.1875150000,22.3198620000 114.1875130000,22.3200250000 114.1875120000,22.3200670000 114.1875030000,22.3210300000 114.1875030000,22.3211020000 114.1875000000,22.3216230000 114.1874970000,22.3220370000 114.1875080000,22.3221640000 114.1878080000,22.3228100000 114.1880420000,22.3232280000 114.1886390000,22.3244720000 114.1887340000,22.3246910000 114.1890270000,22.3252690000 114.1892590000,22.3256390000 114.1896650000,22.3264780000 114.1897730000,22.3266880000 114.1898690000,22.3268440000 114.1899450000,22.3269380000 114.1900540000,22.3270680000 114.1901550000,22.3271660000 114.1902930000,22.3272950000 114.1904490000,22.3274110000 114.1906160000,22.3275050000 114.1911260000,22.3277570000 114.1912990000,22.3278440000 114.1914510000,22.3279360000 114.1915980000,22.3280300000 114.1917400000,22.3281340000 114.1918670000,22.3282270000 114.1919750000,22.3283100000 114.1921230000,22.3284260000 114.1928640000,22.3291010000 114.1947640000,22.3309320000 114.1955510000,22.3317000000 114.1957490000,22.3318960000 114.1958570000,22.3320510000 114.1960530000,22.3322810000 114.1962040000,22.3324470000 114.1963680000,22.3326030000 114.1965550000,22.3327550000 114.1967320000,22.3328770000 114.1969100000,22.3330030000 114.1971320000,22.3331550000 114.1974040000,22.3333290000 114.1976910000,22.3335000000 114.1980050000,22.3336720000 114.1982780000,22.3338170000 114.1987280000,22.3339780000 114.1994520000,22.3342210000 114.2002410000,22.3345180000 114.2013210000,22.3349070000 114.2019180000,22.3351290000 114.2020820000,22.3351900000 114.2023430000,22.3352710000 114.2025260000,22.3353210000 114.2027310000,22.3353610000 114.2029400000,22.3353860000 114.2031080000,22.3353950000 114.2035390000,22.3353970000 114.2036210000,22.3353840000 114.2038670000,22.3352600000 114.2039840000,22.3352090000 114.2043380000,22.3350570000 114.2046190000,22.3348970000 114.2049550000,22.3346460000 114.2053490000,22.3343260000 114.2055030000,22.3342020000 114.2059020000,22.3338570000 114.2060240000,22.3337540000 114.2061100000,22.3336100000 114.2061850000,22.3334380000 114.2062070000,22.3332330000 114.2062380000,22.3329600000 114.2061460000,22.3326540000 114.2060380000,22.3324410000 114.2059370000,22.3322710000 114.2058000000,22.3320910000 114.2055590000,22.3318580000 114.2053980000,22.3316620000 114.2052720000,22.3314260000 114.2052040000,22.3312100000 114.2051190000,22.3308610000 114.2050880000,22.3298020000 114.2051000000,22.3295330000 114.2051350000,22.3293270000 114.2052090000,22.3289700000 114.2052630000,22.3287390000 114.2053080000,22.3284440000 114.2053110000,22.3282570000 114.2052980000,22.3280500000 114.2052590000,22.3278390000 114.2051810000,22.3276170000 114.2050770000,22.3273830000 114.2047580000,22.3268260000 114.2046890000,22.3267030000 114.2046160000,22.3265220000 114.2045670000,22.3263810000 114.2045440000,22.3262680000 114.2043350000,22.3252700000 114.2043050000,22.3250260000 114.2042960000,22.3248660000 114.2043020000,22.3247010000 114.2043210000,22.3244120000 114.2044120000,22.3237360000 114.2044900000,22.3231760000 114.2045590000,22.3225480000 114.2046040000,22.3223500000 114.2046700000,22.3221590000 114.2047860000,22.3219400000 114.2049050000,22.3217510000 114.2050760000,22.3215480000 114.2052900000,22.3213410000 114.2061850000,22.3205420000 114.2063390000,22.3203870000 114.2065000000,22.3202200000 114.2067740000,22.3198670000 114.2081000000,22.3183510000 114.2082600000,22.3181770000 114.2084360000,22.3180280000 114.2086810000,22.3178020000 114.2089020000,22.3176460000 114.2091070000,22.3175270000 114.2093220000,22.3174180000 114.2095400000,22.3173270000 114.2097620000,22.3172540000 114.2100330000,22.3171920000 114.2102760000,22.3171420000 114.2105500000,22.3171210000 114.2114570000,22.3170970000 114.2117560000,22.3170730000 114.2119880000,22.3170340000 114.2122850000,22.3169500000 114.2124730000,22.3168770000 114.2127070000,22.3167740000 114.2129200000,22.3166520000 114.2131030000,22.3165470000 114.2132790000,22.3163970000 114.2134740000,22.3162110000 114.2138690000,22.3158060000 114.2142290000,22.3154490000 114.2145580000,22.3151140000 114.2148470000,22.3148200000 114.2163560000,22.3132420000 114.2173930000,22.3121960000 114.2177430000,22.3118360000 114.2181890000,22.3113600000 114.2187700000,22.3106940000 114.2194920000,22.3097790000 114.2202700000,22.3087720000 114.2210710000,22.3077190000 114.2215620000,22.3070150000 114.2216430000,22.3069010000 114.2218020000,22.3066840000 114.2219420000,22.3065490000 114.2221130000,22.3064120000 114.2222910000,22.3063130000 114.2224020000,22.3062630000 114.2225810000,22.3061920000 114.2227370000,22.3061450000 114.2228630000,22.3061150000 114.2230330000,22.3060980000 114.2231470000,22.3060950000 114.2233980000,22.3061030000 114.2234760000,22.3061140000 114.2237290000,22.3061530000 114.2239750000,22.3062510000 114.2242370000,22.3063660000 114.2246560000,22.3066730000 114.2261910000,22.3078620000 114.2264960000,22.3080600000 114.2267550000,22.3082010000 114.2271910000,22.3083820000 114.2277470000,22.3085360000 114.2285990000,22.3087580000 114.2288100000,22.3088060000 114.2290690000,22.3088570000 114.2293260000,22.3089500000 114.2296230000,22.3090580000 114.2298580000,22.3091610000 114.2299500000,22.3092140000 114.2300300000,22.3092630000 114.2301010000,22.3093250000 114.2302800000,22.3095410000 114.2305130000,22.3098580000 114.2308770000,22.3104050000 114.2309700000,22.3105340000 114.2311020000,22.3106980000 114.2312620000,22.3108590000 114.2314500000,22.3110120000 114.2316710000,22.3111730000 114.2318810000,22.3112950000 114.2321580000,22.3114160000 114.2324370000,22.3115200000 114.2327180000,22.3116070000 114.2330890000,22.3117130000 114.2336110000,22.3118310000 114.2338830000,22.3119190000 114.2344900000,22.3121040000 114.2349170000,22.3122580000 114.2354360000,22.3124650000 114.2367560000,22.3130380000 114.2369630000,22.3131340000 114.2374850000,22.3133750000 114.2378950000,22.3135750000 114.2384370000,22.3138400000 114.2387190000,22.3140380000 114.2390200000,22.3142720000 114.2394200000,22.3146890000 114.2395730000,22.3148530000 114.2396740000,22.3149760000 114.2397890000,22.3151480000 114.2399200000,22.3153720000 114.2399630000,22.3154550000 114.2400030000,22.3155470000 114.2400310000,22.3156240000 114.2400440000,22.3157040000 114.2400450000,22.3157750000 114.2400230000,22.3158550000 114.2399820000,22.3159210000 114.2399210000,22.3159760000 114.2398480000,22.3160190000 114.2397640000,22.3160460000 114.2396790000,22.3160550000 114.2396110000,22.3160480000 114.2395470000,22.3160260000 114.2394950000,22.3159870000 114.2394630000,22.3159460000 114.2394370000,22.3158880000 114.2394390000,22.3158240000 114.2394520000,22.3157710000 114.2394830000,22.3157150000 114.2395340000,22.3156480000 114.2396520000,22.3154990000 114.2398040000,22.3153140000 114.2400870000,22.3149930000 114.2401810000,22.3148990000 114.2402790000,22.3147830000 114.2404900000,22.3145320000 114.2405910000,22.3143680000 114.2406300000,22.3142220000 114.2406410000,22.3140640000 114.2406200000,22.3138770000 114.2405940000,22.3137230000 114.2405410000,22.3136120000 114.2404660000,22.3135040000 114.2403300000,22.3133900000 114.2400500000,22.3132400000 114.2397820000,22.3131100000 114.2395010000,22.3129770000 114.2393800000,22.3129150000 114.2392300000,22.3128200000 114.2387100000,22.3124330000 114.2386000000,22.3123500000 114.2385180000,22.3122980000 114.2384350000,22.3122510000 114.2382800000,22.3121780000 114.2378980000,22.3120280000 114.2379020000,22.3120080000 114.2379000000,22.3119870000 114.2378900000,22.3119690000 114.2378730000,22.3119550000 114.2379580000,22.3117650000 114.2381020000,22.3114410000 114.2383150000,22.3109880000 114.2383390000,22.3109270000 114.2383960000,22.3108060000 114.2384830000,22.3106030000 114.2385320000,22.3104780000 114.2386430000,22.3102070000 114.2387060000,22.3100640000 114.2389740000,22.3094420000 114.2390050000,22.3093570000 114.2390490000,22.3092570000 114.2391430000,22.3090150000 114.2392190000,22.3087900000 114.2392900000,22.3085290000 114.2393040000,22.3084400000 114.2393380000,22.3081610000 114.2395630000,22.3081770000 114.2395800000,22.3080750000 114.2396200000,22.3076960000 114.2396250000,22.3074670000 114.2396270000,22.3073970000 114.2394650000,22.3069400000 114.2392500000,22.3069080000 114.2391850000,22.3066900000 114.2391190000,22.3065590000 114.2390230000,22.3063540000 114.2386790000,22.3056740000 114.2384530000,22.3051940000 114.2383810000,22.3050260000 114.2383670000,22.3049870000 114.2383480000,22.3049390000 114.2383280000,22.3048700000 114.2383050000,22.3047850000 114.2382870000,22.3046950000 114.2382760000,22.3046100000 114.2382660000,22.3045070000 114.2382620000,22.3044170000 114.2382610000,22.3043130000 114.2382690000,22.3042110000 114.2382870000,22.3041020000 114.2383000000,22.3040300000 114.2383220000,22.3039390000 114.2383810000,22.3037820000 114.2385050000,22.3035280000 114.2385160000,22.3035070000 114.2385980000,22.3033520000 114.2386130000,22.3033230000 114.2387710000,22.3031130000 114.2388790000,22.3030040000 114.2389940000,22.3029090000 114.2391510000,22.3027930000 114.2392870000,22.3027290000 114.2395150000,22.3026360000 114.2396780000,22.3025690000 114.2400620000,22.3024530000 114.2403410000,22.3023690000 114.2406680000,22.3022570000 114.2407510000,22.3022290000 114.2409630000,22.3021210000 114.2412270000,22.3019470000 114.2414060000,22.3017670000 114.2415060000,22.3016270000 114.2415970000,22.3014440000 114.2416850000,22.3012630000 114.2417380000,22.3010420000 114.2417850000,22.3007960000 114.2418080000,22.3006300000 114.2418190000,22.3004610000 114.2418230000,22.3003230000 114.2417770000,22.2999780000 114.2417000000,22.2997770000 114.2415770000,22.2995600000 114.2407100000,22.2983480000 114.2405970000,22.2981850000 114.2405690000,22.2981440000 114.2406190000,22.2980420000 114.2406560000,22.2979860000 114.2407940000,22.2979070000 114.2409540000,22.2979420000 114.2410290000,22.2979570000 114.2411250000,22.2979650000 114.2412370000,22.2979680000 114.2414060000,22.2979590000 114.2415180000,22.2979470000 114.2419430000,22.2978710000 114.2421250000,22.2977950000 114.2422450000,22.2976900000 114.2423270000,22.2975520000 114.2423570000,22.2974310000 114.2423680000,22.2972750000 114.2423440000,22.2971730000 114.2422930000,22.2970650000 114.2421500000,22.2968680000 114.2420270000,22.2967280000 114.2419510000,22.2966440000 114.2418510000,22.2965310000 114.2417210000,22.2963710000 114.2416280000,22.2962620000 114.2409950000,22.2954990000 114.2408600000,22.2953480000 114.2407700000,22.2952900000 114.2406560000,22.2952530000 114.2405410000,22.2952480000 114.2404090000,22.2952570000 114.2402690000,22.2952940000 114.2401530000,22.2953710000 114.2401310000,22.2953380000 114.2400990000,22.2953130000 114.2400600000,22.2952990000 114.2400180000,22.2952970000 114.2399770000,22.2953080000 114.2399640000,22.2953170000 114.2398640000,22.2953040000 114.2397490000,22.2952960000 114.2396120000,22.2952990000 114.2395360000,22.2953030000 114.2394860000,22.2952830000 114.2394360000,22.2952520000 114.2394000000,22.2952190000 114.2393690000,22.2951580000 114.2393600000,22.2951180000 114.2393120000,22.2948800000 114.2392210000,22.2944600000 114.2392120000,22.2944190000 114.2391550000,22.2942830000 114.2391320000,22.2942610000 114.2390340000,22.2941660000 114.2388170000,22.2940640000 114.2387430000,22.2940270000 114.2382630000,22.2937830000 114.2381470000,22.2936820000 114.2383810000,22.2932250000 114.2383960000,22.2931630000 114.2383920000,22.2931180000 114.2383830000,22.2930790000 114.2383480000,22.2930260000 114.2381190000,22.2928040000 114.2381010000,22.2927050000 114.2381210000,22.2926600000 114.2384410000,22.2923420000 114.2384980000,22.2923200000 114.2385560000,22.2922970000 114.2386780000,22.2923990000 114.2387610000,22.2923120000 114.2386780000,22.2923990000 114.2385560000,22.2922970000 114.2384640000,22.2922390000 114.2383950000,22.2922300000 114.2383250000,22.2922510000 114.2379130000,22.2926340000 114.2381190000,22.2928040000 114.2383480000,22.2930260000 114.2383830000,22.2930790000 114.2383920000,22.2931180000 114.2383960000,22.2931630000 114.2383810000,22.2932250000 114.2381470000,22.2936820000 114.2380960000,22.2937730000 114.2379590000,22.2940810000 114.2378820000,22.2942390000 114.2378480000,22.2943550000 114.2378470000,22.2944480000 114.2378580000,22.2945590000 114.2380050000,22.2951140000 114.2381020000,22.2954910000 114.2381210000,22.2955820000 114.2382240000,22.2955600000 114.2385330000,22.2954960000 114.2386370000,22.2954750000 114.2387020000,22.2954630000 114.2392690000,22.2953590000 114.2394760000,22.2953560000 114.2395890000,22.2953590000 114.2397220000,22.2953750000 114.2398140000,22.2954070000 114.2399150000,22.2954620000 114.2399330000,22.2954900000 114.2399580000,22.2955120000 114.2399930000,22.2955290000 114.2400330000,22.2955350000 114.2400720000,22.2955290000 114.2401080000,22.2955130000 114.2401370000,22.2954870000 114.2401530000,22.2954610000 114.2401610000,22.2954310000 114.2401620000,22.2954010000 114.2401530000,22.2953710000 114.2402690000,22.2952940000 114.2404090000,22.2952570000 114.2405410000,22.2952480000 114.2406560000,22.2952530000 114.2407700000,22.2952900000 114.2408600000,22.2953480000 114.2409950000,22.2954990000 114.2416280000,22.2962620000 114.2417210000,22.2963710000 114.2418510000,22.2965310000 114.2419510000,22.2966440000 114.2420270000,22.2967280000 114.2421500000,22.2968680000 114.2422930000,22.2970650000 114.2423440000,22.2971730000 114.2423680000,22.2972750000 114.2423570000,22.2974310000 114.2423270000,22.2975520000 114.2422450000,22.2976900000 114.2421250000,22.2977950000 114.2419430000,22.2978710000 114.2415180000,22.2979470000 114.2414060000,22.2979590000 114.2412370000,22.2979680000 114.2411250000,22.2979650000 114.2410290000,22.2979570000 114.2409540000,22.2979420000 114.2407940000,22.2979070000 114.2406450000,22.2978910000 114.2405800000,22.2979040000 114.2405210000,22.2979270000 114.2404400000,22.2979900000 114.2405690000,22.2981440000 114.2405970000,22.2981850000 114.2407100000,22.2983480000 114.2415770000,22.2995600000 114.2417000000,22.2997770000 114.2417770000,22.2999780000 114.2418230000,22.3003230000 114.2418190000,22.3004610000 114.2418080000,22.3006300000 114.2417850000,22.3007960000 114.2417380000,22.3010420000 114.2416850000,22.3012630000 114.2415970000,22.3014440000 114.2415060000,22.3016270000 114.2414060000,22.3017670000 114.2412270000,22.3019470000 114.2409630000,22.3021210000 114.2407510000,22.3022290000 114.2406680000,22.3022570000 114.2403410000,22.3023690000 114.2400620000,22.3024530000 114.2396780000,22.3025690000 114.2395150000,22.3026360000 114.2392870000,22.3027290000 114.2391510000,22.3027930000 114.2389940000,22.3029090000 114.2388790000,22.3030040000 114.2387710000,22.3031130000 114.2386130000,22.3033230000 114.2385980000,22.3033520000 114.2385160000,22.3035070000 114.2385050000,22.3035280000 114.2383810000,22.3037820000 114.2383220000,22.3039390000 114.2383000000,22.3040300000 114.2382870000,22.3041020000 114.2382690000,22.3042110000 114.2382610000,22.3043130000 114.2382620000,22.3044170000 114.2382660000,22.3045070000 114.2382760000,22.3046100000 114.2382870000,22.3046950000 114.2383050000,22.3047850000 114.2383280000,22.3048700000 114.2383480000,22.3049390000 114.2383670000,22.3049870000 114.2383810000,22.3050260000 114.2384530000,22.3051940000 114.2386790000,22.3056740000 114.2390230000,22.3063540000 114.2389180000,22.3063980000 114.2389180000,22.3063980000 114.2390230000,22.3063540000 114.2391190000,22.3065590000 114.2391850000,22.3066900000 114.2392500000,22.3069080000 114.2392890000,22.3071030000 114.2393110000,22.3072610000 114.2393490000,22.3076170000 114.2393610000,22.3078000000 114.2393540000,22.3080220000 114.2393380000,22.3081610000 114.2393040000,22.3084400000 114.2392900000,22.3085290000 114.2392190000,22.3087900000 114.2391430000,22.3090150000 114.2390490000,22.3092570000 114.2390050000,22.3093570000 114.2389740000,22.3094420000 114.2387060000,22.3100640000 114.2386430000,22.3102070000 114.2385320000,22.3104780000 114.2384830000,22.3106030000 114.2383960000,22.3108060000 114.2383390000,22.3109270000 114.2383150000,22.3109880000 114.2381020000,22.3114410000 114.2379580000,22.3117650000 114.2378730000,22.3119550000 114.2378440000,22.3119450000 114.2378140000,22.3119480000 114.2377880000,22.3119650000 114.2377740000,22.3119900000 114.2377730000,22.3120190000 114.2377850000,22.3120420000 114.2378060000,22.3120580000 114.2378320000,22.3120650000 114.2378590000,22.3120620000 114.2378820000,22.3120490000 114.2378980000,22.3120280000 114.2382800000,22.3121780000 114.2384350000,22.3122510000 114.2385180000,22.3122980000 114.2386000000,22.3123500000 114.2387100000,22.3124330000 114.2392300000,22.3128200000 114.2393800000,22.3129150000 114.2395010000,22.3129770000 114.2397820000,22.3131100000 114.2400500000,22.3132400000 114.2403300000,22.3133900000 114.2404660000,22.3135040000 114.2405410000,22.3136120000 114.2405940000,22.3137230000 114.2406200000,22.3138770000 114.2406410000,22.3140640000 114.2406300000,22.3142220000 114.2405910000,22.3143680000 114.2404900000,22.3145320000 114.2402790000,22.3147830000 114.2401810000,22.3148990000 114.2400420000,22.3147880000 114.2395430000,22.3143810000 114.2392620000,22.3141860000 114.2390270000,22.3140430000 114.2387130000,22.3138600000 114.2385500000,22.3137530000 114.2382780000,22.3135990000 114.2378940000,22.3134200000 114.2375240000,22.3132570000 114.2368820000,22.3129700000 114.2365910000,22.3128370000 114.2361920000,22.3126560000 114.2358190000,22.3124960000 114.2355560000,22.3123870000 114.2354250000,22.3123320000 114.2351180000,22.3122130000 114.2349080000,22.3121320000 114.2344030000,22.3119370000 114.2339150000,22.3117920000 114.2334570000,22.3116590000 114.2331360000,22.3115510000 114.2328230000,22.3114620000 114.2325570000,22.3113770000 114.2322940000,22.3112790000 114.2320000000,22.3111450000 114.2317880000,22.3110270000 114.2315570000,22.3108190000 114.2315090000,22.3107690000 114.2314410000,22.3106970000 114.2313240000,22.3105870000 114.2311360000,22.3103790000 114.2309710000,22.3101630000 114.2308100000,22.3099350000 114.2306370000,22.3096750000 114.2304750000,22.3093690000 114.2303910000,22.3092760000 114.2302890000,22.3091620000 114.2301760000,22.3090420000 114.2300170000,22.3089260000 114.2298730000,22.3088180000 114.2297150000,22.3087490000 114.2294750000,22.3086780000 114.2291470000,22.3086000000 114.2285190000,22.3084790000 114.2280480000,22.3083970000 114.2278080000,22.3083690000 114.2276600000,22.3083350000 114.2275040000,22.3083120000 114.2273240000,22.3083090000 114.2270840000,22.3082100000 114.2267940000,22.3080810000 114.2265630000,22.3079480000 114.2265020000,22.3079100000 114.2264230000,22.3078580000 114.2253870000,22.3070680000 114.2245180000,22.3064530000 114.2242970000,22.3062910000 114.2241950000,22.3062300000 114.2240210000,22.3061420000 114.2237420000,22.3060320000 114.2233830000,22.3059810000 114.2232760000,22.3059700000 114.2231710000,22.3059710000 114.2230800000,22.3059760000 114.2227950000,22.3060030000 114.2225050000,22.3060720000 114.2223270000,22.3061530000 114.2221850000,22.3062350000 114.2220480000,22.3063180000 114.2218690000,22.3064560000 114.2216350000,22.3066930000 114.2214520000,22.3069370000 114.2209550000,22.3076590000 114.2201670000,22.3087190000 114.2192820000,22.3098570000 114.2189020000,22.3103410000 114.2185710000,22.3107330000 114.2181640000,22.3111990000 114.2179470000,22.3114370000 114.2176990000,22.3117080000 114.2174100000,22.3119890000 114.2172860000,22.3121100000 114.2163760000,22.3130530000 114.2137790000,22.3157210000 114.2133820000,22.3161450000 114.2131930000,22.3163010000 114.2130460000,22.3164050000 114.2128790000,22.3165200000 114.2126690000,22.3166710000 114.2124170000,22.3167340000 114.2120990000,22.3168200000 114.2117640000,22.3168770000 114.2114070000,22.3168860000 114.2109610000,22.3168830000 114.2107650000,22.3168810000 114.2103660000,22.3168630000 114.2100240000,22.3168910000 114.2096300000,22.3169630000 114.2093450000,22.3170380000 114.2090860000,22.3171580000 114.2088770000,22.3173360000 114.2087320000,22.3174930000 114.2085910000,22.3176850000 114.2084220000,22.3179530000 114.2081470000,22.3183920000 114.2078550000,22.3187770000 114.2073720000,22.3193030000 114.2072660000,22.3194360000 114.2069020000,22.3198040000 114.2065430000,22.3200870000 114.2062830000,22.3202680000 114.2062470000,22.3202940000 114.2062100000,22.3203190000 114.2061220000,22.3203810000 114.2058560000,22.3206080000 114.2052380000,22.3211870000 114.2050110000,22.3214090000 114.2048520000,22.3215640000 114.2048150000,22.3216000000 114.2044820000,22.3219260000 114.2039760000,22.3223780000 114.2036220000,22.3227180000 114.2035130000,22.3228230000 114.2033570000,22.3229840000 114.2031680000,22.3231430000 114.2028860000,22.3233470000 114.2027360000,22.3234480000 114.2025740000,22.3235500000 114.2024370000,22.3236290000 114.2019620000,22.3238830000 114.2017220000,22.3239550000 114.2012960000,22.3239940000 114.2008220000,22.3240460000 114.1981480000,22.3240740000 114.1969720000,22.3240900000 114.1931910000,22.3242060000 114.1929760000,22.3241900000 114.1927100000,22.3241580000 114.1924060000,22.3240540000 114.1919930000,22.3238190000 114.1917780000,22.3236810000 114.1916420000,22.3235340000 114.1914650000,22.3232640000 114.1907280000,22.3216760000 114.1905840000,22.3212230000 114.1905240000,22.3208810000 114.1906000000,22.3205900000 114.1907220000,22.3203380000 114.1908780000,22.3201940000 114.1910580000,22.3200590000 114.1924400000,22.3193450000 114.1925540000,22.3192860000 114.1936700000,22.3187690000 114.1939780000,22.3186350000 114.1940270000,22.3186110000 114.1940750000,22.3185870000 114.1941240000,22.3185630000 114.1941720000,22.3185400000 114.1942020000,22.3184990000 114.1942120000,22.3184650000 114.1941980000,22.3183960000 114.1940540000,22.3180930000 114.1939310000,22.3180390000 114.1938770000,22.3180530000 114.1938350000,22.3180740000 114.1937890000,22.3181040000 114.1937460000,22.3181380000 114.1934960000,22.3183610000 114.1934060000,22.3184410000 114.1931070000,22.3187080000 114.1929240000,22.3188850000 114.1927800000,22.3190080000 114.1924790000,22.3192180000 114.1920790000,22.3188140000 114.1917520000,22.3184940000 114.1911590000,22.3178510000 114.1909560000,22.3176390000 114.1897460000,22.3163500000 114.1887510000,22.3152970000 114.1883320000,22.3148610000 114.1879850000,22.3144900000 114.1877600000,22.3142740000 114.1877180000,22.3142110000 114.1876980000,22.3141600000 114.1876790000,22.3140970000 114.1876700000,22.3140260000 114.1876680000,22.3134270000 114.1876630000,22.3126710000 114.1876990000,22.3123870000 114.1877000000,22.3123120000 114.1876940000,22.3120490000 114.1876760000,22.3111680000 114.1876750000,22.3111390000 114.1876750000,22.3106180000 114.1876580000,22.3098020000 114.1876490000,22.3089360000 114.1876440000,22.3088220000 114.1876310000,22.3085540000 114.1876180000,22.3083170000 114.1875900000,22.3081240000 114.1875190000,22.3080010000 114.1869390000,22.3071720000 114.1867800000,22.3069470000 114.1866970000,22.3068150000 114.1871810000,22.3065180000 114.1877030000,22.3061920000 114.1880610000,22.3059660000 114.1882260000,22.3058620000 114.1882400000,22.3058530000 114.1886070000,22.3056220000 114.1886160000,22.3056160000 114.1886580000,22.3055880000 114.1887260000,22.3055500000 114.1888230000,22.3054860000 114.1890100000,22.3053550000 114.1900620000,22.3046950000 114.1892980000,22.3036520000 114.1890570000,22.3033140000 114.1888860000,22.3030800000 114.1888610000,22.3029670000 114.1888060000,22.3028750000 114.1887660000,22.3027450000 114.1887380000,22.3025310000 114.1887460000,22.3024450000 114.1887210000,22.3022590000 114.1888290000,22.3022310000 114.1890080000,22.3021020000 114.1891550000,22.3020480000 114.1893080000,22.3020690000 114.1894560000,22.3021580000 114.1895990000,22.3022670000 114.1896800000,22.3023390000 114.1897760000,22.3023800000 114.1898730000,22.3023720000 114.1900420000,22.3022990000 114.1901480000,22.3022520000 114.1902760000,22.3021960000 114.1903800000,22.3021510000 114.1905250000,22.3018910000</coordinates>
                </LineString>
                <ExtendedData>
                    <Data name="length">
                        <value>29589.454970870833</value>
                    </Data>
                    <Data name="duration">
                        <value>01:01:19</value>
                    </Data>
                </ExtendedData>
            </Placemark>
        </Document>
    </Document>
</kml>