<?xml version="1.0" encoding="UTF-8"?>
<kml xmlns="http://www.opengis.net/kml/2.2" xmlns:gx="http://www.google.com/kml/ext/2.2">
    <Document>
        <name>Route</name>
        <Folder>
            <name>Route Request</name>
            <Placemark>
                <address>Tsz Wan Shan Road, Fung Wong New Village, Tsz Wan Shan, Wong Tai Sin District, Kowloon, Hong Kong, 000000, China</address>
                <Point>
                    <coordinates>114.1983091819,22.3513321333</coordinates>
                </Point>
                <ExtendedData>
                    <Data name="road">
                        <value>Tsz Wan Shan Road</value>
                    </Data>
                    <Data name="city_district">
                        <value>Wong Tai Sin District</value>
                    </Data>
                    <Data name="ISO3166-2-lvl3">
                        <value>CN-HK</value>
                    </Data>
                    <Data name="postcode">
                        <value>000000</value>
                    </Data>
                    <Data name="state">
                        <value>Hong Kong</value>
                    </Data>
                    <Data name="country">
                        <value>China</value>
                    </Data>
                    <Data name="suburb">
                        <value>Tsz Wan Shan</value>
                    </Data>
                    <Data name="neighbourhood">
                        <value>Fung Wong New Village</value>
                    </Data>
                    <Data name="city">
                        <value>Kowloon</value>
                    </Data>
                    <Data name="country_code">
                        <value>cn</value>
                    </Data>
                </ExtendedData>
            </Placemark>
            <Placemark>
                <address>Anderson Road Quarry, On Hei Street, Tan Shan, Tseng Lan Shue, Sai Kung District, New Territories, Hong Kong, China</address>
                <Point>
                    <coordinates>114.2345462460,22.3282617892</coordinates>
                </Point>
                <ExtendedData>
                    <Data name="road">
                        <value>On Hei Street</value>
                    </Data>
                    <Data name="village">
                        <value>Tseng Lan Shue</value>
                    </Data>
                    <Data name="ISO3166-2-lvl3">
                        <value>CN-HK</value>
                    </Data>
                    <Data name="municipality">
                        <value>New Territories</value>
                    </Data>
                    <Data name="state">
                        <value>Hong Kong</value>
                    </Data>
                    <Data name="country">
                        <value>China</value>
                    </Data>
                    <Data name="hamlet">
                        <value>Tan Shan</value>
                    </Data>
                    <Data name="historic">
                        <value>Anderson Road Quarry</value>
                    </Data>
                    <Data name="city">
                        <value>Sai Kung District</value>
                    </Data>
                    <Data name="country_code">
                        <value>cn</value>
                    </Data>
                </ExtendedData>
            </Placemark>
            <Placemark>
                <address>Ko Chiu Road, Yau Tong Bay, Yau Tong, Kwun Tong District, Kowloon, Hong Kong, China</address>
                <Point>
                    <coordinates>114.2405733164,22.2979808603</coordinates>
                </Point>
                <ExtendedData>
                    <Data name="road">
                        <value>Ko Chiu Road</value>
                    </Data>
                    <Data name="city_district">
                        <value>Kwun Tong District</value>
                    </Data>
                    <Data name="ISO3166-2-lvl3">
                        <value>CN-HK</value>
                    </Data>
                    <Data name="state">
                        <value>Hong Kong</value>
                    </Data>
                    <Data name="country">
                        <value>China</value>
                    </Data>
                    <Data name="suburb">
                        <value>Yau Tong</value>
                    </Data>
                    <Data name="neighbourhood">
                        <value>Yau Tong Bay</value>
                    </Data>
                    <Data name="city">
                        <value>Kowloon</value>
                    </Data>
                    <Data name="country_code">
                        <value>cn</value>
                    </Data>
                </ExtendedData>
            </Placemark>
            <Placemark>
                <address>Shung Shun Street, Yau Tong Industrial Area, On Li Sai Tsuen, Kwun Tong District, Kowloon, Hong Kong, China</address>
                <Point>
                    <coordinates>114.2359667868,22.2906265612</coordinates>
                </Point>
                <ExtendedData>
                    <Data name="road">
                        <value>Shung Shun Street</value>
                    </Data>
                    <Data name="quarter">
                        <value>Yau Tong Industrial Area</value>
                    </Data>
                    <Data name="city_district">
                        <value>Kwun Tong District</value>
                    </Data>
                    <Data name="ISO3166-2-lvl3">
                        <value>CN-HK</value>
                    </Data>
                    <Data name="state">
                        <value>Hong Kong</value>
                    </Data>
                    <Data name="country">
                        <value>China</value>
                    </Data>
                    <Data name="hamlet">
                        <value>On Li Sai Tsuen</value>
                    </Data>
                    <Data name="city">
                        <value>Kowloon</value>
                    </Data>
                    <Data name="country_code">
                        <value>cn</value>
                    </Data>
                </ExtendedData>
            </Placemark>
            <Placemark>
                <address>Anderson Road Quarry, On Hei Street, Tan Shan, Tseng Lan Shue, Sai Kung District, New Territories, Hong Kong, China</address>
                <Point>
                    <coordinates>114.2344284556,22.3283164242</coordinates>
                </Point>
                <ExtendedData>
                    <Data name="road">
                        <value>On Hei Street</value>
                    </Data>
                    <Data name="village">
                        <value>Tseng Lan Shue</value>
                    </Data>
                    <Data name="ISO3166-2-lvl3">
                        <value>CN-HK</value>
                    </Data>
                    <Data name="municipality">
                        <value>New Territories</value>
                    </Data>
                    <Data name="state">
                        <value>Hong Kong</value>
                    </Data>
                    <Data name="country">
                        <value>China</value>
                    </Data>
                    <Data name="hamlet">
                        <value>Tan Shan</value>
                    </Data>
                    <Data name="historic">
                        <value>Anderson Road Quarry</value>
                    </Data>
                    <Data name="city">
                        <value>Sai Kung District</value>
                    </Data>
                    <Data name="country_code">
                        <value>cn</value>
                    </Data>
                </ExtendedData>
            </Placemark>
            <Placemark>
                <address>Hammer Hill Road, Tai Hom, Hammer Hill, Wong Tai Sin District, Kowloon, Hong Kong, China</address>
                <Point>
                    <coordinates>114.2066034483,22.3394336968</coordinates>
                </Point>
                <ExtendedData>
                    <Data name="road">
                        <value>Hammer Hill Road</value>
                    </Data>
                    <Data name="city_district">
                        <value>Wong Tai Sin District</value>
                    </Data>
                    <Data name="ISO3166-2-lvl3">
                        <value>CN-HK</value>
                    </Data>
                    <Data name="state">
                        <value>Hong Kong</value>
                    </Data>
                    <Data name="country">
                        <value>China</value>
                    </Data>
                    <Data name="suburb">
                        <value>Hammer Hill</value>
                    </Data>
                    <Data name="neighbourhood">
                        <value>Tai Hom</value>
                    </Data>
                    <Data name="city">
                        <value>Kowloon</value>
                    </Data>
                    <Data name="country_code">
                        <value>cn</value>
                    </Data>
                </ExtendedData>
            </Placemark>
            <Placemark>
                <address>Tsz Wan Shan Road, Fung Wong New Village, Tsz Wan Shan, Wong Tai Sin District, Kowloon, Hong Kong, 000000, China</address>
                <Point>
                    <coordinates>114.1982784567,22.3512499617</coordinates>
                </Point>
                <ExtendedData>
                    <Data name="road">
                        <value>Tsz Wan Shan Road</value>
                    </Data>
                    <Data name="city_district">
                        <value>Wong Tai Sin District</value>
                    </Data>
                    <Data name="ISO3166-2-lvl3">
                        <value>CN-HK</value>
                    </Data>
                    <Data name="postcode">
                        <value>000000</value>
                    </Data>
                    <Data name="state">
                        <value>Hong Kong</value>
                    </Data>
                    <Data name="country">
                        <value>China</value>
                    </Data>
                    <Data name="suburb">
                        <value>Tsz Wan Shan</value>
                    </Data>
                    <Data name="neighbourhood">
                        <value>Fung Wong New Village</value>
                    </Data>
                    <Data name="city">
                        <value>Kowloon</value>
                    </Data>
                    <Data name="country_code">
                        <value>cn</value>
                    </Data>
                </ExtendedData>
            </Placemark>
        </Folder>
        <Document>
            <name>29.3 km; 00:41 h (OSRM)</name>
            <Placemark>
                <name>Route</name>
                <LineString>
                    <coordinates>114.1983180000,22.3511260000 114.1983200000,22.3511260000 114.1983450000,22.3511150000 114.1983670000,22.3510990000 114.1984700000,22.3509640000 114.1984940000,22.3509220000 114.1985030000,22.3508960000 114.1985090000,22.3508810000 114.1985200000,22.3508500000 114.1985850000,22.3508580000 114.1987230000,22.3508600000 114.1988380000,22.3508580000 114.1989970000,22.3508410000 114.1991120000,22.3508190000 114.1992340000,22.3507830000 114.1993260000,22.3507520000 114.1995240000,22.3506860000 114.1997020000,22.3506260000 114.2002330000,22.3504220000 114.2003710000,22.3503790000 114.2006850000,22.3502620000 114.2008020000,22.3502210000 114.2008330000,22.3502100000 114.2008720000,22.3501960000 114.2009770000,22.3501580000 114.2010720000,22.3501230000 114.2011510000,22.3500900000 114.2012270000,22.3500530000 114.2013100000,22.3500040000 114.2013440000,22.3499820000 114.2014310000,22.3499180000 114.2015130000,22.3498510000 114.2015960000,22.3497800000 114.2016620000,22.3497180000 114.2017700000,22.3496080000 114.2018320000,22.3495370000 114.2018900000,22.3494620000 114.2019580000,22.3493570000 114.2020200000,22.3492570000 114.2021390000,22.3490410000 114.2021840000,22.3489680000 114.2022230000,22.3489190000 114.2022670000,22.3488700000 114.2023180000,22.3488280000 114.2023950000,22.3487740000 114.2024560000,22.3487380000 114.2025230000,22.3487080000 114.2025840000,22.3486860000 114.2026900000,22.3486620000 114.2028140000,22.3486420000 114.2028230000,22.3486410000 114.2028520000,22.3486390000 114.2029490000,22.3486300000 114.2029590000,22.3486300000 114.2033320000,22.3486090000 114.2037970000,22.3485750000 114.2038410000,22.3485700000 114.2038880000,22.3485600000 114.2039290000,22.3485470000 114.2039760000,22.3485270000 114.2040180000,22.3485020000 114.2040590000,22.3484700000 114.2040980000,22.3484320000 114.2041290000,22.3483910000 114.2041590000,22.3483360000 114.2041920000,22.3482580000 114.2042080000,22.3481810000 114.2042120000,22.3480790000 114.2042100000,22.3479450000 114.2042090000,22.3478650000 114.2042040000,22.3475700000 114.2042020000,22.3474750000 114.2042000000,22.3473670000 114.2041970000,22.3472260000 114.2041950000,22.3471140000 114.2041900000,22.3469590000 114.2041860000,22.3467970000 114.2041760000,22.3464750000 114.2044180000,22.3464820000 114.2045260000,22.3464780000 114.2046400000,22.3464740000 114.2047530000,22.3464580000 114.2048710000,22.3464360000 114.2050490000,22.3463790000 114.2051070000,22.3463610000 114.2052410000,22.3463130000 114.2055120000,22.3461820000 114.2056370000,22.3461020000 114.2057620000,22.3460210000 114.2058210000,22.3459770000 114.2059310000,22.3458970000 114.2060640000,22.3457850000 114.2060910000,22.3457580000 114.2062130000,22.3456430000 114.2063610000,22.3454890000 114.2064590000,22.3453860000 114.2066280000,22.3452090000 114.2071160000,22.3446970000 114.2071650000,22.3446470000 114.2073700000,22.3444140000 114.2073910000,22.3443900000 114.2074690000,22.3442240000 114.2075210000,22.3440610000 114.2075530000,22.3439510000 114.2077420000,22.3433450000 114.2077960000,22.3431790000 114.2079430000,22.3427090000 114.2079630000,22.3426450000 114.2080280000,22.3424380000 114.2080500000,22.3423780000 114.2081320000,22.3421590000 114.2082020000,22.3419750000 114.2083480000,22.3415850000 114.2084340000,22.3413580000 114.2084670000,22.3412070000 114.2084710000,22.3411120000 114.2084430000,22.3409130000 114.2084150000,22.3408330000 114.2083760000,22.3407400000 114.2083100000,22.3406450000 114.2082160000,22.3405480000 114.2078380000,22.3402100000 114.2077810000,22.3401550000 114.2076760000,22.3400570000 114.2076500000,22.3400330000 114.2073190000,22.3397050000 114.2072900000,22.3396780000 114.2071180000,22.3395270000 114.2070130000,22.3394360000 114.2068320000,22.3392770000 114.2067660000,22.3392230000 114.2067100000,22.3391780000 114.2066470000,22.3391330000 114.2066330000,22.3390720000 114.2066030000,22.3390160000 114.2065580000,22.3389700000 114.2065010000,22.3389360000 114.2064370000,22.3389170000 114.2064040000,22.3388860000 114.2063040000,22.3387810000 114.2059190000,22.3384480000 114.2058430000,22.3382910000 114.2057840000,22.3381880000 114.2057460000,22.3381270000 114.2057090000,22.3380450000 114.2056940000,22.3379730000 114.2056910000,22.3379080000 114.2056960000,22.3378440000 114.2057090000,22.3377760000 114.2057340000,22.3377040000 114.2057620000,22.3376560000 114.2057920000,22.3376200000 114.2058120000,22.3375970000 114.2058300000,22.3375780000 114.2059510000,22.3374650000 114.2061040000,22.3373350000 114.2062130000,22.3372520000 114.2066060000,22.3370130000 114.2066980000,22.3369560000 114.2068700000,22.3368380000 114.2069610000,22.3367740000 114.2069830000,22.3367580000 114.2069960000,22.3367490000 114.2070810000,22.3366810000 114.2071530000,22.3366230000 114.2072260000,22.3365590000 114.2072650000,22.3365220000 114.2073100000,22.3364680000 114.2073510000,22.3364190000 114.2073980000,22.3363490000 114.2074210000,22.3363160000 114.2074450000,22.3362820000 114.2074570000,22.3362600000 114.2074740000,22.3362340000 114.2074940000,22.3361920000 114.2075110000,22.3361570000 114.2075290000,22.3361170000 114.2075470000,22.3360780000 114.2075580000,22.3360540000 114.2076470000,22.3359770000 114.2076870000,22.3358960000 114.2076950000,22.3358720000 114.2077450000,22.3357330000 114.2078980000,22.3353860000 114.2079280000,22.3353210000 114.2080100000,22.3351430000 114.2080410000,22.3350770000 114.2081290000,22.3348870000 114.2082070000,22.3347140000 114.2082370000,22.3346490000 114.2082550000,22.3346220000 114.2082860000,22.3345920000 114.2083240000,22.3345580000 114.2083500000,22.3345380000 114.2083940000,22.3345030000 114.2084160000,22.3344870000 114.2086020000,22.3343400000 114.2086830000,22.3342710000 114.2087260000,22.3342360000 114.2087620000,22.3342120000 114.2088030000,22.3341930000 114.2088510000,22.3341790000 114.2089090000,22.3341670000 114.2090480000,22.3341590000 114.2091240000,22.3341650000 114.2091910000,22.3341720000 114.2093750000,22.3342290000 114.2097000000,22.3342980000 114.2099930000,22.3343570000 114.2103020000,22.3344120000 114.2105890000,22.3344660000 114.2106840000,22.3344810000 114.2107910000,22.3344900000 114.2108900000,22.3344910000 114.2109970000,22.3344830000 114.2111550000,22.3344620000 114.2112220000,22.3344510000 114.2113490000,22.3344190000 114.2115010000,22.3343730000 114.2116950000,22.3342990000 114.2118800000,22.3342110000 114.2119940000,22.3341360000 114.2120530000,22.3340810000 114.2121990000,22.3339200000 114.2123980000,22.3336670000 114.2125230000,22.3335320000 114.2126150000,22.3335980000 114.2126360000,22.3336150000 114.2126550000,22.3336300000 114.2127420000,22.3336820000 114.2128170000,22.3337170000 114.2129110000,22.3337430000 114.2130000000,22.3337600000 114.2130530000,22.3337650000 114.2131190000,22.3337650000 114.2131850000,22.3337540000 114.2132990000,22.3337180000 114.2134680000,22.3336540000 114.2136130000,22.3335930000 114.2137520000,22.3335420000 114.2138670000,22.3335060000 114.2140340000,22.3334750000 114.2142200000,22.3334740000 114.2144250000,22.3334870000 114.2145920000,22.3335170000 114.2147300000,22.3335420000 114.2150780000,22.3336040000 114.2152540000,22.3336350000 114.2153410000,22.3336460000 114.2155070000,22.3337000000 114.2156700000,22.3337540000 114.2157880000,22.3338020000 114.2159150000,22.3338880000 114.2159710000,22.3339410000 114.2160690000,22.3340350000 114.2161270000,22.3340920000 114.2163010000,22.3342620000 114.2163890000,22.3343370000 114.2164920000,22.3344010000 114.2166530000,22.3344440000 114.2168050000,22.3344410000 114.2170840000,22.3343890000 114.2173080000,22.3343340000 114.2174840000,22.3342770000 114.2176050000,22.3342170000 114.2177640000,22.3341050000 114.2179590000,22.3339670000 114.2180180000,22.3339350000 114.2181450000,22.3338600000 114.2182170000,22.3338310000 114.2182370000,22.3338250000 114.2184620000,22.3337510000 114.2186390000,22.3337260000 114.2188060000,22.3337160000 114.2192760000,22.3337490000 114.2196830000,22.3337780000 114.2207350000,22.3338480000 114.2207720000,22.3338500000 114.2208340000,22.3338540000 114.2210910000,22.3338760000 114.2212070000,22.3338830000 114.2212640000,22.3338870000 114.2213630000,22.3338950000 114.2214970000,22.3339030000 114.2215860000,22.3339090000 114.2217870000,22.3339260000 114.2218510000,22.3339380000 114.2224460000,22.3340870000 114.2226090000,22.3341230000 114.2234800000,22.3343810000 114.2237620000,22.3344580000 114.2239130000,22.3344910000 114.2239930000,22.3344960000 114.2240490000,22.3344940000 114.2241320000,22.3344880000 114.2242620000,22.3344420000 114.2243380000,22.3344060000 114.2243960000,22.3343770000 114.2244750000,22.3343300000 114.2245790000,22.3342610000 114.2246900000,22.3342090000 114.2248060000,22.3341700000 114.2248870000,22.3341920000 114.2249170000,22.3341870000 114.2249300000,22.3341850000 114.2249760000,22.3341780000 114.2250160000,22.3341760000 114.2250770000,22.3341770000 114.2251250000,22.3341760000 114.2251670000,22.3341570000 114.2252440000,22.3341650000 114.2252890000,22.3341690000 114.2257710000,22.3342170000 114.2260480000,22.3343320000 114.2262680000,22.3344270000 114.2263490000,22.3344610000 114.2265340000,22.3345130000 114.2266840000,22.3345220000 114.2267930000,22.3345280000 114.2268720000,22.3345280000 114.2269510000,22.3345240000 114.2269760000,22.3345230000 114.2269970000,22.3345210000 114.2270140000,22.3345170000 114.2270340000,22.3345100000 114.2270530000,22.3345010000 114.2270710000,22.3344890000 114.2271030000,22.3344670000 114.2271830000,22.3344340000 114.2272050000,22.3344130000 114.2272280000,22.3343880000 114.2272680000,22.3343370000 114.2275750000,22.3343730000 114.2276950000,22.3343720000 114.2278070000,22.3343710000 114.2279480000,22.3343690000 114.2280470000,22.3343690000 114.2281550000,22.3343380000 114.2282410000,22.3343160000 114.2283290000,22.3343160000 114.2283750000,22.3343100000 114.2284040000,22.3342940000 114.2284340000,22.3342630000 114.2284380000,22.3342300000 114.2284400000,22.3341210000 114.2284420000,22.3340670000 114.2284460000,22.3337100000 114.2284800000,22.3332480000 114.2284830000,22.3331840000 114.2284950000,22.3330350000 114.2285000000,22.3329620000 114.2285120000,22.3328830000 114.2285340000,22.3328050000 114.2286050000,22.3326160000 114.2286520000,22.3325140000 114.2287110000,22.3324010000 114.2287750000,22.3322700000 114.2287930000,22.3321850000 114.2288120000,22.3321010000 114.2288170000,22.3320400000 114.2288200000,22.3319940000 114.2288200000,22.3319460000 114.2288190000,22.3319030000 114.2288170000,22.3318570000 114.2288120000,22.3318140000 114.2288050000,22.3317660000 114.2287940000,22.3317110000 114.2287770000,22.3316500000 114.2287510000,22.3315810000 114.2287090000,22.3314850000 114.2286640000,22.3314040000 114.2284420000,22.3310470000 114.2283980000,22.3309650000 114.2283730000,22.3309090000 114.2283490000,22.3308490000 114.2283320000,22.3308000000 114.2283080000,22.3307030000 114.2282960000,22.3306420000 114.2282890000,22.3305830000 114.2282860000,22.3305250000 114.2282860000,22.3304660000 114.2282890000,22.3304100000 114.2282940000,22.3303560000 114.2283050000,22.3302970000 114.2283160000,22.3302430000 114.2283320000,22.3301880000 114.2283520000,22.3301270000 114.2283780000,22.3300620000 114.2284090000,22.3299990000 114.2284560000,22.3299150000 114.2285060000,22.3298450000 114.2285630000,22.3297730000 114.2286330000,22.3297020000 114.2287100000,22.3296360000 114.2287810000,22.3295820000 114.2288500000,22.3295340000 114.2290220000,22.3294170000 114.2291430000,22.3293330000 114.2292880000,22.3292220000 114.2293930000,22.3291340000 114.2296130000,22.3289310000 114.2296930000,22.3288480000 114.2297620000,22.3287730000 114.2299520000,22.3285490000 114.2300480000,22.3284210000 114.2301300000,22.3283000000 114.2302070000,22.3281780000 114.2302750000,22.3280620000 114.2303250000,22.3279840000 114.2303670000,22.3279260000 114.2303840000,22.3279080000 114.2304040000,22.3278880000 114.2304570000,22.3278350000 114.2304920000,22.3278190000 114.2305210000,22.3277970000 114.2305440000,22.3277680000 114.2305580000,22.3277350000 114.2305630000,22.3277000000 114.2305590000,22.3276640000 114.2305460000,22.3276310000 114.2305500000,22.3275390000 114.2305540000,22.3274900000 114.2305590000,22.3274290000 114.2305700000,22.3273780000 114.2306150000,22.3272230000 114.2306690000,22.3270190000 114.2306950000,22.3268400000 114.2307050000,22.3266980000 114.2307090000,22.3265730000 114.2307110000,22.3264690000 114.2307120000,22.3264240000 114.2307130000,22.3263560000 114.2307160000,22.3262060000 114.2308350000,22.3262040000 114.2308600000,22.3262020000 114.2310850000,22.3262040000 114.2311440000,22.3261950000 114.2312020000,22.3261780000 114.2312570000,22.3261550000 114.2313080000,22.3261250000 114.2313570000,22.3260860000 114.2314000000,22.3260410000 114.2314350000,22.3259900000 114.2315100000,22.3257970000 114.2318840000,22.3249260000 114.2321940000,22.3240970000 114.2324800000,22.3235990000 114.2325270000,22.3235180000 114.2325810000,22.3234420000 114.2326410000,22.3233710000 114.2327260000,22.3232790000 114.2333410000,22.3228730000 114.2335240000,22.3227460000 114.2336290000,22.3227340000 114.2336730000,22.3227280000 114.2336990000,22.3227240000 114.2337470000,22.3227180000 114.2337900000,22.3227360000 114.2338370000,22.3227410000 114.2338840000,22.3227310000 114.2339350000,22.3227540000 114.2339630000,22.3227660000 114.2339960000,22.3227800000 114.2340720000,22.3227970000 114.2344040000,22.3230140000 114.2345730000,22.3231250000 114.2347420000,22.3232380000 114.2347930000,22.3232710000 114.2348370000,22.3233000000 114.2348690000,22.3233210000 114.2349160000,22.3233510000 114.2351940000,22.3235330000 114.2356470000,22.3238220000 114.2358840000,22.3239740000 114.2359320000,22.3240470000 114.2359630000,22.3240690000 114.2359950000,22.3240900000 114.2360590000,22.3241330000 114.2360260000,22.3241850000 114.2359950000,22.3242380000 114.2359780000,22.3242700000 114.2359620000,22.3243110000 114.2359690000,22.3243850000 114.2359320000,22.3244870000 114.2359050000,22.3245920000 114.2358870000,22.3246950000 114.2357570000,22.3256510000 114.2357230000,22.3259910000 114.2356590000,22.3263280000 114.2355640000,22.3266580000 114.2354400000,22.3269800000 114.2352710000,22.3273250000 114.2351060000,22.3275890000 114.2348990000,22.3278720000 114.2346670000,22.3281380000 114.2345450000,22.3282610000 114.2343450000,22.3284620000 114.2342500000,22.3285570000 114.2341350000,22.3284670000 114.2334380000,22.3279170000 114.2341350000,22.3284670000 114.2342500000,22.3285570000 114.2343450000,22.3284620000 114.2346670000,22.3281380000 114.2348990000,22.3278720000 114.2351060000,22.3275890000 114.2352710000,22.3273250000 114.2354400000,22.3269800000 114.2355640000,22.3266580000 114.2356590000,22.3263280000 114.2357230000,22.3259910000 114.2357570000,22.3256510000 114.2358870000,22.3246950000 114.2359050000,22.3245920000 114.2359320000,22.3244870000 114.2359690000,22.3243850000 114.2360310000,22.3243360000 114.2360530000,22.3243030000 114.2360700000,22.3242710000 114.2360970000,22.3242240000 114.2361260000,22.3241780000 114.2361690000,22.3241180000 114.2362090000,22.3240680000 114.2362340000,22.3240400000 114.2362630000,22.3240060000 114.2362770000,22.3239380000 114.2364270000,22.3237860000 114.2364870000,22.3237230000 114.2365420000,22.3236550000 114.2365990000,22.3235740000 114.2366490000,22.3234880000 114.2366920000,22.3233990000 114.2367270000,22.3233070000 114.2367540000,22.3232160000 114.2368990000,22.3227150000 114.2369200000,22.3226430000 114.2369600000,22.3225310000 114.2370070000,22.3224230000 114.2370640000,22.3223180000 114.2371280000,22.3222170000 114.2371990000,22.3221200000 114.2372780000,22.3220290000 114.2373640000,22.3219430000 114.2374570000,22.3218620000 114.2375570000,22.3217870000 114.2376420000,22.3217210000 114.2377340000,22.3216910000 114.2377500000,22.3216770000 114.2378270000,22.3216010000 114.2378820000,22.3215380000 114.2379100000,22.3215010000 114.2379810000,22.3213980000 114.2380020000,22.3213590000 114.2379980000,22.3212910000 114.2380200000,22.3212470000 114.2380550000,22.3211560000 114.2381680000,22.3207720000 114.2382500000,22.3205560000 114.2382780000,22.3204910000 114.2383410000,22.3203440000 114.2384400000,22.3201350000 114.2384470000,22.3201230000 114.2385510000,22.3199300000 114.2386020000,22.3198510000 114.2386620000,22.3197770000 114.2387300000,22.3197090000 114.2388050000,22.3196480000 114.2388870000,22.3195950000 114.2389740000,22.3195490000 114.2390650000,22.3195120000 114.2391600000,22.3194840000 114.2392580000,22.3194650000 114.2393000000,22.3194610000 114.2393540000,22.3194550000 114.2394770000,22.3194410000 114.2396060000,22.3194370000 114.2397340000,22.3194450000 114.2398610000,22.3194640000 114.2399870000,22.3194930000 114.2400960000,22.3195330000 114.2401990000,22.3195840000 114.2402950000,22.3196460000 114.2403830000,22.3197170000 114.2404610000,22.3197980000 114.2405280000,22.3198870000 114.2405830000,22.3199820000 114.2406250000,22.3200790000 114.2406530000,22.3201560000 114.2406880000,22.3202310000 114.2407290000,22.3203030000 114.2407750000,22.3203730000 114.2408270000,22.3204390000 114.2408790000,22.3205060000 114.2409400000,22.3205720000 114.2410080000,22.3206320000 114.2410820000,22.3206860000 114.2411610000,22.3207320000 114.2412450000,22.3207710000 114.2413330000,22.3208020000 114.2414240000,22.3208240000 114.2415160000,22.3208380000 114.2416100000,22.3208440000 114.2417040000,22.3208410000 114.2417970000,22.3208290000 114.2418840000,22.3208100000 114.2419710000,22.3207770000 114.2420550000,22.3207400000 114.2421370000,22.3206970000 114.2421680000,22.3206790000 114.2422150000,22.3206500000 114.2421510000,22.3205600000 114.2417680000,22.3200290000 114.2415300000,22.3197200000 114.2413570000,22.3194960000 114.2412560000,22.3193950000 114.2411860000,22.3193360000 114.2410970000,22.3192690000 114.2410130000,22.3192050000 114.2408820000,22.3191380000 114.2407510000,22.3190780000 114.2406740000,22.3190460000 114.2405600000,22.3190130000 114.2404620000,22.3189880000 114.2402180000,22.3189420000 114.2399970000,22.3189010000 114.2399020000,22.3188820000 114.2395910000,22.3188080000 114.2395450000,22.3187550000 114.2394890000,22.3187400000 114.2394580000,22.3187070000 114.2394100000,22.3186920000 114.2393270000,22.3186660000 114.2391980000,22.3186260000 114.2389870000,22.3185530000 114.2388800000,22.3185130000 114.2386480000,22.3184710000 114.2385070000,22.3184460000 114.2383060000,22.3183900000 114.2381480000,22.3183540000 114.2379670000,22.3183240000 114.2378320000,22.3183170000 114.2377890000,22.3183140000 114.2377150000,22.3183140000 114.2375980000,22.3183190000 114.2374750000,22.3183330000 114.2373450000,22.3183500000 114.2373020000,22.3183600000 114.2372180000,22.3183800000 114.2371310000,22.3183480000 114.2368700000,22.3183980000 114.2368420000,22.3184020000 114.2367760000,22.3184110000 114.2366740000,22.3184190000 114.2365500000,22.3184180000 114.2364350000,22.3184150000 114.2363950000,22.3184110000 114.2363610000,22.3184070000 114.2361640000,22.3183770000 114.2359490000,22.3182510000 114.2358640000,22.3181750000 114.2358040000,22.3181060000 114.2357220000,22.3179900000 114.2356630000,22.3178400000 114.2356150000,22.3174730000 114.2357370000,22.3172080000 114.2358880000,22.3169150000 114.2359620000,22.3167840000 114.2360120000,22.3166960000 114.2360260000,22.3166720000 114.2361010000,22.3165430000 114.2361290000,22.3164940000 114.2361490000,22.3164570000 114.2362760000,22.3162250000 114.2363290000,22.3161430000 114.2364430000,22.3159590000 114.2365590000,22.3158890000 114.2366370000,22.3158220000 114.2366860000,22.3157980000 114.2367080000,22.3157840000 114.2367270000,22.3157730000 114.2367460000,22.3157610000 114.2367660000,22.3157460000 114.2368870000,22.3156660000 114.2369380000,22.3155940000 114.2370180000,22.3155640000 114.2370270000,22.3155610000 114.2371070000,22.3155350000 114.2371700000,22.3155420000 114.2372040000,22.3155350000 114.2372520000,22.3155230000 114.2372980000,22.3154950000 114.2373440000,22.3154900000 114.2373900000,22.3154860000 114.2374830000,22.3154830000 114.2375750000,22.3154860000 114.2376630000,22.3155020000 114.2377470000,22.3155280000 114.2378270000,22.3155640000 114.2379530000,22.3156250000 114.2380810000,22.3156830000 114.2382120000,22.3157350000 114.2383730000,22.3157900000 114.2385410000,22.3158230000 114.2387120000,22.3158350000 114.2388840000,22.3158250000 114.2390520000,22.3157930000 114.2391740000,22.3157540000 114.2393190000,22.3156900000 114.2394440000,22.3156180000 114.2395620000,22.3155320000 114.2396730000,22.3154350000 114.2398040000,22.3153140000 114.2400170000,22.3150730000 114.2402190000,22.3149100000 114.2402920000,22.3148330000 114.2403570000,22.3147510000 114.2404150000,22.3146640000 114.2404530000,22.3145930000 114.2404860000,22.3145210000 114.2405140000,22.3144460000 114.2405560000,22.3143810000 114.2405920000,22.3143130000 114.2406210000,22.3142420000 114.2406420000,22.3141680000 114.2406550000,22.3140930000 114.2406600000,22.3140180000 114.2406580000,22.3139420000 114.2406470000,22.3138660000 114.2406290000,22.3137920000 114.2406030000,22.3137200000 114.2405780000,22.3136540000 114.2405480000,22.3135910000 114.2405110000,22.3135300000 114.2404690000,22.3134730000 114.2404150000,22.3134120000 114.2403540000,22.3133560000 114.2402880000,22.3133060000 114.2402170000,22.3132630000 114.2400710000,22.3132000000 114.2397950000,22.3130800000 114.2395070000,22.3129400000 114.2394480000,22.3129120000 114.2393930000,22.3128850000 114.2392430000,22.3127900000 114.2390810000,22.3126700000 114.2389910000,22.3126020000 114.2387230000,22.3124030000 114.2386040000,22.3123400000 114.2385460000,22.3123090000 114.2384350000,22.3122510000 114.2382650000,22.3121480000 114.2380610000,22.3120530000 114.2379890000,22.3120180000 114.2379400000,22.3119990000 114.2378890000,22.3119780000 114.2379080000,22.3119300000 114.2379220000,22.3118870000 114.2379690000,22.3117690000 114.2380450000,22.3115980000 114.2381120000,22.3114460000 114.2381210000,22.3114230000 114.2381360000,22.3113900000 114.2382780000,22.3110710000 114.2382970000,22.3110290000 114.2383560000,22.3108970000 114.2383760000,22.3108510000 114.2383960000,22.3108060000 114.2384830000,22.3106030000 114.2385320000,22.3104780000 114.2386410000,22.3102060000 114.2386630000,22.3101550000 114.2389400000,22.3095150000 114.2389500000,22.3094920000 114.2389800000,22.3094240000 114.2390080000,22.3093580000 114.2390460000,22.3092610000 114.2391420000,22.3090140000 114.2392240000,22.3087630000 114.2392870000,22.3085480000 114.2393140000,22.3084240000 114.2393530000,22.3081610000 114.2393640000,22.3080570000 114.2393700000,22.3079940000 114.2393730000,22.3079310000 114.2393760000,22.3078540000 114.2393770000,22.3077770000 114.2393660000,22.3076170000 114.2393490000,22.3074190000 114.2393260000,22.3072610000 114.2393010000,22.3071050000 114.2392760000,22.3069600000 114.2392320000,22.3067880000 114.2391800000,22.3066660000 114.2391490000,22.3065920000 114.2391220000,22.3065280000 114.2390290000,22.3063520000 114.2386790000,22.3056740000 114.2384530000,22.3051940000 114.2383810000,22.3050260000 114.2383640000,22.3049870000 114.2383510000,22.3049510000 114.2383430000,22.3049220000 114.2383320000,22.3048790000 114.2383050000,22.3047680000 114.2382920000,22.3047120000 114.2382760000,22.3046100000 114.2382660000,22.3045070000 114.2382620000,22.3044170000 114.2382610000,22.3043130000 114.2382690000,22.3042110000 114.2382780000,22.3041560000 114.2382870000,22.3041020000 114.2383000000,22.3040300000 114.2383220000,22.3039390000 114.2383810000,22.3037820000 114.2384710000,22.3035970000 114.2385160000,22.3035070000 114.2385910000,22.3033660000 114.2386260000,22.3033110000 114.2386680000,22.3032530000 114.2386940000,22.3032230000 114.2387650000,22.3031480000 114.2388480000,22.3030680000 114.2389330000,22.3029910000 114.2391110000,22.3028600000 114.2392240000,22.3027880000 114.2393370000,22.3027230000 114.2394080000,22.3026880000 114.2395390000,22.3026340000 114.2396790000,22.3025800000 114.2398900000,22.3025100000 114.2400670000,22.3024600000 114.2402430000,22.3024180000 114.2404200000,22.3023740000 114.2405240000,22.3023450000 114.2406810000,22.3022930000 114.2407330000,22.3022720000 114.2407860000,22.3022520000 114.2408830000,22.3022030000 114.2409720000,22.3021520000 114.2410560000,22.3020960000 114.2411360000,22.3020380000 114.2411940000,22.3019870000 114.2412530000,22.3019330000 114.2412880000,22.3018970000 114.2414060000,22.3017670000 114.2415060000,22.3016270000 114.2415970000,22.3014440000 114.2416160000,22.3014050000 114.2416510000,22.3013310000 114.2416810000,22.3012540000 114.2417380000,22.3010420000 114.2417850000,22.3007960000 114.2418080000,22.3006300000 114.2418060000,22.3005040000 114.2418010000,22.3003410000 114.2417630000,22.3001620000 114.2417520000,22.3001250000 114.2416550000,22.2998150000 114.2415290000,22.2995810000 114.2408140000,22.2985050000 114.2407100000,22.2983480000 114.2405970000,22.2981850000 114.2405690000,22.2981440000 114.2405850000,22.2980410000 114.2406100000,22.2980000000 114.2406260000,22.2979730000 114.2407940000,22.2979070000 114.2409540000,22.2979420000 114.2410290000,22.2979570000 114.2411250000,22.2979650000 114.2412370000,22.2979680000 114.2413760000,22.2979620000 114.2415180000,22.2979470000 114.2419430000,22.2978710000 114.2421250000,22.2977950000 114.2422450000,22.2976900000 114.2423270000,22.2975520000 114.2423570000,22.2974310000 114.2423680000,22.2972750000 114.2423440000,22.2971730000 114.2423210000,22.2971230000 114.2422870000,22.2970690000 114.2421560000,22.2969230000 114.2419990000,22.2967360000 114.2419290000,22.2966470000 114.2418050000,22.2964910000 114.2417140000,22.2963760000 114.2416280000,22.2962620000 114.2414540000,22.2960500000 114.2411820000,22.2957170000 114.2410210000,22.2955260000 114.2409930000,22.2954960000 114.2408850000,22.2953760000 114.2408600000,22.2953480000 114.2407700000,22.2952900000 114.2406720000,22.2952580000 114.2405660000,22.2952450000 114.2404750000,22.2952540000 114.2403960000,22.2952700000 114.2403490000,22.2952830000 114.2403130000,22.2952980000 114.2402150000,22.2952990000 114.2401020000,22.2953110000 114.2400740000,22.2953000000 114.2400360000,22.2952950000 114.2399980000,22.2953000000 114.2399630000,22.2953160000 114.2398640000,22.2953040000 114.2397490000,22.2952960000 114.2396660000,22.2952980000 114.2396170000,22.2952990000 114.2395360000,22.2953030000 114.2394190000,22.2953270000 114.2393320000,22.2953390000 114.2392370000,22.2953490000 114.2387020000,22.2954630000 114.2386410000,22.2954740000 114.2385330000,22.2954960000 114.2382270000,22.2955600000 114.2381210000,22.2955820000 114.2381020000,22.2954910000 114.2380050000,22.2951140000 114.2379640000,22.2949560000 114.2378580000,22.2945590000 114.2378420000,22.2944510000 114.2378480000,22.2943550000 114.2378820000,22.2942390000 114.2379590000,22.2940810000 114.2381070000,22.2937490000 114.2381340000,22.2937070000 114.2382190000,22.2935410000 114.2383940000,22.2932360000 114.2384000000,22.2932010000 114.2383970000,22.2931630000 114.2383920000,22.2931180000 114.2383830000,22.2930790000 114.2383480000,22.2930260000 114.2381190000,22.2928040000 114.2379140000,22.2926330000 114.2378670000,22.2925910000 114.2375870000,22.2923390000 114.2374750000,22.2922390000 114.2373640000,22.2921390000 114.2372220000,22.2920110000 114.2370650000,22.2918700000 114.2362640000,22.2911500000 114.2363590000,22.2910580000 114.2362880000,22.2909950000 114.2362880000,22.2909950000 114.2363590000,22.2910580000 114.2362640000,22.2911500000 114.2370650000,22.2918700000 114.2372220000,22.2920110000 114.2373640000,22.2921390000 114.2374750000,22.2922390000 114.2375870000,22.2923390000 114.2378670000,22.2925910000 114.2379140000,22.2926330000 114.2381190000,22.2928040000 114.2383480000,22.2930260000 114.2383830000,22.2930790000 114.2383920000,22.2931180000 114.2383970000,22.2931630000 114.2384000000,22.2932010000 114.2383940000,22.2932360000 114.2382190000,22.2935410000 114.2381340000,22.2937070000 114.2381070000,22.2937490000 114.2379590000,22.2940810000 114.2378820000,22.2942390000 114.2378480000,22.2943550000 114.2378420000,22.2944510000 114.2378580000,22.2945590000 114.2379640000,22.2949560000 114.2380050000,22.2951140000 114.2381020000,22.2954910000 114.2381210000,22.2955820000 114.2382270000,22.2955600000 114.2385330000,22.2954960000 114.2386410000,22.2954740000 114.2387020000,22.2954630000 114.2392370000,22.2953490000 114.2393320000,22.2953390000 114.2394760000,22.2953560000 114.2395890000,22.2953590000 114.2397220000,22.2953750000 114.2398140000,22.2954070000 114.2399180000,22.2954610000 114.2399300000,22.2954810000 114.2399450000,22.2954980000 114.2399770000,22.2955200000 114.2400140000,22.2955320000 114.2400540000,22.2955330000 114.2400920000,22.2955230000 114.2401250000,22.2955030000 114.2401490000,22.2954750000 114.2401640000,22.2954410000 114.2401670000,22.2954150000 114.2402580000,22.2953430000 114.2403130000,22.2952980000 114.2403490000,22.2952830000 114.2403960000,22.2952700000 114.2404750000,22.2952540000 114.2405660000,22.2952450000 114.2406720000,22.2952580000 114.2407700000,22.2952900000 114.2408600000,22.2953480000 114.2408850000,22.2953760000 114.2409930000,22.2954960000 114.2410210000,22.2955260000 114.2411820000,22.2957170000 114.2414540000,22.2960500000 114.2416280000,22.2962620000 114.2417140000,22.2963760000 114.2418050000,22.2964910000 114.2419290000,22.2966470000 114.2419990000,22.2967360000 114.2421560000,22.2969230000 114.2422870000,22.2970690000 114.2423210000,22.2971230000 114.2423440000,22.2971730000 114.2423680000,22.2972750000 114.2423570000,22.2974310000 114.2423270000,22.2975520000 114.2422450000,22.2976900000 114.2421250000,22.2977950000 114.2419430000,22.2978710000 114.2415180000,22.2979470000 114.2413760000,22.2979620000 114.2412370000,22.2979680000 114.2411250000,22.2979650000 114.2410290000,22.2979570000 114.2409540000,22.2979420000 114.2407940000,22.2979070000 114.2406450000,22.2978910000 114.2405810000,22.2979040000 114.2405210000,22.2979270000 114.2404400000,22.2979900000 114.2405690000,22.2981440000 114.2405970000,22.2981850000 114.2407100000,22.2983480000 114.2408140000,22.2985050000 114.2415290000,22.2995810000 114.2416550000,22.2998150000 114.2417520000,22.3001250000 114.2417630000,22.3001620000 114.2418010000,22.3003410000 114.2418060000,22.3005040000 114.2418080000,22.3006300000 114.2417850000,22.3007960000 114.2417380000,22.3010420000 114.2416810000,22.3012540000 114.2416510000,22.3013310000 114.2416160000,22.3014050000 114.2415970000,22.3014440000 114.2415060000,22.3016270000 114.2414060000,22.3017670000 114.2412880000,22.3018970000 114.2412530000,22.3019330000 114.2411940000,22.3019870000 114.2411360000,22.3020380000 114.2410560000,22.3020960000 114.2409720000,22.3021520000 114.2408830000,22.3022030000 114.2407860000,22.3022520000 114.2407330000,22.3022720000 114.2406810000,22.3022930000 114.2405240000,22.3023450000 114.2404200000,22.3023740000 114.2402430000,22.3024180000 114.2400670000,22.3024600000 114.2398900000,22.3025100000 114.2396790000,22.3025800000 114.2395390000,22.3026340000 114.2394080000,22.3026880000 114.2393370000,22.3027230000 114.2392240000,22.3027880000 114.2391110000,22.3028600000 114.2389330000,22.3029910000 114.2388480000,22.3030680000 114.2387650000,22.3031480000 114.2386940000,22.3032230000 114.2386680000,22.3032530000 114.2386260000,22.3033110000 114.2385910000,22.3033660000 114.2385160000,22.3035070000 114.2384710000,22.3035970000 114.2383810000,22.3037820000 114.2383220000,22.3039390000 114.2383000000,22.3040300000 114.2382870000,22.3041020000 114.2382780000,22.3041560000 114.2382690000,22.3042110000 114.2382610000,22.3043130000 114.2382620000,22.3044170000 114.2382660000,22.3045070000 114.2382760000,22.3046100000 114.2382920000,22.3047120000 114.2383050000,22.3047680000 114.2383320000,22.3048790000 114.2383430000,22.3049220000 114.2383510000,22.3049510000 114.2383640000,22.3049870000 114.2383810000,22.3050260000 114.2384530000,22.3051940000 114.2386790000,22.3056740000 114.2390290000,22.3063520000 114.2391220000,22.3065280000 114.2391490000,22.3065920000 114.2391800000,22.3066660000 114.2392320000,22.3067880000 114.2392760000,22.3069600000 114.2393010000,22.3071050000 114.2393260000,22.3072610000 114.2393490000,22.3074190000 114.2393660000,22.3076170000 114.2393770000,22.3077770000 114.2393760000,22.3078540000 114.2393730000,22.3079310000 114.2393700000,22.3079940000 114.2393640000,22.3080570000 114.2393530000,22.3081610000 114.2393140000,22.3084240000 114.2392870000,22.3085480000 114.2392240000,22.3087630000 114.2391420000,22.3090140000 114.2390460000,22.3092610000 114.2390080000,22.3093580000 114.2389800000,22.3094240000 114.2389500000,22.3094920000 114.2389400000,22.3095150000 114.2386630000,22.3101550000 114.2386410000,22.3102060000 114.2385320000,22.3104780000 114.2384830000,22.3106030000 114.2383960000,22.3108060000 114.2383760000,22.3108510000 114.2383560000,22.3108970000 114.2382970000,22.3110290000 114.2382780000,22.3110710000 114.2381360000,22.3113900000 114.2381210000,22.3114230000 114.2381120000,22.3114460000 114.2380450000,22.3115980000 114.2379690000,22.3117690000 114.2379220000,22.3118870000 114.2379080000,22.3119300000 114.2378890000,22.3119780000 114.2379400000,22.3119990000 114.2379890000,22.3120180000 114.2380610000,22.3120530000 114.2382650000,22.3121480000 114.2384350000,22.3122510000 114.2385460000,22.3123090000 114.2386040000,22.3123400000 114.2387230000,22.3124030000 114.2389910000,22.3126020000 114.2390810000,22.3126700000 114.2392430000,22.3127900000 114.2393930000,22.3128850000 114.2394480000,22.3129120000 114.2395070000,22.3129400000 114.2397950000,22.3130800000 114.2400710000,22.3132000000 114.2402170000,22.3132630000 114.2402880000,22.3133060000 114.2403540000,22.3133560000 114.2404150000,22.3134120000 114.2404690000,22.3134730000 114.2405110000,22.3135300000 114.2405480000,22.3135910000 114.2405780000,22.3136540000 114.2406030000,22.3137200000 114.2406290000,22.3137920000 114.2406470000,22.3138660000 114.2406580000,22.3139420000 114.2406600000,22.3140180000 114.2406550000,22.3140930000 114.2406420000,22.3141680000 114.2406210000,22.3142420000 114.2405920000,22.3143130000 114.2405560000,22.3143810000 114.2405140000,22.3144460000 114.2404860000,22.3145210000 114.2404530000,22.3145930000 114.2404150000,22.3146640000 114.2403570000,22.3147510000 114.2402920000,22.3148330000 114.2402190000,22.3149100000 114.2400170000,22.3150730000 114.2398040000,22.3153140000 114.2396730000,22.3154350000 114.2395620000,22.3155320000 114.2394440000,22.3156180000 114.2393190000,22.3156900000 114.2391740000,22.3157540000 114.2390520000,22.3157930000 114.2388840000,22.3158250000 114.2387120000,22.3158350000 114.2385410000,22.3158230000 114.2383730000,22.3157900000 114.2382120000,22.3157350000 114.2380810000,22.3156830000 114.2379530000,22.3156250000 114.2378270000,22.3155640000 114.2377470000,22.3155280000 114.2376630000,22.3155020000 114.2375750000,22.3154860000 114.2374830000,22.3154830000 114.2373900000,22.3154860000 114.2373440000,22.3154900000 114.2372980000,22.3154950000 114.2372370000,22.3154760000 114.2371890000,22.3154860000 114.2371540000,22.3154940000 114.2371070000,22.3155350000 114.2370270000,22.3155610000 114.2370180000,22.3155640000 114.2369380000,22.3155940000 114.2368360000,22.3155830000 114.2367390000,22.3156190000 114.2366390000,22.3156770000 114.2365540000,22.3157450000 114.2364880000,22.3158380000 114.2364430000,22.3159590000 114.2363290000,22.3161430000 114.2362760000,22.3162250000 114.2361490000,22.3164570000 114.2361290000,22.3164940000 114.2361010000,22.3165430000 114.2360260000,22.3166720000 114.2360120000,22.3166960000 114.2359620000,22.3167840000 114.2358880000,22.3169150000 114.2357370000,22.3172080000 114.2356150000,22.3174730000 114.2355860000,22.3175310000 114.2354990000,22.3175880000 114.2353230000,22.3178770000 114.2352760000,22.3179260000 114.2352260000,22.3180000000 114.2353120000,22.3180530000 114.2354040000,22.3181130000 114.2354710000,22.3181560000 114.2355100000,22.3181800000 114.2356470000,22.3182580000 114.2357620000,22.3183330000 114.2360340000,22.3184680000 114.2361500000,22.3185090000 114.2363410000,22.3185390000 114.2363860000,22.3185460000 114.2364280000,22.3185490000 114.2365490000,22.3185580000 114.2366780000,22.3185620000 114.2367880000,22.3185620000 114.2368530000,22.3185480000 114.2371530000,22.3184720000 114.2372180000,22.3183800000 114.2373020000,22.3183600000 114.2373450000,22.3183500000 114.2374750000,22.3183330000 114.2375980000,22.3183190000 114.2377150000,22.3183140000 114.2377890000,22.3183140000 114.2378320000,22.3183170000 114.2379670000,22.3183240000 114.2381480000,22.3183540000 114.2383060000,22.3183900000 114.2385070000,22.3184460000 114.2386360000,22.3185090000 114.2388460000,22.3186060000 114.2389820000,22.3186610000 114.2390870000,22.3186910000 114.2391320000,22.3187050000 114.2391680000,22.3187190000 114.2392890000,22.3187640000 114.2395070000,22.3188330000 114.2395910000,22.3188080000 114.2399020000,22.3188820000 114.2399970000,22.3189010000 114.2402180000,22.3189420000 114.2404620000,22.3189880000 114.2405600000,22.3190130000 114.2406740000,22.3190460000 114.2407510000,22.3190780000 114.2408820000,22.3191380000 114.2410130000,22.3192050000 114.2410970000,22.3192690000 114.2411860000,22.3193360000 114.2412560000,22.3193950000 114.2413570000,22.3194960000 114.2415300000,22.3197200000 114.2417680000,22.3200290000 114.2421510000,22.3205600000 114.2422150000,22.3206500000 114.2421680000,22.3206790000 114.2421370000,22.3206970000 114.2420550000,22.3207400000 114.2419710000,22.3207770000 114.2418840000,22.3208100000 114.2417970000,22.3208290000 114.2417040000,22.3208410000 114.2416100000,22.3208440000 114.2415160000,22.3208380000 114.2414240000,22.3208240000 114.2413330000,22.3208020000 114.2412450000,22.3207710000 114.2411610000,22.3207320000 114.2410820000,22.3206860000 114.2410080000,22.3206320000 114.2409400000,22.3205720000 114.2408790000,22.3205060000 114.2408270000,22.3204390000 114.2407750000,22.3203730000 114.2407290000,22.3203030000 114.2406880000,22.3202310000 114.2406530000,22.3201560000 114.2406250000,22.3200790000 114.2405830000,22.3199820000 114.2405280000,22.3198870000 114.2404610000,22.3197980000 114.2403830000,22.3197170000 114.2402950000,22.3196460000 114.2401990000,22.3195840000 114.2400960000,22.3195330000 114.2399870000,22.3194930000 114.2398610000,22.3194640000 114.2397340000,22.3194450000 114.2396060000,22.3194370000 114.2394770000,22.3194410000 114.2393540000,22.3194550000 114.2393000000,22.3194610000 114.2392580000,22.3194650000 114.2391600000,22.3194840000 114.2390650000,22.3195120000 114.2389740000,22.3195490000 114.2388870000,22.3195950000 114.2388050000,22.3196480000 114.2387300000,22.3197090000 114.2386620000,22.3197770000 114.2386020000,22.3198510000 114.2385510000,22.3199300000 114.2384470000,22.3201230000 114.2384400000,22.3201350000 114.2383410000,22.3203440000 114.2382780000,22.3204910000 114.2382500000,22.3205560000 114.2381680000,22.3207720000 114.2380550000,22.3211560000 114.2380200000,22.3212470000 114.2379980000,22.3212910000 114.2379350000,22.3213390000 114.2379170000,22.3213650000 114.2378540000,22.3214580000 114.2378260000,22.3214950000 114.2377720000,22.3215570000 114.2376960000,22.3216310000 114.2376770000,22.3216460000 114.2376420000,22.3217210000 114.2375570000,22.3217870000 114.2374570000,22.3218620000 114.2373640000,22.3219430000 114.2372780000,22.3220290000 114.2371990000,22.3221200000 114.2371280000,22.3222170000 114.2370640000,22.3223180000 114.2370070000,22.3224230000 114.2369600000,22.3225310000 114.2369200000,22.3226430000 114.2368990000,22.3227150000 114.2367540000,22.3232160000 114.2367270000,22.3233070000 114.2366920000,22.3233990000 114.2366490000,22.3234880000 114.2365990000,22.3235740000 114.2365420000,22.3236550000 114.2364870000,22.3237230000 114.2364270000,22.3237860000 114.2362770000,22.3239380000 114.2362000000,22.3239670000 114.2361700000,22.3239910000 114.2361450000,22.3240190000 114.2361020000,22.3240730000 114.2360810000,22.3241030000 114.2360590000,22.3241330000 114.2360260000,22.3241850000 114.2359950000,22.3242380000 114.2359780000,22.3242700000 114.2359620000,22.3243110000 114.2359690000,22.3243850000 114.2359320000,22.3244870000 114.2359050000,22.3245920000 114.2358870000,22.3246950000 114.2357570000,22.3256510000 114.2357230000,22.3259910000 114.2356590000,22.3263280000 114.2355640000,22.3266580000 114.2354400000,22.3269800000 114.2352710000,22.3273250000 114.2351060000,22.3275890000 114.2348990000,22.3278720000 114.2346670000,22.3281380000 114.2344620000,22.3283450000 114.2343450000,22.3284620000 114.2342500000,22.3285570000 114.2341350000,22.3284670000 114.2334380000,22.3279170000 114.2341350000,22.3284670000 114.2342500000,22.3285570000 114.2343450000,22.3284620000 114.2346670000,22.3281380000 114.2348990000,22.3278720000 114.2351060000,22.3275890000 114.2352710000,22.3273250000 114.2354400000,22.3269800000 114.2355640000,22.3266580000 114.2356590000,22.3263280000 114.2357230000,22.3259910000 114.2357570000,22.3256510000 114.2358870000,22.3246950000 114.2359050000,22.3245920000 114.2359320000,22.3244870000 114.2359690000,22.3243850000 114.2360310000,22.3243360000 114.2360530000,22.3243030000 114.2360700000,22.3242710000 114.2360970000,22.3242240000 114.2361260000,22.3241780000 114.2361690000,22.3241180000 114.2361360000,22.3240960000 114.2361020000,22.3240730000 114.2360400000,22.3240310000 114.2360090000,22.3240100000 114.2359770000,22.3239890000 114.2358840000,22.3239740000 114.2356470000,22.3238220000 114.2351940000,22.3235330000 114.2349160000,22.3233510000 114.2348690000,22.3233210000 114.2348370000,22.3233000000 114.2347930000,22.3232710000 114.2347420000,22.3232380000 114.2345730000,22.3231250000 114.2344040000,22.3230140000 114.2340720000,22.3227970000 114.2340460000,22.3227290000 114.2340250000,22.3227000000 114.2340060000,22.3226730000 114.2339720000,22.3226300000 114.2339720000,22.3225850000 114.2339560000,22.3225440000 114.2339270000,22.3225090000 114.2338880000,22.3224850000 114.2338420000,22.3224740000 114.2337950000,22.3224770000 114.2337510000,22.3224950000 114.2337160000,22.3225240000 114.2336930000,22.3225620000 114.2336440000,22.3226170000 114.2336160000,22.3226480000 114.2335950000,22.3226720000 114.2335240000,22.3227460000 114.2333410000,22.3228730000 114.2327260000,22.3232790000 114.2326410000,22.3233710000 114.2325810000,22.3234420000 114.2325270000,22.3235180000 114.2324800000,22.3235990000 114.2321940000,22.3240970000 114.2318840000,22.3249260000 114.2315100000,22.3257970000 114.2314350000,22.3259900000 114.2314000000,22.3260410000 114.2313570000,22.3260860000 114.2313080000,22.3261250000 114.2312570000,22.3261550000 114.2312020000,22.3261780000 114.2311440000,22.3261950000 114.2310850000,22.3262040000 114.2308600000,22.3262020000 114.2308350000,22.3262040000 114.2307160000,22.3262060000 114.2306270000,22.3262110000 114.2306220000,22.3263620000 114.2306240000,22.3264270000 114.2306250000,22.3264660000 114.2306260000,22.3264970000 114.2306240000,22.3265780000 114.2306160000,22.3266940000 114.2306030000,22.3268420000 114.2305790000,22.3270050000 114.2305320000,22.3272120000 114.2304890000,22.3273540000 114.2304610000,22.3274100000 114.2304430000,22.3274460000 114.2304140000,22.3275020000 114.2303740000,22.3275560000 114.2303400000,22.3275670000 114.2303090000,22.3275850000 114.2302830000,22.3276090000 114.2302650000,22.3276380000 114.2302540000,22.3276670000 114.2302510000,22.3276980000 114.2302540000,22.3277290000 114.2302650000,22.3277590000 114.2302590000,22.3278240000 114.2302540000,22.3278590000 114.2302440000,22.3278990000 114.2302250000,22.3279600000 114.2301970000,22.3280220000 114.2301640000,22.3280860000 114.2301280000,22.3281460000 114.2300540000,22.3282610000 114.2299290000,22.3284380000 114.2297020000,22.3287150000 114.2295860000,22.3288430000 114.2294800000,22.3289460000 114.2293640000,22.3290510000 114.2292640000,22.3291350000 114.2290920000,22.3292730000 114.2289180000,22.3293940000 114.2288030000,22.3294720000 114.2286880000,22.3295560000 114.2286090000,22.3296190000 114.2285710000,22.3296540000 114.2285340000,22.3296930000 114.2284960000,22.3297400000 114.2284560000,22.3297920000 114.2284170000,22.3298460000 114.2283880000,22.3298910000 114.2283510000,22.3299580000 114.2283170000,22.3300370000 114.2282900000,22.3301060000 114.2282640000,22.3301830000 114.2282440000,22.3302670000 114.2282330000,22.3303380000 114.2282270000,22.3303910000 114.2282220000,22.3304630000 114.2282230000,22.3305640000 114.2282310000,22.3306600000 114.2282420000,22.3307420000 114.2282590000,22.3308240000 114.2282880000,22.3309110000 114.2283070000,22.3309590000 114.2283290000,22.3310090000 114.2283510000,22.3310560000 114.2283750000,22.3310990000 114.2284060000,22.3311500000 114.2284350000,22.3311970000 114.2284630000,22.3312440000 114.2284900000,22.3312890000 114.2285180000,22.3313390000 114.2285440000,22.3313830000 114.2285710000,22.3314320000 114.2285970000,22.3314790000 114.2286240000,22.3315260000 114.2286500000,22.3315770000 114.2286710000,22.3316240000 114.2286880000,22.3316760000 114.2287000000,22.3317260000 114.2287100000,22.3317800000 114.2287190000,22.3318350000 114.2287240000,22.3318850000 114.2287250000,22.3319320000 114.2287240000,22.3319780000 114.2287200000,22.3320340000 114.2287100000,22.3320890000 114.2286950000,22.3321700000 114.2286820000,22.3322400000 114.2286240000,22.3323670000 114.2285640000,22.3324750000 114.2284990000,22.3325850000 114.2284280000,22.3327850000 114.2284030000,22.3328660000 114.2283900000,22.3329500000 114.2283820000,22.3330320000 114.2283710000,22.3331780000 114.2283670000,22.3332510000 114.2283480000,22.3337090000 114.2283370000,22.3339070000 114.2283320000,22.3339710000 114.2282490000,22.3340920000 114.2282230000,22.3341220000 114.2282060000,22.3341420000 114.2281310000,22.3341940000 114.2280750000,22.3342400000 114.2277940000,22.3342420000 114.2276810000,22.3342430000 114.2275880000,22.3342410000 114.2274470000,22.3342370000 114.2273070000,22.3342530000 114.2272540000,22.3342680000 114.2271550000,22.3343140000 114.2271210000,22.3343710000 114.2271140000,22.3343850000 114.2271070000,22.3343990000 114.2271030000,22.3344670000 114.2270710000,22.3344890000 114.2270530000,22.3345010000 114.2270340000,22.3345100000 114.2270140000,22.3345170000 114.2269970000,22.3345210000 114.2269760000,22.3345230000 114.2269510000,22.3345240000 114.2268390000,22.3344910000 114.2266300000,22.3343890000 114.2264630000,22.3343140000 114.2264060000,22.3342910000 114.2263740000,22.3342800000 114.2263350000,22.3342690000 114.2262910000,22.3342590000 114.2257710000,22.3342170000 114.2252890000,22.3341690000 114.2252440000,22.3341650000 114.2251670000,22.3341570000 114.2251250000,22.3341370000 114.2251100000,22.3341330000 114.2250640000,22.3341280000 114.2250120000,22.3341230000 114.2249720000,22.3341230000 114.2249280000,22.3341240000 114.2249170000,22.3341260000 114.2248840000,22.3341290000 114.2248060000,22.3341700000 114.2246900000,22.3342090000 114.2245790000,22.3342610000 114.2244750000,22.3343300000 114.2243960000,22.3343770000 114.2243380000,22.3344060000 114.2242620000,22.3344420000 114.2241320000,22.3344880000 114.2240490000,22.3344940000 114.2239930000,22.3344960000 114.2239130000,22.3344910000 114.2237620000,22.3344580000 114.2234800000,22.3343810000 114.2226090000,22.3341230000 114.2224460000,22.3340870000 114.2218510000,22.3339380000 114.2217870000,22.3339260000 114.2215860000,22.3339090000 114.2214970000,22.3339030000 114.2213630000,22.3338950000 114.2212640000,22.3338870000 114.2212070000,22.3338830000 114.2210910000,22.3338760000 114.2208340000,22.3338540000 114.2207720000,22.3338500000 114.2207350000,22.3338480000 114.2196830000,22.3337780000 114.2192760000,22.3337490000 114.2188060000,22.3337160000 114.2186390000,22.3337260000 114.2184620000,22.3337510000 114.2182370000,22.3338250000 114.2182170000,22.3338310000 114.2181450000,22.3338600000 114.2180180000,22.3339350000 114.2179590000,22.3339670000 114.2177640000,22.3341050000 114.2176050000,22.3342170000 114.2174840000,22.3342770000 114.2173080000,22.3343340000 114.2170840000,22.3343890000 114.2168050000,22.3344410000 114.2166530000,22.3344440000 114.2164920000,22.3344010000 114.2163890000,22.3343370000 114.2163010000,22.3342620000 114.2161270000,22.3340920000 114.2160690000,22.3340350000 114.2159710000,22.3339410000 114.2159150000,22.3338880000 114.2157880000,22.3338020000 114.2156700000,22.3337540000 114.2155070000,22.3337000000 114.2153410000,22.3336460000 114.2152540000,22.3336350000 114.2150780000,22.3336040000 114.2147300000,22.3335420000 114.2145920000,22.3335170000 114.2144250000,22.3334870000 114.2142200000,22.3334740000 114.2140340000,22.3334750000 114.2138670000,22.3335060000 114.2137520000,22.3335420000 114.2136130000,22.3335930000 114.2134680000,22.3336540000 114.2132990000,22.3337180000 114.2131850000,22.3337540000 114.2131190000,22.3337650000 114.2130530000,22.3337650000 114.2130000000,22.3337600000 114.2129110000,22.3337430000 114.2128170000,22.3337170000 114.2127420000,22.3336820000 114.2126550000,22.3336300000 114.2126360000,22.3336150000 114.2126150000,22.3335980000 114.2125230000,22.3335320000 114.2124270000,22.3334660000 114.2122090000,22.3337590000 114.2120330000,22.3339410000 114.2119050000,22.3340380000 114.2116770000,22.3341500000 114.2115060000,22.3342190000 114.2113180000,22.3342760000 114.2110930000,22.3343140000 114.2110010000,22.3343230000 114.2108550000,22.3343290000 114.2107120000,22.3343220000 114.2106140000,22.3343170000 114.2104470000,22.3343000000 114.2102250000,22.3342630000 114.2098980000,22.3341950000 114.2097940000,22.3341720000 114.2092650000,22.3340640000 114.2090910000,22.3340490000 114.2087050000,22.3340720000 114.2085150000,22.3341390000 114.2083270000,22.3342060000 114.2081940000,22.3342530000 114.2081090000,22.3342900000 114.2080000000,22.3343360000 114.2080050000,22.3344320000 114.2080030000,22.3345270000 114.2079940000,22.3345770000 114.2079880000,22.3346070000 114.2079790000,22.3346360000 114.2079570000,22.3346940000 114.2078730000,22.3348950000 114.2077320000,22.3351980000 114.2077250000,22.3352110000 114.2076860000,22.3352950000 114.2076510000,22.3353700000 114.2076190000,22.3354420000 114.2075480000,22.3355980000 114.2074350000,22.3358460000 114.2074100000,22.3359010000 114.2074010000,22.3359970000 114.2073760000,22.3360480000 114.2073560000,22.3360870000 114.2073230000,22.3361410000 114.2072850000,22.3361990000 114.2072740000,22.3362150000 114.2072580000,22.3362400000 114.2072210000,22.3362940000 114.2071800000,22.3363450000 114.2071440000,22.3363850000 114.2071020000,22.3364290000 114.2070320000,22.3364970000 114.2069650000,22.3365610000 114.2068930000,22.3366200000 114.2068400000,22.3366590000 114.2067850000,22.3366990000 114.2067040000,22.3367530000 114.2065980000,22.3368240000 114.2065370000,22.3368620000 114.2065140000,22.3368770000 114.2064720000,22.3369040000 114.2063830000,22.3369600000 114.2063260000,22.3369950000 114.2062660000,22.3370330000 114.2061340000,22.3371140000 114.2060170000,22.3371880000 114.2058320000,22.3372900000 114.2056660000,22.3373870000 114.2053080000,22.3375820000 114.2052530000,22.3375940000 114.2051460000,22.3375920000 114.2050520000,22.3375830000 114.2049260000,22.3375560000 114.2047910000,22.3375010000 114.2047630000,22.3374610000 114.2047270000,22.3374130000 114.2046360000,22.3373070000 114.2045900000,22.3372570000 114.2045240000,22.3371850000 114.2044780000,22.3371370000 114.2044330000,22.3370870000 114.2043880000,22.3370350000 114.2043570000,22.3369930000 114.2043310000,22.3369500000 114.2043100000,22.3369020000 114.2042700000,22.3367740000 114.2042730000,22.3367480000 114.2042710000,22.3367220000 114.2042660000,22.3366960000 114.2042520000,22.3366570000 114.2042290000,22.3366190000 114.2042000000,22.3365920000 114.2041620000,22.3365660000 114.2041180000,22.3365480000 114.2040890000,22.3365410000 114.2040590000,22.3365380000 114.2040280000,22.3365390000 114.2039900000,22.3365450000 114.2039530000,22.3365570000 114.2039190000,22.3365760000 114.2038890000,22.3365990000 114.2038640000,22.3366270000 114.2038450000,22.3366590000 114.2038320000,22.3366930000 114.2038250000,22.3367290000 114.2036130000,22.3369050000 114.2033700000,22.3371200000 114.2033250000,22.3372320000 114.2033160000,22.3372740000 114.2033070000,22.3373010000 114.2033000000,22.3373900000 114.2033100000,22.3374610000 114.2033120000,22.3375120000 114.2034050000,22.3375090000 114.2035150000,22.3375110000 114.2036070000,22.3375110000 114.2037140000,22.3375170000 114.2038280000,22.3375300000 114.2039260000,22.3375460000 114.2040890000,22.3375830000 114.2043230000,22.3376470000 114.2044960000,22.3376980000 114.2047290000,22.3377770000 114.2048230000,22.3378140000 114.2049680000,22.3378770000 114.2050650000,22.3379260000 114.2051570000,22.3379780000 114.2052630000,22.3380430000 114.2053670000,22.3381140000 114.2054750000,22.3381960000 114.2055940000,22.3382890000 114.2056970000,22.3383800000 114.2058500000,22.3385320000 114.2059210000,22.3386000000 114.2060110000,22.3386800000 114.2060630000,22.3387360000 114.2061000000,22.3387900000 114.2061310000,22.3388520000 114.2061520000,22.3389290000 114.2061530000,22.3390780000 114.2061420000,22.3391280000 114.2061430000,22.3391720000 114.2061520000,22.3392160000 114.2061700000,22.3392570000 114.2061970000,22.3392940000 114.2062300000,22.3393260000 114.2062690000,22.3393510000 114.2063130000,22.3393700000 114.2063600000,22.3393800000 114.2064270000,22.3393800000 114.2064910000,22.3393640000 114.2065890000,22.3393500000 114.2066510000,22.3393410000 114.2067290000,22.3393430000 114.2068020000,22.3393580000 114.2068810000,22.3393820000 114.2070130000,22.3394360000 114.2071180000,22.3395270000 114.2072900000,22.3396780000 114.2073190000,22.3397050000 114.2076500000,22.3400330000 114.2076760000,22.3400570000 114.2077810000,22.3401550000 114.2078380000,22.3402100000 114.2082160000,22.3405480000 114.2083100000,22.3406450000 114.2083760000,22.3407400000 114.2084150000,22.3408330000 114.2084430000,22.3409130000 114.2084710000,22.3411120000 114.2084670000,22.3412070000 114.2084340000,22.3413580000 114.2083480000,22.3415850000 114.2082020000,22.3419750000 114.2081320000,22.3421590000 114.2080500000,22.3423780000 114.2080280000,22.3424380000 114.2079630000,22.3426450000 114.2079430000,22.3427090000 114.2077960000,22.3431790000 114.2077420000,22.3433450000 114.2075530000,22.3439510000 114.2075210000,22.3440610000 114.2074690000,22.3442240000 114.2073910000,22.3443900000 114.2073700000,22.3444140000 114.2071650000,22.3446470000 114.2071160000,22.3446970000 114.2066280000,22.3452090000 114.2064590000,22.3453860000 114.2063610000,22.3454890000 114.2062130000,22.3456430000 114.2060910000,22.3457580000 114.2060640000,22.3457850000 114.2059310000,22.3458970000 114.2058210000,22.3459770000 114.2057620000,22.3460210000 114.2056370000,22.3461020000 114.2055120000,22.3461820000 114.2052410000,22.3463130000 114.2051070000,22.3463610000 114.2050490000,22.3463790000 114.2048710000,22.3464360000 114.2047530000,22.3464580000 114.2046400000,22.3464740000 114.2045260000,22.3464780000 114.2044180000,22.3464820000 114.2041760000,22.3464750000 114.2041860000,22.3467970000 114.2041900000,22.3469590000 114.2041950000,22.3471140000 114.2041970000,22.3472260000 114.2042000000,22.3473670000 114.2042020000,22.3474750000 114.2042040000,22.3475700000 114.2042090000,22.3478650000 114.2042100000,22.3479450000 114.2042120000,22.3480790000 114.2042080000,22.3481810000 114.2041920000,22.3482580000 114.2041590000,22.3483360000 114.2041290000,22.3483910000 114.2040980000,22.3484320000 114.2040590000,22.3484700000 114.2040180000,22.3485020000 114.2039760000,22.3485270000 114.2039290000,22.3485470000 114.2038880000,22.3485600000 114.2038410000,22.3485700000 114.2037970000,22.3485750000 114.2033320000,22.3486090000 114.2029590000,22.3486300000 114.2029490000,22.3486300000 114.2028520000,22.3486390000 114.2028230000,22.3486410000 114.2028140000,22.3486420000 114.2026900000,22.3486620000 114.2025840000,22.3486860000 114.2025230000,22.3487080000 114.2024560000,22.3487380000 114.2023950000,22.3487740000 114.2023180000,22.3488280000 114.2022670000,22.3488700000 114.2022230000,22.3489190000 114.2021840000,22.3489680000 114.2021390000,22.3490410000 114.2020200000,22.3492570000 114.2019580000,22.3493570000 114.2018900000,22.3494620000 114.2018320000,22.3495370000 114.2017700000,22.3496080000 114.2016620000,22.3497180000 114.2015960000,22.3497800000 114.2015130000,22.3498510000 114.2014310000,22.3499180000 114.2013440000,22.3499820000 114.2013100000,22.3500040000 114.2012270000,22.3500530000 114.2011510000,22.3500900000 114.2010720000,22.3501230000 114.2009770000,22.3501580000 114.2008720000,22.3501960000 114.2008330000,22.3502100000 114.2008020000,22.3502210000 114.2006850000,22.3502620000 114.2003710000,22.3503790000 114.2002330000,22.3504220000 114.1997020000,22.3506260000 114.1995240000,22.3506860000 114.1993260000,22.3507520000 114.1992340000,22.3507830000 114.1991120000,22.3508190000 114.1989970000,22.3508410000 114.1988380000,22.3508580000 114.1987230000,22.3508600000 114.1985850000,22.3508580000 114.1985200000,22.3508500000 114.1985090000,22.3508810000 114.1985030000,22.3508960000 114.1984940000,22.3509220000 114.1984700000,22.3509640000 114.1983670000,22.3510990000 114.1983450000,22.3511150000 114.1983200000,22.3511260000 114.1982930000,22.3511250000</coordinates>
                </LineString>
                <ExtendedData>
                    <Data name="duration">
                        <value>00:41:39</value>
                    </Data>
                    <Data name="length">
                        <value>29319.861266016167</value>
                    </Data>
                </ExtendedData>
            </Placemark>
        </Document>
    </Document>
</kml>