<?xml version="1.0" encoding="UTF-8"?>
<kml xmlns="http://www.opengis.net/kml/2.2" xmlns:gx="http://www.google.com/kml/ext/2.2">
    <Document>
        <name>Route</name>
        <Folder>
            <name>Route Request</name>
            <Placemark>
                <address>Metro City Plaza II, Yan King Road, Po Lam, Tseung Kwan O Village, Sai Kung District, New Territories, Hong Kong, China</address>
                <Point>
                    <coordinates>114.2584990459,22.3228251293</coordinates>
                </Point>
                <ExtendedData>
                    <Data name="shop">
                        <value>Metro City Plaza II</value>
                    </Data>
                    <Data name="city">
                        <value>Sai Kung District</value>
                    </Data>
                    <Data name="country">
                        <value>China</value>
                    </Data>
                    <Data name="road">
                        <value>Yan King Road</value>
                    </Data>
                    <Data name="state">
                        <value>Hong Kong</value>
                    </Data>
                    <Data name="suburb">
                        <value>Po Lam</value>
                    </Data>
                    <Data name="municipality">
                        <value>New Territories</value>
                    </Data>
                    <Data name="village">
                        <value>Tseung Kwan O Village</value>
                    </Data>
                    <Data name="country_code">
                        <value>cn</value>
                    </Data>
                    <Data name="ISO3166-2-lvl3">
                        <value>CN-HK</value>
                    </Data>
                </ExtendedData>
            </Placemark>
            <Placemark>
                <address>101, Sau Ming Road, Sau Mau Ping Estate, Kwun Tong, Kwun Tong District, Kowloon, Hong Kong, 000000, China</address>
                <Point>
                    <coordinates>114.2337451479,22.3280113327</coordinates>
                </Point>
                <ExtendedData>
                    <Data name="routingVisited">
                        <value>false</value>
                    </Data>
                    <Data name="city">
                        <value>Kowloon</value>
                    </Data>
                    <Data name="country">
                        <value>China</value>
                    </Data>
                    <Data name="road">
                        <value>Sau Ming Road</value>
                    </Data>
                    <Data name="state">
                        <value>Hong Kong</value>
                    </Data>
                    <Data name="postcode">
                        <value>000000</value>
                    </Data>
                    <Data name="suburb">
                        <value>Kwun Tong</value>
                    </Data>
                    <Data name="house_number">
                        <value>101</value>
                    </Data>
                    <Data name="city_district">
                        <value>Kwun Tong District</value>
                    </Data>
                    <Data name="country_code">
                        <value>cn</value>
                    </Data>
                    <Data name="residential">
                        <value>Sau Mau Ping Estate</value>
                    </Data>
                    <Data name="ISO3166-2-lvl3">
                        <value>CN-HK</value>
                    </Data>
                </ExtendedData>
            </Placemark>
            <Placemark>
                <address>Sau Ming Road, Kwun Tong Mid-Levels, Sau Mau Ping, Kwun Tong District, Kowloon, Hong Kong, 000000, China</address>
                <Point>
                    <coordinates>114.2336525284,22.3280599462</coordinates>
                </Point>
                <ExtendedData>
                    <Data name="routingVisited">
                        <value>false</value>
                    </Data>
                    <Data name="city">
                        <value>Kowloon</value>
                    </Data>
                    <Data name="country">
                        <value>China</value>
                    </Data>
                    <Data name="road">
                        <value>Sau Ming Road</value>
                    </Data>
                    <Data name="state">
                        <value>Hong Kong</value>
                    </Data>
                    <Data name="postcode">
                        <value>000000</value>
                    </Data>
                    <Data name="suburb">
                        <value>Sau Mau Ping</value>
                    </Data>
                    <Data name="city_district">
                        <value>Kwun Tong District</value>
                    </Data>
                    <Data name="quarter">
                        <value>Kwun Tong Mid-Levels</value>
                    </Data>
                    <Data name="country_code">
                        <value>cn</value>
                    </Data>
                    <Data name="ISO3166-2-lvl3">
                        <value>CN-HK</value>
                    </Data>
                </ExtendedData>
            </Placemark>
            <Placemark>
                <Point>
                    <coordinates>114.2241192878,22.3331969446</coordinates>
                </Point>
            </Placemark>
            <Placemark>
                <Point>
                    <coordinates>114.2260378676,22.3235871492</coordinates>
                </Point>
            </Placemark>
            <Placemark>
                <address>United Christian College (Kowloon East), 2, Lee On Lane, Jordan Valley, Kwun Tong District, Kowloon, Hong Kong, 000000, China</address>
                <Point>
                    <coordinates>114.2230331175,22.3206960417</coordinates>
                </Point>
                <ExtendedData>
                    <Data name="amenity">
                        <value>United Christian College (Kowloon East)</value>
                    </Data>
                    <Data name="routingVisited">
                        <value>false</value>
                    </Data>
                    <Data name="city">
                        <value>Kowloon</value>
                    </Data>
                    <Data name="country">
                        <value>China</value>
                    </Data>
                    <Data name="road">
                        <value>Lee On Lane</value>
                    </Data>
                    <Data name="state">
                        <value>Hong Kong</value>
                    </Data>
                    <Data name="postcode">
                        <value>000000</value>
                    </Data>
                    <Data name="suburb">
                        <value>Jordan Valley</value>
                    </Data>
                    <Data name="house_number">
                        <value>2</value>
                    </Data>
                    <Data name="city_district">
                        <value>Kwun Tong District</value>
                    </Data>
                    <Data name="country_code">
                        <value>cn</value>
                    </Data>
                    <Data name="ISO3166-2-lvl3">
                        <value>CN-HK</value>
                    </Data>
                </ExtendedData>
            </Placemark>
            <Placemark>
                <address>Prince Edward Road West, Kau Pui Shek, Ma Tau Wai, Kowloon City District, Kowloon, Hong Kong, 000000, China</address>
                <Point>
                    <coordinates>114.1891829597,22.3274833714</coordinates>
                </Point>
                <ExtendedData>
                    <Data name="city">
                        <value>Kowloon</value>
                    </Data>
                    <Data name="country">
                        <value>China</value>
                    </Data>
                    <Data name="neighbourhood">
                        <value>Kau Pui Shek</value>
                    </Data>
                    <Data name="road">
                        <value>Prince Edward Road West</value>
                    </Data>
                    <Data name="state">
                        <value>Hong Kong</value>
                    </Data>
                    <Data name="postcode">
                        <value>000000</value>
                    </Data>
                    <Data name="suburb">
                        <value>Ma Tau Wai</value>
                    </Data>
                    <Data name="city_district">
                        <value>Kowloon City District</value>
                    </Data>
                    <Data name="country_code">
                        <value>cn</value>
                    </Data>
                    <Data name="ISO3166-2-lvl3">
                        <value>CN-HK</value>
                    </Data>
                </ExtendedData>
            </Placemark>
            <Placemark>
                <address>Mong Kok Station, Argyle Street, Mong Kok, Yau Tsim Mong District, Kowloon, Hong Kong, 000000, China</address>
                <Point>
                    <coordinates>114.1709422293,22.3197044779</coordinates>
                </Point>
                <ExtendedData>
                    <Data name="city">
                        <value>Kowloon</value>
                    </Data>
                    <Data name="country">
                        <value>China</value>
                    </Data>
                    <Data name="road">
                        <value>Argyle Street</value>
                    </Data>
                    <Data name="state">
                        <value>Hong Kong</value>
                    </Data>
                    <Data name="postcode">
                        <value>000000</value>
                    </Data>
                    <Data name="suburb">
                        <value>Mong Kok</value>
                    </Data>
                    <Data name="city_district">
                        <value>Yau Tsim Mong District</value>
                    </Data>
                    <Data name="highway">
                        <value>Mong Kok Station</value>
                    </Data>
                    <Data name="country_code">
                        <value>cn</value>
                    </Data>
                    <Data name="ISO3166-2-lvl3">
                        <value>CN-HK</value>
                    </Data>
                </ExtendedData>
            </Placemark>
            <Placemark>
                <address>Ma Tau Chung Road, Kau Pui Shek, Ma Tau Chung, Kowloon City District, Kowloon, Hong Kong, 000000, China</address>
                <Point>
                    <coordinates>114.1906006467,22.3276131178</coordinates>
                </Point>
                <ExtendedData>
                    <Data name="city">
                        <value>Kowloon</value>
                    </Data>
                    <Data name="country">
                        <value>China</value>
                    </Data>
                    <Data name="neighbourhood">
                        <value>Kau Pui Shek</value>
                    </Data>
                    <Data name="road">
                        <value>Ma Tau Chung Road</value>
                    </Data>
                    <Data name="state">
                        <value>Hong Kong</value>
                    </Data>
                    <Data name="postcode">
                        <value>000000</value>
                    </Data>
                    <Data name="suburb">
                        <value>Ma Tau Chung</value>
                    </Data>
                    <Data name="city_district">
                        <value>Kowloon City District</value>
                    </Data>
                    <Data name="country_code">
                        <value>cn</value>
                    </Data>
                    <Data name="ISO3166-2-lvl3">
                        <value>CN-HK</value>
                    </Data>
                </ExtendedData>
            </Placemark>
            <Placemark>
                <address>Lee On Road, Jordan Valley, Kwun Tong District, Kowloon, Hong Kong, China</address>
                <Point>
                    <coordinates>114.2181564043,22.3224799428</coordinates>
                </Point>
                <ExtendedData>
                    <Data name="routingVisited">
                        <value>false</value>
                    </Data>
                    <Data name="city">
                        <value>Kowloon</value>
                    </Data>
                    <Data name="country">
                        <value>China</value>
                    </Data>
                    <Data name="road">
                        <value>Lee On Road</value>
                    </Data>
                    <Data name="state">
                        <value>Hong Kong</value>
                    </Data>
                    <Data name="suburb">
                        <value>Jordan Valley</value>
                    </Data>
                    <Data name="city_district">
                        <value>Kwun Tong District</value>
                    </Data>
                    <Data name="country_code">
                        <value>cn</value>
                    </Data>
                    <Data name="ISO3166-2-lvl3">
                        <value>CN-HK</value>
                    </Data>
                </ExtendedData>
            </Placemark>
            <Placemark>
                <Point>
                    <coordinates>114.2218483223,22.3307993652</coordinates>
                </Point>
            </Placemark>
            <Placemark>
                <address>Kwun Tong Government Primary School (Sau Ming Road), 130, Sau Ming Road, Sau Mau Ping Estate, Sau Mau Ping, Kwun Tong District, Kowloon, Hong Kong, 000000, China</address>
                <Point>
                    <coordinates>114.2337746068,22.3280132951</coordinates>
                </Point>
                <ExtendedData>
                    <Data name="amenity">
                        <value>Kwun Tong Government Primary School (Sau Ming Road)</value>
                    </Data>
                    <Data name="routingVisited">
                        <value>false</value>
                    </Data>
                    <Data name="city">
                        <value>Kowloon</value>
                    </Data>
                    <Data name="country">
                        <value>China</value>
                    </Data>
                    <Data name="road">
                        <value>Sau Ming Road</value>
                    </Data>
                    <Data name="state">
                        <value>Hong Kong</value>
                    </Data>
                    <Data name="postcode">
                        <value>000000</value>
                    </Data>
                    <Data name="suburb">
                        <value>Sau Mau Ping</value>
                    </Data>
                    <Data name="house_number">
                        <value>130</value>
                    </Data>
                    <Data name="city_district">
                        <value>Kwun Tong District</value>
                    </Data>
                    <Data name="country_code">
                        <value>cn</value>
                    </Data>
                    <Data name="residential">
                        <value>Sau Mau Ping Estate</value>
                    </Data>
                    <Data name="ISO3166-2-lvl3">
                        <value>CN-HK</value>
                    </Data>
                </ExtendedData>
            </Placemark>
            <Placemark>
                <address>Metro City Plaza II, Yan King Road, Po Lam, Tseung Kwan O Village, Sai Kung District, New Territories, Hong Kong, China</address>
                <Point>
                    <coordinates>114.2578640705,22.3232964221</coordinates>
                </Point>
                <ExtendedData>
                    <Data name="shop">
                        <value>Metro City Plaza II</value>
                    </Data>
                    <Data name="city">
                        <value>Sai Kung District</value>
                    </Data>
                    <Data name="country">
                        <value>China</value>
                    </Data>
                    <Data name="road">
                        <value>Yan King Road</value>
                    </Data>
                    <Data name="state">
                        <value>Hong Kong</value>
                    </Data>
                    <Data name="suburb">
                        <value>Po Lam</value>
                    </Data>
                    <Data name="municipality">
                        <value>New Territories</value>
                    </Data>
                    <Data name="village">
                        <value>Tseung Kwan O Village</value>
                    </Data>
                    <Data name="country_code">
                        <value>cn</value>
                    </Data>
                    <Data name="ISO3166-2-lvl3">
                        <value>CN-HK</value>
                    </Data>
                </ExtendedData>
            </Placemark>
        </Folder>
        <Document>
            <name>42.7 km; 00:58 h (OSRM)</name>
            <Placemark>
                <name>Route</name>
                <LineString>
                    <coordinates>114.2585740000,22.3228790000 114.2582570000,22.3232580000 114.2581790000,22.3233600000 114.2577980000,22.3238700000 114.2577420000,22.3239960000 114.2579350000,22.3241480000 114.2580280000,22.3242220000 114.2576990000,22.3245560000 114.2575920000,22.3246530000 114.2575620000,22.3246850000 114.2575430000,22.3247020000 114.2574610000,22.3247800000 114.2574040000,22.3248350000 114.2575870000,22.3250090000 114.2578540000,22.3252630000 114.2580730000,22.3254610000 114.2583550000,22.3256740000 114.2583620000,22.3256790000 114.2583810000,22.3256930000 114.2585390000,22.3258090000 114.2583420000,22.3260270000 114.2579630000,22.3263620000 114.2575250000,22.3266190000 114.2572210000,22.3267690000 114.2568900000,22.3268790000 114.2566330000,22.3269410000 114.2565770000,22.3269560000 114.2563330000,22.3270170000 114.2562290000,22.3270380000 114.2561120000,22.3270550000 114.2558780000,22.3270810000 114.2557180000,22.3270830000 114.2554250000,22.3270840000 114.2551090000,22.3270590000 114.2549880000,22.3270410000 114.2548520000,22.3270220000 114.2547070000,22.3269950000 114.2543670000,22.3269330000 114.2542730000,22.3269140000 114.2540010000,22.3268560000 114.2534430000,22.3267150000 114.2533080000,22.3266760000 114.2522430000,22.3264070000 114.2521130000,22.3263720000 114.2518710000,22.3263100000 114.2515810000,22.3262300000 114.2513760000,22.3261750000 114.2512910000,22.3261500000 114.2512070000,22.3261280000 114.2510030000,22.3260770000 114.2508820000,22.3260500000 114.2507050000,22.3260500000 114.2506060000,22.3260150000 114.2504340000,22.3259640000 114.2503720000,22.3259350000 114.2502140000,22.3258600000 114.2500850000,22.3257760000 114.2499740000,22.3256820000 114.2498940000,22.3255960000 114.2497940000,22.3254720000 114.2497200000,22.3253600000 114.2496720000,22.3252550000 114.2496340000,22.3251160000 114.2496200000,22.3250220000 114.2496180000,22.3249360000 114.2496210000,22.3248420000 114.2496300000,22.3247580000 114.2496470000,22.3246750000 114.2496800000,22.3245830000 114.2497280000,22.3244910000 114.2497910000,22.3243880000 114.2498430000,22.3243200000 114.2499020000,22.3242510000 114.2499610000,22.3241910000 114.2501280000,22.3240340000 114.2502010000,22.3239580000 114.2502520000,22.3239000000 114.2503010000,22.3238360000 114.2503460000,22.3237670000 114.2503780000,22.3237100000 114.2504050000,22.3236450000 114.2504270000,22.3235760000 114.2504420000,22.3234980000 114.2504530000,22.3234160000 114.2504570000,22.3233360000 114.2504540000,22.3232530000 114.2504420000,22.3231800000 114.2504220000,22.3231000000 114.2503900000,22.3230130000 114.2503440000,22.3229150000 114.2502720000,22.3228020000 114.2501730000,22.3226450000 114.2500810000,22.3225190000 114.2500320000,22.3224030000 114.2500020000,22.3223360000 114.2499810000,22.3222930000 114.2499740000,22.3222490000 114.2499750000,22.3221160000 114.2499830000,22.3219780000 114.2499920000,22.3218910000 114.2500120000,22.3218070000 114.2500440000,22.3217250000 114.2500820000,22.3216360000 114.2501170000,22.3215530000 114.2501730000,22.3214350000 114.2502100000,22.3213570000 114.2503310000,22.3210450000 114.2505420000,22.3204540000 114.2506330000,22.3201860000 114.2506830000,22.3200460000 114.2507340000,22.3199150000 114.2507820000,22.3198250000 114.2508550000,22.3197230000 114.2509110000,22.3196710000 114.2509940000,22.3196120000 114.2510940000,22.3195530000 114.2511470000,22.3195270000 114.2512030000,22.3195070000 114.2512610000,22.3194890000 114.2513220000,22.3194760000 114.2513920000,22.3194680000 114.2514670000,22.3194650000 114.2517050000,22.3194800000 114.2519380000,22.3195740000 114.2519910000,22.3196110000 114.2521310000,22.3197330000 114.2524080000,22.3200380000 114.2525480000,22.3202050000 114.2526840000,22.3203100000 114.2528210000,22.3203920000 114.2530760000,22.3204690000 114.2533400000,22.3204740000 114.2535880000,22.3204310000 114.2537810000,22.3203500000 114.2539620000,22.3202120000 114.2541180000,22.3200340000 114.2542150000,22.3198450000 114.2542380000,22.3197760000 114.2542770000,22.3196600000 114.2543130000,22.3194860000 114.2543370000,22.3193660000 114.2543490000,22.3192270000 114.2543570000,22.3190380000 114.2543800000,22.3188100000 114.2543940000,22.3186720000 114.2543930000,22.3184840000 114.2543720000,22.3183470000 114.2542980000,22.3181590000 114.2542040000,22.3179950000 114.2541000000,22.3178770000 114.2539800000,22.3177740000 114.2538460000,22.3176870000 114.2537000000,22.3176170000 114.2535450000,22.3175670000 114.2533840000,22.3175370000 114.2532200000,22.3175270000 114.2529250000,22.3175200000 114.2527680000,22.3175170000 114.2525440000,22.3175230000 114.2523280000,22.3174950000 114.2521430000,22.3174450000 114.2520590000,22.3174120000 114.2519640000,22.3173750000 114.2516600000,22.3172620000 114.2514440000,22.3171960000 114.2511870000,22.3171620000 114.2509930000,22.3171800000 114.2508520000,22.3172220000 114.2507140000,22.3172750000 114.2506060000,22.3173330000 114.2505200000,22.3173860000 114.2504800000,22.3174200000 114.2504340000,22.3174730000 114.2503290000,22.3175930000 114.2502040000,22.3177640000 114.2498480000,22.3182600000 114.2497480000,22.3183820000 114.2496310000,22.3184940000 114.2494870000,22.3186050000 114.2493620000,22.3186900000 114.2492200000,22.3187600000 114.2491110000,22.3188030000 114.2489540000,22.3188520000 114.2487040000,22.3189060000 114.2483600000,22.3189800000 114.2481580000,22.3190240000 114.2480150000,22.3190510000 114.2478670000,22.3190670000 114.2477130000,22.3190620000 114.2475410000,22.3190400000 114.2471070000,22.3189290000 114.2468240000,22.3188560000 114.2466020000,22.3188220000 114.2464050000,22.3188470000 114.2461980000,22.3188960000 114.2460730000,22.3189620000 114.2459660000,22.3190520000 114.2458410000,22.3191920000 114.2457620000,22.3192920000 114.2455830000,22.3195080000 114.2455170000,22.3195770000 114.2453660000,22.3197240000 114.2452720000,22.3198130000 114.2452300000,22.3198480000 114.2451860000,22.3198830000 114.2450920000,22.3199590000 114.2450080000,22.3200210000 114.2446390000,22.3203020000 114.2444530000,22.3204440000 114.2441370000,22.3206650000 114.2439890000,22.3207670000 114.2438800000,22.3208360000 114.2438410000,22.3208620000 114.2437350000,22.3209170000 114.2436100000,22.3209720000 114.2435620000,22.3209890000 114.2434830000,22.3210170000 114.2433460000,22.3210450000 114.2432030000,22.3210620000 114.2430730000,22.3210550000 114.2429210000,22.3210360000 114.2428850000,22.3210310000 114.2428740000,22.3210280000 114.2427310000,22.3209890000 114.2425840000,22.3209300000 114.2425050000,22.3208920000 114.2424090000,22.3208340000 114.2423060000,22.3207460000 114.2422150000,22.3206500000 114.2421510000,22.3205600000 114.2417680000,22.3200290000 114.2415300000,22.3197200000 114.2413570000,22.3194960000 114.2412560000,22.3193950000 114.2411860000,22.3193360000 114.2410970000,22.3192690000 114.2410130000,22.3192050000 114.2408820000,22.3191380000 114.2407510000,22.3190780000 114.2406740000,22.3190460000 114.2405600000,22.3190130000 114.2404620000,22.3189880000 114.2402180000,22.3189420000 114.2399970000,22.3189010000 114.2399020000,22.3188820000 114.2395910000,22.3188080000 114.2395450000,22.3187550000 114.2394890000,22.3187400000 114.2394400000,22.3187470000 114.2393950000,22.3187320000 114.2393120000,22.3187020000 114.2392520000,22.3187110000 114.2391680000,22.3187190000 114.2391290000,22.3188150000 114.2391150000,22.3188470000 114.2390650000,22.3189240000 114.2390440000,22.3189690000 114.2390200000,22.3190110000 114.2389960000,22.3190360000 114.2389650000,22.3190570000 114.2389300000,22.3190730000 114.2388850000,22.3190860000 114.2388390000,22.3190890000 114.2387960000,22.3190820000 114.2387590000,22.3190710000 114.2387250000,22.3190570000 114.2386980000,22.3190370000 114.2386610000,22.3190040000 114.2384600000,22.3188070000 114.2384050000,22.3187580000 114.2383490000,22.3187130000 114.2382930000,22.3186760000 114.2382320000,22.3186420000 114.2381640000,22.3186110000 114.2381020000,22.3185890000 114.2380430000,22.3185740000 114.2379650000,22.3185590000 114.2378890000,22.3185500000 114.2378230000,22.3185480000 114.2377470000,22.3185510000 114.2376670000,22.3185610000 114.2375880000,22.3185790000 114.2374940000,22.3186100000 114.2374020000,22.3186520000 114.2373110000,22.3187060000 114.2372180000,22.3187780000 114.2370990000,22.3188920000 114.2369700000,22.3190320000 114.2368970000,22.3190990000 114.2368490000,22.3191300000 114.2368060000,22.3191470000 114.2367390000,22.3191700000 114.2367140000,22.3191710000 114.2366890000,22.3191760000 114.2366290000,22.3191570000 114.2365610000,22.3191360000 114.2363990000,22.3190800000 114.2362100000,22.3190230000 114.2360390000,22.3189880000 114.2359260000,22.3189680000 114.2358070000,22.3189490000 114.2357060000,22.3189380000 114.2356130000,22.3189340000 114.2355450000,22.3189380000 114.2354860000,22.3189490000 114.2354290000,22.3189660000 114.2353760000,22.3189870000 114.2353210000,22.3190160000 114.2352760000,22.3190450000 114.2352280000,22.3190790000 114.2351770000,22.3191210000 114.2351210000,22.3191730000 114.2344550000,22.3198300000 114.2339300000,22.3203300000 114.2337690000,22.3204960000 114.2337000000,22.3205730000 114.2335130000,22.3208040000 114.2334890000,22.3208350000 114.2333990000,22.3209530000 114.2332950000,22.3210930000 114.2329320000,22.3215610000 114.2326040000,22.3219590000 114.2325820000,22.3219830000 114.2324990000,22.3220840000 114.2316950000,22.3230570000 114.2310740000,22.3238990000 114.2309350000,22.3240870000 114.2308310000,22.3242420000 114.2307700000,22.3243480000 114.2307340000,22.3244170000 114.2306910000,22.3245170000 114.2306540000,22.3246190000 114.2306230000,22.3247220000 114.2306000000,22.3248270000 114.2305820000,22.3249360000 114.2305730000,22.3250460000 114.2305700000,22.3251590000 114.2306170000,22.3259390000 114.2306170000,22.3259630000 114.2306270000,22.3262110000 114.2307160000,22.3262060000 114.2308350000,22.3262040000 114.2308600000,22.3262020000 114.2310850000,22.3262040000 114.2311440000,22.3261950000 114.2312020000,22.3261780000 114.2312570000,22.3261550000 114.2313080000,22.3261250000 114.2313570000,22.3260860000 114.2314000000,22.3260410000 114.2314350000,22.3259900000 114.2315100000,22.3257970000 114.2318840000,22.3249260000 114.2321940000,22.3240970000 114.2324800000,22.3235990000 114.2325270000,22.3235180000 114.2325810000,22.3234420000 114.2326410000,22.3233710000 114.2327260000,22.3232790000 114.2333410000,22.3228730000 114.2335240000,22.3227460000 114.2336290000,22.3227340000 114.2336730000,22.3227280000 114.2336990000,22.3227240000 114.2337470000,22.3227180000 114.2337900000,22.3227360000 114.2338370000,22.3227410000 114.2338840000,22.3227310000 114.2339350000,22.3227540000 114.2339630000,22.3227660000 114.2339960000,22.3227800000 114.2340720000,22.3227970000 114.2344040000,22.3230140000 114.2345730000,22.3231250000 114.2347420000,22.3232380000 114.2347930000,22.3232710000 114.2348370000,22.3233000000 114.2348690000,22.3233210000 114.2349160000,22.3233510000 114.2351940000,22.3235330000 114.2356470000,22.3238220000 114.2358840000,22.3239740000 114.2359320000,22.3240470000 114.2359630000,22.3240690000 114.2359950000,22.3240900000 114.2360590000,22.3241330000 114.2360260000,22.3241850000 114.2359950000,22.3242380000 114.2359780000,22.3242700000 114.2359620000,22.3243110000 114.2359690000,22.3243850000 114.2359320000,22.3244870000 114.2359050000,22.3245920000 114.2358870000,22.3246950000 114.2357570000,22.3256510000 114.2357230000,22.3259910000 114.2356590000,22.3263280000 114.2355640000,22.3266580000 114.2354400000,22.3269800000 114.2352710000,22.3273250000 114.2351060000,22.3275890000 114.2348990000,22.3278720000 114.2346670000,22.3281380000 114.2343450000,22.3284620000 114.2342500000,22.3285570000 114.2341350000,22.3284670000 114.2336660000,22.3280970000 114.2336390000,22.3280750000 114.2334380000,22.3279170000 114.2341350000,22.3284670000 114.2342500000,22.3285570000 114.2343450000,22.3284620000 114.2346670000,22.3281380000 114.2348990000,22.3278720000 114.2351060000,22.3275890000 114.2352710000,22.3273250000 114.2354400000,22.3269800000 114.2355640000,22.3266580000 114.2356590000,22.3263280000 114.2357230000,22.3259910000 114.2357570000,22.3256510000 114.2358870000,22.3246950000 114.2359050000,22.3245920000 114.2359320000,22.3244870000 114.2359690000,22.3243850000 114.2360310000,22.3243360000 114.2360530000,22.3243030000 114.2360700000,22.3242710000 114.2360970000,22.3242240000 114.2361260000,22.3241780000 114.2361690000,22.3241180000 114.2361360000,22.3240960000 114.2361020000,22.3240730000 114.2360400000,22.3240310000 114.2360090000,22.3240100000 114.2359770000,22.3239890000 114.2358840000,22.3239740000 114.2356470000,22.3238220000 114.2351940000,22.3235330000 114.2349160000,22.3233510000 114.2348690000,22.3233210000 114.2348370000,22.3233000000 114.2347930000,22.3232710000 114.2347420000,22.3232380000 114.2345730000,22.3231250000 114.2344040000,22.3230140000 114.2340720000,22.3227970000 114.2340460000,22.3227290000 114.2340250000,22.3227000000 114.2340060000,22.3226730000 114.2339720000,22.3226300000 114.2339720000,22.3225850000 114.2339560000,22.3225440000 114.2339270000,22.3225090000 114.2338880000,22.3224850000 114.2338420000,22.3224740000 114.2337950000,22.3224770000 114.2337510000,22.3224950000 114.2337160000,22.3225240000 114.2336930000,22.3225620000 114.2336440000,22.3226170000 114.2336160000,22.3226480000 114.2335950000,22.3226720000 114.2335240000,22.3227460000 114.2333410000,22.3228730000 114.2327260000,22.3232790000 114.2326410000,22.3233710000 114.2325810000,22.3234420000 114.2325270000,22.3235180000 114.2324800000,22.3235990000 114.2321940000,22.3240970000 114.2318840000,22.3249260000 114.2315100000,22.3257970000 114.2314350000,22.3259900000 114.2314000000,22.3260410000 114.2313570000,22.3260860000 114.2313080000,22.3261250000 114.2312570000,22.3261550000 114.2312020000,22.3261780000 114.2311440000,22.3261950000 114.2310850000,22.3262040000 114.2308600000,22.3262020000 114.2308350000,22.3262040000 114.2307160000,22.3262060000 114.2306270000,22.3262110000 114.2306220000,22.3263620000 114.2306240000,22.3264270000 114.2306250000,22.3264660000 114.2306260000,22.3264970000 114.2306240000,22.3265780000 114.2306160000,22.3266940000 114.2306030000,22.3268420000 114.2305790000,22.3270050000 114.2305320000,22.3272120000 114.2304890000,22.3273540000 114.2304610000,22.3274100000 114.2304430000,22.3274460000 114.2304140000,22.3275020000 114.2303740000,22.3275560000 114.2303400000,22.3275670000 114.2303090000,22.3275850000 114.2302830000,22.3276090000 114.2302650000,22.3276380000 114.2302540000,22.3276670000 114.2302510000,22.3276980000 114.2302540000,22.3277290000 114.2302650000,22.3277590000 114.2302590000,22.3278240000 114.2302540000,22.3278590000 114.2302440000,22.3278990000 114.2302250000,22.3279600000 114.2301970000,22.3280220000 114.2301640000,22.3280860000 114.2301280000,22.3281460000 114.2300540000,22.3282610000 114.2299290000,22.3284380000 114.2297020000,22.3287150000 114.2295860000,22.3288430000 114.2294800000,22.3289460000 114.2293640000,22.3290510000 114.2292640000,22.3291350000 114.2290920000,22.3292730000 114.2289180000,22.3293940000 114.2288030000,22.3294720000 114.2286880000,22.3295560000 114.2286090000,22.3296190000 114.2285710000,22.3296540000 114.2285340000,22.3296930000 114.2284960000,22.3297400000 114.2284560000,22.3297920000 114.2284170000,22.3298460000 114.2283880000,22.3298910000 114.2283510000,22.3299580000 114.2283170000,22.3300370000 114.2282900000,22.3301060000 114.2282640000,22.3301830000 114.2282440000,22.3302670000 114.2282330000,22.3303380000 114.2282270000,22.3303910000 114.2282220000,22.3304630000 114.2282230000,22.3305640000 114.2282310000,22.3306600000 114.2282420000,22.3307420000 114.2282590000,22.3308240000 114.2282880000,22.3309110000 114.2283070000,22.3309590000 114.2283290000,22.3310090000 114.2283510000,22.3310560000 114.2283750000,22.3310990000 114.2284060000,22.3311500000 114.2284350000,22.3311970000 114.2284630000,22.3312440000 114.2284900000,22.3312890000 114.2285180000,22.3313390000 114.2285440000,22.3313830000 114.2285710000,22.3314320000 114.2285970000,22.3314790000 114.2286240000,22.3315260000 114.2286500000,22.3315770000 114.2286710000,22.3316240000 114.2286880000,22.3316760000 114.2287000000,22.3317260000 114.2287100000,22.3317800000 114.2287190000,22.3318350000 114.2287240000,22.3318850000 114.2287250000,22.3319320000 114.2287240000,22.3319780000 114.2287200000,22.3320340000 114.2287100000,22.3320890000 114.2286950000,22.3321700000 114.2286820000,22.3322400000 114.2286240000,22.3323670000 114.2285640000,22.3324750000 114.2284990000,22.3325850000 114.2284280000,22.3327850000 114.2284030000,22.3328660000 114.2283900000,22.3329500000 114.2283820000,22.3330320000 114.2283710000,22.3331780000 114.2283670000,22.3332510000 114.2283480000,22.3337090000 114.2283370000,22.3339070000 114.2283320000,22.3339710000 114.2282490000,22.3340920000 114.2282230000,22.3341220000 114.2282060000,22.3341420000 114.2281310000,22.3341940000 114.2280750000,22.3342400000 114.2277940000,22.3342420000 114.2276810000,22.3342430000 114.2275880000,22.3342410000 114.2274470000,22.3342370000 114.2273170000,22.3342010000 114.2271140000,22.3341630000 114.2270910000,22.3341570000 114.2270640000,22.3341520000 114.2269830000,22.3341430000 114.2267530000,22.3341140000 114.2264990000,22.3340940000 114.2261950000,22.3340300000 114.2260570000,22.3339940000 114.2259170000,22.3339620000 114.2258110000,22.3339450000 114.2256970000,22.3339270000 114.2255270000,22.3339090000 114.2254270000,22.3339030000 114.2253530000,22.3339030000 114.2252540000,22.3339080000 114.2251630000,22.3339140000 114.2250140000,22.3339260000 114.2248930000,22.3339390000 114.2247870000,22.3339530000 114.2246000000,22.3339830000 114.2241890000,22.3340310000 114.2240370000,22.3340490000 114.2239520000,22.3340580000 114.2238720000,22.3340640000 114.2237840000,22.3340650000 114.2236980000,22.3340670000 114.2236140000,22.3340640000 114.2235500000,22.3340600000 114.2234770000,22.3340540000 114.2233910000,22.3340430000 114.2233070000,22.3340310000 114.2232160000,22.3340170000 114.2231370000,22.3340010000 114.2230560000,22.3339850000 114.2229600000,22.3339640000 114.2228530000,22.3339430000 114.2226670000,22.3339020000 114.2225230000,22.3338640000 114.2224570000,22.3338480000 114.2223790000,22.3338220000 114.2223120000,22.3337980000 114.2222530000,22.3337740000 114.2222010000,22.3337520000 114.2221540000,22.3337300000 114.2220750000,22.3336920000 114.2219520000,22.3336160000 114.2218490000,22.3335300000 114.2217200000,22.3334030000 114.2215910000,22.3332530000 114.2215280000,22.3331800000 114.2213320000,22.3329440000 114.2212040000,22.3327910000 114.2211650000,22.3327360000 114.2210410000,22.3325660000 114.2209710000,22.3324270000 114.2209020000,22.3322920000 114.2208700000,22.3322160000 114.2208470000,22.3321390000 114.2208370000,22.3320660000 114.2208310000,22.3319800000 114.2208300000,22.3319040000 114.2208370000,22.3318350000 114.2208530000,22.3317540000 114.2208700000,22.3316800000 114.2209000000,22.3316010000 114.2209350000,22.3315300000 114.2209770000,22.3314570000 114.2210220000,22.3313830000 114.2210830000,22.3312950000 114.2211360000,22.3312280000 114.2212000000,22.3311570000 114.2213220000,22.3310240000 114.2214570000,22.3309630000 114.2215470000,22.3309170000 114.2216190000,22.3308670000 114.2216780000,22.3308420000 114.2217430000,22.3308370000 114.2217850000,22.3308570000 114.2219550000,22.3309410000 114.2220950000,22.3311100000 114.2221930000,22.3312450000 114.2222970000,22.3314160000 114.2223860000,22.3315890000 114.2224730000,22.3317530000 114.2225170000,22.3318390000 114.2225740000,22.3319520000 114.2226090000,22.3320220000 114.2226280000,22.3320600000 114.2227100000,22.3322220000 114.2227720000,22.3323450000 114.2230630000,22.3329150000 114.2231160000,22.3330090000 114.2232030000,22.3330950000 114.2232820000,22.3331600000 114.2233760000,22.3332130000 114.2234980000,22.3332600000 114.2236050000,22.3332850000 114.2237000000,22.3332930000 114.2238190000,22.3332910000 114.2239450000,22.3332720000 114.2240930000,22.3332240000 114.2241250000,22.3332060000 114.2241930000,22.3331660000 114.2242750000,22.3331040000 114.2243340000,22.3330600000 114.2243670000,22.3330350000 114.2246050000,22.3328570000 114.2248480000,22.3326720000 114.2254410000,22.3322200000 114.2257430000,22.3319920000 114.2257540000,22.3319840000 114.2258640000,22.3319010000 114.2259610000,22.3318280000 114.2260960000,22.3317290000 114.2261920000,22.3316550000 114.2262560000,22.3316100000 114.2264190000,22.3314930000 114.2264860000,22.3314450000 114.2265610000,22.3313890000 114.2268890000,22.3311520000 114.2271690000,22.3309440000 114.2272270000,22.3308850000 114.2272930000,22.3307970000 114.2273460000,22.3307050000 114.2273780000,22.3306080000 114.2273980000,22.3305050000 114.2274040000,22.3304060000 114.2273900000,22.3302750000 114.2273260000,22.3299500000 114.2272610000,22.3296510000 114.2272380000,22.3295410000 114.2271140000,22.3289460000 114.2271060000,22.3289060000 114.2270930000,22.3288410000 114.2270370000,22.3285810000 114.2270010000,22.3284050000 114.2268950000,22.3279280000 114.2268530000,22.3277360000 114.2267850000,22.3274550000 114.2267290000,22.3272140000 114.2266350000,22.3269000000 114.2265940000,22.3267490000 114.2267550000,22.3266810000 114.2272760000,22.3264600000 114.2275790000,22.3263340000 114.2278490000,22.3262270000 114.2280280000,22.3261540000 114.2281040000,22.3261220000 114.2285240000,22.3259420000 114.2285970000,22.3259100000 114.2287520000,22.3258350000 114.2288680000,22.3257610000 114.2289710000,22.3256560000 114.2290530000,22.3255120000 114.2290830000,22.3253760000 114.2290800000,22.3252280000 114.2290580000,22.3250570000 114.2290220000,22.3248420000 114.2289850000,22.3246230000 114.2289210000,22.3242340000 114.2289130000,22.3241870000 114.2288910000,22.3240420000 114.2288040000,22.3240310000 114.2287930000,22.3240290000 114.2283470000,22.3239720000 114.2281240000,22.3239430000 114.2279010000,22.3239150000 114.2274550000,22.3238850000 114.2271550000,22.3238440000 114.2267320000,22.3238720000 114.2263800000,22.3238340000 114.2262130000,22.3237850000 114.2261350000,22.3237510000 114.2260650000,22.3237070000 114.2259850000,22.3236450000 114.2259690000,22.3236320000 114.2257490000,22.3234170000 114.2256970000,22.3233130000 114.2256750000,22.3232280000 114.2256720000,22.3231410000 114.2256760000,22.3229940000 114.2257000000,22.3229170000 114.2257760000,22.3228210000 114.2258160000,22.3227690000 114.2258250000,22.3227490000 114.2258600000,22.3226720000 114.2258780000,22.3226370000 114.2258950000,22.3226030000 114.2258090000,22.3225670000 114.2257350000,22.3225390000 114.2255760000,22.3224790000 114.2253730000,22.3224380000 114.2251870000,22.3223600000 114.2249980000,22.3222420000 114.2248180000,22.3221000000 114.2246340000,22.3218730000 114.2244260000,22.3214840000 114.2243940000,22.3214230000 114.2242320000,22.3211210000 114.2241930000,22.3210470000 114.2241160000,22.3209080000 114.2237940000,22.3203010000 114.2237580000,22.3202320000 114.2235970000,22.3203130000 114.2234550000,22.3203840000 114.2231330000,22.3205900000 114.2230370000,22.3206380000 114.2229250000,22.3206750000 114.2227650000,22.3207410000 114.2225380000,22.3208330000 114.2222750000,22.3209250000 114.2220470000,22.3209920000 114.2219790000,22.3210420000 114.2220630000,22.3210460000 114.2222990000,22.3209790000 114.2225570000,22.3208900000 114.2227910000,22.3208000000 114.2229500000,22.3207240000 114.2230040000,22.3206710000 114.2230370000,22.3206380000 114.2229250000,22.3206750000 114.2227650000,22.3207410000 114.2225380000,22.3208330000 114.2222750000,22.3209250000 114.2220470000,22.3209920000 114.2219790000,22.3210420000 114.2217630000,22.3211060000 114.2215460000,22.3211920000 114.2213940000,22.3212710000 114.2212940000,22.3213440000 114.2212130000,22.3214180000 114.2211470000,22.3214890000 114.2210890000,22.3215630000 114.2210410000,22.3216400000 114.2210010000,22.3217250000 114.2209670000,22.3218200000 114.2209480000,22.3219070000 114.2209300000,22.3219950000 114.2208980000,22.3223150000 114.2208850000,22.3224890000 114.2208830000,22.3225100000 114.2208810000,22.3225370000 114.2208640000,22.3226960000 114.2208220000,22.3230620000 114.2208050000,22.3231490000 114.2207800000,22.3232380000 114.2207460000,22.3233220000 114.2207040000,22.3234000000 114.2206520000,22.3234720000 114.2205880000,22.3235400000 114.2205110000,22.3236050000 114.2204250000,22.3236580000 114.2203390000,22.3236960000 114.2202470000,22.3237260000 114.2201480000,22.3237430000 114.2200620000,22.3237490000 114.2199870000,22.3237480000 114.2199070000,22.3237380000 114.2198370000,22.3237230000 114.2197630000,22.3236990000 114.2196960000,22.3236700000 114.2196230000,22.3236300000 114.2195440000,22.3235740000 114.2194750000,22.3235110000 114.2194160000,22.3234420000 114.2193700000,22.3233750000 114.2193330000,22.3232940000 114.2193070000,22.3232170000 114.2192850000,22.3231290000 114.2192230000,22.3227920000 114.2192020000,22.3227200000 114.2191710000,22.3226570000 114.2191240000,22.3225850000 114.2190730000,22.3225270000 114.2190120000,22.3224720000 114.2189560000,22.3224320000 114.2188980000,22.3224000000 114.2188260000,22.3223720000 114.2187520000,22.3223540000 114.2186690000,22.3223420000 114.2185660000,22.3223440000 114.2184810000,22.3223560000 114.2184150000,22.3223750000 114.2183540000,22.3224000000 114.2182970000,22.3224310000 114.2182360000,22.3224710000 114.2181810000,22.3225180000 114.2181270000,22.3225720000 114.2179600000,22.3227820000 114.2179210000,22.3228210000 114.2178530000,22.3228710000 114.2178040000,22.3228940000 114.2177830000,22.3229030000 114.2177440000,22.3229160000 114.2177010000,22.3229180000 114.2176550000,22.3229120000 114.2176170000,22.3229020000 114.2175590000,22.3228880000 114.2174960000,22.3228720000 114.2170540000,22.3227530000 114.2168770000,22.3227090000 114.2167380000,22.3226780000 114.2166850000,22.3226670000 114.2166030000,22.3226490000 114.2164400000,22.3226000000 114.2164280000,22.3226370000 114.2164130000,22.3226950000 114.2163150000,22.3230260000 114.2162810000,22.3231420000 114.2162360000,22.3233280000 114.2162210000,22.3233910000 114.2161620000,22.3234320000 114.2161500000,22.3234650000 114.2161170000,22.3235260000 114.2161010000,22.3235570000 114.2160130000,22.3236950000 114.2159490000,22.3237790000 114.2158990000,22.3238410000 114.2156500000,22.3241560000 114.2155820000,22.3242430000 114.2155190000,22.3243340000 114.2154560000,22.3244240000 114.2153110000,22.3246320000 114.2149340000,22.3251600000 114.2148630000,22.3252460000 114.2147530000,22.3253700000 114.2146960000,22.3254220000 114.2146650000,22.3254470000 114.2146010000,22.3254990000 114.2144410000,22.3256180000 114.2143520000,22.3256880000 114.2142800000,22.3257490000 114.2142110000,22.3258240000 114.2141570000,22.3258920000 114.2139840000,22.3261590000 114.2139270000,22.3262650000 114.2138770000,22.3263680000 114.2137150000,22.3266910000 114.2135370000,22.3270420000 114.2134070000,22.3271830000 114.2133410000,22.3272510000 114.2133010000,22.3273440000 114.2132670000,22.3274240000 114.2131800000,22.3275570000 114.2131280000,22.3276370000 114.2129520000,22.3278720000 114.2128610000,22.3279840000 114.2126100000,22.3282630000 114.2125500000,22.3283300000 114.2124890000,22.3283950000 114.2123930000,22.3284830000 114.2123140000,22.3285510000 114.2122360000,22.3286190000 114.2121840000,22.3286590000 114.2120040000,22.3287760000 114.2119080000,22.3288490000 114.2118120000,22.3289220000 114.2116900000,22.3290120000 114.2115880000,22.3290940000 114.2115000000,22.3291650000 114.2114450000,22.3291940000 114.2113770000,22.3292300000 114.2109910000,22.3295430000 114.2107160000,22.3297990000 114.2102920000,22.3302080000 114.2101630000,22.3303200000 114.2101430000,22.3303570000 114.2101060000,22.3304280000 114.2100020000,22.3305170000 114.2099570000,22.3305570000 114.2098360000,22.3306550000 114.2096500000,22.3307950000 114.2095690000,22.3308540000 114.2094000000,22.3309520000 114.2093640000,22.3309740000 114.2093180000,22.3310020000 114.2091910000,22.3310790000 114.2088910000,22.3313180000 114.2086380000,22.3314940000 114.2084350000,22.3316350000 114.2083550000,22.3316930000 114.2082460000,22.3317760000 114.2080320000,22.3319370000 114.2076570000,22.3321810000 114.2074600000,22.3323030000 114.2074020000,22.3323440000 114.2071030000,22.3325640000 114.2070240000,22.3326310000 114.2069780000,22.3326700000 114.2069130000,22.3327250000 114.2061870000,22.3333260000 114.2061290000,22.3333740000 114.2060530000,22.3334470000 114.2059330000,22.3335640000 114.2057790000,22.3337130000 114.2055060000,22.3339760000 114.2053330000,22.3341520000 114.2052060000,22.3342850000 114.2051570000,22.3343310000 114.2051210000,22.3343650000 114.2050450000,22.3344350000 114.2048890000,22.3345750000 114.2047290000,22.3346990000 114.2046620000,22.3347390000 114.2045950000,22.3347810000 114.2045260000,22.3348230000 114.2044590000,22.3348640000 114.2043870000,22.3349080000 114.2043030000,22.3349520000 114.2042690000,22.3349700000 114.2041350000,22.3350290000 114.2040840000,22.3350470000 114.2039300000,22.3351000000 114.2038130000,22.3351400000 114.2036690000,22.3351720000 114.2034800000,22.3352090000 114.2032930000,22.3352270000 114.2031800000,22.3352340000 114.2031350000,22.3352330000 114.2030850000,22.3352320000 114.2028130000,22.3352210000 114.2026490000,22.3351990000 114.2025490000,22.3351780000 114.2024920000,22.3351660000 114.2024340000,22.3351540000 114.2023890000,22.3351440000 114.2022590000,22.3351000000 114.2021770000,22.3350730000 114.2020210000,22.3350220000 114.2019130000,22.3349860000 114.2017220000,22.3349160000 114.2016470000,22.3348880000 114.2011550000,22.3347070000 114.2010510000,22.3346660000 114.2007670000,22.3345580000 114.2006990000,22.3345310000 114.2006550000,22.3345000000 114.2004480000,22.3344210000 114.2002500000,22.3343640000 114.2002080000,22.3343480000 114.2000860000,22.3343020000 114.1996580000,22.3341420000 114.1995880000,22.3341080000 114.1994840000,22.3340610000 114.1990200000,22.3338940000 114.1985170000,22.3337140000 114.1983950000,22.3336800000 114.1982790000,22.3336390000 114.1981620000,22.3335940000 114.1980650000,22.3335480000 114.1979820000,22.3335070000 114.1978350000,22.3333870000 114.1977400000,22.3333060000 114.1977130000,22.3332810000 114.1976850000,22.3332540000 114.1976030000,22.3331780000 114.1975420000,22.3331140000 114.1974980000,22.3330640000 114.1974340000,22.3329850000 114.1973780000,22.3329060000 114.1970300000,22.3323440000 114.1969810000,22.3322760000 114.1969250000,22.3322150000 114.1968410000,22.3321460000 114.1967470000,22.3320920000 114.1965880000,22.3320380000 114.1961480000,22.3319140000 114.1959780000,22.3318570000 114.1957720000,22.3317670000 114.1956350000,22.3316390000 114.1925430000,22.3286200000 114.1918840000,22.3280990000 114.1918310000,22.3280490000 114.1917730000,22.3279960000 114.1917270000,22.3279620000 114.1915950000,22.3278670000 114.1915530000,22.3277960000 114.1914830000,22.3277420000 114.1914580000,22.3277280000 114.1913550000,22.3276780000 114.1912450000,22.3276250000 114.1911490000,22.3275780000 114.1911250000,22.3275660000 114.1910290000,22.3275160000 114.1909200000,22.3274580000 114.1907990000,22.3273940000 114.1907660000,22.3273760000 114.1906880000,22.3273250000 114.1905810000,22.3272560000 114.1905080000,22.3271910000 114.1903140000,22.3270140000 114.1902440000,22.3269520000 114.1901790000,22.3268850000 114.1901180000,22.3268150000 114.1900620000,22.3267410000 114.1899550000,22.3267090000 114.1899080000,22.3266970000 114.1898620000,22.3266930000 114.1898160000,22.3266970000 114.1897720000,22.3267090000 114.1897310000,22.3267290000 114.1896980000,22.3267530000 114.1896850000,22.3267640000 114.1896330000,22.3268040000 114.1895860000,22.3268480000 114.1895440000,22.3268980000 114.1895080000,22.3269360000 114.1894730000,22.3269750000 114.1894410000,22.3270170000 114.1894140000,22.3270620000 114.1893910000,22.3271080000 114.1893720000,22.3271560000 114.1893570000,22.3272060000 114.1893470000,22.3272560000 114.1893290000,22.3273730000 114.1893090000,22.3273980000 114.1892850000,22.3274210000 114.1892530000,22.3274470000 114.1892170000,22.3274710000 114.1891840000,22.3274860000 114.1891810000,22.3274870000 114.1891430000,22.3274980000 114.1891040000,22.3275050000 114.1890640000,22.3275070000 114.1890250000,22.3275030000 114.1885640000,22.3274040000 114.1884310000,22.3273780000 114.1884100000,22.3273770000 114.1883760000,22.3273750000 114.1882510000,22.3273680000 114.1882050000,22.3273640000 114.1880990000,22.3273670000 114.1880090000,22.3273660000 114.1877860000,22.3273510000 114.1875460000,22.3273120000 114.1872480000,22.3272520000 114.1871590000,22.3272360000 114.1871160000,22.3272270000 114.1869510000,22.3271970000 114.1866780000,22.3271530000 114.1866000000,22.3271420000 114.1862850000,22.3270970000 114.1859240000,22.3270450000 114.1854210000,22.3269530000 114.1853930000,22.3269480000 114.1852350000,22.3269190000 114.1851280000,22.3269000000 114.1843290000,22.3267530000 114.1841430000,22.3267200000 114.1836200000,22.3266300000 114.1833380000,22.3265840000 114.1833080000,22.3265800000 114.1831080000,22.3265590000 114.1830430000,22.3265560000 114.1827290000,22.3265020000 114.1825480000,22.3264710000 114.1822280000,22.3264160000 114.1821800000,22.3264080000 114.1819870000,22.3263750000 114.1805090000,22.3261250000 114.1803630000,22.3260990000 114.1803220000,22.3260930000 114.1802680000,22.3260840000 114.1802180000,22.3260750000 114.1801610000,22.3260650000 114.1800270000,22.3260420000 114.1798140000,22.3260040000 114.1791940000,22.3258930000 114.1790370000,22.3258370000 114.1788670000,22.3258040000 114.1787200000,22.3257760000 114.1786660000,22.3257650000 114.1783990000,22.3257310000 114.1781890000,22.3257050000 114.1778510000,22.3256580000 114.1775910000,22.3256100000 114.1772800000,22.3255530000 114.1770570000,22.3255120000 114.1770230000,22.3255060000 114.1768910000,22.3254810000 114.1768000000,22.3254650000 114.1763360000,22.3253800000 114.1759010000,22.3253010000 114.1751690000,22.3251730000 114.1751320000,22.3251660000 114.1750510000,22.3251520000 114.1746790000,22.3251060000 114.1746570000,22.3251030000 114.1746280000,22.3250970000 114.1745230000,22.3250750000 114.1745000000,22.3250670000 114.1744110000,22.3250360000 114.1743510000,22.3250150000 114.1742560000,22.3249980000 114.1739670000,22.3249510000 114.1739180000,22.3249420000 114.1738740000,22.3249340000 114.1737820000,22.3249180000 114.1733330000,22.3248370000 114.1732980000,22.3248310000 114.1732130000,22.3248160000 114.1731590000,22.3248070000 114.1731050000,22.3247970000 114.1729880000,22.3247750000 114.1728820000,22.3247550000 114.1727710000,22.3247350000 114.1727060000,22.3247230000 114.1723900000,22.3246650000 114.1722820000,22.3246450000 114.1721860000,22.3246270000 114.1721510000,22.3246200000 114.1720860000,22.3246010000 114.1719400000,22.3245580000 114.1718040000,22.3245320000 114.1714880000,22.3244700000 114.1708820000,22.3243750000 114.1708260000,22.3243650000 114.1707460000,22.3243520000 114.1706650000,22.3243380000 114.1702360000,22.3242640000 114.1701940000,22.3242570000 114.1700510000,22.3242330000 114.1697730000,22.3241850000 114.1695650000,22.3241490000 114.1690480000,22.3240560000 114.1688640000,22.3240290000 114.1686380000,22.3239910000 114.1685930000,22.3239830000 114.1684970000,22.3239670000 114.1684910000,22.3239090000 114.1684970000,22.3238880000 114.1685080000,22.3238270000 114.1685680000,22.3235450000 114.1685800000,22.3234860000 114.1686040000,22.3233720000 114.1686350000,22.3232270000 114.1686590000,22.3231130000 114.1687020000,22.3229210000 114.1687200000,22.3228230000 114.1687320000,22.3227660000 114.1687860000,22.3224820000 114.1688690000,22.3220630000 114.1689430000,22.3216740000 114.1689770000,22.3214710000 114.1689940000,22.3213860000 114.1690500000,22.3210910000 114.1690590000,22.3210510000 114.1690710000,22.3209960000 114.1690790000,22.3209570000 114.1690900000,22.3209050000 114.1691070000,22.3208330000 114.1691930000,22.3208490000 114.1692930000,22.3208660000 114.1695650000,22.3209200000 114.1696760000,22.3208810000 114.1696830000,22.3208300000 114.1697330000,22.3205770000 114.1697400000,22.3205420000 114.1697600000,22.3204450000 114.1697660000,22.3204200000 114.1697770000,22.3203660000 114.1697900000,22.3203090000 114.1698130000,22.3202010000 114.1698380000,22.3200790000 114.1698490000,22.3200310000 114.1698510000,22.3200180000 114.1698810000,22.3198770000 114.1699010000,22.3197840000 114.1699180000,22.3197020000 114.1699510000,22.3196460000 114.1699680000,22.3195820000 114.1699770000,22.3195490000 114.1700030000,22.3195240000 114.1700350000,22.3195080000 114.1700710000,22.3195020000 114.1701000000,22.3195070000 114.1705470000,22.3195840000 114.1707690000,22.3196290000 114.1708690000,22.3196490000 114.1708950000,22.3196540000 114.1709510000,22.3196640000 114.1709810000,22.3196700000 114.1710810000,22.3196890000 114.1713170000,22.3197350000 114.1714280000,22.3197560000 114.1714900000,22.3197670000 114.1715990000,22.3197880000 114.1716880000,22.3198050000 114.1723150000,22.3199280000 114.1724730000,22.3199590000 114.1725920000,22.3199820000 114.1726740000,22.3199920000 114.1732990000,22.3200840000 114.1736340000,22.3201460000 114.1737730000,22.3201700000 114.1737960000,22.3201740000 114.1738780000,22.3201890000 114.1740500000,22.3202220000 114.1742060000,22.3202510000 114.1744300000,22.3202940000 114.1746660000,22.3203390000 114.1746920000,22.3203440000 114.1752490000,22.3204490000 114.1755350000,22.3204690000 114.1758450000,22.3205500000 114.1767440000,22.3208990000 114.1770230000,22.3210170000 114.1773110000,22.3211530000 114.1775310000,22.3212680000 114.1781180000,22.3215580000 114.1783690000,22.3216800000 114.1792790000,22.3220890000 114.1802220000,22.3225230000 114.1805470000,22.3226810000 114.1806120000,22.3227110000 114.1814350000,22.3230860000 114.1814730000,22.3231040000 114.1828410000,22.3237190000 114.1828490000,22.3237230000 114.1831400000,22.3238500000 114.1834250000,22.3239770000 114.1835590000,22.3240400000 114.1836700000,22.3240910000 114.1838870000,22.3242090000 114.1843340000,22.3244210000 114.1848650000,22.3246550000 114.1852570000,22.3248310000 114.1854710000,22.3249280000 114.1855090000,22.3249450000 114.1856430000,22.3250130000 114.1857740000,22.3250880000 114.1859310000,22.3251820000 114.1861450000,22.3253030000 114.1867510000,22.3256670000 114.1868280000,22.3257130000 114.1869240000,22.3257690000 114.1869610000,22.3257910000 114.1870380000,22.3258360000 114.1871470000,22.3259010000 114.1871850000,22.3259230000 114.1872550000,22.3259640000 114.1874720000,22.3260910000 114.1875920000,22.3261590000 114.1876840000,22.3262100000 114.1877900000,22.3262750000 114.1880320000,22.3264230000 114.1881260000,22.3264590000 114.1882020000,22.3264900000 114.1882910000,22.3265270000 114.1884310000,22.3265840000 114.1889430000,22.3268710000 114.1890660000,22.3269280000 114.1892870000,22.3270440000 114.1895120000,22.3271520000 114.1897400000,22.3272550000 114.1899720000,22.3273500000 114.1902070000,22.3274390000 114.1906070000,22.3276000000 114.1910460000,22.3277760000 114.1911340000,22.3278500000 114.1913320000,22.3279760000 114.1914050000,22.3280230000 114.1914510000,22.3280790000 114.1915210000,22.3281600000 114.1915650000,22.3281990000 114.1916460000,22.3282680000 114.1917150000,22.3283260000 114.1918480000,22.3284390000 114.1919310000,22.3285090000 114.1920190000,22.3285830000 114.1920990000,22.3286510000 114.1921880000,22.3287260000 114.1922850000,22.3288080000 114.1923800000,22.3288890000 114.1924150000,22.3289200000 114.1924910000,22.3289940000 114.1925510000,22.3290440000 114.1926090000,22.3290970000 114.1926460000,22.3291330000 114.1928810000,22.3293500000 114.1929100000,22.3293780000 114.1942640000,22.3306620000 114.1954070000,22.3318070000 114.1955660000,22.3319550000 114.1957650000,22.3321480000 114.1958990000,22.3322740000 114.1961310000,22.3324900000 114.1962140000,22.3325700000 114.1962650000,22.3326140000 114.1963820000,22.3327060000 114.1964180000,22.3327340000 114.1964650000,22.3327710000 114.1965590000,22.3328410000 114.1967160000,22.3329580000 114.1967900000,22.3330080000 114.1968410000,22.3330430000 114.1969560000,22.3331280000 114.1969620000,22.3331320000 114.1970030000,22.3331580000 114.1970440000,22.3331860000 114.1970850000,22.3332100000 114.1972760000,22.3333240000 114.1974910000,22.3334590000 114.1977180000,22.3335940000 114.1978060000,22.3336170000 114.1978910000,22.3336600000 114.1979900000,22.3336940000 114.1981260000,22.3337410000 114.1981850000,22.3337610000 114.1986910000,22.3339330000 114.1988950000,22.3340100000 114.1991540000,22.3341020000 114.1992640000,22.3341410000 114.1993280000,22.3341650000 114.1994550000,22.3342120000 114.1998680000,22.3343640000 114.2000180000,22.3344280000 114.2002080000,22.3345080000 114.2005340000,22.3346320000 114.2007040000,22.3346980000 114.2009530000,22.3347760000 114.2011370000,22.3348340000 114.2013210000,22.3349070000 114.2016770000,22.3350390000 114.2019720000,22.3351490000 114.2021230000,22.3352120000 114.2023480000,22.3352960000 114.2023910000,22.3353060000 114.2024360000,22.3353170000 114.2025230000,22.3353340000 114.2026170000,22.3353530000 114.2027740000,22.3353770000 114.2029200000,22.3353860000 114.2030780000,22.3353910000 114.2031400000,22.3353910000 114.2031950000,22.3353880000 114.2033130000,22.3353850000 114.2035570000,22.3353730000 114.2037150000,22.3353530000 114.2038460000,22.3353320000 114.2039990000,22.3352990000 114.2041520000,22.3352580000 114.2042290000,22.3352370000 114.2043690000,22.3351950000 114.2044020000,22.3351800000 114.2044850000,22.3351440000 114.2045710000,22.3351080000 114.2046630000,22.3350520000 114.2048500000,22.3349380000 114.2050340000,22.3348040000 114.2052230000,22.3346590000 114.2053560000,22.3345560000 114.2054330000,22.3344970000 114.2055420000,22.3344110000 114.2059740000,22.3340710000 114.2061260000,22.3339500000 114.2063700000,22.3337660000 114.2065510000,22.3336300000 114.2065940000,22.3335990000 114.2066380000,22.3335660000 114.2066570000,22.3335520000 114.2067710000,22.3334680000 114.2068330000,22.3334100000 114.2068500000,22.3333940000 114.2068680000,22.3333780000 114.2069180000,22.3333330000 114.2069460000,22.3333090000 114.2070850000,22.3331880000 114.2071570000,22.3331280000 114.2072300000,22.3330680000 114.2076200000,22.3327450000 114.2079930000,22.3324540000 114.2085780000,22.3319880000 114.2087610000,22.3318380000 114.2088810000,22.3317400000 114.2089630000,22.3316750000 114.2091620000,22.3315210000 114.2092420000,22.3314590000 114.2093950000,22.3313390000 114.2095740000,22.3312000000 114.2096870000,22.3311130000 114.2101370000,22.3307590000 114.2102780000,22.3306450000 114.2104090000,22.3305380000 114.2105000000,22.3304640000 114.2105620000,22.3304130000 114.2106480000,22.3303270000 114.2107940000,22.3301810000 114.2109610000,22.3300290000 114.2110440000,22.3299540000 114.2112750000,22.3297410000 114.2115750000,22.3295180000 114.2116080000,22.3294910000 114.2116580000,22.3294450000 114.2117160000,22.3293910000 114.2118870000,22.3292670000 114.2120170000,22.3291790000 114.2124190000,22.3288910000 114.2126010000,22.3287240000 114.2127480000,22.3285510000 114.2128560000,22.3283830000 114.2132780000,22.3277190000 114.2133370000,22.3276270000 114.2134010000,22.3275270000 114.2135140000,22.3273490000 114.2136210000,22.3271950000 114.2137050000,22.3270750000 114.2137840000,22.3269500000 114.2138760000,22.3268070000 114.2139780000,22.3266470000 114.2140790000,22.3264880000 114.2141460000,22.3264140000 114.2141860000,22.3263700000 114.2142410000,22.3263060000 114.2142730000,22.3262680000 114.2143270000,22.3262050000 114.2143760000,22.3261390000 114.2145400000,22.3259320000 114.2146040000,22.3258450000 114.2146370000,22.3257990000 114.2148570000,22.3255010000 114.2148730000,22.3254790000 114.2149880000,22.3253190000 114.2150250000,22.3252670000 114.2151420000,22.3251010000 114.2151880000,22.3250400000 114.2155820000,22.3244840000 114.2156460000,22.3243930000 114.2156620000,22.3242950000 114.2158160000,22.3240740000 114.2161230000,22.3236810000 114.2161750000,22.3236000000 114.2161960000,22.3235680000 114.2162160000,22.3234970000 114.2162280000,22.3234580000 114.2162210000,22.3233910000 114.2162360000,22.3233280000 114.2162810000,22.3231420000 114.2163150000,22.3230260000 114.2164130000,22.3226950000 114.2164280000,22.3226370000 114.2164400000,22.3226000000 114.2166030000,22.3226490000 114.2166850000,22.3226670000 114.2167380000,22.3226780000 114.2168770000,22.3227090000 114.2170540000,22.3227530000 114.2174960000,22.3228720000 114.2175590000,22.3228880000 114.2176170000,22.3229020000 114.2176550000,22.3229120000 114.2177010000,22.3229180000 114.2177440000,22.3229160000 114.2177830000,22.3229030000 114.2178040000,22.3228940000 114.2178530000,22.3228710000 114.2179210000,22.3228210000 114.2179600000,22.3227820000 114.2181270000,22.3225720000 114.2181810000,22.3225180000 114.2181880000,22.3225120000 114.2182360000,22.3224710000 114.2182970000,22.3224310000 114.2183540000,22.3224000000 114.2184150000,22.3223750000 114.2184810000,22.3223560000 114.2185660000,22.3223440000 114.2186690000,22.3223420000 114.2187520000,22.3223540000 114.2188260000,22.3223720000 114.2188980000,22.3224000000 114.2189560000,22.3224320000 114.2190120000,22.3224720000 114.2190730000,22.3225270000 114.2191240000,22.3225850000 114.2191710000,22.3226570000 114.2192020000,22.3227200000 114.2192230000,22.3227920000 114.2192850000,22.3231290000 114.2193070000,22.3232170000 114.2193330000,22.3232940000 114.2193700000,22.3233750000 114.2194160000,22.3234420000 114.2194750000,22.3235110000 114.2195440000,22.3235740000 114.2196230000,22.3236300000 114.2196960000,22.3236700000 114.2197630000,22.3236990000 114.2198370000,22.3237230000 114.2199070000,22.3237380000 114.2199870000,22.3237480000 114.2200620000,22.3237490000 114.2201480000,22.3237430000 114.2202470000,22.3237260000 114.2203390000,22.3236960000 114.2204250000,22.3236580000 114.2205110000,22.3236050000 114.2205880000,22.3235400000 114.2206520000,22.3234720000 114.2207040000,22.3234000000 114.2207460000,22.3233220000 114.2207800000,22.3232380000 114.2208050000,22.3231490000 114.2208220000,22.3230620000 114.2208640000,22.3226960000 114.2208810000,22.3225370000 114.2208830000,22.3225100000 114.2208850000,22.3224890000 114.2208980000,22.3223150000 114.2209300000,22.3219950000 114.2209480000,22.3219070000 114.2209670000,22.3218200000 114.2210010000,22.3217250000 114.2210410000,22.3216400000 114.2210890000,22.3215630000 114.2211470000,22.3214890000 114.2212130000,22.3214180000 114.2212940000,22.3213440000 114.2213940000,22.3212710000 114.2215460000,22.3211920000 114.2217630000,22.3211060000 114.2219790000,22.3210420000 114.2220630000,22.3210460000 114.2222990000,22.3209790000 114.2225570000,22.3208900000 114.2227910000,22.3208000000 114.2229500000,22.3207240000 114.2230370000,22.3206380000 114.2231330000,22.3205900000 114.2234940000,22.3204520000 114.2235800000,22.3204090000 114.2237940000,22.3203010000 114.2241160000,22.3209080000 114.2241930000,22.3210470000 114.2242320000,22.3211210000 114.2243940000,22.3214230000 114.2244260000,22.3214840000 114.2246340000,22.3218730000 114.2248180000,22.3221000000 114.2249980000,22.3222420000 114.2251870000,22.3223600000 114.2253730000,22.3224380000 114.2255660000,22.3225350000 114.2256590000,22.3226450000 114.2256730000,22.3226760000 114.2256870000,22.3227200000 114.2256950000,22.3227980000 114.2257000000,22.3229170000 114.2256760000,22.3229940000 114.2256720000,22.3231410000 114.2256750000,22.3232280000 114.2256970000,22.3233130000 114.2257490000,22.3234170000 114.2259520000,22.3238680000 114.2259760000,22.3239210000 114.2260100000,22.3240020000 114.2260490000,22.3240960000 114.2262330000,22.3240370000 114.2266570000,22.3239760000 114.2271700000,22.3239350000 114.2274550000,22.3238850000 114.2279010000,22.3239150000 114.2281240000,22.3239430000 114.2283470000,22.3239720000 114.2287930000,22.3240290000 114.2288040000,22.3240310000 114.2288910000,22.3240420000 114.2289130000,22.3241870000 114.2289210000,22.3242340000 114.2289850000,22.3246230000 114.2290220000,22.3248420000 114.2290580000,22.3250570000 114.2290800000,22.3252280000 114.2290830000,22.3253760000 114.2290530000,22.3255120000 114.2289710000,22.3256560000 114.2288680000,22.3257610000 114.2287520000,22.3258350000 114.2285970000,22.3259100000 114.2285240000,22.3259420000 114.2281040000,22.3261220000 114.2280280000,22.3261540000 114.2278490000,22.3262270000 114.2275790000,22.3263340000 114.2272760000,22.3264600000 114.2267550000,22.3266810000 114.2265940000,22.3267490000 114.2266350000,22.3269000000 114.2267290000,22.3272140000 114.2267850000,22.3274550000 114.2268530000,22.3277360000 114.2268950000,22.3279280000 114.2270010000,22.3284050000 114.2270370000,22.3285810000 114.2270930000,22.3288410000 114.2271060000,22.3289060000 114.2271140000,22.3289460000 114.2272380000,22.3295410000 114.2272610000,22.3296510000 114.2273260000,22.3299500000 114.2273900000,22.3302750000 114.2274040000,22.3304060000 114.2273980000,22.3305050000 114.2273780000,22.3306080000 114.2273460000,22.3307050000 114.2272930000,22.3307970000 114.2272270000,22.3308850000 114.2271690000,22.3309440000 114.2268890000,22.3311520000 114.2265610000,22.3313890000 114.2264860000,22.3314450000 114.2264190000,22.3314930000 114.2262560000,22.3316100000 114.2261920000,22.3316550000 114.2260960000,22.3317290000 114.2259610000,22.3318280000 114.2258640000,22.3319010000 114.2257540000,22.3319840000 114.2257430000,22.3319920000 114.2254410000,22.3322200000 114.2248480000,22.3326720000 114.2246050000,22.3328570000 114.2243670000,22.3330350000 114.2243340000,22.3330600000 114.2242750000,22.3331040000 114.2241930000,22.3331660000 114.2240930000,22.3332240000 114.2239450000,22.3332720000 114.2238190000,22.3332910000 114.2237000000,22.3332930000 114.2236050000,22.3332850000 114.2234980000,22.3332600000 114.2233760000,22.3332130000 114.2232820000,22.3331600000 114.2232030000,22.3330950000 114.2231160000,22.3330090000 114.2230630000,22.3329150000 114.2227720000,22.3323450000 114.2227100000,22.3322220000 114.2226280000,22.3320600000 114.2226090000,22.3320220000 114.2225740000,22.3319520000 114.2225170000,22.3318390000 114.2224730000,22.3317530000 114.2223860000,22.3315890000 114.2222970000,22.3314160000 114.2221930000,22.3312450000 114.2220950000,22.3311100000 114.2219550000,22.3309410000 114.2218680000,22.3308350000 114.2218360000,22.3308100000 114.2218360000,22.3308100000 114.2217310000,22.3307230000 114.2217050000,22.3307040000 114.2216840000,22.3306900000 114.2216550000,22.3306670000 114.2216130000,22.3307030000 114.2215590000,22.3307500000 114.2214740000,22.3308330000 114.2214170000,22.3309070000 114.2213220000,22.3310240000 114.2212000000,22.3311570000 114.2211360000,22.3312280000 114.2210830000,22.3312950000 114.2210220000,22.3313830000 114.2209770000,22.3314570000 114.2209350000,22.3315300000 114.2209000000,22.3316010000 114.2208700000,22.3316800000 114.2208530000,22.3317540000 114.2208370000,22.3318350000 114.2208300000,22.3319040000 114.2208310000,22.3319800000 114.2208370000,22.3320660000 114.2208470000,22.3321390000 114.2208700000,22.3322160000 114.2209020000,22.3322920000 114.2209710000,22.3324270000 114.2210410000,22.3325660000 114.2211650000,22.3327360000 114.2212040000,22.3327910000 114.2213320000,22.3329440000 114.2215280000,22.3331800000 114.2215910000,22.3332530000 114.2217200000,22.3334030000 114.2218490000,22.3335300000 114.2219520000,22.3336160000 114.2220750000,22.3336920000 114.2221540000,22.3337300000 114.2222010000,22.3337520000 114.2222530000,22.3337740000 114.2223120000,22.3337980000 114.2223790000,22.3338220000 114.2224570000,22.3338480000 114.2225230000,22.3338640000 114.2226670000,22.3339020000 114.2228530000,22.3339430000 114.2229600000,22.3339640000 114.2230560000,22.3339850000 114.2231370000,22.3340010000 114.2232160000,22.3340170000 114.2233070000,22.3340310000 114.2233910000,22.3340430000 114.2234770000,22.3340540000 114.2235500000,22.3340600000 114.2236140000,22.3340640000 114.2236980000,22.3340670000 114.2237840000,22.3340650000 114.2238720000,22.3340640000 114.2239520000,22.3340580000 114.2240370000,22.3340490000 114.2241890000,22.3340310000 114.2246000000,22.3339830000 114.2247870000,22.3339530000 114.2248930000,22.3339390000 114.2250140000,22.3339260000 114.2251630000,22.3339140000 114.2252540000,22.3339080000 114.2253530000,22.3339030000 114.2254270000,22.3339030000 114.2255270000,22.3339090000 114.2256970000,22.3339270000 114.2258110000,22.3339450000 114.2259170000,22.3339620000 114.2260570000,22.3339940000 114.2261950000,22.3340300000 114.2264990000,22.3340940000 114.2267370000,22.3341840000 114.2269290000,22.3342540000 114.2269880000,22.3342750000 114.2270260000,22.3342860000 114.2271550000,22.3343140000 114.2272140000,22.3343300000 114.2272680000,22.3343370000 114.2275750000,22.3343730000 114.2276950000,22.3343720000 114.2278070000,22.3343710000 114.2279480000,22.3343690000 114.2280470000,22.3343690000 114.2281550000,22.3343380000 114.2282410000,22.3343160000 114.2283290000,22.3343160000 114.2283750000,22.3343100000 114.2284040000,22.3342940000 114.2284340000,22.3342630000 114.2284380000,22.3342300000 114.2284400000,22.3341210000 114.2284420000,22.3340670000 114.2284460000,22.3337100000 114.2284800000,22.3332480000 114.2284830000,22.3331840000 114.2284950000,22.3330350000 114.2285000000,22.3329620000 114.2285120000,22.3328830000 114.2285340000,22.3328050000 114.2286050000,22.3326160000 114.2286520000,22.3325140000 114.2287110000,22.3324010000 114.2287750000,22.3322700000 114.2287930000,22.3321850000 114.2288120000,22.3321010000 114.2288170000,22.3320400000 114.2288200000,22.3319940000 114.2288200000,22.3319460000 114.2288190000,22.3319030000 114.2288170000,22.3318570000 114.2288120000,22.3318140000 114.2288050000,22.3317660000 114.2287940000,22.3317110000 114.2287770000,22.3316500000 114.2287510000,22.3315810000 114.2287090000,22.3314850000 114.2286640000,22.3314040000 114.2284420000,22.3310470000 114.2283980000,22.3309650000 114.2283730000,22.3309090000 114.2283490000,22.3308490000 114.2283320000,22.3308000000 114.2283080000,22.3307030000 114.2282960000,22.3306420000 114.2282890000,22.3305830000 114.2282860000,22.3305250000 114.2282860000,22.3304660000 114.2282890000,22.3304100000 114.2282940000,22.3303560000 114.2283050000,22.3302970000 114.2283160000,22.3302430000 114.2283320000,22.3301880000 114.2283520000,22.3301270000 114.2283780000,22.3300620000 114.2284090000,22.3299990000 114.2284560000,22.3299150000 114.2285060000,22.3298450000 114.2285630000,22.3297730000 114.2286330000,22.3297020000 114.2287100000,22.3296360000 114.2287810000,22.3295820000 114.2288500000,22.3295340000 114.2290220000,22.3294170000 114.2291430000,22.3293330000 114.2292880000,22.3292220000 114.2293930000,22.3291340000 114.2296130000,22.3289310000 114.2296930000,22.3288480000 114.2297620000,22.3287730000 114.2299520000,22.3285490000 114.2300480000,22.3284210000 114.2301300000,22.3283000000 114.2302070000,22.3281780000 114.2302750000,22.3280620000 114.2303250000,22.3279840000 114.2303670000,22.3279260000 114.2303840000,22.3279080000 114.2304040000,22.3278880000 114.2304570000,22.3278350000 114.2304920000,22.3278190000 114.2305210000,22.3277970000 114.2305440000,22.3277680000 114.2305580000,22.3277350000 114.2305630000,22.3277000000 114.2305590000,22.3276640000 114.2305460000,22.3276310000 114.2305500000,22.3275390000 114.2305540000,22.3274900000 114.2305590000,22.3274290000 114.2305700000,22.3273780000 114.2306150000,22.3272230000 114.2306690000,22.3270190000 114.2306950000,22.3268400000 114.2307050000,22.3266980000 114.2307090000,22.3265730000 114.2307110000,22.3264690000 114.2307120000,22.3264240000 114.2307130000,22.3263560000 114.2307160000,22.3262060000 114.2308350000,22.3262040000 114.2308600000,22.3262020000 114.2310850000,22.3262040000 114.2311440000,22.3261950000 114.2312020000,22.3261780000 114.2312570000,22.3261550000 114.2313080000,22.3261250000 114.2313570000,22.3260860000 114.2314000000,22.3260410000 114.2314350000,22.3259900000 114.2315100000,22.3257970000 114.2318840000,22.3249260000 114.2321940000,22.3240970000 114.2324800000,22.3235990000 114.2325270000,22.3235180000 114.2325810000,22.3234420000 114.2326410000,22.3233710000 114.2327260000,22.3232790000 114.2333410000,22.3228730000 114.2335240000,22.3227460000 114.2336290000,22.3227340000 114.2336730000,22.3227280000 114.2336990000,22.3227240000 114.2337470000,22.3227180000 114.2337900000,22.3227360000 114.2338370000,22.3227410000 114.2338840000,22.3227310000 114.2339350000,22.3227540000 114.2339630000,22.3227660000 114.2339960000,22.3227800000 114.2340720000,22.3227970000 114.2344040000,22.3230140000 114.2345730000,22.3231250000 114.2347420000,22.3232380000 114.2347930000,22.3232710000 114.2348370000,22.3233000000 114.2348690000,22.3233210000 114.2349160000,22.3233510000 114.2351940000,22.3235330000 114.2356470000,22.3238220000 114.2358840000,22.3239740000 114.2359320000,22.3240470000 114.2359630000,22.3240690000 114.2359950000,22.3240900000 114.2360590000,22.3241330000 114.2360260000,22.3241850000 114.2359950000,22.3242380000 114.2359780000,22.3242700000 114.2359620000,22.3243110000 114.2359690000,22.3243850000 114.2359320000,22.3244870000 114.2359050000,22.3245920000 114.2358870000,22.3246950000 114.2357570000,22.3256510000 114.2357230000,22.3259910000 114.2356590000,22.3263280000 114.2355640000,22.3266580000 114.2354400000,22.3269800000 114.2352710000,22.3273250000 114.2351060000,22.3275890000 114.2348990000,22.3278720000 114.2346670000,22.3281380000 114.2343450000,22.3284620000 114.2342500000,22.3285570000 114.2341350000,22.3284670000 114.2336840000,22.3281110000 114.2334380000,22.3279170000 114.2341350000,22.3284670000 114.2342500000,22.3285570000 114.2343450000,22.3284620000 114.2346670000,22.3281380000 114.2348990000,22.3278720000 114.2351060000,22.3275890000 114.2352710000,22.3273250000 114.2354400000,22.3269800000 114.2355640000,22.3266580000 114.2356590000,22.3263280000 114.2357230000,22.3259910000 114.2357570000,22.3256510000 114.2358870000,22.3246950000 114.2359050000,22.3245920000 114.2359320000,22.3244870000 114.2359690000,22.3243850000 114.2360310000,22.3243360000 114.2360530000,22.3243030000 114.2360700000,22.3242710000 114.2360970000,22.3242240000 114.2361260000,22.3241780000 114.2361690000,22.3241180000 114.2361360000,22.3240960000 114.2361020000,22.3240730000 114.2360400000,22.3240310000 114.2360090000,22.3240100000 114.2359770000,22.3239890000 114.2358840000,22.3239740000 114.2356470000,22.3238220000 114.2351940000,22.3235330000 114.2349160000,22.3233510000 114.2348690000,22.3233210000 114.2348370000,22.3233000000 114.2347930000,22.3232710000 114.2347420000,22.3232380000 114.2345730000,22.3231250000 114.2344040000,22.3230140000 114.2340720000,22.3227970000 114.2340460000,22.3227290000 114.2340250000,22.3227000000 114.2340060000,22.3226730000 114.2339720000,22.3226300000 114.2339720000,22.3225850000 114.2339560000,22.3225440000 114.2339270000,22.3225090000 114.2338880000,22.3224850000 114.2338420000,22.3224740000 114.2337950000,22.3224770000 114.2337510000,22.3224950000 114.2337160000,22.3225240000 114.2336930000,22.3225620000 114.2336440000,22.3226170000 114.2336160000,22.3226480000 114.2335950000,22.3226720000 114.2335240000,22.3227460000 114.2333410000,22.3228730000 114.2327260000,22.3232790000 114.2326410000,22.3233710000 114.2325810000,22.3234420000 114.2325270000,22.3235180000 114.2324800000,22.3235990000 114.2321940000,22.3240970000 114.2318840000,22.3249260000 114.2315100000,22.3257970000 114.2314350000,22.3259900000 114.2314000000,22.3260410000 114.2313570000,22.3260860000 114.2313080000,22.3261250000 114.2312570000,22.3261550000 114.2312020000,22.3261780000 114.2311440000,22.3261950000 114.2310850000,22.3262040000 114.2308600000,22.3262020000 114.2308350000,22.3262040000 114.2307160000,22.3262060000 114.2307030000,22.3260240000 114.2306800000,22.3256740000 114.2306570000,22.3253680000 114.2306590000,22.3251120000 114.2306620000,22.3250820000 114.2306830000,22.3248940000 114.2307360000,22.3246690000 114.2308260000,22.3244540000 114.2309150000,22.3242820000 114.2310590000,22.3240730000 114.2311480000,22.3239500000 114.2312570000,22.3238000000 114.2315400000,22.3234090000 114.2316160000,22.3233110000 114.2316590000,22.3232570000 114.2317580000,22.3231290000 114.2319730000,22.3228670000 114.2324780000,22.3222520000 114.2329910000,22.3216280000 114.2333440000,22.3211680000 114.2333650000,22.3211410000 114.2334720000,22.3210010000 114.2335630000,22.3208830000 114.2337320000,22.3206720000 114.2338080000,22.3205820000 114.2339200000,22.3204620000 114.2339990000,22.3203830000 114.2352310000,22.3191930000 114.2353110000,22.3191290000 114.2353560000,22.3190970000 114.2354080000,22.3190670000 114.2354640000,22.3190450000 114.2355220000,22.3190300000 114.2355840000,22.3190220000 114.2356670000,22.3190200000 114.2357300000,22.3190240000 114.2357890000,22.3190300000 114.2358570000,22.3190410000 114.2362530000,22.3191210000 114.2363160000,22.3191370000 114.2363830000,22.3191580000 114.2365200000,22.3192370000 114.2365810000,22.3193000000 114.2365810000,22.3193240000 114.2365860000,22.3193480000 114.2366020000,22.3193840000 114.2366290000,22.3194150000 114.2366650000,22.3194380000 114.2367080000,22.3194500000 114.2367400000,22.3194520000 114.2367680000,22.3194510000 114.2368000000,22.3194380000 114.2368350000,22.3194160000 114.2368630000,22.3193870000 114.2368800000,22.3193510000 114.2368860000,22.3193190000 114.2368830000,22.3192860000 114.2369130000,22.3192330000 114.2369440000,22.3191950000 114.2369820000,22.3191490000 114.2370420000,22.3190850000 114.2371680000,22.3189490000 114.2372810000,22.3188400000 114.2373690000,22.3187690000 114.2374670000,22.3187120000 114.2375730000,22.3186690000 114.2376850000,22.3186420000 114.2378000000,22.3186300000 114.2379160000,22.3186350000 114.2380290000,22.3186560000 114.2381380000,22.3186930000 114.2382400000,22.3187450000 114.2383320000,22.3188100000 114.2384120000,22.3188880000 114.2385380000,22.3190610000 114.2385920000,22.3191250000 114.2386600000,22.3191760000 114.2387390000,22.3192100000 114.2388250000,22.3192260000 114.2389130000,22.3192230000 114.2389970000,22.3192010000 114.2390730000,22.3191600000 114.2391370000,22.3191050000 114.2391850000,22.3190360000 114.2392250000,22.3189290000 114.2392370000,22.3188910000 114.2392890000,22.3187640000 114.2395070000,22.3188330000 114.2395910000,22.3188080000 114.2399020000,22.3188820000 114.2399970000,22.3189010000 114.2402180000,22.3189420000 114.2404620000,22.3189880000 114.2405600000,22.3190130000 114.2406740000,22.3190460000 114.2407510000,22.3190780000 114.2408820000,22.3191380000 114.2410130000,22.3192050000 114.2410970000,22.3192690000 114.2411860000,22.3193360000 114.2412560000,22.3193950000 114.2413570000,22.3194960000 114.2415300000,22.3197200000 114.2417680000,22.3200290000 114.2421510000,22.3205600000 114.2422150000,22.3206500000 114.2423060000,22.3207460000 114.2424090000,22.3208340000 114.2425050000,22.3208920000 114.2425840000,22.3209300000 114.2427310000,22.3209890000 114.2428740000,22.3210280000 114.2428850000,22.3210310000 114.2429210000,22.3210360000 114.2430730000,22.3210550000 114.2432030000,22.3210620000 114.2433460000,22.3210450000 114.2434830000,22.3210170000 114.2435620000,22.3209890000 114.2436100000,22.3209720000 114.2437350000,22.3209170000 114.2438410000,22.3208620000 114.2438800000,22.3208360000 114.2439890000,22.3207670000 114.2441370000,22.3206650000 114.2444530000,22.3204440000 114.2446390000,22.3203020000 114.2450080000,22.3200210000 114.2450920000,22.3199590000 114.2451860000,22.3198830000 114.2452300000,22.3198480000 114.2452720000,22.3198130000 114.2453660000,22.3197240000 114.2455170000,22.3195770000 114.2455830000,22.3195080000 114.2457620000,22.3192920000 114.2458410000,22.3191920000 114.2459660000,22.3190520000 114.2460730000,22.3189620000 114.2461980000,22.3188960000 114.2464050000,22.3188470000 114.2466020000,22.3188220000 114.2468240000,22.3188560000 114.2471070000,22.3189290000 114.2475410000,22.3190400000 114.2477130000,22.3190620000 114.2478670000,22.3190670000 114.2480150000,22.3190510000 114.2481580000,22.3190240000 114.2483600000,22.3189800000 114.2487040000,22.3189060000 114.2489540000,22.3188520000 114.2491110000,22.3188030000 114.2492200000,22.3187600000 114.2493620000,22.3186900000 114.2494870000,22.3186050000 114.2496310000,22.3184940000 114.2497480000,22.3183820000 114.2498480000,22.3182600000 114.2502040000,22.3177640000 114.2503290000,22.3175930000 114.2504340000,22.3174730000 114.2504800000,22.3174200000 114.2505200000,22.3173860000 114.2506060000,22.3173330000 114.2507140000,22.3172750000 114.2508520000,22.3172220000 114.2509930000,22.3171800000 114.2511870000,22.3171620000 114.2514440000,22.3171960000 114.2516600000,22.3172620000 114.2519640000,22.3173750000 114.2520590000,22.3174120000 114.2521430000,22.3174450000 114.2523280000,22.3174950000 114.2525440000,22.3175230000 114.2527680000,22.3175170000 114.2529250000,22.3175200000 114.2532200000,22.3175270000 114.2533840000,22.3175370000 114.2535450000,22.3175670000 114.2537000000,22.3176170000 114.2538460000,22.3176870000 114.2539800000,22.3177740000 114.2541000000,22.3178770000 114.2542040000,22.3179950000 114.2542980000,22.3181590000 114.2543720000,22.3183470000 114.2543930000,22.3184840000 114.2543940000,22.3186720000 114.2543800000,22.3188100000 114.2543570000,22.3190380000 114.2543490000,22.3192270000 114.2543370000,22.3193660000 114.2543130000,22.3194860000 114.2542770000,22.3196600000 114.2542380000,22.3197760000 114.2542150000,22.3198450000 114.2541180000,22.3200340000 114.2539620000,22.3202120000 114.2537810000,22.3203500000 114.2535880000,22.3204310000 114.2533400000,22.3204740000 114.2530760000,22.3204690000 114.2528210000,22.3203920000 114.2526840000,22.3203100000 114.2525480000,22.3202050000 114.2524080000,22.3200380000 114.2521310000,22.3197330000 114.2519910000,22.3196110000 114.2519380000,22.3195740000 114.2517050000,22.3194800000 114.2514670000,22.3194650000 114.2513920000,22.3194680000 114.2513220000,22.3194760000 114.2512610000,22.3194890000 114.2512030000,22.3195070000 114.2511470000,22.3195270000 114.2510940000,22.3195530000 114.2509940000,22.3196120000 114.2509110000,22.3196710000 114.2508550000,22.3197230000 114.2507820000,22.3198250000 114.2507340000,22.3199150000 114.2506830000,22.3200460000 114.2506330000,22.3201860000 114.2505420000,22.3204540000 114.2503310000,22.3210450000 114.2502100000,22.3213570000 114.2501730000,22.3214350000 114.2501170000,22.3215530000 114.2500820000,22.3216360000 114.2500440000,22.3217250000 114.2500120000,22.3218070000 114.2499920000,22.3218910000 114.2499830000,22.3219780000 114.2499750000,22.3221160000 114.2499740000,22.3222490000 114.2499810000,22.3222930000 114.2500020000,22.3223360000 114.2500320000,22.3224030000 114.2500810000,22.3225190000 114.2501730000,22.3226450000 114.2502720000,22.3228020000 114.2503440000,22.3229150000 114.2503900000,22.3230130000 114.2504220000,22.3231000000 114.2504420000,22.3231800000 114.2504540000,22.3232530000 114.2504570000,22.3233360000 114.2504530000,22.3234160000 114.2504420000,22.3234980000 114.2504270000,22.3235760000 114.2504050000,22.3236450000 114.2503780000,22.3237100000 114.2503460000,22.3237670000 114.2503010000,22.3238360000 114.2502520000,22.3239000000 114.2502010000,22.3239580000 114.2501280000,22.3240340000 114.2499610000,22.3241910000 114.2499020000,22.3242510000 114.2498430000,22.3243200000 114.2497910000,22.3243880000 114.2497280000,22.3244910000 114.2496800000,22.3245830000 114.2496470000,22.3246750000 114.2496300000,22.3247580000 114.2496210000,22.3248420000 114.2496180000,22.3249360000 114.2496200000,22.3250220000 114.2496340000,22.3251160000 114.2496720000,22.3252550000 114.2497200000,22.3253600000 114.2497940000,22.3254720000 114.2498940000,22.3255960000 114.2499740000,22.3256820000 114.2500850000,22.3257760000 114.2502140000,22.3258600000 114.2503720000,22.3259350000 114.2504340000,22.3259640000 114.2506060000,22.3260150000 114.2507050000,22.3260500000 114.2508550000,22.3261320000 114.2510410000,22.3261840000 114.2511770000,22.3262210000 114.2512620000,22.3262440000 114.2515340000,22.3263200000 114.2517800000,22.3263880000 114.2520340000,22.3264530000 114.2521280000,22.3264780000 114.2532760000,22.3267650000 114.2534180000,22.3268000000 114.2539900000,22.3269410000 114.2542520000,22.3269950000 114.2543370000,22.3270120000 114.2546970000,22.3270860000 114.2549810000,22.3271340000 114.2550680000,22.3271410000 114.2554240000,22.3271580000 114.2557120000,22.3271570000 114.2559080000,22.3271530000 114.2561730000,22.3271220000 114.2563020000,22.3271030000 114.2565220000,22.3270610000 114.2565530000,22.3270540000 114.2566910000,22.3270210000 114.2569210000,22.3269620000 114.2570820000,22.3269140000 114.2572620000,22.3268550000 114.2574320000,22.3267830000 114.2575680000,22.3267230000 114.2580380000,22.3264360000 114.2584060000,22.3260970000 114.2586220000,22.3258720000 114.2586760000,22.3258130000 114.2587490000,22.3257160000 114.2587780000,22.3256780000 114.2593870000,22.3247720000 114.2600950000,22.3236680000 114.2602330000,22.3234640000 114.2603650000,22.3232840000 114.2605550000,22.3230510000 114.2606250000,22.3229650000 114.2605180000,22.3228920000 114.2599350000,22.3225000000 114.2598100000,22.3223990000 114.2598050000,22.3223750000 114.2597950000,22.3223530000 114.2597750000,22.3223290000 114.2597490000,22.3223110000 114.2597210000,22.3223020000 114.2596910000,22.3223000000 114.2596580000,22.3223040000 114.2596320000,22.3223150000 114.2596090000,22.3223320000 114.2595930000,22.3223520000 114.2595820000,22.3223760000 114.2595780000,22.3224000000 114.2595790000,22.3224260000 114.2595870000,22.3224500000 114.2594590000,22.3226070000 114.2593560000,22.3227290000 114.2592410000,22.3228690000 114.2591100000,22.3230240000 114.2590410000,22.3230160000 114.2589620000,22.3230070000 114.2587390000,22.3228510000 114.2586490000,22.3227890000 114.2582570000,22.3232580000 114.2581790000,22.3233600000 114.2581100000,22.3234530000</coordinates>
                </LineString>
                <ExtendedData>
                    <Data name="duration">
                        <value>00:58:16</value>
                    </Data>
                    <Data name="length">
                        <value>42724.46561811768</value>
                    </Data>
                </ExtendedData>
            </Placemark>
        </Document>
    </Document>
</kml>