<?xml version="1.0" encoding="UTF-8"?>
<kml xmlns="http://www.opengis.net/kml/2.2" xmlns:gx="http://www.google.com/kml/ext/2.2">
    <Document>
        <name>Route</name>
        <Folder>
            <name>Route Request</name>
            <Placemark>
                <address>1, Sha Tin Centre Street, Sha Tin Town Centre, Tin Liu, Sha Tin, Sha Tin District, New Territories, Hong Kong, China</address>
                <Point>
                    <coordinates>114.1875819725,22.3834509036</coordinates>
                </Point>
                <ExtendedData>
                    <Data name="road">
                        <value>Sha Tin Centre Street</value>
                    </Data>
                    <Data name="quarter">
                        <value>Sha Tin Town Centre</value>
                    </Data>
                    <Data name="town">
                        <value>Sha Tin</value>
                    </Data>
                    <Data name="municipality">
                        <value>New Territories</value>
                    </Data>
                    <Data name="hamlet">
                        <value>Tin Liu</value>
                    </Data>
                    <Data name="city">
                        <value>Sha Tin District</value>
                    </Data>
                    <Data name="ISO3166-2-lvl3">
                        <value>CN-HK</value>
                    </Data>
                    <Data name="railway">
                        <value>1</value>
                    </Data>
                    <Data name="country">
                        <value>China</value>
                    </Data>
                    <Data name="state">
                        <value>Hong Kong</value>
                    </Data>
                    <Data name="country_code">
                        <value>cn</value>
                    </Data>
                    <Data name="routingVisited">
                        <value>false</value>
                    </Data>
                </ExtendedData>
            </Placemark>
            <Placemark>
                <address>Yuen Wo Road, Wo Che, Chut Shui Hang, Ha Wo Che, Sha Tin District, New Territories, Hong Kong, China</address>
                <Point>
                    <coordinates>114.1975380948,22.3889191076</coordinates>
                </Point>
                <ExtendedData>
                    <Data name="road">
                        <value>Yuen Wo Road</value>
                    </Data>
                    <Data name="quarter">
                        <value>Wo Che</value>
                    </Data>
                    <Data name="municipality">
                        <value>New Territories</value>
                    </Data>
                    <Data name="hamlet">
                        <value>Chut Shui Hang</value>
                    </Data>
                    <Data name="city">
                        <value>Sha Tin District</value>
                    </Data>
                    <Data name="ISO3166-2-lvl3">
                        <value>CN-HK</value>
                    </Data>
                    <Data name="village">
                        <value>Ha Wo Che</value>
                    </Data>
                    <Data name="country">
                        <value>China</value>
                    </Data>
                    <Data name="state">
                        <value>Hong Kong</value>
                    </Data>
                    <Data name="country_code">
                        <value>cn</value>
                    </Data>
                </ExtendedData>
            </Placemark>
            <Placemark>
                <address>Shing Kai Road, Ping Shek, Kwun Tong District, Kowloon, Hong Kong, 000000, China</address>
                <Point>
                    <coordinates>114.2052444621,22.3317442016</coordinates>
                </Point>
                <ExtendedData>
                    <Data name="road">
                        <value>Shing Kai Road</value>
                    </Data>
                    <Data name="city_district">
                        <value>Kwun Tong District</value>
                    </Data>
                    <Data name="suburb">
                        <value>Ping Shek</value>
                    </Data>
                    <Data name="postcode">
                        <value>000000</value>
                    </Data>
                    <Data name="city">
                        <value>Kowloon</value>
                    </Data>
                    <Data name="ISO3166-2-lvl3">
                        <value>CN-HK</value>
                    </Data>
                    <Data name="country">
                        <value>China</value>
                    </Data>
                    <Data name="state">
                        <value>Hong Kong</value>
                    </Data>
                    <Data name="country_code">
                        <value>cn</value>
                    </Data>
                </ExtendedData>
            </Placemark>
            <Placemark>
                <address>Sau Mau Ping Road, Lam Tin, Kwun Tong District, Kowloon, Hong Kong, 000000, China</address>
                <Point>
                    <coordinates>114.2387670836,22.3157177636</coordinates>
                </Point>
                <ExtendedData>
                    <Data name="road">
                        <value>Sau Mau Ping Road</value>
                    </Data>
                    <Data name="city_district">
                        <value>Kwun Tong District</value>
                    </Data>
                    <Data name="suburb">
                        <value>Lam Tin</value>
                    </Data>
                    <Data name="postcode">
                        <value>000000</value>
                    </Data>
                    <Data name="city">
                        <value>Kowloon</value>
                    </Data>
                    <Data name="ISO3166-2-lvl3">
                        <value>CN-HK</value>
                    </Data>
                    <Data name="country">
                        <value>China</value>
                    </Data>
                    <Data name="state">
                        <value>Hong Kong</value>
                    </Data>
                    <Data name="country_code">
                        <value>cn</value>
                    </Data>
                </ExtendedData>
            </Placemark>
            <Placemark>
                <address>Metro City Plaza II, Yan King Road, Po Lam, Tseung Kwan O Village, Sai Kung District, New Territories, Hong Kong, China</address>
                <Point>
                    <coordinates>114.2579224933,22.3234081964</coordinates>
                </Point>
                <ExtendedData>
                    <Data name="road">
                        <value>Yan King Road</value>
                    </Data>
                    <Data name="municipality">
                        <value>New Territories</value>
                    </Data>
                    <Data name="suburb">
                        <value>Po Lam</value>
                    </Data>
                    <Data name="city">
                        <value>Sai Kung District</value>
                    </Data>
                    <Data name="shop">
                        <value>Metro City Plaza II</value>
                    </Data>
                    <Data name="ISO3166-2-lvl3">
                        <value>CN-HK</value>
                    </Data>
                    <Data name="village">
                        <value>Tseung Kwan O Village</value>
                    </Data>
                    <Data name="country">
                        <value>China</value>
                    </Data>
                    <Data name="state">
                        <value>Hong Kong</value>
                    </Data>
                    <Data name="country_code">
                        <value>cn</value>
                    </Data>
                </ExtendedData>
            </Placemark>
            <Placemark>
                <address>Tseung Kwan O Road, Lam Tin, Kwun Tong District, Kowloon, Hong Kong, 000000, China</address>
                <Point>
                    <coordinates>114.2401085140,22.3148226651</coordinates>
                </Point>
                <ExtendedData>
                    <Data name="road">
                        <value>Tseung Kwan O Road</value>
                    </Data>
                    <Data name="city_district">
                        <value>Kwun Tong District</value>
                    </Data>
                    <Data name="suburb">
                        <value>Lam Tin</value>
                    </Data>
                    <Data name="postcode">
                        <value>000000</value>
                    </Data>
                    <Data name="city">
                        <value>Kowloon</value>
                    </Data>
                    <Data name="ISO3166-2-lvl3">
                        <value>CN-HK</value>
                    </Data>
                    <Data name="country">
                        <value>China</value>
                    </Data>
                    <Data name="state">
                        <value>Hong Kong</value>
                    </Data>
                    <Data name="country_code">
                        <value>cn</value>
                    </Data>
                </ExtendedData>
            </Placemark>
            <Placemark>
                <address>Tate's Cairn Tunnel, Ping Shek, Kwun Tong District, Kowloon, Hong Kong, 000000, China</address>
                <Point>
                    <coordinates>114.2051275616,22.3332845048</coordinates>
                </Point>
                <ExtendedData>
                    <Data name="road">
                        <value>Tate's Cairn Tunnel</value>
                    </Data>
                    <Data name="city_district">
                        <value>Kwun Tong District</value>
                    </Data>
                    <Data name="suburb">
                        <value>Ping Shek</value>
                    </Data>
                    <Data name="postcode">
                        <value>000000</value>
                    </Data>
                    <Data name="city">
                        <value>Kowloon</value>
                    </Data>
                    <Data name="ISO3166-2-lvl3">
                        <value>CN-HK</value>
                    </Data>
                    <Data name="country">
                        <value>China</value>
                    </Data>
                    <Data name="state">
                        <value>Hong Kong</value>
                    </Data>
                    <Data name="country_code">
                        <value>cn</value>
                    </Data>
                </ExtendedData>
            </Placemark>
            <Placemark>
                <Point>
                    <coordinates>114.1924877798,22.3832937706</coordinates>
                </Point>
            </Placemark>
            <Placemark>
                <address>1, Sha Tin Centre Street, Sha Tin Town Centre, Tin Liu, Sha Tin, Sha Tin District, New Territories, Hong Kong, China</address>
                <Point>
                    <coordinates>114.1875841558,22.3834362016</coordinates>
                </Point>
                <ExtendedData>
                    <Data name="road">
                        <value>Sha Tin Centre Street</value>
                    </Data>
                    <Data name="quarter">
                        <value>Sha Tin Town Centre</value>
                    </Data>
                    <Data name="town">
                        <value>Sha Tin</value>
                    </Data>
                    <Data name="municipality">
                        <value>New Territories</value>
                    </Data>
                    <Data name="hamlet">
                        <value>Tin Liu</value>
                    </Data>
                    <Data name="city">
                        <value>Sha Tin District</value>
                    </Data>
                    <Data name="ISO3166-2-lvl3">
                        <value>CN-HK</value>
                    </Data>
                    <Data name="railway">
                        <value>1</value>
                    </Data>
                    <Data name="country">
                        <value>China</value>
                    </Data>
                    <Data name="state">
                        <value>Hong Kong</value>
                    </Data>
                    <Data name="country_code">
                        <value>cn</value>
                    </Data>
                </ExtendedData>
            </Placemark>
        </Folder>
        <Document>
            <name>42.2 km; 00:48 h (OSRM)</name>
            <Placemark>
                <name>Route</name>
                <LineString>
                    <coordinates>114.1878830000,22.3839560000 114.1878390000,22.3840260000 114.1877890000,22.3841490000 114.1877500000,22.3842320000 114.1877300000,22.3843060000 114.1877100000,22.3843760000 114.1876940000,22.3844690000 114.1877060000,22.3845700000 114.1877580000,22.3846920000 114.1877810000,22.3847350000 114.1878090000,22.3847760000 114.1878410000,22.3848160000 114.1878760000,22.3848520000 114.1879490000,22.3849190000 114.1880890000,22.3850510000 114.1881530000,22.3851130000 114.1881670000,22.3851270000 114.1883030000,22.3852560000 114.1884280000,22.3853590000 114.1885120000,22.3854250000 114.1885290000,22.3854360000 114.1885540000,22.3854490000 114.1885590000,22.3854510000 114.1885860000,22.3854590000 114.1886110000,22.3854610000 114.1886440000,22.3854630000 114.1886820000,22.3854630000 114.1887200000,22.3854590000 114.1887480000,22.3854530000 114.1887850000,22.3854430000 114.1888160000,22.3854320000 114.1888450000,22.3854190000 114.1888740000,22.3854030000 114.1888990000,22.3853860000 114.1889530000,22.3853470000 114.1890040000,22.3853050000 114.1890640000,22.3852350000 114.1893170000,22.3850210000 114.1894210000,22.3849580000 114.1895370000,22.3848730000 114.1895670000,22.3848490000 114.1896120000,22.3848130000 114.1898740000,22.3845970000 114.1898870000,22.3845870000 114.1900070000,22.3844860000 114.1900860000,22.3844230000 114.1902390000,22.3843000000 114.1910490000,22.3835890000 114.1914070000,22.3832890000 114.1916560000,22.3830870000 114.1916790000,22.3830670000 114.1918370000,22.3829560000 114.1922130000,22.3833510000 114.1923150000,22.3834590000 114.1925980000,22.3837430000 114.1926430000,22.3837900000 114.1930340000,22.3841990000 114.1931060000,22.3842750000 114.1932120000,22.3843850000 114.1932770000,22.3844520000 114.1933130000,22.3844900000 114.1937530000,22.3849500000 114.1940070000,22.3852240000 114.1943740000,22.3856320000 114.1949340000,22.3862330000 114.1954510000,22.3867780000 114.1955890000,22.3869240000 114.1956820000,22.3870150000 114.1957040000,22.3870380000 114.1961710000,22.3875230000 114.1962680000,22.3876230000 114.1963280000,22.3876850000 114.1963740000,22.3877330000 114.1963880000,22.3877480000 114.1963990000,22.3877600000 114.1964150000,22.3877770000 114.1969050000,22.3882850000 114.1969700000,22.3883480000 114.1971290000,22.3884820000 114.1972790000,22.3885970000 114.1974170000,22.3886900000 114.1975640000,22.3887760000 114.1976180000,22.3888100000 114.1976250000,22.3888140000 114.1979960000,22.3890150000 114.1980680000,22.3890580000 114.1982020000,22.3891380000 114.1982610000,22.3890420000 114.1987380000,22.3884410000 114.1989720000,22.3882120000 114.1996500000,22.3876470000 114.2001010000,22.3872750000 114.2001210000,22.3872580000 114.2001390000,22.3872430000 114.2001720000,22.3872160000 114.2002520000,22.3871540000 114.2003410000,22.3872640000 114.2004970000,22.3874170000 114.2007280000,22.3876540000 114.2008750000,22.3878040000 114.2012210000,22.3881570000 114.2015360000,22.3884760000 114.2017690000,22.3886920000 114.2018380000,22.3887480000 114.2019710000,22.3888540000 114.2020480000,22.3889030000 114.2022500000,22.3890230000 114.2023690000,22.3890740000 114.2025240000,22.3891420000 114.2026640000,22.3891950000 114.2027440000,22.3892030000 114.2027630000,22.3892100000 114.2028310000,22.3892310000 114.2028690000,22.3892430000 114.2029350000,22.3892710000 114.2030300000,22.3891900000 114.2031230000,22.3891150000 114.2031490000,22.3890960000 114.2032070000,22.3890420000 114.2032670000,22.3889860000 114.2033570000,22.3889190000 114.2034210000,22.3888580000 114.2036490000,22.3886560000 114.2037290000,22.3885820000 114.2038440000,22.3884830000 114.2039310000,22.3884080000 114.2044030000,22.3880090000 114.2045230000,22.3879040000 114.2045960000,22.3878580000 114.2053620000,22.3871310000 114.2055540000,22.3869500000 114.2057010000,22.3868190000 114.2057900000,22.3867410000 114.2060090000,22.3865460000 114.2060920000,22.3864680000 114.2061000000,22.3864600000 114.2061810000,22.3863940000 114.2062570000,22.3863300000 114.2063720000,22.3862340000 114.2065010000,22.3861120000 114.2068360000,22.3857970000 114.2068760000,22.3857630000 114.2069390000,22.3856660000 114.2070740000,22.3855470000 114.2070880000,22.3855350000 114.2077500000,22.3849270000 114.2083880000,22.3843710000 114.2084830000,22.3842860000 114.2086200000,22.3841550000 114.2086490000,22.3841280000 114.2087160000,22.3840740000 114.2088530000,22.3839790000 114.2090370000,22.3838320000 114.2090530000,22.3838200000 114.2091200000,22.3837730000 114.2091360000,22.3837620000 114.2092010000,22.3837150000 114.2094600000,22.3835660000 114.2099210000,22.3833410000 114.2100360000,22.3832850000 114.2101280000,22.3832410000 114.2103870000,22.3831370000 114.2105670000,22.3830970000 114.2106480000,22.3830770000 114.2107630000,22.3830370000 114.2109460000,22.3830090000 114.2110900000,22.3829890000 114.2113400000,22.3829810000 114.2114350000,22.3829780000 114.2114800000,22.3829570000 114.2115140000,22.3829330000 114.2115410000,22.3828970000 114.2115680000,22.3828430000 114.2115830000,22.3827840000 114.2115930000,22.3827350000 114.2115960000,22.3826870000 114.2115940000,22.3825850000 114.2115170000,22.3824180000 114.2114550000,22.3822500000 114.2111980000,22.3818300000 114.2110960000,22.3816430000 114.2110050000,22.3815340000 114.2107560000,22.3810660000 114.2106940000,22.3809790000 114.2106010000,22.3807770000 114.2104950000,22.3805060000 114.2104530000,22.3803400000 114.2104310000,22.3802510000 114.2104120000,22.3801500000 114.2103920000,22.3800170000 114.2103540000,22.3799000000 114.2103800000,22.3796890000 114.2104250000,22.3794890000 114.2104730000,22.3793300000 114.2105230000,22.3791960000 114.2105290000,22.3791780000 114.2105780000,22.3790510000 114.2106670000,22.3788400000 114.2107470000,22.3786940000 114.2108220000,22.3785570000 114.2109620000,22.3783840000 114.2110450000,22.3782860000 114.2110860000,22.3782430000 114.2112720000,22.3780530000 114.2117400000,22.3776370000 114.2117800000,22.3776010000 114.2118630000,22.3775380000 114.2123110000,22.3771630000 114.2125220000,22.3769600000 114.2128340000,22.3766900000 114.2130050000,22.3764410000 114.2132730000,22.3760500000 114.2133850000,22.3758450000 114.2134900000,22.3756340000 114.2135830000,22.3754400000 114.2136620000,22.3752500000 114.2137340000,22.3750400000 114.2138090000,22.3748200000 114.2138700000,22.3746200000 114.2139200000,22.3744100000 114.2139600000,22.3742100000 114.2139900000,22.3739900000 114.2140100000,22.3738200000 114.2140300000,22.3736200000 114.2140430000,22.3734200000 114.2140470000,22.3732200000 114.2140470000,22.3730200000 114.2140390000,22.3728200000 114.2140200000,22.3725900000 114.2139900000,22.3723500000 114.2139580000,22.3721200000 114.2139100000,22.3718900000 114.2138830000,22.3717800000 114.2083200000,22.3495900000 114.2082620000,22.3493800000 114.2081850000,22.3491100000 114.2081120000,22.3488600000 114.2080360000,22.3486000000 114.2079650000,22.3483650000 114.2078860000,22.3481300000 114.2077980000,22.3478750000 114.2077160000,22.3476550000 114.2076370000,22.3474500000 114.2075600000,22.3472510000 114.2074820000,22.3470500000 114.2074320000,22.3469220000 114.2073200000,22.3466400000 114.2072320000,22.3464380000 114.2071500000,22.3462500000 114.2070620000,22.3460490000 114.2069700000,22.3458400000 114.2068550000,22.3455880000 114.2067400000,22.3453400000 114.2066200000,22.3451000000 114.2064930000,22.3448500000 114.2063600000,22.3445900000 114.2062700000,22.3444200000 114.2061700000,22.3442500000 114.2060250000,22.3439910000 114.2058840000,22.3437400000 114.2047010000,22.3418120000 114.2045300000,22.3415180000 114.2044760000,22.3414270000 114.2044380000,22.3413580000 114.2043690000,22.3412250000 114.2042900000,22.3410970000 114.2041990000,22.3409580000 114.2041190000,22.3408110000 114.2040990000,22.3407730000 114.2040550000,22.3406910000 114.2039800000,22.3405480000 114.2039120000,22.3404510000 114.2038590000,22.3403550000 114.2038170000,22.3402780000 114.2037820000,22.3402120000 114.2037450000,22.3401470000 114.2037170000,22.3400990000 114.2037000000,22.3400640000 114.2036740000,22.3400040000 114.2036540000,22.3399550000 114.2036340000,22.3398990000 114.2036080000,22.3398160000 114.2035650000,22.3396780000 114.2035280000,22.3395060000 114.2035010000,22.3393390000 114.2034800000,22.3390750000 114.2034760000,22.3389440000 114.2034770000,22.3388050000 114.2034800000,22.3387400000 114.2034820000,22.3386830000 114.2034870000,22.3385930000 114.2034990000,22.3385110000 114.2035120000,22.3384170000 114.2035280000,22.3383250000 114.2035390000,22.3382550000 114.2035550000,22.3381730000 114.2035740000,22.3380710000 114.2036030000,22.3379420000 114.2036490000,22.3377920000 114.2036880000,22.3376760000 114.2037200000,22.3375820000 114.2037930000,22.3373920000 114.2038410000,22.3372750000 114.2038850000,22.3371860000 114.2039960000,22.3369550000 114.2040660000,22.3368040000 114.2041810000,22.3365570000 114.2042030000,22.3365080000 114.2042150000,22.3364830000 114.2042730000,22.3363500000 114.2043990000,22.3360690000 114.2044590000,22.3359240000 114.2045980000,22.3355830000 114.2046160000,22.3355370000 114.2046440000,22.3354700000 114.2048730000,22.3349550000 114.2049080000,22.3348770000 114.2049600000,22.3347510000 114.2050320000,22.3345780000 114.2050640000,22.3345000000 114.2051070000,22.3343920000 114.2051230000,22.3343370000 114.2051450000,22.3342680000 114.2051550000,22.3342330000 114.2051890000,22.3341200000 114.2052030000,22.3340550000 114.2052200000,22.3339490000 114.2052370000,22.3338640000 114.2052550000,22.3337280000 114.2052650000,22.3335930000 114.2052630000,22.3335160000 114.2052580000,22.3333320000 114.2052550000,22.3331870000 114.2052410000,22.3330880000 114.2052360000,22.3330420000 114.2052150000,22.3328370000 114.2052120000,22.3328000000 114.2052100000,22.3327610000 114.2052070000,22.3326740000 114.2052010000,22.3324970000 114.2052000000,22.3324510000 114.2051870000,22.3322190000 114.2051810000,22.3321340000 114.2051780000,22.3320810000 114.2051640000,22.3317700000 114.2051630000,22.3317470000 114.2051480000,22.3313810000 114.2051460000,22.3313320000 114.2051430000,22.3311520000 114.2051400000,22.3306860000 114.2051400000,22.3305550000 114.2051310000,22.3303030000 114.2051110000,22.3298300000 114.2051080000,22.3297680000 114.2051170000,22.3295330000 114.2051390000,22.3293240000 114.2051500000,22.3292710000 114.2051600000,22.3292080000 114.2052090000,22.3289700000 114.2052630000,22.3287390000 114.2053080000,22.3284440000 114.2053110000,22.3282570000 114.2052980000,22.3280500000 114.2052590000,22.3278390000 114.2051810000,22.3276170000 114.2050770000,22.3273830000 114.2047580000,22.3268260000 114.2046890000,22.3267030000 114.2046160000,22.3265220000 114.2045670000,22.3263810000 114.2045440000,22.3262680000 114.2043350000,22.3252700000 114.2043050000,22.3250260000 114.2042960000,22.3248660000 114.2043020000,22.3247010000 114.2043210000,22.3244120000 114.2044120000,22.3237360000 114.2044900000,22.3231760000 114.2045590000,22.3225480000 114.2046040000,22.3223500000 114.2046700000,22.3221590000 114.2047860000,22.3219400000 114.2049050000,22.3217510000 114.2050760000,22.3215480000 114.2052900000,22.3213410000 114.2061850000,22.3205420000 114.2063330000,22.3203840000 114.2064920000,22.3202130000 114.2067840000,22.3198740000 114.2081000000,22.3183510000 114.2081700000,22.3182690000 114.2082300000,22.3182000000 114.2082770000,22.3181420000 114.2083860000,22.3180500000 114.2085220000,22.3179360000 114.2085860000,22.3178820000 114.2086700000,22.3178110000 114.2087440000,22.3177540000 114.2089040000,22.3176590000 114.2090420000,22.3175720000 114.2091510000,22.3175130000 114.2093070000,22.3174380000 114.2094850000,22.3173620000 114.2095800000,22.3173240000 114.2096840000,22.3172880000 114.2097930000,22.3172510000 114.2100410000,22.3171920000 114.2101780000,22.3171680000 114.2102900000,22.3171520000 114.2104880000,22.3171320000 114.2105780000,22.3171280000 114.2114570000,22.3170970000 114.2115240000,22.3170920000 114.2115830000,22.3170870000 114.2116790000,22.3170760000 114.2117660000,22.3170630000 114.2118700000,22.3170480000 114.2119610000,22.3170280000 114.2120410000,22.3170080000 114.2121110000,22.3169890000 114.2122780000,22.3169410000 114.2123740000,22.3169050000 114.2124740000,22.3168660000 114.2125880000,22.3168170000 114.2126860000,22.3167710000 114.2128020000,22.3167100000 114.2128780000,22.3166650000 114.2129570000,22.3166170000 114.2130380000,22.3165620000 114.2131120000,22.3165080000 114.2131720000,22.3164640000 114.2132510000,22.3164000000 114.2134680000,22.3162080000 114.2138690000,22.3158060000 114.2142290000,22.3154490000 114.2144950000,22.3151780000 114.2145580000,22.3151140000 114.2148470000,22.3148200000 114.2153530000,22.3142870000 114.2163560000,22.3132420000 114.2173930000,22.3121960000 114.2177430000,22.3118360000 114.2181890000,22.3113600000 114.2187700000,22.3106940000 114.2194920000,22.3097790000 114.2201190000,22.3089800000 114.2206900000,22.3082660000 114.2208580000,22.3080590000 114.2211120000,22.3077160000 114.2211320000,22.3076900000 114.2212710000,22.3074870000 114.2216420000,22.3069660000 114.2217420000,22.3068270000 114.2218470000,22.3066940000 114.2219330000,22.3065930000 114.2220580000,22.3064760000 114.2221670000,22.3063960000 114.2222180000,22.3063640000 114.2222530000,22.3063430000 114.2222790000,22.3063270000 114.2223060000,22.3063110000 114.2223280000,22.3063000000 114.2223460000,22.3062920000 114.2224310000,22.3062490000 114.2225170000,22.3062080000 114.2225920000,22.3061770000 114.2226550000,22.3061540000 114.2227520000,22.3061270000 114.2228370000,22.3061070000 114.2229130000,22.3060920000 114.2230030000,22.3060800000 114.2230840000,22.3060760000 114.2231720000,22.3060700000 114.2232510000,22.3060690000 114.2233290000,22.3060720000 114.2234080000,22.3060790000 114.2235050000,22.3060910000 114.2235800000,22.3061040000 114.2236310000,22.3061140000 114.2236610000,22.3061190000 114.2237260000,22.3061370000 114.2238140000,22.3061650000 114.2238910000,22.3061920000 114.2239620000,22.3062230000 114.2240380000,22.3062580000 114.2241160000,22.3062990000 114.2242250000,22.3063630000 114.2242840000,22.3063970000 114.2244660000,22.3065270000 114.2246430000,22.3066550000 114.2247820000,22.3067600000 114.2253170000,22.3071670000 114.2261930000,22.3078320000 114.2263050000,22.3079090000 114.2263390000,22.3079310000 114.2265030000,22.3080390000 114.2266330000,22.3081100000 114.2267610000,22.3081800000 114.2269680000,22.3082750000 114.2270750000,22.3083210000 114.2271530000,22.3083550000 114.2272160000,22.3083810000 114.2272570000,22.3083980000 114.2273690000,22.3084400000 114.2276000000,22.3085110000 114.2277000000,22.3085340000 114.2277540000,22.3085460000 114.2286010000,22.3087410000 114.2288660000,22.3087920000 114.2292800000,22.3088830000 114.2295410000,22.3089860000 114.2296310000,22.3090220000 114.2296830000,22.3090460000 114.2297100000,22.3090600000 114.2298710000,22.3091440000 114.2299610000,22.3092050000 114.2300350000,22.3092590000 114.2301140000,22.3093190000 114.2301740000,22.3093690000 114.2302240000,22.3094150000 114.2303270000,22.3095270000 114.2305400000,22.3098470000 114.2309030000,22.3103820000 114.2310010000,22.3105110000 114.2311220000,22.3106710000 114.2312800000,22.3108300000 114.2314620000,22.3109960000 114.2316730000,22.3111450000 114.2318940000,22.3112760000 114.2320790000,22.3113550000 114.2322270000,22.3114120000 114.2323970000,22.3114670000 114.2325320000,22.3115010000 114.2328960000,22.3115810000 114.2338490000,22.3118700000 114.2340280000,22.3119240000 114.2342150000,22.3119860000 114.2344110000,22.3120510000 114.2344620000,22.3120680000 114.2346800000,22.3121440000 114.2348960000,22.3122180000 114.2349250000,22.3122280000 114.2350540000,22.3122800000 114.2351840000,22.3123330000 114.2352470000,22.3123590000 114.2352750000,22.3123700000 114.2353160000,22.3123870000 114.2354520000,22.3124420000 114.2369900000,22.3130750000 114.2374950000,22.3133220000 114.2378270000,22.3134800000 114.2379400000,22.3135340000 114.2384050000,22.3137930000 114.2384570000,22.3138250000 114.2385910000,22.3139200000 114.2386990000,22.3140040000 114.2387790000,22.3140790000 114.2389250000,22.3142070000 114.2390230000,22.3143250000 114.2390940000,22.3144050000 114.2392290000,22.3145590000 114.2393250000,22.3146520000 114.2395150000,22.3148550000 114.2395960000,22.3149570000 114.2396250000,22.3150120000 114.2396480000,22.3150840000 114.2396560000,22.3151600000 114.2396530000,22.3151940000 114.2396440000,22.3152390000 114.2396310000,22.3152700000 114.2396160000,22.3153000000 114.2395880000,22.3153440000 114.2395540000,22.3153880000 114.2394980000,22.3154440000 114.2394550000,22.3154830000 114.2394010000,22.3155260000 114.2393450000,22.3155660000 114.2392850000,22.3156050000 114.2392280000,22.3156380000 114.2391660000,22.3156700000 114.2390930000,22.3157020000 114.2390430000,22.3157190000 114.2389790000,22.3157370000 114.2389280000,22.3157480000 114.2388450000,22.3157630000 114.2387760000,22.3157730000 114.2387060000,22.3157830000 114.2385850000,22.3157840000 114.2384720000,22.3157780000 114.2383660000,22.3157600000 114.2382640000,22.3157320000 114.2381400000,22.3156770000 114.2378720000,22.3155720000 114.2376690000,22.3155190000 114.2374670000,22.3154900000 114.2373700000,22.3154890000 114.2372980000,22.3154950000 114.2372370000,22.3154760000 114.2371890000,22.3154860000 114.2371540000,22.3154940000 114.2371070000,22.3155350000 114.2370270000,22.3155610000 114.2370180000,22.3155640000 114.2369380000,22.3155940000 114.2368360000,22.3155830000 114.2367390000,22.3156190000 114.2366390000,22.3156770000 114.2365540000,22.3157450000 114.2364880000,22.3158380000 114.2364430000,22.3159590000 114.2363290000,22.3161430000 114.2362760000,22.3162250000 114.2361490000,22.3164570000 114.2361290000,22.3164940000 114.2361010000,22.3165430000 114.2360260000,22.3166720000 114.2360120000,22.3166960000 114.2359620000,22.3167840000 114.2358880000,22.3169150000 114.2357370000,22.3172080000 114.2356150000,22.3174730000 114.2355860000,22.3175310000 114.2354990000,22.3175880000 114.2353230000,22.3178770000 114.2352760000,22.3179260000 114.2352260000,22.3180000000 114.2353120000,22.3180530000 114.2354040000,22.3181130000 114.2354710000,22.3181560000 114.2355100000,22.3181800000 114.2356470000,22.3182580000 114.2357620000,22.3183330000 114.2360340000,22.3184680000 114.2361500000,22.3185090000 114.2363410000,22.3185390000 114.2363860000,22.3185460000 114.2364280000,22.3185490000 114.2365490000,22.3185580000 114.2366780000,22.3185620000 114.2367880000,22.3185620000 114.2368530000,22.3185480000 114.2371530000,22.3184720000 114.2372180000,22.3183800000 114.2373020000,22.3183600000 114.2373450000,22.3183500000 114.2374750000,22.3183330000 114.2375980000,22.3183190000 114.2377150000,22.3183140000 114.2377890000,22.3183140000 114.2378320000,22.3183170000 114.2379670000,22.3183240000 114.2381480000,22.3183540000 114.2383060000,22.3183900000 114.2385070000,22.3184460000 114.2386360000,22.3185090000 114.2388460000,22.3186060000 114.2389820000,22.3186610000 114.2390870000,22.3186910000 114.2391320000,22.3187050000 114.2391680000,22.3187190000 114.2392890000,22.3187640000 114.2395070000,22.3188330000 114.2395910000,22.3188080000 114.2399020000,22.3188820000 114.2399970000,22.3189010000 114.2402180000,22.3189420000 114.2404620000,22.3189880000 114.2405600000,22.3190130000 114.2406740000,22.3190460000 114.2407510000,22.3190780000 114.2408820000,22.3191380000 114.2410130000,22.3192050000 114.2410970000,22.3192690000 114.2411860000,22.3193360000 114.2412560000,22.3193950000 114.2413570000,22.3194960000 114.2415300000,22.3197200000 114.2417680000,22.3200290000 114.2421510000,22.3205600000 114.2422150000,22.3206500000 114.2423060000,22.3207460000 114.2424090000,22.3208340000 114.2425050000,22.3208920000 114.2425840000,22.3209300000 114.2427310000,22.3209890000 114.2428740000,22.3210280000 114.2428850000,22.3210310000 114.2429210000,22.3210360000 114.2430730000,22.3210550000 114.2432030000,22.3210620000 114.2433460000,22.3210450000 114.2434830000,22.3210170000 114.2436100000,22.3209720000 114.2437350000,22.3209170000 114.2438410000,22.3208620000 114.2439890000,22.3207670000 114.2441370000,22.3206650000 114.2444530000,22.3204440000 114.2446390000,22.3203020000 114.2450080000,22.3200210000 114.2450920000,22.3199590000 114.2451860000,22.3198830000 114.2452300000,22.3198480000 114.2452720000,22.3198130000 114.2453660000,22.3197240000 114.2455170000,22.3195770000 114.2455830000,22.3195080000 114.2457620000,22.3192920000 114.2458410000,22.3191920000 114.2459660000,22.3190520000 114.2460730000,22.3189620000 114.2461980000,22.3188960000 114.2464050000,22.3188470000 114.2466020000,22.3188220000 114.2468240000,22.3188560000 114.2471070000,22.3189290000 114.2475410000,22.3190400000 114.2477130000,22.3190620000 114.2478670000,22.3190670000 114.2480150000,22.3190510000 114.2481580000,22.3190240000 114.2483600000,22.3189800000 114.2487040000,22.3189060000 114.2489540000,22.3188520000 114.2491110000,22.3188030000 114.2492200000,22.3187600000 114.2493620000,22.3186900000 114.2494870000,22.3186050000 114.2496310000,22.3184940000 114.2497480000,22.3183820000 114.2498480000,22.3182600000 114.2502040000,22.3177640000 114.2503290000,22.3175930000 114.2504340000,22.3174730000 114.2504800000,22.3174200000 114.2505200000,22.3173860000 114.2506060000,22.3173330000 114.2507140000,22.3172750000 114.2508520000,22.3172220000 114.2509930000,22.3171800000 114.2511870000,22.3171620000 114.2514440000,22.3171960000 114.2516600000,22.3172620000 114.2519640000,22.3173750000 114.2521430000,22.3174450000 114.2523280000,22.3174950000 114.2525440000,22.3175230000 114.2527680000,22.3175170000 114.2529250000,22.3175200000 114.2532200000,22.3175270000 114.2533840000,22.3175370000 114.2535450000,22.3175670000 114.2537000000,22.3176170000 114.2538460000,22.3176870000 114.2539800000,22.3177740000 114.2541000000,22.3178770000 114.2542040000,22.3179950000 114.2542980000,22.3181590000 114.2543720000,22.3183470000 114.2543930000,22.3184840000 114.2543940000,22.3186720000 114.2543800000,22.3188100000 114.2543570000,22.3190380000 114.2543490000,22.3192270000 114.2543370000,22.3193660000 114.2543130000,22.3194860000 114.2542770000,22.3196600000 114.2542150000,22.3198450000 114.2541180000,22.3200340000 114.2539620000,22.3202120000 114.2537810000,22.3203500000 114.2535880000,22.3204310000 114.2533400000,22.3204740000 114.2530760000,22.3204690000 114.2528210000,22.3203920000 114.2526840000,22.3203100000 114.2525480000,22.3202050000 114.2524080000,22.3200380000 114.2521310000,22.3197330000 114.2519910000,22.3196110000 114.2519380000,22.3195740000 114.2517050000,22.3194800000 114.2514670000,22.3194650000 114.2513920000,22.3194680000 114.2513220000,22.3194760000 114.2512610000,22.3194890000 114.2512030000,22.3195070000 114.2511470000,22.3195270000 114.2510940000,22.3195530000 114.2509940000,22.3196120000 114.2509110000,22.3196710000 114.2508550000,22.3197230000 114.2507820000,22.3198250000 114.2507340000,22.3199150000 114.2506830000,22.3200460000 114.2506330000,22.3201860000 114.2505420000,22.3204540000 114.2503310000,22.3210450000 114.2502100000,22.3213570000 114.2501730000,22.3214350000 114.2501170000,22.3215530000 114.2500820000,22.3216360000 114.2500440000,22.3217250000 114.2500120000,22.3218070000 114.2499920000,22.3218910000 114.2499830000,22.3219780000 114.2499750000,22.3221160000 114.2499740000,22.3222490000 114.2499810000,22.3222930000 114.2500020000,22.3223360000 114.2500320000,22.3224030000 114.2500810000,22.3225190000 114.2501730000,22.3226450000 114.2503440000,22.3229150000 114.2503900000,22.3230130000 114.2504220000,22.3231000000 114.2504420000,22.3231800000 114.2504540000,22.3232530000 114.2504570000,22.3233360000 114.2504530000,22.3234160000 114.2504420000,22.3234980000 114.2504270000,22.3235760000 114.2504050000,22.3236450000 114.2503780000,22.3237100000 114.2503460000,22.3237670000 114.2503010000,22.3238360000 114.2502520000,22.3239000000 114.2502010000,22.3239580000 114.2501280000,22.3240340000 114.2499610000,22.3241910000 114.2499020000,22.3242510000 114.2498430000,22.3243200000 114.2497910000,22.3243880000 114.2497280000,22.3244910000 114.2496800000,22.3245830000 114.2496470000,22.3246750000 114.2496300000,22.3247580000 114.2496210000,22.3248420000 114.2496180000,22.3249360000 114.2496200000,22.3250220000 114.2496340000,22.3251160000 114.2496720000,22.3252550000 114.2497200000,22.3253600000 114.2497940000,22.3254720000 114.2498940000,22.3255960000 114.2499740000,22.3256820000 114.2500850000,22.3257760000 114.2502140000,22.3258600000 114.2503720000,22.3259350000 114.2504340000,22.3259640000 114.2506060000,22.3260150000 114.2507050000,22.3260500000 114.2508550000,22.3261320000 114.2510410000,22.3261840000 114.2511770000,22.3262210000 114.2512620000,22.3262440000 114.2515340000,22.3263200000 114.2517800000,22.3263880000 114.2520340000,22.3264530000 114.2521280000,22.3264780000 114.2532680000,22.3267830000 114.2534100000,22.3268200000 114.2539900000,22.3269670000 114.2542550000,22.3270210000 114.2543330000,22.3270380000 114.2546940000,22.3271170000 114.2548930000,22.3271450000 114.2549780000,22.3271570000 114.2550120000,22.3271650000 114.2550510000,22.3271750000 114.2554330000,22.3271900000 114.2557020000,22.3271860000 114.2559360000,22.3271800000 114.2561770000,22.3271500000 114.2563090000,22.3271330000 114.2565290000,22.3270910000 114.2565590000,22.3270820000 114.2566650000,22.3270430000 114.2569250000,22.3269690000 114.2570520000,22.3269550000 114.2572620000,22.3269090000 114.2574560000,22.3268300000 114.2577760000,22.3266490000 114.2580430000,22.3264740000 114.2584390000,22.3261230000 114.2586600000,22.3258920000 114.2587070000,22.3258360000 114.2587690000,22.3257370000 114.2587730000,22.3257310000 114.2587850000,22.3257110000 114.2593870000,22.3247720000 114.2600950000,22.3236680000 114.2602330000,22.3234640000 114.2603650000,22.3232840000 114.2605550000,22.3230510000 114.2606250000,22.3229650000 114.2605180000,22.3228920000 114.2599350000,22.3225000000 114.2599300000,22.3224970000 114.2597910000,22.3224270000 114.2597860000,22.3224030000 114.2597750000,22.3223800000 114.2597560000,22.3223570000 114.2597300000,22.3223390000 114.2596990000,22.3223290000 114.2596670000,22.3223260000 114.2596380000,22.3223310000 114.2596120000,22.3223430000 114.2595900000,22.3223600000 114.2595740000,22.3223800000 114.2595630000,22.3224030000 114.2595580000,22.3224280000 114.2595600000,22.3224530000 114.2595680000,22.3224770000 114.2594590000,22.3226070000 114.2593560000,22.3227290000 114.2592410000,22.3228690000 114.2591100000,22.3230240000 114.2589620000,22.3230070000 114.2587510000,22.3228410000 114.2586350000,22.3228130000 114.2582790000,22.3232740000 114.2581980000,22.3233790000 114.2580900000,22.3235190000 114.2578850000,22.3237850000 114.2577420000,22.3239960000 114.2579350000,22.3241480000 114.2580280000,22.3242220000 114.2576950000,22.3246010000 114.2575970000,22.3246880000 114.2575820000,22.3247020000 114.2575650000,22.3247190000 114.2574810000,22.3248000000 114.2574220000,22.3248500000 114.2575870000,22.3250090000 114.2578540000,22.3252630000 114.2580730000,22.3254610000 114.2583550000,22.3256740000 114.2583620000,22.3256790000 114.2583810000,22.3256930000 114.2585610000,22.3258280000 114.2583730000,22.3260570000 114.2580010000,22.3263810000 114.2575160000,22.3266710000 114.2573220000,22.3267790000 114.2568990000,22.3269000000 114.2566270000,22.3269570000 114.2565810000,22.3269680000 114.2563330000,22.3270170000 114.2562290000,22.3270380000 114.2561120000,22.3270550000 114.2558780000,22.3270810000 114.2556920000,22.3270900000 114.2554270000,22.3271010000 114.2550610000,22.3270790000 114.2550240000,22.3270770000 114.2549810000,22.3270750000 114.2549030000,22.3270580000 114.2548520000,22.3270460000 114.2546930000,22.3270180000 114.2543530000,22.3269410000 114.2542730000,22.3269260000 114.2540010000,22.3268780000 114.2534400000,22.3267240000 114.2533460000,22.3266980000 114.2533010000,22.3266850000 114.2522430000,22.3264070000 114.2521130000,22.3263720000 114.2518710000,22.3263100000 114.2515810000,22.3262300000 114.2513760000,22.3261750000 114.2512910000,22.3261500000 114.2512070000,22.3261280000 114.2510030000,22.3260770000 114.2508820000,22.3260500000 114.2507050000,22.3260500000 114.2506060000,22.3260150000 114.2504340000,22.3259640000 114.2503720000,22.3259350000 114.2502140000,22.3258600000 114.2500850000,22.3257760000 114.2499740000,22.3256820000 114.2498940000,22.3255960000 114.2497940000,22.3254720000 114.2497200000,22.3253600000 114.2496720000,22.3252550000 114.2496340000,22.3251160000 114.2496200000,22.3250220000 114.2496180000,22.3249360000 114.2496210000,22.3248420000 114.2496300000,22.3247580000 114.2496470000,22.3246750000 114.2496800000,22.3245830000 114.2497280000,22.3244910000 114.2497910000,22.3243880000 114.2498430000,22.3243200000 114.2499020000,22.3242510000 114.2499610000,22.3241910000 114.2501280000,22.3240340000 114.2502010000,22.3239580000 114.2502520000,22.3239000000 114.2503010000,22.3238360000 114.2503460000,22.3237670000 114.2503780000,22.3237100000 114.2504050000,22.3236450000 114.2504270000,22.3235760000 114.2504420000,22.3234980000 114.2504530000,22.3234160000 114.2504570000,22.3233360000 114.2504540000,22.3232530000 114.2504420000,22.3231800000 114.2504220000,22.3231000000 114.2503900000,22.3230130000 114.2503440000,22.3229150000 114.2501730000,22.3226450000 114.2500810000,22.3225190000 114.2500320000,22.3224030000 114.2500020000,22.3223360000 114.2499810000,22.3222930000 114.2499740000,22.3222490000 114.2499750000,22.3221160000 114.2499830000,22.3219780000 114.2499920000,22.3218910000 114.2500120000,22.3218070000 114.2500440000,22.3217250000 114.2500820000,22.3216360000 114.2501170000,22.3215530000 114.2501730000,22.3214350000 114.2502100000,22.3213570000 114.2503310000,22.3210450000 114.2505420000,22.3204540000 114.2506330000,22.3201860000 114.2506830000,22.3200460000 114.2507340000,22.3199150000 114.2507820000,22.3198250000 114.2508550000,22.3197230000 114.2509110000,22.3196710000 114.2509940000,22.3196120000 114.2510940000,22.3195530000 114.2511470000,22.3195270000 114.2512030000,22.3195070000 114.2512610000,22.3194890000 114.2513220000,22.3194760000 114.2513920000,22.3194680000 114.2514670000,22.3194650000 114.2517050000,22.3194800000 114.2519380000,22.3195740000 114.2519910000,22.3196110000 114.2521310000,22.3197330000 114.2524080000,22.3200380000 114.2525480000,22.3202050000 114.2526840000,22.3203100000 114.2528210000,22.3203920000 114.2530760000,22.3204690000 114.2533400000,22.3204740000 114.2535880000,22.3204310000 114.2537810000,22.3203500000 114.2539620000,22.3202120000 114.2541180000,22.3200340000 114.2542150000,22.3198450000 114.2542770000,22.3196600000 114.2543130000,22.3194860000 114.2543370000,22.3193660000 114.2543490000,22.3192270000 114.2543570000,22.3190380000 114.2543800000,22.3188100000 114.2543940000,22.3186720000 114.2543930000,22.3184840000 114.2543720000,22.3183470000 114.2542980000,22.3181590000 114.2542040000,22.3179950000 114.2541000000,22.3178770000 114.2539800000,22.3177740000 114.2538460000,22.3176870000 114.2537000000,22.3176170000 114.2535450000,22.3175670000 114.2533840000,22.3175370000 114.2532200000,22.3175270000 114.2529250000,22.3175200000 114.2527680000,22.3175170000 114.2525440000,22.3175230000 114.2523280000,22.3174950000 114.2521430000,22.3174450000 114.2519640000,22.3173750000 114.2516600000,22.3172620000 114.2514440000,22.3171960000 114.2511870000,22.3171620000 114.2509930000,22.3171800000 114.2508520000,22.3172220000 114.2507140000,22.3172750000 114.2506060000,22.3173330000 114.2505200000,22.3173860000 114.2504800000,22.3174200000 114.2504340000,22.3174730000 114.2503290000,22.3175930000 114.2502040000,22.3177640000 114.2498480000,22.3182600000 114.2497480000,22.3183820000 114.2496310000,22.3184940000 114.2494870000,22.3186050000 114.2493620000,22.3186900000 114.2492200000,22.3187600000 114.2491110000,22.3188030000 114.2489540000,22.3188520000 114.2487040000,22.3189060000 114.2483600000,22.3189800000 114.2481580000,22.3190240000 114.2480150000,22.3190510000 114.2478670000,22.3190670000 114.2477130000,22.3190620000 114.2475410000,22.3190400000 114.2471070000,22.3189290000 114.2468240000,22.3188560000 114.2466020000,22.3188220000 114.2464050000,22.3188470000 114.2461980000,22.3188960000 114.2460730000,22.3189620000 114.2459660000,22.3190520000 114.2458410000,22.3191920000 114.2457620000,22.3192920000 114.2455830000,22.3195080000 114.2455170000,22.3195770000 114.2453660000,22.3197240000 114.2452720000,22.3198130000 114.2452300000,22.3198480000 114.2451860000,22.3198830000 114.2450920000,22.3199590000 114.2450080000,22.3200210000 114.2446390000,22.3203020000 114.2444530000,22.3204440000 114.2441370000,22.3206650000 114.2439890000,22.3207670000 114.2438410000,22.3208620000 114.2437350000,22.3209170000 114.2436100000,22.3209720000 114.2434830000,22.3210170000 114.2433460000,22.3210450000 114.2432030000,22.3210620000 114.2430730000,22.3210550000 114.2429210000,22.3210360000 114.2428850000,22.3210310000 114.2428740000,22.3210280000 114.2427310000,22.3209890000 114.2425840000,22.3209300000 114.2425050000,22.3208920000 114.2424090000,22.3208340000 114.2423060000,22.3207460000 114.2422150000,22.3206500000 114.2421510000,22.3205600000 114.2417680000,22.3200290000 114.2415300000,22.3197200000 114.2413570000,22.3194960000 114.2412560000,22.3193950000 114.2411860000,22.3193360000 114.2410970000,22.3192690000 114.2410130000,22.3192050000 114.2408820000,22.3191380000 114.2407510000,22.3190780000 114.2406740000,22.3190460000 114.2405600000,22.3190130000 114.2404620000,22.3189880000 114.2402180000,22.3189420000 114.2399970000,22.3189010000 114.2399020000,22.3188820000 114.2395910000,22.3188080000 114.2395450000,22.3187550000 114.2394890000,22.3187400000 114.2394580000,22.3187070000 114.2394100000,22.3186920000 114.2393270000,22.3186660000 114.2391980000,22.3186260000 114.2389870000,22.3185530000 114.2388800000,22.3185130000 114.2386480000,22.3184710000 114.2385070000,22.3184460000 114.2383060000,22.3183900000 114.2381480000,22.3183540000 114.2379670000,22.3183240000 114.2378320000,22.3183170000 114.2377890000,22.3183140000 114.2377150000,22.3183140000 114.2375980000,22.3183190000 114.2374750000,22.3183330000 114.2373450000,22.3183500000 114.2373020000,22.3183600000 114.2372180000,22.3183800000 114.2371310000,22.3183480000 114.2368700000,22.3183980000 114.2368420000,22.3184020000 114.2367760000,22.3184110000 114.2366740000,22.3184190000 114.2365500000,22.3184180000 114.2364350000,22.3184150000 114.2363950000,22.3184110000 114.2363610000,22.3184070000 114.2361640000,22.3183770000 114.2359490000,22.3182510000 114.2358640000,22.3181750000 114.2358040000,22.3181060000 114.2357220000,22.3179900000 114.2356630000,22.3178400000 114.2356150000,22.3174730000 114.2357370000,22.3172080000 114.2358880000,22.3169150000 114.2359620000,22.3167840000 114.2360120000,22.3166960000 114.2360260000,22.3166720000 114.2361010000,22.3165430000 114.2361290000,22.3164940000 114.2361490000,22.3164570000 114.2362760000,22.3162250000 114.2363290000,22.3161430000 114.2364430000,22.3159590000 114.2365590000,22.3158890000 114.2366370000,22.3158220000 114.2366860000,22.3157980000 114.2367080000,22.3157840000 114.2367270000,22.3157730000 114.2367460000,22.3157610000 114.2367660000,22.3157460000 114.2368870000,22.3156660000 114.2369380000,22.3155940000 114.2370180000,22.3155640000 114.2370270000,22.3155610000 114.2371070000,22.3155350000 114.2371700000,22.3155420000 114.2372040000,22.3155350000 114.2372520000,22.3155230000 114.2372980000,22.3154950000 114.2373700000,22.3154890000 114.2374670000,22.3154900000 114.2376690000,22.3155190000 114.2378720000,22.3155720000 114.2381400000,22.3156770000 114.2382640000,22.3157320000 114.2383960000,22.3157780000 114.2385170000,22.3158090000 114.2386520000,22.3158300000 114.2387870000,22.3158350000 114.2389300000,22.3158190000 114.2390520000,22.3157940000 114.2391740000,22.3157540000 114.2393190000,22.3156900000 114.2394440000,22.3156180000 114.2395620000,22.3155320000 114.2396730000,22.3154350000 114.2398040000,22.3153140000 114.2400870000,22.3149930000 114.2401000000,22.3149640000 114.2401100000,22.3149240000 114.2401160000,22.3148790000 114.2401130000,22.3148460000 114.2401080000,22.3148230000 114.2401020000,22.3147990000 114.2400540000,22.3147580000 114.2399710000,22.3146900000 114.2399620000,22.3146790000 114.2399540000,22.3146670000 114.2399270000,22.3146480000 114.2396280000,22.3144110000 114.2394670000,22.3142960000 114.2392950000,22.3141850000 114.2391860000,22.3141140000 114.2389730000,22.3139590000 114.2388980000,22.3139220000 114.2388130000,22.3138820000 114.2387260000,22.3138410000 114.2386610000,22.3138120000 114.2385640000,22.3137410000 114.2382870000,22.3135740000 114.2380010000,22.3134300000 114.2378730000,22.3133660000 114.2375300000,22.3132100000 114.2370340000,22.3129840000 114.2367210000,22.3128380000 114.2363900000,22.3126990000 114.2356300000,22.3123940000 114.2355000000,22.3123410000 114.2353410000,22.3122760000 114.2351780000,22.3121990000 114.2349360000,22.3121010000 114.2345030000,22.3119470000 114.2342650000,22.3118690000 114.2340590000,22.3118030000 114.2335550000,22.3116430000 114.2333870000,22.3115930000 114.2329570000,22.3114650000 114.2328200000,22.3114250000 114.2325600000,22.3113400000 114.2324030000,22.3112840000 114.2322850000,22.3112370000 114.2321800000,22.3111880000 114.2320820000,22.3111420000 114.2318390000,22.3110000000 114.2317070000,22.3109240000 114.2316670000,22.3108900000 114.2315100000,22.3107330000 114.2314530000,22.3106760000 114.2313710000,22.3105940000 114.2313280000,22.3105460000 114.2312930000,22.3105050000 114.2312430000,22.3104420000 114.2311920000,22.3103770000 114.2311270000,22.3102930000 114.2310420000,22.3101790000 114.2309360000,22.3100260000 114.2308730000,22.3099350000 114.2307240000,22.3097160000 114.2306820000,22.3096570000 114.2305780000,22.3095110000 114.2305050000,22.3094030000 114.2304090000,22.3092710000 114.2303550000,22.3092040000 114.2302980000,22.3091420000 114.2302370000,22.3090830000 114.2301650000,22.3090140000 114.2300710000,22.3089330000 114.2300050000,22.3088850000 114.2299380000,22.3088410000 114.2298380000,22.3087820000 114.2297230000,22.3087250000 114.2296280000,22.3086860000 114.2295400000,22.3086520000 114.2294330000,22.3086200000 114.2293190000,22.3085910000 114.2292260000,22.3085680000 114.2290990000,22.3085460000 114.2289510000,22.3085180000 114.2286030000,22.3084620000 114.2282630000,22.3084080000 114.2278110000,22.3083320000 114.2277750000,22.3083260000 114.2276770000,22.3083020000 114.2274790000,22.3082470000 114.2273900000,22.3082250000 114.2273040000,22.3082300000 114.2272070000,22.3082370000 114.2271300000,22.3082050000 114.2269900000,22.3081470000 114.2268560000,22.3080850000 114.2267930000,22.3080550000 114.2267110000,22.3080080000 114.2265700000,22.3079270000 114.2263910000,22.3078080000 114.2262800000,22.3077310000 114.2253870000,22.3070680000 114.2248690000,22.3066690000 114.2247250000,22.3065580000 114.2245460000,22.3064210000 114.2243610000,22.3063010000 114.2243140000,22.3062740000 114.2241870000,22.3061970000 114.2241050000,22.3061550000 114.2240250000,22.3061200000 114.2239390000,22.3060840000 114.2238590000,22.3060590000 114.2237720000,22.3060320000 114.2236920000,22.3060080000 114.2236620000,22.3060020000 114.2236010000,22.3059900000 114.2235180000,22.3059770000 114.2234270000,22.3059640000 114.2233360000,22.3059580000 114.2232530000,22.3059560000 114.2231590000,22.3059550000 114.2230750000,22.3059580000 114.2229880000,22.3059680000 114.2229010000,22.3059790000 114.2228110000,22.3059970000 114.2227170000,22.3060210000 114.2226160000,22.3060440000 114.2225570000,22.3060650000 114.2224700000,22.3060990000 114.2223830000,22.3061350000 114.2223530000,22.3061500000 114.2222940000,22.3061800000 114.2222660000,22.3061980000 114.2222410000,22.3062140000 114.2222140000,22.3062290000 114.2221880000,22.3062460000 114.2221410000,22.3062770000 114.2221040000,22.3063010000 114.2219890000,22.3063770000 114.2218560000,22.3064870000 114.2217540000,22.3065870000 114.2216280000,22.3067100000 114.2215010000,22.3068920000 114.2211590000,22.3074240000 114.2210730000,22.3075480000 114.2210220000,22.3076230000 114.2210020000,22.3076520000 114.2207530000,22.3079900000 114.2205820000,22.3082080000 114.2201910000,22.3087040000 114.2192820000,22.3098570000 114.2189020000,22.3103410000 114.2185710000,22.3107330000 114.2181640000,22.3111990000 114.2179470000,22.3114370000 114.2176990000,22.3117080000 114.2174100000,22.3119890000 114.2172860000,22.3121100000 114.2163760000,22.3130530000 114.2152860000,22.3141730000 114.2147630000,22.3147110000 114.2144750000,22.3150060000 114.2144120000,22.3150710000 114.2141400000,22.3153500000 114.2137790000,22.3157210000 114.2133820000,22.3161450000 114.2131930000,22.3163010000 114.2130460000,22.3164050000 114.2129730000,22.3164550000 114.2128790000,22.3165200000 114.2126550000,22.3166460000 114.2125020000,22.3167240000 114.2124270000,22.3167550000 114.2123210000,22.3167980000 114.2122390000,22.3168220000 114.2121170000,22.3168520000 114.2120210000,22.3168740000 114.2119200000,22.3168980000 114.2118410000,22.3169200000 114.2117380000,22.3169490000 114.2116630000,22.3169700000 114.2115760000,22.3169900000 114.2115180000,22.3169910000 114.2114550000,22.3169940000 114.2114170000,22.3169950000 114.2106800000,22.3170050000 114.2105510000,22.3170110000 114.2104420000,22.3170210000 114.2102100000,22.3170480000 114.2100740000,22.3170700000 114.2099850000,22.3170880000 114.2098960000,22.3171080000 114.2098060000,22.3171300000 114.2097240000,22.3171530000 114.2095930000,22.3172020000 114.2094120000,22.3172720000 114.2092070000,22.3173630000 114.2090880000,22.3174210000 114.2090280000,22.3174530000 114.2089030000,22.3175220000 114.2087420000,22.3176250000 114.2086530000,22.3176850000 114.2085840000,22.3177360000 114.2085160000,22.3177900000 114.2084350000,22.3178570000 114.2083130000,22.3179690000 114.2081940000,22.3180790000 114.2080850000,22.3181980000 114.2079840000,22.3183110000 114.2064330000,22.3201070000 114.2063570000,22.3201920000 114.2062550000,22.3203020000 114.2061580000,22.3204010000 114.2060370000,22.3205190000 114.2050750000,22.3214000000 114.2049940000,22.3214800000 114.2048860000,22.3215990000 114.2048020000,22.3217090000 114.2047360000,22.3218030000 114.2046960000,22.3218670000 114.2046490000,22.3219500000 114.2046110000,22.3220300000 114.2045630000,22.3221480000 114.2045280000,22.3222600000 114.2044830000,22.3224360000 114.2044420000,22.3226720000 114.2042210000,22.3243450000 114.2041960000,22.3246690000 114.2041970000,22.3248460000 114.2042080000,22.3250020000 114.2042410000,22.3252630000 114.2044370000,22.3262760000 114.2044630000,22.3263880000 114.2045180000,22.3265500000 114.2045830000,22.3267130000 114.2046420000,22.3268410000 114.2049840000,22.3274340000 114.2050800000,22.3276420000 114.2051680000,22.3278610000 114.2051980000,22.3280440000 114.2052140000,22.3282530000 114.2052140000,22.3284240000 114.2051800000,22.3287150000 114.2051220000,22.3289480000 114.2050700000,22.3291840000 114.2050530000,22.3292530000 114.2050400000,22.3293060000 114.2050090000,22.3295240000 114.2050020000,22.3297670000 114.2050020000,22.3298290000 114.2050380000,22.3309920000 114.2050440000,22.3311500000 114.2050500000,22.3313320000 114.2050570000,22.3321360000 114.2050670000,22.3322470000 114.2050830000,22.3324490000 114.2050850000,22.3325000000 114.2050940000,22.3326830000 114.2051040000,22.3328560000 114.2051140000,22.3330460000 114.2051170000,22.3330890000 114.2051180000,22.3331960000 114.2051200000,22.3332850000 114.2051220000,22.3333410000 114.2051270000,22.3335070000 114.2051270000,22.3335910000 114.2051270000,22.3337070000 114.2051190000,22.3338340000 114.2051110000,22.3339340000 114.2050950000,22.3340380000 114.2050820000,22.3341030000 114.2050280000,22.3342200000 114.2050200000,22.3342540000 114.2049850000,22.3343660000 114.2049550000,22.3344540000 114.2049150000,22.3345580000 114.2048490000,22.3347230000 114.2047950000,22.3348460000 114.2047620000,22.3349190000 114.2045400000,22.3354300000 114.2045110000,22.3355040000 114.2044900000,22.3355570000 114.2043520000,22.3358800000 114.2042160000,22.3361710000 114.2041520000,22.3363020000 114.2040870000,22.3364340000 114.2040730000,22.3364670000 114.2040560000,22.3365040000 114.2039410000,22.3367580000 114.2038770000,22.3369020000 114.2037760000,22.3371440000 114.2037360000,22.3372380000 114.2036880000,22.3373560000 114.2036300000,22.3375310000 114.2035890000,22.3376540000 114.2035500000,22.3377810000 114.2035090000,22.3379280000 114.2034790000,22.3380610000 114.2034600000,22.3381460000 114.2034440000,22.3382300000 114.2034290000,22.3383090000 114.2034150000,22.3384040000 114.2034010000,22.3385110000 114.2033920000,22.3386020000 114.2033870000,22.3386840000 114.2033830000,22.3387460000 114.2033820000,22.3388110000 114.2033820000,22.3389480000 114.2033840000,22.3390810000 114.2034010000,22.3393410000 114.2034090000,22.3395050000 114.2034390000,22.3396900000 114.2034660000,22.3398430000 114.2034840000,22.3399170000 114.2035030000,22.3399940000 114.2035340000,22.3401090000 114.2035600000,22.3401840000 114.2035960000,22.3402690000 114.2036290000,22.3403460000 114.2036710000,22.3404490000 114.2037160000,22.3405590000 114.2037610000,22.3406650000 114.2038100000,22.3407720000 114.2038360000,22.3408530000 114.2038550000,22.3408860000 114.2038990000,22.3409740000 114.2039770000,22.3411010000 114.2042960000,22.3416610000 114.2043110000,22.3416850000 114.2043790000,22.3417970000 114.2044550000,22.3419240000 114.2053200000,22.3433150000 114.2054350000,22.3435200000 114.2055500000,22.3437290000 114.2056630000,22.3439250000 114.2057790000,22.3441400000 114.2058890000,22.3443450000 114.2060000000,22.3445600000 114.2061000000,22.3447600000 114.2062070000,22.3449750000 114.2063090000,22.3451800000 114.2064100000,22.3453900000 114.2065010000,22.3455900000 114.2065900000,22.3457900000 114.2066830000,22.3460000000 114.2067680000,22.3462000000 114.2068510000,22.3464000000 114.2069320000,22.3465990000 114.2070130000,22.3468000000 114.2071030000,22.3470300000 114.2072050000,22.3473000000 114.2073180000,22.3476000000 114.2074280000,22.3479000000 114.2075260000,22.3482000000 114.2076200000,22.3484900000 114.2076880000,22.3487000000 114.2077600000,22.3489400000 114.2078440000,22.3492500000 114.2079100000,22.3495000000 114.2135960000,22.3721800000 114.2136400000,22.3723800000 114.2136800000,22.3726000000 114.2137070000,22.3728000000 114.2137270000,22.3730000000 114.2137370000,22.3732000000 114.2137370000,22.3734000000 114.2137320000,22.3736000000 114.2137200000,22.3738000000 114.2136930000,22.3740200000 114.2136600000,22.3742200000 114.2136180000,22.3744700000 114.2135700000,22.3746800000 114.2135000000,22.3749100000 114.2134300000,22.3751100000 114.2133500000,22.3753100000 114.2132580000,22.3755300000 114.2131500000,22.3757400000 114.2130380000,22.3759400000 114.2128100000,22.3762900000 114.2127220000,22.3764120000 114.2126060000,22.3765450000 114.2124270000,22.3767490000 114.2121920000,22.3769590000 114.2119220000,22.3771500000 114.2115880000,22.3774160000 114.2112310000,22.3777030000 114.2109760000,22.3779750000 114.2108890000,22.3780830000 114.2108120000,22.3782010000 114.2107510000,22.3782880000 114.2106100000,22.3784960000 114.2105400000,22.3786320000 114.2104080000,22.3788930000 114.2103450000,22.3790040000 114.2102190000,22.3792470000 114.2101990000,22.3793180000 114.2101660000,22.3794210000 114.2101170000,22.3795780000 114.2100770000,22.3797890000 114.2100420000,22.3799580000 114.2099890000,22.3801740000 114.2099080000,22.3803730000 114.2098260000,22.3805290000 114.2096970000,22.3806980000 114.2093640000,22.3810350000 114.2089880000,22.3813940000 114.2088710000,22.3815080000 114.2088510000,22.3815280000 114.2087770000,22.3816030000 114.2086980000,22.3816770000 114.2089240000,22.3818840000 114.2091800000,22.3821520000 114.2093800000,22.3823750000 114.2095570000,22.3826090000 114.2096980000,22.3827950000 114.2096990000,22.3829100000 114.2097170000,22.3829910000 114.2097150000,22.3830450000 114.2097110000,22.3831060000 114.2096930000,22.3831640000 114.2096640000,22.3832230000 114.2096360000,22.3832690000 114.2095970000,22.3833000000 114.2095210000,22.3833590000 114.2093960000,22.3834580000 114.2091150000,22.3836190000 114.2090660000,22.3836540000 114.2090440000,22.3836700000 114.2089800000,22.3837160000 114.2089640000,22.3837290000 114.2086270000,22.3839730000 114.2085600000,22.3840330000 114.2085270000,22.3840620000 114.2083830000,22.3841850000 114.2081600000,22.3843860000 114.2073440000,22.3851090000 114.2070060000,22.3854260000 114.2069780000,22.3854520000 114.2068510000,22.3855710000 114.2067660000,22.3856450000 114.2063210000,22.3860620000 114.2060180000,22.3863420000 114.2059680000,22.3863890000 114.2057960000,22.3865480000 114.2056790000,22.3866550000 114.2054570000,22.3868630000 114.2044830000,22.3877560000 114.2044230000,22.3878100000 114.2043060000,22.3879200000 114.2041290000,22.3880820000 114.2036530000,22.3884910000 114.2035640000,22.3885490000 114.2032940000,22.3888140000 114.2030980000,22.3889890000 114.2030170000,22.3890100000 114.2029840000,22.3890180000 114.2029370000,22.3890280000 114.2028960000,22.3890340000 114.2027170000,22.3890480000 114.2026050000,22.3890070000 114.2024460000,22.3889400000 114.2023090000,22.3888720000 114.2022870000,22.3888590000 114.2021800000,22.3887980000 114.2020490000,22.3887230000 114.2019260000,22.3886310000 114.2018730000,22.3885900000 114.2018420000,22.3885630000 114.2018200000,22.3885430000 114.2016370000,22.3883660000 114.2013350000,22.3880410000 114.2012090000,22.3879200000 114.2009930000,22.3877010000 114.2006990000,22.3874090000 114.2004190000,22.3871470000 114.2003550000,22.3870720000 114.2002730000,22.3869740000 114.2001700000,22.3870570000 114.2000530000,22.3871550000 114.2000360000,22.3871690000 114.2000130000,22.3871880000 114.1988680000,22.3881580000 114.1986450000,22.3883540000 114.1982380000,22.3888360000 114.1981340000,22.3889720000 114.1979720000,22.3888810000 114.1977130000,22.3887340000 114.1974830000,22.3886120000 114.1973360000,22.3885190000 114.1971950000,22.3884170000 114.1970420000,22.3882800000 114.1969700000,22.3882130000 114.1964840000,22.3877150000 114.1962430000,22.3874710000 114.1961990000,22.3874270000 114.1961440000,22.3873710000 114.1961120000,22.3873380000 114.1960380000,22.3872630000 114.1957720000,22.3869950000 114.1957450000,22.3869670000 114.1956470000,22.3868730000 114.1955120000,22.3867280000 114.1950010000,22.3861780000 114.1940700000,22.3851690000 114.1934390000,22.3844870000 114.1932940000,22.3843290000 114.1932460000,22.3842760000 114.1931810000,22.3842050000 114.1931260000,22.3841450000 114.1930890000,22.3841040000 114.1930490000,22.3840610000 114.1927750000,22.3837670000 114.1927330000,22.3837220000 114.1925660000,22.3835480000 114.1925220000,22.3835030000 114.1923960000,22.3833660000 114.1920460000,22.3829860000 114.1919500000,22.3828830000 114.1918810000,22.3827750000 114.1917620000,22.3828570000 114.1916640000,22.3829350000 114.1910030000,22.3835250000 114.1905130000,22.3838900000 114.1902680000,22.3840890000 114.1900940000,22.3842400000 114.1899810000,22.3843390000 114.1899150000,22.3844120000 114.1898130000,22.3845100000 114.1896410000,22.3846490000 114.1894990000,22.3847660000 114.1894740000,22.3847860000 114.1893520000,22.3848740000 114.1892870000,22.3849260000 114.1890290000,22.3851340000 114.1889370000,22.3852080000 114.1888900000,22.3852450000 114.1888400000,22.3852790000 114.1888000000,22.3853010000 114.1887670000,22.3853170000 114.1887330000,22.3853280000 114.1886950000,22.3853350000 114.1886590000,22.3853360000 114.1886230000,22.3853320000 114.1885960000,22.3853250000 114.1885650000,22.3853110000 114.1885150000,22.3852790000 114.1883180000,22.3851080000 114.1881860000,22.3848410000 114.1881230000,22.3847510000 114.1880870000,22.3846690000 114.1880680000,22.3846360000 114.1880850000,22.3845750000 114.1881040000,22.3844950000 114.1881730000,22.3843800000 114.1882240000,22.3843140000 114.1882690000,22.3842550000 114.1882360000,22.3842220000 114.1881870000,22.3841730000 114.1881000000,22.3841010000 114.1879410000,22.3839630000 114.1878830000,22.3839560000</coordinates>
                </LineString>
                <ExtendedData>
                    <Data name="length">
                        <value>42215.81092704315</value>
                    </Data>
                    <Data name="duration">
                        <value>00:48:11</value>
                    </Data>
                </ExtendedData>
            </Placemark>
        </Document>
    </Document>
</kml>