<?xml version="1.0" encoding="UTF-8"?>
<kml xmlns="http://www.opengis.net/kml/2.2" xmlns:gx="http://www.google.com/kml/ext/2.2">
    <Document>
        <name>Route</name>
        <Folder>
            <name>Route Request</name>
            <Placemark>
                <address>Sha Tin Racecourse, 6001, Tai Po Road – Sha Tin, Fo Tan, Ma Liu Village, Sha Tin District, Hong Kong, DD193 1132, PRC</address>
                <Point>
                    <coordinates>114.2074280781,22.3999632614</coordinates>
                </Point>
                <ExtendedData>
                    <Data name="hamlet">
                        <value>Ma Liu Village</value>
                    </Data>
                    <Data name="stadium">
                        <value>Sha Tin Racecourse</value>
                    </Data>
                    <Data name="road">
                        <value>Tai Po Road – Sha Tin</value>
                    </Data>
                    <Data name="postcode">
                        <value>DD193 1132</value>
                    </Data>
                    <Data name="county">
                        <value>Sha Tin District</value>
                    </Data>
                    <Data name="country">
                        <value>PRC</value>
                    </Data>
                    <Data name="house_number">
                        <value>6001</value>
                    </Data>
                    <Data name="suburb">
                        <value>Fo Tan</value>
                    </Data>
                    <Data name="country_code">
                        <value>cn</value>
                    </Data>
                </ExtendedData>
            </Placemark>
            <Placemark>
                <address>Tsing Sha Control Area Administration Building, 668, Tsing Sha Highway, Tai Wai, Hin Tin, Sha Tin District, Hong Kong, DD186 487, PRC</address>
                <Point>
                    <coordinates>114.1636272758,22.3582853748</coordinates>
                </Point>
                <ExtendedData>
                    <Data name="hamlet">
                        <value>Hin Tin</value>
                    </Data>
                    <Data name="building">
                        <value>Tsing Sha Control Area Administration Building</value>
                    </Data>
                    <Data name="road">
                        <value>Tsing Sha Highway</value>
                    </Data>
                    <Data name="postcode">
                        <value>DD186 487</value>
                    </Data>
                    <Data name="county">
                        <value>Sha Tin District</value>
                    </Data>
                    <Data name="country">
                        <value>PRC</value>
                    </Data>
                    <Data name="house_number">
                        <value>668</value>
                    </Data>
                    <Data name="suburb">
                        <value>Tai Wai</value>
                    </Data>
                    <Data name="country_code">
                        <value>cn</value>
                    </Data>
                </ExtendedData>
            </Placemark>
            <Placemark>
                <address>HKU, Sun Yat-sen Steps, Sai Ying Pun, Sai Wan, Central and Western District, Hong Kong, 1F, PRC</address>
                <Point>
                    <coordinates>114.1329208497,22.2832174989</coordinates>
                </Point>
                <ExtendedData>
                    <Data name="university">
                        <value>HKU</value>
                    </Data>
                    <Data name="footway">
                        <value>Sun Yat-sen Steps</value>
                    </Data>
                    <Data name="postcode">
                        <value>1F</value>
                    </Data>
                    <Data name="county">
                        <value>Central and Western District</value>
                    </Data>
                    <Data name="country">
                        <value>PRC</value>
                    </Data>
                    <Data name="town">
                        <value>Sai Wan</value>
                    </Data>
                    <Data name="suburb">
                        <value>Sai Ying Pun</value>
                    </Data>
                    <Data name="country_code">
                        <value>cn</value>
                    </Data>
                </ExtendedData>
            </Placemark>
            <Placemark>
                <address>Hing Wo Street, Shek Pai Wan Road, Aberdeen, Shui Choi Tin Village, Southern District, Hong Kong, RBL 561, PRC</address>
                <Point>
                    <coordinates>114.1482193082,22.2495574419</coordinates>
                </Point>
                <ExtendedData>
                    <Data name="hamlet">
                        <value>Shui Choi Tin Village</value>
                    </Data>
                    <Data name="bus_stop">
                        <value>Hing Wo Street</value>
                    </Data>
                    <Data name="road">
                        <value>Shek Pai Wan Road</value>
                    </Data>
                    <Data name="postcode">
                        <value>RBL 561</value>
                    </Data>
                    <Data name="county">
                        <value>Southern District</value>
                    </Data>
                    <Data name="country">
                        <value>PRC</value>
                    </Data>
                    <Data name="suburb">
                        <value>Aberdeen</value>
                    </Data>
                    <Data name="country_code">
                        <value>cn</value>
                    </Data>
                </ExtendedData>
            </Placemark>
            <Placemark>
                <address>EIB Centre, 40, Bonham Strand, Admiralty, Sheung Wan, Hong Kong, Central and Western District, Hong Kong, 1F, PRC</address>
                <Point>
                    <coordinates>114.1544772540,22.2495580685</coordinates>
                </Point>
                <ExtendedData>
                    <Data name="neighbourhood">
                        <value>Admiralty</value>
                    </Data>
                    <Data name="routingVisited">
                        <value>false</value>
                    </Data>
                    <Data name="city">
                        <value>Hong Kong</value>
                    </Data>
                    <Data name="building">
                        <value>EIB Centre</value>
                    </Data>
                    <Data name="road">
                        <value>Bonham Strand</value>
                    </Data>
                    <Data name="postcode">
                        <value>1F</value>
                    </Data>
                    <Data name="county">
                        <value>Central and Western District</value>
                    </Data>
                    <Data name="country">
                        <value>PRC</value>
                    </Data>
                    <Data name="house_number">
                        <value>40</value>
                    </Data>
                    <Data name="suburb">
                        <value>Sheung Wan</value>
                    </Data>
                    <Data name="country_code">
                        <value>cn</value>
                    </Data>
                </ExtendedData>
            </Placemark>
            <Placemark>
                <address>Marine Police Aberdeen Base, 28, Shum Wan Road, Po Chong Wan Temporary Industrial Area, Wong Chuk Hang, Wong Chuk Hang San Wai, Southern District, Hong Kong, RBL 561, PRC</address>
                <Point>
                    <coordinates>114.1642415511,22.2430183721</coordinates>
                </Point>
                <ExtendedData>
                    <Data name="hamlet">
                        <value>Wong Chuk Hang San Wai</value>
                    </Data>
                    <Data name="building">
                        <value>Marine Police Aberdeen Base</value>
                    </Data>
                    <Data name="road">
                        <value>Shum Wan Road</value>
                    </Data>
                    <Data name="postcode">
                        <value>RBL 561</value>
                    </Data>
                    <Data name="industrial">
                        <value>Po Chong Wan Temporary Industrial Area</value>
                    </Data>
                    <Data name="county">
                        <value>Southern District</value>
                    </Data>
                    <Data name="country">
                        <value>PRC</value>
                    </Data>
                    <Data name="house_number">
                        <value>28</value>
                    </Data>
                    <Data name="suburb">
                        <value>Wong Chuk Hang</value>
                    </Data>
                    <Data name="country_code">
                        <value>cn</value>
                    </Data>
                </ExtendedData>
            </Placemark>
            <Placemark>
                <address>Tung Hing House, Lei Tung Estate Road, Lei Tung Estate, Ap Lei Chau, Shui Choi Tin Village, Southern District, Hong Kong, RBL 561, PRC</address>
                <Point>
                    <coordinates>114.1551799128,22.2405047936</coordinates>
                </Point>
                <ExtendedData>
                    <Data name="residential">
                        <value>Lei Tung Estate</value>
                    </Data>
                    <Data name="hamlet">
                        <value>Shui Choi Tin Village</value>
                    </Data>
                    <Data name="building">
                        <value>Tung Hing House</value>
                    </Data>
                    <Data name="road">
                        <value>Lei Tung Estate Road</value>
                    </Data>
                    <Data name="postcode">
                        <value>RBL 561</value>
                    </Data>
                    <Data name="county">
                        <value>Southern District</value>
                    </Data>
                    <Data name="country">
                        <value>PRC</value>
                    </Data>
                    <Data name="suburb">
                        <value>Ap Lei Chau</value>
                    </Data>
                    <Data name="country_code">
                        <value>cn</value>
                    </Data>
                </ExtendedData>
            </Placemark>
            <Placemark>
                <address>Lee Nam Road, Ap Lei Chau, Shui Choi Tin Village, Southern District, Hong Kong, RBL 561, PRC</address>
                <Point>
                    <coordinates>114.1536009214,22.2369257070</coordinates>
                </Point>
                <ExtendedData>
                    <Data name="hamlet">
                        <value>Shui Choi Tin Village</value>
                    </Data>
                    <Data name="road">
                        <value>Lee Nam Road</value>
                    </Data>
                    <Data name="postcode">
                        <value>RBL 561</value>
                    </Data>
                    <Data name="county">
                        <value>Southern District</value>
                    </Data>
                    <Data name="country">
                        <value>PRC</value>
                    </Data>
                    <Data name="suburb">
                        <value>Ap Lei Chau</value>
                    </Data>
                    <Data name="country_code">
                        <value>cn</value>
                    </Data>
                </ExtendedData>
            </Placemark>
        </Folder>
        <Document>
            <name>35.7 km; 01:18 h (OSRM)</name>
            <Placemark>
                <name>Route</name>
                <LineString>
                    <coordinates>114.2066080000,22.4028980000 114.2066080000,22.4028980000 114.2074330000,22.4033100000 114.2074970000,22.4033540000 114.2076330000,22.4035150000 114.2074700000,22.4036030000 114.2072810000,22.4033960000 114.2072380000,22.4033790000 114.2071780000,22.4033730000 114.2071190000,22.4033890000 114.2070420000,22.4034310000 114.2069810000,22.4034200000 114.2067710000,22.4034060000 114.2065830000,22.4034010000 114.2062710000,22.4034040000 114.2062090000,22.4034370000 114.2061580000,22.4034680000 114.2061230000,22.4035140000 114.2061060000,22.4035740000 114.2061150000,22.4036520000 114.2061730000,22.4037450000 114.2064510000,22.4039460000 114.2065260000,22.4039790000 114.2066110000,22.4039850000 114.2067000000,22.4039620000 114.2069020000,22.4038960000 114.2070490000,22.4038470000 114.2071590000,22.4038330000 114.2072520000,22.4038260000 114.2073410000,22.4038500000 114.2074130000,22.4038990000 114.2074890000,22.4039910000 114.2075310000,22.4040680000 114.2075330000,22.4041730000 114.2075130000,22.4042590000 114.2074690000,22.4043320000 114.2074040000,22.4044000000 114.2073190000,22.4044470000 114.2072260000,22.4044700000 114.2071230000,22.4044670000 114.2069430000,22.4044150000 114.2066410000,22.4042130000 114.2062780000,22.4039970000 114.2061770000,22.4039110000 114.2059630000,22.4037230000 114.2057320000,22.4035090000 114.2055310000,22.4033200000 114.2051310000,22.4029200000 114.2048990000,22.4026730000 114.2047230000,22.4024670000 114.2046060000,22.4023350000 114.2044860000,22.4021950000 114.2042730000,22.4019300000 114.2040740000,22.4016570000 114.2038460000,22.4013320000 114.2033920000,22.4006700000 114.2030380000,22.4000680000 114.2028000000,22.3997030000 114.2024350000,22.3991230000 114.2021350000,22.3986390000 114.2015240000,22.3976620000 114.2008400000,22.3966260000 114.2005370000,22.3961730000 114.1999900000,22.3953090000 114.1997520000,22.3949370000 114.1996270000,22.3947240000 114.1995070000,22.3944600000 114.1993650000,22.3941340000 114.1993040000,22.3939500000 114.1991650000,22.3936900000 114.1990390000,22.3933150000 114.1989780000,22.3931500000 114.1989050000,22.3929760000 114.1987920000,22.3927310000 114.1986770000,22.3925230000 114.1985650000,22.3923400000 114.1984430000,22.3922190000 114.1982390000,22.3920420000 114.1980370000,22.3918830000 114.1978960000,22.3917870000 114.1977220000,22.3916850000 114.1973520000,22.3914960000 114.1969330000,22.3912910000 114.1962180000,22.3909270000 114.1956740000,22.3906430000 114.1955200000,22.3905530000 114.1951350000,22.3903120000 114.1949500000,22.3901940000 114.1945100000,22.3898400000 114.1933270000,22.3888340000 114.1926210000,22.3881710000 114.1921140000,22.3876880000 114.1917750000,22.3873860000 114.1915680000,22.3871820000 114.1912850000,22.3868860000 114.1911260000,22.3867190000 114.1907320000,22.3862080000 114.1903990000,22.3857710000 114.1902170000,22.3854960000 114.1898700000,22.3850510000 114.1884510000,22.3832080000 114.1881560000,22.3828260000 114.1879840000,22.3826060000 114.1879290000,22.3825370000 114.1877310000,22.3822690000 114.1874490000,22.3819050000 114.1872230000,22.3815960000 114.1870640000,22.3813790000 114.1869230000,22.3811660000 114.1867700000,22.3809390000 114.1866090000,22.3806950000 114.1865310000,22.3805600000 114.1864450000,22.3804030000 114.1863220000,22.3801460000 114.1862130000,22.3799770000 114.1861110000,22.3797550000 114.1860490000,22.3795590000 114.1859920000,22.3793310000 114.1859550000,22.3792030000 114.1859180000,22.3791140000 114.1858440000,22.3789660000 114.1857570000,22.3788220000 114.1856720000,22.3787130000 114.1855560000,22.3785910000 114.1854640000,22.3785050000 114.1853680000,22.3784390000 114.1852840000,22.3783940000 114.1851180000,22.3783190000 114.1849520000,22.3782670000 114.1843500000,22.3781130000 114.1836040000,22.3779690000 114.1832420000,22.3778660000 114.1829630000,22.3777850000 114.1823690000,22.3776000000 114.1820780000,22.3775060000 114.1817920000,22.3774180000 114.1815130000,22.3773620000 114.1811700000,22.3773180000 114.1809420000,22.3773090000 114.1806080000,22.3773180000 114.1798000000,22.3773200000 114.1794880000,22.3773210000 114.1792500000,22.3773020000 114.1788340000,22.3772150000 114.1786130000,22.3771440000 114.1781660000,22.3770100000 114.1777320000,22.3768610000 114.1774190000,22.3767440000 114.1771890000,22.3766370000 114.1769680000,22.3765280000 114.1767520000,22.3763950000 114.1765600000,22.3762580000 114.1763760000,22.3760930000 114.1762510000,22.3759510000 114.1761330000,22.3757340000 114.1760860000,22.3756360000 114.1760450000,22.3755360000 114.1759930000,22.3752710000 114.1756670000,22.3741290000 114.1753160000,22.3732420000 114.1751430000,22.3728130000 114.1749790000,22.3724690000 114.1748500000,22.3721110000 114.1747600000,22.3718580000 114.1746890000,22.3716530000 114.1746650000,22.3715850000 114.1745040000,22.3711910000 114.1743360000,22.3708080000 114.1742100000,22.3705610000 114.1740260000,22.3702380000 114.1737940000,22.3699260000 114.1734920000,22.3695240000 114.1720900000,22.3679050000 114.1719260000,22.3677240000 114.1717750000,22.3675820000 114.1714720000,22.3672890000 114.1712610000,22.3671170000 114.1710830000,22.3669950000 114.1705850000,22.3666650000 114.1700580000,22.3663920000 114.1696200000,22.3661870000 114.1693700000,22.3660800000 114.1690900000,22.3659700000 114.1688000000,22.3658700000 114.1679000000,22.3655600000 114.1676500000,22.3654680000 114.1674100000,22.3653700000 114.1671510000,22.3652590000 114.1668800000,22.3651200000 114.1666000000,22.3649610000 114.1663400000,22.3648000000 114.1661110000,22.3646300000 114.1658330000,22.3644190000 114.1655700000,22.3641900000 114.1652900000,22.3639200000 114.1650400000,22.3636500000 114.1647950000,22.3633420000 114.1645700000,22.3630300000 114.1642800000,22.3625400000 114.1641500000,22.3622800000 114.1640460000,22.3620400000 114.1638700000,22.3615800000 114.1637400000,22.3611100000 114.1635770000,22.3603420000 114.1634800000,22.3598630000 114.1633960000,22.3593550000 114.1633360000,22.3591380000 114.1634410000,22.3590150000 114.1634710000,22.3588060000 114.1633270000,22.3585370000 114.1632830000,22.3584660000 114.1630480000,22.3580850000 114.1629560000,22.3579940000 114.1628420000,22.3579440000 114.1627680000,22.3578120000 114.1612200000,22.3548600000 114.1609300000,22.3543480000 114.1606500000,22.3538990000 114.1602900000,22.3533700000 114.1598500000,22.3527830000 114.1593800000,22.3522300000 114.1588600000,22.3516800000 114.1582120000,22.3510800000 114.1575320000,22.3505200000 114.1568480000,22.3500100000 114.1560300000,22.3495000000 114.1552990000,22.3490900000 114.1545000000,22.3487000000 114.1540510000,22.3485090000 114.1536090000,22.3483400000 114.1529600000,22.3481200000 114.1525800000,22.3480000000 114.1521900000,22.3478900000 114.1514300000,22.3477100000 114.1502620000,22.3474600000 114.1499190000,22.3473730000 114.1496100000,22.3472800000 114.1491700000,22.3471300000 114.1489200000,22.3470310000 114.1486770000,22.3469230000 114.1484300000,22.3468000000 114.1482100000,22.3466700000 114.1476800000,22.3463200000 114.1473860000,22.3460910000 114.1467400000,22.3455350000 114.1464340000,22.3452630000 114.1459140000,22.3448280000 114.1457500000,22.3446990000 114.1447490000,22.3438260000 114.1443360000,22.3434030000 114.1442250000,22.3432760000 114.1441540000,22.3431810000 114.1439890000,22.3429410000 114.1438520000,22.3426830000 114.1436710000,22.3422940000 114.1436090000,22.3420990000 114.1435690000,22.3419180000 114.1435400000,22.3417790000 114.1435050000,22.3415490000 114.1435030000,22.3412850000 114.1435090000,22.3410750000 114.1435140000,22.3409550000 114.1435280000,22.3408150000 114.1436110000,22.3405150000 114.1437240000,22.3401940000 114.1438870000,22.3398040000 114.1441110000,22.3393440000 114.1443630000,22.3388750000 114.1445450000,22.3385180000 114.1446170000,22.3383590000 114.1446950000,22.3381300000 114.1447440000,22.3379760000 114.1447900000,22.3377480000 114.1448100000,22.3375340000 114.1448210000,22.3372800000 114.1448310000,22.3370040000 114.1448220000,22.3367250000 114.1448120000,22.3366120000 114.1448290000,22.3363340000 114.1448080000,22.3359920000 114.1447950000,22.3355460000 114.1448150000,22.3350510000 114.1448470000,22.3344940000 114.1448390000,22.3339050000 114.1448330000,22.3326030000 114.1448700000,22.3321190000 114.1449140000,22.3317840000 114.1449270000,22.3316830000 114.1449700000,22.3315250000 114.1450250000,22.3313930000 114.1451020000,22.3312730000 114.1452250000,22.3311440000 114.1453490000,22.3310510000 114.1455680000,22.3309560000 114.1458640000,22.3308150000 114.1463940000,22.3305740000 114.1469190000,22.3303140000 114.1473950000,22.3301400000 114.1478570000,22.3299480000 114.1485500000,22.3297040000 114.1490120000,22.3295020000 114.1497570000,22.3291370000 114.1501000000,22.3289550000 114.1503960000,22.3287860000 114.1507410000,22.3285760000 114.1520550000,22.3277150000 114.1526590000,22.3272860000 114.1531820000,22.3269000000 114.1537150000,22.3264900000 114.1539540000,22.3262910000 114.1542690000,22.3260350000 114.1546560000,22.3256860000 114.1549900000,22.3253550000 114.1552240000,22.3251220000 114.1557270000,22.3246280000 114.1560650000,22.3242700000 114.1564410000,22.3238480000 114.1568310000,22.3233530000 114.1573880000,22.3226920000 114.1579820000,22.3219540000 114.1583150000,22.3215070000 114.1589420000,22.3206190000 114.1592580000,22.3202020000 114.1594310000,22.3199500000 114.1596220000,22.3196820000 114.1598450000,22.3193330000 114.1600770000,22.3188880000 114.1603350000,22.3183320000 114.1605840000,22.3176970000 114.1606650000,22.3175070000 114.1608710000,22.3170190000 114.1609700000,22.3167840000 114.1612820000,22.3160930000 114.1615940000,22.3151600000 114.1616210000,22.3150420000 114.1616630000,22.3148470000 114.1617090000,22.3146260000 114.1617180000,22.3145850000 114.1617610000,22.3143630000 114.1617950000,22.3141820000 114.1618090000,22.3139630000 114.1618310000,22.3135180000 114.1619240000,22.3125700000 114.1619440000,22.3123160000 114.1619480000,22.3122100000 114.1619090000,22.3116060000 114.1618880000,22.3113780000 114.1618620000,22.3110430000 114.1617620000,22.3102830000 114.1617280000,22.3100860000 114.1615730000,22.3094080000 114.1615000000,22.3091370000 114.1613850000,22.3086340000 114.1612360000,22.3080240000 114.1611580000,22.3077070000 114.1610650000,22.3074870000 114.1609840000,22.3072940000 114.1608400000,22.3069860000 114.1606820000,22.3066440000 114.1604320000,22.3061120000 114.1602290000,22.3055990000 114.1600220000,22.3051640000 114.1595820000,22.3044750000 114.1591920000,22.3038320000 114.1588780000,22.3033830000 114.1588150000,22.3033040000 114.1587600000,22.3032220000 114.1584540000,22.3028700000 114.1582710000,22.3026750000 114.1580860000,22.3025020000 114.1578670000,22.3023060000 114.1576670000,22.3021240000 114.1573610000,22.3018450000 114.1567120000,22.3011290000 114.1464940000,22.2900780000 114.1462210000,22.2898010000 114.1459600000,22.2895670000 114.1456370000,22.2893730000 114.1452960000,22.2892670000 114.1448620000,22.2892080000 114.1443140000,22.2891800000 114.1438080000,22.2892140000 114.1432940000,22.2893100000 114.1431250000,22.2893610000 114.1429260000,22.2894330000 114.1426100000,22.2895720000 114.1417810000,22.2901180000 114.1416500000,22.2901830000 114.1414900000,22.2902400000 114.1413710000,22.2902560000 114.1412800000,22.2902620000 114.1411800000,22.2902580000 114.1411000000,22.2902450000 114.1410100000,22.2902200000 114.1409380000,22.2901920000 114.1408610000,22.2901480000 114.1407890000,22.2900920000 114.1407280000,22.2900300000 114.1406720000,22.2899600000 114.1406300000,22.2898900000 114.1405990000,22.2898220000 114.1405740000,22.2897400000 114.1405610000,22.2896700000 114.1405570000,22.2896100000 114.1405620000,22.2895500000 114.1405990000,22.2894340000 114.1407630000,22.2892070000 114.1409600000,22.2890470000 114.1410910000,22.2890130000 114.1411740000,22.2890100000 114.1412890000,22.2889980000 114.1416800000,22.2890690000 114.1420860000,22.2891770000 114.1422080000,22.2892020000 114.1423430000,22.2892190000 114.1425340000,22.2892330000 114.1431320000,22.2891840000 114.1438210000,22.2891320000 114.1438160000,22.2886800000 114.1438180000,22.2885980000 114.1426320000,22.2886310000 114.1417960000,22.2886450000 114.1410590000,22.2886560000 114.1408960000,22.2886580000 114.1408610000,22.2880390000 114.1408600000,22.2880110000 114.1408590000,22.2879880000 114.1408580000,22.2879640000 114.1408560000,22.2879360000 114.1408530000,22.2878310000 114.1408390000,22.2874290000 114.1408320000,22.2872060000 114.1408310000,22.2871660000 114.1408260000,22.2870170000 114.1408250000,22.2869670000 114.1408200000,22.2868120000 114.1408050000,22.2865730000 114.1407970000,22.2864070000 114.1407900000,22.2862040000 114.1407640000,22.2857050000 114.1407620000,22.2857050000 114.1407360000,22.2852270000 114.1406970000,22.2843000000 114.1406970000,22.2842140000 114.1406940000,22.2841910000 114.1404740000,22.2840880000 114.1403690000,22.2840470000 114.1403280000,22.2840390000 114.1402620000,22.2840390000 114.1402150000,22.2840460000 114.1401450000,22.2840710000 114.1400160000,22.2841320000 114.1398740000,22.2841960000 114.1397540000,22.2842290000 114.1396840000,22.2842380000 114.1395790000,22.2842330000 114.1394960000,22.2842150000 114.1394250000,22.2841790000 114.1393420000,22.2841220000 114.1392330000,22.2840280000 114.1391540000,22.2839590000 114.1391090000,22.2839350000 114.1390280000,22.2839210000 114.1389920000,22.2839210000 114.1389390000,22.2839200000 114.1388780000,22.2839330000 114.1388150000,22.2839560000 114.1387710000,22.2839800000 114.1386930000,22.2840570000 114.1385970000,22.2841980000 114.1385090000,22.2843860000 114.1384560000,22.2845020000 114.1384130000,22.2845760000 114.1383670000,22.2846390000 114.1383220000,22.2846840000 114.1381800000,22.2847330000 114.1380760000,22.2847580000 114.1379900000,22.2847660000 114.1378810000,22.2847720000 114.1375060000,22.2847660000 114.1374230000,22.2847630000 114.1372960000,22.2847600000 114.1372940000,22.2846350000 114.1372680000,22.2845690000 114.1371930000,22.2844850000 114.1369970000,22.2842670000 114.1368230000,22.2840530000 114.1367250000,22.2838980000 114.1366770000,22.2838150000 114.1366000000,22.2836790000 114.1365680000,22.2836250000 114.1365460000,22.2835940000 114.1365150000,22.2835660000 114.1364820000,22.2835470000 114.1364230000,22.2835210000 114.1363780000,22.2835090000 114.1363180000,22.2835020000 114.1362670000,22.2835010000 114.1361890000,22.2835060000 114.1360890000,22.2835180000 114.1360050000,22.2835440000 114.1359210000,22.2835780000 114.1358520000,22.2836100000 114.1357870000,22.2836480000 114.1357060000,22.2837000000 114.1356270000,22.2837590000 114.1355560000,22.2838150000 114.1354840000,22.2838770000 114.1354320000,22.2839230000 114.1352070000,22.2841170000 114.1350400000,22.2842040000 114.1348840000,22.2842660000 114.1347660000,22.2843050000 114.1346680000,22.2843290000 114.1345760000,22.2843490000 114.1344700000,22.2843640000 114.1343640000,22.2843650000 114.1342550000,22.2843630000 114.1341590000,22.2843560000 114.1340620000,22.2843410000 114.1339870000,22.2843230000 114.1339160000,22.2843030000 114.1338260000,22.2842690000 114.1337530000,22.2842300000 114.1337100000,22.2841980000 114.1336880000,22.2841780000 114.1335180000,22.2840090000 114.1328430000,22.2833370000 114.1328090000,22.2832940000 114.1327260000,22.2831900000 114.1326300000,22.2830040000 114.1325010000,22.2826090000 114.1324310000,22.2823830000 114.1323920000,22.2822580000 114.1323410000,22.2821200000 114.1323100000,22.2820320000 114.1321680000,22.2817730000 114.1320360000,22.2815680000 114.1318680000,22.2813290000 114.1317060000,22.2810950000 114.1316360000,22.2809600000 114.1315460000,22.2807030000 114.1315100000,22.2805740000 114.1314680000,22.2804240000 114.1313620000,22.2800440000 114.1312230000,22.2795450000 114.1311430000,22.2792560000 114.1310760000,22.2789190000 114.1310740000,22.2788970000 114.1310880000,22.2784100000 114.1310580000,22.2782230000 114.1309920000,22.2780220000 114.1309020000,22.2778280000 114.1307710000,22.2776450000 114.1307680000,22.2775500000 114.1306770000,22.2774150000 114.1306090000,22.2773270000 114.1303210000,22.2769360000 114.1301510000,22.2767390000 114.1299710000,22.2764520000 114.1298690000,22.2762400000 114.1298050000,22.2760080000 114.1297700000,22.2756970000 114.1298050000,22.2754350000 114.1298750000,22.2751120000 114.1299670000,22.2748450000 114.1299970000,22.2747230000 114.1300550000,22.2741830000 114.1300860000,22.2739150000 114.1302230000,22.2735320000 114.1304600000,22.2730840000 114.1307030000,22.2726270000 114.1307510000,22.2725030000 114.1308060000,22.2722770000 114.1308110000,22.2721050000 114.1307510000,22.2718700000 114.1306840000,22.2717570000 114.1303330000,22.2710900000 114.1302210000,22.2707990000 114.1301820000,22.2706120000 114.1301950000,22.2703710000 114.1302640000,22.2701130000 114.1303510000,22.2698970000 114.1307170000,22.2692840000 114.1308490000,22.2690610000 114.1311590000,22.2686080000 114.1317720000,22.2678620000 114.1319710000,22.2675000000 114.1321160000,22.2672820000 114.1323600000,22.2670340000 114.1324520000,22.2669490000 114.1329510000,22.2664880000 114.1331810000,22.2662420000 114.1333330000,22.2658410000 114.1333810000,22.2649680000 114.1334240000,22.2647210000 114.1334640000,22.2646340000 114.1335880000,22.2644580000 114.1339710000,22.2640550000 114.1340820000,22.2639080000 114.1343530000,22.2636030000 114.1347210000,22.2631680000 114.1348670000,22.2630370000 114.1350850000,22.2628910000 114.1353840000,22.2627310000 114.1355090000,22.2626540000 114.1355860000,22.2625890000 114.1356500000,22.2625320000 114.1357260000,22.2624450000 114.1357930000,22.2623370000 114.1359860000,22.2620260000 114.1360940000,22.2618540000 114.1361040000,22.2618380000 114.1361650000,22.2617200000 114.1362680000,22.2615190000 114.1363790000,22.2610800000 114.1364230000,22.2608510000 114.1365550000,22.2603500000 114.1365690000,22.2603010000 114.1365730000,22.2602770000 114.1365860000,22.2602070000 114.1366090000,22.2600140000 114.1366430000,22.2597670000 114.1366560000,22.2595880000 114.1366410000,22.2581510000 114.1366340000,22.2579970000 114.1366630000,22.2578200000 114.1367570000,22.2576010000 114.1368770000,22.2574330000 114.1372370000,22.2570540000 114.1373800000,22.2568510000 114.1376310000,22.2562970000 114.1378020000,22.2559310000 114.1378550000,22.2558020000 114.1379940000,22.2554620000 114.1383080000,22.2547780000 114.1384640000,22.2545670000 114.1386250000,22.2543480000 114.1392300000,22.2536890000 114.1392900000,22.2536340000 114.1396530000,22.2533110000 114.1400430000,22.2529830000 114.1402400000,22.2528110000 114.1405480000,22.2524800000 114.1407350000,22.2522920000 114.1408840000,22.2520880000 114.1410440000,22.2517900000 114.1413920000,22.2504710000 114.1414440000,22.2502830000 114.1414880000,22.2501790000 114.1415670000,22.2500510000 114.1416520000,22.2499310000 114.1417310000,22.2498360000 114.1418250000,22.2497380000 114.1419420000,22.2496530000 114.1420400000,22.2496020000 114.1421550000,22.2495370000 114.1422650000,22.2494890000 114.1424270000,22.2494220000 114.1429730000,22.2492300000 114.1431470000,22.2491830000 114.1433020000,22.2491690000 114.1434930000,22.2491630000 114.1436400000,22.2491740000 114.1443210000,22.2492800000 114.1447420000,22.2493510000 114.1449210000,22.2493680000 114.1450920000,22.2493800000 114.1453760000,22.2493830000 114.1458060000,22.2493990000 114.1459550000,22.2494130000 114.1460870000,22.2494340000 114.1463340000,22.2495010000 114.1464290000,22.2495350000 114.1465380000,22.2495860000 114.1468360000,22.2497380000 114.1469420000,22.2497790000 114.1470190000,22.2498030000 114.1471450000,22.2498280000 114.1472380000,22.2498300000 114.1473150000,22.2498220000 114.1474010000,22.2498060000 114.1477940000,22.2497060000 114.1479930000,22.2496350000 114.1481620000,22.2495580000 114.1482070000,22.2495360000 114.1482520000,22.2495140000 114.1483340000,22.2494670000 114.1488120000,22.2491320000 114.1492360000,22.2488340000 114.1493440000,22.2487750000 114.1494320000,22.2487450000 114.1495000000,22.2487300000 114.1496300000,22.2487100000 114.1497470000,22.2486930000 114.1498620000,22.2486710000 114.1500430000,22.2486260000 114.1501580000,22.2486100000 114.1502780000,22.2485880000 114.1512630000,22.2483410000 114.1516350000,22.2483380000 114.1517200000,22.2483340000 114.1518190000,22.2483340000 114.1518870000,22.2483430000 114.1519820000,22.2483640000 114.1522770000,22.2484610000 114.1528700000,22.2486910000 114.1529520000,22.2487300000 114.1530410000,22.2487760000 114.1531020000,22.2488150000 114.1531520000,22.2488550000 114.1531930000,22.2488950000 114.1532250000,22.2489430000 114.1532550000,22.2490140000 114.1533520000,22.2494060000 114.1533890000,22.2495380000 114.1534510000,22.2496310000 114.1535420000,22.2496970000 114.1536520000,22.2497640000 114.1537350000,22.2497880000 114.1537950000,22.2497880000 114.1542250000,22.2497130000 114.1542960000,22.2497000000 114.1544990000,22.2496630000 114.1547270000,22.2496210000 114.1552450000,22.2495370000 114.1553510000,22.2495110000 114.1555830000,22.2494470000 114.1556340000,22.2494080000 114.1557200000,22.2493480000 114.1557440000,22.2489920000 114.1557840000,22.2484230000 114.1558100000,22.2480420000 114.1558390000,22.2476340000 114.1558500000,22.2475780000 114.1558740000,22.2475140000 114.1559070000,22.2474610000 114.1559450000,22.2474030000 114.1559730000,22.2473570000 114.1560200000,22.2473010000 114.1561170000,22.2472190000 114.1562160000,22.2471560000 114.1564830000,22.2470530000 114.1568670000,22.2469820000 114.1569980000,22.2469890000 114.1574090000,22.2470710000 114.1576060000,22.2471360000 114.1583710000,22.2474200000 114.1592070000,22.2477240000 114.1593200000,22.2477620000 114.1593670000,22.2477790000 114.1599240000,22.2479620000 114.1601460000,22.2480500000 114.1603090000,22.2481130000 114.1611610000,22.2485280000 114.1612110000,22.2485450000 114.1613720000,22.2485980000 114.1615660000,22.2486490000 114.1617500000,22.2486790000 114.1619530000,22.2486880000 114.1621460000,22.2486840000 114.1629390000,22.2486130000 114.1638150000,22.2484770000 114.1643440000,22.2484040000 114.1649300000,22.2483410000 114.1650680000,22.2483380000 114.1652230000,22.2483460000 114.1654800000,22.2483820000 114.1656800000,22.2484140000 114.1658270000,22.2484500000 114.1660310000,22.2485080000 114.1661880000,22.2485680000 114.1664370000,22.2486740000 114.1669820000,22.2489320000 114.1675400000,22.2492070000 114.1692040000,22.2500270000 114.1694480000,22.2501510000 114.1695660000,22.2502050000 114.1696810000,22.2502530000 114.1698520000,22.2503160000 114.1701600000,22.2505180000 114.1701910000,22.2505490000 114.1702200000,22.2505810000 114.1702600000,22.2506300000 114.1702930000,22.2506770000 114.1703180000,22.2507200000 114.1704100000,22.2509200000 114.1704300000,22.2509600000 114.1704600000,22.2510100000 114.1705000000,22.2510600000 114.1705500000,22.2511010000 114.1706000000,22.2511370000 114.1706500000,22.2511620000 114.1706900000,22.2511720000 114.1707700000,22.2511850000 114.1708200000,22.2511800000 114.1708650000,22.2511700000 114.1709300000,22.2511500000 114.1709700000,22.2511300000 114.1710300000,22.2510700000 114.1710810000,22.2510020000 114.1711120000,22.2509300000 114.1711270000,22.2508600000 114.1711360000,22.2507770000 114.1711110000,22.2495200000 114.1711100000,22.2493160000 114.1711240000,22.2492340000 114.1711110000,22.2490010000 114.1711280000,22.2488990000 114.1711490000,22.2488230000 114.1711990000,22.2487100000 114.1712360000,22.2486250000 114.1712560000,22.2485980000 114.1712670000,22.2485660000 114.1712680000,22.2485330000 114.1712570000,22.2484960000 114.1712330000,22.2484650000 114.1712000000,22.2484420000 114.1711600000,22.2484300000 114.1711190000,22.2484310000 114.1709500000,22.2484550000 114.1707730000,22.2484600000 114.1697700000,22.2483270000 114.1696840000,22.2482780000 114.1696070000,22.2482290000 114.1695410000,22.2481640000 114.1694400000,22.2480420000 114.1691720000,22.2476060000 114.1690620000,22.2474000000 114.1690270000,22.2472570000 114.1690180000,22.2470370000 114.1690220000,22.2468190000 114.1690260000,22.2466650000 114.1690460000,22.2464850000 114.1690890000,22.2462470000 114.1690900000,22.2461060000 114.1690870000,22.2460370000 114.1690560000,22.2459510000 114.1690140000,22.2458750000 114.1689630000,22.2458180000 114.1688730000,22.2457360000 114.1687520000,22.2456610000 114.1684940000,22.2455370000 114.1682460000,22.2454490000 114.1680690000,22.2454000000 114.1678790000,22.2453690000 114.1675650000,22.2453990000 114.1674490000,22.2454340000 114.1673850000,22.2454540000 114.1671820000,22.2455290000 114.1668290000,22.2456960000 114.1666680000,22.2457930000 114.1665370000,22.2459120000 114.1664200000,22.2458560000 114.1662820000,22.2457780000 114.1662050000,22.2456640000 114.1660830000,22.2453950000 114.1660120000,22.2452150000 114.1659310000,22.2450400000 114.1658330000,22.2449130000 114.1657020000,22.2447670000 114.1655550000,22.2446420000 114.1654360000,22.2445510000 114.1651050000,22.2442650000 114.1645620000,22.2438190000 114.1642600000,22.2435730000 114.1641780000,22.2435060000 114.1640780000,22.2434060000 114.1640230000,22.2433450000 114.1639820000,22.2432790000 114.1639510000,22.2432080000 114.1639400000,22.2431330000 114.1639390000,22.2430630000 114.1639600000,22.2429900000 114.1639870000,22.2429280000 114.1640220000,22.2428880000 114.1640790000,22.2428370000 114.1640950000,22.2428270000 114.1641290000,22.2428040000 114.1641950000,22.2427770000 114.1642530000,22.2427570000 114.1642840000,22.2427550000 114.1643160000,22.2426820000 114.1643670000,22.2426690000 114.1645630000,22.2426770000 114.1645950000,22.2426990000 114.1646220000,22.2427590000 114.1643870000,22.2427470000 114.1642840000,22.2427550000 114.1642530000,22.2427570000 114.1641950000,22.2427770000 114.1641290000,22.2428040000 114.1640790000,22.2428370000 114.1640220000,22.2428880000 114.1639870000,22.2429280000 114.1639600000,22.2429900000 114.1639390000,22.2430630000 114.1639400000,22.2431330000 114.1639510000,22.2432080000 114.1639820000,22.2432790000 114.1640230000,22.2433450000 114.1640780000,22.2434060000 114.1641780000,22.2435060000 114.1642600000,22.2435730000 114.1645620000,22.2438190000 114.1651050000,22.2442650000 114.1654360000,22.2445510000 114.1655550000,22.2446420000 114.1657020000,22.2447670000 114.1658330000,22.2449130000 114.1659310000,22.2450400000 114.1660120000,22.2452150000 114.1660830000,22.2453950000 114.1662050000,22.2456640000 114.1662820000,22.2457780000 114.1664200000,22.2458560000 114.1665370000,22.2459120000 114.1664780000,22.2460400000 114.1664390000,22.2461270000 114.1663340000,22.2463650000 114.1663060000,22.2465300000 114.1663160000,22.2466380000 114.1663470000,22.2467870000 114.1663960000,22.2469480000 114.1664550000,22.2471090000 114.1665120000,22.2472290000 114.1666690000,22.2474770000 114.1667000000,22.2475360000 114.1667190000,22.2475680000 114.1667340000,22.2476050000 114.1667350000,22.2476750000 114.1667330000,22.2477050000 114.1667270000,22.2478010000 114.1667160000,22.2478550000 114.1666960000,22.2479100000 114.1666480000,22.2480810000 114.1664920000,22.2484900000 114.1662480000,22.2483800000 114.1661290000,22.2483410000 114.1659610000,22.2482940000 114.1657050000,22.2482320000 114.1654980000,22.2481830000 114.1653410000,22.2481640000 114.1652360000,22.2481630000 114.1650110000,22.2481610000 114.1648690000,22.2481690000 114.1643730000,22.2482520000 114.1638050000,22.2483320000 114.1629250000,22.2484600000 114.1621560000,22.2485630000 114.1619990000,22.2485680000 114.1619120000,22.2485720000 114.1616860000,22.2485500000 114.1616700000,22.2485480000 114.1614880000,22.2485060000 114.1612790000,22.2484260000 114.1610590000,22.2482960000 114.1610060000,22.2482330000 114.1609650000,22.2481660000 114.1609490000,22.2480800000 114.1609610000,22.2479250000 114.1610720000,22.2474520000 114.1610950000,22.2473570000 114.1611120000,22.2472300000 114.1611110000,22.2471330000 114.1611070000,22.2470660000 114.1610900000,22.2469810000 114.1610620000,22.2468930000 114.1610230000,22.2468010000 114.1609780000,22.2467160000 114.1609320000,22.2466470000 114.1608800000,22.2465890000 114.1608070000,22.2465140000 114.1604110000,22.2461510000 114.1589530000,22.2447870000 114.1588810000,22.2447330000 114.1586370000,22.2446010000 114.1583740000,22.2444940000 114.1581010000,22.2443670000 114.1579380000,22.2442630000 114.1578490000,22.2441890000 114.1577490000,22.2440860000 114.1576190000,22.2439220000 114.1575380000,22.2438100000 114.1575460000,22.2437190000 114.1575520000,22.2436390000 114.1575750000,22.2435590000 114.1576150000,22.2434810000 114.1576550000,22.2434660000 114.1577120000,22.2434510000 114.1577740000,22.2434430000 114.1579010000,22.2434410000 114.1579020000,22.2433790000 114.1579000000,22.2430280000 114.1579000000,22.2429900000 114.1579070000,22.2427160000 114.1579190000,22.2423810000 114.1578980000,22.2417920000 114.1578960000,22.2416750000 114.1578900000,22.2413210000 114.1578570000,22.2411870000 114.1577860000,22.2410670000 114.1576620000,22.2409610000 114.1574950000,22.2409130000 114.1572900000,22.2409200000 114.1571480000,22.2409900000 114.1570140000,22.2411520000 114.1569720000,22.2413610000 114.1569720000,22.2416970000 114.1569350000,22.2418390000 114.1568730000,22.2419240000 114.1568030000,22.2419810000 114.1566810000,22.2420160000 114.1563570000,22.2420090000 114.1562870000,22.2419440000 114.1562190000,22.2418710000 114.1561740000,22.2417870000 114.1562110000,22.2412030000 114.1562240000,22.2411490000 114.1562430000,22.2411080000 114.1562720000,22.2410730000 114.1563660000,22.2409630000 114.1563720000,22.2407620000 114.1562030000,22.2406930000 114.1560940000,22.2406650000 114.1560080000,22.2406560000 114.1559120000,22.2406410000 114.1556660000,22.2406340000 114.1551820000,22.2406390000 114.1551370000,22.2406400000 114.1550660000,22.2406590000 114.1549800000,22.2406990000 114.1549490000,22.2407290000 114.1549250000,22.2407840000 114.1548980000,22.2410030000 114.1548960000,22.2413420000 114.1548950000,22.2414040000 114.1548810000,22.2417730000 114.1549720000,22.2418970000 114.1550850000,22.2420070000 114.1559140000,22.2420180000 114.1561410000,22.2420100000 114.1563570000,22.2420090000 114.1566810000,22.2420160000 114.1568030000,22.2419810000 114.1568730000,22.2419240000 114.1569350000,22.2418390000 114.1569720000,22.2416970000 114.1569720000,22.2413610000 114.1570140000,22.2411520000 114.1571480000,22.2409900000 114.1572900000,22.2409200000 114.1574950000,22.2409130000 114.1576620000,22.2409610000 114.1577860000,22.2410670000 114.1578570000,22.2411870000 114.1578900000,22.2413210000 114.1578960000,22.2416750000 114.1578980000,22.2417920000 114.1579190000,22.2423810000 114.1579070000,22.2427160000 114.1579000000,22.2429900000 114.1579000000,22.2430280000 114.1579020000,22.2433790000 114.1577730000,22.2433810000 114.1576890000,22.2433880000 114.1575920000,22.2434050000 114.1575250000,22.2434290000 114.1574230000,22.2434900000 114.1573220000,22.2435780000 114.1571210000,22.2435020000 114.1569630000,22.2434800000 114.1567660000,22.2434880000 114.1565170000,22.2434990000 114.1563160000,22.2435030000 114.1560940000,22.2434850000 114.1557940000,22.2434160000 114.1556010000,22.2433340000 114.1553110000,22.2431750000 114.1548780000,22.2429550000 114.1547750000,22.2429010000 114.1547350000,22.2428790000 114.1544320000,22.2427280000 114.1543090000,22.2426810000 114.1541260000,22.2426340000 114.1539540000,22.2426170000 114.1538230000,22.2426190000 114.1537050000,22.2426240000 114.1535440000,22.2426510000 114.1531980000,22.2427680000 114.1529110000,22.2428850000 114.1526840000,22.2429730000 114.1524080000,22.2430640000 114.1523290000,22.2430870000 114.1519750000,22.2431790000 114.1518100000,22.2432400000 114.1516260000,22.2433320000 114.1515040000,22.2433340000 114.1514120000,22.2433270000 114.1513660000,22.2433180000 114.1513230000,22.2433090000 114.1511380000,22.2432590000 114.1507550000,22.2430100000 114.1496360000,22.2422220000 114.1493940000,22.2420660000 114.1492480000,22.2419620000 114.1488880000,22.2417040000 114.1487190000,22.2415830000 114.1485720000,22.2414650000 114.1484700000,22.2413390000 114.1483840000,22.2412020000 114.1483160000,22.2410500000 114.1482930000,22.2409540000 114.1482790000,22.2408200000 114.1483390000,22.2404230000 114.1484760000,22.2402000000 114.1487510000,22.2399540000 114.1491870000,22.2397980000 114.1498200000,22.2396600000 114.1503890000,22.2395580000 114.1509400000,22.2394530000 114.1515150000,22.2392710000 114.1518480000,22.2391080000 114.1519900000,22.2389900000 114.1523010000,22.2385750000 114.1528570000,22.2378790000 114.1532090000,22.2374120000 114.1535880000,22.2369180000</coordinates>
                </LineString>
                <ExtendedData>
                    <Data name="duration">
                        <value>01:18:56</value>
                    </Data>
                    <Data name="length">
                        <value>35688.912562178644</value>
                    </Data>
                </ExtendedData>
            </Placemark>
        </Document>
    </Document>
</kml>